{
    "utah":1,
    "canyonlands":1,
    "slickrock":1,
    "burnt":1,
    "lonely":1,
    "skyall":1,
    "lies":1,
    "beyond":1,
    "roads":1,
    "higher":1,
    "void":1,
    "nearly":1,
    "doing":1,
    "pike":1,
    "reply":1,
    "nice":1,
    "beautiful":1,
    "mine":1,
    "20":1,
    "17":1,
    "windy":1,
    "crazy":1,
    "harmless":1,
    "wasnt":1,
    "expecting":1,
    "surprised":1,
    "sneaking":1,
    "nervy":1,
    "lone":1,
    "walking":1,
    "mean":1,
    "50":1,
    "`wait":1,
    "minute":1,
    "wearing":1,
    "hockey":1,
    "paintings":1,
    "disorientated":1,
    "isnt":1,
    "climbs":1,
    "tricky":1,
    "worth":1,
    "upside":1,
    "appearing":1,
    "act":1,
    "faith":1,
    "dare":1,
    "surprise":1,
    "behave":1,
    "mother":1,
    "lure":1,
    "arent":1,
    "spin":1,
    "exquisite":1,
    "emerald":1,
    "pool":1,
    "60":1,
    "feet":1,
    "course":1,
    "fills":1,
    "dome":1,
    "version":1,
    "strips":1,
    "underwear":1,
    "traverses":1,
    "meg":1,
    "eat":1,
    "chocolate":1,
    "girlfriend":1,
    "special":1,
    "ah":1,
    "girlfriends":1,
    "story":1,
    "characters":1,
    "done":1,
    "46":1,
    "59":1,
    "ascents":1,
    "else":1,
    "mad":1,
    "continent":1,
    "old":1,
    "cattle":1,
    "guardians":1,
    "roofs":1,
    "caved":1,
    "spraypainted":1,
    "smelled":1,
    "solitude":1,
    "tunes":1,
    "indicates":1,
    "wilderness":1,
    "sing":1,
    "songs":1,
    "loud":1,
    "trace":1,
    "certified":1,
    "illegal":1,
    "instructor":1,
    "qualify":1,
    "22":1,
    "timecard":1,
    "ass":1,
    "grabbing":1,
    "shhh":1,
    "chimney":1,
    "ways":1,
    "heel":1,
    "butts":1,
    "lower":1,
    "scootch":1,
    "slick":1,
    "slime":1,
    "bomber":1,
    "handholds":1,
    "elevator":1,
    "control":1,
    "slide":1,
    "keeper":1,
    "bottom":1,
    "boost":1,
    "understand":1,
    "rappel":1,
    "shows":1,
    "8":1,
    "dark":1,
    "anyway":1,
    "miners":1,
    "snakes":1,
    "pose":1,
    "feathers":1,
    "party":1,
    "wed":1,
    "drive":1,
    "road":1,
    "40":1,
    "inflatable":1,
    "track":1,
    "thru":1,
    "kissing":1,
    "12":1,
    "keeps":1,
    "moving":1,
    "descending":1,
    "circumspect":1,
    "change":1,
    "pace":1,
    "allow":1,
    "whip":1,
    "practice":1,
    "selects":1,
    "plays":1,
    "cd":1,
    "stopping":1,
    "slipping":1,
    "evening":1,
    "las":1,
    "vegas":1,
    "wave":1,
    "adoration":1,
    "fellow":1,
    "fans":1,
    "sings":1,
    "snaps":1,
    "log":1,
    "arching":1,
    "reach":1,
    "241pm":1,
    "sat":1,
    "april":1,
    "26th":1,
    "2003":1,
    "yep":1,
    "desperate":1,
    "action":1,
    "undo":1,
    "moment":1,
    "gravity":1,
    "thrusting":1,
    "knees":1,
    "thighs":1,
    "pelvis":1,
    "neck":1,
    "relax":1,
    "taking":1,
    "stock":1,
    "1st":1,
    "314pm":1,
    "315pm":1,
    "crushed":1,
    "dying":1,
    "touches":1,
    "pushed":1,
    "hears":1,
    "crowd":1,
    "cheering":1,
    "playing":1,
    "throughout":1,
    "elements":1,
    "companions":1,
    "pov":1,
    "reflects":1,
    "tests":1,
    "potential":1,
    "laying":1,
    "sunglasses":1,
    "scratched":1,
    "ulok":1,
    "key":1,
    "harness":1,
    "cloth":1,
    "goggles":1,
    "rapelling":1,
    "equipment":1,
    "keys":1,
    "plastic":1,
    "grocery":1,
    "de":1,
    "hydration":1,
    "money":1,
    "credit":1,
    "cards":1,
    "green":1,
    "zippers":1,
    "stones":1,
    "419pm":1,
    "420":1,
    "blows":1,
    "whole":1,
    "mighty":1,
    "gust":1,
    "hole":1,
    "alternative":1,
    "digging":1,
    "instead":1,
    "result":1,
    "iron":1,
    "sweet":1,
    "size":1,
    "mountains":1,
    "pleasant":1,
    "unremarkable":1,
    "moon":1,
    "buzz":1,
    "aldrins":1,
    "shoulder":1,
    "neil":1,
    "armstrong":1,
    "certainly":1,
    "sounds":1,
    "cool":1,
    "places":1,
    "grain":1,
    "seashore":1,
    "aahhhhh":1,
    "alongside":1,
    "headlights":1,
    "join":1,
    "standing":1,
    "different":1,
    "hands":1,
    "step":1,
    "cross":1,
    "sparkling":1,
    "crescentshaped":1,
    "`town":1,
    "camps":1,
    "burning":1,
    "replaced":1,
    "astonishing":1,
    "sunrise":1,
    "nevada":1,
    "hoot":1,
    "holler":1,
    "smiles":1,
    "beautifully":1,
    "remember":1,
    "wants":1,
    "kill":1,
    "930am":1,
    "threeohfive":1,
    "sunday":1,
    "twentyfourhour":1,
    "mark":1,
    "parents":1,
    "donna":1,
    "larry":1,
    "englewood":1,
    "whoever":1,
    "finds":1,
    "appreciate":1,
    "blinks":1,
    "avoid":1,
    "screen":1,
    "facing":1,
    "alarmed":1,
    "wide":1,
    "eyed":1,
    "startled":1,
    "contrast":1,
    "slow":1,
    "slurred":1,
    "delivery":1,
    "happened":1,
    "wrist":1,
    "disappear":1,
    "horrifyingly":1,
    "skinny":1,
    "circulation":1,
    "colour":1,
    "grey":1,
    "unnhhhhhim":1,
    "stuff":1,
    "towards":1,
    "litre":1,
    "shakes":1,
    "rigging":1,
    "useless":1,
    "problem":1,
    "supporting":1,
    "chip":1,
    "moves":1,
    "settles":1,
    "feel":1,
    "microscopically":1,
    "smaller":1,
    "hardest":1,
    "suicide":1,
    "vehicle":1,
    "difficult":1,
    "fourth":1,
    "class":1,
    "impossible":1,
    "loss":1,
    "dehydration":1,
    "guts":1,
    "note":1,
    "dumb":1,
    "whirrs":1,
    "freaky":1,
    "arbitrary":1,
    "view":1,
    "desperation":1,
    "screaming":1,
    "distorting":1,
    "tiny":1,
    "speaker":1,
    "ones":1,
    "praying":1,
    "guidance":1,
    "supposed":1,
    "ideas":1,
    "breath":1,
    "explodes":1,
    "heaven":1,
    "silence":1,
    "breathing":1,
    "rate":1,
    "apparently":1,
    "busy":1,
    "devil":1,
    "listening":1,
    "trade":1,
    "soul":1,
    "dotted":1,
    "ungggggugggagggngh":1,
    "funny":1,
    "1159":1,
    "hoping":1,
    "urgent":1,
    "york":1,
    "weekend":1,
    "clearly":1,
    "answer":1,
    "week":1,
    "freaking":1,
    "hope":1,
    "monday":1,
    "bummer":1,
    "trying":1,
    "create":1,
    "61":1,
    "system":1,
    "ration":1,
    "carabiners":1,
    "dissipating":1,
    "force":1,
    "apply":1,
    "sitting":1,
    "flies":1,
    "overhead":1,
    "clocked":1,
    "815":1,
    "bet":1,
    "hundred":1,
    "fifty":1,
    "millilitres":1,
    "ounces":1,
    "twice":1,
    "within":1,
    "possible":1,
    "dehydrated":1,
    "forgot":1,
    "save":1,
    "smells":1,
    "foul":1,
    "settle":1,
    "chill":1,
    "polar":1,
    "nine":1,
    "precious":1,
    "stored":1,
    "number":1,
    "twos":1,
    "disappoint":1,
    "insect":1,
    "theyre":1,
    "wait":1,
    "sunlight":1,
    "15":1,
    "935":1,
    "apart":1,
    "uselessly":1,
    "routine":1,
    "generate":1,
    "making":1,
    "worse":1,
    "settling":1,
    "remove":1,
    "material":1,
    "chipped":1,
    "flakes":1,
    "rotated":1,
    "elastic":1,
    "tubing":1,
    "insulation":1,
    "stretchy":1,
    "supple":1,
    "strong":1,
    "emerges":1,
    "snake":1,
    "wraps":1,
    "inches":1,
    "overhand":1,
    "tightened":1,
    "teeth":1,
    "2nd":1,
    "3rd":1,
    "clips":1,
    "carabiner":1,
    "twists":1,
    "tight":1,
    "aches":1,
    "multitool":1,
    "presses":1,
    "repeats":1,
    "harder":1,
    "saws":1,
    "viciously":1,
    "releases":1,
    "flow":1,
    "returns":1,
    "series":1,
    "angry":1,
    "lines":1,
    "establish":1,
    "themselves":1,
    "sawing":1,
    "blunt":1,
    "proper":1,
    "leatherman":1,
    "knockoff":1,
    "gift":1,
    "torch":1,
    "sis":1,
    "firsthand":1,
    "championships":1,
    "went":1,
    "placed":1,
    "national":1,
    "competitions":1,
    "tenth":1,
    "overall":1,
    "speech":1,
    "debate":1,
    "nation":1,
    "damn":1,
    "directly":1,
    "imagine":1,
    "living":1,
    "room":1,
    "thinking":1,
    "friend":1,
    "rob":1,
    "aspen":1,
    "frequently":1,
    "confusingly":1,
    "hung":1,
    "thought":1,
    "wrapped":1,
    "unhappy":1,
    "ambitious":1,
    "energetic":1,
    "wind":1,
    "interrupts":1,
    "ice":1,
    "killing":1,
    "winds":1,
    "struggles":1,
    "complete":1,
    "logistical":1,
    "american":1,
    "express":1,
    "insurance":1,
    "cover":1,
    "costs":1,
    "recovery":1,
    "operation":1,
    "happen":1,
    "bank":1,
    "account":1,
    "balances":1,
    "creditcard":1,
    "debts":1,
    "sell":1,
    "possession":1,
    "wise":1,
    "use":1,
    "computer":1,
    "massive":1,
    "crack":1,
    "land":1,
    "staring":1,
    "unblinking":1,
    "corridor":1,
    "contact":1,
    "lenses":1,
    "mirrors":1,
    "hits":1,
    "invisible":1,
    "bomb":1,
    "dropping":1,
    "gasps":1,
    "throws":1,
    "floor":1,
    "gasping":1,
    "thumped":1,
    "alert":1,
    "display":1,
    "2029":1,
    "2030":1,
    "battery":1,
    "rewinding":1,
    "hurtling":1,
    "backwards":1,
    "spoons":1,
    "disturbing":1,
    "tangy":1,
    "bitter":1,
    "saltiness":1,
    "wince":1,
    "nut":1,
    "pay":1,
    "stain":1,
    "dirt":1,
    "shorts":1,
    "paste":1,
    "screws":1,
    "lid":1,
    "slowly":1,
    "bothered":1,
    "mouth":1,
    "difficulty":1,
    "puts":1,
    "murky":1,
    "bloody":1,
    "`good":1,
    "america":1,
    "645":1,
    "bj":1,
    "weather":1,
    "housemate":1,
    "hopefully":1,
    "theyll":1,
    "showing":1,
    "brion":1,
    "best":1,
    "case":1,
    "scenario":1,
    "notify":1,
    "file":1,
    "persons":1,
    "noon":1,
    "official":1,
    "tiniest":1,
    "resortedive":1,
    "gulps":1,
    "sorta":1,
    "distillit":1,
    "tastes":1,
    "70":1,
    "consumed":1,
    "liters":1,
    "mouthfuls":1,
    "piss":1,
    "shudders":1,
    "ridiculous":1,
    "composes":1,
    "blink":1,
    "awesome":1,
    "havent":1,
    "appreciated":1,
    "calls":1,
    "ever":1,
    "lived":1,
    "year":1,
    "learned":1,
    "lessons":1,
    "astutely":1,
    "rapidly":1,
    "than":1,
    "liftoff":1,
    "bounces":1,
    "weight":1,
    "stirrups":1,
    "haul":1,
    "better":1,
    "set":1,
    "dammit":1,
    "whoa":1,
    "pokes":1,
    "tool":1,
    "ouch":1,
    "viewers":1,
    "home":1,
    "precisely":1,
    "oclock":1,
    "sip":1,
    "hide":1,
    "pans":1,
    "zooms":1,
    "smattered":1,
    "bright":1,
    "career":1,
    "surgery":1,
    "turned":1,
    "knives":1,
    "close":1,
    "task":1,
    "inchwide":1,
    "goes":1,
    "inch":1,
    "fatty":1,
    "tissue":1,
    "muscle":1,
    "tendon":1,
    "bones":1,
    "anyways":1,
    "relaxed":1,
    "bothersome":1,
    "considering":1,
    "youd":1,
    "expect":1,
    "definitely":1,
    "pulsing":1,
    "831am":1,
    "adverts":1,
    "7up":1,
    "putt":1,
    "sized":1,
    "televised":1,
    "billboard":1,
    "radio":1,
    "tab":1,
    "cans":1,
    "spit":1,
    "slurpees":1,
    "hammering":1,
    "grapefruit":1,
    "juice":1,
    "oj":1,
    "popsicles":1,
    "`owwww":1,
    "carries":1,
    "temperature":1,
    "57":1,
    "56":1,
    "55":1,
    "chattering":1,
    "body":1,
    "fire":1,
    "furious":1,
    "comfort":1,
    "vengeance":1,
    "bacon":1,
    "beans":1,
    "pisses":1,
    "0202=0303=0404":1,
    "interior":1,
    "waving":1,
    "decants":1,
    "front":1,
    "vo":1,
    "piled":1,
    "creaking":1,
    "stench":1,
    "margaritas":1,
    "excess":1,
    "runs":1,
    "retch":1,
    "jerk":1,
    "legs":1,
    "`fuck":1,
    "0505":1,
    "stinks":1,
    "eyeball":1,
    "eyelid":1,
    "rustles":1,
    "finished":1,
    "tucks":1,
    "footage":1,
    "rambling":1,
    "swig":1,
    "applies":1,
    "winces":1,
    "lip":1,
    "balm":1,
    "somehow":1,
    "bites":1,
    "`thats":1,
    "masticates":1,
    "chewing":1,
    "diet":1,
    "waits":1,
    "arons":1,
    "slurpee":1,
    "kicks":1,
    "lands":1,
    "desultory":1,
    "slit":1,
    "blackness":1,
    "reveals":1,
    "jon":1,
    "clothes":1,
    "licks":1,
    "switch":1,
    "flicks":1,
    "moisture":1,
    "metal":1,
    "shelves":1,
    "condensation":1,
    "cleaning":1,
    "supplies":1,
    "appear":1,
    "shots":1,
    "sides":1,
    "industrial":1,
    "mop":1,
    "gear":1,
    "ranas":1,
    "remaining":1,
    "lightan":1,
    "smiling":1,
    "accelerating":1,
    "carousel":1,
    "scale":1,
    "compared":1,
    "strength":1,
    "anything":1,
    "rumbling":1,
    "thunderous":1,
    "bear":1,
    "image":1,
    "dawn":1,
    "crumpled":1,
    "paper":1,
    "creased":1,
    "stretched":1,
    "screens":1,
    "louder":1,
    "obscuring":1,
    "horse":1,
    "leaps":1,
    "ft":1,
    "once":1,
    "theyve":1,
    "followed":1,
    "dozens":1,
    "falling":1,
    "lightly":1,
    "horses":1,
    "stampeding":1,
    "roof":1,
    "date":1,
    "smirks":1,
    "everythings":1,
    "fucked":1,
    "play":1,
    "wedding":1,
    "tape":1,
    "basement":1,
    "lounge":1,
    "1993":1,
    "1994":1,
    "music":1,
    "mozart":1,
    "beethoven":1,
    "bach":1,
    "chopin":1,
    "played":1,
    "boyand":1,
    "looked":1,
    "cousin":1,
    "charlie":1,
    "young":1,
    "created":1,
    "natural":1,
    "descent":1,
    "women":1,
    "trouble":1,
    "came":1,
    "spot":1,
    "rage":1,
    "blooms":1,
    "purple":1,
    "swells":1,
    "anger":1,
    "nostrils":1,
    "flaring":1,
    "slab":1,
    "pressing":1,
    "damp":1,
    "coz":1,
    "mosquitoes":1,
    "rid":1,
    "garbage":1,
    "haunches":1,
    "webbing":1,
    "waist":1,
    "detaches":1,
    "able":1,
    "preventing":1,
    "gunshot":1,
    "breaks":1,
    "ricochets":1,
    "rises":1,
    "sees":1,
    "violently":1,
    "feels":1,
    "serrated":1,
    "successful":1,
    "gun":1,
    "shot":1,
    "smashes":1,
    "heavily":1,
    "euphoric":1,
    "possessed":1,
    "checks":1,
    "underneath":1,
    "broken":1,
    "rotate":1,
    "housing":1,
    "giving":1,
    "wake":1,
    "grabs":1,
    "closer":1,
    "surge":1,
    "energy":1,
    "somewhere":1,
    "saturday":1,
    "lost":1,
    "start":1,
    "talked":1,
    "ranger":1,
    "parked":1,
    "owner":1,
    "might":1,
    "joked":1,
    "53":1,
    "kilometres":1,
    "gallery":1,
    "cried":1,
    "monique":1,
    "immediately":1,
    "realized":1,
    "oreos":1,
    "helicopter":1,
    "run":1,
    "fastest":1,
    "parking":1,
    "signal":1,
    "nobody":1,
    "london":1,
    "buses":1,
    "confronted":1,
    "cell":1,
    "training":1,
    "vomit":1,
    "drinks":1,
    "overhears":1,
    "gotta":1,
    "tie":1,
    "shoe":1,
    "lace":1,
    "sits":1,
    "slumps":1,
    "absolutely":1,
    "motionless":1,
    "erik":1,
    "talk":1,
    "pop":1,
    "spins":1,
    "distantly":1,
    "terrible":1,
    "seat":1,
    "buddy":1,
    "thank":1,
    "bringing":1,
    "senior":1,
    "burly":1,
    "men":1,
    "miracle":1,
    "used":1,
    "kid":1,
    "stand":1,
    "greeted":1,
    "medics":1,
    "needles":1,
    "machines":1,
    "tubes":1,
    "strokes":1,
    "gently":1,
    "feeling":1,
    "youve":1,
    "asleep":1,
    "lucky":1,
    "shes":1,
    "decent":1,
    "woman":1,
    "devoted":1,
    "mum":1,
    "weary":1,
    "worn":1,
    "worry":1,
    "scared":1,
    "vegetarian":1,
    "hotdogs":1,
    "tickets":1,
    "outside":1,
    "gate":1,
    "hospital":1,
    "christine":1,
    "scary":1,
    "prosthetic":1,
    "axe":1,
    "clinks":1,
    "points":1,
    "smile":1,
    "finish":1,
    "49ers":1,
    "both":1,
    "answers":1,
    "hallucinating":1,
    "child":1,
    "blond":1,
    "jesus":1,
    "leans":1,
    "tenderly":1,
    "kisses":1,
    "cares":1,
    "dies":1,
    "hero":1,
    "fly":1,
    "forgiven":1,
    "sheer":1,
    "dust":2,
    "cliffs":2,
    "east":2,
    "while":2,
    "girls":2,
    "megan":2,
    "meet":2,
    "trail":2,
    "quiet":2,
    "biked":2,
    "sorry":2,
    "seeing":2,
    "guy":2,
    "middle":2,
    "behind":2,
    "guess":2,
    "map":2,
    "thousands":2,
    "holds":2,
    "almost":2,
    "swear":2,
    "fall":2,
    "most":2,
    "below":2,
    "voice":2,
    "film":2,
    "yes":2,
    "solo":2,
    "wow":2,
    "highest":2,
    "colorado":2,
    "enough":2,
    "house":2,
    "motel":2,
    "weird":2,
    "though":2,
    "leave":2,
    "hard":2,
    "catch":2,
    "sign":2,
    "put":2,
    "squat":2,
    "under":2,
    "butt":2,
    "shoes":2,
    "shaft":2,
    "friction":2,
    "big":2,
    "before":2,
    "lamp":2,
    "picture":2,
    "hair":2,
    "friends":2,
    "having":2,
    "late":2,
    "cheek":2,
    "hike":2,
    "truck":2,
    "hang":2,
    "beers":2,
    "easy":2,
    "headphones":2,
    "ready":2,
    "whether":2,
    "pushing":2,
    "reverse":2,
    "simple":2,
    "breathes":2,
    "check":2,
    "stares":2,
    "working":2,
    "reaches":2,
    "opening":2,
    "blades":2,
    "yellow":2,
    "rope":2,
    "stick":2,
    "0000":2,
    "anywhere":2,
    "near":2,
    "marks":2,
    "picks":2,
    "something":2,
    "cawcaw":2,
    "lights":2,
    "vehicles":2,
    "draws":2,
    "hold":2,
    "being":2,
    "stuck":2,
    "name":2,
    "attempt":2,
    "hiking":2,
    "yesterday":2,
    "does":2,
    "24":2,
    "deep":2,
    "third":2,
    "happening":2,
    "every":2,
    "probably":2,
    "die":2,
    "summons":2,
    "evidence":2,
    "sky":2,
    "maybe":2,
    "elbow":2,
    "new":2,
    "stops":2,
    "heart":2,
    "tuesday":2,
    "=":2,
    "figures":2,
    "dads":2,
    "call":2,
    "called":2,
    "spent":2,
    "believe":2,
    "peed":2,
    "few":2,
    "minutes":2,
    "saved":2,
    "hot":2,
    "appears":2,
    "warmth":2,
    "area":2,
    "thin":2,
    "perfect":2,
    "blade":2,
    "short":2,
    "tourniquet":2,
    "pathetic":2,
    "break":2,
    "free":2,
    "gave":2,
    "proud":2,
    "heard":2,
    "made":2,
    "also":2,
    "found":2,
    "shivers":2,
    "box":2,
    "sense":2,
    "say":2,
    "reflected":2,
    "eye":2,
    "sweating":2,
    "later":2,
    "swallows":2,
    "makes":2,
    "attention":2,
    "etc":2,
    "leona":2,
    "hi":2,
    "hour":2,
    "police":2,
    "report":2,
    "hell":2,
    "trailhead":2,
    "id":2,
    "wanted":2,
    "wish":2,
    "returned":2,
    "full":2,
    "wound":2,
    "gash":2,
    "may":2,
    "eight":2,
    "clean":2,
    "saw":2,
    "bleeding":2,
    "bad":2,
    "small":2,
    "table":2,
    "forward":2,
    "pictures":2,
    "food":2,
    "sound":2,
    "dead":2,
    "mess":2,
    "drops":2,
    "open":2,
    "5":2,
    "medical":2,
    "mejers":2,
    "holland":2,
    "rest":2,
    "phone":2,
    "wayne":2,
    "peace":2,
    "passeth":2,
    "understanding":2,
    "red":3,
    "end":3,
    "even":3,
    "hey":3,
    "along":3,
    "own":3,
    "kristi":3,
    "straight":3,
    "horseshoe":3,
    "let":3,
    "cathedral":3,
    "weve":3,
    "tell":3,
    "wont":3,
    "care":3,
    "lets":3,
    "song":3,
    "mind":3,
    "girl":3,
    "yet":3,
    "person":3,
    "climb":3,
    "someone":3,
    "empty":3,
    "those":3,
    "beer":3,
    "man":3,
    "okay":3,
    "whatever":3,
    "onto":3,
    "move":3,
    "part":3,
    "try":3,
    "drop":3,
    "far":3,
    "another":3,
    "raven":3,
    "their":3,
    "scooby":3,
    "doo":3,
    "miss":3,
    "starts":3,
    "itll":3,
    "waiting":3,
    "pack":3,
    "begins":3,
    "coming":3,
    "second":3,
    "pull":3,
    "stop":3,
    "bottle":3,
    "everything":3,
    "same":3,
    "pause":3,
    "luminous":3,
    "takes":3,
    "seems":3,
    "gap":3,
    "chockstone":3,
    "gone":3,
    "doesnt":3,
    "place":3,
    "four":3,
    "actually":3,
    "because":3,
    "getting":3,
    "could":3,
    "two":3,
    "half":3,
    "god":3,
    "am":3,
    "fast":3,
    "dad":3,
    "quickly":3,
    "drink":3,
    "gonna":3,
    "has":3,
    "already":3,
    "neoprene":3,
    "knot":3,
    "point":3,
    "sonja":3,
    "says":3,
    "several":3,
    "happy":3,
    "noise":3,
    "eyes":3,
    "sediment":3,
    "everyone":3,
    "work":3,
    "missing":3,
    "couple":3,
    "during":3,
    "bone":3,
    "took":3,
    "against":3,
    "grows":3,
    "find":3,
    "smash":3,
    "boy":3,
    "desert":4,
    "above":4,
    "turn":4,
    "missed":4,
    "other":4,
    "day":4,
    "bike":4,
    "car":4,
    "laugh":4,
    "anyone":4,
    "today":4,
    "kind":4,
    "why":4,
    "until":4,
    "take":4,
    "ralston":4,
    "any":4,
    "listen":4,
    "top":4,
    "her":4,
    "winter":4,
    "figure":4,
    "side":4,
    "oh":4,
    "youll":4,
    "foot":4,
    "our":4,
    "give":4,
    "lift":4,
    "tomorrow":4,
    "should":4,
    "last":4,
    "3":4,
    "cold":4,
    "round":4,
    "times":4,
    "without":4,
    "over":4,
    "split":4,
    "changes":4,
    "trapped":4,
    "skin":4,
    "sand":4,
    "she":4,
    "rana":4,
    "john":4,
    "please":4,
    "would":4,
    "himself":4,
    "pulls":4,
    "show":4,
    "forearm":4,
    "between":4,
    "means":4,
    "things":4,
    "tried":4,
    "chipping":4,
    "lens":4,
    "since":4,
    "had":4,
    "knife":4,
    "barely":4,
    "through":4,
    "chose":4,
    "told":4,
    "black":5,
    "each":5,
    "sure":5,
    "pretty":5,
    "lot":5,
    "suddenly":5,
    "right":5,
    "keep":5,
    "first":5,
    "much":5,
    "thing":5,
    "phish":5,
    "myself":5,
    "never":5,
    "lots":5,
    "guys":5,
    "these":5,
    "huge":5,
    "2":5,
    "switches":5,
    "will":5,
    "together":5,
    "blue":5,
    "going":5,
    "help":5,
    "hear":5,
    "camelbak":5,
    "urine":5,
    "after":5,
    "hate":5,
    "miles":6,
    "around":6,
    "youre":6,
    "great":6,
    "when":6,
    "watch":6,
    "always":6,
    "6":6,
    "next":6,
    "across":6,
    "way":6,
    "night":6,
    "good":6,
    "boulder":6,
    "been":6,
    "only":6,
    "climbing":6,
    "shit":6,
    "line":6,
    "make":6,
    "camera":6,
    "video":6,
    "inside":6,
    "morning":6,
    "days":6,
    "into":7,
    "us":7,
    "want":7,
    "hours":7,
    "wall":7,
    "how":7,
    "fuck":7,
    "nothing":7,
    "fucking":7,
    "too":7,
    "were":7,
    "looking":7,
    "very":7,
    "cut":7,
    "light":7,
    "which":8,
    "hes":8,
    "away":8,
    "really":8,
    "long":8,
    "ive":8,
    "didnt":8,
    "blood":8,
    "face":8,
    "need":8,
    "again":9,
    "or":9,
    "thats":9,
    "bit":9,
    "cant":9,
    "ill":9,
    "by":9,
    "if":9,
    "love":9,
    "hand":9,
    "still":9,
    "come":10,
    "look":10,
    "got":10,
    "little":10,
    "them":10,
    "ok":10,
    "an":10,
    "think":10,
    "who":10,
    "dont":11,
    "head":11,
    "more":11,
    "down":11,
    "then":11,
    "go":11,
    "back":11,
    "left":12,
    "yeah":12,
    "where":12,
    "about":12,
    "now":12,
    "time":12,
    "bag":12,
    "some":12,
    "mom":12,
    "did":13,
    "arm":13,
    "rock":13,
    "one":14,
    "see":15,
    "just":15,
    "there":15,
    "canyon":15,
    "know":15,
    "off":15,
    "well":15,
    "looks":15,
    "water":15,
    "here":16,
    "was":16,
    "what":17,
    "they":17,
    "im":18,
    "all":18,
    "be":18,
    "up":19,
    "theres":19,
    "have":19,
    "as":20,
    "from":21,
    "do":21,
    "him":22,
    "can":22,
    "so":22,
    "out":22,
    "not":22,
    "your":24,
    "get":24,
    "are":25,
    "like":25,
    "no":27,
    "me":27,
    "we":31,
    "with":35,
    "aron":35,
    "my":36,
    "but":37,
    "for":39,
    "":41,
    "is":42,
    "that":48,
    "this":48,
    "at":48,
    "on":48,
    "his":54,
    "its":58,
    "in":60,
    "it":71,
    "he":74,
    "you":90,
    "of":103,
    "to":106,
    "a":114,
    "i":145,
    "and":146,
    "the":246
}