{
    "schmidtdid":1,
    "jinx":1,
    "tubby":1,
    "terry":1,
    "janet":1,
    "corsage":1,
    "involves":1,
    "rub":1,
    "ohuh":1,
    "worries":1,
    "\u2018cuz":1,
    "melodies":1,
    "save":1,
    "schmiddty":1,
    "embarrassment":1,
    "crushed":1,
    "heartbroken":1,
    "chuckle":1,
    "greg":1,
    "grades":1,
    "woman":1,
    "piper":1,
    "graduating":1,
    "jackoff":1,
    "70":1,
    "grand":1,
    "tackle":1,
    "sounded":1,
    "ow":1,
    "question":1,
    "you\u2019d":1,
    "likein":1,
    "space":1,
    "likea":1,
    "spacelab":1,
    "studying":1,
    "started":1,
    "physics":1,
    "degree":1,
    "sitting":1,
    "action":1,
    "whoayou\u2019re":1,
    "kickery":1,
    "feeding":1,
    "ducks":1,
    "slowly":1,
    "defiantly":1,
    "youdon\u2019t":1,
    "youyou":1,
    "patrol":1,
    "serious":1,
    "duty":1,
    "joint":1,
    "cannibas":1,
    "sativa":1,
    "kickstands":1,
    "helmets":1,
    "stride":1,
    "web":1,
    "tattoo":1,
    "leader":1,
    "gentlemen":1,
    "glaucoma":1,
    "forgotten":1,
    "marijuana":1,
    "crowds":1,
    "search":1,
    "halloween":1,
    "busts":1,
    "hilarious":1,
    "clever":1,
    "fellas":1,
    "pig":1,
    "dudethat":1,
    "genitals":1,
    "penis":1,
    "fall":1,
    "clarified":1,
    "bolt":1,
    "directions":1,
    "foot":1,
    "chase":1,
    "hops":1,
    "ultimately":1,
    "overtaking":1,
    "skids":1,
    "sprints":1,
    "yeeeaahhhh":1,
    "heroes":1,
    "arrived":1,
    "cartel":1,
    "nobody":1,
    "acknowledges":1,
    "bench":1,
    "children\u2019s":1,
    "rate":1,
    "hookers":1,
    "hardys":1,
    "40s":1,
    "sits":1,
    "sit":1,
    "da":1,
    "streets":1,
    "forced":1,
    "charges":1,
    "arresting":1,
    "umwell":1,
    "uhyou":1,
    "attorneyanduh":1,
    "affordjenko":1,
    "affordhardy":1,
    "blind":1,
    "chasing":1,
    "perp":1,
    "wellhe":1,
    "heumhe":1,
    "elbow":1,
    "ohcan":1,
    "retracts":1,
    "wound":1,
    "instead":1,
    "screwed":1,
    "breath":1,
    "fortunately":1,
    "solution":1,
    "presented":1,
    "reviving":1,
    "cancelled":1,
    "80s":1,
    "revamping":1,
    "modern":1,
    "lack":1,
    "creativity":1,
    "ideas":1,
    "recycle":1,
    "past":1,
    "notice":1,
    "relied":1,
    "immature":1,
    "seeming":1,
    "slave":1,
    "ring":1,
    "officially":1,
    "transferred":1,
    "dicki":1,
    "prefer":1,
    "report":1,
    "37":1,
    "twentyi":1,
    "avenue":1,
    "cathy":1,
    "detail":1,
    "address":1,
    "comfortable":1,
    "lounging":1,
    "pews":1,
    "talkin\u2019":1,
    "entire":1,
    "generation":1,
    "motherfucking":1,
    "posture":1,
    "theft":1,
    "stabbings":1,
    "booties":1,
    "soon":1,
    "planet":1,
    "everybody\u2019s":1,
    "\u201cangry":1,
    "captain\u201d":1,
    "stereotype":1,
    "stereotypes":1,
    "truth":1,
    "33":1,
    "56":1,
    "easthaven":1,
    "29":1,
    "collars":1,
    "sanders":1,
    "south":1,
    "glen":1,
    "47":1,
    "ain\u2019t":1,
    "heavy":1,
    "believable":1,
    "seamlessly":1,
    "integrated":1,
    "mall":1,
    "kiddie":1,
    "clothes":1,
    "teenagering":1,
    "kriskross":1,
    "shave":1,
    "wax":1,
    "schoolers":1,
    "bush":1,
    "covered":1,
    "showering":1,
    "pubes":1,
    "shower":1,
    "swimsuit":1,
    "showers":1,
    "bathing":1,
    "system":1,
    "protection":1,
    "principals":1,
    "flunking":1,
    "skipping":1,
    "consume":1,
    "provide":1,
    "fist":1,
    "romantic":1,
    "involvement":1,
    "ladykillers":1,
    "professional":1,
    "cherub":1,
    "oldschool":1,
    "jaw":1,
    "version":1,
    "boobs":1,
    "internet":1,
    "laptop":1,
    "willingham":1,
    "population":1,
    "whirl":1,
    "document":1,
    "reputed":1,
    "\u201cphases\u201d":1,
    "synthetic":1,
    "\u201chfs\u201d":1,
    "post":1,
    "fit":1,
    "giggs":1,
    "vid":1,
    "httpwwwyoutubecomwatchv=tvk5sgeenkyfeature=related":1,
    "tripping":1,
    "major":1,
    "ballsack":1,
    "tiny":1,
    "lion":1,
    "belly":1,
    "button":1,
    "tickles":1,
    "confidence":1,
    "invincible":1,
    "crowwwwwwww":1,
    "ruled":1,
    "arizona":1,
    "lab\u2019s":1,
    "addictive":1,
    "localized":1,
    "trickles":1,
    "dorky":1,
    "breaches":1,
    "containment":1,
    "viral":1,
    "looked":1,
    "transcript":1,
    "werent":1,
    "enrolled":1,
    "photography":1,
    "ceramics":1,
    "ecology":1,
    "remedial":1,
    "burnouts":1,
    "virgin":1,
    "assumed":1,
    "membership":1,
    "juggling":1,
    "society":1,
    "enrolling":1,
    "investigate":1,
    "stare":1,
    "cater":1,
    "christians":1,
    "exist":1,
    "anxiety":1,
    "decade":1,
    "pussy":1,
    "swearing":1,
    "end":1,
    "praying":1,
    "jesus\u2019":1,
    "asian":1,
    "momma\u2019s":1,
    "bio\u2019s":1,
    "apartments":1,
    "emancipated":1,
    "wreck":1,
    "disney":1,
    "channel":1,
    "stars":1,
    "duration":1,
    "graduation":1,
    "\u201cbrother\u201d":1,
    "grown":1,
    "infant":1,
    "angel":1,
    "gorgeous":1,
    "stylist":1,
    "lesbian":1,
    "air":1,
    "mattress":1,
    "using":1,
    "workout":1,
    "elliptical":1,
    "sedona":1,
    "expensive":1,
    "lovely":1,
    "spiritual":1,
    "moved":1,
    "tryer":1,
    "participation":1,
    "fourth":1,
    "soccer":1,
    "worse":1,
    "gotten":1,
    "neighborhood":1,
    "mission":1,
    "adorable":1,
    "proud":1,
    "identity":1,
    "socks":1,
    "mangoing":1,
    "insightful":1,
    "worried":1,
    "dreamed":1,
    "ii":1,
    "biff":1,
    "scores":1,
    "rich":1,
    "rode":1,
    "floating":1,
    "skateboard":1,
    "marty\u2019s":1,
    "interesting":1,
    "film":1,
    "works":1,
    "reallyget":1,
    "along":1,
    "tests":1,
    "expert":1,
    "embarrass":1,
    "onestrap":1,
    "coolness":1,
    "clock":1,
    "kickass":1,
    "wheels":1,
    "revving":1,
    "drives":1,
    "camaro":1,
    "stunt":1,
    "hood":1,
    "laugh":1,
    "apple":1,
    "turkey":1,
    "sandwich":1,
    "rollup":1,
    "uch":1,
    "seniors":1,
    "eat":1,
    "offcampus":1,
    "discussion":1,
    "food":1,
    "afterthought":1,
    "beer":1,
    "note":1,
    "lunches":1,
    "strapping":1,
    "puts":1,
    "succumb":1,
    "confused":1,
    "18":1,
    "ecofriendly":1,
    "16":1,
    "attractive":1,
    "teens":1,
    "custom":1,
    "bicycles":1,
    "saw":1,
    "roar":1,
    "miles":1,
    "gallon":1,
    "leans":1,
    "hardcore":1,
    "biodiesel":1,
    "dawg":1,
    "smells":1,
    "egg":1,
    "rolls":1,
    "leftover":1,
    "fry":1,
    "oil":1,
    "hunan":1,
    "palace":1,
    "global":1,
    "whatnot":1,
    "backpedals":1,
    "history":1,
    "flush":1,
    "calling":1,
    "turn":1,
    "afterwards":1,
    "president":1,
    "dadier":1,
    "unlike":1,
    "adult":1,
    "level":1,
    "mid":1,
    "twenties":1,
    "someday":1,
    "grownup":1,
    "education":1,
    "possibly":1,
    "awful":1,
    "nobody\u2019s":1,
    "breakdown":1,
    "expel":1,
    "thin":1,
    "thread":1,
    "straw":1,
    "broke":1,
    "camels":1,
    "schedules":1,
    "brainy":1,
    "although":1,
    "surprising":1,
    "girly":1,
    "cares":1,
    "ap":1,
    "yours":1,
    "difference":1,
    "sonofabitch":1,
    "pan":1,
    "goodbye":1,
    "ohi":1,
    "jokes":1,
    "cope":1,
    "tragedy":1,
    "coolcool":1,
    "wonderingwho":1,
    "number\u2019s":1,
    "graffitied":1,
    "tree":1,
    "understood":1,
    "meaning":1,
    "season":1,
    "7":1,
    "episode":1,
    "12":1,
    "loading":1,
    "crates":1,
    "recognizing":1,
    "photo":1,
    "simple":1,
    "polarized":1,
    "h2o":1,
    "large":1,
    "floats":1,
    "liquid":1,
    "norm":1,
    "ancient":1,
    "mars":1,
    "wash":1,
    "h2oh":1,
    "expected":1,
    "theuh":1,
    "average":1,
    "else":1,
    "mondays":1,
    "odd":1,
    "courtesy":1,
    "fantastic":1,
    "finishes":1,
    "100":1,
    "10":1,
    "gift":1,
    "certificate":1,
    "sandwiches":1,
    "toasted":1,
    "ah":1,
    "fran\u00e7ais":1,
    "est":1,
    "la":1,
    "langue":1,
    "d\u2019amour":1,
    "france":1,
    "plays":1,
    "accompaniment":1,
    "spotlight":1,
    "sweating":1,
    "audience":1,
    "superfast":1,
    "beating":1,
    "thumpthumpthump":1,
    "loop":1,
    "intro":1,
    "gotwe":1,
    "sight":1,
    "laughter":1,
    "hmm":1,
    "buzzes":1,
    "return":1,
    "yrbook":1,
    "mins":1,
    "notes":1,
    "hallway":1,
    "process":1,
    "chest":1,
    "send":1,
    "eight":1,
    "minimum":1,
    "quickie":1,
    "touch":1,
    "rrrrrrrr":1,
    "layout":1,
    "brotherjenko":1,
    "ieric":1,
    "smiles":1,
    "sort":1,
    "collapsed":1,
    "soeric":1,
    "dunno":1,
    "personally":1,
    "century":1,
    "gothic":1,
    "design":1,
    "baggie":1,
    "brown":1,
    "wafers":1,
    "scientist":1,
    "downlow":1,
    "private":1,
    "skip":1,
    "finish":1,
    "volleyball":1,
    "murmurs":1,
    "dissolve":1,
    "uhmaking":1,
    "bug":1,
    "crawls":1,
    "uhyour":1,
    "grandma\u2019s":1,
    "grossest":1,
    "gspot":1,
    "technique":1,
    "forever":1,
    "thirsty":1,
    "popped":1,
    "freshman":1,
    "health":1,
    "sucks":1,
    "exceptional":1,
    "tone":1,
    "waitaminute":1,
    "file":1,
    "special":1,
    "county":1,
    "prodigy":1,
    "prefontaine":1,
    "messing":1,
    "gams":1,
    "centaur":1,
    "minotaur":1,
    "crack":1,
    "walnut":1,
    "thighs":1,
    "knowit":1,
    "runner":1,
    "team\u2019s":1,
    "physically":1,
    "incapable":1,
    "spastic":1,
    "anchor":1,
    "4x400":1,
    "passes":1,
    "umyou":1,
    "normally":1,
    "panda":1,
    "crooooowwwwschmidt":1,
    "sunglasses":1,
    "capri":1,
    "crumples":1,
    "confidence\u201d":1,
    "stage":1,
    "edges":1,
    "fingerguns":1,
    "performs":1,
    "acted":1,
    "humor":1,
    "rocks":1,
    "midway":1,
    "serenades":1,
    "conceited":1,
    "aaam":1,
    "wonderful":1,
    "pleased":1,
    "evry":1,
    "particle":1,
    "unobtanium":1,
    "nuclear":1,
    "reaction":1,
    "flux":1,
    "capacitor":1,
    "carry":1,
    "changing":1,
    "atomic":1,
    "isotoner":1,
    "radioactive":1,
    "crowwwww":1,
    "welcome":1,
    "aboard":1,
    "ew":1,
    "bleeding":1,
    "badly":1,
    "ahhhh":1,
    "blaaah":1,
    "giving":1,
    "advice":1,
    "legs":1,
    "pump":1,
    "arms":1,
    "baton":1,
    "holes":1,
    "waves":1,
    "slightly":1,
    "rarrr":1,
    "blargh":1,
    "disqualified":1,
    "ran":1,
    "race":1,
    "sabotaged":1,
    "organized":1,
    "fascist":1,
    "\u201cwhat":1,
    "fuck\u201d":1,
    "chapel":1,
    "bullpen":1,
    "evening":1,
    "crunchy":1,
    "granola":1,
    "convinced":1,
    "backwards":1,
    "alpha":1,
    "dog":1,
    "killer":1,
    "steeze":1,
    "aids":1,
    "early":1,
    "admish":1,
    "smart":1,
    "tracks":1,
    "chemistricular":1,
    "knowledge":1,
    "aminfiltrating":1,
    "quite":1,
    "soyou":1,
    "minds":1,
    "cracked":1,
    "wayyyy":1,
    "wannabe":1,
    "thugs":1,
    "stripping":1,
    "garfield":1,
    "metal":1,
    "federal":1,
    "slutty":1,
    "cheerleader":1,
    "outfits":1,
    "convince":1,
    "horny":1,
    "teenage":1,
    "skill":1,
    "killing":1,
    "standing":1,
    "fingerblasting":1,
    "assholes":1,
    "apologize":1,
    "blessed":1,
    "suggest":1,
    "handsomeness":1,
    "geeky":1,
    "somehow":1,
    "comic":1,
    "books":1,
    "tolerant":1,
    "environmental":1,
    "awareness":1,
    "born":1,
    "blame":1,
    "ruining":1,
    "america":1,
    "song":1,
    "manit\u2019s":1,
    "infiltrated":1,
    "yeahi":1,
    "peed":1,
    "pants":1,
    "epic":1,
    "yearjenko":1,
    "invites":1,
    "fastest":1,
    "combined":1,
    "either":1,
    "references":1,
    "intercut":1,
    "relative":1,
    "accident":1,
    "ol\u2019":1,
    "stalker":1,
    "gordon":1,
    "weirdo":1,
    "sorrydoug":1,
    "teen":1,
    "dougie":1,
    "bye":1,
    "mine":1,
    "buries":1,
    "affection":1,
    "yearold":1,
    "sharer":1,
    "dig":1,
    "cut":1,
    "gooey":1,
    "emotions":1,
    "book":1,
    "43":1,
    "animals":1,
    "afraid":1,
    "spontaneously":1,
    "grow":1,
    "animal":1,
    "puppy":1,
    "bailed":1,
    "ohwow":1,
    "meanmolly":1,
    "whew":1,
    "almostmolly":1,
    "jerks":1,
    "dishonest":1,
    "knoweric":1,
    "juariothose":1,
    "raw":1,
    "curiosity":1,
    "eleven":1,
    "absosmurfly":1,
    "awake":1,
    "friedman":1,
    "avatar":1,
    "blackmailing":1,
    "neither":1,
    "fell":1,
    "classically":1,
    "hook":1,
    "palpable":1,
    "costars":1,
    "summer":1,
    "camp":1,
    "20s":1,
    "17":1,
    "suspicious":1,
    "kings":1,
    "14":1,
    "olds":1,
    "base":1,
    "unveils":1,
    "huge":1,
    "himself":1,
    "alongside":1,
    "pictures":1,
    "annoyed":1,
    "awwwwwwww":1,
    "letting":1,
    "deer":1,
    "heap":1,
    "vineyards":1,
    "romance":1,
    "softfaced":1,
    "generous":1,
    "trustworthy":1,
    "world":1,
    "wrestles":1,
    "delroy":1,
    "periods":1,
    "wizard\u2019s":1,
    "hobby":1,
    "downloading":1,
    "porn":1,
    "movies":1,
    "sowhat":1,
    "iumi":1,
    "tostudy":1,
    "angrily":1,
    "anytime":1,
    "immediately":1,
    "realizes":1,
    "bonds":1,
    "services":1,
    "cost":1,
    "dollars":1,
    "shady":1,
    "ofcrack":1,
    "jailbreak":1,
    "switch":1,
    "wireless":1,
    "carriers":1,
    "restricted":1,
    "apps":1,
    "sexting":1,
    "install":1,
    "spyware":1,
    "monitor":1,
    "mic":1,
    "obvious":1,
    "age":1,
    "equal":1,
    "field":1,
    "enter":1,
    "intimidating":1,
    "arena":1,
    "coveted":1,
    "socalled":1,
    "\u201ccool":1,
    "kids\u201d":1,
    "change":1,
    "rumors":1,
    "tweetosphere":1,
    "caught":1,
    "serving":1,
    "minors":1,
    "themselves":1,
    "prison":1,
    "snorkels":1,
    "duct":1,
    "taped":1,
    "mouths":1,
    "snorkel":1,
    "tubes":1,
    "vivid":1,
    "byeeeeeee":1,
    "id":1,
    "pound":1,
    "coke":1,
    "booyah":1,
    "ruin":1,
    "lipovsky":1,
    "pleasure":1,
    "co":1,
    "liquor":1,
    "chips":1,
    "playlist":1,
    "knock":1,
    "prob":1,
    "peace":1,
    "indicates":1,
    "entering":1,
    "copy":1,
    "intercept":1,
    "et":1,
    "al":1,
    "paul":1,
    "blart":1,
    "sup":1,
    "main":1,
    "control":1,
    "wore":1,
    "bud":1,
    "passionate":1,
    "native":1,
    "americans":1,
    "art":1,
    "verynative":1,
    "american":1,
    "landscaping":1,
    "exceptionally":1,
    "lush":1,
    "subsist":1,
    "drip":1,
    "irrigation":1,
    "waste":1,
    "\u201cfuck":1,
    "dad\u201d":1,
    "btw":1,
    "perishables":1,
    "slyly":1,
    "butt":1,
    "bounce":1,
    "cracker":1,
    "parrot":1,
    "yikes":1,
    "screwdrider":1,
    "tweezlers":1,
    "drunk":1,
    "bitches":1,
    "peers":1,
    "bottle":1,
    "swig":1,
    "parents\u2019":1,
    "bedroomand":1,
    "threeway":1,
    "disturbing":1,
    "position":1,
    "closes":1,
    "surprisingly":1,
    "sexual":1,
    "warehouse":1,
    "rave":1,
    "ellsworth":1,
    "moll":1,
    "op\u2019s":1,
    "longer":1,
    "set":1,
    "date":1,
    "foyer":1,
    "pumps":1,
    "arm":1,
    "quiet":1,
    "commitments":1,
    "hookup":1,
    "threatening":1,
    "guests":1,
    "enjoy":1,
    "leave":1,
    "kicking":1,
    "yaww":1,
    "schmidoug":1,
    "hustles":1,
    "gather":1,
    "cheer":1,
    "lunges":1,
    "lands":1,
    "rushes":1,
    "cracks":1,
    "baying":1,
    "wolf":1,
    "sculpture":1,
    "clocks":1,
    "scott\u2019s":1,
    "spectacular":1,
    "smash":1,
    "knocked":1,
    "cheers":1,
    "scrappy":1,
    "slips":1,
    "pocket":1,
    "shocked":1,
    "pec":1,
    "coyote":1,
    "letter":1,
    "opener":1,
    "sticks":1,
    "stabbed":1,
    "aaaaaaaaaaaaaaaaaaaaaahhh":1,
    "woooooooooooooooooooooooo":1,
    "shaking":1,
    "disapproval":1,
    "others":1,
    "joins":1,
    "truly":1,
    "liberating":1,
    "moves":1,
    "mow":1,
    "fold":1,
    "monitoring":1,
    "device":1,
    "schmuck":1,
    "school\u2019s":1,
    "ultimate":1,
    "deeper":1,
    "smartest":1,
    "pulled":1,
    "emotionally":1,
    "draining":1,
    "infiltrating":1,
    "what\u2019re":1,
    "alone":1,
    "pushing":1,
    "boss":1,
    "cooking":1,
    "pudgy":1,
    "atm":1,
    "weight":1,
    "nothin":1,
    "reup":1,
    "sold":1,
    "kneel":1,
    "zod":1,
    "enters":1,
    "purpose":1,
    "chemicals":1,
    "blows":1,
    "wiretap\u2019s":1,
    "urgent":1,
    "aluminum":1,
    "foil":1,
    "ammonium":1,
    "persulphate":1,
    "centerpieces":1,
    "sombreros":1,
    "theme":1,
    "cinco":1,
    "de":1,
    "mayo":1,
    "vegas":1,
    "ion":1,
    "largest":1,
    "radius":1,
    "jace":1,
    "mindsculptor":1,
    "woah":1,
    "meanmaybe":1,
    "\u201850s":1,
    "letterman":1,
    "possession":1,
    "officer":1,
    "\u201chi\u201d":1,
    "endangering":1,
    "dare":1,
    "shoves":1,
    "shoe":1,
    "display":1,
    "alarmed":1,
    "tried":1,
    "grab":1,
    "junk":1,
    "urhhhghhhh":1,
    "hurts":1,
    "perverted":1,
    "lunatic":1,
    "housewhat":1,
    "pepper":1,
    "distributor":1,
    "corn":1,
    "syrupbased":1,
    "beverages":1,
    "casita":1,
    "whenever":1,
    "nights":1,
    "laissezfaire":1,
    "ecopusy":1,
    "mike":1,
    "war":1,
    "pile":1,
    "propaganda":1,
    "charging":1,
    "bedroom":1,
    "opening":1,
    "whatcha":1,
    "doin\u2019":1,
    "happier":1,
    "careful":1,
    "involved":1,
    "incredible":1,
    "monday":1,
    "committee":1,
    "bs":1,
    "eats":1,
    "secretly":1,
    "limo":1,
    "fineass":1,
    "honeys":1,
    "dressed":1,
    "nines":1,
    "buds":1,
    "fly":1,
    "slow":1,
    "motion":1,
    "given":1,
    "onto":1,
    "frightened":1,
    "thumpthumpthumpthump":1,
    "choke":1,
    "chokes":1,
    "welldo":1,
    "youwant":1,
    "maybego":1,
    "\u2018er":1,
    "alike":1,
    "figure":1,
    "yellow":1,
    "blue":1,
    "tools":1,
    "attention":1,
    "brother\u2019s":1,
    "smarter":1,
    "cruise":1,
    "math":1,
    "movie":1,
    "guilty":1,
    "cheap":1,
    "fuuuuck":1,
    "throwing":1,
    "zod\u2019s":1,
    "thunk":1,
    "incoming":1,
    "convo":1,
    "code":1,
    "news":1,
    "closed":1,
    "feelin\u2019":1,
    "likes":1,
    "braggable":1,
    "enjoyable":1,
    "appreciate":1,
    "feeling":1,
    "drug\u2019s":1,
    "spreading":1,
    "nearby":1,
    "pipes":1,
    "expand":1,
    "percent":1,
    "yup":1,
    "overheard":1,
    "meeting":1,
    "frickin\u2019":1,
    "motherscratchin\u2019":1,
    "evidence":1,
    "suppose":1,
    "wondering":1,
    "language":1,
    "cursing":1,
    "flippin\u2019":1,
    "baloney":1,
    "viralstyle":1,
    "kitten":1,
    "sneezing":1,
    "color":1,
    "visine":1,
    "drops":1,
    "hay":1,
    "fever":1,
    "agitated":1,
    "wiretap":1,
    "crapballs":1,
    "premiering":1,
    "apologies":1,
    "advance":1,
    "ice":1,
    "bulimic":1,
    "strategy":1,
    "goto":1,
    "toes":1,
    "guessing":1,
    "oxidizer":1,
    "wiser":1,
    "crystalline":1,
    "structure":1,
    "buttmuncher":1,
    "ingredient":1,
    "gunpowder":1,
    "k\u2019nothree":1,
    "grief":1,
    "corned":1,
    "beef":1,
    "saltpeter":1,
    "now\u2019s":1,
    "leaving":1,
    "hour":1,
    "warm":1,
    "curtain":1,
    "watches":1,
    "stunned":1,
    "ignore":1,
    "tickets":1,
    "\u201ccool\u201d":1,
    "1ers":1,
    "hell\u2019s":1,
    "suppliers":1,
    "buyer":1,
    "follow":1,
    "curtain\u2019s":1,
    "30":1,
    "screech":1,
    "fiesta":1,
    "driver\u2019s":1,
    "ed":1,
    "choppers":1,
    "changes":1,
    "seriouser":1,
    "idles":1,
    "taunting":1,
    "jerking":1,
    "seatbelt":1,
    "floors":1,
    "pushes":1,
    "smokes":1,
    "doubles":1,
    "releases":1,
    "stomps":1,
    "tumbling":1,
    "onramp":1,
    "continuous":1,
    "listened":1,
    "porsche":1,
    "midlife":1,
    "douche":1,
    "breaks":1,
    "peel":1,
    "colt":1,
    "secret":1,
    "begins":1,
    "glover":1,
    "rifles":1,
    "tennis":1,
    "racket":1,
    "serves":1,
    "biker\u2019s":1,
    "chopper":1,
    "small":1,
    "propane":1,
    "tanks":1,
    "hazard":1,
    "danger":1,
    "flammable":1,
    "wincing":1,
    "lookout":1,
    "wall":1,
    "aggh":1,
    "secjenko":1,
    "dash":1,
    "into147":1,
    "fires":1,
    "357":1,
    "blowing":1,
    "side":1,
    "skeptically":1,
    "revealing":1,
    "eagle":1,
    "compact":1,
    "9mm":1,
    "pistol":1,
    "pink":1,
    "whoo":1,
    "why\u2019d":1,
    "shooting":1,
    "choking":1,
    "saved":1,
    "freak":1,
    "squeals":1,
    "offramp":1,
    "application":1,
    "roommates":1,
    "lost":1,
    "idiot":1,
    "returned":1,
    "missed":1,
    "scenes":1,
    "samuels":1,
    "ably":1,
    "backing":1,
    "glory":1,
    "opportunity":1,
    "narcotic":1,
    "epidemic":1,
    "drugi":1,
    "meanit\u2019s":1,
    "developing":1,
    "brain":1,
    "yell":1,
    "curse":1,
    "badges":1,
    "describe":1,
    "explain":1,
    "ichat":1,
    "dougiceman":1,
    "n\u2019s":1,
    "exclamation":1,
    "marks":1,
    "chances":1,
    "bang":1,
    "arbor":1,
    "moving":1,
    "kept":1,
    "pulling":1,
    "realize":1,
    "sloppy":1,
    "trusting":1,
    "pinata":1,
    "potential":1,
    "partners":1,
    "followed":1,
    "strange":1,
    "glock":1,
    "45s":1,
    "issue":1,
    "powerful":1,
    "forty":1,
    "schoolyard":1,
    "shitshow":1,
    "ohhhhhhhhh":1,
    "led":1,
    "bringing":1,
    "sized":1,
    "self":1,
    "consciousness":1,
    "causing":1,
    "lash":1,
    "therapist":1,
    "weapon":1,
    "beginner\u2019s":1,
    "luck":1,
    "naturals":1,
    "heavies":1,
    "broham":1,
    "schmidtty":1,
    "chore":1,
    "awkward":1,
    "thati":1,
    "contacts":1,
    "ourselves":1,
    "dumb":1,
    "helping":1,
    "sheilahandjobs":1,
    "actual":1,
    "pumpkin":1,
    "fill":1,
    "poetic":1,
    "hurting":1,
    "dance":1,
    "floor":1,
    "approaches":1,
    "graduated":1,
    "older":1,
    "disgusting":1,
    "penthouse":1,
    "supplier\u2019s":1,
    "exchange":1,
    "glances":1,
    "exits":1,
    "linger":1,
    "confusion":1,
    "ragedadier":1,
    "169170":1,
    "omitted":1,
    "fat":1,
    "guy\u2019s":1,
    "walt":1,
    "stuck":1,
    "teacher\u2019s":1,
    "salary":1,
    "teach":1,
    "coach":1,
    "alimony":1,
    "tuna":1,
    "nylon":1,
    "sock":1,
    "youmr":1,
    "wizard":1,
    "stole":1,
    "bunsen":1,
    "chem":1,
    "melted":1,
    "tasted":1,
    "babies":1,
    "boom":1,
    "flashback":1,
    "steals":1,
    "supplies":1,
    "mixes":1,
    "pours":1,
    "ranch":1,
    "eco":1,
    "buttmunch":1,
    "smoking":1,
    "jj":1,
    "fieldhouse":1,
    "coin":1,
    "apply":1,
    "sittin\u2019":1,
    "cutaway":1,
    "huddled":1,
    "hotel":1,
    "restroom":1,
    "chicken":1,
    "explode":1,
    "crew":1,
    "amateur":1,
    "won\u2019tdomingo":1,
    "glimpse":1,
    "strangers":1,
    "expect":1,
    "attitude":1,
    "stranger":1,
    "familiar":1,
    "constantly":1,
    "fries":1,
    "commercial":1,
    "faces":1,
    "fisheye":1,
    "frame":1,
    "motherfucker\u201d":1,
    "uhoh":1,
    "cock":1,
    "nickhead":1,
    "dark":1,
    "straightup":1,
    "racist":1,
    "partied":1,
    "taco":1,
    "gesture":1,
    "worldjenko":1,
    "pretending":1,
    "headbutts":1,
    "screams":1,
    "tries":1,
    "sneak":1,
    "yanks":1,
    "spray":1,
    "brains":1,
    "hostage":1,
    "tv":1,
    "breathing":1,
    "passed":1,
    "one\u2019s":1,
    "pointedly":1,
    "asleep":1,
    "snuggles":1,
    "floppy":1,
    "unfair":1,
    "laid":1,
    "faith":1,
    "brasco":1,
    "aims":1,
    "rips":1,
    "knees":1,
    "penhall":1,
    "heads":1,
    "ruined":1,
    "5year":1,
    "next":1,
    "week":1,
    "nationwide":1,
    "organization":1,
    "saxophone":1,
    "sister\u2019s":1,
    "wedding":1,
    "spent":1,
    "gold":1,
    "tooth":1,
    "tattoos":1,
    "metro":1,
    "divisiontom":1,
    "ahhhhhhhhhhh":1,
    "phenghallglglgl":1,
    "suckers":1,
    "thinks":1,
    "dashes":1,
    "gunfight":1,
    "penhallgh":1,
    "knowwgh":1,
    "attenghtion":1,
    "girlsgh":1,
    "generagglly":1,
    "fugkkin":1,
    "awesomeghh":1,
    "wellh":1,
    "you\u2019gll":1,
    "nevher":1,
    "believghe":1,
    "alwaysh":1,
    "jealoush":1,
    "yough":1,
    "wantgh":1,
    "knowhh":1,
    "loawwghhrraiieee":1,
    "kick":1,
    "dodging":1,
    "bullets":1,
    "weapons":1,
    "shoots":1,
    "1er":1,
    "tripped":1,
    "killed":1,
    "expec":1,
    "mexico":1,
    "lemme":1,
    "closer":1,
    "struggles":1,
    "crawl":1,
    "divider":1,
    "wooooooooooo":1,
    "jaaam":1,
    "ditched":1,
    "wrapped":1,
    "liked":1,
    "ammo":1,
    "offended":1,
    "picked":1,
    "shells":1,
    "lithium":1,
    "batteries":1,
    "react":1,
    "electrons":1,
    "join":1,
    "forces":1,
    "shitload":1,
    "energy":1,
    "breakfast":1,
    "\u201cdon\u2019t":1,
    "move\u201d":1,
    "ambivalent":1,
    "mostly":1,
    "nothanks":1,
    "havingmyback":1,
    "peaked":1,
    "bodily":1,
    "functions":1,
    "court":1,
    "ofthis":1,
    "afford":1,
    "appointed":1,
    "readtoyou":1,
    "stud":1,
    "intelligent":1,
    "thoughtful":1,
    "loyal":1,
    "cherish":1,
    "multiple":1,
    "deserve":1,
    "treat":1,
    "lie":1,
    "saving":1,
    "hug":1,
    "lasts":1,
    "emt":1,
    "uncomfortable":1,
    "breaking":1,
    "vigilante":1,
    "time\u2019s":1,
    "cockfaces":1,
    "booze":1,
    "titties":1,
    "ask":2,
    "yet":2,
    "prom\u2019s":2,
    "told":2,
    "tits":2,
    "done":2,
    "walking":2,
    "known":2,
    "nicely":2,
    "telling":2,
    "heading":2,
    "gym":2,
    "principal\u2019s":2,
    "loud":2,
    "clear":2,
    "aren\u2019t":2,
    "holds":2,
    "f":2,
    "schmidty":2,
    "came":2,
    "failed":2,
    "lab":2,
    "ya":2,
    "watching":2,
    "wanna":2,
    "buddy":2,
    "lights":2,
    "spider":2,
    "bikes":2,
    "falls":2,
    "threat":2,
    "due":2,
    "keeps":2,
    "hundred":2,
    "thousand":2,
    "hooker":2,
    "handcuffed":2,
    "laughs":2,
    "deputy":2,
    "moments":2,
    "hardy":2,
    "desk":2,
    "across":2,
    "department":2,
    "possible":2,
    "justi":2,
    "forgot":2,
    "starts":2,
    "remain":2,
    "silent":2,
    "faster":2,
    "should\u2019ve":2,
    "screw":2,
    "finally":2,
    "realized":2,
    "stand":2,
    "itself":2,
    "program":2,
    "charge":2,
    "officers":2,
    "someone\u2019s":2,
    "problems":2,
    "worked":2,
    "become":2,
    "short":2,
    "insecure":2,
    "bitch":2,
    "based":2,
    "introduce":2,
    "northside":2,
    "felony":2,
    "lakeview":2,
    "\u2018cause":2,
    "yourselves":2,
    "hair":2,
    "suit":2,
    "kicked":2,
    "shit\u2019s":2,
    "looking":2,
    "hipster":2,
    "body":2,
    "boy":2,
    "video":2,
    "talk":2,
    "kinda":2,
    "overfalsity":2,
    "od\u2019d":2,
    "rehab":2,
    "hfs":2,
    "homework":2,
    "number":2,
    "honors":2,
    "classes":2,
    "missing":2,
    "equipment":2,
    "cook":2,
    "identities":2,
    "cold":2,
    "infiltrate":2,
    "jesus":2,
    "offense":2,
    "loser":2,
    "almost":2,
    "sucking":2,
    "train":2,
    "assignment":2,
    "mom\u2019s":2,
    "talked":2,
    "hope":2,
    "ughh":2,
    "crash":2,
    "haven\u2019t":2,
    "bragging":2,
    "grade":2,
    "dying":2,
    "important":2,
    "upstairs":2,
    "leads":2,
    "dicks":2,
    "backstory":2,
    "feelings":2,
    "nuts":2,
    "played":2,
    "pumped":2,
    "future":2,
    "almanac":2,
    "knew":2,
    "loved":2,
    "takeaway":2,
    "that\u2019ll":2,
    "adults":2,
    "quiz":2,
    "hate":2,
    "twostrapping":2,
    "straps":2,
    "effort":2,
    "keys":2,
    "\u2018em":2,
    "5":2,
    "engine":2,
    "ext":2,
    "pack":2,
    "lunch":2,
    "fruit":2,
    "partying":2,
    "45":2,
    "chicks":2,
    "peer":2,
    "nods":2,
    "mercedes":2,
    "crisis":2,
    "environment":2,
    "quickly":2,
    "period":2,
    "embarrassed":2,
    "messed":2,
    "left":2,
    "lose":2,
    "straight":2,
    "type":2,
    "geek":2,
    "far":2,
    "dumbass":2,
    "embarrassing":2,
    "relax":2,
    "fake":2,
    "band":2,
    "practice":2,
    "app":2,
    "solve":2,
    "hold":2,
    "auditions":2,
    "none":2,
    "choice":2,
    "talented":2,
    "it\u2019d":2,
    "murmur":2,
    "onstage":2,
    "playing":2,
    "law":2,
    "achieve":2,
    "favorite":2,
    "molecule":2,
    "marry":2,
    "unless":2,
    "daughter":2,
    "solid":2,
    "outside":2,
    "cars":2,
    "shirt":2,
    "smile":2,
    "begin":2,
    "stands":2,
    "accompanist":2,
    "catches":2,
    "manages":2,
    "contain":2,
    "cooler":2,
    "prepare":2,
    "dump":2,
    "six":2,
    "insane":2,
    "it\u2019ll":2,
    "yearbook":2,
    "hang":2,
    "finishing":2,
    "dealer":2,
    "bucks":2,
    "argument":2,
    "uhno":2,
    "bail":2,
    "mouth":2,
    "enough":2,
    "stick":2,
    "dingalings":2,
    "aw":2,
    "plus":2,
    "fierce":2,
    "melon":2,
    "gatorade":2,
    "muscle":2,
    "raise":2,
    "hand":2,
    "consider":2,
    "between":2,
    "fact":2,
    "rejects":2,
    "sign":2,
    "training":2,
    "dangerous":2,
    "bursts":2,
    "wearing":2,
    "tosses":2,
    "aside":2,
    "\u201cphase":2,
    "im":2,
    "ive":2,
    "nose":2,
    "bell":2,
    "against":2,
    "hall":2,
    "suspect":2,
    "walk":2,
    "fire":2,
    "shop":2,
    "able":2,
    "meanwhile":2,
    "other\u2019s":2,
    "glee":2,
    "welli":2,
    "christopher":2,
    "pisstopher":2,
    "schmug":2,
    "hello":2,
    "douglas":2,
    "weekend":2,
    "tomorrow":2,
    "leah":2,
    "coming":2,
    "needs":2,
    "connection":2,
    "characters":2,
    "gray":2,
    "sleep":2,
    "we\u2019d":2,
    "coo":2,
    "stay":2,
    "loving":2,
    "honest":2,
    "password":2,
    "tutor":2,
    "during":2,
    "free":2,
    "beard":2,
    "piece":2,
    "rude":2,
    "seem":2,
    "remotely":2,
    "willing":2,
    "phones":2,
    "forward":2,
    "uhyeah":2,
    "picks":2,
    "extremely":2,
    "dancey":2,
    "geeks":2,
    "kokopelli":2,
    "hours":2,
    "nod":2,
    "earth":2,
    "plants":2,
    "compost":2,
    "sees":2,
    "pissed":2,
    "tour":2,
    "opens":2,
    "naked":2,
    "glad":2,
    "stayed":2,
    "keg":2,
    "kennedy":2,
    "fight":2,
    "kills":2,
    "hopi":2,
    "dancer":2,
    "crowd":2,
    "catch":2,
    "tough":2,
    "smoke":2,
    "weed":2,
    "drink":2,
    "hah":2,
    "damage":2,
    "dishes":2,
    "lawn":2,
    "laundry":2,
    "trash":2,
    "here\u2019s":2,
    "bring":2,
    "taking":2,
    "cash":2,
    "push":2,
    "tap":2,
    "texting":2,
    "pins":2,
    "hooked":2,
    "believe":2,
    "schmiddy":2,
    "comes":2,
    "knocking":2,
    "wonder":2,
    "near":2,
    "taste":2,
    "chance":2,
    "soyou\u2019re":2,
    "dong":2,
    "doves":2,
    "asked":2,
    "eyes":2,
    "settle":2,
    "adopted":2,
    "green":2,
    "tom":2,
    "nevermind":2,
    "flicks":2,
    "miss":2,
    "outbreak":2,
    "handle":2,
    "listening":2,
    "potassium":2,
    "nitrate":2,
    "ups":2,
    "gas":2,
    "brakes":2,
    "teacher":2,
    "whackamole":2,
    "freeway":2,
    "traffic":2,
    "business":2,
    "firing":2,
    "danny":2,
    "glove":2,
    "finds":2,
    "golf":2,
    "truck":2,
    "sound":2,
    "bully":2,
    "without":2,
    "er":2,
    "bullet":2,
    "apart":2,
    "dropped":2,
    "cans":2,
    "chores":2,
    "waiting":2,
    "quesadilla":2,
    "state":2,
    "goddamn":2,
    "db":2,
    "hanson":2,
    "gang":2,
    "felt":2,
    "melodie":3,
    "continue":3,
    "uh":3,
    "listen":3,
    "asking":3,
    "shitty":3,
    "absolutely":3,
    "buddies":3,
    "joking":3,
    "lucky":3,
    "lame":3,
    "bet":3,
    "bread":3,
    "child":3,
    "throws":3,
    "threw":3,
    "bikers":3,
    "mind":3,
    "dea":3,
    "meant":3,
    "scary":3,
    "mother":3,
    "chases":3,
    "points":3,
    "freeze":3,
    "son":3,
    "except":3,
    "boys":3,
    "sheila":3,
    "chief":3,
    "miranda":3,
    "reason":3,
    "course":3,
    "obviously":3,
    "attorney":3,
    "deep":3,
    "idiots":3,
    "hi":3,
    "terrible":3,
    "students":3,
    "schools":3,
    "teachers":3,
    "kids\u2019":3,
    "black":3,
    "sometimes":3,
    "dude\u2019s":3,
    "handsome":3,
    "worth":3,
    "asses":3,
    "fugazy":3,
    "burns":3,
    "junior":3,
    "buy":3,
    "five":3,
    "month":3,
    "youtube":3,
    "bought":3,
    "seems":3,
    "wants":3,
    "4":3,
    "ago":3,
    "weeks":3,
    "taken":3,
    "seen":3,
    "white":3,
    "share":3,
    "selling":3,
    "worry":3,
    "nerds":3,
    "shouldn\u2019t":3,
    "brothers":3,
    "korean":3,
    "freaked":3,
    "joke":3,
    "please":3,
    "met":3,
    "annie":3,
    "baby":3,
    "how\u2019s":3,
    "fine":3,
    "died":3,
    "study":3,
    "sports":3,
    "invited":3,
    "every":3,
    "speaking":3,
    "easy":3,
    "remember":3,
    "happen":3,
    "losers":3,
    "weren\u2019t":3,
    "steps":3,
    "minute":3,
    "total":3,
    "strap":3,
    "pressure":3,
    "seven":3,
    "punched":3,
    "stops":3,
    "step":3,
    "imagine":3,
    "cause":3,
    "trouble":3,
    "hanging":3,
    "theater":3,
    "sad":3,
    "sounds":3,
    "yesterday":3,
    "busting":3,
    "busted":3,
    "yep":3,
    "wendy":3,
    "happy":3,
    "order":3,
    "water":3,
    "atoms":3,
    "form":3,
    "allowed":3,
    "credit":3,
    "whoever":3,
    "middle":3,
    "crow":3,
    "barely":3,
    "louder":3,
    "text":3,
    "hurry":3,
    "pass":3,
    "narc":3,
    "calls":3,
    "normal":3,
    "bit":3,
    "eye":3,
    "sell":3,
    "tonight":3,
    "barf":3,
    "throw":3,
    "nope":3,
    "vagina":3,
    "sec":3,
    "science":3,
    "full":3,
    "dammit":3,
    "sun":3,
    "french":3,
    "watch":3,
    "kidding":3,
    "lying":3,
    "biggest":3,
    "berkeley":3,
    "group":3,
    "falling":3,
    "nerdy":3,
    "towards":3,
    "bunch":3,
    "work":3,
    "coolest":3,
    "exciting":3,
    "town":3,
    "bro":3,
    "ok":3,
    "open":3,
    "doctor":3,
    "dad":3,
    "gluck":3,
    "picture":3,
    "most":3,
    "ms":3,
    "bakugon":3,
    "knocks":3,
    "defensive":3,
    "sarcastic":3,
    "social":3,
    "feels":3,
    "vase":3,
    "grabs":3,
    "lisa":3,
    "swear":3,
    "reveal":3,
    "disappointed":3,
    "gone":3,
    "turns":3,
    "punches":3,
    "shots":3,
    "brother":3,
    "close":3,
    "sincere":3,
    "operation":3,
    "wire":3,
    "ja":3,
    "nothing":3,
    "window":3,
    "holding":3,
    "driving":3,
    "light":3,
    "slams":3,
    "compartment":3,
    "least":3,
    "investigation":3,
    "yo":4,
    "today":4,
    "basically":4,
    "we\u2019ve":4,
    "office":4,
    "clearly":4,
    "mr":4,
    "word":4,
    "principal":4,
    "friend":4,
    "college":4,
    "sweet":4,
    "working":4,
    "sick":4,
    "percenters":4,
    "bust":4,
    "bike":4,
    "seeing":4,
    "ride":4,
    "must":4,
    "times":4,
    "running":4,
    "int":4,
    "read":4,
    "partner":4,
    "completely":4,
    "anyway":4,
    "sending":4,
    "perfect":4,
    "living":4,
    "thinking":4,
    "captain":4,
    "arrests":4,
    "anymore":4,
    "supposed":4,
    "twenty":4,
    "1":4,
    "knows":4,
    "inside":4,
    "2":4,
    "jr":4,
    "fired":4,
    "3":4,
    "half":4,
    "sagan":4,
    "phase":4,
    "laughing":4,
    "scrubs":4,
    "forwar":4,
    "matter":4,
    "once":4,
    "says":4,
    "chemistry":4,
    "lead":4,
    "damn":4,
    "wrong":4,
    "home":4,
    "area":4,
    "brought":4,
    "medal":4,
    "walks":4,
    "held":4,
    "girl":4,
    "putting":4,
    "key":4,
    "molson":4,
    "hangs":4,
    "amir":4,
    "music":4,
    "parking":4,
    "stares":4,
    "late":4,
    "third":4,
    "funny":4,
    "place":4,
    "person":4,
    "gives":4,
    "brag":4,
    "minutes":4,
    "hands":4,
    "dudes":4,
    "die":4,
    "gross":4,
    "finger":4,
    "godoh":4,
    "crap":4,
    "star":4,
    "myself":4,
    "blow":4,
    "definitely":4,
    "gave":4,
    "chu":4,
    "poo":4,
    "facebook":4,
    "pull":4,
    "stuffed":4,
    "true":4,
    "move":4,
    "bond":4,
    "zack\u2019s":4,
    "jealous":4,
    "wish":4,
    "idea":4,
    "shot":4,
    "kill":4,
    "problem":4,
    "rain":4,
    "plan":4,
    "act":4,
    "brake":4,
    "biker":4,
    "exactly":5,
    "while":5,
    "wouldn\u2019t":5,
    "angry":5,
    "runs":5,
    "test":5,
    "part":5,
    "pay":5,
    "respect":5,
    "second":5,
    "drop":5,
    "dealers":5,
    "excited":5,
    "head":5,
    "illegal":5,
    "won\u2019t":5,
    "punch":5,
    "many":5,
    "asshole":5,
    "under":5,
    "arrest":5,
    "pulls":5,
    "different":5,
    "karl":5,
    "took":5,
    "everybody":5,
    "behind":5,
    "rights":5,
    "cannot":5,
    "happened":5,
    "ground":5,
    "morning":5,
    "young":5,
    "sex":5,
    "honestly":5,
    "y\u2019all":5,
    "lives":5,
    "everything":5,
    "understand":5,
    "teenagers":5,
    "expelled":5,
    "alcohol":5,
    "couple":5,
    "bullshit":5,
    "hit":5,
    "billiam":5,
    "since":5,
    "found":5,
    "hits":5,
    "student":5,
    "own":5,
    "through":5,
    "mcquaid":5,
    "couldn\u2019t":5,
    "family":5,
    "things":5,
    "car":5,
    "hurt":5,
    "huh":5,
    "parties":5,
    "sense":5,
    "roll":5,
    "you\u2019ve":5,
    "everyone\u2019s":5,
    "ten":5,
    "gay":5,
    "peter":5,
    "making":5,
    "heart":5,
    "point":5,
    "quiznos":5,
    "um":5,
    "long":5,
    "check":5,
    "narcs":5,
    "amazing":5,
    "cop":5,
    "griggs":5,
    "covalent":5,
    "scott":5,
    "live":5,
    "moment":5,
    "shoot":5,
    "fuckin\u2019":6,
    "four":6,
    "days":6,
    "wasn\u2019t":6,
    "literally":6,
    "deal":6,
    "takes":6,
    "nervous":6,
    "beat":6,
    "until":6,
    "less":6,
    "after":6,
    "suck":6,
    "motherfucker":6,
    "also":6,
    "later":6,
    "already":6,
    "isn\u2019t":6,
    "drive":6,
    "went":6,
    "popular":6,
    "rule":6,
    "promise":6,
    "dickson":6,
    "which":6,
    "its":6,
    "you\u2019ll":6,
    "who\u2019s":6,
    "supplier":6,
    "schmidt\u2019s":6,
    "better":6,
    "try":6,
    "juario":6,
    "bad":6,
    "extra":6,
    "front":6,
    "girls":6,
    "dead":6,
    "cover":6,
    "invite":6,
    "trust":6,
    "put":7,
    "nerd":7,
    "hell":7,
    "year":7,
    "motherfuckers":7,
    "job":7,
    "probably":7,
    "only":7,
    "stop":7,
    "away":7,
    "police":7,
    "though":7,
    "three":7,
    "might":7,
    "where\u2019s":7,
    "yes":7,
    "weird":7,
    "any":7,
    "big":7,
    "rules":7,
    "another":7,
    "drama":7,
    "used":7,
    "feel":7,
    "thank":7,
    "phyllis":7,
    "seriously":7,
    "pop":7,
    "fun":7,
    "saying":7,
    "let":7,
    "same":7,
    "together":7,
    "mad":7,
    "character":7,
    "ready":8,
    "said":8,
    "where":8,
    "called":8,
    "help":8,
    "we\u2019ll":8,
    "sure":8,
    "use":8,
    "love":8,
    "show":8,
    "made":8,
    "such":8,
    "money":8,
    "super":8,
    "doesn\u2019t":8,
    "last":8,
    "anyone":8,
    "name":8,
    "woo":8,
    "whatever":8,
    "thanks":8,
    "she\u2019s":8,
    "years":8,
    "best":8,
    "meet":8,
    "ha":8,
    "track":8,
    "eric\u2019s":8,
    "pi\u00f1ata":8,
    "guns":8,
    "walters":8,
    "never":9,
    "heard":9,
    "holy":9,
    "run":9,
    "gun":9,
    "real":9,
    "wanted":9,
    "life":9,
    "drug":9,
    "domingo":9,
    "getting":9,
    "cops":9,
    "very":9,
    "few":9,
    "hear":9,
    "talking":9,
    "day":9,
    "jump":9,
    "wait":9,
    "lot":9,
    "goes":9,
    "room":9,
    "house":9,
    "always":9,
    "yourself":9,
    "play":9,
    "what\u2019s":9,
    "case":9,
    "ever":10,
    "each":10,
    "god":10,
    "hot":10,
    "class":10,
    "keep":10,
    "ass":10,
    "find":10,
    "both":10,
    "alright":10,
    "care":10,
    "i\u2019d":10,
    "still":10,
    "awesome":10,
    "had":10,
    "fast":10,
    "door":10,
    "call":10,
    "nice":11,
    "start":11,
    "sir":11,
    "little":11,
    "dick":11,
    "shut":11,
    "wow":11,
    "undercover":11,
    "street":11,
    "stupid":11,
    "kid":11,
    "again":11,
    "night":11,
    "face":11,
    "does":11,
    "their":11,
    "gets":11,
    "maybe":11,
    "i\u2019ve":12,
    "thought":12,
    "kind":12,
    "having":12,
    "everyone":12,
    "drugs":12,
    "someone":12,
    "old":12,
    "has":12,
    "before":12,
    "whole":12,
    "new":12,
    "parents":12,
    "guy":12,
    "there\u2019s":13,
    "around":13,
    "friends":13,
    "need":13,
    "crazy":13,
    "first":13,
    "makes":13,
    "pretty":13,
    "hard":13,
    "they\u2019re":13,
    "by":13,
    "brad":13,
    "tell":13,
    "totally":13,
    "prom":14,
    "anything":14,
    "balls":14,
    "whoa":14,
    "than":14,
    "i\u2019ll":14,
    "those":14,
    "she":14,
    "thing":15,
    "because":15,
    "stuff":15,
    "trying":16,
    "even":16,
    "guess":16,
    "":16,
    "when":16,
    "been":16,
    "into":16,
    "give":16,
    "mom":16,
    "hey":17,
    "then":17,
    "fucked":17,
    "something":17,
    "great":17,
    "being":17,
    "zack":17,
    "way":18,
    "looks":18,
    "mean":18,
    "them":18,
    "phone":18,
    "there":18,
    "over":18,
    "come":19,
    "more":19,
    "us":19,
    "other":20,
    "these":20,
    "take":20,
    "should":20,
    "two":20,
    "much":20,
    "say":21,
    "why":21,
    "he\u2019s":21,
    "too":21,
    "gotta":21,
    "her":22,
    "off":22,
    "doing":22,
    "actually":22,
    "make":22,
    "could":22,
    "sorry":23,
    "oh":23,
    "kids":23,
    "would":23,
    "were":23,
    "okay":23,
    "let\u2019s":24,
    "didn\u2019t":24,
    "party":24,
    "an":24,
    "did":25,
    "people":25,
    "gonna":27,
    "well":28,
    "some":28,
    "time":28,
    "see":28,
    "back":29,
    "dude":29,
    "from":29,
    "doug":29,
    "down":30,
    "high":30,
    "think":31,
    "our":31,
    "look":31,
    "will":31,
    "molly":31,
    "him":32,
    "really":32,
    "cool":33,
    "here":35,
    "can\u2019t":35,
    "eric":35,
    "good":36,
    "yeah":36,
    "want":37,
    "going":38,
    "how":38,
    "or":38,
    "they":39,
    "who":39,
    "we\u2019re":41,
    "man":42,
    "go":42,
    "all":42,
    "as":42,
    "can":43,
    "got":44,
    "guys":45,
    "school":45,
    "about":46,
    "now":46,
    "right":47,
    "that\u2019s":47,
    "fuck":48,
    "fucking":49,
    "his":49,
    "one":56,
    "s":60,
    "he":61,
    "but":61,
    "jenko":64,
    "at":65,
    "if":66,
    "know":66,
    "shit":68,
    "schmidt":69,
    "was":71,
    "you\u2019re":75,
    "do":80,
    "for":82,
    "don\u2019t":83,
    "get":83,
    "up":83,
    "not":84,
    "what":87,
    "it\u2019s":87,
    "am":90,
    "just":91,
    "be":91,
    "out":92,
    "no":92,
    "your":94,
    "like":97,
    "on":98,
    "so":98,
    "have":101,
    "with":102,
    "me":105,
    "this":105,
    "my":106,
    "i\u2019m":107,
    "are":111,
    "we":117,
    "is":133,
    "of":145,
    "that":156,
    "in":165,
    "it":166,
    "and":273,
    "a":298,
    "to":348,
    "the":386,
    "i":417,
    "you":513
}