{
    "asking":1,
    "answer":1,
    "congratulations":1,
    "rag":1,
    "bugged":1,
    "drivin":1,
    "strip":1,
    "hip":1,
    "blew":1,
    "feet":1,
    "hand":1,
    "keeps":1,
    "firing":1,
    "accept":1,
    "substitute":1,
    "winces":1,
    "sudden":1,
    "boisterous":1,
    "motherfucking":1,
    "eye":1,
    "experience":1,
    "bon":1,
    "dieu":1,
    "de":1,
    "merde":1,
    "horseshit":1,
    "hashy":1,
    "chrissakes":1,
    "goodness":1,
    "seems":1,
    "blowing":1,
    "beating":1,
    "producer":1,
    "heroes":1,
    "exorcised":1,
    "ghosts":1,
    "moral":1,
    "imperative":1,
    "reporters":1,
    "reemed":1,
    "worked":1,
    "stars":1,
    "livin":1,
    "flag":1,
    "stands":1,
    "awayyyyy":1,
    "proud":1,
    "forget":1,
    "died":1,
    "gladly":1,
    "defend":1,
    "cause":1,
    "doubt":1,
    "u":1,
    "s":1,
    "rahhhhhhhhhhhhhh":1,
    "rahhhhhhhhh":1,
    "rahhhhhhhhhhhhh":1,
    "beer":1,
    "iraqis":1,
    "hasnala":1,
    "shi":1,
    "aluno":1,
    "quibaan":1,
    "ones":1,
    "rape":1,
    "torture":1,
    "making":1,
    "hysterical":1,
    "comprende":1,
    "spirit":1,
    "disrobe":1,
    "heads":1,
    "whoa":1,
    "document":1,
    "perfect":1,
    "hasa":1,
    "timal":1,
    "chain":1,
    "squeeze":1,
    "cheeks":1,
    "fifty":1,
    "page":1,
    "fullcolor":1,
    "mini":1,
    "atlas":1,
    "service":1,
    "37d":1,
    "grinding":1,
    "manners":1,
    "whatsoever":1,
    "handling":1,
    "prestige":1,
    "century":1,
    "neglected":1,
    "plenty":1,
    "feature":1,
    "pal":1,
    "schwartzkopf":1,
    "book":1,
    "powell":1,
    "running":1,
    "press":1,
    "pools":1,
    "occupy":1,
    "biggest":1,
    "dbag":1,
    "hook":1,
    "consult":1,
    "movies":1,
    "security":1,
    "mind":1,
    "ahead":1,
    "fuuuuuck":1,
    "yooouuuu":1,
    "ronnnnn":1,
    "washed":1,
    "hands":1,
    "knows":1,
    "vermin":1,
    "butt":1,
    "kid":1,
    "walleyed":1,
    "johannesburg":1,
    "nigger":1,
    "uses":1,
    "terms":1,
    "point":1,
    "camel":1,
    "jockey":1,
    "perfectly":1,
    "substitutes":1,
    "confusing":1,
    "vicadan":1,
    "caffergot":1,
    "translate":1,
    "meters":1,
    "pow":1,
    "vision":1,
    "according":1,
    "intelligence":1,
    "picasso":1,
    "armani":1,
    "mercedes":1,
    "sony":1,
    "muslim":1,
    "beverly":1,
    "hills":1,
    "sacked":1,
    "awesome":1,
    "stereo":1,
    "system":1,
    "bos":1,
    "speakers":1,
    "silver":1,
    "anyway":1,
    "split":1,
    "level":1,
    "bank":1,
    "sitting":1,
    "scud":1,
    "line":1,
    "purpose":1,
    "galactic":1,
    "plutonium":1,
    "forcefield":1,
    "baptism":1,
    "necessary":1,
    "suffice":1,
    "benefit":1,
    "restricted":1,
    "afternoon":1,
    "proctology":1,
    "urology":1,
    "captains":1,
    "staff":1,
    "meeting":1,
    "proctologist":1,
    "urologist":1,
    "smell":1,
    "recognize":1,
    "wise":1,
    "mappy":1,
    "slappy":1,
    "pappy":1,
    "pass":1,
    "present":1,
    "meter":1,
    "commander":1,
    "sandy":1,
    "letter":1,
    "eyeraqi":1,
    "recon":1,
    "photos":1,
    "match":1,
    "rangers":1,
    "badass":1,
    "flashlights":1,
    "villages":1,
    "bit":1,
    "farther":1,
    "west":1,
    "seventyfive":1,
    "closer":1,
    "dawn":1,
    "lunch":1,
    "course":1,
    "arabs":1,
    "watches":1,
    "checking":1,
    "clueless":1,
    "reservists":1,
    "become":1,
    "swell":1,
    "5":1,
    "50000":1,
    "todays":1,
    "market":1,
    "brick":1,
    "divided":1,
    "places":1,
    "unless":1,
    "kings":1,
    "panama":1,
    "sailing":1,
    "noriegas":1,
    "boats":1,
    "buddha":1,
    "unfortunately":1,
    "swamp":1,
    "bombed":1,
    "months":1,
    "deserting":1,
    "theyve":1,
    "completely":1,
    "beaten":1,
    "sense":1,
    "word":1,
    "salute":1,
    "meaningless":1,
    "ride":1,
    "lasts":1,
    "morning":1,
    "takes":1,
    "detained":1,
    "lean":1,
    "dashing":1,
    "posed":1,
    "youll":1,
    "dream":1,
    "commanding":1,
    "veterinarian":1,
    "cia":1,
    "sharpshooter":1,
    "threw":1,
    "ball":1,
    "higher":1,
    "easier":1,
    "blacks":1,
    "receivers":1,
    "quarterback":1,
    "oilers":1,
    "behind":1,
    "randall":1,
    "cunningham":1,
    "mud":1,
    "eagles":1,
    "williams":1,
    "redskins":1,
    "won":1,
    "agree":1,
    "sorryassed":1,
    "heavy":1,
    "onehanded":1,
    "movie":1,
    "approach":1,
    "standard":1,
    "operations":1,
    "movement":1,
    "decisive":1,
    "guards":1,
    "frozen":1,
    "fired":1,
    "single":1,
    "bradleys":1,
    "plows":1,
    "berms":1,
    "covered":1,
    "trenches":1,
    "option":1,
    "chose":1,
    "rehearse":1,
    "primary":1,
    "short":1,
    "swept":1,
    "forever":1,
    "em":1,
    "except":1,
    "supercool":1,
    "neck":1,
    "infection":1,
    "blood":1,
    "septic":1,
    "happens":1,
    "tears":1,
    "tissue":1,
    "closes":1,
    "convulsive":1,
    "motion":1,
    "typical":1,
    "gunshot":1,
    "wounds":1,
    "fills":1,
    "bacteria":1,
    "blinds":1,
    "paralyzes":1,
    "castrates":1,
    "worst":1,
    "thorax":1,
    "blade":1,
    "breathe":1,
    "leaks":1,
    "fill":1,
    "push":1,
    "crushing":1,
    "liver":1,
    "kills":1,
    "breath":1,
    "kinda":1,
    "lie":1,
    "once":1,
    "fatal":1,
    "overinflated":1,
    "tire":1,
    "play":1,
    "ashamed":1,
    "liking":1,
    "calms":1,
    "mozart":1,
    "bach":1,
    "protect":1,
    "remain":1,
    "orders":1,
    "aside":1,
    "panic":1,
    "protection":1,
    "safety":1,
    "ha":1,
    "chemical":1,
    "mamaa":1,
    "ganan":1,
    "azwar":1,
    "hospital":1,
    "mres":1,
    "boring":1,
    "rare":1,
    "pelican":1,
    "migration":1,
    "marshes":1,
    "migrating":1,
    "spite":1,
    "massive":1,
    "pollution":1,
    "bike":1,
    "evil":1,
    "perpetrated":1,
    "burning":1,
    "suit":1,
    "discriminating":1,
    "resort":1,
    "carefully":1,
    "surgically":1,
    "learned":1,
    "underestimate":1,
    "towns":1,
    "scumbag":1,
    "starve":1,
    "butcher":1,
    "spitting":1,
    "ignoring":1,
    "ethnic":1,
    "majority":1,
    "pulled":1,
    "bring":1,
    "rest":1,
    "dependent":1,
    "comes":1,
    "dictates":1,
    "lives":1,
    "couldve":1,
    "notice":1,
    "touch":1,
    "decimated":1,
    "entire":1,
    "shitless":1,
    "rock":1,
    "roll":1,
    "fashionable":1,
    "marsh":1,
    "russian":1,
    "cranes":1,
    "al":1,
    "grow":1,
    "spot":1,
    "karbalas":1,
    "hotspot":1,
    "driving":1,
    "regulations":1,
    "m16":1,
    "basic":1,
    "fully":1,
    "automatic":1,
    "giving":1,
    "cbs":1,
    "authorization":1,
    "faster":1,
    "marine":1,
    "corps":1,
    "drop":1,
    "smoke":1,
    "ceasefire":1,
    "safwan":1,
    "march":1,
    "3":1,
    "hereby":1,
    "confiscate":1,
    "material":1,
    "emirate":1,
    "isnam":1,
    "panan":1,
    "fatwa":1,
    "aznir":1,
    "anyone":1,
    "pistol":1,
    "divorced":1,
    "newest":1,
    "noise":1,
    "reduction":1,
    "less":1,
    "distortion":1,
    "floor":1,
    "bother":1,
    "kata":1,
    "fanam":1,
    "basement":1,
    "yer":1,
    "asses":1,
    "whipped":1,
    "gabar":1,
    "matan":1,
    "kinam":1,
    "donkey":1,
    "worries":1,
    "treaty":1,
    "alone":1,
    "everything":1,
    "belongs":1,
    "seven":1,
    "50k":1,
    "thirty":1,
    "fleet":1,
    "convertibles":1,
    "colors":1,
    "bet":1,
    "bags":1,
    "200":1,
    "airport":1,
    "60":1,
    "13":1,
    "800":1,
    "smaller":1,
    "vuittons":1,
    "luggage":1,
    "prepared":1,
    "shipping":1,
    "barrels":1,
    "oil":1,
    "port":1,
    "saudi":1,
    "ship":1,
    "turkish":1,
    "red":1,
    "sea":1,
    "perpignan":1,
    "hat":1,
    "boxes":1,
    "fit":1,
    "uhaul":1,
    "fiat":1,
    "mill":1,
    "thunderbird":1,
    "standin":1,
    "forty":1,
    "top":1,
    "end":1,
    "floored":1,
    "certainly":1,
    "ourselves":1,
    "finan":1,
    "flat":1,
    "sideways":1,
    "rig":1,
    "carts":1,
    "cooperate":1,
    "nazaran":1,
    "yafit":1,
    "haisul":1,
    "kick":1,
    "feel":1,
    "strong":1,
    "leader":1,
    "offering":1,
    "listening":1,
    "unnecessary":1,
    "shots":1,
    "bullets":1,
    "vital":1,
    "infected":1,
    "pockets":1,
    "kazal":1,
    "stan":1,
    "hamir":1,
    "fatar":1,
    "changed":1,
    "grenade":1,
    "launcher":1,
    "mafan":1,
    "bitch":1,
    "lining":1,
    "incoming":1,
    "road":1,
    "mask":1,
    "sarin":1,
    "mustard":1,
    "cs":1,
    "tear":1,
    "lethal":1,
    "tunnel":1,
    "clears":1,
    "crime":1,
    "hope":1,
    "proof":1,
    "cease":1,
    "paco":1,
    "jalam":1,
    "nafad":1,
    "um":1,
    "speak":1,
    "storm":1,
    "emergency":1,
    "babys":1,
    "crying":1,
    "hasnt":1,
    "sleeping":1,
    "mamma":1,
    "wish":1,
    "gooney":1,
    "bird":1,
    "ad":1,
    "set":1,
    "exact":1,
    "henpecking":1,
    "lonely":1,
    "wall":1,
    "exploded":1,
    "babe":1,
    "favor":1,
    "base":1,
    "223":1,
    "worry":1,
    "tried":1,
    "soaring":1,
    "wogoman":1,
    "suburb":1,
    "fundamentalists":1,
    "rising":1,
    "person":1,
    "docs":1,
    "aides":1,
    "run":1,
    "tight":1,
    "bails":1,
    "breaking":1,
    "rank":1,
    "master":1,
    "egypt":1,
    "picture":1,
    "newspaper":1,
    "always":1,
    "window":1,
    "girls":1,
    "likes":1,
    "fahk":1,
    "blind":1,
    "obvious":1,
    "travel":1,
    "skin":1,
    "hair":1,
    "hisself":1,
    "seemed":1,
    "volts":1,
    "slow":1,
    "figure":1,
    "dudesky":1,
    "bummer":1,
    "hurts":1,
    "blow":1,
    "street":1,
    "crush":1,
    "block":1,
    "bed":1,
    "asleeping":1,
    "toy":1,
    "doll":1,
    "ohio":1,
    "without":1,
    "decide":1,
    "fathers":1,
    "survivor":1,
    "wash":1,
    "sin":1,
    "comin":1,
    "account":1,
    "stealing":1,
    "chief":1,
    "28":1,
    "92":1,
    "23":1,
    "disaster":1,
    "provided":1,
    "before":1,
    "dark":1,
    "busted":1,
    "myself":1,
    "carry":1,
    "careful":1,
    "dehydrated":1,
    "broken":1,
    "arms":1,
    "traumatized":1,
    "expect":1,
    "bowling":1,
    "green":1,
    "terrorist":1,
    "business":1,
    "came":1,
    "couple":1,
    "hotels":1,
    "almost":1,
    "cafes":1,
    "twisting":1,
    "wind":1,
    "un":1,
    "befuckinglievable":1,
    "hard":1,
    "core":1,
    "17":1,
    "wheels":1,
    "choppers":1,
    "fly":1,
    "supposed":1,
    "reclaimed":1,
    "theyd":1,
    "boosting":1,
    "half":1,
    "wisely":1,
    "gear":1,
    "grunts":1,
    "john":1,
    "doe":1,
    "katar":1,
    "refugee":1,
    "camps":1,
    "democracy":1,
    "beats":1,
    "ugly":1,
    "saves":1,
    "kuwaitis":1,
    "escape":1,
    "everyone":1,
    "priests":1,
    "yalam":1,
    "fantam":1,
    "uraz":1,
    "human":1,
    "join":1,
    "living":1,
    "extra":1,
    "cash":1,
    "common":1,
    "specialist":1,
    "sabotage":1,
    "interrogation":1,
    "dirty":1,
    "huh":1,
    "scahmbag":1,
    "fahked":1,
    "worse":1,
    "death":1,
    "everyday":1,
    "david":1,
    "bowie":1,
    "iman":1,
    "n":1,
    "m":1,
    "whatever":1,
    "attractive":1,
    "names":1,
    "decoys":1,
    "bombers":1,
    "deserters":1,
    "whered":1,
    "animals":1,
    "kishan":1,
    "tramai":1,
    "zoo":1,
    "nabal":1,
    "hazala":1,
    "taq":1,
    "hungry":1,
    "barbarians":1,
    "congratulation":1,
    "explain":1,
    "gentlemen":1,
    "funny":1,
    "bunch":1,
    "kish":1,
    "falan":1,
    "azar":1,
    "yat":1,
    "imal":1,
    "tanat":1,
    "tanks":1,
    "airplanes":1,
    "jihala":1,
    "vamat":1,
    "races":1,
    "nations":1,
    "praise":1,
    "brothers":1,
    "judas":1,
    "priest":1,
    "pump":1,
    "song":1,
    "survive":1,
    "discussed":1,
    "invade":1,
    "jahaza":1,
    "lots":1,
    "trouble":1,
    "invaded":1,
    "stabilize":1,
    "region":1,
    "splinter":1,
    "disguise":1,
    "chopper":1,
    "families":1,
    "cowards":1,
    "onetwo":1,
    "gives":1,
    "steps":1,
    "jakar":1,
    "yizam":1,
    "ut":1,
    "naral":1,
    "leather":1,
    "interior":1,
    "owe":1,
    "later":1,
    "moment":1,
    "vehicles":1,
    "choose":1,
    "others":1,
    "convenient":1,
    "theyll":1,
    "steal":1,
    "lock":1,
    "moves":1,
    "haza":1,
    "janav":1,
    "yasat":1,
    "erase":1,
    "dear":1,
    "heaven":1,
    "hallowed":1,
    "kingdom":1,
    "kajatar":1,
    "pressure":1,
    "minutes":1,
    "release":1,
    "valve":1,
    "long":1,
    "bleeding":1,
    "thirsty":1,
    "anywhere":1,
    "hooked":1,
    "read":1,
    "reading":1,
    "clicks":1,
    "ready":1,
    "handles":1,
    "everythings":1,
    "personnel":1,
    "secret":1,
    "driver":1,
    "239":1,
    "add":1,
    "medavac":1,
    "pack":1,
    "dump":1,
    "narrow":1,
    "sounds":1,
    "direction":1,
    "comb":1,
    "barlows":1,
    "damned":1,
    "watching":1,
    "quelle":1,
    "gonzesse":1,
    "words":1,
    "sympathy":1,
    "watcha":1,
    "protecting":1,
    "peoples":1,
    "fixed":1,
    "penicillin":1,
    "cest":1,
    "super":1,
    "mercy":1,
    "seenking":1,
    "opening":1,
    "wide":1,
    "iranians":1,
    "jihad":1,
    "double":1,
    "reach":1,
    "medical":1,
    "attention":1,
    "awol":1,
    "fugitive":1,
    "barrel":1,
    "4":1,
    "tons":1,
    "honor":1,
    "return":1,
    "situation":1,
    "morbid":1,
    "tableau":1,
    "recovered":1,
    "policy":1,
    "refugees":1,
    "while":1,
    "recovering":1,
    "turn":1,
    "75":1,
    "dollar":1,
    "dammit":1,
    "dag":2,
    "gettin":2,
    "new":2,
    "kids":2,
    "looked":2,
    "breathing":2,
    "hits":2,
    "sell":2,
    "jim":2,
    "headache":2,
    "motherfucker":2,
    "young":2,
    "celebrate":2,
    "700":2,
    "retire":2,
    "sowsan":2,
    "sair":2,
    "face":2,
    "busy":2,
    "youd":2,
    "jugular":2,
    "journalistically":2,
    "guide":2,
    "youve":2,
    "helping":2,
    "tomorrow":2,
    "next":2,
    "prisoner":2,
    "abdul":2,
    "rags":2,
    "english":2,
    "git":2,
    "obey":2,
    "towel":2,
    "freaky":2,
    "ate":2,
    "private":2,
    "glove":2,
    "command":2,
    "colonel":2,
    "somebody":2,
    "b":2,
    "prisoners":2,
    "ear":2,
    "media":2,
    "violation":2,
    "gets":2,
    "president":2,
    "huge":2,
    "win":2,
    "americans":2,
    "ironic":2,
    "thousand":2,
    "dune":2,
    "koon":2,
    "follow":2,
    "school":2,
    "group":2,
    "van":2,
    "door":2,
    "night":2,
    "during":2,
    "rolex":2,
    "last":2,
    "year":2,
    "computer":2,
    "waiting":2,
    "puts":2,
    "explanation":2,
    "looking":2,
    "sargeant":2,
    "truth":2,
    "division":2,
    "cappy":2,
    "hold":2,
    "series":2,
    "best":2,
    "looks":2,
    "klicks":2,
    "65":2,
    "starving":2,
    "pain":2,
    "cubes":2,
    "soup":2,
    "mr":2,
    "hussein":2,
    "different":2,
    "hiding":2,
    "jobs":2,
    "else":2,
    "went":2,
    "dropped":2,
    "accident":2,
    "surrendered":2,
    "nowhere":2,
    "true":2,
    "ever":2,
    "used":2,
    "arc":2,
    "quarterbacks":2,
    "warren":2,
    "moon":2,
    "superbowl":2,
    "called":2,
    "action":2,
    "bombs":2,
    "buried":2,
    "alive":2,
    "through":2,
    "mines":2,
    "rhonda":2,
    "bombing":2,
    "sepsis":2,
    "bullet":2,
    "bile":2,
    "wound":2,
    "seen":2,
    "tension":2,
    "pneumo":2,
    "hole":2,
    "lung":2,
    "chest":2,
    "balloon":2,
    "organs":2,
    "milk":2,
    "charge":2,
    "ya":2,
    "brave":2,
    "pelicans":2,
    "stratagem":2,
    "weeks":2,
    "civilians":2,
    "bag":2,
    "pretty":2,
    "respect":2,
    "given":2,
    "says":2,
    "spend":2,
    "wearing":2,
    "kevlar":2,
    "weve":2,
    "balls":2,
    "uprising":2,
    "christs":2,
    "sake":2,
    "arab":2,
    "vanir":2,
    "everybody":2,
    "stick":2,
    "sixty":2,
    "suitcase":2,
    "tensilary":2,
    "strength":2,
    "bars":2,
    "handle":2,
    "handled":2,
    "french":2,
    "filled":2,
    "bury":2,
    "yanbu":2,
    "boat":2,
    "baltimore":2,
    "trailer":2,
    "deuce":2,
    "coupe":2,
    "hundred":2,
    "hazal":2,
    "jarat":2,
    "away":2,
    "peace":2,
    "accord":2,
    "geneva":2,
    "convention":2,
    "usa":2,
    "send":2,
    "wanna":2,
    "gas":2,
    "mouth":2,
    "until":2,
    "broke":2,
    "dress":2,
    "number":2,
    "operation":2,
    "hows":2,
    "tired":2,
    "gooneybird":2,
    "working":2,
    "hero":2,
    "date":2,
    "miss":2,
    "stuck":2,
    "rich":2,
    "taken":2,
    "matter":2,
    "being":2,
    "held":2,
    "captive":2,
    "city":2,
    "reporter":2,
    "shorter":2,
    "tape":2,
    "helmet":2,
    "missing":2,
    "transmissions":2,
    "break":2,
    "hotel":2,
    "white":2,
    "build":2,
    "ask":2,
    "whole":2,
    "concrete":2,
    "lose":2,
    "nice":2,
    "years":2,
    "both":2,
    "father":2,
    "remember":2,
    "kind":2,
    "kicked":2,
    "front":2,
    "bschool":2,
    "rid":2,
    "full":2,
    "18":2,
    "involved":2,
    "killed":2,
    "jail":2,
    "fighters":2,
    "imam":2,
    "train":2,
    "soldier":2,
    "minimum":2,
    "tall":2,
    "model":2,
    "throw":2,
    "fan":2,
    "eat":2,
    "dizzy":2,
    "cars":2,
    "rise":2,
    "wants":2,
    "yaqat":2,
    "feeling":2,
    "saving":2,
    "stable":2,
    "stability":2,
    "fuse":2,
    "done":2,
    "rolls":2,
    "shock":2,
    "helped":2,
    "shrines":2,
    "close":2,
    "courtmartialed":2,
    "trucks":2,
    "100k":2,
    "roger":2,
    "fort":2,
    "bragg":2,
    "show":2,
    "yamat":2,
    "arrest":2,
    "camera":2,
    "authorized":2,
    "trying":3,
    "surrender":3,
    "into":3,
    "ground":3,
    "pictures":3,
    "lucky":3,
    "wars":3,
    "days":3,
    "troys":3,
    "enemy":3,
    "yours":3,
    "spirits":3,
    "troops":3,
    "ees":3,
    "second":3,
    "hash":3,
    "lead":3,
    "speaking":3,
    "celebration":3,
    "vietnam":3,
    "clear":3,
    "id":3,
    "thank":3,
    "american":3,
    "least":3,
    "land":3,
    "bless":3,
    "lay":3,
    "wouldnt":3,
    "open":3,
    "trained":3,
    "warrior":3,
    "christ":3,
    "might":3,
    "dick":3,
    "major":3,
    "code":3,
    "wanted":3,
    "power":3,
    "guess":3,
    "smithson":3,
    "either":3,
    "lord":3,
    "live":3,
    "cracker":3,
    "hours":3,
    "use":3,
    "definitely":3,
    "doesnt":3,
    "infiniti":3,
    "rolexes":3,
    "buy":3,
    "fine":3,
    "training":3,
    "path":3,
    "mine":3,
    "safe":3,
    "cuz":3,
    "baptized":3,
    "means":3,
    "may":3,
    "forces":3,
    "damn":3,
    "wed":3,
    "worth":3,
    "hot":3,
    "kilos":3,
    "should":3,
    "easy":3,
    "under":3,
    "mission":3,
    "question":3,
    "boy":3,
    "infantry":3,
    "shut":3,
    "violence":3,
    "fast":3,
    "havent":3,
    "cow":3,
    "cnn":3,
    "cavity":3,
    "heard":3,
    "side":3,
    "heart":3,
    "step":3,
    "yall":3,
    "weapon":3,
    "art":3,
    "killing":3,
    "few":3,
    "six":3,
    "after":3,
    "wasted":3,
    "happen":3,
    "military":3,
    "room":3,
    "eight":3,
    "pounds":3,
    "shell":3,
    "shes":3,
    "load":3,
    "happening":3,
    "lost":3,
    "hello":3,
    "saw":3,
    "co":3,
    "gritty":3,
    "check":3,
    "michael":3,
    "king":3,
    "pop":3,
    "straight":3,
    "legs":3,
    "horrible":3,
    "part":3,
    "camp":3,
    "oasis":3,
    "four":3,
    "pick":3,
    "fifteen":3,
    "iranian":3,
    "iran":3,
    "saved":3,
    "matters":3,
    "food":3,
    "jahal":3,
    "george":3,
    "thy":3,
    "brer":3,
    "rabbit":3,
    "briar":3,
    "patch":3,
    "cuffs":3,
    "yourself":4,
    "old":4,
    "twenty":4,
    "aint":4,
    "real":4,
    "music":4,
    "sand":4,
    "great":4,
    "things":4,
    "gone":4,
    "start":4,
    "freedom":4,
    "men":4,
    "hurt":4,
    "weapons":4,
    "only":4,
    "important":4,
    "took":4,
    "feels":4,
    "star":4,
    "general":4,
    "saying":4,
    "dictator":4,
    "guard":4,
    "ron":4,
    "times":4,
    "hear":4,
    "captain":4,
    "excellent":4,
    "wow":4,
    "walter":4,
    "tent":4,
    "car":4,
    "very":4,
    "risk":4,
    "signed":4,
    "ring":4,
    "yet":4,
    "north":4,
    "stolen":4,
    "starts":4,
    "together":4,
    "bricks":4,
    "every":4,
    "stupid":4,
    "first":4,
    "black":4,
    "cut":4,
    "tank":4,
    "beach":4,
    "marines":4,
    "hate":4,
    "civil":4,
    "most":4,
    "money":4,
    "didnt":4,
    "scared":4,
    "drive":4,
    "interview":4,
    "order":4,
    "buddy":4,
    "listen":4,
    "dollars":4,
    "house":4,
    "save":4,
    "main":4,
    "daughter":4,
    "shrine":4,
    "girl":4,
    "fight":4,
    "wrong":5,
    "free":5,
    "high":5,
    "anything":5,
    "getting":5,
    "children":5,
    "wife":5,
    "wont":5,
    "gave":5,
    "stand":5,
    "works":5,
    "enough":5,
    "bunkers":5,
    "world":5,
    "has":5,
    "jackson":5,
    "exactly":5,
    "iraqi":5,
    "never":5,
    "near":5,
    "ten":5,
    "already":5,
    "sure":5,
    "understand":5,
    "special":5,
    "leaves":5,
    "nothing":5,
    "kuwaiti":5,
    "their":5,
    "desert":5,
    "doug":5,
    "guns":5,
    "fucked":5,
    "ive":5,
    "calm":5,
    "move":5,
    "necessity":5,
    "thought":5,
    "vehicle":5,
    "please":5,
    "wait":5,
    "honey":5,
    "krystal":5,
    "bro":5,
    "small":5,
    "sick":5,
    "dude":5,
    "tar":5,
    "shooting":6,
    "anybody":6,
    "shot":6,
    "oh":6,
    "really":6,
    "try":6,
    "watch":6,
    "million":6,
    "gates":6,
    "saddams":6,
    "bill":6,
    "which":6,
    "makes":6,
    "goes":6,
    "other":6,
    "her":6,
    "love":6,
    "company":6,
    "deal":6,
    "coming":6,
    "isnt":6,
    "taking":6,
    "freeze":6,
    "each":6,
    "am":6,
    "die":6,
    "bush":6,
    "family":6,
    "stay":6,
    "archie":6,
    "plan":6,
    "suitcases":6,
    "crazy":6,
    "call":6,
    "walk":6,
    "cover":6,
    "son":6,
    "shoot":7,
    "place":7,
    "air":7,
    "been":7,
    "thing":7,
    "again":7,
    "two":7,
    "hell":7,
    "whos":7,
    "because":7,
    "god":7,
    "told":7,
    "made":7,
    "care":7,
    "those":7,
    "work":7,
    "day":7,
    "inside":7,
    "lexus":7,
    "convertible":7,
    "hit":7,
    "talk":7,
    "fire":7,
    "soldiers":7,
    "leave":7,
    "humvee":7,
    "pull":7,
    "own":7,
    "hey":7,
    "she":7,
    "border":7,
    "head":8,
    "gotta":8,
    "around":8,
    "said":8,
    "happened":8,
    "five":8,
    "as":8,
    "bullion":8,
    "going":8,
    "shiites":8,
    "today":8,
    "cool":8,
    "sorry":8,
    "map":8,
    "even":8,
    "iraq":8,
    "home":8,
    "keep":8,
    "name":8,
    "friend":8,
    "better":8,
    "than":8,
    "dead":8,
    "america":8,
    "choice":8,
    "radio":8,
    "fahking":8,
    "same":9,
    "problem":9,
    "story":9,
    "talking":9,
    "way":9,
    "country":9,
    "had":9,
    "off":9,
    "something":9,
    "job":9,
    "any":9,
    "karbala":9,
    "time":9,
    "theyre":9,
    "boys":9,
    "states":9,
    "cannot":9,
    "truck":9,
    "much":10,
    "stop":10,
    "life":10,
    "kuwait":10,
    "ass":10,
    "another":10,
    "army":10,
    "outside":10,
    "many":10,
    "does":10,
    "wheres":10,
    "baby":10,
    "three":11,
    "bad":11,
    "theres":11,
    "lot":11,
    "bunker":11,
    "mean":11,
    "would":11,
    "bullshit":11,
    "guy":11,
    "why":11,
    "little":11,
    "water":11,
    "look":11,
    "doc":11,
    "yeah":11,
    "united":11,
    "doing":11,
    "still":12,
    "ill":12,
    "big":12,
    "kill":12,
    "say":12,
    "put":12,
    "well":12,
    "our":12,
    "bomb":12,
    "then":13,
    "guys":13,
    "maybe":13,
    "too":13,
    "conrad":13,
    "troy":13,
    "barlow":13,
    "people":14,
    "see":14,
    "jesus":14,
    "could":14,
    "some":14,
    "by":14,
    "who":14,
    "or":15,
    "when":15,
    "let":15,
    "goddamn":15,
    "cant":15,
    "an":15,
    "give":15,
    "make":15,
    "yes":15,
    "shiite":15,
    "more":16,
    "there":16,
    "fuck":16,
    "lets":16,
    "tell":16,
    "down":17,
    "shit":17,
    "his":18,
    "whats":18,
    "think":18,
    "sir":18,
    "good":18,
    "find":19,
    "want":19,
    "war":19,
    "one":19,
    "just":19,
    "back":19,
    "need":19,
    "where":20,
    "over":20,
    "come":20,
    "hes":21,
    "was":22,
    "these":22,
    "help":22,
    "saddam":22,
    "at":22,
    "will":22,
    "youre":23,
    "from":23,
    "did":23,
    "so":23,
    "gonna":24,
    "them":24,
    "fucking":25,
    "he":29,
    "him":29,
    "know":30,
    "were":30,
    "how":31,
    "ok":31,
    "if":32,
    "can":32,
    "but":34,
    "go":34,
    "now":35,
    "up":36,
    "right":36,
    "like":37,
    "here":37,
    "man":38,
    "gold":38,
    "all":40,
    "have":40,
    "out":41,
    "on":41,
    "about":41,
    "us":42,
    "with":43,
    "take":44,
    "they":45,
    "be":45,
    "its":45,
    "thats":47,
    "your":50,
    "got":51,
    "me":51,
    "no":55,
    "not":57,
    "are":58,
    "dont":63,
    "my":64,
    "im":65,
    "do":66,
    "get":67,
    "that":68,
    "for":69,
    "this":85,
    "is":93,
    "in":97,
    "and":102,
    "of":102,
    "what":103,
    "we":121,
    "it":128,
    "":137,
    "i":167,
    "to":184,
    "a":187,
    "you":285,
    "the":326
}