{
    "who\u2019d":1,
    "stealing":1,
    "satellite":1,
    "phones\u2019d":1,
    "sense":1,
    "hock":1,
    "charges":1,
    "someone\u2019s":1,
    "account":1,
    "burning":1,
    "pulling":1,
    "prank":1,
    "there\u2019d":1,
    "message":1,
    "\u201cfuck":1,
    "you\u201d":1,
    "parents":1,
    "world":1,
    "summit":1,
    "thoughtfully":1,
    "solve":1,
    "diner":1,
    "talking":1,
    "gossip":1,
    "hiking":1,
    "crest":1,
    "3":1,
    "brought":1,
    "date":1,
    "gotcha":1,
    "nothin\u2019":1,
    "fuckin\u2019":1,
    "self":1,
    "gets":1,
    "circles":1,
    "gas":1,
    "tarp":1,
    "generators":1,
    "roads":1,
    "book":1,
    "scribbles":1,
    "rants":1,
    "innit":1,
    "freedom":1,
    "cuddle":1,
    "cute":1,
    "wifey":1,
    "laid":1,
    "rips":1,
    "blithely":1,
    "tucks":1,
    "happy":1,
    "motoring":1,
    "add":1,
    "collection":1,
    "climbs":1,
    "bad":1,
    "writing":1,
    "lives":1,
    "cabin":1,
    "ridge":1,
    "reminds":1,
    "though":1,
    "drop":1,
    "likes":1,
    "gently":1,
    "blares":1,
    "dispatcher":1,
    "riis\u2019s":1,
    "bad\u2019s":1,
    "caught":1,
    "taxes":1,
    "january\u2019s":1,
    "orders":1,
    "fun":1,
    "seattle":1,
    "6a":1,
    "such":1,
    "altogether":1,
    "finishes":1,
    "hammering":1,
    "nonetheless":1,
    "6b":1,
    "didja":1,
    "small":1,
    "state":1,
    "boss":1,
    "inspected":1,
    "certified":1,
    "31st":1,
    "notice":1,
    "saved":1,
    "wanna":1,
    "patiently":1,
    "forms":1,
    "clipboard":1,
    "ton":1,
    "shame":1,
    "6c":1,
    "goddamn":1,
    "means":1,
    "mute":1,
    "anger":1,
    "inspects":1,
    "hits":1,
    "popped":1,
    "messy":1,
    "towtruck":1,
    "fast":1,
    "ride":1,
    "marshal":1,
    "stuck":1,
    "7b":1,
    "tow":1,
    "car":1,
    "weren\u2019t":1,
    "rogers":1,
    "7d":1,
    "whether":1,
    "7e":1,
    "landlady":1,
    "workers":1,
    "keepin\u2019":1,
    "greedy":1,
    "drinking":1,
    "drunk":1,
    "denise\u2019s":1,
    "beauty":1,
    "charm":1,
    "throw":1,
    "year\u2019s":1,
    "sir":1,
    "bunk":1,
    "meant":1,
    "girls":1,
    "bills":1,
    "mail":1,
    "plants\u2019ll":1,
    "o\u2019":1,
    "cantcha":1,
    "price":1,
    "rent":1,
    "explaining":1,
    "heck\u2019s":1,
    "century":1,
    "1213":1,
    "sick":1,
    "jerk":1,
    "kennel":1,
    "lately":1,
    "usually":1,
    "wasn\u2019t":1,
    "ago":1,
    "troubled":1,
    "15":1,
    "games":1,
    "truth":1,
    "learn":1,
    "play":1,
    "playing":1,
    "ultimate":1,
    "blahdyblahblah":1,
    "entering":1,
    "sheds":1,
    "winter":1,
    "appraises":1,
    "gameboard":1,
    "blast":1,
    "albuterol":1,
    "among":1,
    "\u201cthe":1,
    "classic":1,
    "global":1,
    "domination\u201d":1,
    "reports":1,
    "called":1,
    "vandalism":1,
    "puts":1,
    "hell\u2019s":1,
    "goin\u2019":1,
    "17":1,
    "kindsa":1,
    "garbage":1,
    "blue":1,
    "jeans":1,
    "bikes":1,
    "sometimes":1,
    "yank":1,
    "nickname":1,
    "18":1,
    "yep":1,
    "drydock":1,
    "tourists":1,
    "looked":1,
    "fix":1,
    "parts":1,
    "bird":1,
    "debris":1,
    "angrily":1,
    "tosses":1,
    "startling":1,
    "speed":1,
    "ways":1,
    "burnt":1,
    "drink":1,
    "runs":1,
    "nail":1,
    "cheek":1,
    "threateningly":1,
    "pal":1,
    "intimidate":1,
    "taller":1,
    "ground":1,
    "flinch":1,
    "man":1,
    "wanting":1,
    "refuse":1,
    "escort":1,
    "i\u2019d":1,
    "barrel":1,
    "presses":1,
    "hammer":1,
    "lucy\u2019d":1,
    "clean":1,
    "kicked":1,
    "ass":1,
    "trouble":1,
    "worth":1,
    "presence":1,
    "cool":1,
    "react":1,
    "energy":1,
    "noticeably":1,
    "raised":1,
    "marshal\u2019s":1,
    "office":1,
    "lets":1,
    "also":1,
    "defense":1,
    "offense":1,
    "funny":1,
    "grins":1,
    "respects":1,
    "tough":1,
    "deputy":1,
    "could\u2019ve":1,
    "helped":1,
    "diplomatic":1,
    "missed":1,
    "sucks":1,
    "sometime":1,
    "awkward":1,
    "luckily":1,
    "leads":1,
    "cuffed":1,
    "along":1,
    "hi":1,
    "refinery":1,
    "you\u2019d":1,
    "flying":1,
    "when\u2019d":1,
    "raising":1,
    "bangs":1,
    "monitor":1,
    "criminy":1,
    "computer\u2019s":1,
    "phone\u2019s":1,
    "receiver":1,
    "frustration":1,
    "smirk":1,
    "mr":1,
    "mrs":1,
    "sweet":1,
    "freaked":1,
    "working":1,
    "honor":1,
    "\u201cthey\u201d":1,
    "inch":1,
    "focus":1,
    "deadwhite":1,
    "sensing":1,
    "throwing":1,
    "darkness":1,
    "27":1,
    "ransacks":1,
    "drawer":1,
    "desk":1,
    "intercede":1,
    "flashlight":1,
    "plastic":1,
    "bag":1,
    "filled":1,
    "helps":1,
    "greenhouse":1,
    "arrest":1,
    "perplexed":1,
    "spare":1,
    "noooo":1,
    "privacy":1,
    "real":1,
    "cell":1,
    "tower":1,
    "sit":1,
    "mock":1,
    "beams":1,
    "appreciatively":1,
    "notes":1,
    "focused":1,
    "yellow":1,
    "respond":1,
    "power\u2019s":1,
    "vomit":1,
    "everywhere":1,
    "heavy":1,
    "audible":1,
    "ominous":1,
    "silence":1,
    "clicks":1,
    "oleson":1,
    "drill":1,
    "homes":1,
    "repeat":1,
    "dinner":1,
    "please":1,
    "minds":1,
    "sits":1,
    "loss":1,
    "opens":1,
    "resolving":1,
    "smaaasssshh":1,
    "shatters":1,
    "hurtles":1,
    "table":1,
    "freezes":1,
    "sheer":1,
    "frightened":1,
    "backs":1,
    "couple":1,
    "steps":1,
    "who\u2019ll":1,
    "wonder":1,
    "ignore":1,
    "thinks":1,
    "gun\u2019ll":1,
    "kid":1,
    "old":1,
    "gal":1,
    "apart":1,
    "loon":1,
    "magazine":1,
    "paces":1,
    "restlessly":1,
    "action":1,
    "followed":1,
    "friends":1,
    "join":1,
    "authorities":1,
    "faults":1,
    "quickly":1,
    "senses":1,
    "tone":1,
    "searching":1,
    "visible":1,
    "haze":1,
    "curtly":1,
    "staring":1,
    "straining":1,
    "retrieves":1,
    "landscape":1,
    "washed":1,
    "green":1,
    "within":1,
    "jumps":1,
    "smash":1,
    "clamber":1,
    "ignition":1,
    "skidding":1,
    "opposite":1,
    "direction":1,
    "38":1,
    "agrees":1,
    "ashen":1,
    "personal":1,
    "bootlicker":1,
    "tall":1,
    "craven":1,
    "famished":1,
    "admires":1,
    "subtitle":1,
    "coldly":1,
    "dispassionate":1,
    "pats":1,
    "soothingly":1,
    "overlaps":1,
    "frenzy":1,
    "how\u2019s":1,
    "possible":1,
    "coked":1,
    "pcp":1,
    "feel":1,
    "bullets":1,
    "kay":1,
    "lopez":1,
    "sled":1,
    "rasps":1,
    "huddling":1,
    "poster":1,
    "child":1,
    "ptsd":1,
    "shuster":1,
    "reverend":1,
    "pfeiffer":1,
    "hamm":1,
    "shattered":1,
    "doc":1,
    "miller\u2019s":1,
    "school":1,
    "clinic":1,
    "already":1,
    "church":1,
    "scope":1,
    "public":1,
    "quick":1,
    "surprised":1,
    "contradicted":1,
    "started":1,
    "edge":1,
    "group":1,
    "size":1,
    "spotted":1,
    "rack":1,
    "brains":1,
    "anxiously":1,
    "sweating":1,
    "kelso\u2019s":1,
    "pulldown":1,
    "it\u2019d":1,
    "fit":1,
    "would\u2019ve":1,
    "boarded":1,
    "tack":1,
    "stable":1,
    "trust":1,
    "friend":1,
    "buildings":1,
    "roll":1,
    "crawlspaces":1,
    "where\u2019ll":1,
    "loading":1,
    "flares":1,
    "beartraps":1,
    "something\u2019s":1,
    "slow":1,
    "follows":1,
    "private":1,
    "break":1,
    "grimly":1,
    "truce":1,
    "44":1,
    "true":1,
    "fragged":1,
    "acknowledge":1,
    "sideview":1,
    "mirrors":1,
    "image":1,
    "creature\u2019s":1,
    "fills":1,
    "whips":1,
    "snowplow":1,
    "lowhanging":1,
    "canopy":1,
    "shearing":1,
    "creature":1,
    "rounds":1,
    "believing":1,
    "50":1,
    "50a":1,
    "moulding":1,
    "lowers":1,
    "rungs":1,
    "um":1,
    "early":1,
    "unwilling":1,
    "confused":1,
    "those":1,
    "elsewhere":1,
    "filed":1,
    "sort":1,
    "cult":1,
    "fall":1,
    "stubborn":1,
    "supernatural":1,
    "ohhhhh":1,
    "measure":1,
    "advantages":1,
    "resources":1,
    "wary":1,
    "stride":1,
    "alaskans":1,
    "build":1,
    "ice":1,
    "struck":1,
    "59":1,
    "larry":1,
    "cooper":1,
    "dillingham":1,
    "radio":1,
    "peephole":1,
    "covered":1,
    "tarpaper":1,
    "voiced":1,
    "realizes":1,
    "kids":1,
    "this\u2019d":1,
    "worse":1,
    "quietly":1,
    "frustrated":1,
    "comment":1,
    "interrupted":1,
    "confusion":1,
    "catherine":1,
    "died":1,
    "lung":1,
    "sixteen":1,
    "crash":1,
    "kills":1,
    "joins":1,
    "peer":1,
    "61":1,
    "ransacking":1,
    "clarks\u2019":1,
    "tearing":1,
    "everyone\u2019s":1,
    "62":1,
    "suggest":1,
    "hunting":1,
    "better\u2019n":1,
    "dying":1,
    "lose":1,
    "weight":1,
    "bringing":1,
    "rear":1,
    "slaps":1,
    "automatically":1,
    "brutally":1,
    "neck":1,
    "stare":1,
    "noise\u2019ll":1,
    "faster":1,
    "hears":1,
    "sulking":1,
    "sears":1,
    "strongest":1,
    "building":1,
    "its":1,
    "generator\u2019s":1,
    "gives":1,
    "roofs":1,
    "rooftops":1,
    "stalk":1,
    "kirsten":1,
    "griefstricken":1,
    "anytime":1,
    "lure":1,
    "questions":1,
    "picks":1,
    "glance":1,
    "carries":1,
    "implicit":1,
    "challenge":1,
    "heeds":1,
    "advice":1,
    "decides":1,
    "agreeing":1,
    "reaching":1,
    "protecting":1,
    "priority":1,
    "company":1,
    "daggers":1,
    "bigger":1,
    "shrugged":1,
    "weapons":1,
    "yours":1,
    "post":1,
    "trapdoor":1,
    "leans":1,
    "leaves":1,
    "goes":1,
    "awry":1,
    "apprehensively":1,
    "despite":1,
    "6768":1,
    "goahead":1,
    "claw":1,
    "red":1,
    "streak":1,
    "kirsten\u2019s":1,
    "ebennnn":1,
    "hurts":1,
    "hang":1,
    "safety":1,
    "hauls":1,
    "forward":1,
    "uses":1,
    "propel":1,
    "gasping":1,
    "bracing":1,
    "ebennnnnn":1,
    "blinks":1,
    "truly":1,
    "pile":1,
    "firewood":1,
    "side":1,
    "strains":1,
    "swing":1,
    "letting":1,
    "dives":1,
    "ebennnnnnnn":1,
    "77a":1,
    "devil":1,
    "cans":1,
    "daylight\u2019s":1,
    "sundown":1,
    "half":1,
    "hiding":1,
    "152":1,
    "robbinses":1,
    "ones":1,
    "considering":1,
    "crude":1,
    "map":1,
    "traffic":1,
    "happens":1,
    "town\u2019s":1,
    "twentyfive":1,
    "wide":1,
    "general":1,
    "store\u2019s":1,
    "hundred":1,
    "east":1,
    "west":1,
    "due":1,
    "north":1,
    "burrow":1,
    "blindfolded":1,
    "weather":1,
    "lived":1,
    "since":1,
    "born":1,
    "stir":1,
    "patience":1,
    "privately":1,
    "aside":1,
    "confuse":1,
    "attempt":1,
    "ram":1,
    "concrete":1,
    "skull":1,
    "wife\u2019ll":1,
    "clamps":1,
    "isaac\u2019s":1,
    "mouth":1,
    "struggle":1,
    "wriggles":1,
    "stops":1,
    "resisting":1,
    "flush":1,
    "open":1,
    "valve":1,
    "afterward":1,
    "understanding":1,
    "fully":1,
    "cooperating":1,
    "delicately":1,
    "slides":1,
    "drained":1,
    "encourage":1,
    "curve":1,
    "starve":1,
    "empty":1,
    "rifling":1,
    "pantries":1,
    "suddenly":1,
    "sliding":1,
    "rasp":1,
    "taps":1,
    "loose":1,
    "slugs":1,
    "flat":1,
    "thump":1,
    "escapes":1,
    "82":1,
    "fine":1,
    "alarmed":1,
    "signs":1,
    "danger":1,
    "comfort":1,
    "rubs":1,
    "archly":1,
    "probably":1,
    "congestion":1,
    "clearly":1,
    "kelso":1,
    "compromised":1,
    "snowing":1,
    "threw":1,
    "what\u2019re":1,
    "breathing":1,
    "fuck":1,
    "jesus":1,
    "speak":1,
    "shouting":1,
    "\u201cthey":1,
    "shot\u201d":1,
    "recovering":1,
    "raspily":1,
    "87":1,
    "noooooooooo":1,
    "wishes":1,
    "wanders":1,
    "stereo":1,
    "system":1,
    "gasps":1,
    "bg":1,
    "finger":1,
    "snapped":1,
    "rests":1,
    "talon":1,
    "phonograph":1,
    "turntable":1,
    "talons":1,
    "listens":1,
    "music":1,
    "grooves":1,
    "unreadable":1,
    "whiteout":1,
    "locked":1,
    "trade":1,
    "wheels":1,
    "fixing":1,
    "hasn\u2019t":1,
    "smell":1,
    "stopping":1,
    "90":1,
    "canned":1,
    "goods":1,
    "batteries":1,
    "supplies":1,
    "axes":1,
    "slack":1,
    "emergency":1,
    "nutrition":1,
    "sobbing":1,
    "exchange":1,
    "warily":1,
    "104":1,
    "case":1,
    "catching":1,
    "ruefully":1,
    "claps":1,
    "smart":1,
    "corpse":1,
    "anymore":1,
    "spoke":1,
    "english":1,
    "turned":1,
    "recognize":1,
    "decapitated":1,
    "wincing":1,
    "reeling":1,
    "sounds":1,
    "nauseated":1,
    "pulled":1,
    "tom\u2019s":1,
    "attacked":1,
    "bloodthirst":1,
    "numbers":1,
    "competition":1,
    "ruthless":1,
    "whiteout\u2019s":1,
    "106107":1,
    "snow\u2019ll":1,
    "regard":1,
    "dread":1,
    "109":1,
    "created":1,
    "diversion":1,
    "marijuana":1,
    "operation":1,
    "lamp":1,
    "grow":1,
    "stuff":1,
    "fry":1,
    "beat":1,
    "sheriff\u2019s":1,
    "dent":1,
    "kinds":1,
    "wattage":1,
    "ate":1,
    "xavier":1,
    "uv":1,
    "expect":1,
    "stopped":1,
    "bela":1,
    "lugosi":1,
    "use":1,
    "unless":1,
    "sunlight":1,
    "fastest":1,
    "weigh":1,
    "less":1,
    "everybody":1,
    "crying":1,
    "boy":1,
    "times":1,
    "realizing":1,
    "trusts":1,
    "bureaucrat":1,
    "making":1,
    "steels":1,
    "herself":1,
    "reluctantly":1,
    "handing":1,
    "jenny":1,
    "sideyard":1,
    "woodpile":1,
    "pot\u2019s":1,
    "laundry":1,
    "loving":1,
    "hating":1,
    "111":1,
    "status":1,
    "killing":1,
    "power":1,
    "resolved":1,
    "becomes":1,
    "unpaid":1,
    "paid":1,
    "decoy":1,
    "more\u2019n":1,
    "scared":1,
    "touched":1,
    "huh":1,
    "swarm":1,
    "furiously":1,
    "jumping":1,
    "dump":1,
    "bay":1,
    "snap":1,
    "steel":1,
    "trap":1,
    "camouflaged":1,
    "trap\u2019s":1,
    "bleeds":1,
    "upon":1,
    "falls":1,
    "mauled":1,
    "tire":1,
    "drives":1,
    "ain\u2019t":1,
    "flare":1,
    "box":1,
    "exploding":1,
    "138":1,
    "six":1,
    "known":1,
    "whole":1,
    "damn":1,
    "life":1,
    "he\u2019ll":1,
    "warn":1,
    "flashing":1,
    "disappears":1,
    "147":1,
    "kind":1,
    "shape":1,
    "lookout":1,
    "starving":1,
    "choice":1,
    "worst":1,
    "betrayed":1,
    "slept":1,
    "hurled":1,
    "furniture":1,
    "billy\u2019s":1,
    "creaks":1,
    "weakly":1,
    "grief":1,
    "shocked":1,
    "absorbs":1,
    "heard":1,
    "shots":1,
    "trapped":1,
    "signalled":1,
    "whacks":1,
    "rage":1,
    "boiling":1,
    "backhands":1,
    "holds":1,
    "loud":1,
    "attract":1,
    "yet":1,
    "loses":1,
    "fury":1,
    "guilt":1,
    "gruffly":1,
    "extends":1,
    "unsteady":1,
    "stumbles":1,
    "balance":1,
    "legs":1,
    "reconnect":1,
    "plant":1,
    "able":1,
    "155":1,
    "twice":1,
    "archibald":1,
    "obediently":1,
    "descends":1,
    "161d162omitted":1,
    "pushing":1,
    "blocks":1,
    "further":1,
    "169":1,
    "closely":1,
    "alamo":1,
    "pale":1,
    "needing":1,
    "shower":1,
    "desperate":1,
    "180c":1,
    "anyone":1,
    "vampireblack":1,
    "summoning":1,
    "strength":1,
    "involuntarily":1,
    "keens":1,
    "sees":1,
    "raise":1,
    "deafening":1,
    "wail":1,
    "cuts":1,
    "heart":1,
    "180f":1,
    "aid":1,
    "kit":1,
    "basic":1,
    "groups":1,
    "occasion":1,
    "sunrise":1,
    "nobody\u2019s":1,
    "nibbles":1,
    "chocolate":1,
    "fears":1,
    "welling":1,
    "tomorrow":1,
    "whisper":1,
    "concern":1,
    "chattering":1,
    "tighter":1,
    "pouring":1,
    "nurturing":1,
    "soul":1,
    "keeping":1,
    "183184":1,
    "they\u2019d":1,
    "186":1,
    "baby":1,
    "careen":1,
    "bidding":1,
    "191":1,
    "built":1,
    "nobody\u2019ll":1,
    "horrible":1,
    "accident":1,
    "year":1,
    "wainwright":1,
    "building\u2019s":1,
    "chevy":1,
    "bomb":1,
    "sinks":1,
    "reels":1,
    "198":1,
    "warmer":1,
    "awake":1,
    "honey":1,
    "200":1,
    "changed":1,
    "bitten":1,
    "managed":1,
    "onto":1,
    "else\u2019s":1,
    "crazy":1,
    "cascades":1,
    "brow":1,
    "shudders":1,
    "thickening":1,
    "digs":1,
    "pocket":1,
    "beads":1,
    "harder":1,
    "touch":1,
    "endure":1,
    "207":1,
    "holding":1,
    "angry":1,
    "bond":1,
    "circle":1,
    "cautions":1,
    "wave":1,
    "arm":1,
    "dealing":1,
    "pleasure":1,
    "lurches":1,
    "uncertain":1,
    "resumes":1,
    "trudging":1,
    "pitying":1,
    "211":1,
    "embraces":1,
    "sacrifice":1,
    "needs":1,
    "taste":1,
    "very":1,
    "clenching":1,
    "entirely":1,
    "sacred":1,
    "agreement":1,
    "meaning":1,
    "kneeling":1,
    "sweetheart":1,
    "folds":1,
    "grateful":1,
    "arms":1,
    "include":1,
    "dawn":1,
    "listening":1,
    "forever":1,
    "breathe":1,
    "love":1,
    "risk":1,
    "missing":1,
    "passes":1,
    "whoever":2,
    "walks":2,
    "best":2,
    "watches":2,
    "keeps":2,
    "c\u2019mon":2,
    "sign":2,
    "vehicle":2,
    "leaking":2,
    "cite":2,
    "citation":2,
    "haveta":2,
    "tonight":2,
    "least":2,
    "ticket":2,
    "beau\u2019s":2,
    "parka":2,
    "starts":2,
    "engine":2,
    "part":2,
    "always":2,
    "smirks":2,
    "elderly":2,
    "roger":2,
    "dogs":2,
    "maui":2,
    "charlie\u2019s":2,
    "towns":2,
    "wants":2,
    "happening":2,
    "heads":2,
    "sighs":2,
    "sorry":2,
    "useless":2,
    "ditch":2,
    "driller":2,
    "trying":2,
    "wouldn\u2019t":2,
    "bring":2,
    "fire":2,
    "drive":2,
    "asked":2,
    "same":2,
    "keys":2,
    "ask":2,
    "pipeline":2,
    "share":2,
    "sun\u2019s":2,
    "may":2,
    "write":2,
    "reason":2,
    "new":2,
    "yes":2,
    "course":2,
    "might":2,
    "wrong":2,
    "dog":2,
    "anybody":2,
    "freaks":2,
    "really":2,
    "yourself":2,
    "laboriously":2,
    "brother":2,
    "game":2,
    "today":2,
    "busy":2,
    "guess":2,
    "years":2,
    "chews":2,
    "shit":2,
    "headed":2,
    "haven\u2019t":2,
    "needed":2,
    "rip":2,
    "meat":2,
    "eat":2,
    "stranger\u2019s":2,
    "stands":2,
    "fresh":2,
    "myself":2,
    "weapon":2,
    "cuffs":2,
    "different":2,
    "eyebrow":2,
    "putting":2,
    "shoots":2,
    "seen":2,
    "slams":2,
    "helpless":2,
    "check":2,
    "windows":2,
    "steadily":2,
    "giving":2,
    "appears":2,
    "lights":2,
    "black":2,
    "surer":2,
    "generator":2,
    "helen\u2019s":2,
    "shines":2,
    "pot":2,
    "baffled":2,
    "cancer":2,
    "second":2,
    "moved":2,
    "worked":2,
    "heading":2,
    "alert":2,
    "lines":2,
    "doors":2,
    "load":2,
    "curfew":2,
    "hurt":2,
    "hidden":2,
    "ally":2,
    "shock":2,
    "shows":2,
    "everyone":2,
    "many":2,
    "street":2,
    "stupid":2,
    "whatever":2,
    "high":2,
    "comes":2,
    "step":2,
    "snowy":2,
    "doubt":2,
    "blackness":2,
    "pov":2,
    "deep":2,
    "shadows":2,
    "moving":2,
    "iris":2,
    "drawn":2,
    "zurial":2,
    "save":2,
    "strong":2,
    "someplace":2,
    "might\u2019ve":2,
    "idea":2,
    "searches":2,
    "most":2,
    "considers":2,
    "tickets":2,
    "distracted":2,
    "rearview":2,
    "fangs":2,
    "foot":2,
    "matter":2,
    "odds":2,
    "else":2,
    "hid":2,
    "nod":2,
    "judge":2,
    "frowns":2,
    "longer":2,
    "going":2,
    "exactly":2,
    "feed":2,
    "god":2,
    "sleep":2,
    "shifts":2,
    "hopeful":2,
    "finds":2,
    "tears":2,
    "thinking":2,
    "sitting":2,
    "sudden":2,
    "few":2,
    "hard":2,
    "makes":2,
    "gaze":2,
    "utilidor\u2019s":2,
    "underground":2,
    "noise":2,
    "blizzard":2,
    "carter\u2019s":2,
    "watching":2,
    "silently":2,
    "stake":2,
    "chance":2,
    "folks":2,
    "hefts":2,
    "shotgun":2,
    "job":2,
    "taking":2,
    "downstairs":2,
    "shot":2,
    "follow":2,
    "hungry":2,
    "quiet":2,
    "tugs":2,
    "raspier":2,
    "chains":2,
    "reach":2,
    "turn":2,
    "stand":2,
    "houses":2,
    "themselves":2,
    "paul":2,
    "seventyfive":2,
    "store":2,
    "survivors":2,
    "bullshit":2,
    "compliment":2,
    "writhes":2,
    "cries":2,
    "bathroom":2,
    "wall":2,
    "warning":2,
    "lands":2,
    "front":2,
    "five":2,
    "minutes":2,
    "let":2,
    "jaw":2,
    "tried":2,
    "went":2,
    "trashbags":2,
    "floor":2,
    "kept":2,
    "record":2,
    "almost":2,
    "alive":2,
    "tracks":2,
    "propane":2,
    "medical":2,
    "traps":2,
    "wad":2,
    "full":2,
    "lost":2,
    "pain":2,
    "plan":2,
    "enemy":2,
    "omitted":2,
    "ultraviolet":2,
    "asthma":2,
    "fifteen":2,
    "harsh":2,
    "stunned":2,
    "line":2,
    "mark":2,
    "am":2,
    "streets":2,
    "shouldn\u2019t":2,
    "sun":2,
    "nearly":2,
    "hugs":2,
    "desperately":2,
    "looking":2,
    "young":2,
    "survive":2,
    "walking":2,
    "feels":2,
    "watch":2,
    "sweat":2,
    "fights":2,
    "between":2,
    "said":2,
    "remember":3,
    "mean":3,
    "problem":3,
    "own":3,
    "oughta":3,
    "south":3,
    "y\u2019know":3,
    "night":3,
    "worry":3,
    "charlie":3,
    "kinda":3,
    "minute":3,
    "gear":3,
    "barrow":3,
    "jeannie":3,
    "hoping":3,
    "plane":3,
    "adam":3,
    "woman":3,
    "both":3,
    "wanted":3,
    "storm":3,
    "mom":3,
    "ransom":3,
    "355":3,
    "mind":3,
    "neither":3,
    "aaron":3,
    "guys":3,
    "there\u2019ll":3,
    "month":3,
    "start":3,
    "call":3,
    "after":3,
    "against":3,
    "ready":3,
    "muffin":3,
    "monster":3,
    "days":3,
    "living":3,
    "frozen":3,
    "across":3,
    "shoulder":3,
    "gun":3,
    "carry":3,
    "being":3,
    "she\u2019ll":3,
    "oh":3,
    "dead":3,
    "whispers":3,
    "corner":3,
    "board":3,
    "window":3,
    "glad":3,
    "soon":3,
    "lock":3,
    "firearms":3,
    "ahead":3,
    "panic":3,
    "gabe":3,
    "nobody":3,
    "day":3,
    "places":3,
    "nothing":3,
    "saw":3,
    "turning":3,
    "where\u2019s":3,
    "father":3,
    "shoot":3,
    "couldn\u2019t":3,
    "house":3,
    "we\u2019d":3,
    "made":3,
    "close":3,
    "tight":3,
    "pull":3,
    "settles":3,
    "lead":3,
    "hear":3,
    "straight":3,
    "determined":3,
    "came":3,
    "week":3,
    "teeth":3,
    "growing":3,
    "rest":3,
    "attack":3,
    "cold":3,
    "thoughts":3,
    "grab":3,
    "doug\u2019s":3,
    "you\u2019ve":3,
    "doing":3,
    "listen":3,
    "leg":3,
    "seeing":3,
    "show":3,
    "jayko":3,
    "until":3,
    "inside":3,
    "alarm":3,
    "snow":3,
    "sewage":3,
    "pipe":3,
    "overwhelmed":3,
    "station":3,
    "sunlamp":3,
    "jake\u2019s":3,
    "silent":3,
    "unable":3,
    "figure":4,
    "handle":4,
    "4x4":4,
    "anything":4,
    "live":4,
    "wife":4,
    "dark":4,
    "walkietalkie":4,
    "better":4,
    "put":4,
    "lot":4,
    "checks":4,
    "thanks":4,
    "malekai":4,
    "brakes":4,
    "jammed":4,
    "airport":4,
    "hey":4,
    "never":4,
    "getting":4,
    "good":4,
    "enough":4,
    "time":4,
    "fight":4,
    "once":4,
    "kill":4,
    "done":4,
    "care":4,
    "try":4,
    "does":4,
    "hands":4,
    "found":4,
    "\u2018em":4,
    "which":4,
    "leave":4,
    "hit":4,
    "road":4,
    "what\u2019s":4,
    "point":4,
    "say":4,
    "gus":4,
    "sheriff":4,
    "stares":4,
    "tries":4,
    "face":4,
    "cut":4,
    "pistol":4,
    "find":4,
    "knowing":4,
    "goggles":4,
    "truck":4,
    "fucking":4,
    "marlow\u2019s":4,
    "answer":4,
    "next":4,
    "much":4,
    "they\u2019ve":4,
    "isaac":4,
    "drops":4,
    "far":4,
    "told":4,
    "used":4,
    "light":4,
    "walk":4,
    "four":4,
    "bear":4,
    "peggy":5,
    "voice":5,
    "dad":5,
    "shakes":5,
    "closes":5,
    "things":5,
    "talk":5,
    "anchorage":5,
    "stella\u2019s":5,
    "give":5,
    "thought":5,
    "another":5,
    "i\u2019ve":5,
    "die":5,
    "somebody":5,
    "gone":5,
    "three":5,
    "inhaler":5,
    "together":5,
    "hand":5,
    "than":5,
    "clear":5,
    "blood":5,
    "hide":5,
    "flash":5,
    "lifts":5,
    "she\u2019s":5,
    "fighting":5,
    "reaches":5,
    "safe":5,
    "hope":5,
    "ladder":5,
    "left":5,
    "finally":5,
    "will":5,
    "outside":5,
    "feet":5,
    "axe":5,
    "hold":5,
    "each":5,
    "ever":5,
    "girl":5,
    "thing":6,
    "did":6,
    "okay":6,
    "pulls":6,
    "under":6,
    "gotta":6,
    "should":6,
    "john":6,
    "happened":6,
    "alone":6,
    "was":6,
    "even":6,
    "room":6,
    "it\u2019ll":6,
    "cover":6,
    "every":6,
    "weeks":6,
    "still":6,
    "everything":6,
    "rises":6,
    "knows":6,
    "we\u2019ve":6,
    "through":6,
    "you\u2019ll":6,
    "took":6,
    "keep":6,
    "because":6,
    "killed":6,
    "any":6,
    "attic":6,
    "our":7,
    "that\u2019s":7,
    "gonna":7,
    "stop":7,
    "who\u2019s":7,
    "tell":7,
    "denise":7,
    "would":7,
    "long":7,
    "while":7,
    "utilidor":7,
    "around":7,
    "bit":7,
    "behind":7,
    "turns":7,
    "way":7,
    "shut":7,
    "door":7,
    "others":7,
    "think":7,
    "other":7,
    "people":8,
    "they\u2019ll":8,
    "let\u2019s":8,
    "why":8,
    "something":8,
    "sure":8,
    "didn\u2019t":8,
    "wait":8,
    "you\u2019re":8,
    "well":8,
    "only":8,
    "riis":8,
    "without":8,
    "been":8,
    "again":8,
    "eyes":8,
    "eben\u2019s":8,
    "first":9,
    "away":9,
    "home":9,
    "were":9,
    "move":9,
    "lucy":9,
    "who":9,
    "help":9,
    "family":9,
    "coming":9,
    "these":9,
    "gail":9,
    "run":10,
    "some":10,
    "their":10,
    "place":10,
    "over":10,
    "one":10,
    "himself":10,
    "come":10,
    "last":10,
    "stay":10,
    "work":10,
    "had":10,
    "there\u2019s":10,
    "someone":10,
    "nods":10,
    "has":10,
    "take":10,
    "breath":10,
    "we\u2019re":10,
    "moment":10,
    "marlow":10,
    "vampires":10,
    "see":11,
    "before":11,
    "doesn\u2019t":11,
    "yeah":11,
    "won\u2019t":11,
    "two":11,
    "an":11,
    "wilson":11,
    "food":11,
    "make":12,
    "till":12,
    "head":12,
    "we\u2019ll":12,
    "hell":12,
    "stranger":12,
    "how":12,
    "about":13,
    "where":13,
    "takes":13,
    "carter":13,
    "or":14,
    "toward":14,
    "by":14,
    "got":14,
    "more":14,
    "i\u2019ll":15,
    "right":15,
    "down":15,
    "helen":16,
    "your":16,
    "they\u2019re":16,
    "little":17,
    "town":17,
    "know":17,
    "into":17,
    "like":18,
    "could":18,
    "maybe":18,
    "now":18,
    "i\u2019m":18,
    "off":18,
    "go":18,
    "no":18,
    "looks":18,
    "there":18,
    "doug":18,
    "my":19,
    "beau":19,
    "look":19,
    "when":19,
    "too":19,
    "from":20,
    "so":20,
    "is":21,
    "us":21,
    "he\u2019s":21,
    "want":21,
    "need":21,
    "are":21,
    "she":22,
    "can\u2019t":23,
    "jake":24,
    "if":25,
    "do":26,
    "him":26,
    "then":27,
    "all":28,
    "billy":29,
    "just":29,
    "have":29,
    "me":29,
    "it\u2019s":30,
    "at":31,
    "here":32,
    "that":32,
    "don\u2019t":32,
    "get":34,
    "not":34,
    "be":35,
    "back":35,
    "this":36,
    "them":38,
    "but":38,
    "with":41,
    "up":43,
    "out":44,
    "what":44,
    "her":44,
    "on":45,
    "for":46,
    "can":46,
    "as":56,
    "his":62,
    "of":64,
    "they":66,
    "it":70,
    "he":71,
    "we":76,
    "i":78,
    "stella":80,
    "in":83,
    "and":105,
    "you":131,
    "a":140,
    "eben":144,
    "to":186,
    "the":301,
    "":315
}