{
    "does":1,
    "brownish":1,
    "nice":1,
    "skin":1,
    "great":1,
    "smile":1,
    "gotmichelle":1,
    "said":1,
    "before":1,
    "slomo":1,
    "very":1,
    "taller":1,
    "18":1,
    "17":1,
    "maturelooking":1,
    "13year":1,
    "crossing":1,
    "ignores":1,
    "locks":1,
    "trunk":1,
    "hesitantly":1,
    "acknowledges":1,
    "lift":1,
    "chin":1,
    "anyone":1,
    "things":1,
    "removes":1,
    "music":1,
    "becomes":1,
    "clearer":1,
    "audible":1,
    "hangin":1,
    "rap":1,
    "every":1,
    "threequarters":1,
    "respects":1,
    "ova":1,
    "12yearold":1,
    "asleep":1,
    "sweat":1,
    "beaded":1,
    "shirt":1,
    "rolled":1,
    "pillow":1,
    "breath":1,
    "heavy":1,
    "chest":1,
    "rises":1,
    "reveal":1,
    "ten":1,
    "rounding":1,
    "below":1,
    "backwards":1,
    "escapes":1,
    "float":1,
    "arrives":1,
    "cups":1,
    "mouth":1,
    "pop":1,
    "shines":1,
    "fa":1,
    "motha":1,
    "fucks":1,
    "forget":1,
    "lets":1,
    "trust":1,
    "always":1,
    "trouble":1,
    "pauses":1,
    "would":1,
    "bunch":1,
    "straight":1,
    "immediately":1,
    "pushing":1,
    "avoid":1,
    "being":1,
    "above":1,
    "safely":1,
    "round":1,
    "perks":1,
    "nudging":1,
    "natasha":1,
    "maria":1,
    "tinavictor":1,
    "pretty":1,
    "difference":1,
    "never":1,
    "going":1,
    "ar":1,
    "own":1,
    "neighborhood":1,
    "montage":1,
    "hang":1,
    "pass":1,
    "brother":1,
    "giving":1,
    "impromptu":1,
    "bang":1,
    "store":1,
    "wave":1,
    "work":1,
    "our":1,
    "3rd":1,
    "watchful":1,
    "houston":1,
    "st":1,
    "wide":1,
    "intersection":1,
    "heat":1,
    "slightly":1,
    "exhaust":1,
    "fills":1,
    "gridlocked":1,
    "lanes":1,
    "calmly":1,
    "space":1,
    "gates":1,
    "police":1,
    "examine":1,
    "inch":1,
    "expanse":1,
    "surveys":1,
    "hoochie":1,
    "only":1,
    "legs":1,
    "smacks":1,
    "leg":1,
    "wassup":1,
    "cheek":1,
    "swimming":1,
    "leaving":1,
    "move":1,
    "revealing":1,
    "ahead":1,
    "playground":1,
    "doing":1,
    "impression":1,
    "al":1,
    "pacino":1,
    "meet":1,
    "laughing":1,
    "nearby":1,
    "fine":1,
    "busy":1,
    "hurry":1,
    "wastin":1,
    "please":1,
    "scream":1,
    "approve":1,
    "wait":1,
    "reply":1,
    "part":1,
    "girlfriend":1,
    "should":1,
    "treated":1,
    "once":1,
    "respect":1,
    "even":1,
    "curse":1,
    "tellin":1,
    "drive":1,
    "crazy":1,
    "understand":1,
    "leads":1,
    "trippin":1,
    "rings":1,
    "forever":1,
    "repay":1,
    "playing":1,
    "force":1,
    "others":1,
    "heads":1,
    "underwater":1,
    "squirts":1,
    "woulda":1,
    "done":1,
    "background":1,
    "arguing":1,
    "likes":1,
    "eave":1,
    "alone":1,
    "share":1,
    "wealth":1,
    "bit":1,
    "wrist":1,
    "ladies":1,
    "room":1,
    "antagonize":1,
    "recognizes":1,
    "hears":1,
    "something":1,
    "spins":1,
    "us":1,
    "snotty":1,
    "grin":1,
    "drags":1,
    "small":1,
    "sight":1,
    "kids":1,
    "complains":1,
    "confused":1,
    "fucking":1,
    "guy":1,
    "followin":1,
    "touchin":1,
    "asshole":1,
    "bathroom":1,
    "locked":1,
    "another":1,
    "budge":1,
    "favor":1,
    "squats":1,
    "pulling":1,
    "bathing":1,
    "suit":1,
    "bottoms":1,
    "urinates":1,
    "cool":1,
    "straining":1,
    "wandering":1,
    "closeup":1,
    "erica":1,
    "fantasy":1,
    "shai":1,
    "diamondfrancesca":1,
    "melody":1,
    "song":1,
    "called":1,
    "also":1,
    "may":1,
    "24th":1,
    "1998":1,
    "1020":1,
    "pm":1,
    "check":1,
    "singers":1,
    "mocking":1,
    "resting":1,
    "sittin":1,
    "phat":1,
    "playin":1,
    "s":1,
    "carlosim":1,
    "natashas":1,
    "club":1,
    "twentytwo":1,
    "supposed":1,
    "lent":1,
    "pills":1,
    "em":1,
    "shrugs":1,
    "bitch":1,
    "untrue":1,
    "hooker":1,
    "someone":1,
    "need":1,
    "merengue":1,
    "thismichelle":1,
    "step":1,
    "embrace":1,
    "show":1,
    "dances":1,
    "drinking":1,
    "shaking":1,
    "opening":1,
    "cap":1,
    "bubbles":1,
    "large":1,
    "paper":1,
    "scanning":1,
    "m80s":1,
    "twentyfour":1,
    "two":1,
    "dollars":1,
    "son":1,
    "pussy":1,
    "ones":1,
    "unties":1,
    "knotted":1,
    "awkwardly":1,
    "ignoring":1,
    "roll":1,
    "sock":1,
    "ankle":1,
    "preparing":1,
    "sloppily":1,
    "smicsmack":1,
    "kind":1,
    "lived":1,
    "must":1,
    "misinformed":1,
    "hers":1,
    "lying":1,
    "thinking":1,
    "guys":1,
    "coming":1,
    "probably":1,
    "many":1,
    "help":1,
    "high":1,
    "had":1,
    "suggest":1,
    "turn":1,
    "response":1,
    "bounce":1,
    "shoves":1,
    "fuckin":1,
    "m80":1,
    "shove":1,
    "christopher":1,
    "energetic":1,
    "tenyearold":1,
    "exits":1,
    "mari":1,
    "jumping":1,
    "rubs":1,
    "windows":1,
    "sticks":1,
    "mom":1,
    "waves":1,
    "signaling":1,
    "safe":1,
    "picking":1,
    "halfdeflated":1,
    "stomping":1,
    "hightops":1,
    "few":1,
    "feet":1,
    "crushing":1,
    "under":1,
    "foot":1,
    "lights":1,
    "cigarette":1,
    "until":1,
    "ready":1,
    "too":1,
    "hot":1,
    "change":1,
    "frustrating":1,
    "ask":1,
    "mad":1,
    "hold":1,
    "slips":1,
    "trespassing":1,
    "hangs":1,
    "continue":1,
    "game":1,
    "catch":1,
    "creaks":1,
    "swings":1,
    "scurry":1,
    "outoftheway":1,
    "whatd":1,
    "hear":1,
    "theres":1,
    "rumor":1,
    "tryin":1,
    "chu":1,
    "listening":1,
    "rumors":1,
    "true":1,
    "fireworks":1,
    "floor":1,
    "type":1,
    "whoevers":1,
    "sayin":1,
    "clears":1,
    "piece":1,
    "ear":1,
    "pushes":1,
    "kisses":1,
    "forehead":1,
    "first":1,
    "deeply":1,
    "silently":1,
    "siding":1,
    "yet":1,
    "artwork":1,
    "focuses":1,
    "intently":1,
    "hows":1,
    "whadda":1,
    "ya":1,
    "somethin":1,
    "really":1,
    "contact":1,
    "beside":1,
    "jus":1,
    "girlfrlend":1,
    "kicking":1,
    "respond":1,
    "ta":1,
    "drop":1,
    "quietly":1,
    "sob":1,
    "holds":1,
    "fake":1,
    "matter":1,
    "3enette":1,
    "glimpse":1,
    "sobbing":1,
    "loudly":1,
    "crying":1,
    "leaves":1,
    "reaches":1,
    "cries":1,
    "tightly":1,
    "hectoraaron":1,
    "yes":1,
    "scoops":1,
    "left":1,
    "marches":1,
    "hectors":1,
    "silhouette":1,
    "cranks":1,
    "pedal":1,
    "upsidedown":1,
    "bicycle":1,
    "bounces":1,
    "trot":1,
    "struggles":1,
    "sneakers":1,
    "skid":1,
    "cement":1,
    "thought":1,
    "home":1,
    "speeds":1,
    "sista":1,
    "releases":1,
    "sleeve":1,
    "hits":1,
    "turning":1,
    "action":1,
    "sister":1,
    "pinned":1,
    "free":1,
    "match":1,
    "amused":1,
    "wipes":1,
    "plays":1,
    "doubles":1,
    "dissolve":1,
    "late":1,
    "has":1,
    "dropped":1,
    "low":1,
    "sky":1,
    "shadows":1,
    "after":1,
    "steamy":1,
    "quiet":1,
    "strolls":1,
    "notices":1,
    "knees":1,
    "writing":1,
    "entrance":1,
    "secret":1,
    "passage":1,
    "press":1,
    "presses":1,
    "circle":1,
    "drawn":1,
    "happens":1,
    "sound":1,
    "atop":1,
    "tapping":1,
    "watcha":1,
    "today":1,
    "cleaned":1,
    "house":1,
    "cooked":1,
    "took":1,
    "care":1,
    "sisters":1,
    "sit":1,
    "wheres":1,
    "guess":1,
    "someplace":1,
    "takin":1,
    "certain":1,
    "whadja":1,
    "wanted":1,
    "course":1,
    "lot":1,
    "playya":1,
    "either":1,
    "such":1,
    "bastards":1,
    "complain":1,
    "dumb":1,
    "bullshit":1,
    "single":1,
    "awhile":1,
    "wadda":1,
    "chill":1,
    "stuff":1,
    "else":1,
    "flowers":1,
    "halfopen":1,
    "flat":1,
    "nervously":1,
    "scared":1,
    "well":1,
    "standin":1,
    "provinit":1,
    "prove":1,
    "touches":1,
    "breast":1,
    "forward":1,
    "breasts":1,
    "wraps":1,
    "dark":2,
    "nose":2,
    "bad":2,
    "details":2,
    "body":2,
    "shallow":2,
    "depth":2,
    "field":2,
    "stomach":2,
    "than":2,
    "old":2,
    "talk":2,
    "um":2,
    "still":2,
    "wuzzup":2,
    "hi":2,
    "hello":2,
    "car":2,
    "calls":2,
    "sure":2,
    "keeps":2,
    "run":2,
    "headphones":2,
    "try":2,
    "day":2,
    "take":2,
    "retarded":2,
    "give":2,
    "heard":2,
    "new":2,
    "avenues":2,
    "c":2,
    "sloppy":2,
    "falls":2,
    "tracks":2,
    "himself":2,
    "buildings":2,
    "open":2,
    "wont":2,
    "cut":2,
    "carl0s":2,
    "minute":2,
    "hops":2,
    "which":2,
    "beat":2,
    "climbs":2,
    "seen":2,
    "these":2,
    "fingers":2,
    "10th":2,
    "people":2,
    "piss":2,
    "shit":2,
    "each":2,
    "other":2,
    "window":2,
    "crowd":2,
    "eye":2,
    "sign":2,
    "reads":2,
    "visible":2,
    "focus":2,
    "slowly":2,
    "park":2,
    "enters":2,
    "area":2,
    "interested":2,
    "eddies":2,
    "cousin":2,
    "compost":2,
    "baruch":2,
    "standing":2,
    "next":2,
    "wit":2,
    "spots":2,
    "name":2,
    "find":2,
    "darrell":2,
    "god":2,
    "feel":2,
    "time":2,
    "friends":2,
    "life":2,
    "treat":2,
    "some":2,
    "stares":2,
    "gently":2,
    "tries":2,
    "long":2,
    "waits":2,
    "gets":2,
    "peeking":2,
    "gives":2,
    "rest":2,
    "pulls":2,
    "takes":2,
    "balance":2,
    "hands":2,
    "sing":2,
    "written":2,
    "begin":2,
    "leans":2,
    "remember":2,
    "stop":2,
    "when":2,
    "punch":2,
    "yesterday":2,
    "moms":2,
    "die":2,
    "air":2,
    "salsa":2,
    "brown":2,
    "bag":2,
    "buy":2,
    "big":2,
    "finds":2,
    "waist":2,
    "named":2,
    "says":2,
    "smicsmac":2,
    "positive":2,
    "those":2,
    "answer":2,
    "came":2,
    "holding":2,
    "bat":2,
    "ma":2,
    "football":2,
    "again":2,
    "smiles":2,
    "fence":2,
    "enter":2,
    "gate":2,
    "chalk":2,
    "boyfriend":2,
    "tears":2,
    "whatever":2,
    "happened":2,
    "raises":2,
    "hit":2,
    "finger":2,
    "touch":2,
    "did":2,
    "punches":2,
    "pavement":2,
    "empty":2,
    "bends":2,
    "none":2,
    "believe":2,
    "faithful":2,
    "moves":2,
    "close":3,
    "umm":3,
    "lips":3,
    "boxes":3,
    "pov":3,
    "making":3,
    "watching":3,
    "tosses":3,
    "follows":3,
    "looking":3,
    "appears":3,
    "more":3,
    "keep":3,
    "betta":3,
    "8th":3,
    "afternoon":3,
    "skinny":3,
    "sun":3,
    "tilts":3,
    "come":3,
    "punished":3,
    "let":3,
    "all":3,
    "waiting":3,
    "onto":3,
    "sighs":3,
    "runs":3,
    "whats":3,
    "anything":3,
    "leave":3,
    "smack":3,
    "cross":3,
    "along":3,
    "make":3,
    "stand":3,
    "outside":3,
    "watch":3,
    "trying":3,
    "stay":3,
    "points":3,
    "steps":3,
    "kiss":3,
    "talkin":3,
    "continues":3,
    "approaching":3,
    "now":3,
    "speak":3,
    "but":3,
    "donnas":3,
    "water":3,
    "door":3,
    "okay":3,
    "three":3,
    "was":3,
    "kissed":3,
    "live":3,
    "lives":3,
    "near":3,
    "real":3,
    "walking":3,
    "cause":3,
    "places":3,
    "dance":3,
    "soda":3,
    "rounds":3,
    "aint":3,
    "jump":3,
    "rope":3,
    "hey":3,
    "nothing":3,
    "doesnt":3,
    "curb":3,
    "ball":3,
    "catches":3,
    "quickly":3,
    "aarons":3,
    "ground":3,
    "sobs":3,
    "arms":3,
    "blah":3,
    "love":4,
    "attitude":4,
    "oh":4,
    "say":4,
    "follow":4,
    "begins":4,
    "why":4,
    "ass":4,
    "outta":4,
    "boy":4,
    "puts":4,
    "between":4,
    "talking":4,
    "building":4,
    "cant":4,
    "doin":4,
    "nothin":4,
    "avenue":4,
    "line":4,
    "eddie":4,
    "1":4,
    "off":4,
    "excuse":4,
    "can":4,
    "shorty":4,
    "wussup":4,
    "its":4,
    "play":4,
    "nods":4,
    "passes":4,
    "bottle":4,
    "nah":4,
    "alright":4,
    "sitting":4,
    "somebody":4,
    "throws":4,
    "alleyway":4,
    "wall":4,
    "drawing":4,
    "sees":4,
    "distance":5,
    "have":5,
    "dat":5,
    "ill":5,
    "tell":5,
    "about":5,
    "anyway":5,
    "side":5,
    "wha":5,
    "grabs":5,
    "told":5,
    "goin":5,
    "where":5,
    "gotta":5,
    "towards":5,
    "friend":5,
    "jenettes":5,
    "thats":5,
    "shes":5,
    "were":5,
    "makes":5,
    "moments":5,
    "this":5,
    "watches":5,
    "arm":5,
    "moment":5,
    "didnt":5,
    "good":5,
    "against":5,
    "think":6,
    "or":6,
    "youre":6,
    "walk":6,
    "d":6,
    "escape":6,
    "there":6,
    "pans":6,
    "front":6,
    "hand":6,
    "cmon":6,
    "their":6,
    "fuck":6,
    "later":6,
    "shoulder":6,
    "if":7,
    "head":7,
    "hair":7,
    "fire":7,
    "behind":7,
    "man":7,
    "starts":7,
    "through":7,
    "an":7,
    "sidewalk":7,
    "michelle":7,
    "stands":7,
    "face":7,
    "how":8,
    "look":8,
    "eyes":8,
    "hes":8,
    "approaches":8,
    "little":8,
    "across":8,
    "who":8,
    "walks":8,
    "wanna":8,
    "just":8,
    "pause":8,
    "stoop":9,
    "not":9,
    "your":9,
    "victors":9,
    "into":9,
    "sits":9,
    "right":9,
    "boys":9,
    "yeah":10,
    "by":10,
    "go":10,
    "pitt":10,
    "we":10,
    "corner":11,
    "girls":11,
    "one":11,
    "continuous":11,
    "gonna":12,
    "out":12,
    "get":12,
    "are":12,
    "they":12,
    "be":12,
    "donna":13,
    "dont":13,
    "way":13,
    "then":13,
    "camera":14,
    "see":14,
    "away":14,
    "my":14,
    "them":14,
    "turns":14,
    "so":15,
    "looks":16,
    "want":16,
    "like":17,
    "over":17,
    "girl":17,
    "do":17,
    "no":18,
    "im":18,
    "got":19,
    "amandas":19,
    "around":19,
    "here":19,
    "":19,
    "know":19,
    "chris":19,
    "with":20,
    "ext":20,
    "pool":20,
    "that":21,
    "yo":21,
    "back":22,
    "it":22,
    "jenette":22,
    "for":23,
    "hector":24,
    "street":24,
    "from":25,
    "block":26,
    "carlos":26,
    "at":27,
    "as":28,
    "she":28,
    "what":29,
    "him":30,
    "in":31,
    "aaron":32,
    "up":34,
    "down":34,
    "amanda":35,
    "is":37,
    "me":38,
    "of":41,
    "on":44,
    "he":48,
    "his":49,
    "her":59,
    "i":66,
    "a":74,
    "victor":81,
    "and":90,
    "you":108,
    "to":108,
    "the":180
}