{
    "matter":1,
    "soft":1,
    "cash":1,
    "upstairs":1,
    "already":1,
    "wise":1,
    "guy":1,
    "garage":1,
    "felt":1,
    "dryness":1,
    "morning":1,
    "trouble":1,
    "speak":1,
    "couldn\u2019t":1,
    "emitting":1,
    "weak":1,
    "respond":1,
    "normally":1,
    "items":1,
    "i\u2019ve":1,
    "absolutely":1,
    "eight":1,
    "year":1,
    "old":1,
    "talent":1,
    "followed":1,
    "wouldn\u2019t":1,
    "ears":1,
    "should\u2019ve":1,
    "brought":1,
    "qtip":1,
    "alley":1,
    "cats":1,
    "harmony":1,
    "backstage":1,
    "glass":1,
    "gargle":1,
    "sand":1,
    "wasn\u2019t":1,
    "bad":1,
    "ruined":1,
    "talked":1,
    "greatest":1,
    "pavaratti":1,
    "ask":1,
    "promotion":1,
    "post":1,
    "austin":1,
    "kane":1,
    "philharmonic":1,
    "\u2026ah\u2026the":1,
    "opera\u2026":1,
    "friends":1,
    "bear":1,
    "listening":1,
    "yourself":1,
    "sometime":1,
    "plastic":1,
    "rest":1,
    "missing":1,
    "lap":1,
    "small":1,
    "same":1,
    "intact":1,
    "flushed":1,
    "rushing":1,
    "searches":1,
    "through":1,
    "purse":1,
    "it\u2026we":1,
    "fifty":1,
    "mommy\u2026look":1,
    "still\u2026oh":1,
    "dancing":1,
    "six\u2026":1,
    "slaps":1,
    "breaks":1,
    "finds":1,
    "pays":1,
    "ends":1,
    "taken":1,
    "hell\u2026what":1,
    "hang":1,
    "later":1,
    "people":1,
    "asshole\u2026":1,
    "everywhere\u2026":1,
    "shake":1,
    "shakes":1,
    "pieces":1,
    "puzzle":1,
    "weirdo":1,
    "trys":1,
    "tear":1,
    "half":1,
    "frustrated":1,
    "remembers":1,
    "previous":1,
    "adjusts":1,
    "mirror":1,
    "man\u2019s":1,
    "rehearsed":1,
    "weeks":1,
    "disappointment":1,
    "is\u2026":1,
    "perfect":1,
    "until":1,
    "pracitce":1,
    "won\u2019t":1,
    "stand":1,
    "best":1,
    "yes":1,
    "befuddled":1,
    "request":1,
    "clears":1,
    "throat":1,
    "\u201cave":1,
    "maria\u201d":1,
    "almost":1,
    "immediately":1,
    "burst":1,
    "looser":1,
    "choppy":1,
    "continues":1,
    "nervous":1,
    "flustered":1,
    "everything\u2026":1,
    "finger":1,
    "paying":1,
    "him\u2026":1,
    "wait":1,
    "studio":1,
    "deep":1,
    "course":1,
    "sitting":1,
    "lay":1,
    "gown\u2026":1,
    "dirty\u2026":1,
    "you\u2019ll":1,
    "kills":1,
    "reluctantly":1,
    "lies":1,
    "exercises":1,
    "ext":1,
    "towards":1,
    "causing":1,
    "slam":1,
    "thrown":1,
    "injures":1,
    "lying":1,
    "slides":1,
    "aye":1,
    "dios":1,
    "mio":1,
    "comes":1,
    "discover":1,
    "gets":1,
    "speeds":1,
    "throws":1,
    "lays":1,
    "massaging":1,
    "injured":1,
    "ahhhhhhhhhh":1,
    "fucker":1,
    "quietly":1,
    "bother":1,
    "luck":1,
    "ray":1,
    "shoulder\u2026":1,
    "st":1,
    "lukes":1,
    "block":1,
    "hospital":1,
    "brain":1,
    "city":1,
    "add":1,
    "list":1,
    "becoming":1,
    "assistance":1,
    "sister\u2019s":1,
    "the\u2026":1,
    "cigarette":1,
    "relaxing":1,
    "concerned":1,
    "cabbieum\u2026just":1,
    "drop":1,
    "corner":1,
    "theum\u2026":1,
    "goin\u2019":1,
    "bit":1,
    "problem":1,
    "and\u2026we\u2026i":1,
    "shoulders":1,
    "dislocated":1,
    "whining":1,
    "full":1,
    "range":1,
    "motion\u2026i":1,
    "when\u2026":1,
    "well\u2026he":1,
    "slammed":1,
    "and\u2026":1,
    "arm":1,
    "turning":1,
    "purple":1,
    "struggles":1,
    "you\u2026him\u2026well\u2026you":1,
    "he\u2026":1,
    "hope":1,
    "lawyer":1,
    "running\u2026":1,
    "company":1,
    "insurance":1,
    "something\u2026":1,
    "holy":1,
    "\u2026who":1,
    "the\u2026just":1,
    "inhales":1,
    "several":1,
    "times":1,
    "moves":1,
    "cab\u2026":1,
    "please":1,
    "breathing\u2026":1,
    "breathing\u2026it\u2019s":1,
    "hundred":1,
    "purse\u2026":1,
    "stares":1,
    "rolex":1,
    "worth":1,
    "least\u2026":1,
    "mugger":1,
    "dickhead":1,
    "ain\u2019t":1,
    "hold":1,
    "cooler":1,
    "bites":1,
    "blob":1,
    "whadaya":1,
    "loaded":1,
    "jerk":1,
    "singer":1,
    "soprano":1,
    "might":1,
    "but\u2026":1,
    "boyfriend":1,
    "teacher":1,
    "student":1,
    "sweety":1,
    "demanding":1,
    "times\u2026":1,
    "yep":1,
    "watch\u2026":1,
    "deaf":1,
    "rob":1,
    "definitely":1,
    "nobody":1,
    "mrs\u2026":1,
    "last":1,
    "nobody\u2019s":1,
    "tux":1,
    "came":1,
    "competition":1,
    "sharing":1,
    "life":1,
    "make":1,
    "took":1,
    "stuck":1,
    "sick":1,
    "beautiful":1,
    "dog":1,
    "path":1,
    "to\u2026":1,
    "yours":1,
    "i\u2026":1,
    "pistol":1,
    "whips":1,
    "twice":1,
    "cringes":1,
    "tears":1,
    "paper":1,
    "towel":1,
    "bleed":1,
    "alright":1,
    "me\u2026":1,
    "nice":1,
    "tuxedo":1,
    "trust":1,
    "favor":1,
    "used":1,
    "size":1,
    "6":1,
    "14":1,
    "pocket":1,
    "handkerchief":1,
    "interstate":1,
    "far":1,
    "jesus\u2026":1,
    "fucked":1,
    "bra":1,
    "reveals":1,
    "variety":1,
    "pills":1,
    "reds":1,
    "blues":1,
    "diet":1,
    "while":1,
    "toward":1,
    "highway":1,
    "solemnly":1,
    "pants":1,
    "either":1,
    "fart":1,
    "goes":1,
    "switches":1,
    "seats":1,
    "hitting":1,
    "stretches":1,
    "rub":1,
    "hand":1,
    "relaxes":1,
    "casa\u2019s":1,
    "tomato":1,
    "cheese\u2026":1,
    "see\u2026beans":1,
    "threeif":1,
    "survives":1,
    "work":1,
    "touch":1,
    "off\u2026":1,
    "called":1,
    "ever":1,
    "stroke":1,
    "answers\u2026":1,
    "squeeze":1,
    "ready":1,
    "waking":1,
    "says\u2026i\u2019m":1,
    "really\u2026i\u2026":1,
    "ate":1,
    "hour\u2026":1,
    "boy":1,
    "likes":1,
    "serious":1,
    "senor":1,
    "smile":1,
    "alberto":1,
    "partner\u2019s":1,
    "smiles":1,
    "it\u2019s\u2026ah\u2026old":1,
    "yeah\u2026":1,
    "solamente":1,
    "sorry\u2026":1,
    "i\u2026i\u2019m":1,
    "very":1,
    "\u2026kill\u2026me\u2026":1,
    "round":1,
    "curved":1,
    "plus":1,
    "black\u2026":1,
    "bumpy":1,
    "dear":1,
    "please\u2026i":1,
    "beg":1,
    "you\u2026":1,
    "fun":1,
    "oops":1,
    "steady":1,
    "jeez":1,
    "moving":1,
    "now\u2019s":1,
    "our":1,
    "us\u2026":1,
    "fly":1,
    "scared":1,
    "posture":1,
    "suggests":1,
    "feels":1,
    "free":1,
    "ease":1,
    "demand":1,
    "thinking":1,
    "joining":1,
    "puts":1,
    "risk":1,
    "telling":1,
    "they\u2019re":1,
    "stopping\u2026":1,
    "climaxes":1,
    "tarzan":1,
    "shocked":1,
    "sonofabitch":1,
    "elbows":1,
    "falls":1,
    "tumble":1,
    "backward":1,
    "speaking":1,
    "grabbed":1,
    "weren\u2019t":1,
    "fast":1,
    "walked":1,
    "lunch":1,
    "supposed":1,
    "months":1,
    "labor":1,
    "bastard":1,
    "seven":1,
    "walk":1,
    "stereo\u2019s":1,
    "stereo":1,
    "calling":1,
    "myself":1,
    "own":1,
    "bed":1,
    "even":1,
    "said\u2026we\u2019ll":1,
    "together":1,
    "till":1,
    "end":1,
    "ticking":1,
    "tin":1,
    "under":1,
    "shape":1,
    "curiosity":1,
    "manipulates":1,
    "such":1,
    "always":1,
    "billow":1,
    "exhaled":1,
    "smoke":1,
    "streams":1,
    "frame":1,
    "extreme":1,
    "disfiguredburnt":1,
    "friggin":1,
    "cutbacks":1,
    "beginnning":1,
    "calls":1,
    "senority\u2026":1,
    "boss":1,
    "book":1,
    "line":1,
    "probably":1,
    "freak":1,
    "everyone\u2026":1,
    "jesus\u2026yeah":1,
    "homemade":1,
    "coughing":1,
    "relaxed":1,
    "meter":1,
    "louder":1,
    "join":1,
    "seconds":1,
    "group":1,
    "stoplight":1,
    "listen":1,
    "number":1,
    "my\u2026":1,
    "shock":1,
    "uncontrollably":1,
    "late":1,
    "jesus\u2019":1,
    "points":1,
    "montage":1,
    "sequence":1,
    "violent":1,
    "train":1,
    "wreck":1,
    "emergency":1,
    "vehicles":1,
    "voices":1,
    "flashlights":1,
    "soon":1,
    "scatter":1,
    "throughout":1,
    "junkyard":1,
    "forth":1,
    "decide":1,
    "hide":1,
    "rear":1,
    "driver\u2019s":1,
    "climb":1,
    "posed":1,
    "backs":1,
    "against":1,
    "faces":1,
    "filled":1,
    "excitement":1,
    "fear":1,
    "being":1,
    "caught":1,
    "stuff":1,
    "comment":1,
    "covers":1,
    "mouth":1,
    "sign":1,
    "counting":1,
    "eleven":1,
    "twelve":1,
    "contemplates":1,
    "brief":1,
    "tosses":1,
    "aside":1,
    "each":1,
    "intense":1,
    "reflection":1,
    "background":1,
    "between":1,
    "softly":1,
    "did\u2026":1,
    "scream":1,
    "kids":1,
    "screaming":1,
    "above":1,
    "girls":1,
    "1":1,
    "quick":1,
    "where\u2019s":2,
    "day":2,
    "ten":2,
    "years":2,
    "gotta":2,
    "will":2,
    "ass":2,
    "outta":2,
    "job":2,
    "puffs":2,
    "trying":2,
    "does":2,
    "breathe":2,
    "pictures":2,
    "obvious":2,
    "hell":2,
    "anything":2,
    "horrible":2,
    "eat":2,
    "since":2,
    "charles":2,
    "this\u2026":2,
    "nothing":2,
    "notices":2,
    "child\u2019s":2,
    "picks":2,
    "int":2,
    "taxi":2,
    "\u2013":2,
    "black":2,
    "desperately":2,
    "late\u2026":2,
    "whose":2,
    "fleece":2,
    "snow\u2026":2,
    "mommy":2,
    "needs":2,
    "it\u2026":2,
    "that\u2026":2,
    "spots":2,
    "cabbie":2,
    "wanted":2,
    "c\u2019mon":2,
    "breaths":2,
    "hanging":2,
    "kind":2,
    "running":2,
    "remember":2,
    "taps":2,
    "written":2,
    "a\u2026":2,
    "correctly":2,
    "forward":2,
    "handgun":2,
    "blood":2,
    "silent":2,
    "push":2,
    "don\u2019t\u2019":2,
    "care":2,
    "talkin\u2019":2,
    "lot":2,
    "pain":2,
    "carlos":2,
    "named":2,
    "few":2,
    "really":2,
    "help":2,
    "seen":2,
    "bitch":2,
    "catch":2,
    "breath":2,
    "wallet":2,
    "there\u2019s":2,
    "watch":2,
    "eyes":2,
    "relax":2,
    "some":2,
    "would":2,
    "husband":2,
    "shit":2,
    "prot\u00e9g\u00e9":2,
    "real":2,
    "thought":2,
    "yeah":2,
    "cool":2,
    "paul":2,
    "simon\u2019s":2,
    "across":2,
    "rack":2,
    "behind":2,
    "aw":2,
    "poor":2,
    "pretty":2,
    "inside":2,
    "si":2,
    "quiet":2,
    "drives":2,
    "doesn\u2019t":2,
    "smell":2,
    "effort":2,
    "escape":2,
    "seated":2,
    "watching":2,
    "watches":2,
    "lettuce":2,
    "who\u2019s":2,
    "teach":2,
    "time":2,
    "game":2,
    "answer":2,
    "enrique":2,
    "velasquez":2,
    "happened":2,
    "need":2,
    "womanizing":2,
    "pig":2,
    "treat":2,
    "house":2,
    "curve":2,
    "green":2,
    "lesson":2,
    "onto":2,
    "windshield":2,
    "driving":2,
    "situation":2,
    "pounding":2,
    "wheel":2,
    "women":2,
    "missed":2,
    "shot":2,
    "bedroom":2,
    "lights":2,
    "license":2,
    "dashboard":2,
    "goddamn":2,
    "shame":2,
    "everything":2,
    "he\u2019ll":2,
    "passes":2,
    "another":2,
    "song":2,
    "begin":2,
    "listens":2,
    "shhhhh":2,
    "moment":2,
    "start":2,
    "dry":2,
    "wet":2,
    "find":2,
    "bathroom":2,
    "found":2,
    "audio":2,
    "fade":2,
    "count":2,
    "run":2,
    "ghosts":2,
    "graveyard":2,
    "damn":3,
    "today":3,
    "before":3,
    "pulls":3,
    "sound":3,
    "body":3,
    "around":3,
    "heard":3,
    "girl":3,
    "better":3,
    "form\u2026":3,
    "conversation":3,
    "believe":3,
    "am":3,
    "becker":3,
    "toy":3,
    "holds":3,
    "flashback":3,
    "holding":3,
    "money":3,
    "mary":3,
    "much":3,
    "six":3,
    "lamb\u2019s":3,
    "flash":3,
    "which":3,
    "becomes":3,
    "when":3,
    "nine":3,
    "second":3,
    "top":3,
    "stops":3,
    "learned":3,
    "broken":3,
    "got":3,
    "street":3,
    "brakes":3,
    "after":3,
    "motherfucker":3,
    "beginning":3,
    "want":3,
    "next":3,
    "reach":3,
    "but":3,
    "whiner":3,
    "grabs":3,
    "too":3,
    "die":3,
    "here\u2019s":3,
    "talking":3,
    "why":3,
    "fuckin\u2019":3,
    "makes":3,
    "coming":3,
    "stomach":3,
    "gun":3,
    "wrong":3,
    "learn":3,
    "play":3,
    "insane":3,
    "partner":3,
    "said":3,
    "else":3,
    "come":3,
    "chance":3,
    "laughing":3,
    "bright":3,
    "been":3,
    "three":3,
    "home":3,
    "meanwhile":3,
    "bong":3,
    "ya":3,
    "children":3,
    "jamie":3,
    "rock":3,
    "sheet":4,
    "every":4,
    "asthma":4,
    "breather":4,
    "two":4,
    "looking":4,
    "never":4,
    "about":4,
    "lack":4,
    "close":4,
    "dissolve":4,
    "hands":4,
    "mother":4,
    "lamb\u2026":4,
    "turns":4,
    "has":4,
    "big":4,
    "piece":4,
    "practice":4,
    "diaphragm":4,
    "lie":4,
    "us":4,
    "shoulder":4,
    "them":4,
    "move":4,
    "broke":4,
    "over":4,
    "reaches":4,
    "first":4,
    "slowly":4,
    "fault":4,
    "sure":4,
    "god":4,
    "voice":4,
    "burritos":4,
    "starts":4,
    "god\u2026":4,
    "zeus":4,
    "who":4,
    "their":4,
    "know":4,
    "climbs":4,
    "put":4,
    "mine":4,
    "sorry":4,
    "killed":4,
    "key":4,
    "door":4,
    "having":5,
    "more":5,
    "could":5,
    "must":5,
    "were":5,
    "other":5,
    "good":5,
    "try":5,
    "sing":5,
    "window":5,
    "":5,
    "white":5,
    "child":5,
    "singing":5,
    "camera":5,
    "picture":5,
    "can":5,
    "by":5,
    "hear":5,
    "well":5,
    "bleeding":5,
    "huh":5,
    "paco":5,
    "kid":5,
    "car":5,
    "way":5,
    "mean":5,
    "let":5,
    "going":5,
    "keep":5,
    "what\u2019s":6,
    "takes":6,
    "form":6,
    "or":6,
    "lamb":6,
    "tell":6,
    "off":6,
    "let\u2019s":6,
    "doing":6,
    "baby":6,
    "i\u2019ll":6,
    "dick":6,
    "name":6,
    "casa":6,
    "beans":6,
    "hood":6,
    "you\u2019re":7,
    "looks":7,
    "531":7,
    "told":7,
    "if":7,
    "didn\u2019t":7,
    "that\u2019s":7,
    "still":7,
    "should":7,
    "face":7,
    "asshole":7,
    "hey":7,
    "open":7,
    "hit":7,
    "thing":8,
    "again":8,
    "she\u2019s":8,
    "him":8,
    "we\u2019re":8,
    "front":8,
    "backseat":8,
    "think":8,
    "cut":8,
    "says":8,
    "o\u2019clock":8,
    "say":9,
    "take":9,
    "had":9,
    "there":9,
    "did":9,
    "head":9,
    "fucking":9,
    "breathing":10,
    "one":10,
    "begins":10,
    "all":10,
    "right":10,
    "sit":10,
    "he\u2019s":10,
    "kill":10,
    "an":10,
    "roof":10,
    "don\u2019t":11,
    "as":11,
    "we":11,
    "can\u2019t":11,
    "floor":11,
    "fuck":11,
    "taco":11,
    "oh":12,
    "they":12,
    "where":12,
    "be":12,
    "how":12,
    "gonna":12,
    "now":12,
    "into":12,
    "stop":12,
    "get":13,
    "so":13,
    "down":13,
    "shut":13,
    "man":14,
    "see":14,
    "then":14,
    "seat":14,
    "not":15,
    "discipline":15,
    "out":16,
    "like":16,
    "ok":16,
    "from":16,
    "little":16,
    "casey":16,
    "here":17,
    "back":17,
    "look":17,
    "go":17,
    "with":18,
    "was":18,
    "have":19,
    "are":19,
    "at":19,
    "no":20,
    "your":21,
    "for":21,
    "me":21,
    "do":22,
    "just":23,
    "pregnant":23,
    "cab":24,
    "i\u2019m":25,
    "her":25,
    "his":25,
    "it\u2019s":26,
    "drive":28,
    "this":28,
    "what":29,
    "up":30,
    "that":31,
    "he":31,
    "on":31,
    "jesus":34,
    "she":37,
    "my":38,
    "simon":39,
    "woman":42,
    "in":43,
    "it":52,
    "of":52,
    "and":54,
    "a":85,
    "is":90,
    "to":93,
    "you":99,
    "i":108,
    "the":253
}