{
    "sat":1,
    "rassoodocks":1,
    "milkplus":1,
    "plus":1,
    "vellocet":1,
    "synthemesc":1,
    "drencrom":1,
    "dublins":1,
    "city":1,
    "sweet":1,
    "molly":1,
    "malone":1,
    "wheeled":1,
    "wheelbarrow":1,
    "wide":1,
    "narrow":1,
    "approaching":1,
    "fall":1,
    "drunkie":1,
    "songs":1,
    "orchestra":1,
    "rotten":1,
    "applaud":1,
    "rams":1,
    "ohhhh":1,
    "cowards":1,
    "anyway":1,
    "onto":1,
    "moon":1,
    "earthly":1,
    "land":1,
    "fought":1,
    "victory":1,
    "derelict":1,
    "perform":1,
    "step":1,
    "billygoat":1,
    "poison":1,
    "globby":1,
    "cheap":1,
    "chip":1,
    "oil":1,
    "eunuch":1,
    "jelly":1,
    "snaps":1,
    "switchblade":1,
    "durango95":1,
    "purred":1,
    "warm":1,
    "vibraty":1,
    "guttiwuts":1,
    "country":1,
    "travelers":1,
    "hogs":1,
    "headed":1,
    "west":1,
    "lashing":1,
    "ultraviolent":1,
    "goodlooking":1,
    "jumper":1,
    "peeps":1,
    "clacky":1,
    "clackity":1,
    "clackclack":1,
    "typing":1,
    "stops":1,
    "usually":1,
    "masks":1,
    "carrying":1,
    "dragging":1,
    "check":1,
    "accenting":1,
    "lyrics":1,
    "rubber":1,
    "binds":1,
    "sellotape":1,
    "above":1,
    "suns":1,
    "stormy":1,
    "chase":1,
    "everyone":1,
    "sellotapes":1,
    "lane":1,
    "refrain":1,
    "singin":1,
    "knocks":1,
    "cases":1,
    "repeat":1,
    "cuts":1,
    "cat":1,
    "until":1,
    "coincidences":1,
    "finishing":1,
    "shagged":1,
    "fagged":1,
    "fashed":1,
    "small":1,
    "energy":1,
    "expenditure":1,
    "rid":1,
    "auto":1,
    "nightcap":1,
    "speaks":1,
    "statue":1,
    "lucy":1,
    "busy":1,
    "working":1,
    "luce":1,
    "raises":1,
    "breast":1,
    "handle":1,
    "spurts":1,
    "joins":1,
    "tourists":1,
    "sophistos":1,
    "tv":1,
    "studios":1,
    "govoreeting":1,
    "caring":1,
    "disc":1,
    "twanged":1,
    "short":1,
    "silence":1,
    "burst":1,
    "flown":1,
    "hairs":1,
    "plott":1,
    "standing":1,
    "endwise":1,
    "shivers":1,
    "crawling":1,
    "slow":1,
    "lizards":1,
    "sang":1,
    "liptrump":1,
    "dog":1,
    "howl":1,
    "fingers":1,
    "pronging":1,
    "twice":1,
    "air":1,
    "clowny":1,
    "guffaw":1,
    "brings":1,
    "smartly":1,
    "manners":1,
    "dook":1,
    "comport":1,
    "publicwise":1,
    "continue":1,
    "dost":1,
    "wish":1,
    "aiming":1,
    "tolchocks":1,
    "reasonless":1,
    "reason":1,
    "weakens":1,
    "doobidoob":1,
    "tired":1,
    "growing":1,
    "bedways":1,
    "rigthways":1,
    "homeways":1,
    "spatchka":1,
    "wonderful":1,
    "needed":1,
    "ending":1,
    "gorgeousness":1,
    "georgeosity":1,
    "flesh":1,
    "redgold":1,
    "threewise":1,
    "silverflamed":1,
    "timps":1,
    "rolling":1,
    "candy":1,
    "thunder":1,
    "rarest":1,
    "spun":1,
    "silvery":1,
    "flowing":1,
    "ship":1,
    "gravity":1,
    "nonsense":1,
    "slooshied":1,
    "veeks":1,
    "ptitsas":1,
    "laying":1,
    "ground":1,
    "rot":1,
    "grinding":1,
    "boot":1,
    "litsos":1,
    "devotchkas":1,
    "ripped":1,
    "walls":1,
    "plunging":1,
    "shlaga":1,
    "eight":1,
    "dodgers":1,
    "otherwise":1,
    "liable":1,
    "eeee":1,
    "oven":1,
    "factory":1,
    "luv":1,
    "sleepers":1,
    "mostly":1,
    "key":1,
    "hence":1,
    "intolerable":1,
    "afterlunch":1,
    "chai":1,
    "playfully":1,
    "shakes":1,
    "post":1,
    "corrective":1,
    "advisor":1,
    "arm":1,
    "barry":1,
    "ruined":1,
    "respect":1,
    "sweated":1,
    "knee":1,
    "mark":1,
    "reclaim":1,
    "confession":1,
    "failure":1,
    "stripy":1,
    "millicents":1,
    "deltiod":1,
    "clever":1,
    "picked":1,
    "lately":1,
    "billyboys":1,
    "ambluenced":1,
    "channels":1,
    "named":1,
    "nobody":1,
    "prove":1,
    "anybody":1,
    "sore":1,
    "community":1,
    "grab":1,
    "joint":1,
    "finds":1,
    "instead":1,
    "derisively":1,
    "distractedly":1,
    "fails":1,
    "notice":1,
    "soaking":1,
    "clink":1,
    "sounding":1,
    "icecubes":1,
    "study":1,
    "studying":1,
    "century":1,
    "studies":1,
    "nobodys":1,
    "reasonable":1,
    "due":1,
    "reckoning":1,
    "keep":1,
    "handsome":1,
    "proboscis":1,
    "azure":1,
    "ordered":1,
    "weeks":1,
    "ok":1,
    "clerk":1,
    "motions":1,
    "darling":1,
    "pointless":1,
    "marty":1,
    "giggles":1,
    "getten":1,
    "bratty":1,
    "goggly":1,
    "gogol":1,
    "johnny":1,
    "zhivago":1,
    "seventeen":1,
    "fuzzy":1,
    "warbles":1,
    "bet":1,
    "portable":1,
    "picnic":1,
    "players":1,
    "uncle":1,
    "angel":1,
    "invited":1,
    "hooray":1,
    "surprising":1,
    "worried":1,
    "waiting":1,
    "knify":1,
    "moloko":1,
    "offended":1,
    "abode":1,
    "appy":1,
    "loggies":1,
    "awakened":1,
    "awakening":1,
    "giving":1,
    "disciplining":1,
    "pains":1,
    "happier":1,
    "sparkling":1,
    "sarcasm":1,
    "entitled":1,
    "horsy":1,
    "gape":1,
    "grin":1,
    "portend":1,
    "picking":1,
    "sleeping":1,
    "error":1,
    "crasting":1,
    "muscleman":1,
    "coffee":1,
    "mesto":1,
    "fence":1,
    "tries":1,
    "stuff":1,
    "ice":1,
    "availables":1,
    "motorcar":1,
    "pluck":1,
    "sometimes":1,
    "mansize":1,
    "initiative":1,
    "waits":1,
    "walked":1,
    "flatblock":1,
    "marina":1,
    "calm":1,
    "general":1,
    "mindless":1,
    "grinning":1,
    "bulldog":1,
    "gloopy":1,
    "oomny":1,
    "inspiration":1,
    "sends":1,
    "aid":1,
    "once":1,
    "swings":1,
    "kneels":1,
    "sword":1,
    "offers":1,
    "slashes":1,
    "main":1,
    "cables":1,
    "clean":1,
    "tashtook":1,
    "quieten":1,
    "wounded":1,
    "soldiers":1,
    "snug":1,
    "duke":1,
    "york":1,
    "master":1,
    "knows":1,
    "generous":1,
    "unders":1,
    "forgotten":1,
    "nochy":1,
    "chelloveck":1,
    "children":1,
    "didst":1,
    "confrontation":1,
    "backs":1,
    "isolated":1,
    "owned":1,
    "rich":1,
    "ptitsa":1,
    "cats":1,
    "gold":1,
    "silver":1,
    "jewels":1,
    "suggest":1,
    "emergency":1,
    "strangers":1,
    "blamed":1,
    "suspicious":1,
    "scoundrels":1,
    "rouges":1,
    "bushes":1,
    "hiding":1,
    "follow":1,
    "rear":1,
    "front":1,
    "radlett":1,
    "station":1,
    "weathers":1,
    "woodmere":1,
    "bother":1,
    "probably":1,
    "rang":1,
    "asking":1,
    "caught":1,
    "sounded":1,
    "quoted":1,
    "connection":1,
    "necessary":1,
    "nearly":1,
    "jumps":1,
    "leotard":1,
    "doorway":1,
    "brief":1,
    "govereet":1,
    "letter":1,
    "satisfactory":1,
    "fibreglass":1,
    "beside":1,
    "soomaka":1,
    "art":1,
    "international":1,
    "students":1,
    "contest":1,
    "magazines":1,
    "sonny":1,
    "rocks":1,
    "weight":1,
    "swinging":1,
    "causing":1,
    "swing":1,
    "eccentric":1,
    "motion":1,
    "throw":1,
    "slummy":1,
    "bedbug":1,
    "teach":1,
    "peoples":1,
    "houses":1,
    "circling":1,
    "fends":1,
    "skilful":1,
    "jabs":1,
    "clobbers":1,
    "pulling":1,
    "both":1,
    "wind":1,
    "struggle":1,
    "bashes":1,
    "distant":1,
    "sirens":1,
    "minoota":1,
    "droogie":1,
    "smashes":1,
    "run":1,
    "tom":1,
    "knowing":1,
    "fatneck":1,
    "spoils":1,
    "beauty":1,
    "presses":1,
    "inflicting":1,
    "sinks":1,
    "knees":1,
    "ow":1,
    "lady":1,
    "scoundrel":1,
    "balls":1,
    "cop":1,
    "sipping":1,
    "entered":1,
    "towels":1,
    "interrogating":1,
    "interrogation":1,
    "covered":1,
    "mess":1,
    "loves":1,
    "nightmare":1,
    "resisted":1,
    "lawful":1,
    "arrestors":1,
    "wasnt":1,
    "treachery":1,
    "sings":1,
    "roof":1,
    "traitorous":1,
    "forced":1,
    "innocent":1,
    "slight":1,
    "swear":1,
    "died":1,
    "frighten":1,
    "admit":1,
    "form":1,
    "bash":1,
    "chops":1,
    "hold":1,
    "disappointment":1,
    "spits":1,
    "tragic":1,
    "story":1,
    "trial":1,
    "judges":1,
    "jury":1,
    "spoken":1,
    "sentenced":1,
    "84f":1,
    "among":1,
    "hardened":1,
    "prestoopnicks":1,
    "shock":1,
    "sending":1,
    "dadda":1,
    "bruised":1,
    "rookas":1,
    "unfair":1,
    "mom":1,
    "boohoohooing":1,
    "mothers":1,
    "grief":1,
    "bosom":1,
    "letting":1,
    "warden":1,
    "committal":1,
    "hm":1,
    "officers":1,
    "murder":1,
    "removed":1,
    "duty":1,
    "memorise":1,
    "warder":1,
    "painted":1,
    "directly":1,
    "belong":1,
    "tosses":1,
    "continues":1,
    "bunch":1,
    "keys":1,
    "ring":1,
    "packet":1,
    "pens":1,
    "pocket":1,
    "comb":1,
    "imitation":1,
    "penny":1,
    "wristlet":1,
    "timawrist":1,
    "expanding":1,
    "bracelet":1,
    "valuable":1,
    "property":1,
    "convicted":1,
    "undressed":1,
    "undresses":1,
    "pinstripe":1,
    "remnd":1,
    "neck":1,
    "tie":1,
    "religion":1,
    "c":1,
    "brown":1,
    "glasses":1,
    "contact":1,
    "lenses":1,
    "shirt":1,
    "collar":1,
    "attached":1,
    "receiving":1,
    "zippered":1,
    "worn":1,
    "mental":1,
    "limbs":1,
    "pinstriped":1,
    "attacks":1,
    "fainting":1,
    "dizziness":1,
    "socks":1,
    "epileptic":1,
    "underpants":1,
    "waistband":1,
    "homosexual":1,
    "inspects":1,
    "anus":1,
    "penlight":1,
    "mmmmmmm":1,
    "venereal":1,
    "disease":1,
    "crabs":1,
    "lice":1,
    "institutions":1,
    "thisor":1,
    "attend":1,
    "divine":1,
    "awaits":1,
    "idiots":1,
    "birthright":1,
    "saucer":1,
    "porridge":1,
    "urge":1,
    "easy":1,
    "worth":1,
    "undeniable":1,
    "proof":1,
    "incontrovertible":1,
    "exists":1,
    "informed":1,
    "visions":1,
    "darker":1,
    "hotter":1,
    "flame":1,
    "scream":1,
    "endless":1,
    "unendurable":1,
    "agony":1,
    "nostrils":1,
    "choked":1,
    "filth":1,
    "mouths":1,
    "crammed":1,
    "burning":1,
    "ordure":1,
    "skins":1,
    "rotting":1,
    "peeling":1,
    "fireball":1,
    "rip":1,
    "lip":1,
    "prrrrrrrp":1,
    "laughter":1,
    "920537":1,
    "mate":1,
    "744678":1,
    "turnip":1,
    "hymn":1,
    "258":1,
    "prisoners":1,
    "hymnal":1,
    "reverence":1,
    "convicts":1,
    "wandering":1,
    "fold":1,
    "shepherds":1,
    "controlled":1,
    "wayward":1,
    "loved":1,
    "afar":1,
    "roam":1,
    "edifying":1,
    "zoo":1,
    "dribble":1,
    "lucious":1,
    "storyteller":1,
    "rabbit":1,
    "sunday":1,
    "service":1,
    "burly":1,
    "pleasantly":1,
    "education":1,
    "latter":1,
    "preachy":1,
    "fighting":1,
    "liked":1,
    "parts":1,
    "yahoodies":1,
    "hebrew":1,
    "wives":1,
    "handmaidens":1,
    "scourging":1,
    "crowning":1,
    "thorns":1,
    "nailing":1,
    "height":1,
    "roman":1,
    "fashion":1,
    "closed":1,
    "squeezes":1,
    "seek":1,
    "neither":1,
    "minds":1,
    "studieth":1,
    "robberies":1,
    "lips":1,
    "deceits":1,
    "weary":1,
    "strength":1,
    "diminished":1,
    "guilty":1,
    "institutional":1,
    "infractions":1,
    "helpful":1,
    "shown":1,
    "genuine":1,
    "reform":1,
    "private":1,
    "troubling":1,
    "shy":1,
    "urges":1,
    "deprived":1,
    "women":1,
    "overhearing":1,
    "workshops":1,
    "tells":1,
    "putting":1,
    "called":1,
    "quickly":1,
    "proven":1,
    "fact":1,
    "experimental":1,
    "stage":1,
    "grave":1,
    "doubts":1,
    "dangers":1,
    "involved":1,
    "danger":1,
    "weather":1,
    "within":1,
    "cannot":1,
    "chose":1,
    "whys":1,
    "wherefores":1,
    "patient":1,
    "trust":1,
    "lord":1,
    "instruct":1,
    "refresh":1,
    "delight":1,
    "soul":1,
    "amen":1,
    "cross":1,
    "themselves":1,
    "inspect":1,
    "cells":1,
    "pay":1,
    "lines":1,
    "hurry":1,
    "inspection":1,
    "salutes":1,
    "entourage":1,
    "cell":1,
    "block":1,
    "cram":1,
    "concentrated":1,
    "criminality":1,
    "agree":1,
    "larger":1,
    "fellow":1,
    "ggovernment":1,
    "longer":1,
    "outmoded":1,
    "penological":1,
    "theories":1,
    "needing":1,
    "purely":1,
    "curative":1,
    "basis":1,
    "reflex":1,
    "implementation":1,
    "enjoy":1,
    "seizes":1,
    "bleedin":1,
    "commit":1,
    "accidental":1,
    "brutally":1,
    "murdered":1,
    "furtherence":1,
    "theft":1,
    "excellent":1,
    "enterprising":1,
    "aggressive":1,
    "outgoing":1,
    "bold":1,
    "viscous":1,
    "cblock":1,
    "records":1,
    "transformed":1,
    "recognition":1,
    "closes":1,
    "personage":1,
    "interior":1,
    "broom":1,
    "ridiculous":1,
    "ideas":1,
    "approve":1,
    "severely":1,
    "seems":1,
    "grossly":1,
    "unjust":1,
    "hmmmmmm":1,
    "scum":1,
    "transferred":1,
    "prospect":1,
    "pleases":1,
    "answer":1,
    "asks":1,
    "marked":1,
    "willing":1,
    "residue":1,
    "sentence":1,
    "commuted":1,
    "gathers":1,
    "dots":1,
    "sad":1,
    "goodbye":1,
    "gotten":1,
    "briskly":1,
    "leads":1,
    "barnes":1,
    "expecting":1,
    "prepared":1,
    "accept":1,
    "signing":1,
    "documents":1,
    "offer":1,
    "advice":1,
    "doc":1,
    "spite":1,
    "sucking":1,
    "chaplain":1,
    "reading":1,
    "manage":1,
    "branom":1,
    "assistant":1,
    "removes":1,
    "tray":1,
    "howre":1,
    "lucky":1,
    "inserts":1,
    "needle":1,
    "medicine":1,
    "vial":1,
    "hypo":1,
    "vitamins":1,
    "undernourished":1,
    "meal":1,
    "roll":1,
    "loosen":1,
    "pajama":1,
    "pants":1,
    "halfway":1,
    "somewhat":1,
    "reluctanly":1,
    "bum":1,
    "simple":1,
    "bound":1,
    "straightjacket":1,
    "strapped":1,
    "headrest":1,
    "wires":1,
    "clamped":1,
    "lidlocks":1,
    "crazy":1,
    "fortnights":1,
    "meantime":1,
    "auditorium":1,
    "fifteen":1,
    "solemn":1,
    "professionals":1,
    "coats":1,
    "proceedings":1,
    "occasionally":1,
    "notes":1,
    "begins":1,
    "technician":1,
    "drops":1,
    "eyedrops":1,
    "wearing":1,
    "far":1,
    "professional":1,
    "hollywood":1,
    "sounds":1,
    "horroshow":1,
    "slooshy":1,
    "realistic":1,
    "panting":1,
    "tap":1,
    "places":1,
    "firm":1,
    "flow":1,
    "colors":1,
    "thumps":1,
    "six":1,
    "concentrating":1,
    "given":1,
    "lewdies":1,
    "actually":1,
    "agreeing":1,
    "allowed":1,
    "interfering":1,
    "sixth":1,
    "seventh":1,
    "glazballs":1,
    "squirming":1,
    "clears":1,
    "quietly":1,
    "addresses":1,
    "collegues":1,
    "seated":1,
    "drug":1,
    "cause":1,
    "deathlike":1,
    "paralysis":1,
    "deep":1,
    "terror":1,
    "helplessness":1,
    "earlier":1,
    "subjects":1,
    "described":1,
    "sense":1,
    "stifling":1,
    "drowning":1,
    "period":1,
    "rewarding":1,
    "associations":1,
    "catastrophic":1,
    "environment":1,
    "strait":1,
    "promising":1,
    "calculations":1,
    "starting":1,
    "therell":1,
    "limp":1,
    "body":1,
    "opposite":1,
    "respond":1,
    "presence":1,
    "hateful":1,
    "nausea":1,
    "becoming":1,
    "healthier":1,
    "truly":1,
    "cooperative":1,
    "chair":1,
    "bits":1,
    "soundtrack":1,
    "noticed":1,
    "cracked":1,
    "boomed":1,
    "4th":1,
    "movement":1,
    "using":1,
    "wrote":1,
    "keen":1,
    "element":1,
    "bear":1,
    "neednt":1,
    "proved":1,
    "terribly":1,
    "learned":1,
    "lesson":1,
    "praise":1,
    "knifed":1,
    "cheerful":1,
    "introduce":1,
    "perceive":1,
    "nourished":1,
    "straight":1,
    "nights":1,
    "undrugged":1,
    "unhypnotized":1,
    "decent":1,
    "unprofitable":1,
    "rubbed":1,
    "hypocrisy":1,
    "fawning":1,
    "greased":1,
    "obsequious":1,
    "leer":1,
    "vices":1,
    "confirming":1,
    "practiced":1,
    "promised":1,
    "restore":1,
    "ordinary":1,
    "citizen":1,
    "pledge":1,
    "reality":1,
    "historic":1,
    "actions":1,
    "action":1,
    "observe":1,
    "returns":1,
    "seat":1,
    "close":1,
    "junior":1,
    "necks":1,
    "faith":1,
    "polls":1,
    "lights":1,
    "dimmed":1,
    "elegantly":1,
    "fag":1,
    "heap":1,
    "pooh":1,
    "wash":1,
    "judging":1,
    "liar":1,
    "offence":1,
    "awfully":1,
    "stupid":1,
    "brither":1,
    "stamps":1,
    "ear":1,
    "plants":1,
    "chest":1,
    "type":1,
    "gotta":1,
    "gagging":1,
    "coughing":1,
    "licks":1,
    "sole":1,
    "shoe":1,
    "yahzik":1,
    "grahzny":1,
    "vonny":1,
    "wooshed":1,
    "battle":1,
    "leadingmanbows":1,
    "smattering":1,
    "heavenly":1,
    "grace":1,
    "savage":1,
    "quick":1,
    "detective":1,
    "arrest":1,
    "bows":1,
    "loud":1,
    "paradoxically":1,
    "toward":1,
    "intention":1,
    "accompanied":1,
    "counter":1,
    "switch":1,
    "diametrically":1,
    "opposed":1,
    "attitude":1,
    "interest":1,
    "grotesque":1,
    "abasement":1,
    "insincerity":1,
    "clearly":1,
    "creature":1,
    "moral":1,
    "padre":1,
    "subtleties":1,
    "motive":1,
    "higher":1,
    "ethics":1,
    "cutting":1,
    "relieving":1,
    "congestion":1,
    "christian":1,
    "cheek":1,
    "crucified":1,
    "crucify":1,
    "reclamation":1,
    "works":1,
    "startled":1,
    "happening":1,
    "bewildering":1,
    "hey":1,
    "strange":1,
    "fella":1,
    "sofa":1,
    "munchywunching":1,
    "ummmm":1,
    "rents":1,
    "confronts":1,
    "comfortable":1,
    "complaints":1,
    "hearts":1,
    "grieving":1,
    "misery":1,
    "corpse":1,
    "theyve":1,
    "fight":1,
    "revolting":1,
    "disgusting":1,
    "thanks":1,
    "itll":1,
    "personal":1,
    "took":1,
    "regulation":1,
    "basil":1,
    "wheres":1,
    "snake":1,
    "passed":1,
    "denying":1,
    "suggestions":1,
    "contract":1,
    "arrangement":1,
    "joes":1,
    "rent":1,
    "already":1,
    "tender":1,
    "mercies":1,
    "monster":1,
    "learn":1,
    "errors":1,
    "deserve":1,
    "family":1,
    "shocking":1,
    "bursts":1,
    "tears":1,
    "consciences":1,
    "boohoohoos":1,
    "thankyou":1,
    "honour":1,
    "jamey":1,
    "mack":1,
    "hokey":1,
    "blessed":1,
    "saints":1,
    "preserve":1,
    "toddles":1,
    "alongside":1,
    "shouts":1,
    "meths":1,
    "drinkers":1,
    "poisonous":1,
    "thumped":1,
    "stuck":1,
    "swarm":1,
    "laughed":1,
    "murderous":1,
    "pig":1,
    "prize":1,
    "specimen":1,
    "cowardly":1,
    "sea":1,
    "feeble":1,
    "horny":1,
    "claws":1,
    "youth":1,
    "darent":1,
    "single":1,
    "solitary":1,
    "shouting":1,
    "hooligan":1,
    "vagabound":1,
    "villain":1,
    "toad":1,
    "killed":1,
    "jack":1,
    "surprised":1,
    "impossible":1,
    "sleeves":1,
    "magic":1,
    "walkies":1,
    "hahahahaha":1,
    "went":1,
    "revenge":1,
    "either":1,
    "remembered":1,
    "stay":1,
    "blackjack":1,
    "methodically":1,
    "blackjacks":1,
    "haltdrowned":1,
    "viddying":1,
    "cried":1,
    "meself":1,
    "wanting":1,
    "stumbles":1,
    "babe":1,
    "arms":1,
    "gate":1,
    "familiar":1,
    "rememeber":1,
    "carefree":1,
    "wore":1,
    "disguises":1,
    "confined":1,
    "wheelchair":1,
    "rolls":1,
    "drips":1,
    "clothes":1,
    "stares":1,
    "aparent":1,
    "insane":1,
    "video":1,
    "frenzied":1,
    "progresses":1,
    "providence":1,
    "thrown":1,
    "bringing":1,
    "victims":1,
    "outskirts":1,
    "village":1,
    "providential":1,
    "shivering":1,
    "draw":1,
    "bless":1,
    "bites":1,
    "power":1,
    "socially":1,
    "acceptable":1,
    "potent":1,
    "weapon":1,
    "imaginable":1,
    "ensure":1,
    "returned":1,
    "governments":1,
    "boast":1,
    "recruiting":1,
    "roughs":1,
    "proposing":1,
    "debilitation":1,
    "willsapping":1,
    "techniques":1,
    "conditioning":1,
    "countries":1,
    "thin":1,
    "wedge":1,
    "apparatus":1,
    "totalitarianism":1,
    "witness":1,
    "diabolical":1,
    "proposals":1,
    "rare":1,
    "traditions":1,
    "defend":1,
    "tradition":1,
    "sell":1,
    "quieter":1,
    "driven":1,
    "trembling":1,
    "excitement":1,
    "hangs":1,
    "anticipation":1,
    "horribly":1,
    "distorted":1,
    "homeric":1,
    "noone":1,
    "finished":1,
    "started":1,
    "cheers":1,
    "occurs":1,
    "drugged":1,
    "poisoned":1,
    "join":1,
    "allow":1,
    "stalling":1,
    "label":1,
    "1960":1,
    "chateau":1,
    "saint":1,
    "estephe":1,
    "medoc":1,
    "brand":1,
    "pennys":1,
    "remarks":1,
    "colour":1,
    "smells":1,
    "mice":1,
    "toovery":1,
    "downs":1,
    "appreciate":1,
    "freezes":1,
    "contorted":1,
    "badly":1,
    "hooligans":1,
    "left":1,
    "cripple":1,
    "flu":1,
    "epidemic":1,
    "mood":1,
    "changes":1,
    "wheels":1,
    "rings":1,
    "troubled":1,
    "bars":1,
    "pours":1,
    "forgive":1,
    "ungodly":1,
    "hour":1,
    "unfortunate":1,
    "encounter":1,
    "hahaha":1,
    "answering":1,
    "case":1,
    "wed":1,
    "rubinstein":1,
    "addition":1,
    "inadvertently":1,
    "hadnt":1,
    "planned":1,
    "b":1,
    "particularly":1,
    "concentration":1,
    "camp":1,
    "reaction":1,
    "beethovens":1,
    "die":1,
    "peacefully":1,
    "miserable":1,
    "spirits":1,
    "suicidal":1,
    "pitches":1,
    "plate":1,
    "spaghetti":1,
    "car":1,
    "woke":1,
    "animal":1,
    "realised":1,
    "dreaded":1,
    "staggers":1,
    "locked":1,
    "tugs":1,
    "gear":1,
    "laid":1,
    "speakers":1,
    "upwards":1,
    "trembles":1,
    "twitches":1,
    "merely":1,
    "coolly":1,
    "blast":1,
    "cruel":1,
    "fell":1,
    "snuffed":1,
    "gap":1,
    "million":1,
    "times":1,
    "curtains":1,
    "drawn":1,
    "parted":1,
    "hurries":1,
    "hastily":1,
    "buttoning":1,
    "uniform":1,
    "trailed":1,
    "intern":1,
    "fumbling":1,
    "recovered":1,
    "conscienceness":1,
    "myee":1,
    "p":1,
    "welcome":1,
    "homes":1,
    "taylor":1,
    "huh":1,
    "routine":1,
    "ohhh":1,
    "jolly":1,
    "explain":1,
    "ashamed":1,
    "unconscious":1,
    "patients":1,
    "whove":1,
    "sustained":1,
    "injuries":1,
    "often":1,
    "dreams":1,
    "process":1,
    "righty":1,
    "aloud":1,
    "dialogue":1,
    "printed":1,
    "cartoon":1,
    "balloon":1,
    "peacock":1,
    "plumage":1,
    "pops":1,
    "knickers":1,
    "cabbages":1,
    "beak":1,
    "speaking":1,
    "alway":1,
    "quarrelled":1,
    "seriously":1,
    "wa":1,
    "crummy":1,
    "bollocks":1,
    "arse":1,
    "meter":1,
    "birds":1,
    "nest":1,
    "eggs":1,
    "th":1,
    "elot":1,
    "f":1,
    "owww":1,
    "slams":1,
    "cries":1,
    "fucking":1,
    "waited":1,
    "munching":1,
    "steakiweaks":1,
    "visitor":1,
    "matron":1,
    "leslie":1,
    "exit":1,
    "wake":1,
    "mend":1,
    "constant":1,
    "personally":1,
    "member":1,
    "recommendations":1,
    "enquiry":1,
    "responsibility":1,
    "belongs":1,
    "treatments":1,
    "wished":1,
    "blame":1,
    "governement":1,
    "subversive":1,
    "literature":1,
    "formed":1,
    "responsible":1,
    "protection":1,
    "interests":1,
    "interesting":1,
    "adequate":1,
    "secret":1,
    "lost":1,
    "popularity":1,
    "press":1,
    "unfavorable":1,
    "bame":1,
    "mmmm":1,
    "possibly":1,
    "opinion":1,
    "frederick":1,
    "instrumental":1,
    "verdict":1,
    "azurw":1,
    "symbol":1,
    "signals":1,
    "cameramen":1,
    "reporters":1,
    "aides":1,
    "6foot":1,
    "loudspeakers":1,
    "trolley":1,
    "gorgeosity":1,
    "yummy":1,
    "ist":1,
    "climax":1,
    "mysterious":1,
    "feet":1,
    "carving":1,
    "three":2,
    "milkbar":2,
    "sold":2,
    "drinking":2,
    "sharpen":2,
    "score":2,
    "girls":2,
    "set":2,
    "streets":2,
    "shadows":2,
    "across":2,
    "crying":2,
    "cockless":2,
    "mussels":2,
    "dirty":2,
    "howling":2,
    "fathers":2,
    "blerp":2,
    "anyone":2,
    "stomach":2,
    "spinning":2,
    "paid":2,
    "thee":2,
    "beating":2,
    "casino":2,
    "trees":2,
    "fillied":2,
    "visit":2,
    "suit":2,
    "lying":2,
    "bleeding":2,
    "ambulance":2,
    "else":2,
    "holds":2,
    "struggling":2,
    "clubs":2,
    "alexanders":2,
    "clouds":2,
    "smile":2,
    "held":2,
    "song":2,
    "leg":2,
    "naked":2,
    "stopped":2,
    "legs":2,
    "party":2,
    "wicked":2,
    "stereo":2,
    "bird":2,
    "dims":2,
    "wouldnt":2,
    "bolshy":2,
    "yarblockos":2,
    "nozh":2,
    "britva":2,
    "scrap":2,
    "maybe":2,
    "malchicks":2,
    "perfect":2,
    "bliss":2,
    "trombones":2,
    "crunched":2,
    "trumpets":2,
    "space":2,
    "pictures":2,
    "screaming":2,
    "mercy":2,
    "creeching":2,
    "late":2,
    "week":2,
    "miss":2,
    "breakfast":2,
    "id":2,
    "wonder":2,
    "evenings":2,
    "odd":2,
    "ah":2,
    "awake":2,
    "met":2,
    "owe":2,
    "pleasure":2,
    "shouldnt":2,
    "manner":2,
    "shoulder":2,
    "least":2,
    "whose":2,
    "slaps":2,
    "every":2,
    "ends":2,
    "milicents":2,
    "havent":2,
    "mentioned":2,
    "thru":2,
    "usual":2,
    "warning":2,
    "save":2,
    "reaches":2,
    "drinks":2,
    "problem":2,
    "loving":2,
    "brain":2,
    "devil":2,
    "crawls":2,
    "rookers":2,
    "worries":2,
    "dirt":2,
    "unmuddied":2,
    "lake":2,
    "sky":2,
    "deepest":2,
    "summer":2,
    "rely":2,
    "groans":2,
    "retches":2,
    "arrived":2,
    "looking":2,
    "enjoying":2,
    "sister":2,
    "play":2,
    "proper":2,
    "polly":2,
    "guliver":2,
    "become":2,
    "droog":2,
    "shop":2,
    "rookerful":2,
    "crast":2,
    "shiny":2,
    "pull":2,
    "molokoplus":2,
    "ones":2,
    "falls":2,
    "kroovy":2,
    "sheep":2,
    "strong":2,
    "farm":2,
    "town":2,
    "lives":2,
    "shes":2,
    "shit":2,
    "whos":2,
    "frightfully":2,
    "mile":2,
    "madam":2,
    "maskies":2,
    "bend":2,
    "bell":2,
    "writer":2,
    "assaulted":2,
    "minutes":2,
    "phone":2,
    "phallic":2,
    "sculpture":2,
    "important":2,
    "points":2,
    "selling":2,
    "special":2,
    "alone":2,
    "bust":2,
    "rushes":2,
    "balance":2,
    "nasty":2,
    "nose":2,
    "office":2,
    "later":2,
    "paper":2,
    "led":2,
    "murderer":2,
    "true":2,
    "tolchock":2,
    "madness":2,
    "beginning":2,
    "humble":2,
    "14":2,
    "staja":2,
    "smelly":2,
    "perverts":2,
    "thames":2,
    "reception":2,
    "sheet":2,
    "parkmoor":2,
    "address":2,
    "cuffs":2,
    "clipboard":2,
    "empty":2,
    "pick":2,
    "properly":2,
    "cigarettes":2,
    "plastic":2,
    "leather":2,
    "ten":2,
    "piece":2,
    "jacket":2,
    "church":2,
    "england":2,
    "wear":2,
    "illness":2,
    "boots":2,
    "trousers":2,
    "mothballs":2,
    "wall":2,
    "word":2,
    "realise":2,
    "unrepentant":2,
    "sinners":2,
    "evidence":2,
    "fire":2,
    "yourselves":2,
    "convict":2,
    "burps":2,
    "smell":2,
    "saw":2,
    "louder":2,
    "kicked":2,
    "tolchocked":2,
    "warders":2,
    "meeting":2,
    "leering":2,
    "arranged":2,
    "bible":2,
    "drink":2,
    "vino":2,
    "taking":2,
    "charge":2,
    "tolchocking":2,
    "dressed":2,
    "smiles":2,
    "evil":2,
    "society":2,
    "somebody":2,
    "newspaper":2,
    "referring":2,
    "yet":2,
    "ceases":2,
    "present":2,
    "facing":2,
    "enter":2,
    "together":2,
    "midst":2,
    "prisons":2,
    "political":2,
    "offenders":2,
    "dealt":2,
    "kill":2,
    "criminal":2,
    "socalled":2,
    "pass":2,
    "absolutely":2,
    "sent":2,
    "vicious":2,
    "hoodlum":2,
    "less":2,
    "confidence":2,
    "hits":2,
    "reformed":2,
    "leaving":2,
    "facility":2,
    "believed":2,
    "fortnight":2,
    "swine":2,
    "grateful":2,
    "centre":2,
    "escort":2,
    "hall":2,
    "halt":2,
    "transfer":2,
    "alcott":2,
    "brodskys":2,
    "begin":2,
    "send":2,
    "gives":2,
    "cine":2,
    "free":2,
    "showing":2,
    "toughs":2,
    "grunts":2,
    "looked":2,
    "began":2,
    "aware":2,
    "jumped":2,
    "couldnt":2,
    "without":2,
    "glazzies":2,
    "throat":2,
    "experience":2,
    "feelings":2,
    "test":2,
    "during":2,
    "found":2,
    "sessions":2,
    "learning":2,
    "healthy":2,
    "fear":2,
    "flashed":2,
    "beg":2,
    "background":2,
    "helped":2,
    "heres":2,
    "ought":2,
    "point":2,
    "himself":2,
    "change":2,
    "committed":2,
    "unchanged":2,
    "complete":2,
    "lardface":2,
    "shower":2,
    "foot":2,
    "faithful":2,
    "suffering":2,
    "pushed":2,
    "joy":2,
    "towards":2,
    "impelled":2,
    "physical":2,
    "questions":2,
    "drove":2,
    "capable":2,
    "fly":2,
    "angels":2,
    "keeping":2,
    "lomticks":2,
    "toast":2,
    "lodger":2,
    "food":2,
    "compensation":2,
    "happen":2,
    "future":2,
    "suffer":2,
    "comforts":2,
    "second":2,
    "holy":2,
    "breaks":2,
    "punished":2,
    "drag":2,
    "low":2,
    "realising":2,
    "reply":2,
    "carries":2,
    "living":2,
    "helpless":2,
    "newspapers":2,
    "acts":2,
    "election":2,
    "rage":2,
    "reads":2,
    "refreshing":2,
    "writing":2,
    "pneumonia":2,
    "modern":2,
    "phoned":2,
    "notebook":2,
    "conditioned":2,
    "hifi":2,
    "forever":2,
    "moan":2,
    "ward":2,
    "nurse":2,
    "sobs":2,
    "fault":2,
    "today":2,
    "psychiatrist":2,
    "slides":2,
    "dream":2,
    "recovery":2,
    "smash":2,
    "eggiwegs":2,
    "whole":2,
    "tortures":2,
    "damned":2,
    "deeply":2,
    "regard":2,
    "salary":2,
    "changing":2,
    "understanding":2,
    "yum":2,
    "pete":3,
    "korova":3,
    "bar":3,
    "ultraviolence":3,
    "pretty":3,
    "stand":3,
    "guts":3,
    "especially":3,
    "spare":3,
    "cutter":3,
    "tramps":3,
    "order":3,
    "sort":3,
    "earth":3,
    "starts":3,
    "brought":3,
    "peace":3,
    "gang":3,
    "billyboy":3,
    "four":3,
    "weepy":3,
    "devotchka":3,
    "ho":3,
    "bottle":3,
    "yarbles":3,
    "knife":3,
    "rush":3,
    "playing":3,
    "kick":3,
    "terrible":3,
    "chain":3,
    "somewhere":3,
    "sound":3,
    "clack":3,
    "wants":3,
    "wait":3,
    "minute":3,
    "rest":3,
    "glorious":3,
    "happy":3,
    "pushes":3,
    "ball":3,
    "mouth":3,
    "heart":3,
    "walk":3,
    "slowly":3,
    "machine":3,
    "nude":3,
    "hello":3,
    "corner":3,
    "smecking":3,
    "felt":3,
    "stands":3,
    "under":3,
    "such":3,
    "tortured":3,
    "past":3,
    "fit":3,
    "taken":3,
    "cup":3,
    "extreme":3,
    "speech":3,
    "self":3,
    "nastiness":3,
    "parents":3,
    "sees":3,
    "ago":3,
    "steps":3,
    "cold":3,
    "pitiful":3,
    "orders":3,
    "leader":3,
    "english":3,
    "yeah":3,
    "taught":3,
    "droogies":3,
    "outside":3,
    "thinking":3,
    "viddied":3,
    "bog":3,
    "window":3,
    "ducks":3,
    "hands":3,
    "health":3,
    "completely":3,
    "public":3,
    "many":3,
    "walks":3,
    "wife":3,
    "bloody":3,
    "listen":3,
    "touch":3,
    "serious":3,
    "phallus":3,
    "wretched":3,
    "breaking":3,
    "mad":3,
    "bastards":3,
    "nods":3,
    "ghastly":3,
    "beaten":3,
    "inspector":3,
    "tea":3,
    "care":3,
    "breathing":3,
    "hospital":3,
    "de":3,
    "number":3,
    "able":3,
    "toes":3,
    "carry":3,
    "chocolate":3,
    "half":3,
    "sign":3,
    "lose":3,
    "custody":3,
    "e":3,
    "eye":3,
    "ask":3,
    "human":3,
    "voice":3,
    "indeed":3,
    "charlie":3,
    "priest":3,
    "kept":3,
    "desire":3,
    "distress":3,
    "question":3,
    "remember":3,
    "theyre":3,
    "picks":3,
    "technique":3,
    "act":3,
    "goodness":3,
    "chosen":3,
    "correct":3,
    "common":3,
    "means":3,
    "person":3,
    "woman":3,
    "enters":3,
    "someone":3,
    "view":3,
    "shot":3,
    "running":3,
    "seemed":3,
    "screen":3,
    "punches":3,
    "screams":3,
    "moans":3,
    "beautiful":3,
    "seem":3,
    "raped":3,
    "forget":3,
    "imagine":3,
    "picture":3,
    "violently":3,
    "afternoon":3,
    "symphony":3,
    "harm":3,
    "safe":3,
    "wanna":3,
    "lick":3,
    "applause":3,
    "glad":3,
    "sitting":3,
    "find":3,
    "needs":3,
    "months":3,
    "crowd":3,
    "push":3,
    "liberty":3,
    "doctors":3,
    "sex":3,
    "er":3,
    "um":3,
    "fred":3,
    "droogs":4,
    "pockets":4,
    "fair":4,
    "whatever":4,
    "live":4,
    "attention":4,
    "dark":4,
    "road":4,
    "laughs":4,
    "head":4,
    "excuse":4,
    "middle":4,
    "matter":4,
    "says":4,
    "youd":4,
    "saying":4,
    "along":4,
    "laughing":4,
    "book":4,
    "pardon":4,
    "pulls":4,
    "malenky":4,
    "idea":4,
    "meet":4,
    "wont":4,
    "everybody":4,
    "metal":4,
    "school":4,
    "try":4,
    "work":4,
    "helping":4,
    "funny":4,
    "gave":4,
    "rather":4,
    "sit":4,
    "sits":4,
    "grabs":4,
    "hair":4,
    "certain":4,
    "words":4,
    "yours":4,
    "false":4,
    "gets":4,
    "damn":4,
    "near":4,
    "further":4,
    "turned":4,
    "child":4,
    "tonight":4,
    "thy":4,
    "suppose":4,
    "gonna":4,
    "papers":4,
    "quite":4,
    "giant":4,
    "naughty":4,
    "told":4,
    "heavy":4,
    "sergeant":4,
    "prisoner":4,
    "perhaps":4,
    "blood":4,
    "speak":4,
    "torture":4,
    "narrator":4,
    "desk":4,
    "signs":4,
    "leans":4,
    "side":4,
    "medical":4,
    "pair":4,
    "bath":4,
    "criminals":4,
    "quiet":4,
    "fond":4,
    "interested":4,
    "even":4,
    "chance":4,
    "killing":4,
    "hit":4,
    "tomorrow":4,
    "wanted":4,
    "watching":4,
    "sickness":4,
    "sin":4,
    "those":4,
    "believe":4,
    "light":4,
    "pee":4,
    "dead":4,
    "becomes":4,
    "government":4,
    "slide":4,
    "trying":5,
    "milk":5,
    "between":5,
    "age":5,
    "laugh":5,
    "law":5,
    "nice":5,
    "soon":5,
    "while":5,
    "accident":5,
    "inside":5,
    "house":5,
    "puts":5,
    "hard":5,
    "takes":5,
    "looks":5,
    "moment":5,
    "yourself":5,
    "heaven":5,
    "bed":5,
    "behind":5,
    "gulliver":5,
    "wine":5,
    "mum":5,
    "sleep":5,
    "lot":5,
    "exactly":5,
    "mother":5,
    "doing":5,
    "round":5,
    "hole":5,
    "cut":5,
    "talk":5,
    "always":5,
    "hand":5,
    "rises":5,
    "teeth":5,
    "gone":5,
    "large":5,
    "comes":5,
    "show":5,
    "shut":5,
    "turn":5,
    "most":5,
    "trouble":5,
    "end":5,
    "crime":5,
    "sing":5,
    "brutal":5,
    "didnt":5,
    "talking":5,
    "days":5,
    "ludovico":5,
    "concerned":5,
    "enough":5,
    "though":5,
    "course":5,
    "films":5,
    "subject":5,
    "pleased":5,
    "seen":5,
    "choice":5,
    "gentlemen":5,
    "snuff":5,
    "suffered":5,
    "beat":5,
    "need":6,
    "everything":6,
    "filthy":6,
    "getting":6,
    "thou":6,
    "opens":6,
    "telephone":6,
    "better":6,
    "rain":6,
    "kicks":6,
    "love":6,
    "each":6,
    "girl":6,
    "others":6,
    "knew":6,
    "followed":6,
    "give":6,
    "dyou":6,
    "day":6,
    "dad":6,
    "heard":6,
    "certainly":6,
    "doesnt":6,
    "name":6,
    "friend":6,
    "bad":6,
    "exits":6,
    "ladies":6,
    "happened":6,
    "welly":6,
    "sure":6,
    "am":6,
    "coming":6,
    "malchick":6,
    "mind":6,
    "kind":6,
    "same":6,
    "floor":6,
    "god":6,
    "ever":6,
    "punishment":6,
    "tried":6,
    "governor":6,
    "understand":6,
    "brodsky":6,
    "film":6,
    "retching":6,
    "lad":6,
    "aye":6,
    "poor":6,
    "frank":6,
    "full":7,
    "through":7,
    "stick":7,
    "bastard":7,
    "lets":7,
    "men":7,
    "singing":7,
    "inout":7,
    "open":7,
    "horrorshow":7,
    "surprise":7,
    "death":7,
    "use":7,
    "life":7,
    "having":7,
    "ludwig":7,
    "van":7,
    "makes":7,
    "best":7,
    "made":7,
    "clear":7,
    "black":7,
    "few":7,
    "water":7,
    "table":7,
    "hear":7,
    "thought":7,
    "eh":7,
    "part":7,
    "own":7,
    "hell":7,
    "beethoven":7,
    "violence":7,
    "line":7,
    "hope":7,
    "mister":7,
    "655321":7,
    "officer":7,
    "forward":7,
    "blue":7,
    "really":7,
    "still":7,
    "dr":7,
    "ready":8,
    "eyes":8,
    "boys":8,
    "tramp":8,
    "alive":8,
    "thing":8,
    "stinking":8,
    "start":8,
    "youll":8,
    "turns":8,
    "place":8,
    "moves":8,
    "weve":8,
    "suddenly":8,
    "watch":8,
    "lovely":8,
    "against":8,
    "myself":8,
    "things":8,
    "does":8,
    "deltoid":8,
    "nothing":8,
    "also":8,
    "call":8,
    "hullo":8,
    "used":8,
    "victim":8,
    "state":8,
    "must":8,
    "years":8,
    "guard":8,
    "read":8,
    "doctor":8,
    "job":8,
    "julian":8,
    "first":9,
    "might":9,
    "whats":9,
    "mrs":9,
    "people":9,
    "9th":9,
    "last":9,
    "anything":9,
    "tell":9,
    "may":9,
    "white":9,
    "room":9,
    "another":9,
    "treatment":9,
    "cured":9,
    "which":10,
    "money":10,
    "isnt":10,
    "move":10,
    "em":10,
    "after":10,
    "red":10,
    "viddy":10,
    "next":10,
    "should":10,
    "hes":10,
    "why":10,
    "horrible":10,
    "minister":10,
    "georgie":11,
    "make":11,
    "world":11,
    "around":11,
    "glass":11,
    "goes":11,
    "said":11,
    "take":11,
    "cant":11,
    "look":11,
    "shall":11,
    "than":11,
    "joe":11,
    "stop":12,
    "theres":12,
    "night":12,
    "mr":12,
    "face":12,
    "too":12,
    "missus":12,
    "father":12,
    "evening":13,
    "came":13,
    "":13,
    "long":13,
    "leave":13,
    "wrong":13,
    "alexs":13,
    "big":13,
    "sick":13,
    "home":13,
    "chief":13,
    "feel":13,
    "could":14,
    "dear":14,
    "other":14,
    "pain":14,
    "only":14,
    "prison":14,
    "never":15,
    "because":15,
    "ill":15,
    "put":15,
    "great":15,
    "hi":15,
    "new":15,
    "these":15,
    "feeling":16,
    "please":16,
    "sorry":16,
    "let":16,
    "before":16,
    "something":16,
    "mean":16,
    "her":17,
    "o":17,
    "police":17,
    "help":17,
    "music":17,
    "brother":17,
    "got":17,
    "over":17,
    "two":17,
    "us":17,
    "youve":17,
    "alright":17,
    "bit":18,
    "man":18,
    "their":18,
    "them":18,
    "has":18,
    "fine":18,
    "our":19,
    "or":19,
    "where":19,
    "go":19,
    "done":19,
    "again":19,
    "door":19,
    "friends":19,
    "off":19,
    "she":20,
    "away":20,
    "real":20,
    "brothers":20,
    "alexander":20,
    "son":20,
    "morning":20,
    "say":21,
    "when":21,
    "did":21,
    "youre":21,
    "would":22,
    "going":22,
    "how":22,
    "dim":23,
    "time":23,
    "way":23,
    "back":23,
    "much":23,
    "want":24,
    "being":24,
    "thats":24,
    "more":25,
    "any":25,
    "an":25,
    "come":25,
    "down":25,
    "think":25,
    "if":26,
    "from":26,
    "here":26,
    "little":27,
    "ive":28,
    "can":29,
    "some":29,
    "young":29,
    "who":29,
    "will":29,
    "boy":29,
    "were":31,
    "into":31,
    "old":32,
    "so":32,
    "dont":32,
    "oh":32,
    "thank":32,
    "know":32,
    "had":33,
    "just":35,
    "see":36,
    "one":38,
    "they":39,
    "him":39,
    "\u2013":39,
    "by":39,
    "get":40,
    "im":42,
    "right":42,
    "there":44,
    "but":44,
    "about":44,
    "its":46,
    "out":48,
    "at":49,
    "been":49,
    "then":50,
    "as":51,
    "yes":51,
    "good":54,
    "his":55,
    "up":59,
    "your":64,
    "now":64,
    "do":66,
    "not":69,
    "very":69,
    "have":73,
    "no":74,
    "are":74,
    "well":77,
    "we":78,
    "what":78,
    "all":79,
    "with":80,
    "me":84,
    "for":84,
    "be":91,
    "is":92,
    "my":95,
    "like":96,
    "this":98,
    "on":98,
    "he":100,
    "was":104,
    "alex":105,
    "that":124,
    "sir":142,
    "in":165,
    "it":188,
    "of":236,
    "i":259,
    "a":276,
    "to":339,
    "and":350,
    "you":385,
    "the":513
}