{
    "very":1,
    "job":1,
    "tea":1,
    "sweet":1,
    "tooth":1,
    "looks":1,
    "at":1,
    "inquisitively":1,
    "swipes":1,
    "paintbrush":1,
    "horizontally":1,
    "across":1,
    "headline":1,
    "family":1,
    "startles":1,
    "silence":1,
    "only":1,
    "on":1,
    "player":1,
    "song":1,
    "they":1,
    "married":1,
    "cannot":1,
    "child":1,
    "use":1,
    "amplifiers":1,
    "stereo":1,
    "speaker":1,
    "work":1,
    "our":1,
    "problem":1,
    "has":1,
    "been":1,
    "power":1,
    "increase":1,
    "frequency":1,
    "never":1,
    "works":1,
    "trying":1,
    "til":1,
    "does":1,
    "father":1,
    "listen":1,
    "important":1,
    "learn":1,
    "these":1,
    "things":1,
    "wants":1,
    "yourself":1,
    "when":1,
    "old":1,
    "grey":1,
    "tight":1,
    "theres":1,
    "nothing":1,
    "scared":1,
    "back":1,
    "before":1,
    "dinner":1,
    "youll":1,
    "next":1,
    "big":1,
    "unless":1,
    "mask":1,
    "show":1,
    "something":1,
    "alright":1,
    "now":1,
    "thats":1,
    "more":1,
    "like":1,
    "didnt":1,
    "let":1,
    "blame":1,
    "happened":1,
    "blames":1,
    "herself":1,
    "bl":1,
    "ones":1,
    "fault":1,
    "tell":1,
    "deafening":1,
    "needs":1,
    "total":1,
    "darkness":1,
    "wheres":1,
    "find":1,
    "house":1,
    "doing":1,
    "laundry":1,
    "how":1,
    "did":1,
    "rockets":1,
    "hes":1,
    "hed":1,
    "sure":1,
    "shell":1,
    "found":1,
    "place":1,
    "can":1,
    "feel":1,
    "weight":1,
    "arms":1,
    "wasnt":1,
    "carrying":1,
    "bag":1,
    "evelyn":1,
    "move":1,
    "wrong":1,
    "creature":1,
    "jumps":1,
    "into":1,
    "light":1,
    "plates":1,
    "mouth":1,
    "fully":1,
    "open":1,
    "giant":1,
    "claw":1,
    "rips":1,
    "through":1,
    "silo":1,
    "door":1,
    "between":1,
    "two":1,
    "children":1,
    "dad":1,
    "loved":1,
    "hide":1,
    "suddenly":1,
    "creatures":1,
    "head":1,
    "explodes":1,
    "after":1,
    "long":1,
    "moment":1,
    "outside":1,
    "off":1,
    "distance":1,
    "muffled":1,
    "screeeeeeech":1,
    "good":2,
    "fine":2,
    "marcus":2,
    "whole":2,
    "record":2,
    "down":2,
    "wont":2,
    "make":2,
    "time":2,
    "able":2,
    "from":2,
    "well":2,
    "keep":2,
    "please":2,
    "take":2,
    "care":2,
    "course":2,
    "ill":2,
    "help":2,
    "mother":2,
    "theyre":2,
    "going":2,
    "if":2,
    "constant":2,
    "nearby":2,
    "louder":2,
    "sounds":2,
    "what":2,
    "youre":2,
    "promise":2,
    "right":2,
    "do":2,
    "shes":2,
    "smart":2,
    "could":2,
    "so":2,
    "heavy":2,
    "hands":2,
    "free":2,
    "who":2,
    "are":2,
    "too":3,
    "ok":3,
    "then":3,
    "were":3,
    "why":3,
    "know":3,
    "sound":3,
    "im":3,
    "just":3,
    "small":3,
    "always":3,
    "should":3,
    "that":3,
    "want":3,
    "stay":3,
    "here":3,
    "with":3,
    "because":3,
    "she":3,
    "boy":3,
    "carried":3,
    "him":3,
    "cant":3,
    "not":4,
    "dont":4,
    "but":4,
    "will":4,
    "your":4,
    "protect":4,
    "safe":4,
    "hear":4,
    "us":4,
    "still":4,
    "love":4,
    "worked":4,
    "hell":4,
    "my":5,
    "and":5,
    "in":5,
    "this":5,
    "go":5,
    "there":5,
    "be":5,
    "need":5,
    "them":5,
    "of":6,
    "her":6,
    "come":6,
    "for":7,
    "me":7,
    "its":7,
    "have":8,
    "was":8,
    "no":9,
    "he":9,
    "we":9,
    "is":10,
    "a":13,
    "it":13,
    "":13,
    "the":17,
    "i":23,
    "to":23,
    "you":23
}