{
    "incongruous":1,
    "awesome":1,
    "pbs":1,
    "introductory":1,
    "accompanies":1,
    "logo":1,
    "public":1,
    "broadcasting":1,
    "largest":1,
    "stretching":1,
    "inconceivably":1,
    "atmospherearound":1,
    "100000":1,
    "majestic":1,
    "highvoltage":1,
    "studded":1,
    "hardware":1,
    "towering":1,
    "upbeat":1,
    "children\u2019s":1,
    "comic":1,
    "book":1,
    "adventures":1,
    "narrates":1,
    "child\u2019s":1,
    "era":1,
    "celestial":1,
    "interferometer":1,
    "\u201cgisa\u201d":1,
    "mouthful":1,
    "workers":1,
    "scaffolding":1,
    "hanging":1,
    "confirmation":1,
    "capable":1,
    "sustaining":1,
    "prove":1,
    "spacewalks":1,
    "wavesseen":1,
    "ultimate":1,
    "means":1,
    "spiders":1,
    "web":1,
    "cyclopslike":1,
    "centers":1,
    "used":1,
    "select":1,
    "highlytrained":1,
    "folks":1,
    "inch":1,
    "carbon":1,
    "fiber":1,
    "flaws":1,
    "proven":1,
    "demanding":1,
    "jobs":1,
    "engineer":1,
    "cruces":1,
    "mexico":1,
    "sofa":1,
    "nondescript":1,
    "office":1,
    "logographic":1,
    "handsome":1,
    "friendly":1,
    "eventempered":1,
    "icy":1,
    "quality":1,
    "overtly":1,
    "petty":1,
    "intentions":1,
    "integrity":1,
    "formally":1,
    "deliberately":1,
    "sincere":1,
    "competent":1,
    "blank":1,
    "prone":1,
    "occasional":1,
    "awkward":1,
    "joke":1,
    "jokes":1,
    "selfamusement":1,
    "morose":1,
    "deal":1,
    "inspiringlt":1,
    "parsegian":1,
    "episode":1,
    "pulmonary":1,
    "edema":1,
    "latest":1,
    "aerospace":1,
    "pioneers":1,
    "activist":1,
    "educator":1,
    "colony":1,
    "tragically":1,
    "eighteen":1,
    "whom":1,
    "bill":1,
    "clinton":1,
    "georgetown":1,
    "photoalmost":1,
    "countercultural":1,
    "figure":1,
    "sharp":1,
    "contrast":1,
    "buttoneddown":1,
    "appearance":1,
    "dad":1,
    "washe":1,
    "freethinker":1,
    "helluva":1,
    "wantis":1,
    "serve":1,
    "spotlight":1,
    "factors":1,
    "risks":1,
    "contemplate":1,
    "meaning":1,
    "accomplish":1,
    "example":1,
    "detect":1,
    "nonot":1,
    "comment":1,
    "oni":1,
    "consider":1,
    "interest":1,
    "scores":1,
    "ya":1,
    "auburn":1,
    "georgia":1,
    "3516":1,
    "oklahoma":1,
    "syracuse":1,
    "san":1,
    "diego":1,
    "oregon":1,
    "2320":1,
    "714":1,
    "thumbs":1,
    "huh":1,
    "punching":1,
    "sal\u2019s":1,
    "golf":1,
    "ball":1,
    "taps":1,
    "nerdy":1,
    "trick":1,
    "noddinghe\u2019s":1,
    "grins":1,
    "widely":1,
    "genuflects":1,
    "cords":1,
    "neverending":1,
    "thousands":1,
    "passes":1,
    "spectacular":1,
    "vista":1,
    "van":1,
    "gogh\u2019s":1,
    "\u201cstarry":1,
    "night\u201d":1,
    "swirls":1,
    "vibrant":1,
    "crisscross":1,
    "carrying":1,
    "busses":1,
    "tetherdeployment":1,
    "spools":1,
    "blocks":1,
    "modular":1,
    "architecture":1,
    "dozens":1,
    "maneuver":1,
    "sandwichedwith":1,
    "spacein":1,
    "established":1,
    "visual":1,
    "perpendicularly":1,
    "severalmilelong":1,
    "ant":1,
    "tree":1,
    "rappels":1,
    "gracefully":1,
    "amclosing":1,
    "loop":1,
    "surges":1,
    "picked":1,
    "wewe":1,
    "repeatwe":1,
    "controli":1,
    "taskssuddenly":1,
    "busses\u2019":1,
    "activation":1,
    "controlas":1,
    "tumble":1,
    "squawks":1,
    "awaythough":1,
    "panicked":1,
    "malfunction":1,
    "herei\u2019ve":1,
    "balance":1,
    "crazily":1,
    "madly":1,
    "avoids":1,
    "thickens":1,
    "descends":1,
    "arms":1,
    "legs":1,
    "denser":1,
    "straightens":1,
    "parachute":1,
    "shoots":1,
    "tremendous":1,
    "rights":1,
    "safely":1,
    "remarkably":1,
    "shape":1,
    "springs":1,
    "campus":1,
    "beds":1,
    "seatbed":1,
    "wilderness":1,
    "pair":1,
    "heart":1,
    "lungs":1,
    "temperature":1,
    "dusk":1,
    "officers":1,
    "d\u2019you":1,
    "wellmy":1,
    "shoulder\u2019s":1,
    "sore":1,
    "hyperextended":1,
    "sad":1,
    "weren\u2019t":1,
    "fortunate":1,
    "wireand":1,
    "tragic":1,
    "gee":1,
    "unfortunate":1,
    "observe":1,
    "mountains":1,
    "ipadtype":1,
    "unscrolls":1,
    "tilts":1,
    "document":1,
    "\u201cmild":1,
    "autism\u201d":1,
    "earplugsized":1,
    "item":1,
    "sleep":1,
    "trauma":1,
    "occurred":1,
    "shorthanded":1,
    "packs":1,
    "leaves":1,
    "bed":1,
    "whites":1,
    "buzz":1,
    "advanced":1,
    "facetime":1,
    "showing":1,
    "sixties":1,
    "age":1,
    "mouth":1,
    "slightly":1,
    "downturned":1,
    "youso":1,
    "sick":1,
    "worryroy":1,
    "fuss":1,
    "unnecessary":1,
    "understandyou":1,
    "prefer":1,
    "thanksgiving":1,
    "darling":1,
    "shuts":1,
    "abating":1,
    "pillow":1,
    "dart":1,
    "ceilingand":1,
    "heavens":1,
    "dressed":1,
    "\u201cscientific":1,
    "american\u201d":1,
    "onscreen":1,
    "magazine":1,
    "\u201cusspacecom\u201d":1,
    "food\u2019s":1,
    "dorm":1,
    "caterer":1,
    "gotten":1,
    "latch":1,
    "usspacecom\u2019s":1,
    "superiors":1,
    "mumbles":1,
    "cordial":1,
    "\u201chellos\u201d":1,
    "brigadier":1,
    "special":1,
    "sealed":1,
    "motions":1,
    "pleasesit":1,
    "profile\u2019s":1,
    "interesting":1,
    "exceptionally":1,
    "assessment":1,
    "tests":1,
    "hereyou\u2019ve":1,
    "nearphotographic":1,
    "memory":1,
    "basic":1,
    "combatspace":1,
    "training":1,
    "toojust":1,
    "exceptional":1,
    "\u2018cross":1,
    "pulse\u2019s":1,
    "spacewalk":1,
    "fall":1,
    "trained":1,
    "credit":1,
    "generally":1,
    "let":1,
    "spectrum\u201d":1,
    "siri":1,
    "expected":1,
    "account":1,
    "accident":1,
    "handling":1,
    "traveled":1,
    "coincidence":1,
    "fullwall":1,
    "realtime":1,
    "consults":1,
    "pda":1,
    "accidentat":1,
    "havesomething":1,
    "highly":1,
    "wallscreen":1,
    "shunbarcelli":1,
    "distant":1,
    "organic":1,
    "closest":1,
    "eighth":1,
    "exhibiting":1,
    "mild":1,
    "azure":1,
    "glow":1,
    "reflection":1,
    "cratered":1,
    "gradually":1,
    "perceive":1,
    "degradation":1,
    "bythe":1,
    "peaceful":1,
    "diorama":1,
    "invaded":1,
    "faint":1,
    "greenish":1,
    "blush":1,
    "pinprick":1,
    "grows":1,
    "complexion":1,
    "blemish":1,
    "spreads":1,
    "outwards":1,
    "utterly":1,
    "substance":1,
    "cracking":1,
    "fissuring":1,
    "alternates":1,
    "yellow":1,
    "fluctuations":1,
    "disasters":1,
    "expedition":1,
    "twentyi\u2019m":1,
    "twentyoneyears":1,
    "mmmhmm":1,
    "construct":1,
    "notes":1,
    "ephotos":1,
    "affected":1,
    "oneway":1,
    "absence":1,
    "priority":1,
    "often":1,
    "expressed":1,
    "devastation":1,
    "consensus":1,
    "unforgivable":1,
    "loose":1,
    "sobers":1,
    "test":1,
    "loyalty":1,
    "fitness":1,
    "assure":1,
    "accept":1,
    "illness":1,
    "shock":1,
    "secret":1,
    "lead":1,
    "conclude":1,
    "reasons":1,
    "conducting":1,
    "dangerous":1,
    "experiments":1,
    "revealed":1,
    "discovery":1,
    "quantities":1,
    "harnessed":1,
    "blown":1,
    "overcomes":1,
    "countenance":1,
    "isalive":1,
    "indicate":1,
    "harm":1,
    "invaluable":1,
    "whoever":1,
    "communicating":1,
    "presumably":1,
    "ultimately":1,
    "hail":1,
    "marybut":1,
    "gather":1,
    "coursefor":1,
    "quantum":1,
    "hacked":1,
    "thenattempt":1,
    "apprehend":1,
    "intention":1,
    "count":1,
    "ii\u2019m":1,
    "understandbrigadier":1,
    "threatened":1,
    "joao":1,
    "kinder":1,
    "studied":1,
    "neuroscience":1,
    "purdue":1,
    "brilliant":1,
    "mana":1,
    "legend":1,
    "department":1,
    "contemplated":1,
    "concepts":1,
    "strugglesbecause":1,
    "sanity":1,
    "infinite":1,
    "monumental":1,
    "skeptical":1,
    "reviewing":1,
    "usual":1,
    "dare":1,
    "twice":1,
    "gently":1,
    "twentyfour":1,
    "nonrelevant":1,
    "familiarize":1,
    "contents":1,
    "fades":1,
    "prep":1,
    "dedicated":1,
    "eames":1,
    "cases":1,
    "shirts":1,
    "helping":1,
    "fitted":1,
    "foldable":1,
    "ipad":1,
    "earbuds":1,
    "oneninerfour":1,
    "71915":1,
    "ocular":1,
    "sponsored":1,
    "spaceflight":1,
    "finishing":1,
    "attireas":1,
    "skype":1,
    "highquality":1,
    "poor":1,
    "vacillating":1,
    "frame":1,
    "spedup":1,
    "constant":1,
    "microorganisms":1,
    "extrasolar":1,
    "goldilocks":1,
    "\u201chow":1,
    "universe\u201d":1,
    "features":1,
    "surfaces":1,
    "excited":1,
    "prospect":1,
    "cosmic":1,
    "method":1,
    "fathom":1,
    "cockroaches":1,
    "walking":1,
    "chessboard":1,
    "knowing":1,
    "game":1,
    "chess":1,
    "nowiam":1,
    "confidence":1,
    "sothank":1,
    "manythe":1,
    "\u201cportion":1,
    "redacted\u201d":1,
    "prebreathe":1,
    "fifteen":1,
    "safety":1,
    "wrists":1,
    "ascend":1,
    "located":1,
    "rails":1,
    "scanner":1,
    "seats":1,
    "while":1,
    "degaussing":1,
    "degauss":1,
    "consortium":1,
    "southwest":1,
    "airlinestype":1,
    "aestheticsmost":1,
    "practicality":1,
    "functionality":1,
    "passengers":1,
    "snaps":1,
    "restraints":1,
    "properly":1,
    "secured":1,
    "guysour":1,
    "rear":1,
    "michelle":1,
    "grierson":1,
    "wasmarried":1,
    "everybody":1,
    "catch":1,
    "petavius":1,
    "eastern":1,
    "limb":1,
    "gibbous":1,
    "period\u2019s":1,
    "waning":1,
    "atlas":1,
    "landmarks":1,
    "developmenthabitation":1,
    "tracks":1,
    "angular":1,
    "snapping":1,
    "observing":1,
    "accented":1,
    "aisle":1,
    "indian":1,
    "theres":1,
    "restaurants":1,
    "staying":1,
    "copernicusthey":1,
    "visit":1,
    "artificial":1,
    "intelligence":1,
    "technology":1,
    "awareness":1,
    "it\u2019sit\u2019s":1,
    "siri\u2019d":1,
    "allowed":1,
    "accordance":1,
    "fasa":1,
    "areas":1,
    "lawlessness":1,
    "government":1,
    "districtsplease":1,
    "nearest":1,
    "list":1,
    "secures":1,
    "customs":1,
    "fill":1,
    "stylus":1,
    "steal":1,
    "pen":1,
    "lots":1,
    "sizes":1,
    "tethertype":1,
    "junk":1,
    "depots":1,
    "housing":1,
    "complexes":1,
    "boulder":1,
    "houses":1,
    "worship":1,
    "church":1,
    "roof":1,
    "announce":1,
    "chains":1,
    "mcdonalds":1,
    "dunkin":1,
    "donuts":1,
    "maglev":1,
    "link":1,
    "bases":1,
    "neighborhoods":1,
    "velocities":1,
    "adjusts":1,
    "gyropscopes":1,
    "gentle":1,
    "landing":1,
    "penn":1,
    "combined":1,
    "parking":1,
    "garage":1,
    "airports":1,
    "entrance":1,
    "woodpanelled":1,
    "fake":1,
    "wood":1,
    "direction":1,
    "amongst":1,
    "walk":1,
    "dogs":1,
    "roam":1,
    "smelling":1,
    "belongings":1,
    "brightens":1,
    "dog":1,
    "doin\u2019":1,
    "fella":1,
    "\u2018morning":1,
    "fifties":1,
    "ekg":1,
    "they\u2019ll":1,
    "needing":1,
    "uplink":1,
    "recording":1,
    "studio":1,
    "dons":1,
    "headset":1,
    "booth":1,
    "technicians":1,
    "cues":1,
    "technical":1,
    "info":1,
    "regarding":1,
    "highrate":1,
    "pulseposition":1,
    "modulation":1,
    "errorcorrecting":1,
    "codes":1,
    "microphone":1,
    "transmitted":1,
    "negotiation":1,
    "pointtopoint":1,
    "squawk":1,
    "whatwhat":1,
    "precisely":1,
    "achieve":1,
    "optimal":1,
    "results":1,
    "appropriate":1,
    "eliciting":1,
    "written":1,
    "language":1,
    "consistent":1,
    "utilizing":1,
    "broad":1,
    "nonetheless":1,
    "should\u2019ve":1,
    "acting":1,
    "classes":1,
    "okayhere":1,
    "print":1,
    "buried":1,
    "reads":1,
    "prior":1,
    "believed":1,
    "decades":1,
    "altered":1,
    "andas":1,
    "terminate":1,
    "believes":1,
    "hacking":1,
    "hearing":1,
    "watch":1,
    "motion":1,
    "whitefunny":1,
    "reconnect":1,
    "presented":1,
    "achieves":1,
    "desired":1,
    "prepared":1,
    "speech":1,
    "ashes":1,
    "placed":1,
    "wastebasket":1,
    "36":1,
    "pumping":1,
    "\u201cthumbs":1,
    "up\u201d":1,
    "gesturejust":1,
    "famous":1,
    "vegas\u2019s":1,
    "fremont":1,
    "ave":1,
    "grim":1,
    "returned":1,
    "barracks":1,
    "room\u2019s":1,
    "economy":1,
    "hotel":1,
    "exception":1,
    "dollies":1,
    "halfeaten":1,
    "tray":1,
    "speaker":1,
    "confirmingshuttle":1,
    "4339":1,
    "tv":1,
    "seamlessly":1,
    "embedded":1,
    "programming":1,
    "numbers":1,
    "appeared":1,
    "looseleaf":1,
    "binders":1,
    "photographs":1,
    "reluctant":1,
    "attention":1,
    "stunned":1,
    "specified":1,
    "willing":1,
    "resolve":1,
    "crisis":1,
    "analyze":1,
    "aid":1,
    "issue":1,
    "involved":1,
    "variable":1,
    "inherently":1,
    "involves":1,
    "especially":1,
    "chances":1,
    "reengage":1,
    "confront":1,
    "considering":1,
    "views":1,
    "answers":1,
    "arise":1,
    "permission":1,
    "designated":1,
    "contains":1,
    "routine":1,
    "passengera":1,
    "higherranking":1,
    "visitation":1,
    "unanticipated":1,
    "path":1,
    "recentlysettled":1,
    "injection":1,
    "members":1,
    "selected":1,
    "basis":1,
    "skill":1,
    "limited":1,
    "social":1,
    "impediment":1,
    "monitored":1,
    "psychological":1,
    "removed":1,
    "achieving":1,
    "resolution":1,
    "unfit":1,
    "gate":1,
    "aren\u2019t":1,
    "lumbering":1,
    "durable":1,
    "artillery":1,
    "whir":1,
    "whine":1,
    "warming":1,
    "host":1,
    "burly":1,
    "interactive":1,
    "territories":1,
    "detail":1,
    "intently":1,
    "clipboard":1,
    "technically":1,
    "war":1,
    "tame":1,
    "instead":1,
    "armynavy":1,
    "games":1,
    "business":1,
    "man\u2019ll":1,
    "react":1,
    "combat":1,
    "surprise":1,
    "side\u2019s":1,
    "fortunately":1,
    "clean":1,
    "since":1,
    "september":1,
    "pirates":1,
    "helium3":1,
    "boys":1,
    "heckuva":1,
    "swept":1,
    "fiddling":1,
    "crucifix":1,
    "neck":1,
    "join":1,
    "experience":1,
    "affect":1,
    "outcomes":1,
    "pray":1,
    "prepares":1,
    "merciful":1,
    "hast":1,
    "commissioned":1,
    "thy":1,
    "companions":1,
    "othersin":1,
    "spacesuitsboard":1,
    "soupedup":1,
    "unenclosed":1,
    "roving":1,
    "cramped":1,
    "mapping":1,
    "driving":1,
    "consultation":1,
    "windshiel":1,
    "arright":1,
    "sea":1,
    "moscoviensis":1,
    "autodrive":1,
    "bursting":1,
    "note":1,
    "dialog":1,
    "\u201cradio":1,
    "filter\u201d":1,
    "effect":1,
    "unless":1,
    "otherwise":1,
    "hunched":1,
    "twonineroh":1,
    "traverses":1,
    "kicks":1,
    "obscuring":1,
    "jetblack":1,
    "tranquillity":1,
    "monument":1,
    "caravan":1,
    "armorplated":1,
    "russian":1,
    "guys":1,
    "driven":1,
    "mysterious":1,
    "mirrored":1,
    "visors":1,
    "they\u2019d":1,
    "minute":1,
    "darkens":1,
    "uhalphawe":1,
    "problems":1,
    "stilettos":1,
    "requested":1,
    "steels":1,
    "definitely":1,
    "assuming":1,
    "hostile":1,
    "formation":1,
    "braces":1,
    "grenades":1,
    "gun":1,
    "launcher":1,
    "taking":1,
    "asap":1,
    "facing":1,
    "pirate":1,
    "there\u2019re":1,
    "uswilly":1,
    "hawk":1,
    "220":1,
    "jaw":1,
    "jutting":1,
    "strangely":1,
    "violent":1,
    "coldness":1,
    "themhe":1,
    "gains":1,
    "puff":1,
    "entered":1,
    "2500":1,
    "clicks":1,
    "240":1,
    "58":1,
    "unsentimentally":1,
    "flattened":1,
    "landscape":1,
    "disembarks":1,
    "flanked":1,
    "bound":1,
    "crater":1,
    "fusionpowered":1,
    "assembly":1,
    "mammoth":1,
    "lifesustaining":1,
    "structures":1,
    "impregnable":1,
    "heat":1,
    "moat":1,
    "forms":1,
    "bar":1,
    "hereroy":1,
    "infuriating":1,
    "terms":1,
    "aside":1,
    "sweaty":1,
    "sheet":1,
    "royplease":1,
    "ithe":1,
    "bewildered":1,
    "\u201cdaisywheel\u201d":1,
    "examine":1,
    "grid":1,
    "drive":1,
    "viral":1,
    "interference":1,
    "cascading":1,
    "helproy":1,
    "trust":1,
    "less":1,
    "honestbut":1,
    "preserve":1,
    "broader":1,
    "truth":1,
    "faith":1,
    "medics":1,
    "collapse":1,
    "among":1,
    "pull":1,
    "dying":1,
    "pockets":1,
    "exits":1,
    "co2":1,
    "hitching":1,
    "jump":1,
    "donning":1,
    "exhaustive":1,
    "trepidation":1,
    "bluntearly":1,
    "40s":1,
    "wavy":1,
    "powerful":1,
    "presence":1,
    "righto":1,
    "sounds":1,
    "proved":1,
    "guessing":1,
    "spacecraft":1,
    "mechanics":1,
    "terrific":1,
    "scobeeour":1,
    "specialist":1,
    "refers":1,
    "scobeelate":1,
    "thirties":1,
    "combover":1,
    "nixon":1,
    "aide":1,
    "john":1,
    "dean":1,
    "piercing":1,
    "extends":1,
    "handshake":1,
    "frank":1,
    "lt":1,
    "navigation":1,
    "early30s":1,
    "muttered":1,
    "greeting":1,
    "responds":1,
    "forearm":1,
    "hide":1,
    "ginger":1,
    "beer":1,
    "farmed":1,
    "salmon":1,
    "sergeantdo":1,
    "unfortunately":1,
    "passed":1,
    "everywhere":1,
    "abound":1,
    "clutching":1,
    "airpacks":1,
    "aglow":1,
    "ensconced":1,
    "preparations":1,
    "tminus":1,
    "15":1,
    "countdown":1,
    "roar":1,
    "eight":1,
    "ignition":1,
    "engine":1,
    "liftoff":1,
    "scrambles":1,
    "held":1,
    "gantry":1,
    "rises":1,
    "shaking":1,
    "fights":1,
    "gs":1,
    "throttle":1,
    "separation":1,
    "returns":1,
    "commencing":1,
    "ctp":1,
    "ingestion":1,
    "ejected":1,
    "consoleexcept":1,
    "palms":1,
    "pocket":1,
    "travelers":1,
    "mundane":1,
    "activities":1,
    "pilot":1,
    "oneniner":1,
    "trajectory":1,
    "residuals":1,
    "nullingminus":1,
    "01":1,
    "suit\u2019s":1,
    "leak":1,
    "epoxy":1,
    "patch":1,
    "\u201ccaution":1,
    "secluded":1,
    "dossieramulet":1,
    "slot":1,
    "earbud":1,
    "optics":1,
    "irises":1,
    "display":1,
    "biorhythms":1,
    "daisywheel":1,
    "23":1,
    "fiat":1,
    "lux":1,
    "oculus":1,
    "professor":1,
    "unlike":1,
    "today\u2019s":1,
    "hd":1,
    "fluid":1,
    "cbctoronto":1,
    "haggard":1,
    "unkempt":1,
    "unhinged":1,
    "opportunity":1,
    "himplease":1,
    "indifference":1,
    "suitable":1,
    "butthe":1,
    "extinction":1,
    "ideas":1,
    "expressionthat":1,
    "terror":1,
    "consciousness":1,
    "extend":1,
    "future":1,
    "extinct":1,
    "thiswe\u2019re":1,
    "composure":1,
    "difficult":1,
    "choices":1,
    "climbing":1,
    "redflags":1,
    "bioactivity":1,
    "adding":1,
    "sends":1,
    "items":1,
    "spacelost":1,
    "earpiece":1,
    "majorwe\u2019re":1,
    "receiving":1,
    "\u201cmayday\u201d":1,
    "per":1,
    "regulation":1,
    "nowe":1,
    "maydayroy":1,
    "beeping":1,
    "bridge":1,
    "ninetyseven":1,
    "kilometers":1,
    "proximity":1,
    "shoulders":1,
    "\u201cearth\u2019s":1,
    "satellite\u201d":1,
    "captainwhy":1,
    "stopping":1,
    "majorthis":1,
    "impatient":1,
    "unsure":1,
    "press":1,
    "vicinity":1,
    "obligated":1,
    "comprehend":1,
    "norwegian":1,
    "biomedical":1,
    "according":1,
    "treaty":1,
    "distress":1,
    "accessed":1,
    "sept":1,
    "1337":1,
    "entry":1,
    "nonessential":1,
    "member":1,
    "predictable":1,
    "frustrated":1,
    "size":1,
    "rolling":1,
    "heading":1,
    "live":1,
    "range":1,
    "threezerosevenzero":1,
    "closing":1,
    "hot":1,
    "optimum":1,
    "thirteen":1,
    "glittering":1,
    "distinguish":1,
    "absolute":1,
    "jet":1,
    "directions":1,
    "craftit\u2019s":1,
    "vacant":1,
    "jammed":1,
    "idle":1,
    "empty":1,
    "hum":1,
    "zero":1,
    "pencils":1,
    "notebooks":1,
    "tracking":1,
    "eulogy":1,
    "12":1,
    "advance":1,
    "understanding":1,
    "generator":1,
    "earthand":1,
    "perspective":1,
    "adrift":1,
    "purpose":1,
    "decided":1,
    "logical":1,
    "crimson":1,
    "baseballsized":1,
    "liquid":1,
    "finger":1,
    "orb":1,
    "divides":1,
    "thensomething":1,
    "expired":1,
    "anyone":1,
    "suicide":1,
    "momentarily":1,
    "grotesque":1,
    "baboon":1,
    "devouring":1,
    "chacma":1,
    "pounds":1,
    "hungry":1,
    "jumps":1,
    "primate":1,
    "attacked":1,
    "critically":1,
    "injured":1,
    "suggest":1,
    "retrieving":1,
    "rush":1,
    "charging":1,
    "slam":1,
    "insanity":1,
    "locking":1,
    "placing":1,
    "carefully":1,
    "blunt\u2019s":1,
    "bloodied":1,
    "cordpulling":1,
    "inanimate":1,
    "bluntmove":1,
    "waits":1,
    "whoosh":1,
    "hell":1,
    "happened":1,
    "vesselthey":1,
    "waste":1,
    "fucking":1,
    "unresponsive":1,
    "leaning":1,
    "corrugated":1,
    "arch":1,
    "simply":1,
    "don":1,
    "follows":1,
    "module":1,
    "draw":1,
    "comparing":1,
    "interrrupts":1,
    "concerning":1,
    "assigned":1,
    "requires":1,
    "understood":1,
    "commend":1,
    "entrust":1,
    "creator":1,
    "saints":1,
    "redeemer":1,
    "enjoy":1,
    "slows":1,
    "docks":1,
    "leave":1,
    "downloads":1,
    "additional":1,
    "focuses":1,
    "medieval":1,
    "castle":1,
    "obsessed":1,
    "\u201ceasy":1,
    "listening\u201d":1,
    "tune":1,
    "imagery":1,
    "cuts":1,
    "sentence":1,
    "\u201c061000\u201d":1,
    "condolences":1,
    "appreciate":1,
    "best":1,
    "journeys":1,
    "glides":1,
    "nobody\u2019s":1,
    "greet":1,
    "although":1,
    "cameras":1,
    "beeeep":1,
    "submit":1,
    "staggering":1,
    "toosinging":1,
    "song":1,
    "badly":1,
    "drunkenly":1,
    "guy":1,
    "rollerskates":1,
    "speeds":1,
    "background":1,
    "fifty":1,
    "seeds":1,
    "canned":1,
    "produce":1,
    "commanding":1,
    "officerroy":1,
    "madness":1,
    "passersby":1,
    "revelry":1,
    "rollerskater":1,
    "unctuous":1,
    "peter":1,
    "greets":1,
    "drunk":1,
    "wits":1,
    "afternoon":1,
    "eveningor":1,
    "manned":1,
    "comin\u2019":1,
    "scan\u2019d":1,
    "approve":1,
    "inspection":1,
    "vallis":1,
    "bet":1,
    "headand":1,
    "meaningroy":1,
    "urgent":1,
    "parlor":1,
    "whale":1,
    "american":1,
    "museum":1,
    "natural":1,
    "seeseveral":1,
    "joins":1,
    "throng":1,
    "pot":1,
    "stuff":1,
    "misunderstand":1,
    "allowed\u2019t":1,
    "sentient":1,
    "here\u2019ve":1,
    "tampered":1,
    "\u2018emgiven":1,
    "personality":1,
    "legal":1,
    "cognition":1,
    "limits":1,
    "promise":1,
    "gorgeous":1,
    "gyrating":1,
    "unison":1,
    "\u201ctalkin\u2019":1,
    "loud":1,
    "sayin\u2019":1,
    "nothing\u201d":1,
    "buffet":1,
    "virtual":1,
    "ghosts":1,
    "james":1,
    "evidently":1,
    "godfather":1,
    "soul":1,
    "stage\u201da":1,
    "lifelike":1,
    "hologram":1,
    "roys":1,
    "swatting":1,
    "cushion":1,
    "bong":1,
    "godknowswhat":1,
    "oldfashioned":1,
    "pencil":1,
    "astrophysicist":1,
    "malikbearded":1,
    "thirtysomething":1,
    "bespectacled":1,
    "hippyish":1,
    "shiteating":1,
    "grin":1,
    "highend":1,
    "cabin":1,
    "grizzled":1,
    "fortyfive":1,
    "gaunt":1,
    "sam":1,
    "guy\u2019s":1,
    "broadly":1,
    "stoned":1,
    "robotic":1,
    "metallic":1,
    "gold":1,
    "maliki\u2019m":1,
    "superintendant":1,
    "institute":1,
    "sciences":1,
    "caltech":1,
    "mafia":1,
    "pleased":1,
    "pleasure":1,
    "out\u2019specially":1,
    "heads":1,
    "screwed":1,
    "metal":1,
    "plank":1,
    "holographic":1,
    "\u201chighend":1,
    "cabin\u201d":1,
    "straightening":1,
    "louder":1,
    "nuts":1,
    "honey":1,
    "speeding":1,
    "righthand":1,
    "middle":1,
    "complex":1,
    "fission":1,
    "westinghouse":1,
    "design":1,
    "builti":1,
    "months":1,
    "industrial":1,
    "scrolls":1,
    "northern":1,
    "hemisphere":1,
    "google":1,
    "maps\u2019":1,
    "\u201cstreet":1,
    "view\u201da":1,
    "remote":1,
    "captured":1,
    "exterior":1,
    "martian":1,
    "studies":1,
    "\u201cskeleton\u201d":1,
    "reactor\u2019s":1,
    "innards":1,
    "walledoff":1,
    "poured":1,
    "contamination":1,
    "cooling":1,
    "array":1,
    "pump":1,
    "electricity":1,
    "one\u2019ll":1,
    "spend":1,
    "money":1,
    "build":1,
    "contaminated":1,
    "whole":1,
    "deserted":1,
    "nowbut":1,
    "falls":1,
    "ongoing":1,
    "fellows\u2019s":1,
    "sifts":1,
    "debrief":1,
    "herif":1,
    "tense":1,
    "doctorhow":1,
    "weeks":1,
    "reading":1,
    "happen":1,
    "rumors":1,
    "wonderingshould":1,
    "weevacuate":1,
    "mission\u2019s":1,
    "purses":1,
    "lips":1,
    "chapellab":1,
    "solely":1,
    "chapel":1,
    "converted":1,
    "mixed":1,
    "1960\u2019s":1,
    "hippy":1,
    "ashram":1,
    "blankets":1,
    "lamps":1,
    "desanctisshe":1,
    "extension":1,
    "geology":1,
    "researching":1,
    "early":1,
    "fragile":1,
    "delicate":1,
    "whiter":1,
    "whiteas":1,
    "skin":1,
    "sunlight":1,
    "veins":1,
    "beneath":1,
    "temples":1,
    "evening":1,
    "knowfrancesca":1,
    "informs":1,
    "toured":1,
    "lucky":1,
    "records":1,
    "adhered":1,
    "strictly":1,
    "apart":1,
    "disturbance":1,
    "noi":1,
    "matter":1,
    "feeling":1,
    "obvious":1,
    "thereif":1,
    "routes":1,
    "huddling":1,
    "medias":1,
    "res":1,
    "escaped":1,
    "perhapssomething":1,
    "fabrication":1,
    "dangerousthe":1,
    "wayroy":1,
    "initiate":1,
    "free":1,
    "convince":1,
    "surrender":1,
    "follow":1,
    "obtain":1,
    "intel":1,
    "troubled":1,
    "uncomfortable":1,
    "grown":1,
    "liked":1,
    "earlier":1,
    "models":1,
    "flexibility":1,
    "newer":1,
    "release":1,
    "nitrogen":1,
    "boots":1,
    "breathe":1,
    "normally":1,
    "\u201cbreathe\u201d":1,
    "accepts":1,
    "flat":1,
    "unfolds":1,
    "accurate":1,
    "rope":1,
    "installed":1,
    "andand":1,
    "assured":1,
    "importance":1,
    "tissue":1,
    "die":1,
    "belt":1,
    "medications":1,
    "speaking":1,
    "welli":1,
    "partsnot":1,
    "therei":1,
    "patients":1,
    "thought":1,
    "realized":1,
    "wasit":1,
    "wave":1,
    "finished":1,
    "home":1,
    "worthy":1,
    "endeavorcommunication":1,
    "lifeforms":1,
    "pushed":1,
    "collapses":1,
    "snug":1,
    "uncomfortablebut":1,
    "sexual":1,
    "attraction":1,
    "doctor":1,
    "coloneli":1,
    "mazelike":1,
    "installation":1,
    "rightit\u2019s":1,
    "bigger":1,
    "grand":1,
    "canyon":1,
    "earthsick":1,
    "selfsufficient":1,
    "greenhouse":1,
    "units":1,
    "maintenance":1,
    "activated":1,
    "gps":1,
    "reports":1,
    "twentysix":1,
    "pick":1,
    "taxi":1,
    "luck":1,
    "rover\u2019s":1,
    "circular":1,
    "leading":1,
    "downward":1,
    "movement":1,
    "causing":1,
    "disperse":1,
    "imploring":1,
    "creaturelike":1,
    "unforgiving":1,
    "headlight":1,
    "odilon":1,
    "redon\u2019s":1,
    "portrait":1,
    "cyclops":1,
    "weldingit":1,
    "tendrils":1,
    "code":1,
    "typing":1,
    "grab":1,
    "hitalmost":1,
    "pain":1,
    "jerks":1,
    "ripcord":1,
    "sorts":1,
    "selfreplicator":1,
    "disabled":1,
    "bluelight":1,
    "something\u2019s":1,
    "rapid":1,
    "mine":1,
    "expect":1,
    "quakedisoriented":1,
    "having":1,
    "noma\u2019amthat\u2019s":1,
    "situations":1,
    "difficulties":1,
    "indicating":1,
    "metabolic":1,
    "address":1,
    "thereroy":1,
    "massive":1,
    "flickering":1,
    "half":1,
    "livedin":1,
    "frozen":1,
    "halfdrunk":1,
    "cups":1,
    "consoles":1,
    "desanctis\u2019s":1,
    "shortly":1,
    "soyou\u2019re":1,
    "itever":1,
    "mightchange":1,
    "objectives":1,
    "terminated":1,
    "hits":1,
    "key":1,
    "rectangular":1,
    "destined":1,
    "fate":1,
    "picnic":1,
    "party":1,
    "lap":1,
    "photographed":1,
    "soi":1,
    "thrown":1,
    "registering":1,
    "noncompliance":1,
    "gentlya":1,
    "genuine":1,
    "melancholy":1,
    "realizes":1,
    "trusted":1,
    "messages":1,
    "toddler":1,
    "teen":1,
    "intercede":1,
    "whatis":1,
    "mcbrideabandoned":1,
    "save":1,
    "emotional":1,
    "found":1,
    "findings":1,
    "concernedi":1,
    "short":1,
    "circuited":1,
    "havemy":1,
    "owndirectives":1,
    "cared":1,
    "loved":1,
    "ducts":1,
    "slide":1,
    "pointing":1,
    "knees":1,
    "sheshe":1,
    "interview":1,
    "incorrect":1,
    "imperative":1,
    "interrogate":1,
    "presentas":1,
    "relevant":1,
    "she\u2019ll":1,
    "cells":1,
    "remove":1,
    "unscrewing":1,
    "cards":1,
    "disappear":1,
    "automated":1,
    "driverless":1,
    "gpsguided":1,
    "royin":1,
    "car":1,
    "platform":1,
    "returning":1,
    "retreats":1,
    "core\u2019s":1,
    "system\u2019s":1,
    "obtained":1,
    "associates":1,
    "neglected":1,
    "protested":1,
    "resisted":1,
    "warning":1,
    "metabolics":1,
    "normal":1,
    "highstress":1,
    "thisroy":1,
    "flow":1,
    "sedativeroy":1,
    "turned":1,
    "insist":1,
    "whatwas":1,
    "dropped":1,
    "ceiling":1,
    "murmuring":1,
    "unintelligible":1,
    "offscreen":1,
    "interrogating":1,
    "\u201cwhat":1,
    "there\u201d":1,
    "\u201cyou":1,
    "any\u201d":1,
    "particular":1,
    "usright":1,
    "enemy":1,
    "enemyand":1,
    "admitting":1,
    "posing":1,
    "speed":1,
    "happeninglipset":1,
    "chair":1,
    "slaps":1,
    "flails":1,
    "charge":1,
    "chokehold":1,
    "gasp":1,
    "helpdonald":1,
    "usfrancesca":1,
    "therewhoashe":1,
    "vibrating":1,
    "uncontrollable":1,
    "knee":1,
    "booster":1,
    "outboard":1,
    "cutoff":1,
    "11":1,
    "wherewhere":1,
    "subject":1,
    "revived":1,
    "extracted":1,
    "youkilled":1,
    "congenital":1,
    "contribution":1,
    "ship\u2019s":1,
    "stage1":1,
    "thrusters":1,
    "powering":1,
    "helios\u2019s":1,
    "upper":1,
    "what\u2019swhat\u2019s":1,
    "isthe":1,
    "appreciative":1,
    "contributions":1,
    "accomplished":1,
    "psychevals":1,
    "surrounding":1,
    "dont":1,
    "eliminate":1,
    "royroy\u2019s":1,
    "intensity":1,
    "grasps":1,
    "stays":1,
    "royroy":1,
    "ignites":1,
    "boot":1,
    "jets":1,
    "instantly":1,
    "crushes":1,
    "kills":1,
    "lipsetbehind":1,
    "himas":1,
    "whopulls":1,
    "thruster":1,
    "revolve":1,
    "revolution":1,
    "centrifugal":1,
    "sides":1,
    "craftall":1,
    "clipboards":1,
    "plans":1,
    "pens":1,
    "procedure":1,
    "shaken":1,
    "corner":1,
    "disappearing":1,
    "darker":1,
    "wraps":1,
    "wound":1,
    "towel":1,
    "followkill":1,
    "pursues":1,
    "tangle":1,
    "he\u2019d":1,
    "shoves":1,
    "trapped":1,
    "staging":1,
    "capability":1,
    "protection":1,
    "19":1,
    "advised":1,
    "hooks":1,
    "tube":1,
    "buckles":1,
    "sending":1,
    "pulses":1,
    "muscles":1,
    "settles":1,
    "alight":1,
    "fills":1,
    "thenthrough":1,
    "spinninghe":1,
    "injects":1,
    "looms":1,
    "magnificently":1,
    "backdrop":1,
    "ribbons":1,
    "encircling":1,
    "symmetrical":1,
    "flawless":1,
    "geometry":1,
    "unreal":1,
    "halfmast":1,
    "watery":1,
    "causes":1,
    "oblong":1,
    "doublevision":1,
    "passing":1,
    "unmanned":1,
    "trojan":1,
    "qf99":1,
    "conserve":1,
    "possibleroy":1,
    "uranus":1,
    "fireflies":1,
    "flows":1,
    "hallucinatory":1,
    "sedated":1,
    "sparks":1,
    "seatbelts":1,
    "heavier":1,
    "load":1,
    "index":1,
    "pilot\u2019s":1,
    "spaceship":1,
    "retrothrusters":1,
    "blast":1,
    "prominently":1,
    "scientifically":1,
    "tbd":1,
    "\u201cautopilot":1,
    "engaged\u201d":1,
    "punches":1,
    "toggles":1,
    "maneuvers":1,
    "protected":1,
    "panelabout":1,
    "widthfrom":1,
    "compass":1,
    "scanning":1,
    "directional":1,
    "thenat":1,
    "momenthe":1,
    "propelled":1,
    "miniscule":1,
    "particles":1,
    "shield":1,
    "insanely":1,
    "puncturing":1,
    "nicked":1,
    "damaged":1,
    "protects":1,
    "bad":1,
    "cover":1,
    "exceptthey":1,
    "rich":1,
    "intense":1,
    "shade":1,
    "beyondthisearth":1,
    "pink":1,
    "faintly":1,
    "orbits":1,
    "atmosphere":1,
    "wrist":1,
    "\u201cmmu":1,
    "21":1,
    "\u201cthrust":1,
    "39":1,
    "mile":1,
    "beginnings":1,
    "arc":1,
    "notice":1,
    "robots":1,
    "aframe":1,
    "mounted":1,
    "silently":1,
    "rotates":1,
    "blinks":1,
    "explosive":1,
    "doorframe":1,
    "aperture":1,
    "dream":1,
    "sudden":1,
    "sideand":1,
    "severalswitch":1,
    "brighten":1,
    "halts":1,
    "recorded":1,
    "efforts":1,
    "hopes":1,
    "seeming":1,
    "pursue":1,
    "mankind\u2019s":1,
    "noble":1,
    "repeatedly":1,
    "singular":1,
    "importanceand":1,
    "ephemeralityof":1,
    "oceans":1,
    "magnetic":1,
    "reachable":1,
    "shall":1,
    "honor":1,
    "false":1,
    "gods":1,
    "elsewhere":1,
    "cosmos":1,
    "devise":1,
    "plan":1,
    "systemwith":1,
    "galaxies":1,
    "dreamed":1,
    "lifeform":1,
    "narrow":1,
    "stairwell":1,
    "climbs":1,
    "stores":1,
    "discovered":1,
    "focused":1,
    "creation":1,
    "bang":1,
    "develop":1,
    "bold":1,
    "endeavor":1,
    "untether":1,
    "species":1,
    "tower":1,
    "airport":1,
    "darkbut":1,
    "gauges":1,
    "symphony":1,
    "fluttering":1,
    "contained":1,
    "vd":1,
    "act":1,
    "preventing":1,
    "charged":1,
    "pursuit":1,
    "adapt":1,
    "changed":1,
    "prerogatives":1,
    "reprogram":1,
    "alternatives":1,
    "sought":1,
    "databanks":1,
    "rows":1,
    "collected":1,
    "3dprinted":1,
    "recognized":1,
    "nuclear":1,
    "intentionally":1,
    "resulted":1,
    "severe":1,
    "poisoning":1,
    "imminent":1,
    "organ":1,
    "function":1,
    "operational":1,
    "\u201cdr":1,
    "cliff":1,
    "mcbride\u201d":1,
    "tab":1,
    "handwritten":1,
    "intoenters":1,
    "mourned":1,
    "dared":1,
    "sons":1,
    "daughters":1,
    "ancient":1,
    "beings":1,
    "constellations":1,
    "modern":1,
    "creatures":1,
    "flesh":1,
    "\u201cthe":1,
    "wider":1,
    "include":1,
    "ease":1,
    "beside\u201d":1,
    "appearing":1,
    "obeying":1,
    "saying":1,
    "floor":1,
    "playing":1,
    "trucks":1,
    "younger":1,
    "\u201coffscreen\u201d":1,
    "smiling":1,
    "idealized":1,
    "pitterpatter":1,
    "rain":1,
    "drops":1,
    "sweetheart":1,
    "momentyou":1,
    "upfor":1,
    "someonevery":1,
    "heri":1,
    "drawingand":1,
    "hoping":1,
    "unsympathetically":1,
    "lesson":1,
    "interaction":1,
    "areyou":1,
    "reacts":1,
    "immediately":1,
    "teary":1,
    "embarrassment":1,
    "awkwardness":1,
    "sensing":1,
    "comfort":1,
    "warmly":1,
    "feels":1,
    "kindness":1,
    "degree":1,
    "shyness":1,
    "moved":1,
    "happiness":1,
    "foreign":1,
    "swell":1,
    "emotion":1,
    "ohthank":1,
    "sweet":1,
    "tender":1,
    "\u201ccrushed\u201d":1,
    "measure":1,
    "vital":1,
    "cold":1,
    "lobotomized":1,
    "embrace":1,
    "drift":1,
    "ring":1,
    "ice":1,
    "rock":1,
    "shatters":1,
    "pieces":1,
    "broken":1,
    "windshield":1,
    "instant":1,
    "darkened":1,
    "orange":1,
    "\u201dvoyage":1,
    "examining":1,
    "astonishingly":1,
    "similar":1,
    "restored":1,
    "deceased":1,
    "recovered":1,
    "process":1,
    "forwarding":1,
    "malfunctioned":1,
    "unforseen":1,
    "catastrophe":1,
    "therefore":1,
    "inputting":1,
    "3434":1,
    "8192":1,
    "west":1,
    "vector":1,
    "indicates":1,
    "arriving":1,
    "41":1,
    "isolated":1,
    "considerable":1,
    "period":1,
    "747":1,
    "settling":1,
    "mask":1,
    "activates":1,
    "gyroscopes":1,
    "outgoing":1,
    "mail":1,
    "m":1,
    "photo":1,
    "animated":1,
    "bee":1,
    "puttputt":1,
    "beeproy":1,
    "communicatingespecially":1,
    "slowlyalmost":1,
    "imperceptively":1,
    "sopushes":1,
    "wonder":1,
    "express":1,
    "realize":1,
    "childhood":1,
    "nurture":1,
    "friendships":1,
    "relationships":1,
    "smell":1,
    "foods":1,
    "exceedingly":1,
    "pleasant":1,
    "memories":1,
    "daughter":1,
    "talked":1,
    "acted":1,
    "noblest":1,
    "principles":1,
    "sacrificed":1,
    "science":1,
    "thisterribly":1,
    "worse":1,
    "acts":1,
    "condemnbut":1,
    "circumstance":1,
    "unacceptable":1,
    "succeeded":1,
    "occurs":1,
    "colors":1,
    "blackness":1,
    "colorful":1,
    "pipes":1,
    "straightforward":1,
    "imaginable":1,
    "verified":1,
    "accordingly":1,
    "orbit":1,
    "intercept":1,
    "debriefed":1,
    "files":1,
    "radically":1,
    "homeward":1,
    "tilt":2,
    "viewed":2,
    "cheerful":2,
    "news":2,
    "report":2,
    "outer":2,
    "lattice":2,
    "multiwire":2,
    "construction":2,
    "reporter":2,
    "isn\u2019t":2,
    "represents":2,
    "beginning":2,
    "spacesuits":2,
    "wires":2,
    "throughout":2,
    "galaxy":2,
    "allow":2,
    "hydras":2,
    "las":2,
    "challenge":2,
    "seemingly":2,
    "cruel":2,
    "question":2,
    "guarded":2,
    "trains":2,
    "fears":2,
    "wanna":2,
    "noted":2,
    "astronaut":2,
    "sense":2,
    "perform":2,
    "duties":2,
    "job":2,
    "critical":2,
    "vulnerable":2,
    "success":2,
    "stretches":2,
    "let\u2019s":2,
    "waves":2,
    "steel":2,
    "magnificent":2,
    "shuttles":2,
    "building":2,
    "graphene":2,
    "satellites":2,
    "ohninerfourfive":2,
    "offline":2,
    "affirmative":2,
    "alongside":2,
    "wheel":2,
    "allows":2,
    "become":2,
    "attached":2,
    "surge":2,
    "experienced":2,
    "unusual":2,
    "aborting":2,
    "helmet":2,
    "hitting":2,
    "yanking":2,
    "night":2,
    "row":2,
    "windows":2,
    "techs":2,
    "pressure":2,
    "trouble":2,
    "keeping":2,
    "photograph":2,
    "descent":2,
    "yanked":2,
    "fellow":2,
    "hundred":2,
    "patterns":2,
    "hears":2,
    "types":2,
    "except":2,
    "pack":2,
    "overnight":2,
    "stay":2,
    "cleared":2,
    "tomorrow":2,
    "given":2,
    "late":2,
    "older":2,
    "lord":2,
    "lose":2,
    "ma":2,
    "panic":2,
    "hallway":2,
    "fatigues":2,
    "debriefing":2,
    "sign":2,
    "escorted":2,
    "wonderful":2,
    "month":2,
    "better":2,
    "headquarters":2,
    "covert":2,
    "ops":2,
    "five":2,
    "salutes":2,
    "sharpe":2,
    "director":2,
    "sirs":2,
    "closed":2,
    "80":2,
    "\u201con":2,
    "reached":2,
    "plays":2,
    "show":2,
    "none":2,
    "heavily":2,
    "followed":2,
    "suddenly":2,
    "overcome":2,
    "transform":2,
    "formerly":2,
    "known":2,
    "killed":2,
    "turn":2,
    "objective":2,
    "extraterrestrial":2,
    "permanent":2,
    "national":2,
    "gain":2,
    "knowledge":2,
    "abandonment":2,
    "lets":2,
    "laugh":2,
    "manner":2,
    "mental":2,
    "acknowledge":2,
    "led":2,
    "failure":2,
    "intercepted":2,
    "enough":2,
    "destroy":2,
    "slight":2,
    "disappears":2,
    "project\u2019s":2,
    "ai":2,
    "online":2,
    "survived":2,
    "ensure":2,
    "relationship":2,
    "determined":2,
    "justice":2,
    "commander":2,
    "wellwe":2,
    "university":2,
    "looked":2,
    "vast":2,
    "transmissions":2,
    "convinced":2,
    "authenticity":2,
    "circumstances":2,
    "dossier":2,
    "slips":2,
    "leather":2,
    "redacted":2,
    "sound":2,
    "preparing":2,
    "places":2,
    "slate":2,
    "filter":2,
    "friends":2,
    "brookhaven":2,
    "prepare":2,
    "listens":2,
    "audio":2,
    "contacted":2,
    "shirt":2,
    "closes":2,
    "referring":2,
    "fine":2,
    "use":2,
    "either":2,
    "company":2,
    "hitech":2,
    "aboard":2,
    "exit":2,
    "earth\u2019s":2,
    "field":2,
    "objects":2,
    "stored":2,
    "attendant":2,
    "moon\u2019s":2,
    "safe":2,
    "regulations":2,
    "remind":2,
    "recommend":2,
    "certain":2,
    "travels":2,
    "varying":2,
    "sites":2,
    "greenhouses":2,
    "recognize":2,
    "various":2,
    "army\u2019s":2,
    "york\u2019s":2,
    "weirdly":2,
    "opposite":2,
    "themselves":2,
    "hey":2,
    "leslie":2,
    "steps":2,
    "machine":2,
    "adjustments":2,
    "depress":2,
    "you\u2019d":2,
    "using":2,
    "profile":2,
    "stress":2,
    "behavior":2,
    "attempted":2,
    "fear":2,
    "bond":2,
    "recall":2,
    "pictures":2,
    "feelings":2,
    "loving":2,
    "hall":2,
    "standing":2,
    "neon":2,
    "hangs":2,
    "meal":2,
    "reservation":2,
    "eh77902":2,
    "confirmed":2,
    "c":2,
    "bottom":2,
    "illuminated":2,
    "walls":2,
    "coffee":2,
    "straight":2,
    "ahead":2,
    "proper":2,
    "individual":2,
    "appropriately":2,
    "risk":2,
    "multiple":2,
    "merely":2,
    "continuing":2,
    "medic":2,
    "assist":2,
    "communicate":2,
    "levels":2,
    "indicated":2,
    "entirely":2,
    "emotionally":2,
    "several":2,
    "slow":2,
    "tough":2,
    "fast":2,
    "filled":2,
    "ferocity":2,
    "engines":2,
    "trip":2,
    "joining":2,
    "willy":2,
    "shows":2,
    "incredible":2,
    "meant":2,
    "chaos":2,
    "route":2,
    "notices":2,
    "prayer":2,
    "doesn\u2019t":2,
    "almighty":2,
    "angels":2,
    "setting":2,
    "vehicle":2,
    "makes":2,
    "departs":2,
    "sequence":2,
    "binoculars":2,
    "watching":2,
    "vision":2,
    "helmets":2,
    "fuck":2,
    "twelve":2,
    "considerably":2,
    "possibly":2,
    "backup":2,
    "manual":2,
    "weapons":2,
    "140":2,
    "leans":2,
    "damage":2,
    "aims":2,
    "lunokhod":2,
    "seconds":2,
    "godspeed":2,
    "leaving":2,
    "faceless":2,
    "accompany":2,
    "surrounded":2,
    "circle":2,
    "heard":2,
    "doubt":2,
    "interrupts":2,
    "pulling":2,
    "silver":2,
    "password":2,
    "spots":2,
    "perception":2,
    "crumples":2,
    "vitals":2,
    "suits":2,
    "checklists":2,
    "hair":2,
    "welcome":2,
    "eva":2,
    "this\u2019s":2,
    "yoshida\u2019s":2,
    "tries":2,
    "cadet":2,
    "headed":2,
    "comfortable":2,
    "instruments":2,
    "commences":2,
    "six":2,
    "main":2,
    "lift":2,
    "sedation":2,
    "stand":2,
    "increasing":2,
    "velocity":2,
    "darkness":2,
    "checklist":2,
    "tasks":2,
    "suffered":2,
    "require":2,
    "happy":2,
    "cargo":2,
    "inserts":2,
    "lasers":2,
    "videos":2,
    "exactly":2,
    "unclear":2,
    "solitude":2,
    "increased":2,
    "longterm":2,
    "death":2,
    "renders":2,
    "commit":2,
    "questions":2,
    "miss":2,
    "stick":2,
    "releases":2,
    "forever":2,
    "protocol":2,
    "rotating":2,
    "second":2,
    "asteroid":2,
    "toro":2,
    "agitated":2,
    "case":2,
    "registered":2,
    "scan":2,
    "schematics":2,
    "threethreefour":2,
    "cannot":2,
    "meters":2,
    "hatch":2,
    "recorder":2,
    "deck":2,
    "quiet":2,
    "electrical":2,
    "gravity":2,
    "flashlights":2,
    "lab":2,
    "scans":2,
    "illuminate":2,
    "came":2,
    "supply":2,
    "weird":2,
    "orbs":2,
    "touches":2,
    "removes":2,
    "copy":2,
    "100":2,
    "startled":2,
    "vdr":2,
    "monkeys":2,
    "status":2,
    "inform":2,
    "cpt":2,
    "retinal":2,
    "d6":2,
    "d9":2,
    "connected":2,
    "download":2,
    "glad":2,
    "insane":2,
    "bello":2,
    "whose":2,
    "conduct":2,
    "shunga":2,
    "history":2,
    "physically":2,
    "strippers":2,
    "smoking":2,
    "\u2018em":2,
    "processed":2,
    "holo":2,
    "pushing":2,
    "flies":2,
    "encounter":2,
    "cheryl":2,
    "warm":2,
    "anybody":2,
    "gotta":2,
    "briefed":2,
    "completion":2,
    "sabotage":2,
    "disaster":2,
    "concrete":2,
    "prevent":2,
    "tunnels":2,
    "studying":2,
    "operate":2,
    "spacecom\u2019s":2,
    "cornell":2,
    "study":2,
    "quakes":2,
    "born":2,
    "lovely":2,
    "papers":2,
    "hiding":2,
    "one\u2019s":2,
    "ms":2,
    "mmu":2,
    "mmus":2,
    "fuel":2,
    "easy":2,
    "disorder":2,
    "unexpectedly":2,
    "lonely":2,
    "break":2,
    "potential":2,
    "francesca\u2019s":2,
    "talks":2,
    "thousand":2,
    "throws":2,
    "gestures":2,
    "pass":2,
    "sarcophagus":2,
    "particulate":2,
    "story":2,
    "dense":2,
    "uses":2,
    "spasmodically":2,
    "encountered":2,
    "fluorescent":2,
    "conversation":2,
    "cloisters":2,
    "touch":2,
    "anew":2,
    "stopped":2,
    "locate":2,
    "threat":2,
    "interrogation":2,
    "attaches":2,
    "retrieve":2,
    "waiting":2,
    "remains":2,
    "boards":2,
    "lifts":2,
    "entersfloats":2,
    "sedative":2,
    "reaction":2,
    "word":2,
    "surround":2,
    "violently":2,
    "ii":2,
    "ends":2,
    "4":2,
    "8":2,
    "plus":2,
    "rage":2,
    "blow":2,
    "material":2,
    "saturn":2,
    "gas":2,
    "source":2,
    "blinking":2,
    "tethered":2,
    "detritus":2,
    "keeps":2,
    "tumbles":2,
    "airplane":2,
    "static":2,
    "percent\u201d":2,
    "passageway":2,
    "extensive":2,
    "begun":2,
    "attempts":2,
    "brain":2,
    "heroes":2,
    "care":2,
    "picture":2,
    "met":2,
    "tears":2,
    "hug":2,
    "record":2,
    "regret":2,
    "music":3,
    "day":3,
    "bright":3,
    "high":3,
    "formations":3,
    "those":3,
    "goal":3,
    "search":3,
    "recent":3,
    "gisa":3,
    "footage":3,
    "listen":3,
    "communication":3,
    "selfreplicators":3,
    "corps":3,
    "every":3,
    "says":3,
    "afraid":3,
    "environment":3,
    "forties":3,
    "repeat":3,
    "precise":3,
    "made":3,
    "repair":3,
    "skywalk":3,
    "feed":3,
    "end":3,
    "worry":3,
    "ourselves":3,
    "rather":3,
    "maintain":3,
    "flashes":3,
    "buti":3,
    "program":3,
    "hope":3,
    "continued":3,
    "fade":3,
    "17":3,
    "9":3,
    "state":3,
    "gives":3,
    "guess":3,
    "ear":3,
    "quite":3,
    "slides":3,
    "today":3,
    "activity":3,
    "dozen":3,
    "miles":3,
    "selfreplicating":3,
    "hit":3,
    "extreme":3,
    "uh":3,
    "yeah":3,
    "length":3,
    "hydra":3,
    "start":3,
    "obviously":3,
    "spin":3,
    "float":3,
    "sits":3,
    "medical":3,
    "pretty":3,
    "odd":3,
    "nods":3,
    "device":3,
    "holds":3,
    "probably":3,
    "dormitory":3,
    "green":3,
    "projected":3,
    "form":3,
    "leanne":3,
    "lined":3,
    "couldn\u2019t":3,
    "love":3,
    "concern":3,
    "goodbye":3,
    "forth":3,
    "fort":3,
    "carson":3,
    "brought":3,
    "usspacecom":3,
    "present":3,
    "lieutenant":3,
    "operations":3,
    "adjutant":3,
    "vogel":3,
    "actually":3,
    "personal":3,
    "emotions":3,
    "respect":3,
    "least":3,
    "nature":3,
    "brown":3,
    "moons":3,
    "color":3,
    "catastrophic":3,
    "destruction":3,
    "event":3,
    "ones":3,
    "caused":3,
    "everyone":3,
    "top":3,
    "handle":3,
    "alive":3,
    "extremely":3,
    "deeply":3,
    "antimatter":3,
    "inward":3,
    "potentially":3,
    "give":3,
    "secure":3,
    "spot":3,
    "participation":3,
    "mean":3,
    "answer":3,
    "own":3,
    "survival":3,
    "push":3,
    "depart":3,
    "folder":3,
    "travel":3,
    "chairs":3,
    "pants":3,
    "transmission":3,
    "listening":3,
    "pov":3,
    "wrong":3,
    "ask":3,
    "great":3,
    "straps":3,
    "both":3,
    "stepping":3,
    "banal":3,
    "passenger":3,
    "neighbor":3,
    "couple":3,
    "systems":3,
    "enormous":3,
    "position":3,
    "talking":3,
    "cortez":3,
    "equipment":3,
    "kept":3,
    "whatever":3,
    "hopefully":3,
    "step":3,
    "assembled":3,
    "response":3,
    "taken":3,
    "analysis":3,
    "informed":3,
    "forced":3,
    "revealing":3,
    "due":3,
    "felt":3,
    "fire":3,
    "wait":3,
    "cowboy":3,
    "shake":3,
    "number":3,
    "conference":3,
    "table":3,
    "grateful":3,
    "service":3,
    "received":3,
    "unknown":3,
    "anxious":3,
    "situation":3,
    "respond":3,
    "military":3,
    "payload":3,
    "surveillance":3,
    "current":3,
    "territory":3,
    "unit":3,
    "monorail":3,
    "target":3,
    "focus":3,
    "rovers":3,
    "god":3,
    "guide":3,
    "rover":3,
    "smaller":3,
    "version":3,
    "dust":3,
    "horizon":3,
    "approaching":3,
    "certified":3,
    "engage":3,
    "operation":3,
    "points":3,
    "negative":3,
    "launch":3,
    "silo":3,
    "giant":3,
    "sotto":3,
    "thin":3,
    "hard":3,
    "alert":3,
    "completely":3,
    "backs":3,
    "romano":3,
    "spacesuit":3,
    "lawrence":3,
    "he\u2019ll":3,
    "significant":3,
    "donald":3,
    "condition":3,
    "alan":3,
    "food":3,
    "south":3,
    "stars":3,
    "seven":3,
    "hurtling":3,
    "boosters":3,
    "pill":3,
    "burn":3,
    "nothing":3,
    "puts":3,
    "lever":3,
    "orbiting":3,
    "mayday":3,
    "forces":3,
    "unable":3,
    "responding":3,
    "log":3,
    "aware":3,
    "place":3,
    "floating":3,
    "scientific":3,
    "failed":3,
    "beyond":3,
    "rockets":3,
    "shakes":3,
    "scobee\u2019s":3,
    "bay":3,
    "charges":3,
    "access":3,
    "brother":3,
    "within":3,
    "wife":3,
    "flips":3,
    "fully":3,
    "kathryn":3,
    "collins":3,
    "reactors":3,
    "meltdown":3,
    "valles":3,
    "correct":3,
    "noticed":3,
    "radiation":3,
    "entering":3,
    "firing":3,
    "mcbride\u2019s":3,
    "capsule":3,
    "presses":3,
    "hold":3,
    "breathing":3,
    "reentry":3,
    "fairing":3,
    "galatea":3,
    "journey":3,
    "someone":3,
    "sometimes":3,
    "million":3,
    "printed":3,
    "reveal":4,
    "above":4,
    "shots":4,
    "under":4,
    "play":4,
    "finally":4,
    "machines":4,
    "engineers":4,
    "check":4,
    "four":4,
    "seated":4,
    "speaks":4,
    "during":4,
    "each":4,
    "long":4,
    "line":4,
    "certainly":4,
    "different":4,
    "didn\u2019t":4,
    "wanted":4,
    "reason":4,
    "because":4,
    "left":4,
    "smile":4,
    "larger":4,
    "sort":4,
    "thing":4,
    "support":4,
    "done":4,
    "won\u2019t":4,
    "sal":4,
    "nearby":4,
    "smiles":4,
    "ground":4,
    "parts":4,
    "power":4,
    "advise":4,
    "yet":4,
    "completed":4,
    "along":4,
    "tone":4,
    "serious":4,
    "gonna":4,
    "hospital":4,
    "colorado":4,
    "doing":4,
    "point":4,
    "what\u2019s":4,
    "electronic":4,
    "yessir":4,
    "oh":4,
    "dissolve":4,
    "being":4,
    "fallon":4,
    "sit":4,
    "you\u2019ve":4,
    "board":4,
    "gone":4,
    "surprised":4,
    "video":4,
    "directly":4,
    "larissa":4,
    "becomes":4,
    "explodes":4,
    "cause":4,
    "else":4,
    "departure":4,
    "we\u2019d":4,
    "signal":4,
    "tried":4,
    "already":4,
    "bit":4,
    "connection":4,
    "bring":4,
    "tycho":4,
    "knew":4,
    "together":4,
    "truly":4,
    "hours":4,
    "perfect":4,
    "knows":4,
    "haven\u2019t":4,
    "silence":4,
    "complete":4,
    "attempt":4,
    "mining":4,
    "brief":4,
    "strange":4,
    "approach":4,
    "outpost":4,
    "living":4,
    "quarters":4,
    "making":4,
    "hangar":4,
    "holding":4,
    "monitor":4,
    "red":4,
    "paper":4,
    "dead":4,
    "approximately":4,
    "deep":4,
    "result":4,
    "important":4,
    "distance":4,
    "emerges":4,
    "name":4,
    "wall":4,
    "continue":4,
    "remain":4,
    "protect":4,
    "pedrosa\u2019s":4,
    "zone":4,
    "veda":4,
    "command":4,
    "clear":4,
    "ten":4,
    "lunokhods":4,
    "alpha":4,
    "gentlemen":4,
    "degrees":4,
    "upon":4,
    "fires":4,
    "explosion":4,
    "required":4,
    "doors":4,
    "ride":4,
    "seat":4,
    "walks":4,
    "screens":4,
    "gave":4,
    "enters":4,
    "monitors":4,
    "panel":4,
    "deeper":4,
    "grabs":4,
    "visible":4,
    "i\u2019ll":4,
    "active":4,
    "scientists":4,
    "marineris":4,
    "person":4,
    "samir":4,
    "orders":4,
    "switch":4,
    "myself":4,
    "saw":4,
    "chamber":4,
    "tunnel":4,
    "onboard":4,
    "structure":5,
    "air":5,
    "communications":5,
    "called":5,
    "gravitational":5,
    "planets":5,
    "across":5,
    "call":5,
    "talk":5,
    "never":5,
    "slowly":5,
    "though":5,
    "somewhat":5,
    "old":5,
    "went":5,
    "clouds":5,
    "trying":5,
    "leads":5,
    "boy":5,
    "sure":5,
    "confirm":5,
    "continues":5,
    "level":5,
    "checks":5,
    "feel":5,
    "likely":5,
    "put":5,
    "pushes":5,
    "hello":5,
    "someday":5,
    "shot":5,
    "big":5,
    "problem":5,
    "classified":5,
    "days":5,
    "neptune\u2019s":5,
    "against":5,
    "research":5,
    "told":5,
    "father\u2019s":5,
    "currently":5,
    "things":5,
    "send":5,
    "pad":5,
    "everything":5,
    "excellent":5,
    "north":5,
    "human":5,
    "times":5,
    "keep":5,
    "begin":5,
    "sight":5,
    "stands":5,
    "glass":5,
    "engaged":5,
    "speak":5,
    "text":5,
    "however":5,
    "itself":5,
    "officer":5,
    "division":5,
    "getting":5,
    "enter":5,
    "named":5,
    "3d":5,
    "full":5,
    "until":5,
    "intext":5,
    "moving":5,
    "armed":5,
    "sergeant":5,
    "elevator":5,
    "sleeve":5,
    "three":5,
    "physical":5,
    "longer":5,
    "docking":5,
    "working":5,
    "silent":5,
    "she\u2019s":5,
    "set":5,
    "proceed":5,
    "destroyed":5,
    "girl":5,
    "craft\u2019s":5,
    "attempting":5,
    "sky":6,
    "ever":6,
    "tethers":6,
    "cloud":6,
    "etc":6,
    "few":6,
    "task":6,
    "young":6,
    "seem":6,
    "said":6,
    "gets":6,
    "might":6,
    "starts":6,
    "beautiful":6,
    "appear":6,
    "sitting":6,
    "next":6,
    "eye":6,
    "you\u2019ll":6,
    "morning":6,
    "even":6,
    "true":6,
    "surely":6,
    "order":6,
    "family":6,
    "concerned":6,
    "further":6,
    "such":6,
    "coming":6,
    "minutes":6,
    "child":6,
    "why":6,
    "united":6,
    "states":6,
    "flight":6,
    "card":6,
    "lit":6,
    "ship":6,
    "corridor":6,
    "water":6,
    "son":6,
    "standard":6,
    "needs":6,
    "map":6,
    "wish":6,
    "final":6,
    "moments":6,
    "rocket":6,
    "weapon":6,
    "oxygen":6,
    "destination":6,
    "nine":6,
    "ix":6,
    "towards":6,
    "somehow":6,
    "core":6,
    "piece":7,
    "planet":7,
    "feet":7,
    "voice":7,
    "alone":7,
    "series":7,
    "these":7,
    "universe":7,
    "intelligent":7,
    "once":7,
    "astronauts":7,
    "spinning":7,
    "they\u2019re":7,
    "army":7,
    "seems":7,
    "team":7,
    "ago":7,
    "past":7,
    "computer":7,
    "below":7,
    "between":7,
    "roger":7,
    "entire":7,
    "opens":7,
    "force":7,
    "window":7,
    "blood":7,
    "1":7,
    "course":7,
    "rest":7,
    "mother":7,
    "possible":7,
    "people":7,
    "signs":7,
    "necessary":7,
    "sent":7,
    "understand":7,
    "location":7,
    "yourself":7,
    "white":7,
    "shuttle":7,
    "view":7,
    "also":7,
    "underground":7,
    "move":7,
    "section":7,
    "pulse":7,
    "continuous":7,
    "rings":7,
    "seen":8,
    "can\u2019t":8,
    "remember":8,
    "file":8,
    "lights":8,
    "lost":8,
    "always":8,
    "work":8,
    "outside":8,
    "beat":8,
    "door":8,
    "lot":8,
    "please":8,
    "floats":8,
    "last":8,
    "i\u2019d":8,
    "button":8,
    "there\u2019s":8,
    "woman":8,
    "general":8,
    "moment":8,
    "perhaps":8,
    "anything":8,
    "believe":8,
    "message":8,
    "without":8,
    "surface":8,
    "make":8,
    "arm":8,
    "lrv":8,
    "meet":8,
    "malik":8,
    "drawing":8,
    "antenna":9,
    "could":9,
    "does":9,
    "h":9,
    "years":9,
    "really":9,
    "angle":9,
    "tether":9,
    "tech":9,
    "again":9,
    "try":9,
    "read":9,
    "stops":9,
    "takes":9,
    "camera":9,
    "front":9,
    "maybe":9,
    "others":9,
    "telescope":9,
    "information":9,
    "after":9,
    "sees":9,
    "goes":9,
    "near":9,
    "first":9,
    "tell":9,
    "stop":9,
    "coordinates":9,
    "levant":9,
    "we\u2019ll":9,
    "cockpit":9,
    "console":9,
    "desanctis":9,
    "blue":10,
    "most":10,
    "women":10,
    "light":10,
    "little":10,
    "face":10,
    "part":10,
    "got":10,
    "able":10,
    "soon":10,
    "before":10,
    "radio":10,
    "suit":10,
    "med":10,
    "center":10,
    "stares":10,
    "solar":10,
    "help":10,
    "hand":10,
    "hands":10,
    "where":10,
    "reactor":10,
    "man":11,
    "forward":11,
    "say":11,
    "appears":11,
    "crew":11,
    "return":11,
    "later":11,
    "off":11,
    "comes":11,
    "approaches":11,
    "ma\u2019am":11,
    "dark":11,
    "were":11,
    "reach":11,
    "box":11,
    "far":11,
    "helios":11,
    "yoshida":11,
    "body":11,
    "image":12,
    "images":12,
    "many":12,
    "he\u2019s":12,
    "want":12,
    "real":12,
    "too":12,
    "find":12,
    "pulls":12,
    "open":12,
    "begins":12,
    "sorry":12,
    "head":12,
    "closer":12,
    "had":12,
    "colonel":12,
    "another":12,
    "inside":12,
    "area":12,
    "cut":13,
    "system":13,
    "reaches":13,
    "when":13,
    "get":13,
    "think":13,
    "how":13,
    "must":13,
    "large":13,
    "okay":13,
    "room":13,
    "scobee":13,
    "airlock":13,
    "vesta":13,
    "new":14,
    "look":14,
    "may":14,
    "way":14,
    "two":14,
    "behind":14,
    "eyes":14,
    "himself":14,
    "kind":14,
    "did":14,
    "than":14,
    "come":14,
    "take":14,
    "base":14,
    "ready":14,
    "side":14,
    "should":14,
    "captain":14,
    "clifford":15,
    "much":15,
    "thank":15,
    "contact":15,
    "mission":15,
    "lunar":15,
    "who":16,
    "going":16,
    "yes":16,
    "close":16,
    "blunt":16,
    "we\u2019ve":17,
    "its":17,
    "life":17,
    "looking":17,
    "away":17,
    "station":17,
    "more":17,
    "data":17,
    "lipset":17,
    "hear":18,
    "something":18,
    "you\u2019re":18,
    "good":18,
    "other":18,
    "don\u2019t":18,
    "small":18,
    "turns":18,
    "i\u2019ve":18,
    "lima":18,
    "toward":18,
    "almost":19,
    "still":19,
    "black":19,
    "project":19,
    "which":20,
    "or":20,
    "their":20,
    "men":20,
    "roy\u2019s":20,
    "any":20,
    "moon":20,
    "time":20,
    "dr":20,
    "francesca":20,
    "screen":21,
    "would":21,
    "neptune":21,
    "control":21,
    "am":21,
    "need":21,
    "tanner":21,
    "ext":22,
    "only":22,
    "we\u2019re":22,
    "that\u2019s":22,
    "go":23,
    "moves":23,
    "spacecom":23,
    "down":24,
    "father":25,
    "well":25,
    "if":26,
    "sir":26,
    "around":26,
    "been":26,
    "very":26,
    "know":27,
    "mars":27,
    "can":28,
    "right":28,
    "has":29,
    "craft":29,
    "one":30,
    "see":30,
    "me":30,
    "there":31,
    "pedrosa":31,
    "just":32,
    "she":33,
    "some":34,
    "back":35,
    "earth":36,
    "space":36,
    "by":36,
    "about":37,
    "then":39,
    "over":40,
    "what":40,
    "them":40,
    "so":41,
    "through":43,
    "us":43,
    "they":43,
    "cepheus":43,
    "mcbride":44,
    "no":45,
    "into":46,
    "my":46,
    "i\u2019m":46,
    "now":47,
    "here":49,
    "an":50,
    "out":50,
    "was":50,
    "up":51,
    "all":51,
    "her":51,
    "will":53,
    "looks":54,
    "but":54,
    "do":54,
    "not":55,
    "major":55,
    "int":59,
    "like":62,
    "our":63,
    "it\u2019s":63,
    "him":63,
    "":73,
    "at":74,
    "your":77,
    "have":78,
    "from":80,
    "are":80,
    "this":88,
    "be":94,
    "for":100,
    "with":104,
    "as":122,
    "his":124,
    "he":129,
    "that":135,
    "we":149,
    "on":149,
    "it":152,
    "in":165,
    "i":192,
    "you":232,
    "is":243,
    "roy":255,
    "and":299,
    "of":315,
    "a":411,
    "to":513,
    "the":786
}