{
    "older":1,
    "criminal":1,
    "behavior":1,
    "longer":1,
    "speak":1,
    "existed":1,
    "separate":1,
    "importance":1,
    "gives":1,
    "rise":1,
    "occurred":1,
    "deerhunting":1,
    "upstate":1,
    "raised":1,
    "relation":1,
    "childhood":1,
    "mark":1,
    "tone":1,
    "voice":1,
    "nights":1,
    "imagine":1,
    "eight":1,
    "eve":1,
    "route":1,
    "pale":1,
    "green":1,
    "eightyearold":1,
    "ford":1,
    "fairlane":1,
    "bubble":1,
    "squarefaced":1,
    "wearing":1,
    "cap":1,
    "vehicle":1,
    "beside":1,
    "sits":1,
    "plastic":1,
    "mask":1,
    "covering":1,
    "screwup":1,
    "trickortreating":1,
    "pennys":1,
    "hungry":1,
    "yours":1,
    "trickor":1,
    "hoyts":1,
    "nobodys":1,
    "porch":1,
    "hoyt":1,
    "shaving":1,
    "cream":1,
    "mailbox":1,
    "chopped":1,
    "herb":1,
    "cranes":1,
    "bushes":1,
    "h":1,
    "pals":1,
    "stealing":1,
    "pumpkins":1,
    "soaping":1,
    "windows":1,
    "complaints":1,
    "sir":1,
    "funniest":1,
    "scariest":1,
    "imaginative":1,
    "jump":1,
    "line":1,
    "prize":1,
    "messed":1,
    "clam":1,
    "damage":1,
    "bitches":1,
    "raising":1,
    "having":1,
    "master":1,
    "ceremonies":1,
    "bragging":1,
    "brag":1,
    "450":1,
    "manage":1,
    "lost":1,
    "sight":1,
    "step":1,
    "smoke":1,
    "teachers":1,
    "hanging":1,
    "shed":1,
    "each":1,
    "pathetic":1,
    "leaves":1,
    "obviously":1,
    "dandy":1,
    "relax":1,
    "chief":1,
    "toke":1,
    "sees":1,
    "smoking":1,
    "wacky":1,
    "tabacky":1,
    "hardass":1,
    "everybodys":1,
    "ride":1,
    "saturday":1,
    "hunt":1,
    "er":1,
    "muckymuck":1,
    "fullblown":1,
    "pays":1,
    "100":1,
    "monster":1,
    "hiding":1,
    "angle":1,
    "toothache":1,
    "irreplaceable":1,
    "loaded":1,
    "beams":1,
    "audi":1,
    "audis":1,
    "argument":1,
    "cake":1,
    "spat":1,
    "felt":1,
    "knowing":1,
    "beers":1,
    "rodgers":1,
    "whatzizname":1,
    "grown":1,
    "won":1,
    "round":1,
    "thiss":1,
    "act":1,
    "chauffeur":1,
    "scene":1,
    "ones":1,
    "rounds":1,
    "worked":1,
    "touchy":1,
    "tragic":1,
    "victim":1,
    "word":1,
    "hat":1,
    "jills":1,
    "tomorrows":1,
    "dying":1,
    "pants":1,
    "protect":1,
    "virtue":1,
    "lugene":1,
    "hoya":1,
    "doin":1,
    "principal":1,
    "direct":1,
    "730":1,
    "830":1,
    "snowing":1,
    "early":1,
    "hoping":1,
    "weather":1,
    "bureau":1,
    "tracking":1,
    "advantage":1,
    "suckers":1,
    "rain":1,
    "shine":1,
    "eh":1,
    "yep":1,
    "holing":1,
    "brush":1,
    "piles":1,
    "whether":1,
    "kills":1,
    "less":1,
    "30":1,
    "35":1,
    "yards":1,
    "hours":1,
    "rifle":1,
    "gutshoot":1,
    "tag":1,
    "end":1,
    "mmm":1,
    "whatthefuck":1,
    "sweat":1,
    "wonderful":1,
    "sonin":1,
    "law":1,
    "headed":1,
    "lake":1,
    "agaway":1,
    "meadow":1,
    "drafted":1,
    "red":1,
    "played":1,
    "double":1,
    "britain":1,
    "pitcher":1,
    "ballplayer":1,
    "carlton":1,
    "fisk":1,
    "hmm":1,
    "between":1,
    "clemens":1,
    "brought":1,
    "whyd":1,
    "realized":1,
    "somebodys":1,
    "hey":1,
    "slow":1,
    "suns":1,
    "gettin":1,
    "deers":1,
    "ears":1,
    "hurt":1,
    "security":1,
    "guard":1,
    "hired":1,
    "belong":1,
    "fresh":1,
    "tracks":1,
    "circle":1,
    "goin":1,
    "every":1,
    "earlier":1,
    "butt":1,
    "times":1,
    "burst":1,
    "canadian":1,
    "club":1,
    "cc":1,
    "christmas":1,
    "cord":1,
    "wood":1,
    "decides":1,
    "stack":1,
    "months":1,
    "snowed":1,
    "rained":1,
    "iced":1,
    "daylight":1,
    "swamps":1,
    "waiting":1,
    "rewards":1,
    "attago":1,
    "beats":1,
    "lacoy":1,
    "pity":1,
    "college":1,
    "everyday":1,
    "promise":1,
    "point":1,
    "needed":1,
    "nogood":1,
    "pup":1,
    "spelled":1,
    "prospering":1,
    "improve":1,
    "finding":1,
    "modern":1,
    "cooking":1,
    "signs":1,
    "needing":1,
    "start":1,
    "suits":1,
    "ought":1,
    "cool":1,
    "met":1,
    "rearranged":1,
    "cart":1,
    "plenty":1,
    "orders":1,
    "together":1,
    "kerbang":1,
    "sounds":1,
    "accidental":1,
    "summer":1,
    "jealous":1,
    "kinda":1,
    "foot":1,
    "usually":1,
    "sent":1,
    "rather":1,
    "freezing":1,
    "hunter":1,
    "mustve":1,
    "avoided":1,
    "sling":1,
    "tear":1,
    "thirtythirty":1,
    "range":1,
    "doa":1,
    "blew":1,
    "wide":1,
    "front":1,
    "fist":1,
    "apart":1,
    "spotted":1,
    "cliff":1,
    "deadern":1,
    "ran":1,
    "shitload":1,
    "plowing":1,
    "finish":1,
    "bugged":1,
    "newspapers":1,
    "comment":1,
    "chest":1,
    "whereabouts":1,
    "mile":1,
    "lumber":1,
    "bring":1,
    "steep":1,
    "climb":1,
    "ambulance":1,
    "lugged":1,
    "sleeve":1,
    "whatre":1,
    "report":1,
    "fish":1,
    "game":1,
    "knows":1,
    "slipped":1,
    "sense":1,
    "twentygauge":1,
    "browning":1,
    "showing":1,
    "brand":1,
    "fancy":1,
    "tooling":1,
    "beautiful":1,
    "deserve":1,
    "named":1,
    "works":1,
    "reading":1,
    "habits":1,
    "professor":1,
    "lied":1,
    "kidll":1,
    "hung":1,
    "scheduled":1,
    "committee":1,
    "organized":1,
    "crime":1,
    "england":1,
    "construction":1,
    "came":1,
    "exhausted":1,
    "sleep":1,
    "feeling":1,
    "whipped":1,
    "growled":1,
    "asleep":1,
    "settle":1,
    "local":1,
    "serve":1,
    "appointment":1,
    "issuing":1,
    "giving":1,
    "yesterday":1,
    "stopped":1,
    "bus":1,
    "flashing":1,
    "hands":1,
    "deciding":1,
    "dreaming":1,
    "becoming":1,
    "television":1,
    "sensitive":1,
    "weeks":1,
    "positive":1,
    "permanently":1,
    "angry":1,
    "sweet":1,
    "besides":1,
    "governments":1,
    "links":1,
    "lying":1,
    "somebodyd":1,
    "given":1,
    "excuse":1,
    "studied":1,
    "grownup":1,
    "press":1,
    "wanting":1,
    "twice":1,
    "marriage":1,
    "proposal":1,
    "capital":1,
    "g":1,
    "truly":1,
    "saint":1,
    "beyond":1,
    "compare":1,
    "bursting":1,
    "seams":1,
    "jeans":1,
    "proper":1,
    "fella":1,
    "introduce":1,
    "trucks":1,
    "theyve":1,
    "started":1,
    "wouldve":1,
    "dressed":1,
    "mas":1,
    "nothings":1,
    "heating":1,
    "stove":1,
    "bedroom":1,
    "pipesll":1,
    "freeze":1,
    "coffees":1,
    "perked":1,
    "bother":1,
    "living":1,
    "room":1,
    "ready":1,
    "chapter":1,
    "ongoing":1,
    "sagas":1,
    "detective":1,
    "concerning":1,
    "melodrama":1,
    "character":1,
    "previous":1,
    "discovered":1,
    "drunker":1,
    "rolfes":1,
    "pointless":1,
    "bringing":1,
    "cemetery":1,
    "anyone":1,
    "thanks":1,
    "teacher":1,
    "harvard":1,
    "bu":1,
    "reason":1,
    "kneel":1,
    "moment":1,
    "prayer":1,
    "dear":1,
    "heavenly":1,
    "hosts":1,
    "thee":1,
    "beseech":1,
    "thy":1,
    "blessings":1,
    "commend":1,
    "soul":1,
    "beloved":1,
    "wife":1,
    "walk":1,
    "difficult":1,
    "demon":1,
    "praise":1,
    "touch":1,
    "springlike":1,
    "snowline":1,
    "crossed":1,
    "west":1,
    "east":1,
    "retreating":1,
    "northward":1,
    "melted":1,
    "midmorning":1,
    "dad":1,
    "glad":1,
    "grave":1,
    "liked":1,
    "suffer":1,
    "live":1,
    "sound":1,
    "pops":1,
    "freezes":1,
    "set":1,
    "department":1,
    "hells":1,
    "loose":1,
    "gas":1,
    "run":1,
    "hide":1,
    "everywhere":1,
    "response":1,
    "correct":1,
    "whod":1,
    "mob":1,
    "specialists":1,
    "benefits":1,
    "suddenly":1,
    "include":1,
    "read":1,
    "name":1,
    "unaware":1,
    "loans":1,
    "starts":1,
    "nosing":1,
    "investigation":1,
    "professional":1,
    "thatd":1,
    "feds":1,
    "deeper":1,
    "perfect":1,
    "fined":1,
    "fifty":1,
    "lifted":1,
    "punished":1,
    "piss":1,
    "particularly":1,
    "chopping":1,
    "firewood":1,
    "hate":1,
    "disappoint":1,
    "vietnam":1,
    "doctor":1,
    "fell":1,
    "hay":1,
    "loft":1,
    "clearly":1,
    "adult":1,
    "afflicted":1,
    "flush":1,
    "winter":1,
    "ya":1,
    "california":1,
    "surfs":1,
    "indeedy":1,
    "screwed":1,
    "agreed":1,
    "spring":1,
    "drug":1,
    "alcohol":1,
    "abuse":1,
    "part":1,
    "sexual":1,
    "upsetting":1,
    "hopeless":1,
    "decree":1,
    "interview":1,
    "retainer":1,
    "mail":1,
    "cost":1,
    "depositions":1,
    "psychiatric":1,
    "evaluations":1,
    "drag":1,
    "twelve":1,
    "thousand":1,
    "dollars":1,
    "appeal":1,
    "visitation":1,
    "assuming":1,
    "unduly":1,
    "restrictive":1,
    "twentyfive":1,
    "legally":1,
    "financially":1,
    "five":1,
    "elaine":1,
    "meritt":1,
    "fix":1,
    "appreciation":1,
    "tried":1,
    "accept":1,
    "favor":1,
    "mels":1,
    "favors":1,
    "worrying":1,
    "decided":1,
    "allergic":1,
    "count":1,
    "screwing":1,
    "sell":1,
    "cheap":1,
    "crazy":1,
    "sink":1,
    "both":1,
    "babysit":1,
    "ah":1,
    "prodigal":1,
    "son":1,
    "second":1,
    "cook":1,
    "washer":1,
    "nose":1,
    "tired":1,
    "clothes":1,
    "sly":1,
    "mothers":1,
    "excuses":1,
    "tit":1,
    "try":1,
    "glanced":1,
    "strangers":1,
    "explain":1,
    "fly":1,
    "automatic":1,
    "pilot":1,
    "disappear":1,
    "accidentally":1,
    "incredibly":1,
    "also":1,
    "chasing":1,
    "margies":1,
    "bought":1,
    "cup":1,
    "computer":1,
    "putting":1,
    "files":1,
    "milk":1,
    "black":1,
    "pry":1,
    "dirty":1,
    "murder":1,
    "among":1,
    "murdered":1,
    "sometimes":1,
    "simpler":1,
    "question":1,
    "tax":1,
    "farm":1,
    "due":1,
    "insurance":1,
    "offered":1,
    "mater":1,
    "estate":1,
    "transactions":1,
    "unused":1,
    "land":1,
    "taxes":1,
    "owed":1,
    "northcountry":1,
    "development":1,
    "association":1,
    "treasurer":1,
    "buying":1,
    "364000":1,
    "league":1,
    "rid":1,
    "jackll":1,
    "blamed":1,
    "figures":1,
    "rich":1,
    "position":1,
    "recognize":1,
    "sneaky":1,
    "slaves":1,
    "kept":1,
    "locked":1,
    "pleasure":1,
    "easy":1,
    "gave":1,
    "means":1,
    "running":1,
    "ways":1,
    "sonsofbitches":1,
    "side":1,
    "distracting":1,
    "dentist":1,
    "gods":1,
    "locals":1,
    "fixin":1,
    "couple":1,
    "badge":1,
    "pull":1,
    "property":1,
    "earth":1,
    "happening":1,
    "acting":1,
    "temporary":1,
    "fan":1,
    "hero":1,
    "deliver":1,
    "howling":1,
    "corner":1,
    "perhaps":1,
    "wholly":1,
    "interior":1,
    "space":1,
    "retreat":1,
    "crisis":1,
    "ground":1,
    "boots":1,
    "six":1,
    "sick":1,
    "sunk":1,
    "bye":1,
    "cars":1,
    "thisll":1,
    "grandpa":1,
    "eat":1,
    "cherry":1,
    "turnover":1,
    "favorite":1,
    "pizza":1,
    "hamburger":1,
    "cry":1,
    "jillie":1,
    "dub":1,
    "message":1,
    "cleaning":1,
    "built":1,
    "rummage":1,
    "sale":1,
    "cleaners":1,
    "laundromat":1,
    "silly":1,
    "heart":1,
    "nahnahnaw":1,
    "finally":1,
    "bang":1,
    "crawl":1,
    "stolen":1,
    "joke":1,
    "scared":1,
    "historical":1,
    "describe":1,
    "thousands":1,
    "beaten":1,
    "capacity":1,
    "crippled":1,
    "birth":1,
    "hope":1,
    "connection":1,
    "human":1,
    "beings":1,
    "elegiac":1,
    "detachment":1,
    "destroying":1,
    "terrorizing":1,
    "misfortune":1,
    "absent":1,
    "ourselves":1,
    "tradition":1,
    "male":1,
    "decline":1,
    "seduction":1,
    "revenge":1,
    "later":1,
    "shopping":1,
    "mall":1,
    "toronto":1,
    "footprints":1,
    "bullet":1,
    "utter":1,
    "evidence":1,
    "guilt":1,
    "indeed":1,
    "parker":1,
    "ski":1,
    "resort":1,
    "advertised":1,
    "across":1,
    "country":1,
    "dame":1,
    "tends":1,
    "bar":1,
    "lodge":1,
    "opened":1,
    "snowmobile":1,
    "dealership":1,
    "nick":1,
    "wickham":1,
    "runs":1,
    "burger":1,
    "king":1,
    "nearer":1,
    "bob":1,
    "seattle":1,
    "november":1,
    "death":1,
    "bench":1,
    "sidewalk":1,
    "cannot":1,
    "arrest":1,
    "turns":1,
    "faceless":1,
    "fellows":1,
    "video":1,
    "store":1,
    "townhouse":1,
    "apartment":1,
    "edge":1,
    "mailman":1,
    "recognizes":1,
    "picture":1,
    "post":1,
    "continue":1,
    "brothers":2,
    "disappearance":2,
    "loved":2,
    "family":2,
    "during":2,
    "small":2,
    "oclock":2,
    "speeding":2,
    "29":2,
    "troopers":2,
    "girl":2,
    "tiger":2,
    "charge":2,
    "treating":2,
    "lights":2,
    "trouble":2,
    "bet":2,
    "doesnt":2,
    "hasnt":2,
    "fun":2,
    "mess":2,
    "happy":2,
    "pickup":2,
    "bite":2,
    "mind":2,
    "fact":2,
    "500":2,
    "forget":2,
    "outside":2,
    "whatd":2,
    "expect":2,
    "downstairs":2,
    "isnt":2,
    "sit":2,
    "leaving":2,
    "bust":2,
    "outta":2,
    "official":2,
    "guarantee":2,
    "boy":2,
    "hed":2,
    "exwife":2,
    "husband":2,
    "aw":2,
    "hall":2,
    "left":2,
    "hettie":2,
    "horner":2,
    "trying":2,
    "third":2,
    "least":2,
    "plow":2,
    "stuck":2,
    "check":2,
    "guaranteed":2,
    "does":2,
    "behind":2,
    "gets":2,
    "four":2,
    "paying":2,
    "cripple":2,
    "especially":2,
    "mine":2,
    "extra":2,
    "holding":2,
    "killed":2,
    "number":2,
    "safety":2,
    "cross":2,
    "play":2,
    "ball":2,
    "sox":2,
    "luck":2,
    "ruined":2,
    "jimmy":2,
    "near":2,
    "crossing":2,
    "coulda":2,
    "playing":2,
    "policeman":2,
    "whys":2,
    "wells":2,
    "kicked":2,
    "drank":2,
    "forgot":2,
    "woods":2,
    "lesson":2,
    "thank":2,
    "quitter":2,
    "stories":2,
    "student":2,
    "dumb":2,
    "sign":2,
    "feel":2,
    "lillians":2,
    "nail":2,
    "hire":2,
    "owns":2,
    "woman":2,
    "thinks":2,
    "talked":2,
    "fucker":2,
    "assume":2,
    "ago":2,
    "picked":2,
    "state":2,
    "anyhow":2,
    "being":2,
    "hurry":2,
    "cigarette":2,
    "likely":2,
    "happens":2,
    "shoulda":2,
    "wish":2,
    "id":2,
    "littleton":2,
    "hole":2,
    "nope":2,
    "far":2,
    "clean":2,
    "em":2,
    "bugging":2,
    "interested":2,
    "rest":2,
    "paid":2,
    "exactly":2,
    "whered":2,
    "road":2,
    "stayed":2,
    "blood":2,
    "service":2,
    "theory":2,
    "testify":2,
    "investigating":2,
    "mrs":2,
    "suppose":2,
    "summons":2,
    "violation":2,
    "hold":2,
    "drove":2,
    "men":2,
    "mafia":2,
    "age":2,
    "someone":2,
    "damned":2,
    "able":2,
    "until":2,
    "life":2,
    "clear":2,
    "weve":2,
    "lately":2,
    "sometime":2,
    "god":2,
    "prick":2,
    "parents":2,
    "pick":2,
    "papers":2,
    "sleeping":2,
    "furnace":2,
    "electric":2,
    "die":2,
    "checked":2,
    "heater":2,
    "calls":2,
    "show":2,
    "womans":2,
    "candyasses":2,
    "children":2,
    "funeral":2,
    "women":2,
    "mom":2,
    "iceskating":2,
    "taking":2,
    "dig":2,
    "skin":2,
    "plan":2,
    "shell":2,
    "place":2,
    "motive":2,
    "vicepresident":2,
    "president":2,
    "illegal":2,
    "finds":2,
    "involved":2,
    "license":2,
    "pulled":2,
    "neat":2,
    "fatherinlaw":2,
    "truth":2,
    "history":2,
    "lie":2,
    "wed":2,
    "digging":2,
    "ask":2,
    "became":2,
    "violence":2,
    "door":2,
    "looney":2,
    "tunes":2,
    "boss":2,
    "redrawn":2,
    "suit":2,
    "send":2,
    "lunch":2,
    "use":2,
    "bill":2,
    "decent":2,
    "light":2,
    "moved":2,
    "bottle":2,
    "waylaid":2,
    "sugar":2,
    "belongs":2,
    "mention":2,
    "upset":2,
    "three":2,
    "shop":2,
    "trust":2,
    "problem":2,
    "matter":2,
    "lived":2,
    "known":2,
    "terrible":2,
    "low":2,
    "food":2,
    "sneak":2,
    "cheese":2,
    "grilled":2,
    "sandwich":2,
    "somewhere":2,
    "unless":2,
    "vagrant":2,
    "strange":3,
    "single":3,
    "change":3,
    "halloween":3,
    "past":3,
    "top":3,
    "costume":3,
    "whos":3,
    "fault":3,
    "bastards":3,
    "break":3,
    "stupid":3,
    "cop":3,
    "looking":3,
    "win":3,
    "join":3,
    "sons":3,
    "larivieres":3,
    "party":3,
    "must":3,
    "worry":3,
    "hour":3,
    "shouldnt":3,
    "wanna":3,
    "theyll":3,
    "problems":3,
    "lucky":3,
    "though":3,
    "working":3,
    "keep":3,
    "along":3,
    "without":3,
    "broke":3,
    "high":3,
    "passed":3,
    "piece":3,
    "friends":3,
    "nobody":3,
    "making":3,
    "couldve":3,
    "till":3,
    "through":3,
    "goddamnit":3,
    "hows":3,
    "bastard":3,
    "watch":3,
    "saw":3,
    "whole":3,
    "fucked":3,
    "straight":3,
    "may":3,
    "understand":3,
    "coffee":3,
    "everyone":3,
    "bmw":3,
    "boston":3,
    "weekend":3,
    "follow":3,
    "tv":3,
    "arm":3,
    "took":3,
    "ass":3,
    "selectman":3,
    "heres":3,
    "cold":3,
    "pisser":3,
    "fire":3,
    "except":3,
    "froze":3,
    "takes":3,
    "sally":3,
    "made":3,
    "drink":3,
    "sucks":3,
    "purpose":3,
    "cb":3,
    "calling":3,
    "figured":3,
    "moving":3,
    "dog":3,
    "open":3,
    "looked":3,
    "actually":3,
    "very":3,
    "again":3,
    "bed":3,
    "smart":3,
    "itll":3,
    "found":3,
    "body":3,
    "visit":3,
    "swear":3,
    "officer":3,
    "nuts":3,
    "fight":3,
    "seemed":3,
    "fixed":3,
    "elbourne":3,
    "fogg":3,
    "wickhams":3,
    "lord":3,
    "sad":3,
    "died":3,
    "church":3,
    "hair":3,
    "almost":3,
    "lives":3,
    "soon":3,
    "clutch":3,
    "alma":3,
    "free":3,
    "mountain":3,
    "key":3,
    "whose":3,
    "merritt":3,
    "facts":3,
    "hi":3,
    "mac":3,
    "brother":4,
    "myself":4,
    "everything":4,
    "season":4,
    "hampshire":4,
    "changed":4,
    "tobys":4,
    "comes":4,
    "driving":4,
    "child":4,
    "face":4,
    "their":4,
    "sort":4,
    "kind":4,
    "most":4,
    "ahead":4,
    "same":4,
    "howd":4,
    "find":4,
    "anybody":4,
    "because":4,
    "damn":4,
    "half":4,
    "mad":4,
    "wanted":4,
    "planned":4,
    "such":4,
    "massachusetts":4,
    "wants":4,
    "close":4,
    "quit":4,
    "lay":4,
    "looks":4,
    "youve":4,
    "christs":4,
    "worse":4,
    "normal":4,
    "makes":4,
    "bit":4,
    "ten":4,
    "yet":4,
    "might":4,
    "happen":4,
    "saying":4,
    "mans":4,
    "difference":4,
    "gordons":4,
    "usual":4,
    "hard":4,
    "glen":4,
    "drunk":4,
    "turn":4,
    "please":4,
    "better":4,
    "whatever":4,
    "idea":4,
    "needs":4,
    "person":4,
    "concord":4,
    "lot":4,
    "friend":4,
    "instead":4,
    "worth":4,
    "pretty":4,
    "using":4,
    "daughter":4,
    "keys":4,
    "away":4,
    "musta":4,
    "rights":4,
    "getting":4,
    "ticket":4,
    "house":4,
    "turned":4,
    "married":4,
    "ma":4,
    "fathers":4,
    "ice":4,
    "chub":4,
    "buy":4,
    "honey":4,
    "telling":5,
    "different":5,
    "since":5,
    "phone":5,
    "fast":5,
    "couldnt":5,
    "daddy":5,
    "stuff":5,
    "best":5,
    "these":5,
    "other":5,
    "wheres":5,
    "nice":5,
    "drive":5,
    "knew":5,
    "youd":5,
    "gone":5,
    "stand":5,
    "thought":5,
    "careful":5,
    "hit":5,
    "union":5,
    "asshole":5,
    "which":5,
    "inside":5,
    "coming":5,
    "wondering":5,
    "supposed":5,
    "traffic":5,
    "hear":5,
    "buck":5,
    "another":5,
    "next":5,
    "soninlaw":5,
    "everybody":5,
    "stay":5,
    "year":5,
    "has":5,
    "days":5,
    "divorce":5,
    "marg":5,
    "news":5,
    "own":5,
    "lawford":5,
    "goddamn":5,
    "ever":5,
    "tooth":5,
    "wades":6,
    "help":6,
    "late":6,
    "remember":6,
    "really":6,
    "listen":6,
    "lots":6,
    "went":6,
    "long":6,
    "tonight":6,
    "today":6,
    "huh":6,
    "sake":6,
    "am":6,
    "cmon":6,
    "shes":6,
    "wrong":6,
    "few":6,
    "fired":6,
    "aint":6,
    "hundred":6,
    "else":6,
    "twombleys":6,
    "jacks":6,
    "real":6,
    "years":6,
    "pissed":6,
    "alone":6,
    "last":6,
    "wasnt":6,
    "office":6,
    "after":7,
    "down":7,
    "christ":7,
    "funny":7,
    "mother":7,
    "gun":7,
    "mommy":7,
    "yourself":7,
    "guys":7,
    "evan":7,
    "kill":7,
    "course":7,
    "whats":7,
    "cause":7,
    "anything":7,
    "only":7,
    "grader":7,
    "shoot":7,
    "custody":7,
    "could":7,
    "into":7,
    "deal":7,
    "sure":7,
    "havent":7,
    "wouldnt":7,
    "alright":7,
    "our":7,
    "story":8,
    "two":8,
    "police":8,
    "put":8,
    "used":8,
    "already":8,
    "goddamned":8,
    "boys":8,
    "move":8,
    "bucks":8,
    "called":8,
    "enough":8,
    "them":8,
    "any":8,
    "doing":8,
    "mr":8,
    "shooting":8,
    "dead":8,
    "pay":8,
    "whitehouse":8,
    "says":8,
    "margie":8,
    "himself":8,
    "head":8,
    "seen":8,
    "let":9,
    "stop":9,
    "still":9,
    "theyre":9,
    "people":9,
    "talking":9,
    "tomorrow":9,
    "work":9,
    "wait":9,
    "fine":9,
    "always":9,
    "should":9,
    "sonofabitch":9,
    "car":9,
    "while":9,
    "even":9,
    "believe":9,
    "somebody":9,
    "business":9,
    "rolfe":9,
    "would":9,
    "lawyer":9,
    "thinking":9,
    "accident":9,
    "lariviere":9,
    "an":9,
    "us":10,
    "care":10,
    "over":10,
    "talk":10,
    "school":10,
    "morning":10,
    "said":10,
    "first":10,
    "told":10,
    "gonna":10,
    "lillian":10,
    "much":10,
    "hunting":10,
    "hewitt":10,
    "probably":10,
    "lets":10,
    "father":10,
    "night":11,
    "anymore":11,
    "make":11,
    "bad":11,
    "youll":11,
    "give":11,
    "deer":11,
    "snow":11,
    "mel":11,
    "never":12,
    "those":12,
    "where":12,
    "nothing":12,
    "didnt":12,
    "oh":12,
    "old":12,
    "truck":12,
    "wont":12,
    "job":12,
    "need":12,
    "guy":12,
    "sorry":13,
    "kids":13,
    "did":13,
    "gotta":13,
    "time":13,
    "will":13,
    "day":13,
    "way":13,
    "leave":13,
    "done":13,
    "money":13,
    "before":14,
    "around":14,
    "look":14,
    "cant":14,
    "guess":14,
    "kid":14,
    "more":14,
    "yes":14,
    "call":15,
    "man":15,
    "they":15,
    "things":15,
    "than":15,
    "hell":15,
    "say":15,
    "big":15,
    "happened":15,
    "ive":15,
    "when":16,
    "maybe":16,
    "shit":16,
    "love":16,
    "theres":16,
    "heard":17,
    "too":17,
    "why":17,
    "going":17,
    "tell":17,
    "thing":17,
    "new":18,
    "had":18,
    "jesus":18,
    "mean":18,
    "good":18,
    "fuck":18,
    "pop":18,
    "shot":18,
    "by":19,
    "come":19,
    "take":19,
    "hes":19,
    "back":19,
    "okay":19,
    "town":20,
    "something":20,
    "little":20,
    "then":20,
    "right":20,
    "home":22,
    "from":23,
    "so":23,
    "jill":23,
    "as":24,
    "ill":24,
    "off":24,
    "gordon":24,
    "well":25,
    "one":26,
    "were":26,
    "or":26,
    "how":26,
    "who":27,
    "at":27,
    "see":27,
    "some":27,
    "thats":27,
    "can":27,
    "been":28,
    "think":28,
    "there":29,
    "fucking":29,
    "but":30,
    "youre":30,
    "she":30,
    "if":31,
    "now":31,
    "we":33,
    "go":33,
    "here":33,
    "all":34,
    "his":35,
    "her":35,
    "twombley":35,
    "yeah":37,
    "up":37,
    "have":37,
    "jack":39,
    "him":40,
    "are":41,
    "my":42,
    "":42,
    "just":43,
    "want":43,
    "no":47,
    "do":49,
    "be":49,
    "like":50,
    "on":50,
    "he":52,
    "not":53,
    "wade":54,
    "got":54,
    "with":56,
    "is":57,
    "out":57,
    "its":59,
    "about":62,
    "im":64,
    "your":64,
    "this":65,
    "know":69,
    "get":71,
    "dont":72,
    "for":78,
    "was":82,
    "what":83,
    "in":86,
    "that":104,
    "me":104,
    "of":113,
    "and":133,
    "it":164,
    "a":208,
    "to":210,
    "i":284,
    "the":285,
    "you":379
}