{
    "standard":1,
    "flick":1,
    "unenthusiastic":1,
    "ecstasy":1,
    "auditorium":1,
    "echo":1,
    "unwatchable":1,
    "geez":1,
    "leads":1,
    "assume":1,
    "bags":1,
    "laps":1,
    "conceal":1,
    "possible":1,
    "bonerage":1,
    "seventeenth":1,
    "morning":1,
    "routine":1,
    "bell":1,
    "duplication":1,
    "presses":1,
    "eject":1,
    "vcrs":1,
    "plus":1,
    "cafeteria":1,
    "basically":1,
    "figures":1,
    "glory":1,
    "days":1,
    "yale":1,
    "harvard":1,
    "law":1,
    "grand":1,
    "stable":1,
    "yacht":1,
    "approval":1,
    "calls":1,
    "payday":1,
    "consists":1,
    "spanking":1,
    "sooo":1,
    "ninety":1,
    "degrees":1,
    "stalls":1,
    "locks":1,
    "rubbing":1,
    "perks":1,
    "averages":1,
    "bloomer":1,
    "audio":1,
    "visual":1,
    "amateur":1,
    "filmmaker":1,
    "directors":1,
    "documenting":1,
    "essence":1,
    "destiny":1,
    "existential":1,
    "boss":1,
    "burly":1,
    "coach":1,
    "noticing":1,
    "drawn":1,
    "creak":1,
    "daylight":1,
    "torn":1,
    "immature":1,
    "sideways":1,
    "proverbial":1,
    "jackpot":1,
    "bras":1,
    "towels":1,
    "widen":1,
    "tight":1,
    "modern":1,
    "gradea":1,
    "worth":1,
    "clutches":1,
    "gold":1,
    "gossiping":1,
    "tough":1,
    "bulimia":1,
    "self":1,
    "mutilation":1,
    "vaginal":1,
    "dryness":1,
    "reaches":1,
    "cheerleaders":1,
    "bouncing":1,
    "books":1,
    "textbook":1,
    "showing":1,
    "anatomy":1,
    "vagina":1,
    "seemingly":1,
    "heroin":1,
    "evidence":1,
    "support":1,
    "horny":1,
    "almost":1,
    "glimpse":1,
    "teachers":1,
    "erect":1,
    "blouse":1,
    "notice":1,
    "twoman":1,
    "luge":1,
    "increase":1,
    "hormone":1,
    "causes":1,
    "certain":1,
    "physiological":1,
    "adolescent":1,
    "debilitating":1,
    "addiction":1,
    "bombs":1,
    "explode":1,
    "upright":1,
    "spins":1,
    "concerned":1,
    "rosenblatts":1,
    "undress":1,
    "strikes":1,
    "pose":1,
    "relationship":1,
    "level":1,
    "becoming":1,
    "becomes":1,
    "selfconscious":1,
    "condom":1,
    "hesitating":1,
    "eternity":1,
    "clears":1,
    "throat":1,
    "describe":1,
    "incident":1,
    "cursed":1,
    "trudges":1,
    "compared":1,
    "hugging":1,
    "embittered":1,
    "gym":1,
    "biggest":1,
    "heres":1,
    "proceeds":1,
    "notices":1,
    "sorts":1,
    "fabio":1,
    "sealing":1,
    "deals":1,
    "biding":1,
    "appear":1,
    "thin":1,
    "juniors":1,
    "upperclassmen":1,
    "reach":1,
    "unlocking":1,
    "studly":1,
    "senior":1,
    "truck":1,
    "sit":1,
    "chatting":1,
    "simple":1,
    "lessons":1,
    "become":1,
    "cuban":1,
    "lords":1,
    "pirating":1,
    "bringing":1,
    "plenty":1,
    "wherever":1,
    "stopping":1,
    "warily":1,
    "bye":1,
    "peel":1,
    "blasting":1,
    "nothings":1,
    "virus":1,
    "keys":1,
    "fair":1,
    "hurriedly":1,
    "halfcyborg":1,
    "5":1,
    "showdown":1,
    "case":1,
    "sighs":1,
    "gotcha":1,
    "aaaaaahhhhhhhh":1,
    "customers":1,
    "breaks":1,
    "chases":1,
    "bastard":1,
    "dives":1,
    "shouting":1,
    "gathers":1,
    "spectacle":1,
    "items":1,
    "iron":1,
    "grip":1,
    "cringes":1,
    "exposes":1,
    "magazines":1,
    "kleenex":1,
    "tissues":1,
    "firming":1,
    "qtips":1,
    "womens":1,
    "surgical":1,
    "gloves":1,
    "grossed":1,
    "barbietype":1,
    "doll":1,
    "pullstring":1,
    "dressup":1,
    "disturbed":1,
    "signal":1,
    "1081":1,
    "unimpressed":1,
    "expressionless":1,
    "complies":1,
    "begin":1,
    "maneuver":1,
    "within":1,
    "vehicle":1,
    "shift":1,
    "reverse":1,
    "turning":1,
    "wheel":1,
    "revolutions":1,
    "clockwise":1,
    "passed":1,
    "pretends":1,
    "sparsely":1,
    "populated":1,
    "relatives":1,
    "brother":1,
    "wheelchairbound":1,
    "orthodontic":1,
    "lois":1,
    "lane":1,
    "careful":1,
    "plastic":1,
    "halfeaten":1,
    "cake":1,
    "unwrapped":1,
    "videotapes":1,
    "event":1,
    "present":1,
    "hardly":1,
    "contain":1,
    "excitement":1,
    "knowingly":1,
    "instead":1,
    "several":1,
    "wrapped":1,
    "boxes":1,
    "halfheartedly":1,
    "system":1,
    "buying":1,
    "permission":1,
    "whenever":1,
    "champ":1,
    "warmly":1,
    "linger":1,
    "expecting":1,
    "elbows":1,
    "flyers":1,
    "coopermans":1,
    "shits":1,
    "rahim":1,
    "beamed":1,
    "411":1,
    "anger":1,
    "cooperman":1,
    "kicked":1,
    "swear":1,
    "footprint":1,
    "nutsack":1,
    "grommets":1,
    "unpockets":1,
    "son":1,
    "hunt":1,
    "yall":1,
    "aint":1,
    "foot":1,
    "flinches":1,
    "pickle":1,
    "turnips":1,
    "couples":1,
    "cup":1,
    "lightly":1,
    "bumps":1,
    "dribbles":1,
    "playfully":1,
    "moistened":1,
    "floats":1,
    "zombies":1,
    "mesmerized":1,
    "spilled":1,
    "hed":1,
    "normally":1,
    "dignity":1,
    "unusual":1,
    "hats":1,
    "remembered":1,
    "flyer":1,
    "duh":1,
    "possibilities":1,
    "misses":1,
    "sight":1,
    "stranding":1,
    "metaphorical":1,
    "plunge":1,
    "shoes":1,
    "shallow":1,
    "skinny":1,
    "dipping":1,
    "jts":1,
    "above":1,
    "breast":1,
    "splashes":1,
    "giggles":1,
    "funnels":1,
    "strapless":1,
    "backyard":1,
    "illuminating":1,
    "colored":1,
    "respond":1,
    "skid":1,
    "aaaahhh":1,
    "victory":1,
    "nads":1,
    "bites":1,
    "deflate":1,
    "rapidly":1,
    "diminishing":1,
    "jerked":1,
    "motion":1,
    "doggie":1,
    "hummer":1,
    "visibly":1,
    "save":1,
    "selling":1,
    "fired":1,
    "caught":1,
    "berserk":1,
    "sting":1,
    "planning":1,
    "twice":1,
    "scarface":1,
    "bored":1,
    "textbooks":1,
    "chapter":1,
    "kingdom":1,
    "infinite":1,
    "varieties":1,
    "perpetually":1,
    "trip":1,
    "buries":1,
    "dorky":1,
    "extortion":1,
    "racket":1,
    "cram":1,
    "shoos":1,
    "needed":1,
    "searches":1,
    "meaningful":1,
    "desperate":1,
    "pass":1,
    "asking":1,
    "attempt":1,
    "nonchalant":1,
    "difference":1,
    "relaxes":1,
    "calling":1,
    "shitpants":1,
    "peels":1,
    "jumps":1,
    "oops":1,
    "shifts":1,
    "gears":1,
    "pitying":1,
    "agreed":1,
    "honey":1,
    "stewing":1,
    "firewalls":1,
    "barging":1,
    "cage":1,
    "witness":1,
    "miracle":1,
    "nature":1,
    "primal":1,
    "viewfinder":1,
    "orgy":1,
    "fornication":1,
    "monkeys":1,
    "wild":1,
    "ariel":1,
    "thrust":1,
    "engorged":1,
    "penis":1,
    "deposits":1,
    "seed":1,
    "desirable":1,
    "issues":1,
    "glob":1,
    "orthodontia":1,
    "scifi":1,
    "horror":1,
    "shining":1,
    "meets":1,
    "jetsons":1,
    "cater":1,
    "cinematography":1,
    "shots":1,
    "nicely":1,
    "16":1,
    "transfer":1,
    "expensive":1,
    "surf":1,
    "net":1,
    "figure":1,
    "serious":1,
    "moral":1,
    "implications":1,
    "market":1,
    "transaction":1,
    "consenting":1,
    "wondered":1,
    "imagined":1,
    "guilty":1,
    "shaving":1,
    "slip":1,
    "lives":1,
    "waste":1,
    "limp":1,
    "dicks":1,
    "begging":1,
    "sloppy":1,
    "sailed":1,
    "ringing":1,
    "speech":1,
    "fredericks":1,
    "hollywood":1,
    "type":1,
    "suites":1,
    "mortgage":1,
    "dentist":1,
    "sign":1,
    "honest":1,
    "vulnerable":1,
    "loves":1,
    "sweetheart":1,
    "lemme":1,
    "freshen":1,
    "leading":1,
    "fearing":1,
    "worst":1,
    "pleading":1,
    "gag":1,
    "doctors":1,
    "frosted":1,
    "receptionist":1,
    "include":1,
    "xpress":1,
    "code":1,
    "industry":1,
    "urine":1,
    "bank":1,
    "thatll":1,
    "haunt":1,
    "400":1,
    "appointment":1,
    "doctor":1,
    "rectal":1,
    "mischievously":1,
    "file":1,
    "credit":1,
    "social":1,
    "security":1,
    "annual":1,
    "official":1,
    "record":1,
    "fecal":1,
    "semen":1,
    "containers":1,
    "exit":1,
    "deliver":1,
    "affiliated":1,
    "production":1,
    "hardmember":1,
    "actors":1,
    "jealous":1,
    "sucks":1,
    "needs":1,
    "subtle":1,
    "gestures":1,
    "splatter":1,
    "form":1,
    "nd45":1,
    "thirdparty":1,
    "beneficiary":1,
    "using":1,
    "twentytwo":1,
    "idiot":1,
    "yawns":1,
    "palomina":1,
    "eyeballing":1,
    "talks":1,
    "345":1,
    "remson":1,
    "wednesday":1,
    "tutoring":1,
    "setting":1,
    "auditions":1,
    "fare":1,
    "bring":1,
    "tie":1,
    "rec":1,
    "motley":1,
    "crew":1,
    "toothless":1,
    "spandexwearing":1,
    "streetwalkers":1,
    "pervades":1,
    "rainbowcolored":1,
    "halter":1,
    "strange":1,
    "boyfriend":1,
    "walkie":1,
    "talkie":1,
    "clipboard":1,
    "polaroids":1,
    "horse":1,
    "speechless":1,
    "necessary":1,
    "recruit":1,
    "actresses":1,
    "digital":1,
    "images":1,
    "lined":1,
    "digitally":1,
    "altering":1,
    "goatee":1,
    "mutton":1,
    "chops":1,
    "fumanchu":1,
    "drivers":1,
    "suspicious":1,
    "shrug":1,
    "aloha":1,
    "shirts":1,
    "borrow":1,
    "don":1,
    "ho":1,
    "style":1,
    "asswranglers":1,
    "match":1,
    "ignition":1,
    "tune":1,
    "station":1,
    "adventure":1,
    "descends":1,
    "suburbs":1,
    "city":1,
    "sticker":1,
    "child":1,
    "honor":1,
    "confidently":1,
    "tikialohinoalohi":1,
    "welcome":1,
    "moved":1,
    "picked":1,
    "local":1,
    "lingo":1,
    "force":1,
    "lamination":1,
    "busted":1,
    "bar":1,
    "depend":1,
    "twentyseven":1,
    "thirtyfive":1,
    "sixteen":1,
    "dark":1,
    "corridor":1,
    "following":1,
    "neon":1,
    "liquor":1,
    "barroom":1,
    "grinding":1,
    "blast":1,
    "tracks":1,
    "bug":1,
    "scantilyclad":1,
    "further":1,
    "actual":1,
    "soliciting":1,
    "dancers":1,
    "locked":1,
    "primordial":1,
    "trance":1,
    "broken":1,
    "cocktail":1,
    "whatll":1,
    "minimum":1,
    "scotch":1,
    "order":1,
    "numerical":1,
    "raise":1,
    "choke":1,
    "tastes":1,
    "poison":1,
    "flag":1,
    "bikini":1,
    "freaked":1,
    "breasts":1,
    "buy":1,
    "uhhhhh":1,
    "defeated":1,
    "entrance":1,
    "legal":1,
    "catholic":1,
    "hetero":1,
    "anal":1,
    "distributing":1,
    "hired":1,
    "nights":1,
    "slinks":1,
    "gentle":1,
    "firm":1,
    "generally":1,
    "pounding":1,
    "boot":1,
    "rally":1,
    "wipe":1,
    "heading":1,
    "booths":1,
    "carney":1,
    "games":1,
    "wins":1,
    "stuffed":1,
    "cotton":1,
    "roller":1,
    "coaster":1,
    "rides":1,
    "crammed":1,
    "sundaes":1,
    "straw":1,
    "dawn":1,
    "dropping":1,
    "writes":1,
    "information":1,
    "studio":1,
    "chicken":1,
    "wings":1,
    "bucket":1,
    "someones":1,
    "recruiting":1,
    "jimmy":1,
    "rimmer":1,
    "rock":1,
    "fame":1,
    "regains":1,
    "train":1,
    "f":1,
    "month":1,
    "moving":1,
    "drawer":1,
    "menacingly":1,
    "bluff":1,
    "mikey":1,
    "cheers":1,
    "hungry":1,
    "eat":1,
    "grab":1,
    "bondage":1,
    "presell":1,
    "videos":1,
    "posting":1,
    "image":1,
    "proudly":1,
    "displayed":1,
    "hawking":1,
    "feature":1,
    "knock":1,
    "shuts":1,
    "hells":1,
    "saw":1,
    "whore":1,
    "saffron":1,
    "printer":1,
    "flips":1,
    "page":1,
    "lathers":1,
    "glistening":1,
    "bodies":1,
    "moans":1,
    "crap":1,
    "whorehouse":1,
    "retards":1,
    "manila":1,
    "folder":1,
    "wide":1,
    "harder":1,
    "trust":1,
    "munch":1,
    "mommy":1,
    "conferring":1,
    "transformed":1,
    "tripod":1,
    "decoration":1,
    "roughly":1,
    "offices":1,
    "shove":1,
    "directing":1,
    "understated":1,
    "visceral":1,
    "shave":1,
    "beardless":1,
    "awkwardly":1,
    "earphones":1,
    "conspiratorially":1,
    "leap":1,
    "return":1,
    "phillip":1,
    "debate":1,
    "gulps":1,
    "peers":1,
    "forgot":1,
    "lock":1,
    "ogling":1,
    "crosses":1,
    "bead":1,
    "zooms":1,
    "moaning":1,
    "closer":1,
    "steady":1,
    "blur":1,
    "quivering":1,
    "makeshift":1,
    "sexual":1,
    "material":1,
    "psyche":1,
    "obvious":1,
    "bread":1,
    "hasnt":1,
    "risen":1,
    "sag":1,
    "tired":1,
    "evil":1,
    "joint":1,
    "motionless":1,
    "focusing":1,
    "ounce":1,
    "mental":1,
    "keeping":1,
    "floodgates":1,
    "closed":1,
    "approximately":1,
    "aaaahhhh":1,
    "splice":1,
    "dickwads":1,
    "bust":1,
    "regroup":1,
    "willing":1,
    "sake":1,
    "huddle":1,
    "worried":1,
    "whether":1,
    "chalk":1,
    "failed":1,
    "experiment":1,
    "ta":1,
    "enthusiast":1,
    "twentysomething":1,
    "thumbing":1,
    "curb":1,
    "slurpies":1,
    "screen":1,
    "presence":1,
    "van":1,
    "explained":1,
    "legends":1,
    "detention":1,
    "fixing":1,
    "grades":1,
    "grounded":1,
    "types":1,
    "taj":1,
    "mahal":1,
    "bhopal":1,
    "indian":1,
    "engrossed":1,
    "eyeglasses":1,
    "reflect":1,
    "scrolling":1,
    "current":1,
    "mujibur":1,
    "onscreen":1,
    "mouse":1,
    "pointer":1,
    "eiffel":1,
    "tower":1,
    "computes":1,
    "recognizable":1,
    "landmarks":1,
    "kyoto":1,
    "pda":1,
    "oral":1,
    "stimulating":1,
    "pats":1,
    "cheered":1,
    "inadvertent":1,
    "compliment":1,
    "block":1,
    "sneak":1,
    "peek":1,
    "100":1,
    "10speeds":1,
    "falling":1,
    "beluga":1,
    "tank":1,
    "birth":1,
    "characteristic":1,
    "linked":1,
    "bigger":1,
    "liked":1,
    "holy":1,
    "highfives":1,
    "stoked":1,
    "travelling":1,
    "carnival":1,
    "hesitation":1,
    "vibe":1,
    "slistaks":1,
    "complicated":1,
    "appearance":1,
    "amid":1,
    "rightful":1,
    "incrowd":1,
    "dangerously":1,
    "weighing":1,
    "limb":1,
    "theyve":1,
    "annoyed":1,
    "hanging":1,
    "loser":1,
    "yours":1,
    "patio":1,
    "pisses":1,
    "compensating":1,
    "deserve":1,
    "unwilling":1,
    "wanting":1,
    "fabulous":1,
    "babe":1,
    "pouty":1,
    "kissing":1,
    "either":1,
    "adjusting":1,
    "actor":1,
    "hour":1,
    "sucked":1,
    "black":1,
    "spock":1,
    "balks":1,
    "box":1,
    "nowhere":1,
    "zipper":1,
    "opening":1,
    "delivers":1,
    "shows":1,
    "enthusiasm":1,
    "happening":1,
    "presumably":1,
    "sup":1,
    "sci":1,
    "fi":1,
    "sun":1,
    "thoroughly":1,
    "panic":1,
    "aaaaaaaaaaahhhhhhhhh":1,
    "theater":1,
    "dreamed":1,
    "both":1,
    "uneasy":1,
    "admission":1,
    "subject":1,
    "amateurish":1,
    "projector":1,
    "summer":1,
    "tentpole":1,
    "eventmovie":1,
    "scared":1,
    "scary":1,
    "memory":1,
    "wreaking":1,
    "havoc":1,
    "conscience":1,
    "pondering":1,
    "contorts":1,
    "seeming":1,
    "anguish":1,
    "coiled":1,
    "circular":1,
    "smouldering":1,
    "touches":1,
    "reels":1,
    "explodes":1,
    "meanwhile":1,
    "growing":1,
    "aims":1,
    "depresses":1,
    "lever":1,
    "foamy":1,
    "cat":1,
    "giggling":1,
    "prancing":1,
    "bikinis":1,
    "discharging":1,
    "extinguishers":1,
    "strangely":1,
    "frantically":1,
    "washing":1,
    "machine":1,
    "detergent":1,
    "scoops":1,
    "soapy":1,
    "soaked":1,
    "freaking":1,
    "covering":1,
    "doorway":1,
    "splint":1,
    "sprained":1,
    "wrist":1,
    "reasonable":1,
    "explanation":1,
    "dates":1,
    "stood":1,
    "date":1,
    "feeling":1,
    "mono":1,
    "tipped":1,
    "candle":1,
    "damage":1,
    "fixed":1,
    "damn":1,
    "glares":1,
    "lewises":1,
    "glances":1,
    "continuing":1,
    "workrelated":1,
    "rant":1,
    "nd90s":1,
    "discontinued":1,
    "psyched":1,
    "nineteen":1,
    "doorbell":1,
    "nows":1,
    "figuring":1,
    "however":1,
    "achieve":1,
    "desired":1,
    "pokes":1,
    "size":1,
    "slut":1,
    "medal":1,
    "consoles":1,
    "insane":1,
    "feldman":1,
    "seventh":1,
    "fall":1,
    "arguing":1,
    "pretend":1,
    "caused":1,
    "kissed":1,
    "necessarily":1,
    "newfound":1,
    "interest":1,
    "creative":1,
    "consultant":1,
    "offense":1,
    "pouting":1,
    "cursor":1,
    "clicking":1,
    "importantly":1,
    "odometer":1,
    "rocket":1,
    "bingo":1,
    "assholes":1,
    "lesson":1,
    "slippers":1,
    "parked":1,
    "print":1,
    "bang":1,
    "j":1,
    "spark":1,
    "understanding":1,
    "brilliant":1,
    "fuckin":1,
    "glass":1,
    "soda":1,
    "raises":1,
    "terrified":1,
    "am":1,
    "retiring":1,
    "permanently":1,
    "schoolgirl":1,
    "fantasies":1,
    "dart":1,
    "daughters":1,
    "sixyear":1,
    "husband":1,
    "rent":1,
    "sisters":1,
    "rented":1,
    "jakob":1,
    "backing":1,
    "entitled":1,
    "joy":1,
    "brought":1,
    "religious":1,
    "renting":1,
    "microwave":1,
    "popcorn":1,
    "featured":1,
    "gigs":1,
    "ten":1,
    "act":1,
    "carrying":1,
    "pile":1,
    "beatles":1,
    "documentary":1,
    "history":1,
    "channel":1,
    "yoko":1,
    "ono":1,
    "shell":1,
    "helpful":1,
    "pocket":1,
    "rehearsal":1,
    "quadratic":1,
    "equation":1,
    "division":1,
    "corduroys":1,
    "gasps":1,
    "welldressed":1,
    "foreign":1,
    "student":1,
    "portugal":1,
    "director":1,
    "allowed":1,
    "cares":1,
    "agrees":1,
    "cold":1,
    "accidentally":1,
    "ridiculous":1,
    "improvise":1,
    "appreciate":1,
    "paid":1,
    "career":1,
    "packs":1,
    "blurts":1,
    "unexpected":1,
    "exchanges":1,
    "glance":1,
    "ankles":1,
    "bare":1,
    "falls":1,
    "smacked":1,
    "asked":1,
    "adjacent":1,
    "lead":1,
    "slackjawed":1,
    "middleaged":1,
    "disbelief":1,
    "instructor":1,
    "amazed":1,
    "essentially":1,
    "folded":1,
    "pinned":1,
    "beyond":1,
    "obviously":1,
    "gathering":1,
    "eyeing":1,
    "quite":1,
    "wondering":1,
    "warm":1,
    "mistakes":1,
    "protection":1,
    "playing":1,
    "grows":1,
    "louder":1,
    "minutes":1,
    "confusion":1,
    "sweeps":1,
    "lifts":1,
    "bliss":1,
    "share":1,
    "contentment":1,
    "troubled":1,
    "pad":1,
    "customer":1,
    "collar":1,
    "homie":1,
    "smoked":1,
    "dragging":1,
    "posters":1,
    "buff":1,
    "nuthugging":1,
    "boxer":1,
    "briefs":1,
    "booked":1,
    "facials":1,
    "serenity":1,
    "spa":1,
    "afternoon":1,
    "spend":1,
    "pouts":1,
    "thumb":1,
    "skin":1,
    "glare":1,
    "chase":1,
    "howd":1,
    "dead":1,
    "bird":1,
    "plate":1,
    "pooch":1,
    "parks":1,
    "aristotles":1,
    "ethics":1,
    "enjoy":1,
    "ash":1,
    "cashier":1,
    "intercut":1,
    "tip":1,
    "main":1,
    "applause":1,
    "cloud":1,
    "ordering":1,
    "swings":1,
    "row":1,
    "reaching":1,
    "bills":1,
    "tipping":1,
    "spin":1,
    "lands":1,
    "split":1,
    "happens":1,
    "crisp":1,
    "freeze":1,
    "whom":1,
    "met":1,
    "twist":1,
    "offered":1,
    "older":1,
    "rare":1,
    "combination":1,
    "fatherly":1,
    "concern":1,
    "hamming":1,
    "belong":1,
    "skipping":1,
    "blowing":1,
    "passing":1,
    "kept":1,
    "seemed":1,
    "extremely":1,
    "difficult":1,
    "quits":1,
    "hotter":1,
    "midriff":1,
    "gently":1,
    "errant":1,
    "offers":1,
    "wish":1,
    "entranced":1,
    "blow":1,
    "brushes":1,
    "strand":1,
    "hooked":1,
    "opera":1,
    "aria":1,
    "tips":1,
    "classes":1,
    "depends":1,
    "secrets":1,
    "clueless":1,
    "dollop":1,
    "mousse":1,
    "apron":1,
    "zip":1,
    "whatre":1,
    "municipal":1,
    "bond":1,
    "fund":1,
    "term":1,
    "dividends":1,
    "tax":1,
    "federal":1,
    "baxter":1,
    "meekly":1,
    "mirrored":1,
    "disco":1,
    "ball":1,
    "reflects":1,
    "gown":1,
    "tux":1,
    "ira":1,
    "virginity":1,
    "jorgensen":1,
    "swoop":1,
    "chaperoning":1,
    "direction":1,
    "repeats":1,
    "mouthing":1,
    "proud":1,
    "contribution":1,
    "lighter":1,
    "fluid":1,
    "sets":1,
    "wrap":1,
    "studying":1,
    "bricks":1,
    "finish":1,
    "tuna":1,
    "fish":1,
    "sandwich":1,
    "farting":1,
    "gross":1,
    "disgusting":1,
    "nasty":1,
    "fuck":1,
    "whack":1,
    "shoves":1,
    "admit":1,
    "square":1,
    "bonfire":1,
    "tons":1,
    "band":1,
    "themselves":1,
    "news":1,
    "vivid":1,
    "la":1,
    "contract":1,
    "congratulations":1,
    "hugs":1,
    "sharp":1,
    "slicked":1,
    "suave":1,
    "checking":1,
    "invite":1,
    "including":1,
    "killer":1,
    "overhears":1,
    "comment":1,
    "joining":1,
    "retard":1,
    "grabbing":1,
    "dumbfounded":1,
    "ex":1,
    "boyfriends":1,
    "satisfied":1,
    "sleep":1,
    "neanderthals":1,
    "blowjobs":1,
    "wind":1,
    "unemployed":1,
    "beaters":1,
    "shocked":1,
    "finds":1,
    "brokendown":1,
    "connected":1,
    "glad":1,
    "realization":1,
    "understands":1,
    "horizon":1,
    "common":1,
    "saying":1,
    "reputation":1,
    "pornographers":1,
    "bandstand":1,
    "drunk":1,
    "perverts":1,
    "confront":1,
    "skidmarks":1,
    "elses":1,
    "records":1,
    "encrypted":1,
    "tracing":1,
    "jerk":1,
    "masturbating":1,
    "copy":1,
    "yup":1,
    "punches":1,
    "doubles":1,
    "uppercuts":1,
    "flies":1,
    "crashing":1,
    "avoid":1,
    "pissing":1,
    "noted":1,
    "labelled":1,
    "unopened":1,
    "points":1,
    "competition":1,
    "collective":1,
    "sigh":1,
    "freak":1,
    "leader":1,
    "squirming":1,
    "hurts":1,
    "struggle":1,
    "undoing":1,
    "belt":1,
    "blades":1,
    "menacing":1,
    "chop":1,
    "presold":1,
    "sixtythree":1,
    "orders":1,
    "untie":1,
    "supply":1,
    "quality":1,
    "handy":1,
    "maintain":1,
    "artistic":1,
    "vision":1,
    "remember":1,
    "fantasize":1,
    "visit":1,
    "catching":1,
    "mother":1,
    "showering":1,
    "wanders":1,
    "abandoned":1,
    "warehouse":1,
    "master":1,
    "savor":1,
    "simultaneously":1,
    "realize":1,
    "clocks":1,
    "ticking":1,
    "living":1,
    "suburban":1,
    "burst":1,
    "manage":1,
    "c":1,
    "shock":1,
    "angry":1,
    "midterm":1,
    "tone":1,
    "mister":1,
    "teenager":1,
    "repeat":1,
    "finals":1,
    "demands":1,
    "advice":1,
    "losing":1,
    "easier":1,
    "brand":1,
    "convertible":1,
    "carries":1,
    "overnight":1,
    "letting":1,
    "may":1,
    "weekend":1,
    "decided":1,
    "nyu":1,
    "burned":1,
    "submitted":1,
    "sample":1,
    "deserved":1,
    "speak":1,
    "yourself":1,
    "worked":1,
    "build":1,
    "nerve":1,
    "gang":1,
    "pleasuring":1,
    "duly":1,
    "impressed":1,
    "dealing":1,
    "improved":1,
    "learn":1,
    "funky":1,
    "remote":1,
    "button":1,
    "monitors":1,
    "horrified":1,
    "mailed":1,
    "repeating":1,
    "continuous":1,
    "loop":1,
    "rap":1,
    "ejacula":1,
    "tor":1,
    "ejaculaaaaaaator":1,
    "loses":1,
    "value":1,
    "tampering":1,
    "possibly":1,
    "unravelling":1,
    "mystery":1,
    "happen":1,
    "combinations":1,
    "outside":1,
    "transport":1,
    "plates":1,
    "h":1,
    "unloading":1,
    "familiar":1,
    "sounding":1,
    "payperview":1,
    "1b":2,
    "empty":2,
    "stage":2,
    "focus":2,
    "shoddy":2,
    "1c":2,
    "displaying":2,
    "sweaty":2,
    "ugly":2,
    "enjoying":2,
    "able":2,
    "chicks":2,
    "heroes":2,
    "turned":2,
    "started":2,
    "usual":2,
    "appreciation":2,
    "clicks":2,
    "steals":2,
    "sell":2,
    "pop":2,
    "productions":2,
    "presents":2,
    "given":2,
    "ahead":2,
    "ears":2,
    "beeline":2,
    "stall":2,
    "stain":2,
    "depending":2,
    "watches":2,
    "secretary":2,
    "dork":2,
    "teenagers":2,
    "sos":2,
    "sliver":2,
    "visible":2,
    "shakes":2,
    "changing":2,
    "panties":2,
    "scurries":2,
    "key":2,
    "classic":2,
    "dollars":2,
    "gaggle":2,
    "imagine":2,
    "absolutely":2,
    "space":2,
    "testosterone":2,
    "drug":2,
    "powerful":2,
    "nipples":2,
    "conservative":2,
    "bra":2,
    "aside":2,
    "flashing":2,
    "headlights":2,
    "matter":2,
    "suffering":2,
    "whispering":2,
    "2":2,
    "nailed":2,
    "bolts":2,
    "richard":2,
    "sheets":2,
    "immediately":2,
    "teacher":2,
    "bottom":2,
    "feels":2,
    "goodbye":2,
    "videotape":2,
    "took":2,
    "known":2,
    "breath":2,
    "seal":2,
    "wasnt":2,
    "timing":2,
    "air":2,
    "ourselves":2,
    "revs":2,
    "engine":2,
    "bumper":2,
    "scar":2,
    "plan":2,
    "drive":2,
    "laugh":2,
    "fifth":2,
    "stomach":2,
    "super":2,
    "pick":2,
    "section":2,
    "final":2,
    "switch":2,
    "relief":2,
    "shelf":2,
    "word":2,
    "knocking":2,
    "entire":2,
    "fly":2,
    "screaming":2,
    "baby":2,
    "candy":2,
    "tester":2,
    "remains":2,
    "parallel":2,
    "pulling":2,
    "rubs":2,
    "dmv":2,
    "younger":2,
    "nerd":2,
    "headgear":2,
    "braces":2,
    "comic":2,
    "expression":2,
    "snickers":2,
    "invited":2,
    "send":2,
    "showed":2,
    "tom":2,
    "keg":2,
    "study":2,
    "third":2,
    "examines":2,
    "slack":2,
    "chin":2,
    "lose":2,
    "racing":2,
    "freakin":2,
    "answer":2,
    "screw":2,
    "nods":2,
    "soon":2,
    "background":2,
    "hesitates":2,
    "swims":2,
    "panics":2,
    "humiliated":2,
    "whisper":2,
    "toy":2,
    "driveway":2,
    "desperately":2,
    "cover":2,
    "sick":2,
    "bummed":2,
    "bucks":2,
    "small":2,
    "six":2,
    "animal":2,
    "field":2,
    "dying":2,
    "midterms":2,
    "cuts":2,
    "french":2,
    "ruining":2,
    "fades":2,
    "backwards":2,
    "also":2,
    "earn":2,
    "bursts":2,
    "most":2,
    "masturbation":2,
    "miss":2,
    "means":2,
    "wheelchair":2,
    "dripping":2,
    "check":2,
    "angle":2,
    "cute":2,
    "edited":2,
    "equipment":2,
    "star":2,
    "trouble":2,
    "adults":2,
    "truth":2,
    "taggerts":2,
    "opportunity":2,
    "seconds":2,
    "ship":2,
    "silence":2,
    "company":2,
    "building":2,
    "fat":2,
    "jive":2,
    "mikes":2,
    "eight":2,
    "town":2,
    "territory":2,
    "crotch":2,
    "huddled":2,
    "forms":2,
    "actress":2,
    "fifty":2,
    "ad":2,
    "body":2,
    "nurse":2,
    "lab":2,
    "signature":2,
    "account":2,
    "ronald":2,
    "exam":2,
    "card":2,
    "report":2,
    "returns":2,
    "41a":2,
    "ride":2,
    "recognize":2,
    "johnny":2,
    "johnsons":2,
    "gotta":2,
    "exist":2,
    "hello":2,
    "named":2,
    "chokes":2,
    "food":2,
    "softly":2,
    "hangs":2,
    "curious":2,
    "forces":2,
    "busy":2,
    "uncomfortable":2,
    "curtain":2,
    "tequila":2,
    "tosses":2,
    "stack":2,
    "suck":2,
    "gotten":2,
    "license":2,
    "downstairs":2,
    "hawaiian":2,
    "reading":2,
    "apply":2,
    "facial":2,
    "blasts":2,
    "49a":2,
    "below":2,
    "aerostars":2,
    "runningbear":2,
    "strip":2,
    "cash":2,
    "smell":2,
    "chatter":2,
    "seems":2,
    "onstage":2,
    "voice":2,
    "straight":2,
    "rocks":2,
    "same":2,
    "pays":2,
    "glasses":2,
    "beautiful":2,
    "american":2,
    "private":2,
    "couch":2,
    "lowers":2,
    "intently":2,
    "boner":2,
    "mine":2,
    "filmmakers":2,
    "talent":2,
    "barely":2,
    "audition":2,
    "youll":2,
    "51a":2,
    "fog":2,
    "works":2,
    "carousel":2,
    "51c":2,
    "51d":2,
    "fudge":2,
    "factory":2,
    "group":2,
    "booth":2,
    "whips":2,
    "51e":2,
    "huge":2,
    "says":2,
    "amateurs":2,
    "mad":2,
    "cocks":2,
    "called":2,
    "reluctantly":2,
    "calm":2,
    "agitated":2,
    "leaving":2,
    "though":2,
    "putting":2,
    "rogers":2,
    "pages":2,
    "shower":2,
    "checks":2,
    "editor":2,
    "photos":2,
    "hope":2,
    "catches":2,
    "whispers":2,
    "54a":2,
    "performance":2,
    "filming":2,
    "premature":2,
    "ejaculator":2,
    "times":2,
    "pops":2,
    "hold":2,
    "rest":2,
    "jims":2,
    "mart":2,
    "magazine":2,
    "issue":2,
    "dudes":2,
    "moments":2,
    "fails":2,
    "india":2,
    "glow":2,
    "text":2,
    "59a":2,
    "59b":2,
    "reads":2,
    "story":2,
    "japan":2,
    "japanese":2,
    "embarrassed":2,
    "honks":2,
    "facing":2,
    "project":2,
    "aquarium":2,
    "charge":2,
    "slide":2,
    "65a":2,
    "rush":2,
    "whale":2,
    "mammals":2,
    "vinnie":2,
    "must":2,
    "preorders":2,
    "twelve":2,
    "awkward":2,
    "raging":2,
    "sidekicks":2,
    "weeks":2,
    "such":2,
    "smart":2,
    "dump":2,
    "treat":2,
    "steels":2,
    "robe":2,
    "missing":2,
    "half":2,
    "hole":2,
    "chuckles":2,
    "popular":2,
    "wasting":2,
    "pizza":2,
    "offscreen":2,
    "throw":2,
    "sausage":2,
    "eruption":2,
    "quit":2,
    "gay":2,
    "person":2,
    "nightmare":2,
    "hide":2,
    "appears":2,
    "deeply":2,
    "cord":2,
    "burning":2,
    "carpet":2,
    "unplug":2,
    "stairs":2,
    "extinguisher":2,
    "72a":2,
    "laundry":2,
    "fill":2,
    "dial":2,
    "load":2,
    "pauses":2,
    "72b":2,
    "stares":2,
    "covers":2,
    "enter":2,
    "soccer":2,
    "practice":2,
    "pride":2,
    "personal":2,
    "beaming":2,
    "fantasizing":2,
    "ran":2,
    "counter":2,
    "product":2,
    "found":2,
    "address":2,
    "hurt":2,
    "pussy":2,
    "liar":2,
    "rehearsals":2,
    "stumbles":2,
    "geek":2,
    "nuts":2,
    "nose":2,
    "ruined":2,
    "besides":2,
    "escorts":2,
    "jealously":2,
    "flexible":2,
    "orgasm":2,
    "83a":2,
    "might":2,
    "peachtree":2,
    "finch":2,
    "featuring":2,
    "screwed":2,
    "88a":2,
    "90a":2,
    "naughty":2,
    "struts":2,
    "bill":2,
    "teeth":2,
    "industrial":2,
    "anyway":2,
    "short":2,
    "smiling":2,
    "acting":2,
    "cutting":2,
    "sprays":2,
    "capital":2,
    "gains":2,
    "95a":2,
    "across":2,
    "95e":2,
    "exits":2,
    "nonchalantly":2,
    "95f":2,
    "95j":2,
    "library":2,
    "white":2,
    "mistake":2,
    "center":2,
    "sent":2,
    "dumped":2,
    "felt":2,
    "giving":2,
    "theyll":2,
    "100a":2,
    "breaking":2,
    "envelope":2,
    "hedge":2,
    "clippers":2,
    "pleasure":2,
    "113a":2,
    "races":2,
    "113b":2,
    "relieved":2,
    "driving":2,
    "ejac":2,
    "lockers":2,
    "read":2,
    "121c":2,
    "cars":2,
    "hotel":2,
    "fake":3,
    "hall":3,
    "feel":3,
    "rings":3,
    "four":3,
    "7":3,
    "lunch":3,
    "topless":3,
    "until":3,
    "ones":3,
    "protector":3,
    "toilet":3,
    "wad":3,
    "roll":3,
    "bottle":3,
    "moistymate":3,
    "lotion":3,
    "many":3,
    "videotaping":3,
    "youd":3,
    "normal":3,
    "likes":3,
    "swim":3,
    "attention":3,
    "twenty":3,
    "sweet":3,
    "exchange":3,
    "freshman":3,
    "1":3,
    "state":3,
    "passes":3,
    "myself":3,
    "since":3,
    "depressed":3,
    "ducks":3,
    "operation":3,
    "chance":3,
    "deal":3,
    "responsibility":3,
    "follow":3,
    "ooh":3,
    "change":3,
    "forget":3,
    "cheerleader":3,
    "bends":3,
    "inside":3,
    "shoulders":3,
    "monkey":3,
    "legs":3,
    "everywhere":3,
    "rips":3,
    "keeps":3,
    "wipes":3,
    "feet":3,
    "brow":3,
    "surprise":3,
    "wow":3,
    "wrapper":3,
    "cream":3,
    "garage":3,
    "list":3,
    "drinking":3,
    "near":3,
    "lips":3,
    "decision":3,
    "rachaels":3,
    "wheres":3,
    "mark":3,
    "helping":3,
    "slips":3,
    "end":3,
    "join":3,
    "rise":3,
    "kids":3,
    "seductively":3,
    "stick":3,
    "marks":3,
    "freezes":3,
    "sports":3,
    "went":3,
    "week":3,
    "disappointed":3,
    "zoo":3,
    "double":3,
    "paris":3,
    "starting":3,
    "crushed":3,
    "handle":3,
    "father":3,
    "figured":3,
    "hit":3,
    "part":3,
    "pornos":3,
    "faces":3,
    "butt":3,
    "funny":3,
    "between":3,
    "principal":3,
    "men":3,
    "losers":3,
    "rather":3,
    "safe":3,
    "minute":3,
    "wheels":3,
    "promise":3,
    "shake":3,
    "hug":3,
    "number":3,
    "prove":3,
    "place":3,
    "models":3,
    "rolls":3,
    "itll":3,
    "friends":3,
    "ground":3,
    "family":3,
    "telling":3,
    "nd90":3,
    "years":3,
    "anymore":3,
    "bus":3,
    "nervously":3,
    "whores":3,
    "seem":3,
    "pictures":3,
    "photo":3,
    "easy":3,
    "rocking":3,
    "mood":3,
    "brings":3,
    "ago":3,
    "smacks":3,
    "dances":3,
    "drinks":3,
    "strips":3,
    "revealing":3,
    "thank":3,
    "ladies":3,
    "dollar":3,
    "pole":3,
    "various":3,
    "eating":3,
    "fight":3,
    "true":3,
    "bit":3,
    "came":3,
    "scripts":3,
    "wrote":3,
    "motto":3,
    "ashleys":3,
    "click":3,
    "important":3,
    "display":3,
    "reason":3,
    "eye":3,
    "control":3,
    "sometimes":3,
    "anybody":3,
    "kill":3,
    "captain":3,
    "stock":3,
    "teen":3,
    "nerdy":3,
    "france":3,
    "live":3,
    "stories":3,
    "ton":3,
    "schedule":3,
    "crying":3,
    "couple":3,
    "yard":3,
    "dick":3,
    "cheek":3,
    "lying":3,
    "shrugs":3,
    "kiss":3,
    "dream":3,
    "effect":3,
    "onto":3,
    "floor":3,
    "used":3,
    "girlfriends":3,
    "upstairs":3,
    "view":3,
    "teach":3,
    "wife":3,
    "try":3,
    "heart":3,
    "naomis":3,
    "slow":3,
    "positions":3,
    "backstage":3,
    "weird":3,
    "dave":3,
    "eyelash":3,
    "hairdresser":3,
    "plays":3,
    "along":3,
    "wuss":3,
    "fast":3,
    "broke":3,
    "screams":4,
    "cheesy":4,
    "shot":4,
    "continue":4,
    "monitor":4,
    "sound":4,
    "copies":4,
    "original":4,
    "adjusts":4,
    "coming":4,
    "students":4,
    "running":4,
    "wouldnt":4,
    "closes":4,
    "approaches":4,
    "against":4,
    "crack":4,
    "least":4,
    "seventeen":4,
    "male":4,
    "deep":4,
    "happened":4,
    "youve":4,
    "months":4,
    "listening":4,
    "suddenly":4,
    "taking":4,
    "snaps":4,
    "which":4,
    "bikes":4,
    "rack":4,
    "holding":4,
    "past":4,
    "radio":4,
    "asshole":4,
    "throws":4,
    "tapes":4,
    "crowd":4,
    "play":4,
    "forward":4,
    "full":4,
    "ice":4,
    "follows":4,
    "arms":4,
    "minivan":4,
    "anyone":4,
    "piece":4,
    "thousand":4,
    "dog":4,
    "wont":4,
    "dancing":4,
    "world":4,
    "shoots":4,
    "gone":4,
    "leave":4,
    "water":4,
    "amazing":4,
    "picks":4,
    "lap":4,
    "everybody":4,
    "yesterday":4,
    "sort":4,
    "dads":4,
    "continues":4,
    "keep":4,
    "seeing":4,
    "own":4,
    "jesus":4,
    "job":4,
    "knows":4,
    "track":4,
    "female":4,
    "wed":4,
    "blew":4,
    "shoulder":4,
    "quick":4,
    "window":4,
    "id":4,
    "whose":4,
    "mclongcock":4,
    "sam":4,
    "phone":4,
    "lady":4,
    "done":4,
    "song":4,
    "pushes":4,
    "sweat":4,
    "waitress":4,
    "huh":4,
    "paying":4,
    "herself":4,
    "crazy":4,
    "last":4,
    "desk":4,
    "reality":4,
    "corner":4,
    "peepee":4,
    "real":4,
    "totally":4,
    "preorder":4,
    "seen":4,
    "hurry":4,
    "bad":4,
    "storms":4,
    "different":4,
    "understand":4,
    "hows":4,
    "massive":4,
    "holds":4,
    "flames":4,
    "johnson":4,
    "table":4,
    "reel":4,
    "fade":4,
    "sounds":5,
    "boom":5,
    "av":5,
    "always":5,
    "show":5,
    "trying":5,
    "basic":5,
    "watching":5,
    "ramalot":5,
    "darla":5,
    "complete":5,
    "places":5,
    "seat":5,
    "spots":5,
    "meet":5,
    "find":5,
    "probably":5,
    "once":5,
    "team":5,
    "interested":5,
    "heads":5,
    "being":5,
    "mind":5,
    "woman":5,
    "changes":5,
    "john":5,
    "baldwin":5,
    "unger":5,
    "surprised":5,
    "couldnt":5,
    "heard":5,
    "tony":5,
    "montana":5,
    "power":5,
    "listen":5,
    "grade":5,
    "shaking":5,
    "movies":5,
    "stare":5,
    "else":5,
    "tries":5,
    "completely":5,
    "dude":5,
    "taken":5,
    "happy":5,
    "moves":5,
    "wants":5,
    "goddamn":5,
    "excited":5,
    "fantasy":5,
    "dress":5,
    "gonna":5,
    "care":5,
    "ass":5,
    "side":5,
    "front":5,
    "drives":5,
    "pissed":5,
    "best":5,
    "stuff":5,
    "havent":5,
    "question":5,
    "eighteen":5,
    "samples":5,
    "web":5,
    "greitzers":5,
    "slam":5,
    "young":5,
    "vacation":5,
    "store":5,
    "said":5,
    "ids":5,
    "stripper":5,
    "dance":5,
    "break":5,
    "plantain":5,
    "vics":5,
    "website":5,
    "far":5,
    "position":5,
    "hang":5,
    "stunned":5,
    "yoga":5,
    "prom":5,
    "foyer":5,
    "mail":5,
    "reveal":6,
    "whole":6,
    "moron":6,
    "life":6,
    "under":6,
    "sits":6,
    "large":6,
    "arm":6,
    "things":6,
    "thinks":6,
    "teenage":6,
    "porn":6,
    "opens":6,
    "alone":6,
    "naked":6,
    "wrong":6,
    "bike":6,
    "sphincter":6,
    "adult":6,
    "arent":6,
    "scene":6,
    "free":6,
    "runs":6,
    "underwear":6,
    "few":6,
    "wanted":6,
    "except":6,
    "names":6,
    "today":6,
    "steps":6,
    "coops":6,
    "beer":6,
    "jt":6,
    "drink":6,
    "shorts":6,
    "laughing":6,
    "stupid":6,
    "move":6,
    "hits":6,
    "made":6,
    "dinner":6,
    "shoot":6,
    "shouldnt":6,
    "cleveland":6,
    "supposed":6,
    "greitzer":6,
    "working":6,
    "believe":6,
    "yet":6,
    "bouncer":6,
    "strippers":6,
    "seven":6,
    "stands":6,
    "yearbook":6,
    "footage":6,
    "script":6,
    "explain":6,
    "mrs":6,
    "everything":6,
    "music":7,
    "tv":7,
    "pull":7,
    "because":7,
    "better":7,
    "than":7,
    "rule":7,
    "book":7,
    "late":7,
    "five":7,
    "dirty":7,
    "smile":7,
    "line":7,
    "hundred":7,
    "ear":7,
    "test":7,
    "bag":7,
    "walking":7,
    "call":7,
    "home":7,
    "friend":7,
    "without":7,
    "nervous":7,
    "um":7,
    "tomorrow":7,
    "told":7,
    "shut":7,
    "perfect":7,
    "tonight":7,
    "drops":7,
    "everyone":7,
    "seriously":7,
    "use":7,
    "aerostar":7,
    "pay":7,
    "laughs":7,
    "hi":7,
    "films":7,
    "etc":7,
    "leaves":7,
    "site":7,
    "street":7,
    "worry":7,
    "confused":7,
    "business":7,
    "second":7,
    "relax":7,
    "gun":7,
    "love":7,
    "run":7,
    "knew":7,
    "hell":8,
    "waiting":8,
    "kid":8,
    "paper":8,
    "course":8,
    "stops":8,
    "watch":8,
    "every":8,
    "staring":8,
    "anything":8,
    "kidding":8,
    "thinking":8,
    "kelly":8,
    "wendy":8,
    "exactly":8,
    "isnt":8,
    "those":8,
    "ask":8,
    "put":8,
    "tiny":8,
    "wearing":8,
    "top":8,
    "moment":8,
    "please":8,
    "outfit":8,
    "jump":8,
    "amusement":8,
    "open":9,
    "slowly":9,
    "birthday":9,
    "hard":9,
    "makes":9,
    "enters":9,
    "locker":9,
    "towards":9,
    "old":9,
    "boy":9,
    "biology":9,
    "point":9,
    "sexy":9,
    "together":9,
    "math":9,
    "already":9,
    "himself":9,
    "russ":9,
    "turn":9,
    "while":9,
    "picture":9,
    "computer":9,
    "parents":9,
    "goes":9,
    "hair":9,
    "pool":9,
    "enough":9,
    "nice":9,
    "dressed":9,
    "kisses":9,
    "bed":9,
    "hear":10,
    "sitting":10,
    "tape":10,
    "big":10,
    "puts":10,
    "matts":10,
    "start":10,
    "actually":10,
    "problem":10,
    "parking":10,
    "lights":10,
    "fine":10,
    "god":10,
    "clothes":10,
    "does":10,
    "yes":10,
    "standing":10,
    "hawaii":10,
    "kitty":10,
    "fire":10,
    "behind":11,
    "light":11,
    "work":11,
    "whos":11,
    "year":11,
    "walk":11,
    "shirt":11,
    "very":11,
    "balls":11,
    "weve":11,
    "shit":11,
    "park":11,
    "action":11,
    "would":11,
    "video":11,
    "idea":11,
    "virgins":11,
    "special":11,
    "name":11,
    "hands":12,
    "will":12,
    "pants":12,
    "later":12,
    "quickly":12,
    "talk":12,
    "had":12,
    "ready":12,
    "whatever":12,
    "fun":12,
    "thanks":12,
    "help":12,
    "gives":12,
    "again":12,
    "mr":12,
    "kitchen":12,
    "lewis":12,
    "three":13,
    "before":13,
    "sex":13,
    "hand":13,
    "grabs":13,
    "sees":13,
    "cool":13,
    "comes":13,
    "eyes":13,
    "doesnt":13,
    "talking":13,
    "nothing":13,
    "uh":13,
    "long":13,
    "office":13,
    "wait":13,
    "finally":14,
    "close":14,
    "freds":14,
    "much":14,
    "another":14,
    "club":14,
    "only":14,
    "pretty":14,
    "head":14,
    "women":14,
    "stop":14,
    "man":14,
    "roger":14,
    "william":15,
    "wall":15,
    "theyre":15,
    "boys":15,
    "bathroom":15,
    "having":15,
    "or":15,
    "takes":15,
    "party":15,
    "has":15,
    "max":15,
    "where":15,
    "these":15,
    "hot":16,
    "someone":16,
    "money":16,
    "thing":16,
    "never":16,
    "next":16,
    "didnt":16,
    "camera":16,
    "ever":16,
    "dad":16,
    "give":16,
    "guess":16,
    "face":17,
    "should":17,
    "lets":17,
    "say":17,
    "kind":17,
    "making":17,
    "hallway":17,
    "girl":17,
    "getting":17,
    "bedroom":17,
    "thought":17,
    "let":17,
    "mom":17,
    "basement":17,
    "mean":18,
    "smiles":18,
    "rachael":18,
    "girlfriend":18,
    "each":18,
    "first":19,
    "lot":19,
    "through":19,
    "sorry":19,
    "gets":19,
    "guy":20,
    "our":20,
    "turns":20,
    "class":20,
    "great":20,
    "starts":20,
    "shes":20,
    "any":21,
    "film":21,
    "when":21,
    "take":21,
    "could":21,
    "new":21,
    "high":22,
    "looking":22,
    "way":22,
    "people":22,
    "tell":22,
    "cut":22,
    "maybe":22,
    "even":23,
    "cant":23,
    "sure":23,
    "theres":23,
    "need":23,
    "set":23,
    "coop":23,
    "mike":24,
    "doing":24,
    "pulls":24,
    "who":24,
    "movie":25,
    "here":25,
    "beat":25,
    "room":26,
    "there":26,
    "been":26,
    "something":26,
    "girls":27,
    "see":27,
    "did":27,
    "ill":28,
    "time":28,
    "away":28,
    "ive":28,
    "hes":29,
    "walks":29,
    "after":29,
    "whats":29,
    "more":30,
    "why":31,
    "us":31,
    "now":31,
    "little":31,
    "door":32,
    "still":32,
    "house":32,
    "porno":33,
    "make":33,
    "around":33,
    "some":33,
    "ext":33,
    "car":33,
    "vic":33,
    "an":34,
    "their":34,
    "two":34,
    "how":35,
    "by":35,
    "too":36,
    "hey":36,
    "thats":37,
    "think":37,
    "if":37,
    "one":37,
    "good":37,
    "right":37,
    "go":38,
    "youre":38,
    "yeah":39,
    "other":40,
    "want":41,
    "come":42,
    "got":42,
    "well":44,
    "oh":44,
    "down":45,
    "was":46,
    "jake":46,
    "school":47,
    "as":47,
    "them":47,
    "off":48,
    "your":48,
    "really":49,
    "naomi":49,
    "from":50,
    "okay":50,
    "all":52,
    "into":53,
    "be":54,
    "can":54,
    "night":54,
    "back":55,
    "over":55,
    "look":56,
    "my":58,
    "were":59,
    "know":60,
    "going":60,
    "get":61,
    "they":62,
    "looks":64,
    "im":65,
    "not":68,
    "like":68,
    "day":70,
    "me":72,
    "about":73,
    "ashley":73,
    "do":75,
    "deacons":75,
    "but":77,
    "int":78,
    "so":80,
    "him":80,
    "that":82,
    "then":83,
    "no":83,
    "dont":83,
    "just":84,
    "have":84,
    "she":89,
    "its":91,
    "matt":92,
    "her":93,
    "this":107,
    "up":108,
    "guys":111,
    "out":111,
    "we":117,
    "fred":118,
    "for":126,
    "at":126,
    "with":127,
    "what":129,
    "are":131,
    "his":146,
    "he":150,
    "on":151,
    "in":175,
    "is":186,
    "it":192,
    "":197,
    "of":213,
    "deacon":235,
    "i":282,
    "you":391,
    "and":398,
    "a":407,
    "to":439,
    "the":789
}