{
    "bliffert":1,
    "blue":1,
    "turtleneck":1,
    "gave":1,
    "office":1,
    "oj":1,
    "metal":1,
    "objects":1,
    "tray":1,
    "early":1,
    "note":1,
    "meant":1,
    "itll":1,
    "live":1,
    "pisser":1,
    "twoohniner":1,
    "named":1,
    "davis":1,
    "en":1,
    "minneapolis":1,
    "scheduled":1,
    "transplant":1,
    "donor":1,
    "surgery":1,
    "recipient":1,
    "operating":1,
    "table":1,
    "reclined":1,
    "position":1,
    "continuous":1,
    "iv":1,
    "hamm":1,
    "mayo":1,
    "town":1,
    "requested":1,
    "atlanta":1,
    "change":1,
    "louie":1,
    "netz":1,
    "near":1,
    "hire":1,
    "keeping":1,
    "alive":1,
    "ancient":1,
    "cities":1,
    "jobs":1,
    "accept":1,
    "responsibility":1,
    "word":1,
    "lifting":1,
    "unlikely":1,
    "reviewed":1,
    "1609":1,
    "2400":1,
    "occluded":1,
    "stalled":1,
    "dakotas":1,
    "backed":1,
    "utah":1,
    "decides":1,
    "lakes":1,
    "plenty":1,
    "soupy":1,
    "southern":1,
    "tulsa":1,
    "checked":1,
    "terminal":1,
    "forecast":1,
    "winds":1,
    "aloft":1,
    "ifr":1,
    "ceilings":1,
    "scattered":1,
    "cover":1,
    "icing":1,
    "eighteen":1,
    "original":1,
    "plan":1,
    "latest":1,
    "socked":1,
    "aboard":1,
    "expectations":1,
    "hoped":1,
    "miss":1,
    "whole":1,
    "boarded":1,
    "ticket":1,
    "baggage":1,
    "nonsmoking":1,
    "fourteenb":1,
    "halfway":1,
    "el":1,
    "smoko":1,
    "putana":1,
    "da":1,
    "seatbeltz":1,
    "myselfduring":1,
    "taking":1,
    "fasten":1,
    "tight":1,
    "advice":1,
    "ground":1,
    "loaded":1,
    "picture":1,
    "fat":1,
    "request":1,
    "vectorover":1,
    "clearance":1,
    "leaflet":1,
    "famous":1,
    "jewish":1,
    "sports":1,
    "legends":1,
    "youyou":1,
    "wonder":1,
    "upset":1,
    "figure":1,
    "supple":1,
    "pouting":1,
    "breasts":1,
    "firm":1,
    "thighs":1,
    "shame":1,
    "met":1,
    "laughed":1,
    "talked":1,
    "danced":1,
    "hasnt":1,
    "boring":1,
    "carried":1,
    "track":1,
    "unlike":1,
    "oliver":1,
    "jesus":1,
    "passing":1,
    "corfee":1,
    "cream":1,
    "black":1,
    "vacationing":1,
    "vacation":1,
    "teacher":1,
    "york":1,
    "city":1,
    "school":1,
    "attending":1,
    "seminar":1,
    "visual":1,
    "aids":1,
    "la":1,
    "washington":1,
    "dc":1,
    "lobbyist":1,
    "small":1,
    "businessmens":1,
    "assocation":1,
    "busy":1,
    "aw":1,
    "whiz":1,
    "thatd":1,
    "swell":1,
    "gentlemen":1,
    "dinners":1,
    "months":1,
    "drive":1,
    "coast":1,
    "seafood":1,
    "ships":1,
    "leading":1,
    "visitor":1,
    "johnson":1,
    "heres":1,
    "visitors":1,
    "grown":1,
    "naked":1,
    "ot":1,
    "while":1,
    "hed":1,
    "climbing":1,
    "cruise":1,
    "fortytwo":1,
    "abdul":1,
    "jabbar":1,
    "lakers":1,
    "confused":1,
    "coordinates":1,
    "ratio":1,
    "velocity":1,
    "dads":1,
    "season":1,
    "bothering":1,
    "according":1,
    "calculations":1,
    "tailwind":1,
    "additional":1,
    "rockies":1,
    "greatest":1,
    "hard":1,
    "defense":1,
    "twozero":1,
    "intersecting":1,
    "airway":1,
    "turning":1,
    "playoffs":1,
    "busting":1,
    "hearing":1,
    "crap":1,
    "ucla":1,
    "old":1,
    "drag":1,
    "unseld":1,
    "lanier":1,
    "fortyeight":1,
    "ahdenver":1,
    "zeroniner":1,
    "continuing":1,
    "ninerninerniner":1,
    "ahninerniner":1,
    "differentlike":1,
    "memories":1,
    "mostly":1,
    "rememberthe":1,
    "nights":1,
    "meand":1,
    "wriggleand":1,
    "afterwards":1,
    "sun":1,
    "likelike":1,
    "createdonly":1,
    "insist":1,
    "pentathol":1,
    "available":1,
    "telegram":1,
    "head\ufffdquarters":1,
    "today":1,
    "headquarters":1,
    "generals":1,
    "meet":1,
    "cleared":1,
    "news":1,
    "mistake":1,
    "return":1,
    "lieutenant":1,
    "morning":1,
    "sandler":1,
    "expects":1,
    "immediately":1,
    "apartment":1,
    "brick":1,
    "fireplace":1,
    "cute":1,
    "bedroom":1,
    "mirrors":1,
    "ceiling":1,
    "geline":1,
    "fighting":1,
    "lieutennt":1,
    "hurwitz":1,
    "shell":1,
    "shock":1,
    "merman":1,
    "either":1,
    "jim":1,
    "sister":1,
    "whos":1,
    "borrow":1,
    "cheer":1,
    "daughter":1,
    "song":1,
    "favorites":1,
    "traveled":1,
    "banks":1,
    "jordan":1,
    "eyes":1,
    "cold":1,
    "hungry":1,
    "purpose":1,
    "means":1,
    "silence":1,
    "listened":1,
    "voices":1,
    "spirit":1,
    "father":1,
    "dawn":1,
    "creation":1,
    "waiting":1,
    "hows":1,
    "stuff":1,
    "climb":1,
    "holding":1,
    "autograph":1,
    "far":1,
    "joined":1,
    "peace":1,
    "assigned":1,
    "isolated":1,
    "tribe":1,
    "molombos":1,
    "also":1,
    "supperware":1,
    "ideal":1,
    "storing":1,
    "leftovers":1,
    "stretch":1,
    "dollar":1,
    "quart":1,
    "sealsmrite":1,
    "container":1,
    "closemtite":1,
    "lid":1,
    "keeps":1,
    "hotdog":1,
    "fresh":1,
    "prevents":1,
    "sugared":1,
    "cereals":1,
    "sticking":1,
    "meat":1,
    "dairy":1,
    "protected":1,
    "unwanted":1,
    "odors":1,
    "sealed":1,
    "nonslip":1,
    "pastel":1,
    "colored":1,
    "freezoleer":1,
    "hang":1,
    "reenlist":1,
    "teach":1,
    "states":1,
    "jobswell":1,
    "bore":1,
    "stomach":1,
    "awful":1,
    "dramamine":1,
    "oooooo":1,
    "women":1,
    "airsick":1,
    "acute":1,
    "quietly":1,
    "turkish":1,
    "prison":1,
    "oooh":1,
    "tongue":1,
    "gotten":1,
    "patients":1,
    "omaha":1,
    "wellnot":1,
    "fog":1,
    "closed":1,
    "side":1,
    "mountains":1,
    "happening":1,
    "festival":1,
    "choice":1,
    "lasagna":1,
    "worried":1,
    "meanwhile":1,
    "alarmed":1,
    "cases":1,
    "eat":1,
    "become":1,
    "violently":1,
    "extremely":1,
    "fever":1,
    "dryness":1,
    "throat":1,
    "virus":1,
    "penetrates":1,
    "blood":1,
    "cells":1,
    "victim":1,
    "becomes":1,
    "dizzy":1,
    "begins":1,
    "rash":1,
    "itching":1,
    "poison":1,
    "works":1,
    "central":1,
    "muscle":1,
    "spasms":1,
    "followed":1,
    "inevitable":1,
    "drooling":1,
    "entire":1,
    "digestive":1,
    "rendered":1,
    "useless":1,
    "complete":1,
    "collapse":1,
    "lower":1,
    "bowels":1,
    "accompanied":1,
    "uncontrollable":1,
    "flatulenceuntil":1,
    "finally":1,
    "bastard":1,
    "reduced":1,
    "quivering":1,
    "wasted":1,
    "piece":1,
    "jelly":1,
    "turnonautomatic":1,
    "uh":1,
    "pilotautomatic":1,
    "floor":1,
    "terrible":1,
    "standing":1,
    "sal":1,
    "mineo":1,
    "per":1,
    "thirtyfour":1,
    "god":1,
    "deflating":1,
    "member":1,
    "unpleasant":1,
    "saving":1,
    "lives":1,
    "depends":1,
    "finding":1,
    "carey":1,
    "sitsit":1,
    "fill":1,
    "details":1,
    "wellthe":1,
    "businessdoes":1,
    "moments":1,
    "afterawhileyou":1,
    "excited":1,
    "imin":1,
    "aarghnavigator":1,
    "training":1,
    "program":1,
    "unbelievable":1,
    "warned":1,
    "inspection":1,
    "management":1,
    "faa":1,
    "airlines":1,
    "cheats":1,
    "liars":1,
    "bother":1,
    "village":1,
    "raining":1,
    "main":1,
    "road":1,
    "fact":1,
    "lucky":1,
    "broke":1,
    "bad":1,
    "axle":1,
    "wondering":1,
    "room":1,
    "officer":1,
    "planes":1,
    "whiskey":1,
    "maam":1,
    "am":1,
    "singleengine":1,
    "fighters":1,
    "force":1,
    "engines":1,
    "flyingall":1,
    "touched":1,
    "\ufffdkind":1,
    "possibly":1,
    "roll":1,
    "flameout":1,
    "24000":1,
    "shot":1,
    "guy":1,
    "easier":1,
    "crack":1,
    "type":1,
    "perform":1,
    "casualty":1,
    "lists":1,
    "upshot":1,
    "pieces":1,
    "particular":1,
    "twentyfour":1,
    "sixty":1,
    "trim":1,
    "mixture":1,
    "balance":1,
    "gently":1,
    "desperate":1,
    "situation":1,
    "thrust":1,
    "mayday":1,
    "russian":1,
    "parade":1,
    "theyll":1,
    "hors":1,
    "doeuvres":1,
    "phone":1,
    "without":1,
    "remembering":1,
    "werent":1,
    "topnotch":1,
    "feeling":1,
    "upstairs":1,
    "strikers":1,
    "fold":1,
    "speaker":1,
    "loud":1,
    "obvious":1,
    "forget":1,
    "bucket":1,
    "build":1,
    "confidence":1,
    "multiengine":1,
    "shit":1,
    "close":1,
    "riding":1,
    "bicycleit":1,
    "harder":1,
    "cards":1,
    "spokes":1,
    "follow":1,
    "instructions":1,
    "familiarize":1,
    "procedure":1,
    "disengage":1,
    "violent":1,
    "movement":1,
    "spitfires":1,
    "phantoms":1,
    "unlock":1,
    "radios":1,
    "yours":1,
    "rain":1,
    "hate":1,
    "hates":1,
    "oooooooh":1,
    "cain":1,
    "fi":1,
    "cun":1,
    "jive":1,
    "medicine":1,
    "chitlun":1,
    "neba":1,
    "telephone":1,
    "flowers":1,
    "honey":1,
    "warm":1,
    "fifth":1,
    "makes":1,
    "part":1,
    "pairwhen":1,
    "socially":1,
    "expected":1,
    "stopped":1,
    "talking":1,
    "afraid":1,
    "smart":1,
    "became":1,
    "involved":1,
    "marriage":1,
    "fool":1,
    "believing":1,
    "nobody":1,
    "having":1,
    "discussing":1,
    "economyand":1,
    "others":1,
    "namesfull":1,
    "names":1,
    "schiff":1,
    "miltonmilt":1,
    "ettenhenim":1,
    "friends":1,
    "bubbles":1,
    "ooooh":1,
    "such":1,
    "hat":1,
    "broach":1,
    "missus":1,
    "door":1,
    "juice":1,
    "finish":1,
    "concerned":1,
    "performance":1,
    "nursing":1,
    "burpie":1,
    "nap":1,
    "worse":1,
    "true":1,
    "illslightly":1,
    "fine":1,
    "schedule":1,
    "safe":1,
    "free":1,
    "pursue":1,
    "religious":1,
    "fulfillment":1,
    "radar":1,
    "chief":1,
    "impossible":1,
    "instruments":1,
    "sweat":1,
    "provolone":1,
    "roast":1,
    "beef":1,
    "florence":1,
    "henderson":1,
    "knows":1,
    "returning":1,
    "montgomery":1,
    "ward":1,
    "striken":1,
    "airliner":1,
    "approaches":1,
    "shana":1,
    "bought":1,
    "deceive":1,
    "calling":1,
    "helpless":1,
    "baby":1,
    "askin":1,
    "twentysix":1,
    "lorison":1,
    "idea":1,
    "bearing":1,
    "honest":1,
    "least":1,
    "fire":1,
    "own":1,
    "power":1,
    "belly":1,
    "simple":1,
    "smearin":1,
    "himself":1,
    "shots":1,
    "wheels":1,
    "foam":1,
    "tear":1,
    "mans":1,
    "rats":1,
    "wrong":1,
    "forgot":1,
    "hears":1,
    "shits":1,
    "hit":1,
    "fan":1,
    "temperature":1,
    "itself":1,
    "barbara":1,
    "stanwyck":1,
    "crazy":1,
    "theyd":1,
    "whod":1,
    "liz":1,
    "taylor":1,
    "larger":1,
    "reach":1,
    "save":1,
    "breath":1,
    "medical":1,
    "duty":1,
    "badly":1,
    "wounded":1,
    "brought":1,
    "barely":1,
    "odds":1,
    "anyway":1,
    "decision":1,
    "sometime":1,
    "breaks":1,
    "beating":1,
    "boys":1,
    "zipper":1,
    "smell":1,
    "critical":1,
    "condition":1,
    "counts":1,
    "dice":1,
    "giving":1,
    "ini":1,
    "foots":1,
    "hand":1,
    "ship":1,
    "command":1,
    "charge":1,
    "boss":1,
    "dog":1,
    "cheese":1,
    "honcho":1,
    "sale":1,
    "pennys":1,
    "neubauer":1,
    "macias":1,
    "john":1,
    "tree":1,
    "wagon":1,
    "train":1,
    "comes":1,
    "assume":1,
    "jackets":1,
    "located":1,
    "mccroskey":1,
    "relay":1,
    "traffic":1,
    "finger":1,
    "fingers":1,
    "decide":1,
    "longest":1,
    "directly":1,
    "wind":1,
    "foliage":1,
    "acknowledge":1,
    "transmission":1,
    "gerald":1,
    "ford":1,
    "dress":1,
    "sore":1,
    "slightly":1,
    "poured":1,
    "vehicles":1,
    "civilian":1,
    "toto":1,
    "auntie":1,
    "nine":1,
    "thirteen":1,
    "asshole":1,
    "erratic":1,
    "straight":1,
    "fuel":1,
    "break":1,
    "less":1,
    "bend":1,
    "precious":1,
    "putting":1,
    "mr":1,
    "leave":1,
    "sweetheart":1,
    "proud":1,
    "itbut":1,
    "uswell":1,
    "alone":1,
    "spent":1,
    "pleasant":1,
    "compliment":1,
    "thatyouve":1,
    "strikerhold":1,
    "present":1,
    "flap":1,
    "below":1,
    "675":1,
    "650":1,
    "625":1,
    "600":1,
    "final":1,
    "switch":1,
    "above":1,
    "knee":1,
    "carefully":1,
    "aim":1,
    "touchdown":1,
    "third":1,
    "crosswind":1,
    "use":1,
    "cut":1,
    "ignition":1,
    "copilots":1,
    "uhhuh":1,
    "quiet":1,
    "alarm":1,
    "everybody":1,
    "twentyfive":1,
    "thirty":1,
    "kidding":1,
    "forty":1,
    "stuck":1,
    "move":1,
    "flare":1,
    "ease":1,
    "lift":1,
    "brake":1,
    "lever":1,
    "button":1,
    "hotel":1,
    "accommodations":1,
    "rentacar":1,
    "west":1,
    "wing":1,
    "view":1,
    "degas":1,
    "lousiest":1,
    "lonliness":1,
    "bottom":1,
    "line":1,
    "fall":1,
    "mud":1,
    "kicked":1,
    "iron":1,
    "boot":1,
    "dumb":1,
    "strike":1,
    "fred":2,
    "hey":2,
    "taxi":2,
    "later":2,
    "tried":2,
    "last":2,
    "passenger":2,
    "lisa":2,
    "route":2,
    "shes":2,
    "mother":2,
    "promise":2,
    "offered":2,
    "boeing":2,
    "history":2,
    "expect":2,
    "believe":2,
    "hurt":2,
    "shows":2,
    "storm":2,
    "salt":2,
    "lake":2,
    "area":2,
    "push":2,
    "around":2,
    "double":2,
    "looks":2,
    "bet":2,
    "lincoln":2,
    "wasnt":2,
    "write":2,
    "dickinson":2,
    "smoking":2,
    "lots":2,
    "exciting":2,
    "taken":2,
    "send":2,
    "huh":2,
    "vector":2,
    "lovely":2,
    "along":2,
    "selection":2,
    "end":2,
    "lose":2,
    "los":2,
    "angeles":2,
    "education":2,
    "steak":2,
    "wife":2,
    "dad":2,
    "gee":2,
    "arrange":2,
    "knew":2,
    "happy":2,
    "past":2,
    "few":2,
    "place":2,
    "matter":2,
    "orders":2,
    "squadron":2,
    "mission":2,
    "careful":2,
    "thanks":2,
    "radio":2,
    "kareem":2,
    "play":2,
    "basketball":2,
    "direct":2,
    "engine":2,
    "tickets":2,
    "ought":2,
    "fifteen":2,
    "ninerniner":2,
    "court":2,
    "try":2,
    "buns":2,
    "kid":2,
    "beginning":2,
    "until":2,
    "almost":2,
    "always":2,
    "living":2,
    "building":2,
    "blame":2,
    "died":2,
    "week":2,
    "thinks":2,
    "problem":2,
    "severe":2,
    "ethel":2,
    "serve":2,
    "poor":2,
    "child":2,
    "guitar":2,
    "river":2,
    "sea":2,
    "looked":2,
    "inside":2,
    "bit":2,
    "wants":2,
    "ahead":2,
    "heavy":2,
    "airspeed":2,
    "ten":2,
    "knots":2,
    "asked":2,
    "corps":2,
    "products":2,
    "food":2,
    "days":2,
    "refrigerator":2,
    "baseball":2,
    "plans":2,
    "probably":2,
    "career":2,
    "lina":2,
    "wertmuller":2,
    "film":2,
    "second":2,
    "wake":2,
    "next":2,
    "pain":2,
    "speak":2,
    "certainly":2,
    "speaking":2,
    "enjoy":2,
    "trouble":2,
    "husband":2,
    "moment":2,
    "navigator":2,
    "half":2,
    "starts":2,
    "slight":2,
    "causing":2,
    "point":2,
    "passed":2,
    "hells":2,
    "facts":2,
    "chances":2,
    "paul":2,
    "pick":2,
    "rex":2,
    "happen":2,
    "begin":2,
    "gets":2,
    "jeep":2,
    "ya":2,
    "surely":2,
    "call":2,
    "shirley":2,
    "entirely":2,
    "besides":2,
    "leader":2,
    "certain":2,
    "under":2,
    "level":2,
    "trying":2,
    "flaps":2,
    "year":2,
    "mind":2,
    "clear":2,
    "than":2,
    "happens":2,
    "eye":2,
    "ice":2,
    "sluggish":2,
    "wet":2,
    "sponge":2,
    "damn":2,
    "fo":2,
    "sho":2,
    "shi":2,
    "mo":2,
    "ain":2,
    "being":2,
    "burning":2,
    "wheel":2,
    "function":2,
    "business":2,
    "married":2,
    "easy":2,
    "answer":2,
    "mines":2,
    "eleanor":2,
    "soft":2,
    "glad":2,
    "panic":2,
    "bell":2,
    "sound":2,
    "range":2,
    "gunderson":2,
    "christmas":2,
    "equipment":2,
    "thoughts":2,
    "done":2,
    "win":2,
    "die":2,
    "rapunzel":2,
    "ask":2,
    "positions":2,
    "colosimo":2,
    "hinshaw":2,
    "gatz":2,
    "message":2,
    "field":2,
    "twister":2,
    "til":2,
    "case":2,
    "full":2,
    "stick":2,
    "brakes":2,
    "switches":2,
    "nose":2,
    "pull":2,
    "does":2,
    "jack":3,
    "came":3,
    "home":3,
    "found":3,
    "patient":3,
    "feel":3,
    "most":3,
    "respect":3,
    "girl":3,
    "heart":3,
    "wed":3,
    "within":3,
    "kept":3,
    "look":3,
    "tomorrow":3,
    "night":3,
    "run":3,
    "yet":3,
    "job":3,
    "airplane":3,
    "because":3,
    "record":3,
    "everyone":3,
    "else":3,
    "late":3,
    "report":3,
    "front":3,
    "top":3,
    "light":3,
    "twenty":3,
    "best":3,
    "son":3,
    "nervous":3,
    "times":3,
    "rest":3,
    "relax":3,
    "hurry":3,
    "shouldnt":3,
    "thought":3,
    "ah":3,
    "system":3,
    "order":3,
    "may":3,
    "these":3,
    "hello":3,
    "hammen":3,
    "special":3,
    "lot":3,
    "wait":3,
    "copilot":3,
    "seat":3,
    "anyone":3,
    "airline":3,
    "left":3,
    "except":3,
    "hell":3,
    "hear":3,
    "face":3,
    "each":3,
    "theyve":3,
    "raid":3,
    "wish":3,
    "same":3,
    "cup":3,
    "saw":3,
    "youd":3,
    "flows":3,
    "looking":3,
    "told":3,
    "rough":3,
    "unless":3,
    "steady":3,
    "possible":3,
    "theyre":3,
    "made":3,
    "felt":3,
    "nothing":3,
    "woman":3,
    "quickly":3,
    "red":3,
    "lost":3,
    "thirtyfive":3,
    "their":3,
    "shep":3,
    "emergency":3,
    "kind":3,
    "person":3,
    "chance":3,
    "risk":3,
    "went":3,
    "hot":3,
    "gonna":3,
    "pretty":3,
    "other":3,
    "controls":3,
    "guts":3,
    "gwine":3,
    "question":3,
    "drink":3,
    "em":3,
    "crash":3,
    "stop":3,
    "dead":3,
    "scared":3,
    "boy":3,
    "oil":3,
    "roberts":3,
    "ear":3,
    "throttle":3,
    "counting":3,
    "low":3,
    "maybe":4,
    "minute":4,
    "wouldnt":4,
    "hour":4,
    "ago":4,
    "six":4,
    "she":4,
    "five":4,
    "truth":4,
    "real":4,
    "murdock":4,
    "crew":4,
    "control":4,
    "worry":4,
    "need":4,
    "flown":4,
    "enough":4,
    "hope":4,
    "away":4,
    "happened":4,
    "might":4,
    "nice":4,
    "sit":4,
    "new":4,
    "cockpit":4,
    "wonderful":4,
    "check":4,
    "speed":4,
    "seven":4,
    "together":4,
    "big":4,
    "george":4,
    "against":4,
    "number":4,
    "couldnt":4,
    "myself":4,
    "hospital":4,
    "running":4,
    "mean":4,
    "rumack":4,
    "ate":4,
    "serious":4,
    "experience":4,
    "automatic":4,
    "miles":4,
    "dropping":4,
    "fly":4,
    "understand":4,
    "flew":4,
    "air":4,
    "four":4,
    "years":4,
    "doesnt":4,
    "gear":4,
    "turn":4,
    "lights":4,
    "calm":4,
    "handle":4,
    "reason":4,
    "doc":4,
    "head":4,
    "tower":4,
    "eight":4,
    "our":5,
    "yeah":5,
    "read":5,
    "work":5,
    "help":5,
    "able":5,
    "start":5,
    "life":5,
    "denver":5,
    "still":5,
    "weather":5,
    "day":5,
    "has":5,
    "or":5,
    "first":5,
    "off":5,
    "twozeroniner":5,
    "keep":5,
    "during":5,
    "men":5,
    "pilots":5,
    "important":5,
    "seen":5,
    "stay":5,
    "altitude":5,
    "find":5,
    "minutes":5,
    "zero":5,
    "zipp":5,
    "course":5,
    "randy":5,
    "tonight":5,
    "bring":5,
    "stand":5,
    "steve":5,
    "youve":5,
    "those":5,
    "airport":5,
    "pressure":5,
    "luck":5,
    "isnt":6,
    "hi":6,
    "guess":6,
    "more":6,
    "even":6,
    "takes":6,
    "many":6,
    "oveur":6,
    "her":6,
    "sure":6,
    "give":6,
    "really":6,
    "since":6,
    "them":6,
    "again":6,
    "through":6,
    "into":6,
    "great":6,
    "bill":6,
    "every":6,
    "board":6,
    "used":6,
    "soon":6,
    "after":6,
    "getting":6,
    "excuse":6,
    "mister":6,
    "someone":6,
    "should":6,
    "says":6,
    "heading":6,
    "didnt":6,
    "coffee":6,
    "both":6,
    "runway":6,
    "put":7,
    "talk":7,
    "different":7,
    "youll":7,
    "let":7,
    "anything":7,
    "love":7,
    "ready":7,
    "must":7,
    "then":7,
    "whats":7,
    "clarence":7,
    "victor":7,
    "way":7,
    "where":7,
    "thousand":7,
    "everything":7,
    "better":7,
    "id":7,
    "sir":7,
    "doing":7,
    "come":7,
    "ever":7,
    "name":7,
    "niner":7,
    "listen":7,
    "sick":7,
    "three":7,
    "said":7,
    "much":8,
    "long":8,
    "watch":8,
    "why":8,
    "sorry":8,
    "darling":8,
    "okay":8,
    "us":8,
    "his":8,
    "weve":8,
    "by":8,
    "thing":8,
    "fast":8,
    "coming":8,
    "please":9,
    "things":9,
    "dinner":9,
    "did":9,
    "remember":9,
    "goodbye":9,
    "care":9,
    "stewardess":9,
    "another":9,
    "joey":9,
    "flying":9,
    "before":9,
    "lets":9,
    "feet":9,
    "landing":9,
    "make":10,
    "man":10,
    "hours":10,
    "hold":10,
    "they":10,
    "some":10,
    "yourself":10,
    "never":10,
    "fish":10,
    "say":10,
    "passengers":10,
    "chicago":11,
    "want":11,
    "any":11,
    "havent":11,
    "wont":11,
    "only":11,
    "roger":11,
    "something":11,
    "wanted":11,
    "him":11,
    "hundred":11,
    "kramer":11,
    "go":12,
    "theres":12,
    "two":12,
    "people":12,
    "who":12,
    "thank":13,
    "flight":13,
    "little":13,
    "an":13,
    "from":13,
    "pilot":13,
    "very":14,
    "war":14,
    "could":14,
    "doctor":14,
    "land":14,
    "think":15,
    "going":15,
    "will":15,
    "would":15,
    "see":15,
    "hes":16,
    "how":16,
    "good":16,
    "cant":17,
    "had":17,
    "at":18,
    "ted":18,
    "been":18,
    "here":18,
    "as":18,
    "elaine":19,
    "time":19,
    "if":19,
    "about":19,
    "back":20,
    "not":20,
    "take":20,
    "youre":20,
    "too":20,
    "plane":20,
    "":21,
    "when":21,
    "over":22,
    "tell":22,
    "were":22,
    "he":23,
    "my":23,
    "thats":23,
    "ive":24,
    "with":25,
    "oh":25,
    "do":26,
    "yes":26,
    "down":26,
    "ill":26,
    "was":26,
    "striker":26,
    "got":27,
    "there":28,
    "dont":28,
    "out":28,
    "so":28,
    "captain":28,
    "well":28,
    "up":28,
    "like":32,
    "can":34,
    "one":35,
    "no":38,
    "just":38,
    "its":38,
    "are":38,
    "what":39,
    "your":40,
    "know":40,
    "now":40,
    "get":42,
    "right":43,
    "but":44,
    "im":46,
    "have":49,
    "be":51,
    "for":52,
    "me":53,
    "on":55,
    "this":57,
    "all":59,
    "that":60,
    "we":62,
    "in":72,
    "is":78,
    "of":82,
    "it":90,
    "and":107,
    "a":151,
    "to":190,
    "i":194,
    "you":208,
    "the":255
}