{
    "flash":1,
    "fox":1,
    "msnbc":1,
    "cbs":1,
    "espn":1,
    "fronted":1,
    "jennings":1,
    "brokaw":1,
    "aaron":1,
    "brown":1,
    "chung":1,
    "hundreds":1,
    "24":1,
    "bombarding":1,
    "endless":1,
    "list":1,
    "convince":1,
    "voices":1,
    "distant":1,
    "simpler":1,
    "less":1,
    "cynical":1,
    "believed":1,
    "cable":1,
    "viewers":1,
    "happy":1,
    "anchormen":1,
    "riot":1,
    "louie":1,
    "drops":1,
    "ground":1,
    "moves":1,
    "open":1,
    "sans":1,
    "jacket":1,
    "scotch":1,
    "rocks":1,
    "bottoms":1,
    "booze":1,
    "fanny":1,
    "handsome":1,
    "sports":1,
    "singing":1,
    "doowop":1,
    "ash":1,
    "sunglasses":1,
    "removes":1,
    "catches":1,
    "nah":1,
    "standard":1,
    "drunk":1,
    "pissed":1,
    "car":1,
    "supermarket":1,
    "bathroom":1,
    "freshen":1,
    "laugh":1,
    "karen":1,
    "clings":1,
    "university":1,
    "viciously":1,
    "attacked":1,
    "pack":1,
    "dogs":1,
    "abandoned":1,
    "1an":1,
    "china":1,
    "brazil":1,
    "continues":1,
    "evade":1,
    "frustrated":1,
    "3":1,
    "biker":1,
    "willie":1,
    "mccovey":1,
    "darrell":1,
    "knowles":1,
    "fist":1,
    "conclude":1,
    "evils":1,
    "breast":1,
    "feeding":1,
    "5the":1,
    "zoo":1,
    "giraffe":1,
    "named":1,
    "trailblazers":1,
    "themselves":1,
    "chuckle":1,
    "pleasant":1,
    "8shots":1,
    "unison":1,
    "felt":1,
    "limes":1,
    "grabbed":1,
    "key":1,
    "demographic":1,
    "congratugod":1,
    "damnlations":1,
    "pumping":1,
    "o":1,
    "losing":1,
    "ahhhh":1,
    "mmmrn":1,
    "eee":1,
    "deacon":1,
    "charley":1,
    "towns":1,
    "cute":1,
    "gals":1,
    "rated":1,
    "cannonball":1,
    "rock":1,
    "withers":1,
    "plays":1,
    "slow":1,
    "motion":1,
    "completely":1,
    "perfect":1,
    "member":1,
    "brought":1,
    "equation":1,
    "green":1,
    "silk":1,
    "dress":1,
    "bri":1,
    "stylish":1,
    "french":1,
    "jenny":1,
    "kwane":1,
    "talcum":1,
    "powder":1,
    "genitals":1,
    "colognes":1,
    "dig":1,
    "tequila":1,
    "baseball":1,
    "newscaster":1,
    "rival":1,
    "steve":1,
    "garvey":1,
    "everywhere":1,
    "whammies":1,
    "lchamp":1,
    "bridal":1,
    "gown":1,
    "closet":1,
    "yell":1,
    "orgasm":1,
    "knock":1,
    "mans":1,
    "cake":1,
    "2":1,
    "tears":1,
    "streaming":1,
    "cheeks":1,
    "priest":1,
    "father":1,
    "toaster":1,
    "fork":1,
    "rarely":1,
    "late":1,
    "ice":1,
    "cream":1,
    "pair":1,
    "slacks":1,
    "years":1,
    "iq":1,
    "48":1,
    "mentally":1,
    "retarded":1,
    "excheerleader":1,
    "runs":1,
    "tanning":1,
    "salon":1,
    "sherri":1,
    "panties":1,
    "beard":1,
    "zeus":1,
    "dump":1,
    "approach":1,
    "rear":1,
    "certainly":1,
    "compliment":1,
    "medo":1,
    "fascinating":1,
    "both":1,
    "deal":1,
    "urges":1,
    "misread":1,
    "vibe":1,
    "orgy":1,
    "cabs":1,
    "papas":1,
    "matter":1,
    "met":1,
    "fleeting":1,
    "billy":1,
    "doth":1,
    "fly":1,
    "poop":1,
    "refridgerator":1,
    "clever":1,
    "forgive":1,
    "pjs":1,
    "ooooh":1,
    "piss":1,
    "marry":1,
    "pudgey":1,
    "charla":1,
    "candle":1,
    "chasing":1,
    "train":1,
    "derailment":1,
    "eugene":1,
    "defaced":1,
    "masterpieces":1,
    "slogans":1,
    "pan":1,
    "officers":1,
    "detectives":1,
    "reporters":1,
    "paintings":1,
    "monets":1,
    "lillies":1,
    "spray":1,
    "painted":1,
    "suerat":1,
    "gogh":1,
    "self":1,
    "portrait":1,
    "added":1,
    "goghs":1,
    "picassos":1,
    "underrated":1,
    "storys":1,
    "gaining":1,
    "steam":1,
    "coverage":1,
    "whaa":1,
    "networks":1,
    "mentioned":1,
    "taxi":1,
    "hearing":1,
    "bitching":1,
    "affiliates":1,
    "hells":1,
    "mustard":1,
    "newest":1,
    "addition":1,
    "kyw":1,
    "wrjk":1,
    "asheville":1,
    "carolina":1,
    "striking":1,
    "foot":1,
    "conference":1,
    "engorged":1,
    "law":1,
    "contributing":1,
    "sterling":1,
    "reputation":1,
    "finest":1,
    "regional":1,
    "womens":1,
    "gossip":1,
    "welcome":1,
    "bullcrap":1,
    "belong":1,
    "somewhere":1,
    "jeopardy":1,
    "barbeque":1,
    "sauce":1,
    "butt":1,
    "awooo":1,
    "munchmunchmunchmunchmunch":1,
    "awkward":1,
    "silence":1,
    "wondering":1,
    "afternoon":1,
    "carpet":1,
    "anchorlady":1,
    "scientific":1,
    "saucy":1,
    "rumpy":1,
    "rump":1,
    "awooooooooo":1,
    "situation":1,
    "rita":1,
    "ganken":1,
    "outside":1,
    "houston":1,
    "drawl":1,
    "family":1,
    "sit":1,
    "buck":1,
    "stops":1,
    "secret":1,
    "diet":1,
    "cigarettes":1,
    "tab":1,
    "ambition":1,
    "excell":1,
    "frier":1,
    "slaw":1,
    "gravy":1,
    "munchmunchmunch":1,
    "caress":1,
    "stevens":1,
    "concert":1,
    "heyoo":1,
    "isnt":1,
    "clothes":1,
    "salvation":1,
    "army":1,
    "sale":1,
    "toilet":1,
    "bust":1,
    "rot":1,
    "hole":1,
    "helicopter":1,
    "map":1,
    "clowns":1,
    "spice":1,
    "weiner":1,
    "finishing":1,
    "uncalled":1,
    "systems":1,
    "flawed":1,
    "buddies":1,
    "sharing":1,
    "enjoying":1,
    "friendship":1,
    "someday":1,
    "fondness":1,
    "faced":1,
    "seated":1,
    "sits":1,
    "23":1,
    "surrounded":1,
    "wirey":1,
    "genius":1,
    "glasses":1,
    "tall":1,
    "imposing":1,
    "mexican":1,
    "american":1,
    "deedra":1,
    "26":1,
    "muscular":1,
    "25":1,
    "ring":1,
    "corruption":1,
    "chain":1,
    "ourselves":1,
    "gates":1,
    "portlandwashington":1,
    "else":1,
    "nows":1,
    "stated":1,
    "writing":1,
    "diseminated":1,
    "until":1,
    "wound":1,
    "rob":1,
    "stolen":1,
    "marcos":1,
    "exits":1,
    "low":1,
    "traffic":1,
    "lay":1,
    "hammock":1,
    "backrubs":1,
    "phase":1,
    "gotten":1,
    "ahold":1,
    "argentinian":1,
    "porn":1,
    "agree":1,
    "act":1,
    "tapir":1,
    "refuses":1,
    "assigned":1,
    "send":1,
    "interviewed":1,
    "ted":1,
    "kennedy":1,
    "happening":1,
    "hats":1,
    "holes":1,
    "tails":1,
    "mister":1,
    "cup":1,
    "clumsy":1,
    "filet":1,
    "sole":1,
    "dragon":1,
    "lodon":1,
    "panther":1,
    "illegal":1,
    "sweetheart":1,
    "extend":1,
    "invite":1,
    "homo":1,
    "desire":1,
    "mlady":1,
    "watering":1,
    "wrapped":1,
    "rank":1,
    "rotte":1,
    "shrimp":1,
    "mommy":1,
    "scared":1,
    "cameraman":1,
    "bathing":1,
    "lesbo":1,
    "ball":1,
    "buster":1,
    "quote":1,
    "sometimes":1,
    "save":1,
    "doggy":1,
    "bag":1,
    "sandwiches":1,
    "wants":1,
    "pumped":1,
    "reaches":1,
    "flex":1,
    "pardon":1,
    "feeblest":1,
    "encountered":1,
    "ashamed":1,
    "offended":1,
    "gym":1,
    "sculpt":1,
    "helping":1,
    "wounded":1,
    "thati":1,
    "covering":1,
    "date":1,
    "strickly":1,
    "false":1,
    "program":1,
    "smitten":1,
    "relationships":1,
    "feeling":1,
    "downtown":1,
    "unidentified":1,
    "individuals":1,
    "prominant":1,
    "costume":1,
    "shop":1,
    "case":1,
    "passerby":1,
    "stench":1,
    "plumbers":1,
    "rancid":1,
    "proves":1,
    "yet":1,
    "blind":1,
    "falcon":1,
    "happiness":1,
    "typed":1,
    "whatever":1,
    "prompter":1,
    "mistake":1,
    "strictly":1,
    "comes":1,
    "aleecia":1,
    "aleeecia":1,
    "angel":1,
    "dynamite":1,
    "wed":1,
    "birds":1,
    "eye":1,
    "earth":1,
    "excellent":1,
    "tune":1,
    "spicial":1,
    "driving":1,
    "makes":1,
    "nervous":1,
    "captivating":1,
    "eyes":1,
    "unicorn":1,
    "princess":1,
    "grand":1,
    "mtnmmrnmrn":1,
    "smooth":1,
    "covers":1,
    "beautiful":1,
    "yesterday":1,
    "prettier":1,
    "tinos":1,
    "exciting":1,
    "another":1,
    "wonderful":1,
    "delinquint":1,
    "landlords":1,
    "heat":1,
    "october":1,
    "eleventh":1,
    "speckles":1,
    "paula":1,
    "tran":1,
    "treasure":1,
    "impressed":1,
    "seems":1,
    "responsibility":1,
    "club":1,
    "owner":1,
    "honored":1,
    "diddy":1,
    "woo":1,
    "east":1,
    "broadway":1,
    "rundown":1,
    "eflat":1,
    "cymbals":1,
    "splashy":1,
    "base":1,
    "walk":1,
    "scee":1,
    "bo":1,
    "ba":1,
    "dop":1,
    "learn":1,
    "passions":1,
    "hopes":1,
    "dreams":1,
    "king":1,
    "australia":1,
    "tells":1,
    "lighteningquick":1,
    "cursed":1,
    "talent":1,
    "pursuits":1,
    "usually":1,
    "dominated":1,
    "drill":1,
    "sergeant":1,
    "butcher":1,
    "dunk":1,
    "aba":1,
    "range":1,
    "coach":1,
    "boys":1,
    "tried":1,
    "lumber":1,
    "jack":1,
    "laughed":1,
    "pa":1,
    "announcements":1,
    "hooked":1,
    "crying":1,
    "swore":1,
    "involved":1,
    "coworker":1,
    "werent":1,
    "coworkers":1,
    "copeople":1,
    "surprise":1,
    "viking":1,
    "yeahhh":1,
    "storming":1,
    "steed":1,
    "ecstasyville":1,
    "glorious":1,
    "feelings":1,
    "viewed":1,
    "apply":1,
    "seeing":1,
    "relatively":1,
    "quiet":1,
    "tasteful":1,
    "discretion":1,
    "game":1,
    "nasty":1,
    "yelled":1,
    "outta":1,
    "dental":1,
    "assistant":1,
    "barbados":1,
    "shoulders":1,
    "feet":1,
    "flag":1,
    "next":1,
    "laid":1,
    "style":1,
    "drying":1,
    "feline":1,
    "runway":1,
    "jinxy":1,
    "outfit":1,
    "rebel":1,
    "spelled":1,
    "signoff":1,
    "convention":1,
    "frames":1,
    "shot":1,
    "sees":1,
    "clerkpaul":1,
    "section":1,
    "staring":1,
    "nervously":1,
    "julius":1,
    "orange":1,
    "seconds":1,
    "present":1,
    "clockll":1,
    "carriagell":1,
    "begins":1,
    "owners":1,
    "spectators":1,
    "mall":1,
    "curiosity":1,
    "purrrfect":1,
    "harkston":1,
    "pull":1,
    "reveal":1,
    "currently":1,
    "creative":1,
    "partner":1,
    "bedroom":1,
    "thatll":1,
    "entire":1,
    "idiot":1,
    "thinks":1,
    "bimbo":1,
    "gal":1,
    "pal":1,
    "skeevy":1,
    "55":1,
    "leans":1,
    "gives":1,
    "thumbs":1,
    "congrats":1,
    "gettin":1,
    "biggest":1,
    "yellow":1,
    "turf":1,
    "teams":1,
    "10":1,
    "buildingthe":1,
    "impala":1,
    "spinning":1,
    "unmoved":1,
    "thirty":1,
    "eight":1,
    "forgot":1,
    "fad":1,
    "called":1,
    "jogging":1,
    "bottom":1,
    "spending":1,
    "dare":1,
    "papa":1,
    "brians":1,
    "chick":1,
    "setting":1,
    "babies":1,
    "shore":1,
    "cleaning":1,
    "emmies":1,
    "preparing":1,
    "dinner":1,
    "whoopie":1,
    "drinking":1,
    "ride":1,
    "horses":1,
    "mountain":1,
    "whammee":1,
    "crawled":1,
    "chinese":1,
    "broke":1,
    "beatles":1,
    "lee":1,
    "forgave":1,
    "dawson":1,
    "prefer":1,
    "refer":1,
    "filthy":1,
    "close":1,
    "turning":1,
    "parent":1,
    "youngest":1,
    "caught":1,
    "joy":1,
    "riding":1,
    "sheet":1,
    "acid":1,
    "spear":1,
    "kids":1,
    "challenging":1,
    "shall":1,
    "receive":1,
    "103":1,
    "nederville":1,
    "claims":1,
    "recipe":1,
    "worlds":1,
    "meatloaf":1,
    "investigate":1,
    "vandalized":1,
    "robbing":1,
    "threatening":1,
    "sue":1,
    "baxters":1,
    "monkeylungs":1,
    "whips":1,
    "apple":1,
    "motorcyclist28":1,
    "wipes":1,
    "cleopatra":1,
    "bikes":1,
    "taking":1,
    "terrier":1,
    "lung":1,
    "transplant":1,
    "elsewhere":1,
    "emmy":1,
    "award":1,
    "winning":1,
    "gave":1,
    "autograph":1,
    "glad":1,
    "wrecked":1,
    "bike":1,
    "somuch":1,
    "marches":1,
    "noooooooooooooooooooooo":1,
    "11":1,
    "ronalicia":1,
    "personal":1,
    "crime":1,
    "hasnt":1,
    "career":1,
    "pro":1,
    "treated":1,
    "practicing":1,
    "ahhherghhhhhhh":1,
    "aaaerrrraggggahhhhhhhhhhhh":1,
    "happened":1,
    "shoot":1,
    "raped":1,
    "gain":1,
    "control":1,
    "ahhhhhhhhhhhhhh":1,
    "argfghtghh":1,
    "cancel":1,
    "early":1,
    "disregard":1,
    "movie":1,
    "orharken":1,
    "decided":1,
    "eds":1,
    "excellence":1,
    "preasure":1,
    "slip":1,
    "sent":1,
    "major":1,
    "newspapers":1,
    "publisize":1,
    "fbi":1,
    "investigating":1,
    "goods":1,
    "officer":1,
    "survived":1,
    "initial":1,
    "chopped":1,
    "sewage":1,
    "treatment":1,
    "turbines":1,
    "eels":1,
    "hacked":1,
    "recreational":1,
    "boat":1,
    "propellers":1,
    "rings":1,
    "saturn":1,
    "sprinting":1,
    "winner":1,
    "contest":1,
    "hoppy":1,
    "kissed":1,
    "leaping":1,
    "thanks":1,
    "stopping":1,
    "sign":1,
    "bursts":1,
    "incredibly":1,
    "breath":1,
    "whaaa":1,
    "terrible":1,
    "twisted":1,
    "nightmare":1,
    "proud":1,
    "peer":1,
    "clapping":1,
    "room":1,
    "selfish":1,
    "cared":1,
    "cheap":1,
    "cue":1,
    "awfully":1,
    "nights":1,
    "received":1,
    "boost":1,
    "decision":1,
    "passed":1,
    "mention":1,
    "chances":1,
    "aarghhh":1,
    "female":1,
    "fool":1,
    "empire":1,
    "building":1,
    "body":1,
    "recovered":1,
    "memorial":1,
    "service":1,
    "san":1,
    "francisco":1,
    "lovely":1,
    "bay":1,
    "lron":1,
    "2ron":1,
    "3ron":1,
    "reports":1,
    "fifty":1,
    "percent":1,
    "girlie":1,
    "settled":1,
    "declare":1,
    "war":1,
    "eating":1,
    "delicious":1,
    "falafel":1,
    "hotdogs":1,
    "cinnamon":1,
    "bacon":1,
    "exist":1,
    "filter":1,
    "cigarette":1,
    "butts":1,
    "food":1,
    "although":1,
    "cooking":1,
    "difference":1,
    "united":1,
    "magical":1,
    "wreck":1,
    "moments":1,
    "antique":1,
    "basement":1,
    "christopher":1,
    "columbus":1,
    "hhimself":1,
    "dollars":1,
    "themansayshe":1,
    "willkeephisjobasacarwashattendent":1,
    "weird":1,
    "curious":1,
    "bones":1,
    "ladys":1,
    "boobs":1,
    "sore":1,
    "vaginalistic":1,
    "cells":1,
    "coanchors":1,
    "lower":1,
    "ignores":1,
    "crossing":1,
    "guards":1,
    "grenade":1,
    "rep":1,
    "don":1,
    "t":1,
    "whatre":1,
    "mehelp":1,
    "jesuswhy":1,
    "fill":1,
    "nixons":1,
    "sketchy":1,
    "stance":1,
    "bloodthirsty":1,
    "killers":1,
    "fullest":1,
    "seek":1,
    "cover":1,
    "frank":1,
    "aired":1,
    "exclusive":1,
    "nipple":1,
    "curse":1,
    "familiar":1,
    "talks":1,
    "donna":1,
    "unedited":1,
    "frumpy":1,
    "52":1,
    "tapes":1,
    "notes":1,
    "glare":1,
    "forehead":1,
    "potentially":1,
    "beverly":1,
    "combination":1,
    "skin":1,
    "agaisnt":1,
    "suddenly":1,
    "putting":1,
    "face":1,
    "farts":1,
    "acting":1,
    "joke":1,
    "aarghfgbhhhhhhhhhhhh":1,
    "charges":1,
    "puppet":1,
    "soooo":1,
    "divided":1,
    "downstairs":1,
    "storms":1,
    "curtain":1,
    "rod":1,
    "rice":1,
    "dynamic":1,
    "hitting":1,
    "rumor":1,
    "chance":1,
    "weekly":1,
    "feature":1,
    "primered":1,
    "duster":1,
    "roars":1,
    "middle":1,
    "finger":1,
    "suck":1,
    "track":1,
    "confirm":1,
    "sources":1,
    "exactly":1,
    "indicates":1,
    "larger":1,
    "phones":1,
    "desk":1,
    "juicy":1,
    "pictures":1,
    "check":1,
    "clerk":1,
    "address":1,
    "wurlitzer":1,
    "citizens":1,
    "eluding":1,
    "among":1,
    "scumbags":1,
    "muffins":1,
    "coy":1,
    "creepo":1,
    "terrorizing":1,
    "retired":1,
    "florist":1,
    "lying":1,
    "filth":1,
    "prison":1,
    "murderer":1,
    "bathrobe":1,
    "mailbox":1,
    "investigatory":1,
    "cornered":1,
    "trhank":1,
    "short":1,
    "meeting":1,
    "notice":1,
    "smoking":1,
    "sell":1,
    "troubled":1,
    "cables":1,
    "photos":1,
    "members":1,
    "happens":1,
    "arrest":1,
    "whos":1,
    "politics":1,
    "apologize":1,
    "coughing":1,
    "shooting":1,
    "explain":1,
    "documents":1,
    "match":1,
    "between":1,
    "cam":1,
    "footage":1,
    "bolts":1,
    "inside":1,
    "filed":1,
    "disapeared":1,
    "unfortunaately":1,
    "arresting":1,
    "scratch":1,
    "commercial":1,
    "storm":1,
    "clouds":1,
    "tuesdaynot":1,
    "hal":1,
    "chet":1,
    "sound":1,
    "temp":1,
    "drummer":1,
    "inspiration":1,
    "inviting":1,
    "sip":1,
    "fighting":1,
    "choose":1,
    "photomat":1,
    "booth":1,
    "destroyed":1,
    "scampered":1,
    "color":1,
    "prints":1,
    "everybody":1,
    "fired":1,
    "holy":1,
    "cheese":1,
    "tied":1,
    "choice":1,
    "maine":1,
    "hawaii":1,
    "pray":1,
    "angry":1,
    "portlandians":1,
    "crowd":1,
    "decides":1,
    "tear":1,
    "apart":1,
    "won":1,
    "f":1,
    "gonad":1,
    "lost":1,
    "equiped":1,
    "milk":1,
    "figure":1,
    "leave":1,
    "blasted":1,
    "sense":1,
    "dreaded":1,
    "retirement":1,
    "gods":1,
    "bother":1,
    "wish":1,
    "elusive":1,
    "succulent":1,
    "ripe":1,
    "fumble":1,
    "undo":1,
    "belt":1,
    "drift":1,
    "mmhuh":1,
    "suitors":1,
    "privates":1,
    "hates":1,
    "anywhere":1,
    "dead":1,
    "advice":1,
    "looked":1,
    "young":1,
    "clocks":1,
    "complain":1,
    "conversation":1,
    "print":1,
    "period":1,
    "discussion":1,
    "joint":1,
    "mia":1,
    "holds":1,
    "maniacs":1,
    "owe":1,
    "starting":1,
    "stink":1,
    "led":1,
    "picture":1,
    "frame":1,
    "hidden":1,
    "theorize":1,
    "cascades":1,
    "broken":1,
    "arrested":1,
    "safe":1,
    "hadnt":1,
    "creep":1,
    "shed":1,
    "forrest":1,
    "loonies":1,
    "visit":1,
    "rninute":1,
    "sevens":1,
    "elevens":1,
    "sirens":1,
    "blaring":1,
    "panic":1,
    "echoing":1,
    "radio":1,
    "missed":1,
    "link":1,
    "whenever":1,
    "pigs":1,
    "everythings":1,
    "remembr":1,
    "terrain":1,
    "smart":1,
    "atvs":1,
    "waves":1,
    "montageof":1,
    "journey":1,
    "eli":1,
    "circle":1,
    "hill":1,
    "nam":1,
    "64":1,
    "showing":1,
    "whitey":1,
    "mcwhiteyington":1,
    "embarrassing":1,
    "dirty":1,
    "trick":1,
    "ugly":1,
    "ambitious":1,
    "person":1,
    "resigning":1,
    "reason":1,
    "stole":1,
    "prideful":1,
    "ran":1,
    "wannabe":1,
    "radicalswhich":1,
    "cias":1,
    "tracking":1,
    "checking":1,
    "cia":1,
    "calls":1,
    "revelation":1,
    "weilding":1,
    "interupt":1,
    "regular":1,
    "trusted":1,
    "die":1,
    "credibility":1,
    "scouring":1,
    "mountainside":1,
    "em":1,
    "soon":1,
    "weekend":1,
    "sick":1,
    "airl":1,
    "copy":1,
    "refering":1,
    "meaning":1,
    "uhhh":1,
    "chosen":1,
    "democracy":1,
    "dropped":1,
    "massage":1,
    "beer":1,
    "soda":1,
    "saving":1,
    "reuse":1,
    "madman":1,
    "wastin":1,
    "turkey":1,
    "nother":1,
    "peoplell":1,
    "dependent":1,
    "foreign":1,
    "oil":1,
    "masters":1,
    "joined":1,
    "savin":1,
    "science":1,
    "fiction":1,
    "garbonzo":1,
    "phrase":1,
    "stick":1,
    "planning":1,
    "disrupt":1,
    "broadcasts":1,
    "rashard":1,
    "typical":1,
    "fringe":1,
    "groups":1,
    "according":1,
    "dr":1,
    "jason":1,
    "hartley":1,
    "ucla":1,
    "medical":1,
    "motivated":1,
    "mania":1,
    "scale":1,
    "public":1,
    "approval":1,
    "harkin":1,
    "interns":1,
    "notify":1,
    "parents":1,
    "dicks":1,
    "tricked":1,
    "witchy":1,
    "cameras":1,
    "script":1,
    "microwave":1,
    "transmission":1,
    "tense":1,
    "interruption":1,
    "misguided":1,
    "youths":1,
    "attempted":1,
    "airwaves":1,
    "dreamer":1,
    "sleep":1,
    "eleven":1,
    "1876":1,
    "george":1,
    "mayflower":1,
    "process":1,
    "voting":1,
    "precise":1,
    "nutty":1,
    "literally":1,
    "thousands":1,
    "applauding":1,
    "passionate":1,
    "uncomfortable":1,
    "skeevey":1,
    "alone":1,
    "groggy":1,
    "wakes":1,
    "wiping":1,
    "blood":1,
    "raises":1,
    "arm":1,
    "points":1,
    "bullet":1,
    "hurts":1,
    "bitchy":1,
    "terry":1,
    "teagle":1,
    "becomes":1,
    "howd":1,
    "dark":1,
    "fireworks":1,
    "respect":1,
    "comment":1,
    "noted":1,
    "rolled":1,
    "haircut":1,
    "kept":1,
    "long":1,
    "distance":1,
    "hotel":1,
    "airport":1,
    "grew":1,
    "restless":1,
    "anchoring":1,
    "longer":1,
    "satisfied":1,
    "took":1,
    "wandering":1,
    "gypsy":1,
    "poet":1,
    "flow":1,
    "butter":1,
    "fresh":1,
    "boiled":1,
    "lobster":1,
    "groovin":1,
    "digging":1,
    "existence":1,
    "tangled":1,
    "montage":1,
    "ours":1,
    "became":1,
    "myth":1,
    "continued":1,
    "rise":1,
    "sixtyminutes":1,
    "bradley":1,
    "safer":1,
    "diane":1,
    "arafat":1,
    "flying":1,
    "israel":1,
    "tomorow":1,
    "gangbusters":1,
    "sweety":1,
    "myself":1,
    "gas":1,
    "tivo":1,
    "paid":1,
    "mom":1,
    "dad":1,
    "cleans":1,
    "rolling":1,
    "alrighty":1,
    "reached":1,
    "further":1,
    "pumps":1,
    "nailed":1,
    "basketball":1,
    "michael":1,
    "gordon":1,
    "celebrating":1,
    "tame":1,
    "lion":1,
    "untameble":1,
    "deaf":1,
    "cowardand":1,
    "cowarda":1,
    "tale":1,
    "centuries":1,
    "gather":1,
    "ye":1,
    "bend":1,
    "messin":1,
    "bout":1,
    "available":1,
    "written":1,
    "consent":1,
    "lawyers":1,
    "descend":1,
    "theyll":1,
    "awayeverything":1,
    "dear":1,
    "shoveling":1,
    "bumfug":1,
    "indiana":1,
    "thumb":1,
    "mess":1,
    "legal":1,
    "dozens":2,
    "screen":2,
    "rather":2,
    "television":2,
    "hours":2,
    "local":2,
    "waking":2,
    "truth":2,
    "balls":2,
    "brother":2,
    "wear":2,
    "suit":2,
    "bar":2,
    "38":2,
    "oclock":2,
    "lucky":2,
    "word":2,
    "tonic":2,
    "washington":2,
    "hospital":2,
    "being":2,
    "wild":2,
    "african":2,
    "annnd":2,
    "deep":2,
    "4":2,
    "series":2,
    "catch":2,
    "officials":2,
    "freedom":2,
    "32":2,
    "breaking":2,
    "foundation":2,
    "bill":2,
    "dry":2,
    "playing":2,
    "thousand":2,
    "different":2,
    "shots":2,
    "players":2,
    "door":2,
    "funeral":2,
    "approaches":2,
    "seem":2,
    "polite":2,
    "enjoy":2,
    "wearing":2,
    "himself":2,
    "tank":2,
    "electric":2,
    "hiney":2,
    "impressive":2,
    "ah":2,
    "sounds":2,
    "shakespeare":2,
    "yonder":2,
    "crazy":2,
    "married":2,
    "art":2,
    "bunch":2,
    "cuts":2,
    "water":2,
    "across":2,
    "breasts":2,
    "relax":2,
    "changing":2,
    "mind":2,
    "introduce":2,
    "straight":2,
    "stopped":2,
    "table":2,
    "stations":2,
    "already":2,
    "awhile":2,
    "newsroom":2,
    "bears":2,
    "does":2,
    "ol":2,
    "beehind":2,
    "lunch":2,
    "goodbye":2,
    "mama":2,
    "hit":2,
    "ear":2,
    "worse":2,
    "problem":2,
    "throw":2,
    "rub":2,
    "far":2,
    "fair":2,
    "games":2,
    "begin":2,
    "heh":2,
    "suits":2,
    "mouth":2,
    "buy":2,
    "upset":2,
    "eyewitness":2,
    "moment":2,
    "radicals":2,
    "28":2,
    "sandra":2,
    "sexy":2,
    "oliver":2,
    "mark":2,
    "x":2,
    "white":2,
    "refuse":2,
    "til":2,
    "transportation":2,
    "bus":2,
    "folks":2,
    "anyway":2,
    "talk":2,
    "free":2,
    "cool":2,
    "punches":2,
    "which":2,
    "prince":2,
    "nine":2,
    "watch":2,
    "smell":2,
    "ham":2,
    "animal":2,
    "area":2,
    "hang":2,
    "tomorrow":2,
    "cats":2,
    "arms":2,
    "glass":2,
    "ever":2,
    "experience":2,
    "tonights":2,
    "robbery":2,
    "view":2,
    "greatest":2,
    "pops":2,
    "worry":2,
    "portlands":2,
    "romans":2,
    "year":2,
    "christmas":2,
    "million":2,
    "children":2,
    "flute":2,
    "couldnt":2,
    "da":2,
    "dee":2,
    "din":2,
    "amazing":2,
    "share":2,
    "become":2,
    "high":2,
    "learned":2,
    "lonely":2,
    "difficult":2,
    "probably":2,
    "most":2,
    "though":2,
    "expression":2,
    "talking":2,
    "absolutely":2,
    "once":2,
    "spent":2,
    "woke":2,
    "blow":2,
    "wow":2,
    "jackass":2,
    "strike":2,
    "pumpkin":2,
    "scoops":2,
    "fun":2,
    "kill":2,
    "dating":2,
    "fell":2,
    "lawn":2,
    "pancake":2,
    "bring":2,
    "almost":2,
    "hurting":2,
    "worried":2,
    "fall":2,
    "dying":2,
    "enough":2,
    "mrharken":2,
    "apparently":2,
    "gun":2,
    "sexual":2,
    "eaten":2,
    "anthony":2,
    "terribly":2,
    "starts":2,
    "relationship":2,
    "punted":2,
    "s":2,
    "minutes":2,
    "canceling":2,
    "letters":2,
    "papers":2,
    "river":2,
    "street":2,
    "frog":2,
    "studio":2,
    "loved":2,
    "slept":2,
    "aarghh":2,
    "things":2,
    "star":2,
    "started":2,
    "coanchor":2,
    "messed":2,
    "coffee":2,
    "end":2,
    "extra":2,
    "laughter":2,
    "forget":2,
    "done":2,
    "sword":2,
    "worth":2,
    "tits":2,
    "mcgee":2,
    "supposed":2,
    "creeps":2,
    "bee":2,
    "sting":2,
    "against":2,
    "grim":2,
    "spiritual":2,
    "existential":2,
    "funk":2,
    "wet":2,
    "newsman":2,
    "wont":2,
    "pumpkins":2,
    "sack":2,
    "cash":2,
    "research":2,
    "using":2,
    "huge":2,
    "interrupt":2,
    "allowed":2,
    "ow":2,
    "bear":2,
    "streets":2,
    "journalism":2,
    "prove":2,
    "missing":2,
    "home":2,
    "living":2,
    "caltran":2,
    "piece":2,
    "security":2,
    "many":2,
    "awful":2,
    "doo":2,
    "went":2,
    "forever":2,
    "country":2,
    "deeply":2,
    "friend":2,
    "needs":2,
    "smoke":2,
    "kidnapped":2,
    "compound":2,
    "dense":2,
    "theyve":2,
    "phone":2,
    "crazies":2,
    "lose":2,
    "brave":2,
    "1":2,
    "background":2,
    "checks":2,
    "journalists":2,
    "shit":2,
    "government":2,
    "change":2,
    "cars":2,
    "angle":2,
    "awake":2,
    "america":2,
    "interview":2,
    "hero":2,
    "rose":2,
    "capital":2,
    "records":2,
    "shows":3,
    "second":3,
    "afraid":3,
    "place":3,
    "tv":3,
    "strange":3,
    "friggin":3,
    "looking":3,
    "takes":3,
    "business":3,
    "field":3,
    "towards":3,
    "camera":3,
    "tuesday":3,
    "state":3,
    "pool":3,
    "authorities":3,
    "gay":3,
    "doctor":3,
    "five":3,
    "might":3,
    "light":3,
    "m":3,
    "classy":3,
    "lap":3,
    "important":3,
    "super":3,
    "push":3,
    "freeze":3,
    "hand":3,
    "ladies":3,
    "eat":3,
    "meet":3,
    "town":3,
    "revolution":3,
    "pushes":3,
    "actually":3,
    "saw":3,
    "heck":3,
    "youll":3,
    "stupid":3,
    "ahhh":3,
    "someone":3,
    "question":3,
    "blue":3,
    "political":3,
    "kiss":3,
    "makeup":3,
    "huh":3,
    "lot":3,
    "north":3,
    "forward":3,
    "alicias":3,
    "round":3,
    "sweet":3,
    "side":3,
    "soft":3,
    "bitch":3,
    "grab":3,
    "half":3,
    "serious":3,
    "vitchard":3,
    "easy":3,
    "handle":3,
    "friends":3,
    "large":3,
    "leader":3,
    "ringing":3,
    "hundred":3,
    "masks":3,
    "pick":3,
    "touch":3,
    "cologne":3,
    "gentleman":3,
    "smells":3,
    "okay":3,
    "turns":3,
    "mentor":3,
    "gotta":3,
    "coming":3,
    "making":3,
    "attempt":3,
    "hurt":3,
    "store":3,
    "hope":3,
    "leads":3,
    "clear":3,
    "anything":3,
    "quite":3,
    "goes":3,
    "truly":3,
    "rome":3,
    "la":3,
    "tie":3,
    "national":3,
    "tino":3,
    "fantastic":3,
    "same":3,
    "instead":3,
    "wouldnt":3,
    "um":3,
    "lover":3,
    "panda":3,
    "sir":3,
    "strong":3,
    "doesnt":3,
    "help":3,
    "days":3,
    "emporium":3,
    "paws":3,
    "tropical":3,
    "cause":3,
    "also":3,
    "youd":3,
    "knows":3,
    "walks":3,
    "rons":3,
    "understand":3,
    "chris":3,
    "expect":3,
    "turned":3,
    "uh":3,
    "ahead":3,
    "still":3,
    "cops":3,
    "squares":3,
    "ghandi":3,
    "watching":3,
    "machine":3,
    "naked":3,
    "reporting":3,
    "months":3,
    "vote":3,
    "giving":3,
    "woods":3,
    "land":3,
    "beat":3,
    "apartment":3,
    "bottles":3,
    "cans":3,
    "heart":3,
    "finally":3,
    "song":3,
    "channels":4,
    "each":4,
    "speak":4,
    "past":4,
    "anchorman":4,
    "hot":4,
    "ext":4,
    "life":4,
    "burgundys":4,
    "known":4,
    "ratings":4,
    "month":4,
    "having":4,
    "red":4,
    "helen":4,
    "course":4,
    "hair":4,
    "stuff":4,
    "sex":4,
    "voice":4,
    "honey":4,
    "join":4,
    "excuse":4,
    "twenty":4,
    "bed":4,
    "point":4,
    "anyone":4,
    "front":4,
    "bullshit":4,
    "since":4,
    "please":4,
    "them":4,
    "diversity":4,
    "means":4,
    "times":4,
    "id":4,
    "women":4,
    "laughing":4,
    "gentlemen":4,
    "name":4,
    "first":4,
    "chair":4,
    "ask":4,
    "damn":4,
    "journalist":4,
    "give":4,
    "cat":4,
    "yourself":4,
    "message":4,
    "manifesto":4,
    "hard":4,
    "mscorningstone":4,
    "baloney":4,
    "run":4,
    "must":4,
    "jess":4,
    "moondragon":4,
    "getting":4,
    "idea":4,
    "top":4,
    "teleprompter":4,
    "such":4,
    "start":4,
    "oregon":4,
    "road":4,
    "told":4,
    "nothing":4,
    "guess":4,
    "dream":4,
    "bad":4,
    "turn":4,
    "broadcast":4,
    "report":4,
    "head":4,
    "gets":4,
    "garbage":4,
    "found":4,
    "wheres":4,
    "struck":4,
    "dangerous":4,
    "tape":4,
    "rip":4,
    "lid":4,
    "mother":4,
    "legend":4,
    "channel":5,
    "anchors":5,
    "best":5,
    "bite":5,
    "dog":5,
    "air":5,
    "hands":5,
    "tamland":5,
    "reporter":5,
    "six":5,
    "any":5,
    "evening":5,
    "baby":5,
    "center":5,
    "listen":5,
    "came":5,
    "number":5,
    "keep":5,
    "two":5,
    "party":5,
    "fine":5,
    "other":5,
    "while":5,
    "fact":5,
    "stories":5,
    "museum":5,
    "van":5,
    "stay":5,
    "mrburgundy":5,
    "break":5,
    "fashion":5,
    "whole":5,
    "ass":5,
    "house":5,
    "dammit":5,
    "information":5,
    "money":5,
    "garth":5,
    "part":5,
    "pants":5,
    "lead":5,
    "guns":5,
    "today":5,
    "four":5,
    "pet":5,
    "find":5,
    "may":5,
    "play":5,
    "twelve":5,
    "quit":5,
    "werewolves":5,
    "weather":6,
    "etc":6,
    "everything":6,
    "music":6,
    "men":6,
    "knew":6,
    "fantana":6,
    "ten":6,
    "pretty":6,
    "tonight":6,
    "away":6,
    "gang":6,
    "special":6,
    "something":6,
    "around":6,
    "morning":6,
    "station":6,
    "hear":6,
    "later":6,
    "girl":6,
    "fish":6,
    "thinking":6,
    "wait":6,
    "nature":6,
    "quick":6,
    "stop":6,
    "wrong":6,
    "jazz":6,
    "remember":6,
    "feel":6,
    "office":6,
    "than":6,
    "together":6,
    "move":6,
    "weve":6,
    "bank":6,
    "working":6,
    "work":6,
    "made":6,
    "read":6,
    "care":6,
    "wasnt":6,
    "hes":6,
    "drink":6,
    "fire":6,
    "too":7,
    "without":7,
    "thought":7,
    "guys":7,
    "thank":7,
    "hold":7,
    "fellas":7,
    "heres":7,
    "after":7,
    "own":7,
    "fast":7,
    "theyre":7,
    "ready":7,
    "boy":7,
    "youve":7,
    "guy":7,
    "woof":7,
    "gone":7,
    "wake":7,
    "ms":7,
    "harken":7,
    "used":7,
    "line":7,
    "school":7,
    "again":7,
    "happen":7,
    "great":7,
    "need":7,
    "son":7,
    "through":7,
    "yeah":7,
    "every":8,
    "show":8,
    "trying":8,
    "tell":8,
    "world":8,
    "before":8,
    "three":8,
    "champ":8,
    "whats":8,
    "radical":8,
    "new":8,
    "use":8,
    "full":8,
    "said":8,
    "baxter":8,
    "alright":8,
    "better":8,
    "hell":8,
    "live":8,
    "god":8,
    "old":8,
    "even":8,
    "only":9,
    "much":9,
    "heard":9,
    "looks":9,
    "last":9,
    "why":9,
    "police":9,
    "job":9,
    "had":9,
    "those":9,
    "gonna":9,
    "wanted":9,
    "professional":9,
    "city":9,
    "danover":9,
    "mean":9,
    "brian":10,
    "night":10,
    "because":10,
    "ill":10,
    "woman":10,
    "brick":10,
    "nice":10,
    "ha":10,
    "kind":10,
    "look":10,
    "big":10,
    "maybe":10,
    "always":10,
    "wanna":10,
    "these":11,
    "call":11,
    "down":11,
    "hello":11,
    "didnt":11,
    "believe":11,
    "sure":11,
    "more":11,
    "thing":11,
    "paul":11,
    "network":12,
    "real":12,
    "cut":12,
    "group":12,
    "never":12,
    "day":12,
    "theres":12,
    "off":12,
    "or":12,
    "people":13,
    "youre":13,
    "whammy":13,
    "their":13,
    "lets":13,
    "see":13,
    "where":13,
    "really":13,
    "shes":13,
    "cant":13,
    "make":13,
    "ed":13,
    "put":13,
    "would":13,
    "ive":13,
    "him":14,
    "our":15,
    "yes":15,
    "mr":15,
    "over":15,
    "doing":15,
    "who":15,
    "sorry":15,
    "little":15,
    "could":15,
    "let":16,
    "action":16,
    "lady":16,
    "way":16,
    "am":16,
    "into":16,
    "want":17,
    "come":17,
    "been":17,
    "back":17,
    "right":18,
    "alarm":18,
    "clock":18,
    "his":18,
    "has":18,
    "very":19,
    "think":19,
    "should":19,
    "take":19,
    "will":20,
    "anchor":20,
    "int":20,
    "portland":21,
    "then":21,
    "oh":21,
    "say":21,
    "everyone":21,
    "man":22,
    "go":22,
    "time":23,
    "story":23,
    "good":23,
    "if":23,
    "when":24,
    "hey":24,
    "she":24,
    "can":25,
    "thats":25,
    "us":26,
    "team":26,
    "from":26,
    "about":26,
    "all":27,
    "there":27,
    "her":27,
    "no":27,
    "love":28,
    "did":28,
    "got":29,
    "here":29,
    "corningstone":29,
    "by":30,
    "one":30,
    "how":30,
    "an":31,
    "as":31,
    "but":32,
    "were":32,
    "going":32,
    "they":33,
    "now":33,
    "some":34,
    "dont":36,
    "your":37,
    "so":37,
    "out":37,
    "he":38,
    "well":38,
    "at":38,
    "know":39,
    "up":40,
    "get":43,
    "not":45,
    "its":47,
    "like":48,
    "are":52,
    "alicia":54,
    "news":55,
    "was":55,
    "just":55,
    "what":57,
    "burgundy":59,
    "do":60,
    "be":60,
    "for":62,
    "have":66,
    "my":69,
    "me":70,
    "with":77,
    "im":78,
    "on":84,
    "this":86,
    "we":90,
    "it":97,
    "is":97,
    "that":103,
    "ron":113,
    "in":116,
    "of":160,
    "":187,
    "and":191,
    "to":219,
    "you":242,
    "i":250,
    "a":287,
    "the":359
}