{
    "breathand":1,
    "chataronga":1,
    "black":1,
    "sheep":1,
    "bahnot":1,
    "madly":1,
    "nuisance":1,
    "brother":1,
    "drone":1,
    "lo":1,
    "breath":1,
    "ribs":1,
    "expand":1,
    "downward":1,
    "harmon":1,
    "hiand":1,
    "luck":1,
    "sound":1,
    "sides":1,
    "accept":1,
    "compliment":1,
    "after":1,
    "sweats":1,
    "elses":1,
    "threatening":1,
    "directions":1,
    "location":1,
    "uninvite":1,
    "twentyfuckingtwo":1,
    "stinking":1,
    "able":1,
    "itits":1,
    "sixth":1,
    "ending":1,
    "chapter":1,
    "sixits":1,
    "earlier":1,
    "draft":1,
    "laurel":1,
    "sunset":1,
    "rogers":1,
    "park":1,
    "blocks":1,
    "quarters":1,
    "mile":1,
    "white":1,
    "behaved":1,
    "outnumbered":1,
    "ban":1,
    "forward":1,
    "meeting":1,
    "leap":1,
    "eternally":1,
    "grateful":1,
    "thunk":1,
    "honest":1,
    "ripple":1,
    "effect":1,
    "suffers":1,
    "suffer":1,
    "lovely":1,
    "hydrangeas":1,
    "officially":1,
    "owns":1,
    "4":1,
    "cheyenne":1,
    "chelsea":1,
    "england":1,
    "suppose":1,
    "interest":1,
    "realtorll":1,
    "market":1,
    "insure":1,
    "loan":1,
    "spoil":1,
    "earn":1,
    "double":1,
    "order":1,
    "cover":1,
    "expenses":1,
    "outrageously":1,
    "expensive":1,
    "city":1,
    "tower":1,
    "support":1,
    "guilty":1,
    "wouldve":1,
    "waited":1,
    "until":1,
    "europe":1,
    "rock":1,
    "star":1,
    "sell":1,
    "paying":1,
    "scale":1,
    "advances":1,
    "undo":1,
    "roses":1,
    "behave":1,
    "bookshelf":1,
    "bowing":1,
    "scraping":1,
    "beats":1,
    "lawsuit":1,
    "exchanged":1,
    "deal":1,
    "exciting":1,
    "lead":1,
    "fan":1,
    "drop":1,
    "reader":1,
    "autobiographies":1,
    "biographies":1,
    "mostly":1,
    "nonfiction":1,
    "styron":1,
    "prize":1,
    "reading":1,
    "expectations":1,
    "silly":1,
    "joking":1,
    "balance":1,
    "bookscript":1,
    "hmmm":1,
    "promised":1,
    "split":1,
    "cause":1,
    "compose":1,
    "ring":1,
    "another":1,
    "academy":1,
    "award":1,
    "performance":1,
    "warranted":1,
    "manages":1,
    "robbed":1,
    "evie":1,
    "shy":1,
    "sorts":1,
    "privately":1,
    "whod":1,
    "ours":1,
    "jerrys":1,
    "lay":1,
    "smelly":1,
    "bum":1,
    "backyard":1,
    "danger":1,
    "banned":1,
    "canine":1,
    "conversations":1,
    "completely":1,
    "discouraged":1,
    "join":1,
    "decided":1,
    "unnecessary":1,
    "noticed":1,
    "430":1,
    "barked":1,
    "record":1,
    "distracting":1,
    "neighborhood":1,
    "full":1,
    "yard":1,
    "defend":1,
    "gaps":1,
    "between":1,
    "lose":1,
    "snookums":1,
    "whitebread":1,
    "publisher":1,
    "outgrown":1,
    "hors":1,
    "doeuvres":1,
    "wish":1,
    "whoever":1,
    "rarely":1,
    "cops":1,
    "adam":1,
    "serial":1,
    "killer":1,
    "number":1,
    "already":1,
    "hovering":1,
    "fourthirty":1,
    "yay":1,
    "older":1,
    "likely":1,
    "crop":1,
    "soon":1,
    "changes":1,
    "puts":1,
    "object":1,
    "lesson":1,
    "grace":1,
    "wow":1,
    "leading":1,
    "direct":1,
    "dailies":1,
    "totally":1,
    "outrageous":1,
    "wellsohow":1,
    "silverware":1,
    "hired":1,
    "harms":1,
    "scout":1,
    "introspective":1,
    "ages":1,
    "hmm":1,
    "guest":1,
    "laid":1,
    "paint":1,
    "watercolors":1,
    "nevermind":1,
    "pure":1,
    "evil":1,
    "match":1,
    "nose":1,
    "taylor":1,
    "wraith":1,
    "takes":1,
    "toll":1,
    "jonah":1,
    "sensational":1,
    "jonahs":1,
    "comfortable":1,
    "leaving":1,
    "trailer":1,
    "shrunk":1,
    "twoandahalf":1,
    "feet":1,
    "birth":1,
    "funniest":1,
    "sounds":1,
    "rubbed":1,
    "terrifying":1,
    "borrow":1,
    "itll":1,
    "stressed":1,
    "taking":1,
    "weight":1,
    "doctor":1,
    "jumpy":1,
    "ghastly":1,
    "headache":1,
    "tylenol":1,
    "xanex":1,
    "breast":1,
    "feeding":1,
    "judgemental":1,
    "serene":1,
    "comparing":1,
    "wheres":1,
    "violin":1,
    "machine":1,
    "gun":1,
    "kill":1,
    "lovesick":1,
    "suicidal":1,
    "less":1,
    "codependent":1,
    "recognized":1,
    "jacket":1,
    "apologize":1,
    "invading":1,
    "asked":1,
    "touched":1,
    "hundred":1,
    "closest":1,
    "particular":1,
    "speaks":1,
    "lean":1,
    "visual":1,
    "remarkable":1,
    "goddess":1,
    "flesh":1,
    "hide":1,
    "believe":1,
    "blind":1,
    "lousy":1,
    "falling":1,
    "apart":1,
    "finished":1,
    "seeing":1,
    "insist":1,
    "interrupting":1,
    "icon":1,
    "watching":1,
    "followed":1,
    "least":1,
    "courage":1,
    "introduce":1,
    "spent":1,
    "rehab":1,
    "addict":1,
    "worship":1,
    "flattered":1,
    "overwhelmed":1,
    "justice":1,
    "spend":1,
    "gushing":1,
    "quality":1,
    "rude":1,
    "everyday":1,
    "levi":1,
    "meds":1,
    "remembers":1,
    "wardrobe":1,
    "forever":1,
    "decide":1,
    "x":1,
    "saved":1,
    "wine":1,
    "dollars":1,
    "suits":1,
    "strangers":1,
    "sudden":1,
    "ow":1,
    "obviously":1,
    "graduate":1,
    "high":1,
    "school":1,
    "seems":1,
    "forgot":1,
    "trip":1,
    "londons":1,
    "sold":1,
    "cheyene":1,
    "meltdown":1,
    "bought":1,
    "afford":1,
    "paid":1,
    "davidsons":1,
    "million":1,
    "gives":1,
    "blow":1,
    "stronger":1,
    "doubts":1,
    "answer":1,
    "jeffrey":1,
    "yup":1,
    "eames":1,
    "bb":1,
    "clients":1,
    "fits":1,
    "starts":1,
    "later":1,
    "accommodate":1,
    "shifted":1,
    "became":1,
    "eclectic":1,
    "keeps":1,
    "changing":1,
    "flux":1,
    "moved":1,
    "sober":1,
    "difficult":1,
    "uhhuh":1,
    "nervous":1,
    "element":1,
    "outside":1,
    "friction":1,
    "misunderstandings":1,
    "escalating":1,
    "avoided":1,
    "effort":1,
    "barks":1,
    "incessantly":1,
    "works":1,
    "nasty":1,
    "abusive":1,
    "suing":1,
    "harassment":1,
    "sucking":1,
    "generous":1,
    "total":1,
    "maniac":1,
    "neednt":1,
    "rub":1,
    "pissy":1,
    "bite":1,
    "tiger":1,
    "drinking":1,
    "sandy":1,
    "wind":1,
    "bird":1,
    "chronicle":1,
    "extraordinary":1,
    "wonder":1,
    "use":1,
    "mothers":1,
    "vote":1,
    "k":1,
    "t":1,
    "pawn":1,
    "hits":1,
    "conflicts":1,
    "king":1,
    "utopia":1,
    "parkway":1,
    "guests":1,
    "darling":1,
    "husbands":1,
    "fun":1,
    "ponder":1,
    "fucksounds":1,
    "fork":1,
    "flock":1,
    "ya":1,
    "vhol":1,
    "nazi":1,
    "cripple":1,
    "limp":1,
    "ankle":1,
    "obscure":1,
    "shakespeare":1,
    "original":1,
    "tentwentythirtyseven":1,
    "thirtyeighth":1,
    "wordthirtyseventh":1,
    "champions":1,
    "unfair":1,
    "advantage":1,
    "leftovers":1,
    "gods":1,
    "triumph":1,
    "sight":1,
    "blood":1,
    "prisoners":1,
    "sweet":1,
    "insanely":1,
    "revolting":1,
    "astrid":1,
    "space":1,
    "impressed":1,
    "indeed":1,
    "acquainted":1,
    "shostackovich":1,
    "raise":1,
    "nearly":1,
    "squashed":1,
    "yesofteni":1,
    "stopped":1,
    "counting":1,
    "garden":1,
    "misplanted":1,
    "properly":1,
    "watered":1,
    "bonkers":1,
    "frantically":1,
    "scramble":1,
    "fit":1,
    "fatal":1,
    "dear":1,
    "realized":1,
    "ta":1,
    "da":1,
    "difference":1,
    "anouk":1,
    "neighbor":1,
    "desperate":1,
    "bimbo":1,
    "prepared":1,
    "honored":1,
    "filled":1,
    "winner":1,
    "dolphins":1,
    "ecstasy":1,
    "sixteen":1,
    "present":1,
    "late":1,
    "sleepy":1,
    "staying":1,
    "stays":1,
    "driving":1,
    "sallymae":1,
    "shed":1,
    "light":1,
    "pull":1,
    "air":1,
    "causes":1,
    "damage":1,
    "review":1,
    "whole":1,
    "mark":1,
    "swimsuit":1,
    "non":1,
    "addictive":1,
    "mustnt":1,
    "dive":1,
    "baton":1,
    "colored":1,
    "batons":1,
    "diving":1,
    "extra":1,
    "points":1,
    "dp":1,
    "list":1,
    "leagues":1,
    "timer":1,
    "particularly":1,
    "weird":1,
    "rally":1,
    "john":1,
    "seale":1,
    "oliver":1,
    "stapelton":1,
    "darius":1,
    "khonji":1,
    "dps":1,
    "supportive":1,
    "jump":1,
    "diva":1,
    "knowgood":1,
    "directings":1,
    "preparation":1,
    "fatherhood":1,
    "sleep":1,
    "depravation":1,
    "photographer":1,
    "personal":1,
    "notch":1,
    "storage":1,
    "heart":1,
    "wedding":1,
    "photos":1,
    "chrissakes":1,
    "wet":1,
    "miserable":1,
    "hellhole":1,
    "socialized":1,
    "beds":1,
    "corridors":1,
    "plumbing":1,
    "sucks":1,
    "cedars":1,
    "hills":1,
    "delivered":1,
    "milton":1,
    "cohen":1,
    "period":1,
    "lamase":1,
    "spy":1,
    "plenty":1,
    "issue":1,
    "pressed":1,
    "hand":1,
    "different":1,
    "story":1,
    "playmates":1,
    "parenting":1,
    "material":1,
    "sit":1,
    "bet":1,
    "rug":1,
    "skin":1,
    "subject":1,
    "narcissistic":1,
    "irresponsible":1,
    "unreliable":1,
    "massive":1,
    "adult":1,
    "horrified":1,
    "problem":1,
    "neither":1,
    "york":1,
    "addiction":1,
    "genetic":1,
    "email":1,
    "article":1,
    "moving":1,
    "summer":1,
    "sylvia":1,
    "plath":1,
    "connecticut":1,
    "ha":1,
    "portrayal":1,
    "image":1,
    "offspring":1,
    "sexually":1,
    "ambivalent":1,
    "manchild":1,
    "english":1,
    "prick":1,
    "bastard":1,
    "step":1,
    "removed":1,
    "shoulder":1,
    "intoxicating":1,
    "stick":1,
    "oven":1,
    "handful":1,
    "percoden":1,
    "slit":1,
    "rob":1,
    "option":1,
    "surprise":1,
    "wisdom":1,
    "soul":1,
    "wandering":1,
    "howre":1,
    "struggle":1,
    "enjoying":1,
    "unhappy":1,
    "rocket":1,
    "science":1,
    "barely":1,
    "lines":1,
    "sobbed":1,
    "cryings":1,
    "comedy":1,
    "death":1,
    "sails":1,
    "directors":1,
    "womans":1,
    "happening":1,
    "fire":1,
    "friendship":1,
    "discussed":1,
    "battle":1,
    "studio":1,
    "place":1,
    "deny":1,
    "adults":1,
    "asshole":1,
    "intuitively":1,
    "clairs":1,
    "childbirth":1,
    "everythings":1,
    "walking":1,
    "shadow":1,
    "player":1,
    "struts":1,
    "frets":1,
    "hour":1,
    "upon":1,
    "stage":1,
    "speaking":1,
    "casting":1,
    "passed":1,
    "promises":1,
    "novelwhen":1,
    "shooting":1,
    "octoberish":1,
    "window":1,
    "leos":1,
    "twentyeight":1,
    "gall":1,
    "warren":1,
    "awful":1,
    "sing":1,
    "faking":1,
    "caged":1,
    "sometime":1,
    "huh":1,
    "wellwow":1,
    "breezy":1,
    "mourning":1,
    "clothes":1,
    "waters":1,
    "glorious":1,
    "fix":1,
    "ideas":1,
    "depth":1,
    "pool":1,
    "iwait":1,
    "puke":1,
    "zone":1,
    "breaths":1,
    "slow":1,
    "raspberry":1,
    "nicer":1,
    "drank":1,
    "though":1,
    "accomplishment":1,
    "medallions":1,
    "cakes":1,
    "smoke":1,
    "nonsmokers":1,
    "meetings":1,
    "gotten":1,
    "ninenine":1,
    "nineteenjust":1,
    "cold":1,
    "recognize":1,
    "passage":1,
    "running":1,
    "theatre":1,
    "bookstore":1,
    "hair":1,
    "dynamic":1,
    "verbatim":1,
    "writer":1,
    "impression":1,
    "wide":1,
    "nobody":1,
    "uses":1,
    "cow":1,
    "mistake":1,
    "plot":1,
    "greyhound":1,
    "miles":1,
    "coyotes":1,
    "calm":1,
    "quicker":1,
    "shitty":1,
    "worked":1,
    "therrians":1,
    "boundary":1,
    "fence":1,
    "code":1,
    "permits":1,
    "license":1,
    "happens":1,
    "recorder":1,
    "theyve":1,
    "towards":1,
    "pch":1,
    "identified":1,
    "jew":1,
    "hunted":1,
    "crushed":1,
    "thumb":1,
    "stalinist":1,
    "imperialism":1,
    "andrew":1,
    "composers":1,
    "conference":1,
    "1948":1,
    "leaders":1,
    "soviet":1,
    "music":1,
    "prokofieve":1,
    "myaskovsky":1,
    "girls":1,
    "forsaken":1,
    "hungry":1,
    "bob":1,
    "yar":1,
    "played":1,
    "gittle":1,
    "milkmaid":1,
    "shot":1,
    "shostakovichs":1,
    "13th":1,
    "symphony":1,
    "set":1,
    "poem":1,
    "yetveshenko":1,
    "dug":1,
    "research":1,
    "alive":1,
    "asking":1,
    "testing":1,
    "deeply":1,
    "perverted":1,
    "impulsive":1,
    "twentytwo":1,
    "nightmare":1,
    "kept":1,
    "bed":1,
    "opened":1,
    "interrupted":1,
    "angrier":1,
    "seem":1,
    "expert":1,
    "counselling":1,
    "mentioning":1,
    "rave":1,
    "typical":1,
    "clear":1,
    "dancing":1,
    "splitting":1,
    "lied":1,
    "slept":1,
    "occasions":1,
    "judgmental":1,
    "faith":1,
    "walked":1,
    "convenient":1,
    "dedicate":1,
    "published":1,
    "language":1,
    "dedicated":1,
    "dare":1,
    "cast":1,
    "humiliating":1,
    "entire":1,
    "including":1,
    "also":1,
    "twenties":1,
    "birthday":1,
    "age":1,
    "considered":1,
    "reality":1,
    "differently":1,
    "hook":1,
    "pop":1,
    "shallowest":1,
    "bunch":1,
    "couldve":1,
    "stripped":1,
    "name":1,
    "hire":1,
    "phoning":1,
    "costar":1,
    "current":1,
    "dish":1,
    "insanity":1,
    "push":1,
    "abortion":1,
    "weeks":1,
    "talked":1,
    "listening":1,
    "aborted":1,
    "allowances":1,
    "shouldnt":1,
    "decision":1,
    "occur":1,
    "stoned":1,
    "anytime":1,
    "sport":1,
    "pal":1,
    "pass":1,
    "lifeguard":1,
    "papers":1,
    "test":1,
    "buck":1,
    "punch":1,
    "giving":1,
    "cheat":1,
    "loving":1,
    "terrific":1,
    "wellrespected":1,
    "golden":1,
    "globe":1,
    "bout":1,
    "humble":1,
    "pick":1,
    "fighter":1,
    "bye":1,
    "heal":1,
    "lost":1,
    "beeper":1,
    "happened":1,
    "suspense":1,
    "killing":1,
    "overdosed":1,
    "icu":1,
    "note":1,
    "packed":1,
    "bag":1,
    "trouble":1,
    "messenger":1,
    "hed":1,
    "enemy":1,
    "contest":1,
    "straight":1,
    "weekend":1,
    "blue":1,
    "moon":1,
    "landscaper":1,
    "doors":1,
    "tax":1,
    "returns":1,
    "coffee":1,
    "leaves":1,
    "hours":1,
    "understood":1,
    "throwing":1,
    "guarantees":1,
    "possibilities":1,
    "kinds":1,
    "crap":1,
    "ride":1,
    "lock":1,
    "key":1,
    "calder":1,
    "babys":1,
    "crib":1,
    "keys":1,
    "mae":1,
    "deep":2,
    "relax":2,
    "reach":2,
    "calling":2,
    "plan":2,
    "mr":2,
    "hardly":2,
    "everyones":2,
    "eyes":2,
    "wrists":2,
    "knees":2,
    "might":2,
    "moment":2,
    "invite":2,
    "goes":2,
    "tomorrow":2,
    "filmic":2,
    "tried":2,
    "west":2,
    "past":2,
    "state":2,
    "hang":2,
    "sort":2,
    "willing":2,
    "imagine":2,
    "seven":2,
    "christs":2,
    "possible":2,
    "taxes":2,
    "thin":2,
    "six":2,
    "champagne":2,
    "closed":2,
    "looks":2,
    "genius":2,
    "quite":2,
    "adore":2,
    "quote":2,
    "ground":2,
    "novels":2,
    "millions":2,
    "hates":2,
    "scouts":2,
    "honor":2,
    "gifts":2,
    "congratulations":2,
    "booker":2,
    "known":2,
    "mmm":2,
    "food":2,
    "surprises":2,
    "somewhere":2,
    "infamous":2,
    "worst":2,
    "wait":2,
    "rather":2,
    "run":2,
    "eat":2,
    "pitbull":2,
    "rottweiler":2,
    "relieved":2,
    "today":2,
    "tape":2,
    "keeping":2,
    "sheila":2,
    "herself":2,
    "taken":2,
    "interior":2,
    "decorator":2,
    "truly":2,
    "may":2,
    "dander":2,
    "eyelashes":2,
    "foot":2,
    "everything":2,
    "perspective":2,
    "own":2,
    "once":2,
    "sacred":2,
    "scene":2,
    "third":2,
    "accidental":2,
    "finally":2,
    "gold":2,
    "rose":2,
    "table":2,
    "impossible":2,
    "young":2,
    "mom":2,
    "family":2,
    "pictures":2,
    "tote":2,
    "fact":2,
    "gave":2,
    "hysterical":2,
    "against":2,
    "damned":2,
    "knock":2,
    "private":2,
    "felt":2,
    "women":2,
    "wonderful":2,
    "um":2,
    "role":2,
    "business":2,
    "managers":2,
    "forgive":2,
    "ruined":2,
    "stand":2,
    "stay":2,
    "while":2,
    "otherwise":2,
    "films":2,
    "real":2,
    "peter":2,
    "sellers":2,
    "incredible":2,
    "found":2,
    "cut":2,
    "galiano":2,
    "thousand":2,
    "discount":2,
    "ass":2,
    "fucked":2,
    "saw":2,
    "grandads":2,
    "lucys":2,
    "hurt":2,
    "somethings":2,
    "hasnt":2,
    "thoughts":2,
    "lots":2,
    "constant":2,
    "elitism":2,
    "delete":2,
    "phone":2,
    "calls":2,
    "supposed":2,
    "spoke":2,
    "inappropriate":2,
    "treasure":2,
    "poetry":2,
    "song":2,
    "cycle":2,
    "books":2,
    "end":2,
    "law":2,
    "funnies":2,
    "charades":2,
    "z":2,
    "jer":2,
    "pain":2,
    "folks":2,
    "thirty":2,
    "clock":2,
    "ticking":2,
    "cals":2,
    "truce":2,
    "escape":2,
    "hatch":2,
    "become":2,
    "upset":2,
    "married":2,
    "cute":2,
    "talented":2,
    "speak":2,
    "rule":2,
    "fabulous":2,
    "sophias":2,
    "utterly":2,
    "youd":2,
    "color":2,
    "wanna":2,
    "count":2,
    "start":2,
    "camera":2,
    "film":2,
    "days":2,
    "bad":2,
    "serious":2,
    "everyone":2,
    "picture":2,
    "above":2,
    "medical":2,
    "terrible":2,
    "epidural":2,
    "pregnant":2,
    "loves":2,
    "notice":2,
    "sister":2,
    "possessive":2,
    "fragile":2,
    "neurotic":2,
    "child":2,
    "lucky":2,
    "head":2,
    "twenty":2,
    "ask":2,
    "touch":2,
    "poor":2,
    "surprised":2,
    "scared":2,
    "natural":2,
    "jude":2,
    "loved":2,
    "scratch":2,
    "write":2,
    "nine":2,
    "swimming":2,
    "front":2,
    "lolly":2,
    "changed":2,
    "far":2,
    "contractor":2,
    "hit":2,
    "car":2,
    "comes":2,
    "ugly":2,
    "persecuted":2,
    "under":2,
    "mention":2,
    "andre":2,
    "crazy":2,
    "marry":2,
    "clearly":2,
    "rage":2,
    "whether":2,
    "face":2,
    "farce":2,
    "anybody":2,
    "brave":2,
    "hero":2,
    "tart":2,
    "booked":2,
    "plane":2,
    "near":2,
    "messy":2,
    "heard":3,
    "miss":3,
    "dr":3,
    "try":3,
    "yours":3,
    "most":3,
    "morning":3,
    "missed":3,
    "uh":3,
    "invited":3,
    "meant":3,
    "chance":3,
    "dogs":3,
    "bring":3,
    "genna":3,
    "promise":3,
    "small":3,
    "flat":3,
    "many":3,
    "times":3,
    "worry":3,
    "job":3,
    "liked":3,
    "solid":3,
    "barking":3,
    "joes":3,
    "directing":3,
    "mind":3,
    "character":3,
    "sometimes":3,
    "each":3,
    "started":3,
    "manage":3,
    "afraid":3,
    "stupid":3,
    "girl":3,
    "judy":3,
    "talking":3,
    "kitchen":3,
    "both":3,
    "move":3,
    "happen":3,
    "soft":3,
    "hope":3,
    "night":3,
    "trying":3,
    "either":3,
    "allergic":3,
    "center":3,
    "disaster":3,
    "saying":3,
    "novelist":3,
    "used":3,
    "person":3,
    "soph":3,
    "pills":3,
    "shell":3,
    "week":3,
    "play":3,
    "brilliant":3,
    "bitch":3,
    "true":3,
    "nash":3,
    "beverly":3,
    "movies":3,
    "together":3,
    "sallys":3,
    "red":3,
    "jealous":3,
    "hard":3,
    "making":3,
    "nothings":3,
    "macs":3,
    "blah":3,
    "monster":3,
    "eight":3,
    "canyon":3,
    "jewish":3,
    "folk":3,
    "seconds":3,
    "katzenjammer":3,
    "knows":3,
    "words":3,
    "team":3,
    "some":3,
    "dumb":3,
    "waiter":3,
    "went":3,
    "almost":3,
    "sweetheart":3,
    "spine":3,
    "brain":3,
    "feels":3,
    "pretty":3,
    "bullshit":3,
    "wants":3,
    "werent":3,
    "mess":3,
    "christ":3,
    "everybody":3,
    "lemon":3,
    "stop":3,
    "upstairs":3,
    "miracle":3,
    "children":3,
    "babe":3,
    "minute":3,
    "havent":4,
    "arent":4,
    "therrian":4,
    "kiss":4,
    "through":4,
    "hold":4,
    "needs":4,
    "party":4,
    "mother":4,
    "throw":4,
    "neighbors":4,
    "anyway":4,
    "buddy":4,
    "months":4,
    "made":4,
    "half":4,
    "year":4,
    "feeling":4,
    "couldnt":4,
    "listen":4,
    "huge":4,
    "based":4,
    "won":4,
    "script":4,
    "jerry":4,
    "ah":4,
    "came":4,
    "wouldnt":4,
    "live":4,
    "next":4,
    "close":4,
    "bark":4,
    "fifteen":4,
    "yet":4,
    "ten":4,
    "stuff":4,
    "myself":4,
    "such":4,
    "thinks":4,
    "knew":4,
    "parties":4,
    "rest":4,
    "hear":4,
    "seen":4,
    "drug":4,
    "took":4,
    "getting":4,
    "worried":4,
    "wrong":4,
    "friend":4,
    "easy":4,
    "favorite":4,
    "clue":4,
    "syllable":4,
    "angry":4,
    "living":4,
    "dad":4,
    "marriage":4,
    "water":4,
    "father":4,
    "drugs":4,
    "ecstacy":4,
    "wont":4,
    "leo":4,
    "someone":4,
    "goddamn":4,
    "zhdanov":4,
    "save":4,
    "flight":4,
    "boy":5,
    "woman":5,
    "world":5,
    "excuse":5,
    "keep":5,
    "old":5,
    "actress":5,
    "glad":5,
    "wed":5,
    "looking":5,
    "thrilled":5,
    "gift":5,
    "those":5,
    "walk":5,
    "forget":5,
    "says":5,
    "better":5,
    "wife":5,
    "met":5,
    "these":5,
    "things":5,
    "enough":5,
    "since":5,
    "door":5,
    "dinner":5,
    "drink":5,
    "minutes":5,
    "than":5,
    "day":5,
    "give":5,
    "probably":5,
    "sal":5,
    "husband":5,
    "gina":5,
    "brought":5,
    "called":5,
    "few":5,
    "worse":5,
    "wanted":5,
    "exactly":5,
    "hate":5,
    "being":5,
    "four":5,
    "bit":5,
    "ryans":5,
    "hm":5,
    "by":5,
    "tits":5,
    "harry":5,
    "remember":6,
    "funny":6,
    "before":6,
    "hello":6,
    "change":6,
    "please":6,
    "gone":6,
    "sitter":6,
    "meet":6,
    "fucks":6,
    "read":6,
    "book":6,
    "coming":6,
    "left":6,
    "playing":6,
    "youll":6,
    "fantastic":6,
    "weve":6,
    "guys":6,
    "nothing":6,
    "understand":6,
    "whats":6,
    "other":6,
    "jack":6,
    "thought":6,
    "guess":6,
    "kind":6,
    "monica":6,
    "work":6,
    "working":6,
    "care":6,
    "every":6,
    "done":6,
    "sophia":6,
    "perfect":6,
    "feel":6,
    "first":6,
    "alone":6,
    "same":6,
    "around":6,
    "does":6,
    "hows":6,
    "gonna":6,
    "hi":7,
    "damn":7,
    "house":7,
    "early":7,
    "sign":7,
    "ago":7,
    "best":7,
    "said":7,
    "new":7,
    "home":7,
    "yourself":7,
    "away":7,
    "amazing":7,
    "anymore":7,
    "whos":7,
    "way":7,
    "room":7,
    "down":7,
    "years":7,
    "having":7,
    "maybe":7,
    "shostakovich":7,
    "ready":7,
    "anything":7,
    "lucy":8,
    "big":8,
    "into":8,
    "beautiful":8,
    "wasnt":8,
    "absolutely":8,
    "as":8,
    "gets":8,
    "help":8,
    "idea":8,
    "hell":8,
    "open":8,
    "their":8,
    "must":8,
    "told":8,
    "ever":8,
    "trust":8,
    "america":9,
    "now":9,
    "davidson":9,
    "sake":9,
    "make":9,
    "three":9,
    "else":9,
    "jesus":9,
    "london":9,
    "has":9,
    "over":9,
    "whatever":9,
    "long":9,
    "leave":9,
    "gate":9,
    "man":9,
    "lot":9,
    "director":9,
    "five":9,
    "word":9,
    "from":10,
    "call":10,
    "talk":10,
    "where":10,
    "theres":10,
    "even":10,
    "actually":10,
    "thing":10,
    "friends":10,
    "see":10,
    "would":10,
    "doing":10,
    "still":10,
    "then":10,
    "off":10,
    "hey":10,
    "honey":10,
    "isnt":10,
    "let":11,
    "back":11,
    "clair":11,
    "had":11,
    "them":11,
    "put":11,
    "cal":11,
    "life":11,
    "second":11,
    "part":11,
    "id":12,
    "only":12,
    "course":12,
    "thanks":12,
    "fine":12,
    "novel":12,
    "am":12,
    "movie":12,
    "last":12,
    "any":12,
    "doesnt":12,
    "anniversary":13,
    "anyone":13,
    "mean":13,
    "find":13,
    "look":13,
    "nice":13,
    "two":13,
    "why":13,
    "people":13,
    "mac":13,
    "lets":14,
    "baby":14,
    "theyre":14,
    "tonight":14,
    "his":14,
    "very":14,
    "":14,
    "youve":14,
    "could":15,
    "again":15,
    "or":15,
    "right":15,
    "too":15,
    "should":15,
    "shit":15,
    "there":15,
    "sorry":16,
    "happy":16,
    "tell":16,
    "sure":16,
    "say":16,
    "more":16,
    "something":16,
    "yeah":16,
    "take":17,
    "didnt":17,
    "an":17,
    "alright":17,
    "much":17,
    "thank":18,
    "dog":18,
    "get":18,
    "they":18,
    "skye":18,
    "will":18,
    "little":18,
    "been":18,
    "because":18,
    "us":19,
    "fuck":19,
    "ill":19,
    "kids":19,
    "ive":19,
    "need":20,
    "if":20,
    "who":20,
    "got":20,
    "when":20,
    "up":21,
    "always":21,
    "panes":21,
    "at":22,
    "okay":23,
    "our":23,
    "never":23,
    "can":24,
    "thats":24,
    "him":24,
    "one":24,
    "cant":25,
    "good":26,
    "did":26,
    "come":26,
    "go":27,
    "great":27,
    "her":28,
    "shes":28,
    "out":28,
    "ryan":28,
    "hes":29,
    "he":31,
    "god":32,
    "were":32,
    "want":32,
    "but":32,
    "otis":33,
    "time":33,
    "here":34,
    "she":35,
    "fucking":35,
    "joe":36,
    "yes":38,
    "going":38,
    "just":40,
    "how":40,
    "about":40,
    "with":40,
    "like":41,
    "love":42,
    "think":43,
    "all":43,
    "sally":45,
    "we":48,
    "really":48,
    "well":49,
    "was":53,
    "on":54,
    "no":54,
    "what":58,
    "your":60,
    "be":60,
    "youre":61,
    "do":61,
    "are":64,
    "this":66,
    "have":69,
    "for":71,
    "me":72,
    "so":73,
    "is":74,
    "know":77,
    "my":79,
    "dont":81,
    "oh":84,
    "that":84,
    "not":92,
    "im":98,
    "in":99,
    "its":104,
    "of":108,
    "it":133,
    "and":171,
    "to":191,
    "a":235,
    "the":250,
    "i":318,
    "you":427
}