{
    "mary":1,
    "oreilly":1,
    "oshea":1,
    "andover":1,
    "owns":1,
    "spring":1,
    "break":1,
    "handicapped":1,
    "children":1,
    "parents":1,
    "semester":1,
    "convent":1,
    "whoo":1,
    "woman":1,
    "gal":1,
    "volvo":1,
    "wagon":1,
    "motion":1,
    "highway":1,
    "herell":1,
    "hon":1,
    "rooms":1,
    "order":1,
    "triplechecked":1,
    "straightening":1,
    "nobody":1,
    "till":1,
    "nope":1,
    "peach":1,
    "excuses":1,
    "bloody":1,
    "unforgettable":1,
    "bye":1,
    "brashears":1,
    "youngblood":1,
    "finals":1,
    "far":1,
    "cummings":1,
    "jewett":1,
    "vyshinsky":1,
    "legs":1,
    "drama":1,
    "society":1,
    "volunteered":1,
    "costumes":1,
    "sew":1,
    "ghosts":1,
    "talented":1,
    "wonderful":1,
    "congratulations":1,
    "finding":1,
    "trapped":1,
    "women":1,
    "oughta":1,
    "control":1,
    "tie":1,
    "chains":1,
    "twinkies":1,
    "hanging":1,
    "sh":1,
    "iit":1,
    "friday":1,
    "paid":1,
    "overtime":1,
    "misses":1,
    "nik":1,
    "ferris":1,
    "folks":1,
    "spot":1,
    "copy":1,
    "marginal":1,
    "utility":1,
    "curves":1,
    "adds":1,
    "greeting":1,
    "springsteen":1,
    "buddies":1,
    "distant":1,
    "horizon":1,
    "mixes":1,
    "protect":1,
    "stretch":1,
    "round":1,
    "champ":1,
    "amazin":1,
    "moffo":1,
    "muffchild":1,
    "stuff":1,
    "muffster":1,
    "bet":1,
    "oldest":1,
    "career":1,
    "politics":1,
    "grow":1,
    "given":1,
    "hunch":1,
    "hopin":1,
    "company":1,
    "southern":1,
    "regional":1,
    "sales":1,
    "worth":1,
    "moren":1,
    "50":1,
    "mill":1,
    "fella":1,
    "fastens":1,
    "onto":1,
    "immersed":1,
    "carries":1,
    "whatcha":1,
    "readin":1,
    "milton":1,
    "paradise":1,
    "professor":1,
    "russos":1,
    "epic":1,
    "shame":1,
    "dying":1,
    "form":1,
    "read":1,
    "nowadays":1,
    "suck":1,
    "origins":1,
    "american":1,
    "pornographic":1,
    "film":1,
    "advisors":1,
    "sheltered":1,
    "porns":1,
    "wanna":1,
    "questions":1,
    "research":1,
    "voices":1,
    "low":1,
    "hitch":1,
    "buy":1,
    "university":1,
    "perks":1,
    "private":1,
    "interested":1,
    "fuckin":1,
    "screams":1,
    "stumbles":1,
    "teetering":1,
    "edge":1,
    "leap":1,
    "feet":1,
    "ferrymen":1,
    "both":1,
    "disbelief":1,
    "steps":1,
    "weaving":1,
    "topples":1,
    "splashes":1,
    "overboard":1,
    "whooee":1,
    "nail":1,
    "motherfuckin":1,
    "shiiit":1,
    "maniacs":1,
    "attack":1,
    "yourshoelace\u00adisuntied":1,
    "owe":1,
    "hows":1,
    "goin":1,
    "counting":1,
    "turkeys":1,
    "save":1,
    "wire":1,
    "ext":1,
    "passenger":1,
    "van":1,
    "sam":1,
    "ask":1,
    "bucks":1,
    "took":1,
    "unauthorized":1,
    "activity":1,
    "area":1,
    "sutton":1,
    "word":1,
    "burned":1,
    "worthless":1,
    "borrow":1,
    "outboard":1,
    "shore":1,
    "keys":1,
    "board":1,
    "extra":1,
    "underneath":1,
    "cushion":1,
    "points":1,
    "seat":1,
    "obliged":1,
    "anvthin":1,
    "fault":1,
    "awful":1,
    "21":1,
    "texas":1,
    "spend":1,
    "summers":1,
    "mother":1,
    "dream":1,
    "kennedys":1,
    "wow":1,
    "settings":1,
    "ken":1,
    "barbie":1,
    "agatha":1,
    "cristie":1,
    "napkins":1,
    "hallmark":1,
    "bunnies":1,
    "spared":1,
    "expense":1,
    "oldfashioned":1,
    "inherited":1,
    "outfits":1,
    "move":1,
    "jumps":1,
    "table":1,
    "whipping":1,
    "videocam":1,
    "record":1,
    "panning":1,
    "respective":1,
    "places":1,
    "pulls":1,
    "wang":1,
    "choices":1,
    "werent":1,
    "limited":1,
    "ready":1,
    "twentysix":1,
    "hear":1,
    "curious":1,
    "married":1,
    "knee":1,
    "dear":1,
    "poor":1,
    "person":1,
    "kick":1,
    "disinherit":1,
    "changed":1,
    "lose":1,
    "foolish":1,
    "innocent":1,
    "dessert":1,
    "ding":1,
    "dongs":1,
    "hospitality":1,
    "finished":1,
    "beans":1,
    "dinners":1,
    "subject":1,
    "graduate":1,
    "language":1,
    "afraid":1,
    "liberal":1,
    "arts":1,
    "fill":1,
    "forms":1,
    "gives":1,
    "delivering":1,
    "mail":1,
    "corporation":1,
    "incredible":1,
    "privileged":1,
    "hope":1,
    "medical":1,
    "early":1,
    "acceptance":1,
    "counselor":1,
    "front":1,
    "sorta":1,
    "grades":1,
    "basically":1,
    "possess":1,
    "essential":1,
    "lack":1,
    "seriousness":1,
    "moron":1,
    "steal":1,
    "bomb":1,
    "push":1,
    "button":1,
    "blow":1,
    "mad":1,
    "max":1,
    "impressed":1,
    "parade":1,
    "sounded":1,
    "dom":1,
    "perignon":1,
    "sparkling":1,
    "rose":1,
    "smells":1,
    "ripple":1,
    "outdone":1,
    "toast":1,
    "johnson":1,
    "james":1,
    "boswell":1,
    "cannot":1,
    "precise":1,
    "formed":1,
    "filling":1,
    "vessel":1,
    "series":1,
    "kindnesses":1,
    "hallway":1,
    "quarantine":1,
    "holler":1,
    "sweet":1,
    "expressions":1,
    "always":1,
    "seem":1,
    "ladies":1,
    "qonna":1,
    "privacy":1,
    "felt":1,
    "spark":1,
    "laid":1,
    "raw":1,
    "gnight":1,
    "dinner":1,
    "ouch":1,
    "umhmm":1,
    "whos":1,
    "hungry":1,
    "backs":1,
    "scurrying":1,
    "forgot":1,
    "dressed":1,
    "depends":1,
    "wanted":1,
    "swear":1,
    "yesterday":1,
    "crazyyou":1,
    "investing":1,
    "energy":1,
    "expects":1,
    "law":1,
    "realize":1,
    "perfectly":1,
    "unmatched":1,
    "looks":1,
    "kisses":1,
    "softly":1,
    "five":1,
    "sonofabitch":1,
    "respectable":1,
    "quaker":1,
    "returning":1,
    "quiet":1,
    "afternoon":1,
    "nonviolent":1,
    "sex":1,
    "straight":1,
    "drifting":1,
    "movinq":1,
    "joking":1,
    "face":1,
    "thems":1,
    "bound":1,
    "split":1,
    "chances":1,
    "suckers":1,
    "avoiding":1,
    "tape":1,
    "checkin":1,
    "dyou":1,
    "shithead":1,
    "chickendick":1,
    "definitely":1,
    "called":1,
    "police":1,
    "eighttwofoureight":1,
    "office":1,
    "reached":1,
    "haven":1,
    "t":1,
    "broken":1,
    "sometime":1,
    "homes":1,
    "pump":1,
    "emergencies":1,
    "direction":1,
    "trick":1,
    "experience":1,
    "hick":1,
    "youd":1,
    "chance":1,
    "plow":1,
    "field":1,
    "bucket":1,
    "rope":1,
    "rotten":1,
    "coulda":1,
    "shine":1,
    "fix":1,
    "handle":1,
    "few":1,
    "spiders":1,
    "frogs":1,
    "outdoors":1,
    "inside":1,
    "safe":1,
    "perrier":1,
    "aint":1,
    "visiting":1,
    "surgery":1,
    "nightit":1,
    "interest":1,
    "understand":1,
    "send":1,
    "nearing":1,
    "group":1,
    "meantime":1,
    "close":1,
    "photograph":1,
    "secure":1,
    "arent":1,
    "wherere":1,
    "checking":1,
    "less":1,
    "normal":1,
    "noticed":1,
    "clodhoppers":1,
    "wearing":1,
    "crepe":1,
    "soles":1,
    "arguing":1,
    "spent":1,
    "secret":1,
    "walked":1,
    "fire":1,
    "clippings":1,
    "accidents":1,
    "personal":1,
    "common":1,
    "nhat":1,
    "undying":1,
    "loyalty":1,
    "sitting":1,
    "discussing":1,
    "possibility":1,
    "generous":1,
    "starting":1,
    "nerves":1,
    "within":1,
    "shouting":1,
    "distance":1,
    "goinq":1,
    "attic":1,
    "door":1,
    "dig":1,
    "trench":1,
    "hang":1,
    "effective":1,
    "waltz":1,
    "porter":1,
    "ocean":1,
    "liner":1,
    "pick":1,
    "swim":1,
    "strong":1,
    "nikkis":1,
    "hold":1,
    "nervous":1,
    "bit":1,
    "running":1,
    "chicken":1,
    "head":1,
    "cut":1,
    "image":1,
    "lighten":1,
    "worry":1,
    "bright":1,
    "side":1,
    "jerk":1,
    "kiss":1,
    "savage":1,
    "shedevil":1,
    "ooooh":1,
    "rough":1,
    "breathe":1,
    "passionate":1,
    "subtle":1,
    "jump":1,
    "wind":1,
    "learn":1,
    "buddy":1,
    "may":1,
    "stick":1,
    "lights":1,
    "chosen":1,
    "especially":1,
    "explain":1,
    "ridiculous":1,
    "moves":1,
    "stays":1,
    "gets":1,
    "closer":1,
    "however":1,
    "realizes":1,
    "haphazardly":1,
    "mr":1,
    "signal":1,
    "went":1,
    "pursuant":1,
    "previous":1,
    "communication":1,
    "advised":1,
    "discussion":1,
    "returned":1,
    "custody":1,
    "believed":1,
    "attempting":1,
    "return":1,
    "jurisdiction":1,
    "encountered":1,
    "exercise":1,
    "caution":1,
    "notify":1,
    "immediately":1,
    "considered":1,
    "incorrigibly":1,
    "unstable":1,
    "extremely":1,
    "dangerous":1,
    "mental":1,
    "institution":1,
    "vassar":1,
    "promise":1,
    "closed":1,
    "pointing":1,
    "basement":1,
    "window":1,
    "across":1,
    "foot":1,
    "space":1,
    "lawn":1,
    "picture":1,
    "girls":1,
    "letter":1,
    "glazed":1,
    "harm":1,
    "leaving":1,
    "ki":1,
    "terrific":1,
    "bottom":1,
    "such":1,
    "sports":1,
    "welcome":1,
    "smack":1,
    "script":1,
    "carry":1,
    "itself":1,
    "taxes":1,
    "expenses":1,
    "sell":1,
    "stuffy":1,
    "runofthemill":1,
    "specializes":1,
    "offering":1,
    "onceina":1,
    "lifetime":1,
    "whodunit":1,
    "weekends":1,
    "needed":1,
    "rehearsal":1,
    "sucked":1,
    "cooperate":1,
    "none":1,
    "bastard":1,
    "setup":1,
    "williams":1,
    "makeup":1,
    "artist":1,
    "par":1,
    "excellence":1,
    "hollywood":1,
    "catch":1,
    "props":1,
    "redressed":1,
    "photographs":1,
    "sent":1,
    "fooled":1,
    "castle":1,
    "inherit":1,
    "prove":1,
    "manage":1,
    "allowance":1,
    "means":1,
    "freres":1,
    "wall":1,
    "street":1,
    "pleased":1,
    "usually":1,
    "summer":1,
    "busy":1,
    "exception":1,
    "hasty":1,
    "pudding":1,
    "sophomore":1,
    "harvard":1,
    "lowe":1,
    "shaking":1,
    "regular":1,
    "islands":1,
    "dramatic":1,
    "challenge":1,
    "snake":1,
    "paying":1,
    "guests":1,
    "scenario":1,
    "lloyds":1,
    "london":1,
    "cover":1,
    "regret":1,
    "fake":1,
    "planted":1,
    "bedrooms":1,
    "seriously":1,
    "man":1,
    "swinging":1,
    "crapped":1,
    "remember":1,
    "browned":1,
    "trousers":1,
    "dryer":1,
    "ham":1,
    "eggs":1,
    "foods":1,
    "indication":1,
    "halfway":1,
    "toxic":1,
    "wastes":1,
    "bar":1,
    "harbor":1,
    "minutes":1,
    "stragglers":1,
    "difference":1,
    "alive":1,
    "columbia":1,
    "says":1,
    "med":1,
    "matter":1,
    "enters":1,
    "dishes":1,
    "followed":1,
    "quietly":1,
    "sets":1,
    "plate":1,
    "champagne":1,
    "full":1,
    "glowing":1,
    "tomorrow":1,
    "deed":1,
    "papers":1,
    "wednesdays":1,
    "signing":1,
    "proud":1,
    "wish":1,
    "spoken":1,
    "turns":1,
    "walks":1,
    "hate":1,
    "ought":1,
    "kill":1,
    "losing":1,
    "fortune":1,
    "forgiven":1,
    "sounding":1,
    "false":1,
    "goodbye":1,
    "showing":1,
    "personally":1,
    "eye":1,
    "p1ace":1,
    "spending":1,
    "business":1,
    "feeling":1,
    "budding":1,
    "filmmaker":1,
    "pornography":1,
    "kid":1,
    "toy":1,
    "camera":1,
    "tired":1,
    "having":1,
    "fling":1,
    "thinks":1,
    "weird":1,
    "naturally":1,
    "accepted":1,
    "fact":1,
    "piss":1,
    "unleashes":1,
    "behavior":1,
    "accept":1,
    "amazes":1,
    "himself":1,
    "team":1,
    "taste":1,
    "beat":1,
    "registering":1,
    "scare":1,
    "outta":1,
    "expecting":1,
    "pussies":1,
    "kinda":1,
    "dish":1,
    "interesting":1,
    "catfight":1,
    "decided":1,
    "spare":1,
    "professional":1,
    "hlo":1,
    "whatd":1,
    "calling":1,
    "partys":1,
    "cleanups":1,
    "gangs":1,
    "bear":1,
    "sporting":1,
    "figures":1,
    "recommendations":1,
    "feelings":1,
    "dope":1,
    "daddyll":1,
    "buckle":1,
    "act":1,
    "surprised":1,
    "arrive":1,
    "sis":1,
    "goofball":1,
    "beg":1,
    "pardon":1,
    "petty":1,
    "consistency":1,
    "hobgoblin":1,
    "minds":1,
    "blood":1,
    "thicker":1,
    "sticks":1,
    "arrange":1,
    "card":1,
    "appreciate":1,
    "pleasure":1,
    "number":1,
    "address":1,
    "speeds":1,
    "past":1,
    "walking":1,
    "further":1,
    "nephew":1,
    "identified":1,
    "swell":1,
    "hour":1,
    "cares":1,
    "howre":1,
    "motor":1,
    "earth":1,
    "nothings":1,
    "couldnt":1,
    "hand":1,
    "cleanup":1,
    "putting":1,
    "boathouse":1,
    "keeping":1,
    "beginning":1,
    "drink":1,
    "uh":1,
    "drank":1,
    "case":1,
    "safer":1,
    "flashlight":1,
    "dug":1,
    "swimming":1,
    "pool":1,
    "drags":1,
    "herself":1,
    "fucking":1,
    "godl":1,
    "playing":1,
    "quit":1,
    "kicking":1,
    "hurts":1,
    "games":1,
    "blowing":1,
    "gone":1,
    "dragged":1,
    "somebodys":1,
    "follow":1,
    "trail":1,
    "nans":1,
    "funs":1,
    "ticklish":1,
    "shall":1,
    "touch":1,
    "proprietors":1,
    "frere":1,
    "otoole":2,
    "waiting":2,
    "gee":2,
    "best":2,
    "date":2,
    "outrageous":2,
    "pass":2,
    "main":2,
    "lift":2,
    "double":2,
    "hard":2,
    "monday":2,
    "party":2,
    "luck":2,
    "comes":2,
    "second":2,
    "goodness":2,
    "graham":2,
    "staying":2,
    "while":2,
    "behind":2,
    "hall":2,
    "bag":2,
    "met":2,
    "term":2,
    "hostess":2,
    "excuse":2,
    "week":2,
    "edison":2,
    "jr":2,
    "pretty":2,
    "sit":2,
    "econ":2,
    "345":2,
    "joke":2,
    "preppy":2,
    "boss":2,
    "except":2,
    "cousin":2,
    "kiddin":2,
    "known":2,
    "must":2,
    "muffin":2,
    "muffers":2,
    "actually":2,
    "months":2,
    "daddys":2,
    "graduation":2,
    "counter":2,
    "books":2,
    "course":2,
    "english":2,
    "many":2,
    "yours":2,
    "taking":2,
    "independent":2,
    "someday":2,
    "\u00ad":2,
    "major":2,
    "answer":2,
    "besides":2,
    "state":2,
    "anymore":2,
    "enoughs":2,
    "enough":2,
    "forward":2,
    "under":2,
    "em":2,
    "fools":2,
    "jerks":2,
    "couldve":2,
    "gotten":2,
    "almost":2,
    "gave":2,
    "crap":2,
    "ass":2,
    "later":2,
    "hospital":2,
    "tricks":2,
    "pranks":2,
    "lucky":2,
    "check":2,
    "report":2,
    "kitchen":2,
    "glad":2,
    "fixed":2,
    "sound":2,
    "month":2,
    "turn":2,
    "stage":2,
    "inheritance":2,
    "mom":2,
    "died":2,
    "special":2,
    "cards":2,
    "outasight":2,
    "sporks":2,
    "add":2,
    "quite":2,
    "daddy":2,
    "girl":2,
    "teeth":2,
    "fathers":2,
    "friendly":2,
    "wonder":2,
    "harveys":2,
    "choice":2,
    "decide":2,
    "most":2,
    "meeting":2,
    "wants":2,
    "serious":2,
    "bullshit":2,
    "again":2,
    "someone":2,
    "friendship":2,
    "collar":2,
    "unless":2,
    "between":2,
    "eyes":2,
    "talent":2,
    "driving":2,
    "hello":2,
    "morning":2,
    "cold":2,
    "four":2,
    "same":2,
    "goddammit":2,
    "saw":2,
    "pier":2,
    "looked":2,
    "asshole":2,
    "skips":2,
    "somewhere":2,
    "yet":2,
    "abortion":2,
    "through":2,
    "happening":2,
    "without":2,
    "worried":2,
    "art":2,
    "farm":2,
    "draw":2,
    "aw":2,
    "light":2,
    "leave":2,
    "everyone":2,
    "possible":2,
    "cals":2,
    "hurry":2,
    "ferryman":2,
    "either":2,
    "flare":2,
    "lock":2,
    "sometimes":2,
    "tides":2,
    "robs":2,
    "nurses":2,
    "shoes":2,
    "today":2,
    "intended":2,
    "sport":2,
    "suppose":2,
    "hasnt":2,
    "saying":2,
    "happen":2,
    "relax":2,
    "babe":2,
    "everythingll":2,
    "turning":2,
    "throw":2,
    "clothes":2,
    "pants":2,
    "use":2,
    "trust":2,
    "left":2,
    "anyone":2,
    "dolls":2,
    "toward":2,
    "doors":2,
    "patient":2,
    "miss":2,
    "being":2,
    "played":2,
    "deal":2,
    "et":2,
    "sir":2,
    "soon":2,
    "leaves":2,
    "care":2,
    "stack":2,
    "high":2,
    "boyfriend":2,
    "whatre":2,
    "stopped":2,
    "wed":2,
    "medicine":2,
    "does":2,
    "surprise":2,
    "bastards":2,
    "late":2,
    "killing":2,
    "myself":3,
    "start":3,
    "fool":3,
    "o":3,
    "fine":3,
    "trying":3,
    "ever":3,
    "yknow":3,
    "ones":3,
    "stand":3,
    "clear":3,
    "men":3,
    "flys":3,
    "though":3,
    "true":3,
    "game":3,
    "eat":3,
    "older":3,
    "interview":3,
    "year":3,
    "lost":3,
    "people":3,
    "study":3,
    "lives":3,
    "dad":3,
    "part":3,
    "howd":3,
    "able":3,
    "car":3,
    "looking":3,
    "heart":3,
    "least":3,
    "bad":3,
    "potter":3,
    "stuck":3,
    "goddamn":3,
    "windows":3,
    "theyve":3,
    "accident":3,
    "done":3,
    "used":3,
    "muff":3,
    "moment":3,
    "everything":3,
    "thirty":3,
    "wont":3,
    "giving":3,
    "stupid":3,
    "guy":3,
    "taken":3,
    "extreme":3,
    "feel":3,
    "figured":3,
    "knows":3,
    "talk":3,
    "mind":3,
    "cherish":3,
    "theyll":3,
    "heres":3,
    "drop":3,
    "upstairs":3,
    "angry":3,
    "funny":3,
    "since":3,
    "longer":3,
    "probably":3,
    "others":3,
    "guns":3,
    "telling":3,
    "hell":3,
    "whole":3,
    "meet":3,
    "acting":3,
    "alone":3,
    "phone":3,
    "listen":3,
    "clues":3,
    "killed":3,
    "brother":3,
    "prank":3,
    "nearly":3,
    "learned":3,
    "getting":3,
    "doesnt":3,
    "name":4,
    "invited":4,
    "work":4,
    "next":4,
    "april":4,
    "int":4,
    "clara":4,
    "worked":4,
    "mine":4,
    "nice":4,
    "road":4,
    "planning":4,
    "seen":4,
    "already":4,
    "days":4,
    "sister":4,
    "open":4,
    "coming":4,
    "somebody":4,
    "harve":4,
    "muffys":4,
    "otherwise":4,
    "believe":4,
    "three":4,
    "point":4,
    "pull":4,
    "goes":4,
    "crazy":4,
    "dock":4,
    "easy":4,
    "came":4,
    "happens":4,
    "future":4,
    "young":4,
    "once":4,
    "job":4,
    "theyre":4,
    "everybody":4,
    "kidding":4,
    "which":4,
    "found":4,
    "stairs":4,
    "scared":4,
    "thing":4,
    "after":4,
    "happened":4,
    "havent":4,
    "key":4,
    "twin":4,
    "buffy":4,
    "country":4,
    "inn":4,
    "along":4,
    "fun":4,
    "woods":4,
    "friend":5,
    "yourself":5,
    "school":5,
    "need":5,
    "gotta":5,
    "their":5,
    "try":5,
    "run":5,
    "call":5,
    "watch":5,
    "wouldnt":5,
    "old":5,
    "family":5,
    "long":5,
    "big":5,
    "college":5,
    "started":5,
    "rest":5,
    "hurt":5,
    "these":5,
    "cal":5,
    "mainland":5,
    "change":5,
    "ago":5,
    "makes":5,
    "guys":5,
    "doing":5,
    "forget":5,
    "into":5,
    "goodnight":5,
    "each":5,
    "couple":5,
    "things":5,
    "uncle":5,
    "frank":5,
    "island":6,
    "weekend":6,
    "wheres":6,
    "life":6,
    "gonna":6,
    "told":6,
    "father":6,
    "harvey":6,
    "boy":6,
    "them":6,
    "money":6,
    "never":6,
    "guess":6,
    "off":6,
    "before":6,
    "jesus":6,
    "more":6,
    "place":6,
    "lot":6,
    "might":6,
    "home":6,
    "made":6,
    "weve":6,
    "those":6,
    "anyway":6,
    "two":6,
    "maybe":6,
    "dead":6,
    "isnt":6,
    "would":6,
    "water":6,
    "stop":6,
    "show":6,
    "give":7,
    "day":7,
    "minute":7,
    "then":7,
    "better":7,
    "am":7,
    "sorry":7,
    "cant":7,
    "keep":7,
    "kids":7,
    "nothing":7,
    "wrong":7,
    "huh":7,
    "little":7,
    "years":7,
    "supposed":7,
    "another":7,
    "yes":7,
    "okay":7,
    "ferry":8,
    "take":8,
    "tell":8,
    "kind":8,
    "room":8,
    "will":8,
    "ive":8,
    "than":8,
    "good":8,
    "thank":8,
    "other":8,
    "away":8,
    "anybody":8,
    "wasnt":8,
    "because":8,
    "night":8,
    "idea":8,
    "constable":8,
    "hi":9,
    "where":9,
    "thanks":9,
    "real":9,
    "last":9,
    "id":9,
    "has":9,
    "hal":9,
    "thought":9,
    "own":9,
    "even":9,
    "boat":9,
    "anything":9,
    "very":9,
    "love":9,
    "first":10,
    "cmon":10,
    "help":10,
    "down":10,
    "youve":10,
    "ok":10,
    "hey":10,
    "buck":10,
    "lets":10,
    "much":10,
    "talking":10,
    "should":10,
    "had":10,
    "else":11,
    "friends":11,
    "theres":11,
    "didnt":11,
    "nan":11,
    "great":11,
    "did":11,
    "could":11,
    "said":11,
    "please":11,
    "together":11,
    "let":11,
    "find":11,
    "by":11,
    "or":11,
    "make":11,
    "shes":12,
    "shit":12,
    "god":12,
    "stay":12,
    "around":12,
    "see":12,
    "st":12,
    "john":12,
    "when":12,
    "over":13,
    "fuck":13,
    "arch":13,
    "yeah":13,
    "an":13,
    "still":13,
    "they":13,
    "from":13,
    "time":13,
    "who":13,
    "too":14,
    "only":14,
    "our":14,
    "something":15,
    "nikki":15,
    "she":15,
    "house":15,
    "wait":15,
    "way":16,
    "say":17,
    "any":17,
    "one":17,
    "ill":17,
    "whats":18,
    "why":18,
    "mean":19,
    "his":20,
    "us":21,
    "going":21,
    "come":21,
    "as":21,
    "now":22,
    "want":22,
    "how":22,
    "sure":22,
    "some":22,
    "youre":22,
    "right":22,
    "got":22,
    "really":22,
    "at":22,
    "like":23,
    "thats":23,
    "think":24,
    "back":24,
    "hes":24,
    "go":24,
    "can":24,
    "are":25,
    "kit":25,
    "not":26,
    "look":26,
    "skip":27,
    "him":27,
    "have":27,
    "been":27,
    "were":29,
    "chaz":29,
    "so":29,
    "her":29,
    "there":30,
    "if":30,
    "do":31,
    "but":32,
    "up":33,
    "out":34,
    "he":35,
    "rob":37,
    "for":38,
    "get":38,
    "well":40,
    "my":41,
    "oh":42,
    "your":43,
    "that":43,
    "with":44,
    "im":45,
    "here":45,
    "is":46,
    "muffy":46,
    "its":46,
    "be":46,
    "":47,
    "know":48,
    "just":48,
    "was":49,
    "no":51,
    "about":52,
    "all":52,
    "this":53,
    "dont":63,
    "on":63,
    "we":66,
    "me":69,
    "in":72,
    "of":80,
    "what":91,
    "and":93,
    "it":100,
    "a":112,
    "to":167,
    "the":197,
    "you":198,
    "i":209
}