{
    "coming":1,
    "boys":1,
    "nuisance":1,
    "forget":1,
    "newspaper":1,
    "cannot":1,
    "pity":1,
    "bergenbelsen":1,
    "january":1,
    "auschwitz":1,
    "44":1,
    "war":1,
    "escaped":1,
    "buenos":1,
    "aires":1,
    "1950":1,
    "52":1,
    "cuba":1,
    "1952":1,
    "58":1,
    "does":1,
    "popped":1,
    "west":1,
    "berlin":1,
    "almost":1,
    "matter":1,
    "game":1,
    "before":1,
    "fine":1,
    "okay":1,
    "herr":1,
    "kommandant":1,
    "love":1,
    "meet":1,
    "blood":1,
    "fiend":1,
    "away":1,
    "house":1,
    "god":1,
    "damn":1,
    "ill":1,
    "beat":1,
    "saw":1,
    "again":1,
    "weeks":1,
    "ago":1,
    "ahead":1,
    "iii":1,
    "wait":1,
    "steps":1,
    "youll":1,
    "such":1,
    "wont":1,
    "man":1,
    "screaming":1,
    "ride":1,
    "station":1,
    "bring":1,
    "myself":1,
    "minute":1,
    "insane":1,
    "arguing":1,
    "wife":1,
    "died":1,
    "1955":1,
    "lung":1,
    "disease":1,
    "working":1,
    "menschler":1,
    "heartbroken":1,
    "stop":1,
    "ilse":1,
    "koch":1,
    "lampshades":1,
    "human":1,
    "skin":1,
    "talking":1,
    "television":1,
    "fried":1,
    "brain":1,
    "hands":1,
    "shake":1,
    "tiresome":1,
    "rude":1,
    "point":1,
    "wish":1,
    "youd":1,
    "rush":1,
    "plans":1,
    "cancel":1,
    "since":1,
    "sit":1,
    "ugly":1,
    "chair":1,
    "watch":1,
    "soap":1,
    "operas":1,
    "except":1,
    "friday":1,
    "afternoons":1,
    "movie":1,
    "theater":1,
    "twice":1,
    "week":1,
    "take":1,
    "shopping":1,
    "use":1,
    "express":1,
    "lane":1,
    "ten":1,
    "items":1,
    "followed":1,
    "normally":1,
    "around":1,
    "peoples":1,
    "houses":1,
    "accuse":1,
    "being":1,
    "nazi":1,
    "fugitives":1,
    "exception":1,
    "kurt":1,
    "absolutely":1,
    "certain":1,
    "oh":1,
    "exnazi":1,
    "fellow":1,
    "part":1,
    "offer":1,
    "hidden":1,
    "stash":1,
    "gold":1,
    "mouths":1,
    "jewish":1,
    "men":1,
    "which":1,
    "keep":1,
    "buried":1,
    "basement":1,
    "isnt":1,
    "afraid":1,
    "wasting":1,
    "might":1,
    "nonsense":1,
    "probably":1,
    "spend":1,
    "sneak":1,
    "country":1,
    "passport":1,
    "expensive":1,
    "market":1,
    "personally":1,
    "eighth":1,
    "grade":1,
    "wed":1,
    "life":1,
    "grab":1,
    "fall":1,
    "place":1,
    "hers":1,
    "teaching":1,
    "collecting":1,
    "nineteenthcentury":1,
    "postcards":1,
    "theres":1,
    "thinking":1,
    "summer":1,
    "ronny":1,
    "peglers":1,
    "garage":1,
    "these":1,
    "girls":1,
    "same":1,
    "hang":1,
    "sec":1,
    "pictures":1,
    "seen":1,
    "anymore":1,
    "especially":1,
    "ones":1,
    "stacks":1,
    "grabbed":1,
    "uniforms":1,
    "saluted":1,
    "each":1,
    "other":1,
    "year":1,
    "wrote":1,
    "big":1,
    "term":1,
    "dachau":1,
    "only":1,
    "skipped":1,
    "grades":1,
    "ninth":1,
    "didnt":1,
    "junior":1,
    "kids":1,
    "resent":1,
    "important":1,
    "floored":1,
    "history":1,
    "through":1,
    "without":1,
    "throwing":1,
    "sound":1,
    "disgusted":1,
    "magazines":1,
    "leave":1,
    "tried":1,
    "freaked":1,
    "dinner":1,
    "nowadays":1,
    "soften":1,
    "softened":1,
    "trouble":1,
    "low":1,
    "maintenance":1,
    "crackers":1,
    "riveted":1,
    "raining":1,
    "climbed":1,
    "started":1,
    "slow":1,
    "aisle":1,
    "examining":1,
    "new":1,
    "batch":1,
    "inmates":1,
    "glance":1,
    "somehow":1,
    "seemed":1,
    "move":1,
    "carried":1,
    "rolled":1,
    "umbrella":1,
    "set":1,
    "off":1,
    "wearing":1,
    "long":1,
    "suddenly":1,
    "flipped":1,
    "ss":1,
    "greatcoat":1,
    "riding":1,
    "crop":1,
    "incredible":1,
    "every":1,
    "forty":1,
    "matched":1,
    "photos":1,
    "little":1,
    "camera":1,
    "fits":1,
    "palm":1,
    "hand":1,
    "clever":1,
    "needed":1,
    "proof":1,
    "mall":1,
    "kit":1,
    "hobby":1,
    "shop":1,
    "book":1,
    "tells":1,
    "supposed":1,
    "dusted":1,
    "while":1,
    "movies":1,
    "smart":1,
    "huh":1,
    "dust":1,
    "copy":1,
    "sheet":1,
    "israeli":1,
    "government":1,
    "database":1,
    "uc":1,
    "irvine":1,
    "can":1,
    "bourbon":1,
    "drink":1,
    "coke":1,
    "kok":1,
    "takes":1,
    "eight":1,
    "matches":1,
    "accepted":1,
    "court":1,
    "sets":1,
    "prints":1,
    "figured":1,
    "mailmans":1,
    "knew":1,
    "looking":1,
    "yours":1,
    "spot":1,
    "should":1,
    "detective":1,
    "maybe":1,
    "thinks":1,
    "fourteen":1,
    "gott":1,
    "dairylee":1,
    "farms":1,
    "carton":1,
    "smiling":1,
    "cow":1,
    "missing":1,
    "children":1,
    "explain":1,
    "clearly":1,
    "kind":1,
    "experiments":1,
    "decompression":1,
    "chamber":1,
    "fucking":1,
    "enough":1,
    "americanized":1,
    "apparently":1,
    "father":1,
    "greatly":1,
    "admired":1,
    "stories":1,
    "conan":1,
    "doyle":1,
    "serve":1,
    "reserves":1,
    "admit":1,
    "late":1,
    "thirties":1,
    "married":1,
    "suppose":1,
    "work":1,
    "tobacco":1,
    "cigarette":1,
    "used":1,
    "smoke":1,
    "quit":1,
    "hes":1,
    "addicted":1,
    "nicorette":1,
    "lost":1,
    "directing":1,
    "phantom":1,
    "armies":1,
    "whim":1,
    "astrologer":1,
    "he":1,
    "dog":1,
    "blondi":1,
    "death":1,
    "capsule":1,
    "may":1,
    "2nd":1,
    "1945":1,
    "regiment":1,
    "surrendered":1,
    "americans":1,
    "private":1,
    "gonzales":1,
    "chocolate":1,
    "bar":1,
    "wept":1,
    "interned":1,
    "treated":1,
    "very":1,
    "listened":1,
    "nuremberg":1,
    "trials":1,
    "radio":1,
    "goering":1,
    "committed":1,
    "suicide":1,
    "half":1,
    "bottle":1,
    "schnaps":1,
    "drunk":1,
    "released":1,
    "wheels":1,
    "cars":1,
    "retired":1,
    "1963":1,
    "1967":1,
    "emigrated":1,
    "california":1,
    "became":1,
    "citizen":1,
    "let":2,
    "anything":2,
    "cant":2,
    "thought":2,
    "perhaps":2,
    "1965":2,
    "by":2,
    "three":2,
    "downtown":2,
    "cops":2,
    "start":2,
    "ever":2,
    "understand":2,
    "talk":2,
    "crazy":2,
    "people":2,
    "motor":2,
    "works":2,
    "tell":2,
    "who":2,
    "shaking":2,
    "most":2,
    "business":2,
    "":2,
    "walk":2,
    "always":2,
    "than":2,
    "following":2,
    "course":2,
    "taken":2,
    "any":2,
    "least":2,
    "black":2,
    "not":2,
    "something":2,
    "our":2,
    "miss":2,
    "harmon":2,
    "find":2,
    "everything":2,
    "guess":2,
    "told":2,
    "found":2,
    "doing":2,
    "check":2,
    "look":2,
    "couldnt":2,
    "camps":2,
    "telling":2,
    "anybody":2,
    "last":2,
    "a+":2,
    "real":2,
    "second":2,
    "already":2,
    "remember":2,
    "called":2,
    "moms":2,
    "phone":2,
    "says":2,
    "care":2,
    "end":2,
    "actually":2,
    "pretty":2,
    "dad":2,
    "library":2,
    "under":2,
    "arm":2,
    "rain":2,
    "easy":2,
    "years":2,
    "photographs":2,
    "yeah":2,
    "bought":2,
    "fingerprint":2,
    "mailbox":2,
    "fingerprints":2,
    "else":2,
    "compares":2,
    "mom":2,
    "arthur":2,
    "named":2,
    "supported":2,
    "hitler":2,
    "him":2,
    "nicotine":2,
    "gum":2,
    "need":3,
    "american":3,
    "could":3,
    "day":3,
    "paper":3,
    "mr":3,
    "give":3,
    "thing":3,
    "name":3,
    "after":3,
    "43":3,
    "june":3,
    "went":3,
    "patin":3,
    "listen":3,
    "call":3,
    "police":3,
    "until":3,
    "bus":3,
    "down":3,
    "mind":3,
    "an":3,
    "into":3,
    "essen":3,
    "wasnt":3,
    "made":3,
    "theyre":3,
    "say":3,
    "nothing":3,
    "more":3,
    "been":3,
    "must":3,
    "money":3,
    "some":3,
    "done":3,
    "great":3,
    "interest":3,
    "learned":3,
    "said":3,
    "once":3,
    "happened":3,
    "todd":3,
    "stuff":3,
    "put":3,
    "books":3,
    "believe":3,
    "mean":3,
    "accelerated":3,
    "two":3,
    "those":3,
    "parents":3,
    "coat":3,
    "took":3,
    "milk":3,
    "first":3,
    "violation":3,
    "demand":3,
    "his":3,
    "go":4,
    "read":4,
    "see":4,
    "up":4,
    "where":4,
    "they":4,
    "get":4,
    "its":4,
    "way":4,
    "home":4,
    "old":4,
    "back":4,
    "come":4,
    "we":4,
    "id":4,
    "why":4,
    "even":4,
    "just":4,
    "anyway":4,
    "teacher":4,
    "us":4,
    "gave":4,
    "picture":4,
    "out":5,
    "here":5,
    "them":5,
    "will":5,
    "so":5,
    "youre":5,
    "has":5,
    "are":5,
    "yes":5,
    "when":5,
    "never":5,
    "think":5,
    "am":5,
    "as":5,
    "dussander":6,
    "denker":6,
    "one":6,
    "with":6,
    "time":6,
    "would":6,
    "there":6,
    "about":6,
    "had":6,
    "because":6,
    "well":6,
    "really":6,
    "right":7,
    "good":7,
    "sure":7,
    "got":7,
    "she":7,
    "thats":7,
    "from":8,
    "want":8,
    "did":8,
    "like":8,
    "now":9,
    "were":9,
    "im":10,
    "is":10,
    "then":10,
    "if":10,
    "do":10,
    "boy":11,
    "be":11,
    "know":11,
    "no":11,
    "all":12,
    "at":14,
    "me":15,
    "but":15,
    "have":15,
    "this":15,
    "dont":16,
    "your":17,
    "for":17,
    "was":19,
    "on":20,
    "that":20,
    "what":21,
    "my":23,
    "in":25,
    "and":27,
    "of":32,
    "it":33,
    "a":34,
    "to":48,
    "the":64,
    "you":88,
    "i":102
}