{
    "fasten":1,
    "correctly":1,
    "lunch":1,
    "whered":1,
    "grow":1,
    "barn":1,
    "cute":1,
    "fails":1,
    "earn":1,
    "dozen":1,
    "chance":1,
    "sport":1,
    "button":1,
    "near":1,
    "stray":1,
    "laughing":1,
    "walked":1,
    "remembers":1,
    "nine":1,
    "probation":1,
    "duty":1,
    "monday":1,
    "changes":1,
    "forever":1,
    "devotion":1,
    "honor":1,
    "special":1,
    "dedicate":1,
    "firefighters":1,
    "fallen":1,
    "richard":1,
    "walter":1,
    "michael":1,
    "petzold":1,
    "pleasure":1,
    "certify":1,
    "number":1,
    "322":1,
    "successfully":1,
    "completed":1,
    "requirements":1,
    "hereby":1,
    "presses":1,
    "littlest":1,
    "collage":1,
    "bar":1,
    "director":1,
    "sales":1,
    "aspen":1,
    "snowmobile":1,
    "tours":1,
    "growth":1,
    "challenge":1,
    "pioneers":1,
    "pride":1,
    "mobile":1,
    "management":1,
    "pin":1,
    "heads":1,
    "laguna":1,
    "jamming":1,
    "custom":1,
    "surfboards":1,
    "sucked":1,
    "sound":1,
    "spectrum":1,
    "perfect":1,
    "spot":1,
    "curious":1,
    "howd":1,
    "sealed":1,
    "crooked":1,
    "lots":1,
    "promote":1,
    "faster":1,
    "lts":1,
    "timmy":1,
    "115s":1,
    "bribe":1,
    "mrs":1,
    "viatkus":1,
    "calling":1,
    "profile":1,
    "neighborhood":1,
    "quite":1,
    "visiting":1,
    "lincoln":1,
    "park":1,
    "hall":1,
    "dried":1,
    "permission":1,
    "overheating":1,
    "certainly":1,
    "matured":1,
    "motherfucker":1,
    "whatcha":1,
    "walton":1,
    "ave":1,
    "meet":1,
    "crimp":1,
    "evening":1,
    "costume":1,
    "rent":1,
    "inspiration":1,
    "fitzgerald":1,
    "brotherly":1,
    "cheap":1,
    "age":1,
    "stare":1,
    "charging":1,
    "admission":1,
    "investigations":1,
    "stroke":1,
    "dogs":1,
    "stinking":1,
    "hellooo":1,
    "written":1,
    "shoulda":1,
    "joined":1,
    "jeez":1,
    "giant":1,
    "surprised":1,
    "forget":1,
    "favorite":1,
    "strangle":1,
    "moved":1,
    "april":1,
    "ought":1,
    "picking":1,
    "phone":1,
    "retired":1,
    "graveyard":1,
    "worry":1,
    "falling":1,
    "comin":1,
    "ripping":1,
    "bachman":1,
    "turner":1,
    "overdrive":1,
    "buffalo":1,
    "springfield":1,
    "bishop":1,
    "actual":1,
    "operating":1,
    "8track":1,
    "field":1,
    "museum":1,
    "worked":1,
    "sixth":1,
    "grade":1,
    "millions":1,
    "sexual":1,
    "favors":1,
    "sheep":1,
    "count":1,
    "laura":1,
    "proved":1,
    "whyd":1,
    "messed":1,
    "gi":1,
    "joe":1,
    "games":1,
    "manage":1,
    "ways":1,
    "screw":1,
    "crawling":1,
    "strings":1,
    "moan":1,
    "biz":1,
    "bankrupt":1,
    "cold":1,
    "scary":1,
    "faked":1,
    "dies":1,
    "cough":1,
    "technology":1,
    "speakers":1,
    "million":1,
    "legacy":1,
    "rug":1,
    "rat":1,
    "practically":1,
    "writes":1,
    "barbecue":1,
    "moments":1,
    "gentle":1,
    "rock":1,
    "wash":1,
    "windows":1,
    "ceiling":1,
    "heaven":1,
    "hook":1,
    "loose":1,
    "otis":1,
    "secondin":1,
    "companies":1,
    "wayne":1,
    "bcs":1,
    "radio":1,
    "downstairs":1,
    "search":1,
    "fold":1,
    "staircase":1,
    "afraid":1,
    "fine":1,
    "direct":1,
    "orders":1,
    "crap":1,
    "introduced":1,
    "drop":1,
    "ball":1,
    "callin":1,
    "bet":1,
    "30000":1,
    "dollars":1,
    "month":1,
    "sounded":1,
    "twelve":1,
    "weeks":1,
    "roger":1,
    "district":1,
    "cinder":1,
    "alley":1,
    "workin":1,
    "takin":1,
    "shits":1,
    "happening":1,
    "often":1,
    "shouldve":1,
    "clincher":1,
    "screws":1,
    "toughest":1,
    "moving":1,
    "luck":1,
    "trunk":1,
    "expensive":1,
    "fireground":1,
    "seagraves":1,
    "soon":1,
    "prominent":1,
    "taxpayer":1,
    "stuffed":1,
    "windshield":1,
    "car":1,
    "dragging":1,
    "embarrass":1,
    "reorganization":1,
    "wed":1,
    "disappointed":1,
    "playing":1,
    "remarkably":1,
    "uncomplicated":1,
    "decide":1,
    "methodical":1,
    "investigative":1,
    "methods":1,
    "muck":1,
    "campaign":1,
    "certain":1,
    "wannabees":1,
    "peacefully":1,
    "wish":1,
    "swayzee":1,
    "buddy":1,
    "closed":1,
    "33":1,
    "appreciate":1,
    "vote":1,
    "fix":1,
    "overtime":1,
    "anybodys":1,
    "lights":1,
    "firemanland":1,
    "favor":1,
    "franny":1,
    "fill":1,
    "card":1,
    "poles":1,
    "wipe":1,
    "ladders":1,
    "dalmatians":1,
    "pullin":1,
    "throat":1,
    "surround":1,
    "drown":1,
    "17th":1,
    "moment":1,
    "usin":1,
    "gem":1,
    "dinner":1,
    "probies":1,
    "feed":1,
    "17s":1,
    "official":1,
    "toastmaster":1,
    "bullshitter":1,
    "santos":1,
    "cut":1,
    "appropriate":1,
    "recognize":1,
    "asswipes":1,
    "among":1,
    "baptized":1,
    "officially":1,
    "handicapped":1,
    "birth":1,
    "rather":1,
    "dull":1,
    "expression":1,
    "hideous":1,
    "ears":1,
    "beast":1,
    "pulled":1,
    "clutches":1,
    "assisted":1,
    "brilliant":1,
    "kicking":1,
    "screaming":1,
    "suing":1,
    "fingernail":1,
    "contribution":1,
    "beautiful":1,
    "sue":1,
    "filled":1,
    "desire":1,
    "transfer":1,
    "raise":1,
    "lads":1,
    "others":1,
    "nerves":1,
    "managed":1,
    "effort":1,
    "bye":1,
    "toilets":1,
    "dismissed":1,
    "fitzgeralds":1,
    "view":1,
    "grenadine":1,
    "oooh":1,
    "sophisticated":1,
    "girl":1,
    "legs":1,
    "saturday":1,
    "notebook":1,
    "martin":1,
    "towns":1,
    "humanitys":1,
    "hope":1,
    "helping":1,
    "west":1,
    "hurt":1,
    "plan":1,
    "efficiency":1,
    "tom":1,
    "martyll":1,
    "donation":1,
    "marie":1,
    "kevin":1,
    "angry":1,
    "moves":1,
    "boulevard":1,
    "past":1,
    "watching":1,
    "irish":1,
    "fights":1,
    "litwalks":1,
    "barf":1,
    "planters":1,
    "nights":1,
    "yuck":1,
    "scumbag":1,
    "transferred":1,
    "parking":1,
    "violations":1,
    "tickets":1,
    "exercise":1,
    "chased":1,
    "shovel":1,
    "bravery":1,
    "veteran":1,
    "risked":1,
    "limb":1,
    "doublecheck":1,
    "emerging":1,
    "victoriously":1,
    "anna":1,
    "rodriguez":1,
    "seamstress":1,
    "north":1,
    "shore":1,
    "clothing":1,
    "gained":1,
    "prominence":1,
    "subject":1,
    "1972":1,
    "pulitzer":1,
    "prize":1,
    "winning":1,
    "photograph":1,
    "fathers":1,
    "whadda":1,
    "bylaw":1,
    "paper":1,
    "owes":1,
    "huge":1,
    "mistake":1,
    "modest":1,
    "saved":1,
    "incredibly":1,
    "image":1,
    "command":1,
    "fantasy":1,
    "difficult":1,
    "visible":1,
    "representing":1,
    "authentic":1,
    "traditional":1,
    "clan":1,
    "kinds":1,
    "traditions":1,
    "dying":1,
    "tombstone":1,
    "opportunity":1,
    "beyond":1,
    "thirty":1,
    "seconds":1,
    "northside":1,
    "jagoff":1,
    "garbage":1,
    "poster":1,
    "five":1,
    "hundred":1,
    "eaters":1,
    "dance":1,
    "dispatcher":1,
    "women":1,
    "bang":1,
    "later":1,
    "savin":1,
    "lay":1,
    "dumbshit":1,
    "wonder":1,
    "careers":1,
    "toilet":1,
    "outta":1,
    "leaving":1,
    "roid":1,
    "nothin":1,
    "photographer":1,
    "cover":1,
    "crawl":1,
    "guysthey":1,
    "promotion":1,
    "spotlight":1,
    "blind":1,
    "weekends":1,
    "ironing":1,
    "shirts":1,
    "shifts":1,
    "thrashed":1,
    "rest":1,
    "extra":1,
    "yard":1,
    "taught":1,
    "biggest":1,
    "battalions":1,
    "divorce":1,
    "captains":1,
    "football":1,
    "records":1,
    "drill":1,
    "babys":1,
    "sec":1,
    "hoseline":1,
    "thered":1,
    "everybodys":1,
    "seance":1,
    "offers":1,
    "table":1,
    "arrange":1,
    "upstairs":1,
    "checking":1,
    "until":1,
    "ordered":1,
    "itch":1,
    "starts":1,
    "stand":1,
    "window":1,
    "ventilation":1,
    "noticed":1,
    "lake":1,
    "gasoline":1,
    "crispered":1,
    "stunt":1,
    "importantly":1,
    "wrecked":1,
    "physical":1,
    "evidence":1,
    "prove":1,
    "dennis":1,
    "reputation":1,
    "slack":1,
    "sends":1,
    "rules":1,
    "swing":1,
    "hammer":1,
    "pest":1,
    "comfortable":1,
    "pal":1,
    "telephones":1,
    "tape":1,
    "wooden":1,
    "matches":1,
    "bell":1,
    "striker":1,
    "cotton":1,
    "bored":1,
    "mostly":1,
    "centers":1,
    "homes":1,
    "depriving":1,
    "street":1,
    "warehouse":1,
    "cakewalk":1,
    "shows":1,
    "hair":1,
    "camper":1,
    "tries":1,
    "phosphorous":1,
    "shy":1,
    "sleeves":1,
    "stomach":1,
    "board":1,
    "received":1,
    "fitness":1,
    "id44":1,
    "endorsement":1,
    "section":1,
    "warden":1,
    "dr":1,
    "norris":1,
    "supervising":1,
    "psychiatrist":1,
    "describe":1,
    "progress":1,
    "remarkable":1,
    "taking":1,
    "account":1,
    "disability":1,
    "served":1,
    "recommend":1,
    "regret":1,
    "caused":1,
    "commit":1,
    "consider":1,
    "society":1,
    "absolutely":1,
    "girls":1,
    "useful":1,
    "complex":1,
    "shhh":1,
    "sneaky":1,
    "seek":1,
    "heavy":1,
    "stains":1,
    "observed":1,
    "entry":1,
    "demarkation":1,
    "couch":1,
    "cozy":1,
    "thermal":1,
    "balance":1,
    "language":1,
    "barrier":1,
    "thin":1,
    "pieces":1,
    "indicating":1,
    "lack":1,
    "tease":1,
    "bastard":1,
    "mad":1,
    "hung":1,
    "snuffed":1,
    "trapped":1,
    "sucker":1,
    "gulp":1,
    "severe":1,
    "spawling":1,
    "rough":1,
    "carefully":1,
    "temperature":1,
    "copper":1,
    "melted":1,
    "requires":1,
    "5000":1,
    "created":1,
    "7000":1,
    "normal":1,
    "industrial":1,
    "12000":1,
    "natural":1,
    "lightning":1,
    "highend":1,
    "electronics":1,
    "analyzed":1,
    "accelerants":1,
    "surviving":1,
    "replacement":1,
    "injury":1,
    "screwed":1,
    "ooooh":1,
    "grindle":1,
    "scrape":1,
    "lookin":1,
    "pike":1,
    "pole":1,
    "steppin":1,
    "wake":1,
    "dry":1,
    "game":1,
    "insight":1,
    "bri":1,
    "fixing":1,
    "lessons":1,
    "babe":1,
    "apologize":1,
    "communicator":1,
    "deserved":1,
    "born":1,
    "deserving":1,
    "treats":1,
    "somethings":1,
    "mirror":1,
    "admit":1,
    "himself":1,
    "wouldve":1,
    "realized":1,
    "pictures":1,
    "staring":1,
    "everywhere":1,
    "due":1,
    "encounters":1,
    "stationary":1,
    "objects":1,
    "89":1,
    "porsche":1,
    "nonrelevant":1,
    "traumas":1,
    "significant":1,
    "toxicology":1,
    "attitude":1,
    "trajectories":1,
    "consistent":1,
    "explosions":1,
    "scraped":1,
    "crispers":1,
    "combination":1,
    "plumbers":1,
    "rayophene":1,
    "gum":1,
    "rewrote":1,
    "sell":1,
    "lift":1,
    "patch":1,
    "shirt":1,
    "wondered":1,
    "spectro":1,
    "absorption":1,
    "catalyst":1,
    "toxic":1,
    "waste":1,
    "rare":1,
    "stopped":1,
    "gas":1,
    "trychtichlorate":1,
    "binary":1,
    "structured":1,
    "bottom":1,
    "properties":1,
    "episodes":1,
    "kelvin":1,
    "higher":1,
    "trych":1,
    "breaks":1,
    "dissipates":1,
    "consume":1,
    "takes":1,
    "water":1,
    "molecules":1,
    "bamm":1,
    "tears":1,
    "apart":1,
    "oxygen":1,
    "problems":1,
    "burnt":1,
    "leaves":1,
    "powder":1,
    "trace":1,
    "announce":1,
    "murder":1,
    "vapor":1,
    "seal":1,
    "explain":1,
    "guns":1,
    "easier":1,
    "straightest":1,
    "departments":1,
    "given":1,
    "words":1,
    "hour":1,
    "green":1,
    "committed":1,
    "thousand":1,
    "fundraising":1,
    "martyd":1,
    "swamped":1,
    "date":1,
    "tells":1,
    "torches":1,
    "fry":1,
    "lit":1,
    "surrounded":1,
    "walls":1,
    "kept":1,
    "spreading":1,
    "whoever":1,
    "also":1,
    "itself":1,
    "sealant":1,
    "stone":1,
    "guarantee":1,
    "running":1,
    "300th":1,
    "person":1,
    "mans":1,
    "business":1,
    "mine":1,
    "picture":1,
    "larry":1,
    "snail":1,
    "dummy":1,
    "juggling":1,
    "alot":1,
    "albert":1,
    "einstein":1,
    "figure":1,
    "dumped":1,
    "plugs":1,
    "rush":1,
    "stashed":1,
    "emergencies":1,
    "oldest":1,
    "homey":1,
    "trap":1,
    "hay":1,
    "loft":1,
    "horsedrawn":1,
    "trick":1,
    "specimen":1,
    "standard":1,
    "issue":1,
    "primary":1,
    "suppression":1,
    "equipment":1,
    "area":1,
    "pumping":1,
    "panel":1,
    "controls":1,
    "rate":1,
    "liquid":1,
    "inch":1,
    "cast":1,
    "bronze":1,
    "flows":1,
    "extender":1,
    "lays":1,
    "suction":1,
    "adjustable":1,
    "nozzle":1,
    "bed":1,
    "pr":1,
    "alarms":1,
    "wonderful":1,
    "gigs":1,
    "creeps":1,
    "hasnt":1,
    "safe":1,
    "splittin":1,
    "sly":1,
    "cracks":1,
    "means":1,
    "hiding":1,
    "sleepy":1,
    "easy":1,
    "none":1,
    "bare":1,
    "myth":1,
    "instead":1,
    "discovery":1,
    "behavioral":1,
    "link":1,
    "quoted":1,
    "expects":1,
    "arrest":1,
    "news":1,
    "secret":1,
    "secrets":1,
    "bust":1,
    "couples":1,
    "political":1,
    "points":1,
    "skills":1,
    "dropped":1,
    "letter":1,
    "explaining":1,
    "yesterdays":1,
    "announcement":1,
    "fabrication":1,
    "background":1,
    "weight":1,
    "usually":1,
    "breakfast":1,
    "prick":1,
    "leads":1,
    "victims":1,
    "victim":1,
    "acting":1,
    "strange":1,
    "set":1,
    "opened":1,
    "inner":1,
    "outer":1,
    "held":1,
    "word":1,
    "living":1,
    "breathes":1,
    "eats":1,
    "spread":1,
    "physics":1,
    "liquids":1,
    "convection":1,
    "owns":1,
    "level":1,
    "color":1,
    "yesterday":1,
    "odds":1,
    "nonrefundable":1,
    "ticket":1,
    "paris":1,
    "survived":1,
    "zero":1,
    "broken":1,
    "jeff":1,
    "darth":1,
    "vader":1,
    "tax":1,
    "hopefully":1,
    "carried":1,
    "book":1,
    "lists":1,
    "adult":1,
    "size":1,
    "planet":1,
    "attention":1,
    "timwenttothefireandnowhe":1,
    "doesnthaveaface":1,
    "owned":1,
    "pan":1,
    "illinois":1,
    "majority":1,
    "controlled":1,
    "lakeside":1,
    "dynamics":1,
    "division":1,
    "windy":1,
    "ventures":1,
    "partners":1,
    "coppers":1,
    "laundered":1,
    "money":1,
    "mob":1,
    "estate":1,
    "bunch":1,
    "ended":1,
    "candles":1,
    "faces":1,
    "somehow":1,
    "barely":1,
    "murdered":1,
    "keeps":1,
    "hidden":1,
    "itd":1,
    "bakery":1,
    "bringing":1,
    "believed":1,
    "meant":1,
    "ifs":1,
    "loyalty":1,
    "part":1,
    "families":1,
    "stops":1,
    "seat":1,
    "gettin":1,
    "eggs":1,
    "confuse":1,
    "changed":1,
    "seanman":1,
    "promise":1,
    "moms":1,
    "crying":1,
    "latest":1,
    "staked":1,
    "sneaking":1,
    "leaking":1,
    "telling":1,
    "goodbye":1,
    "copy":1,
    "manning":1,
    "argue":1,
    "drafts":1,
    "thatre":1,
    "looks":1,
    "consulting":1,
    "employees":1,
    "directors":1,
    "po":1,
    "fancy":1,
    "accountant":1,
    "wondering":1,
    "hospitals":1,
    "useless":1,
    "afternoon":1,
    "heres":1,
    "question":1,
    "damage":1,
    "pro":1,
    "profit":1,
    "margin":1,
    "civilians":1,
    "hollering":1,
    "escape":1,
    "ballsy":1,
    "promised":1,
    "guard":1,
    "torchs":1,
    "tools":1,
    "talks":1,
    "inside":1,
    "sees":1,
    "worlds":1,
    "24":1,
    "genius":1,
    "helens":1,
    "answers":1,
    "yell":1,
    "seven":1,
    "adcoxs":1,
    "chemicals":1,
    "waitin":1,
    "puke":1,
    "belong":1,
    "arm":1,
    "lidocaine":1,
    "pressures":1,
    "fading":1,
    "adrenalin":1,
    "vfib":1,
    "335":1,
    "signifies":1,
    "returned":1,
    "quarters":1,
    "ring":1,
    "welcome":1,
    "couple":1,
    "men":1,
    "thisll":1,
    "cops":1,
    "outside":1,
    "course":1,
    "secretly":1,
    "paid":1,
    "create":1,
    "phony":1,
    "guysll":1,
    "flashing":1,
    "gear":1,
    "spin":1,
    "whatll":1,
    "slightest":1,
    "idea":1,
    "mccaffreys":2,
    "smarter":2,
    "mouth":2,
    "watch":2,
    "minutes":2,
    "handed":2,
    "far":2,
    "joke":2,
    "graduation":2,
    "graduate":2,
    "rule":2,
    "test":2,
    "scores":2,
    "top":2,
    "met":2,
    "push":2,
    "truly":2,
    "courage":2,
    "class":2,
    "knowlton":2,
    "graduated":2,
    "chicago":2,
    "completely":2,
    "waiting":2,
    "assignments":2,
    "willy":2,
    "eyes":2,
    "uniform":2,
    "forward":2,
    "assistant":2,
    "offer":2,
    "log":2,
    "cabins":2,
    "brians":2,
    "step":2,
    "ahead":2,
    "115":2,
    "battalion":2,
    "cousins":2,
    "keeping":2,
    "box":2,
    "likely":2,
    "decided":2,
    "interest":2,
    "tomorrow":2,
    "longer":2,
    "start":2,
    "showing":2,
    "their":2,
    "goin":2,
    "spinach":2,
    "called":2,
    "accident":2,
    "stephens":2,
    "talked":2,
    "stations":2,
    "gave":2,
    "assignment":2,
    "amazing":2,
    "hide":2,
    "selling":2,
    "ride":2,
    "treat":2,
    "tradition":2,
    "split":2,
    "raised":2,
    "calls":2,
    "beside":2,
    "pussy":2,
    "steam":2,
    "standpipe":2,
    "says":2,
    "civilian":2,
    "clear":2,
    "alive":2,
    "awful":2,
    "memory":2,
    "paul":2,
    "flashed":2,
    "mind":2,
    "shoes":2,
    "wearing":2,
    "many":2,
    "accidental":2,
    "dept":2,
    "program":2,
    "closing":2,
    "turned":2,
    "politics":2,
    "happen":2,
    "lost":2,
    "cuts":2,
    "funny":2,
    "glow":2,
    "blink":2,
    "dissipation":2,
    "walk":2,
    "pipe":2,
    "hang":2,
    "unless":2,
    "against":2,
    "lady":2,
    "fighting":2,
    "balls":2,
    "stares":2,
    "morning":2,
    "mention":2,
    "probationary":2,
    "despite":2,
    "pair":2,
    "firefighter":2,
    "breaking":2,
    "her":2,
    "sudden":2,
    "warm":2,
    "retirement":2,
    "change":2,
    "wrap":2,
    "carrying":2,
    "cares":2,
    "programs":2,
    "martys":2,
    "happy":2,
    "polls":2,
    "makes":2,
    "union":2,
    "picked":2,
    "hanging":2,
    "jp":2,
    "shes":2,
    "stuck":2,
    "desk":2,
    "showed":2,
    "taken":2,
    "scene":2,
    "gets":2,
    "especially":2,
    "fact":2,
    "double":2,
    "woman":2,
    "understand":2,
    "under":2,
    "move":2,
    "engines":2,
    "blow":2,
    "piece":2,
    "front":2,
    "voice":2,
    "whatever":2,
    "second":2,
    "christs":2,
    "sake":2,
    "dumb":2,
    "standing":2,
    "punch":2,
    "magazine":2,
    "bright":2,
    "everything":2,
    "pengelly":2,
    "stairs":2,
    "win":2,
    "drilling":2,
    "learn":2,
    "stop":2,
    "unburned":2,
    "heroes":2,
    "inspector":2,
    "anywhere":2,
    "straight":2,
    "bowland":2,
    "state":2,
    "basic":2,
    "notice":2,
    "rolling":2,
    "show":2,
    "parole":2,
    "bowlands":2,
    "crimes":2,
    "cmere":2,
    "most":2,
    "cook":2,
    "hurry":2,
    "indicates":2,
    "ignition":2,
    "small":2,
    "discoloration":2,
    "coat":2,
    "2000":2,
    "plug":2,
    "gauge":2,
    "ten":2,
    "flammable":2,
    "patterns":2,
    "goes":2,
    "further":2,
    "hand":2,
    "hells":2,
    "matter":2,
    "piano":2,
    "beat":2,
    "hates":2,
    "guts":2,
    "face":2,
    "deaths":2,
    "residue":2,
    "interesting":2,
    "contract":2,
    "accidents":2,
    "cosgroves":2,
    "clothes":2,
    "read":2,
    "during":2,
    "proof":2,
    "trouble":2,
    "lot":2,
    "either":2,
    "fit":2,
    "killer":2,
    "outlets":2,
    "firebreaks":2,
    "reason":2,
    "conscience":2,
    "public":2,
    "scare":2,
    "dating":2,
    "werent":2,
    "invite":2,
    "dinosaur":2,
    "figured":2,
    "locked":2,
    "lotta":2,
    "insertion":2,
    "playpipe":2,
    "firm":2,
    "floors":2,
    "highrise":2,
    "early":2,
    "saying":2,
    "responsibility":2,
    "papers":2,
    "loved":2,
    "name":2,
    "finished":2,
    "ghost":2,
    "across":2,
    "wants":2,
    "mess":2,
    "accountants":2,
    "sleezeball":2,
    "dekom":2,
    "jeffrey":2,
    "airtight":2,
    "wrote":2,
    "manpower":2,
    "study":2,
    "hours":2,
    "minute":2,
    "killing":2,
    "code":2,
    "asked":3,
    "youll":3,
    "firehouse":3,
    "medium":3,
    "times":3,
    "hit":3,
    "truck":3,
    "eye":3,
    "week":3,
    "forgot":3,
    "breathe":3,
    "damn":3,
    "kill":3,
    "though":3,
    "ladies":3,
    "gentlemen":3,
    "candidate":3,
    "having":3,
    "control":3,
    "break":3,
    "buy":3,
    "arent":3,
    "engine":3,
    "scotch":3,
    "list":3,
    "half":3,
    "future":3,
    "17":3,
    "left":3,
    "awhile":3,
    "uncle":3,
    "friends":3,
    "friend":3,
    "crazy":3,
    "thank":3,
    "fight":3,
    "already":3,
    "chief":3,
    "shouldnt":3,
    "town":3,
    "starting":3,
    "glory":3,
    "actually":3,
    "may":3,
    "days":3,
    "four":3,
    "tub":3,
    "staying":3,
    "done":3,
    "throw":3,
    "seen":3,
    "works":3,
    "broke":3,
    "pissed":3,
    "new":3,
    "am":3,
    "suddenly":3,
    "felt":3,
    "myself":3,
    "late":3,
    "baby":3,
    "call":3,
    "n":3,
    "head":3,
    "flash":3,
    "dig":3,
    "mannequin":3,
    "twenty":3,
    "ones":3,
    "might":3,
    "pick":3,
    "burning":3,
    "answer":3,
    "feeling":3,
    "honest":3,
    "mayor":3,
    "sleep":3,
    "since":3,
    "please":3,
    "task":3,
    "force":3,
    "died":3,
    "corner":3,
    "career":3,
    "yours":3,
    "together":3,
    "party":3,
    "fun":3,
    "ii":3,
    "seem":3,
    "sally":3,
    "asshole":3,
    "floor":3,
    "fan":3,
    "save":3,
    "feel":3,
    "investigators":3,
    "don":3,
    "exactly":3,
    "firefighting":3,
    "young":3,
    "comes":3,
    "trying":3,
    "jackson":3,
    "anyone":3,
    "couplea":3,
    "alright":3,
    "shoulder":3,
    "jump":3,
    "waited":3,
    "eat":3,
    "animal":3,
    "talking":3,
    "ol":3,
    "released":3,
    "excuse":3,
    "least":3,
    "explosion":3,
    "flame":3,
    "listening":3,
    "air":3,
    "ran":3,
    "lying":3,
    "outlet":3,
    "spark":3,
    "melt":3,
    "traces":3,
    "tie":3,
    "fair":3,
    "tried":3,
    "treated":3,
    "putty":3,
    "burns":3,
    "hold":3,
    "insurance":3,
    "magnesium":3,
    "chemical":3,
    "backdrafts":3,
    "fried":3,
    "ask":3,
    "weve":3,
    "lead":3,
    "connection":3,
    "files":3,
    "numbers":3,
    "hello":3,
    "handle":3,
    "shut":4,
    "itll":4,
    "does":4,
    "brothers":4,
    "wouldnt":4,
    "along":4,
    "few":4,
    "academy":4,
    "six":4,
    "shot":4,
    "dead":4,
    "hands":4,
    "try":4,
    "donald":4,
    "beer":4,
    "coffee":4,
    "sorta":4,
    "low":4,
    "kidding":4,
    "turn":4,
    "without":4,
    "nothing":4,
    "alarm":4,
    "cause":4,
    "finish":4,
    "mom":4,
    "long":4,
    "each":4,
    "anyway":4,
    "finally":4,
    "pay":4,
    "said":4,
    "nah":4,
    "hear":4,
    "close":4,
    "team":4,
    "building":4,
    "investigator":4,
    "rimgale":4,
    "alan":4,
    "death":4,
    "gotten":4,
    "asking":4,
    "catch":4,
    "less":4,
    "almost":4,
    "problem":4,
    "famous":4,
    "light":4,
    "likes":4,
    "clean":4,
    "use":4,
    "started":4,
    "end":4,
    "tonight":4,
    "night":4,
    "id":4,
    "has":4,
    "aw":4,
    "helluva":4,
    "best":4,
    "real":4,
    "quit":4,
    "trust":4,
    "anymore":4,
    "knock":4,
    "em":4,
    "scared":4,
    "ready":4,
    "making":4,
    "torch":4,
    "owner":4,
    "pull":4,
    "yes":4,
    "soot":4,
    "somewhere":4,
    "found":4,
    "degrees":4,
    "wire":4,
    "rimgales":4,
    "happened":4,
    "gone":4,
    "open":5,
    "bout":5,
    "short":5,
    "being":5,
    "hero":5,
    "father":5,
    "again":5,
    "months":5,
    "station":5,
    "blood":5,
    "such":5,
    "lucky":5,
    "case":5,
    "ah":5,
    "jennifer":5,
    "live":5,
    "once":5,
    "side":5,
    "assigned":5,
    "boys":5,
    "hi":5,
    "helen":5,
    "boat":5,
    "before":5,
    "heart":5,
    "bad":5,
    "find":5,
    "wont":5,
    "high":5,
    "wheres":5,
    "john":5,
    "help":5,
    "she":5,
    "pretty":5,
    "couldve":5,
    "slow":5,
    "ever":5,
    "point":5,
    "yet":5,
    "pain":5,
    "went":5,
    "glass":5,
    "same":5,
    "kind":5,
    "drink":5,
    "run":5,
    "boy":5,
    "stupid":5,
    "between":5,
    "smoke":5,
    "miss":5,
    "nobody":5,
    "wall":5,
    "which":5,
    "trychticholorate":5,
    "doesnt":6,
    "deal":6,
    "stay":6,
    "today":6,
    "backup":6,
    "blew":6,
    "firemen":6,
    "every":6,
    "must":6,
    "thinking":6,
    "getting":6,
    "nice":6,
    "kinda":6,
    "own":6,
    "captain":6,
    "last":6,
    "backdraft":6,
    "through":6,
    "dads":6,
    "family":6,
    "stuff":6,
    "god":6,
    "those":6,
    "probably":6,
    "someone":6,
    "line":6,
    "roll":6,
    "behind":6,
    "somebody":6,
    "room":6,
    "working":6,
    "havent":6,
    "care":6,
    "yourself":6,
    "fuckin":6,
    "took":6,
    "better":6,
    "both":6,
    "alone":6,
    "sometimes":6,
    "shadow":6,
    "story":6,
    "couldnt":6,
    "check":6,
    "roof":6,
    "doors":6,
    "sir":7,
    "ago":7,
    "everybody":7,
    "remember":7,
    "next":7,
    "hard":7,
    "things":7,
    "three":7,
    "make":7,
    "supposed":7,
    "away":7,
    "put":7,
    "coming":7,
    "over":7,
    "home":7,
    "sean":7,
    "busy":7,
    "kid":7,
    "killed":7,
    "where":7,
    "place":7,
    "believe":7,
    "ass":7,
    "till":7,
    "doin":7,
    "hate":7,
    "knew":7,
    "heard":7,
    "hows":7,
    "alderman":7,
    "whole":7,
    "will":7,
    "life":7,
    "heat":7,
    "after":7,
    "door":7,
    "cosgrove":7,
    "burned":8,
    "die":8,
    "whos":8,
    "youd":8,
    "than":8,
    "big":8,
    "sure":8,
    "should":8,
    "year":8,
    "hot":8,
    "anything":8,
    "always":8,
    "great":8,
    "theyre":8,
    "wait":8,
    "leave":8,
    "enough":8,
    "mean":8,
    "different":8,
    "looking":8,
    "fuck":8,
    "swayzaks":8,
    "holcomb":8,
    "would":9,
    "keep":9,
    "give":9,
    "years":9,
    "world":9,
    "else":9,
    "uh":9,
    "wasnt":9,
    "guess":9,
    "thanks":9,
    "told":9,
    "thought":9,
    "people":9,
    "saw":9,
    "very":9,
    "arson":9,
    "cant":9,
    "down":9,
    "boss":9,
    "seagrave":9,
    "then":10,
    "old":10,
    "love":10,
    "day":10,
    "from":10,
    "into":10,
    "city":10,
    "report":10,
    "used":10,
    "bullshit":10,
    "only":10,
    "listen":10,
    "lt":10,
    "office":10,
    "made":10,
    "burn":10,
    "these":11,
    "youve":11,
    "hell":11,
    "time":11,
    "ive":11,
    "stevie":11,
    "adcox":11,
    "much":11,
    "hose":11,
    "guy":11,
    "more":11,
    "marty":11,
    "lets":12,
    "fireman":12,
    "or":12,
    "even":12,
    "bitch":12,
    "fires":12,
    "came":12,
    "work":12,
    "other":12,
    "any":12,
    "two":12,
    "wanted":12,
    "because":12,
    "say":12,
    "christ":12,
    "ronald":12,
    "wrong":13,
    "whats":13,
    "too":13,
    "need":13,
    "maybe":13,
    "company":13,
    "around":13,
    "thing":13,
    "first":13,
    "knows":13,
    "by":13,
    "mr":13,
    "shit":14,
    "back":14,
    "cmon":14,
    "tim":14,
    "ill":14,
    "probie":14,
    "our":14,
    "tell":14,
    "dad":15,
    "talk":15,
    "fucking":15,
    "jesus":15,
    "as":15,
    "them":15,
    "let":16,
    "brother":16,
    "son":16,
    "ya":16,
    "yknow":16,
    "come":17,
    "an":17,
    "still":17,
    "department":17,
    "who":18,
    "never":18,
    "could":18,
    "take":18,
    "another":19,
    "had":19,
    "good":19,
    "something":19,
    "theres":19,
    "off":20,
    "why":20,
    "been":20,
    "swayzak":20,
    "isnt":21,
    "mccaffrey":21,
    "didnt":21,
    "gotta":21,
    "sorry":22,
    "really":22,
    "can":22,
    "doing":23,
    "us":23,
    "see":23,
    "guys":23,
    "at":23,
    "some":24,
    "huh":25,
    "little":25,
    "job":25,
    "way":25,
    "oh":25,
    "well":26,
    "his":27,
    "goddamn":27,
    "like":28,
    "hes":28,
    "did":28,
    "gonna":28,
    "want":29,
    "okay":29,
    "one":30,
    "when":30,
    "they":31,
    "how":31,
    "yeah":31,
    "look":32,
    "all":33,
    "now":34,
    "going":35,
    "hey":36,
    "are":37,
    "thats":37,
    "get":38,
    "right":38,
    "no":38,
    "him":38,
    "think":39,
    "got":39,
    "there":39,
    "go":41,
    "so":42,
    "if":43,
    "not":43,
    "were":46,
    "man":48,
    "im":48,
    "up":49,
    "out":50,
    "fire":53,
    "stephen":53,
    "here":53,
    "my":53,
    "with":54,
    "youre":55,
    "have":55,
    "be":55,
    "we":55,
    "about":55,
    "but":60,
    "he":64,
    "was":65,
    "know":65,
    "just":66,
    "is":67,
    "its":71,
    "brian":74,
    "on":74,
    "dont":80,
    "do":81,
    "for":87,
    "your":89,
    "me":93,
    "what":101,
    "that":106,
    "this":106,
    "of":112,
    "in":118,
    "and":122,
    "":123,
    "it":195,
    "a":241,
    "to":243,
    "i":264,
    "the":318,
    "you":366
}