{
    "wherever":1,
    "suns":1,
    "mellow":1,
    "minutes":1,
    "almanac":1,
    "naughty":1,
    "almost":1,
    "lose":1,
    "wasting":1,
    "iim":1,
    "handsome":1,
    "youth":1,
    "older":1,
    "lied":1,
    "ultimate":1,
    "joining":1,
    "woman":1,
    "parent":1,
    "humanity":1,
    "godhead":1,
    "shame":1,
    "crime":1,
    "sin":1,
    "final":1,
    "melt":1,
    "remaining":1,
    "resistance":1,
    "moving":1,
    "sleepwalker":1,
    "tub":1,
    "wades":1,
    "stops":1,
    "fluid":1,
    "lapping":1,
    "jeans":1,
    "widen":1,
    "plainclothes":1,
    "detective":1,
    "nods":1,
    "uniforms":1,
    "debris":1,
    "closer":1,
    "scene":1,
    "collar":1,
    "spray":1,
    "leaks":1,
    "firehose":1,
    "connections":1,
    "seeing":1,
    "shouts":1,
    "din":1,
    "twentyfour":1,
    "blanches":1,
    "wipes":1,
    "cause":1,
    "methane":1,
    "stretcher":1,
    "oxygen":1,
    "airway":1,
    "faint":1,
    "lucky":1,
    "musta":1,
    "fallen":1,
    "burns":1,
    "asses":1,
    "authorities":1,
    "investigate":1,
    "yesterdays":1,
    "mysterious":1,
    "controversial":1,
    "headed":1,
    "selfstyled":1,
    "guru":1,
    "adrian":1,
    "blaze":1,
    "thirteen":1,
    "year":1,
    "fires":1,
    "remains":1,
    "stable":1,
    "county":1,
    "national":1,
    "news":1,
    "newspaper":1,
    "heiress":1,
    "patricia":1,
    "hearst":1,
    "abducted":1,
    "bay":1,
    "shortly":1,
    "dawn":1,
    "communique":1,
    "socalled":1,
    "symbionese":1,
    "liberation":1,
    "army":1,
    "demanded":1,
    "90":1,
    "30":1,
    "cart":1,
    "climbing":1,
    "watch":1,
    "eeg":1,
    "activity":1,
    "low":1,
    "physical":1,
    "damage":1,
    "neurological":1,
    "functions":1,
    "depressed":1,
    "changes":1,
    "14":1,
    "scan":1,
    "minor":1,
    "irregularities":1,
    "pupil":1,
    "function":1,
    "within":1,
    "consciousness":1,
    "21":1,
    "42":1,
    "moved":1,
    "intensive":1,
    "martin":1,
    "luther":1,
    "king":1,
    "junior":1,
    "played":1,
    "organ":1,
    "sons":1,
    "church":1,
    "interrupt":1,
    "bulletin":1,
    "richard":1,
    "milhous":1,
    "nixon":1,
    "resigned":1,
    "states":1,
    "marine":1,
    "guards":1,
    "crowds":1,
    "helicopters":1,
    "saigon":1,
    "bicentennial":1,
    "festivities":1,
    "philadelphia":1,
    "leak":1,
    "mile":1,
    "facility":1,
    "73":1,
    "americans":1,
    "hostage":1,
    "teheran":1,
    "ronald":1,
    "elected":1,
    "40th":1,
    "assailant":1,
    "john":1,
    "lennon":1,
    "blank":1,
    "pope":1,
    "rushed":1,
    "ambulance":1,
    "anwar":1,
    "sadat":1,
    "korean":1,
    "airliner":1,
    "soviet":1,
    "jet":1,
    "killing":1,
    "269":1,
    "aboard":1,
    "invasion":1,
    "nation":1,
    "grenada":1,
    "prime":1,
    "minister":1,
    "indira":1,
    "ghandi":1,
    "members":1,
    "bodyguard":1,
    "plo":1,
    "hijackers":1,
    "wheelchairbound":1,
    "american":1,
    "overboard":1,
    "shuttle":1,
    "challenger":1,
    "exploded":1,
    "moments":1,
    "launch":1,
    "corazon":1,
    "aquino":1,
    "asked":1,
    "soldiers":1,
    "lay":1,
    "senator":1,
    "gary":1,
    "hart":1,
    "withdrew":1,
    "race":1,
    "fawn":1,
    "hall":1,
    "colonel":1,
    "oliver":1,
    "north":1,
    "contrascam":1,
    "investigation":1,
    "ptl":1,
    "scandal":1,
    "munitions":1,
    "train":1,
    "severed":1,
    "lag":1,
    "protester":1,
    "debbie":1,
    "windsurfing":1,
    "lesson":1,
    "shifts":1,
    "nancy":1,
    "weed":1,
    "vegetable":1,
    "patch":1,
    "bored":1,
    "nurse":1,
    "chart":1,
    "monitoring":1,
    "equipment":1,
    "subtle":1,
    "movement":1,
    "cynthias":1,
    "continues":1,
    "finishes":1,
    "gathers":1,
    "bottles":1,
    "table":1,
    "door":1,
    "sound":1,
    "nine":1,
    "actually":1,
    "longest":1,
    "37":1,
    "universe":1,
    "appears":1,
    "leading":1,
    "uncommon":1,
    "happens":1,
    "notified":1,
    "stopped":1,
    "ton":1,
    "planning":1,
    "sa":1,
    "neuropsychiatric":1,
    "familiar":1,
    "neuromuscular":1,
    "encounter":1,
    "inevitable":1,
    "mental":1,
    "readjustment":1,
    "required":1,
    "clumsily":1,
    "shove":1,
    "gallon":1,
    "thatll":1,
    "looked":1,
    "introduction":1,
    "transferred":1,
    "s":1,
    "consulting":1,
    "neuropsychiatry":1,
    "cconsulting":1,
    "cheev":1,
    "obviously":1,
    "surgeon":1,
    "touch":1,
    "recovery":1,
    "tone":1,
    "ease":1,
    "interacting":1,
    "starting":1,
    "tomorrow":1,
    "badge":1,
    "message":1,
    "secretary":1,
    "desk":1,
    "sergeant":1,
    "lowered":1,
    "tones":1,
    "recovering":1,
    "prolonged":1,
    "interrogation":1,
    "prolong":1,
    "brief":1,
    "gentle":1,
    "eexcuse":1,
    "simple":1,
    "patience":1,
    "vocabulary":1,
    "founder":1,
    "cook":1,
    "bottlewasher":1,
    "executive":1,
    "dreaming":1,
    "gathering":1,
    "baptism":1,
    "fortunate":1,
    "impressionable":1,
    "penny":1,
    "lazy":1,
    "policemen":1,
    "crimes":1,
    "solve":1,
    "watched":1,
    "stack":1,
    "westons":1,
    "colleague":1,
    "methods":1,
    "detractors":1,
    "successes":1,
    "neurosises":1,
    "hideous":1,
    "robe":1,
    "flimsy":1,
    "negligeeone":1,
    "holes":1,
    "desert":1,
    "portable":1,
    "waterbed":1,
    "verge":1,
    "major":1,
    "blew":1,
    "goldmanat":1,
    "accurately":1,
    "placed":1,
    "neurosispsychosis":1,
    "arc":1,
    "encompasses":1,
    "crises":1,
    "chemical":1,
    "emotionalism":1,
    "swings":1,
    "whose":1,
    "reincarnations":1,
    "stretch":1,
    "meaningless":1,
    "gourmet":1,
    "miserable":1,
    "pathetic":1,
    "meet":1,
    "give":1,
    "explain":1,
    "already":1,
    "divorces":1,
    "condo":1,
    "yeast":1,
    "infection":1,
    "catch":1,
    "70s":1,
    "cleveland":1,
    "offer":1,
    "practical":1,
    "suggestion":1,
    "beating":1,
    "bush":1,
    "crude":1,
    "dish":1,
    "dirt":1,
    "gasp":1,
    "aquarius":1,
    "building":1,
    "chemistry":1,
    "vibrations":1,
    "tiedying":1,
    "undies":1,
    "disappoint":1,
    "stories":1,
    "orgies":1,
    "bore":1,
    "felt":1,
    "believed":1,
    "become":1,
    "selfless":1,
    "free":1,
    "themselves":1,
    "egos":1,
    "experience":1,
    "based":1,
    "werent":1,
    "each":1,
    "astonished":1,
    "chair":1,
    "walks":1,
    "worked":1,
    "mattered":1,
    "hasnt":1,
    "woodstock":1,
    "routine":1,
    "presto":1,
    "missing":1,
    "espousing":1,
    "holistic":1,
    "healing":1,
    "dynamic":1,
    "shift":1,
    "model":1,
    "interesting":1,
    "adopting":1,
    "embracing":1,
    "experiment":1,
    "primary":1,
    "channels":1,
    "communication":1,
    "throw":1,
    "neuroses":1,
    "contagious":1,
    "hurt":1,
    "luck":1,
    "shell":1,
    "overcome":1,
    "mention":1,
    "meantime":1,
    "log":1,
    "bench":1,
    "leotard":1,
    "leg":1,
    "warmers":1,
    "color":1,
    "drop":1,
    "gear":1,
    "miller":1,
    "vitamins":1,
    "beauty":1,
    "secrets":1,
    "orient":1,
    "cooperative":1,
    "tie":1,
    "lower":1,
    "regular":1,
    "flying":1,
    "squirrel":1,
    "stallone":1,
    "complicated":1,
    "handle":1,
    "whenever":1,
    "meditation":1,
    "yoga":1,
    "hole":1,
    "escape":1,
    "uhuh":1,
    "ya":1,
    "lunch":1,
    "cab":1,
    "personal":1,
    "program":1,
    "watching":1,
    "others":1,
    "grandfather":1,
    "baby":1,
    "toy":1,
    "stethoscope":1,
    "changing":1,
    "subject":1,
    "stronger":1,
    "vc":1,
    "esses":1,
    "mcds":1,
    "parents":1,
    "locate":1,
    "relatives":1,
    "injured":1,
    "gone":1,
    "saying":1,
    "sooner":1,
    "realize":1,
    "phase":1,
    "heres":1,
    "ride":1,
    "somebody":1,
    "nobody":1,
    "chest":1,
    "mine":1,
    "whove":1,
    "decade":1,
    "electric":1,
    "bills":1,
    "giving":1,
    "staggered":1,
    "disbelievingly":1,
    "corner":1,
    "struggles":1,
    "crowded":1,
    "catches":1,
    "hallucination":1,
    "flashback":1,
    "episode":1,
    "pattern":1,
    "addictive":1,
    "personalities":1,
    "abuse":1,
    "fringe":1,
    "religious":1,
    "groups":1,
    "instant":1,
    "creeds":1,
    "pseudomessianic":1,
    "awithdrawal":1,
    "sorts":1,
    "lapses":1,
    "equally":1,
    "turmoil":1,
    "facade":1,
    "became":1,
    "postelevator":1,
    "cocktail":1,
    "watches":1,
    "realizes":1,
    "clicks":1,
    "twenty":1,
    "bucks":1,
    "anymore":1,
    "fantastic":1,
    "visiting":1,
    "survive":1,
    "somewhere":1,
    "pentagon":1,
    "awol":1,
    "imagine":1,
    "mirror":1,
    "chairman":1,
    "meow":1,
    "fed":1,
    "cosmic":1,
    "vortex":1,
    "bound":1,
    "strong":1,
    "envious":1,
    "dangerous":1,
    "drink":1,
    "present":1,
    "hesitates":1,
    "drinks":1,
    "cynthiaright":1,
    "secret":1,
    "dressed":1,
    "absolutely":1,
    "fair":1,
    "living":1,
    "nowhere":1,
    "flakes":1,
    "waste":1,
    "hhow":1,
    "answers":1,
    "rid":1,
    "sheet":1,
    "grown":1,
    "happening":1,
    "gun":1,
    "stupidest":1,
    "bizarre":1,
    "kissing":1,
    "scarred":1,
    "clumps":1,
    "puppy":1,
    "black":1,
    "hanging":1,
    "bone":1,
    "gasps":1,
    "fumbles":1,
    "sofa":1,
    "window":1,
    "waving":1,
    "firelight":1,
    "dancing":1,
    "reflection":1,
    "glass":1,
    "painting":1,
    "wall":1,
    "bbut":1,
    "empty":1,
    "rented":1,
    "apartments":1,
    "minimum":1,
    "seem":1,
    "impossible":1,
    "vacant":1,
    "bout":1,
    "couple":1,
    "deadbeats":1,
    "tore":1,
    "doubledoor":1,
    "double":1,
    "rent":1,
    "lookthats":1,
    "spilled":1,
    "tequila":1,
    "wet":1,
    "hon":1,
    "plumber":1,
    "week":1,
    "business":1,
    "grateful":1,
    "civicmindedness":1,
    "lead":1,
    "experienced":1,
    "fantasy":1,
    "lunes":1,
    "glasses":1,
    "flat":1,
    "beige":1,
    "rather":1,
    "recognition":1,
    "iti":1,
    "tumbled":1,
    "dreami":1,
    "denying":1,
    "flow":1,
    "coop":1,
    "policewoman":1,
    "stand":1,
    "gynecologist":1,
    "plumbing":1,
    "calling":1,
    "bastard":1,
    "experts":1,
    "angerreal":1,
    "anytime":1,
    "especially":1,
    "wearing":1,
    "technique":1,
    "release":1,
    "hidden":1,
    "aggression":1,
    "helpless":1,
    "goose":1,
    "pillows":1,
    "none":1,
    "polyester":1,
    "geese":1,
    "trimmings":1,
    "eliminate":1,
    "wimp":1,
    "royal":1,
    "palace":1,
    "bags":1,
    "bag":1,
    "pretending":1,
    "husband":1,
    "third":1,
    "baseball":1,
    "bat":1,
    "rough":1,
    "participate":1,
    "yell":1,
    "scream":1,
    "hitting":1,
    "growing":1,
    "strength":1,
    "breathe":1,
    "heavily":1,
    "tightens":1,
    "closes":1,
    "opens":1,
    "sleeks":1,
    "hair":1,
    "amber":1,
    "journey":1,
    "slept":1,
    "muscles":1,
    "constrict":1,
    "widening":1,
    "horror":1,
    "spreading":1,
    "washes":1,
    "knees":1,
    "air":1,
    "lands":1,
    "soaked":1,
    "carpet":1,
    "flames":1,
    "nooooooooo":1,
    "mouthed":1,
    "holding":1,
    "cigarette":1,
    "sizzles":1,
    "stomps":1,
    "rushes":1,
    "sags":1,
    "sang":1,
    "songs":1,
    "stacked":1,
    "white":1,
    "containers":1,
    "vote":1,
    "decided":1,
    "agreed":1,
    "laughing":1,
    "drenched":1,
    "ran":1,
    "hallway":1,
    "flash":1,
    "godpicked":1,
    "arson":1,
    "plastic":1,
    "jerry":1,
    "cans":1,
    "wouldve":1,
    "thered":1,
    "pleased":1,
    "closing":1,
    "closed":1,
    "fairy":1,
    "princess":1,
    "woke":1,
    "remembers":1,
    "mans":1,
    "candidate":1,
    "battery":1,
    "cojones":1,
    "lying":1,
    "expected":1,
    "hot":1,
    "shower":1,
    "huh":1,
    "spirited":1,
    "witch":1,
    "itshit":1,
    "lanas":1,
    "mealymouthed":1,
    "prude":1,
    "chain":1,
    "reaching":1,
    "cleansed":1,
    "soul":1,
    "alarmed":1,
    "herhe":1,
    "broke":1,
    "hed":1,
    "friendship":1,
    "sideshow":1,
    "rooms":1,
    "fascinating":1,
    "textbook":1,
    "specimen":1,
    "collective":1,
    "extremely":1,
    "manipulative":1,
    "figurehead":1,
    "messianic":1,
    "apex":1,
    "classic":1,
    "impression":1,
    "overlaid":1,
    "collectivity":1,
    "indicate":1,
    "hypothetical":1,
    "among":1,
    "followers":1,
    "externalizing":1,
    "freaked":1,
    "swimming":1,
    "cops":1,
    "fingerprints":1,
    "photographs":1,
    "send":1,
    "coast":1,
    "billing":1,
    "outbursts":1,
    "sits":1,
    "sunbeam":1,
    "ethereal":1,
    "nearby":1,
    "unmoving":1,
    "tear":1,
    "stains":1,
    "cheeks":1,
    "drowning":1,
    "failing":1,
    "asleep":1,
    "burning":1,
    "london":1,
    "lives":1,
    "shithead":1,
    "foolish":1,
    "reminds":1,
    "shooting":1,
    "heebie":1,
    "jeebies":1,
    "gotta":1,
    "hereget":1,
    "beach":1,
    "mountains":1,
    "fight":1,
    "demons":1,
    "despite":1,
    "opinion":1,
    "contrary":1,
    "career":1,
    "neurotic":1,
    "coupla":1,
    "writer":1,
    "reporter":1,
    "kicked":1,
    "selectric":1,
    "rag":1,
    "home":1,
    "farm":1,
    "saulhes":1,
    "editorhe":1,
    "advance":1,
    "wed":1,
    "hospitalization":1,
    "weird":1,
    "rituals":1,
    "romance":1,
    "longing":1,
    "glances":1,
    "poor":1,
    "mystery":1,
    "article":1,
    "goddamned":1,
    "mini":1,
    "series":1,
    "honest":1,
    "interest":1,
    "ideas":1,
    "twisted":1,
    "sick":1,
    "poisonous":1,
    "phone":1,
    "tonight":1,
    "mums":1,
    "ladies":1,
    "socializing":1,
    "quite":1,
    "whether":1,
    "listening":1,
    "tragic":1,
    "unfortunately":1,
    "disorder":1,
    "indicative":1,
    "preexisting":1,
    "disposition":1,
    "liberty":1,
    "comment":1,
    "speaking":1,
    "true":1,
    "suspect":1,
    "recent":1,
    "may":1,
    "absurd":1,
    "nonsense":1,
    "assigning":1,
    "officers":1,
    "notice":1,
    "cooperating":1,
    "violence":1,
    "feeding":1,
    "prince":1,
    "slipped":1,
    "highness":1,
    "check":1,
    "frankly":1,
    "listens":1,
    "otherwise":1,
    "selfreplicating":1,
    "bind":1,
    "medicated":1,
    "harrishes":1,
    "connieto":1,
    "madget":1,
    "angrybut":1,
    "meat":1,
    "fantasies":1,
    "nectar":1,
    "grapes":1,
    "fooling":1,
    "obsessed":1,
    "morbid":1,
    "sessions":1,
    "twist":1,
    "overloaded":1,
    "circuits":1,
    "straight":1,
    "somethins":1,
    "caught":1,
    "hurry":1,
    "goddammit":1,
    "spinning":1,
    "splatter":1,
    "embrace":1,
    "rightits":1,
    "edgar":1,
    "covered":1,
    "horriblesweet":1,
    "jesushelp":1,
    "huddles":1,
    "position":1,
    "sobs":1,
    "uncontrollably":1,
    "drinking":1,
    "drank":1,
    "lots":1,
    "usually":1,
    "decide":1,
    "jump":1,
    "mix":1,
    "master":1,
    "safety":1,
    "given":1,
    "amount":1,
    "powerless":1,
    "assigned":1,
    "picture":1,
    "shoot":1,
    "safest":1,
    "company":1,
    "brought":1,
    "provisions":1,
    "pure":1,
    "unadulterated":1,
    "junk":1,
    "cares":1,
    "chemicals":1,
    "harder":1,
    "everyones":1,
    "cup":1,
    "coffee":1,
    "sec":1,
    "worry":1,
    "bloody":1,
    "four":1,
    "oclock":1,
    "misses":1,
    "tranquilizer":1,
    "behaving":1,
    "shut":1,
    "important":1,
    "helps":1,
    "unwind":1,
    "ways":1,
    "chances":1,
    "noses":1,
    "example":1,
    "dissolve":1,
    "nothingness":1,
    "glorious":1,
    "everybodys":1,
    "drag":1,
    "hallelujah":1,
    "gig":1,
    "sky":1,
    "dumb":1,
    "u":1,
    "n":1,
    "t":1,
    "y":1,
    "running":1,
    "trouble":1,
    "realityas":1,
    "usual":1,
    "goodbye":1,
    "taken":1,
    "contactconnectionisolation":1,
    "worst":1,
    "fond":1,
    "line":1,
    "extraordinarily":1,
    "complex":1,
    "situation":1,
    "severe":1,
    "crisis":1,
    "compounded":1,
    "multiple":1,
    "reverting":1,
    "intermittent":1,
    "above":1,
    "guinea":1,
    "pig":1,
    "offillill":1,
    "custody":1,
    "physician":1,
    "tenure":1,
    "escort":1,
    "premises":1,
    "excuse":1,
    "key":1,
    "orders":1,
    "bookmark":1,
    "dick":1,
    "road":1,
    "map":1,
    "favorite":1,
    "index":1,
    "finger":1,
    "instead":1,
    "mad":1,
    "thisthe":1,
    "seek":1,
    "bye":1,
    "stares":1,
    "brilliant":1,
    "prescription":1,
    "roars":1,
    "grinning":1,
    "wheel":1,
    "dodges":1,
    "lamp":1,
    "posts":1,
    "manic":1,
    "follows":1,
    "relentlessly":1,
    "sideswiping":1,
    "budget":1,
    "allows":1,
    "finds":1,
    "wallas":1,
    "tires":1,
    "skid":1,
    "screams":1,
    "hood":1,
    "hits":1,
    "asphalt":1,
    "cracking":1,
    "box":1,
    "possessions":1,
    "staggers":1,
    "fights":1,
    "wave":1,
    "nausea":1,
    "struggling":1,
    "composed":1,
    "suspicion":1,
    "crosses":1,
    "pocket":1,
    "scrips":1,
    "standard":1,
    "expect":1,
    "sets":1,
    "dayhettie":1,
    "pesco":1,
    "lithiumfour":1,
    "lithium":1,
    "nothats":1,
    "endoralthe":1,
    "complete":1,
    "oppositeone":1,
    "dextroamphetamine":1,
    "methylphenidate":1,
    "fucker":1,
    "clonodine":1,
    "chlorapromazine":1,
    "preludin":1,
    "teresa":1,
    "maniac":1,
    "injects":1,
    "tetrahydrocannabinol":1,
    "condensed":1,
    "marijuana":1,
    "wasted":1,
    "clean":1,
    "mess":1,
    "hettie":1,
    "personally":1,
    "involved":1,
    "mistake":1,
    "professional":1,
    "tampering":1,
    "groupthats":1,
    "committing":1,
    "suicidehes":1,
    "speaks":1,
    "induced":1,
    "suggestible":1,
    "hearing":1,
    "ralphs":1,
    "pill":1,
    "planhe":1,
    "fuckedup":1,
    "recreating":1,
    "gazing":1,
    "lovingly":1,
    "matters":1,
    "pushing":1,
    "fault":1,
    "doors":1,
    "relock":1,
    "calm":1,
    "piece":1,
    "dizzying":1,
    "rushing":1,
    "slam":1,
    "drips":1,
    "nose":1,
    "gradually":1,
    "bright":1,
    "pours":1,
    "grip":1,
    "disobedience":1,
    "publish":1,
    "asshole":1,
    "bribe":1,
    "mebut":1,
    "sstop":1,
    "destiny":1,
    "fought":1,
    "joy":1,
    "unfinished":1,
    "gomez":1,
    "detox":1,
    "prep":1,
    "voices":1,
    "hallucinogens":1,
    "imagined":1,
    "interstate":1,
    "victorian":1,
    "once":1,
    "appearances":1,
    "deceiving":1,
    "reaches":1,
    "top":1,
    "meadow":1,
    "pond":1,
    "joins":1,
    "view":1,
    "contentedly":1,
    "letters":1,
    "support":1,
    "influence":1,
    "court":1,
    "hello":1,
    "forgive":1,
    "laughs":1,
    "ambulatory":1,
    "grand":1,
    "jury":1,
    "charged":1,
    "obstruction":1,
    "assault":1,
    "five":1,
    "count":1,
    "add":1,
    "civil":1,
    "liability":1,
    "plenty":1,
    "agree":1,
    "definition":1,
    "suppose":1,
    "obstructed":1,
    "science":1,
    "beg":1,
    "differ":1,
    "knowledge":1,
    "unique":1,
    "girlthe":1,
    "product":1,
    "unrivaled":1,
    "purity":1,
    "depth":1,
    "commitment":1,
    "link":1,
    "philosophies":1,
    "dark":1,
    "terra":1,
    "incognita":1,
    "psyche":1,
    "chow":1,
    "latin":1,
    "dictionary":1,
    "account":1,
    "clearly":1,
    "unknown":1,
    "variable":1,
    "terms":1,
    "policeman":1,
    "beats":1,
    "kept":1,
    "bury":1,
    "memories":1,
    "glad":1,
    "terribly":1,
    "knife":1,
    "telling":1,
    "balance":1,
    "joined":1,
    "proven":1,
    "loved":1,
    "needed":1,
    "threats":1,
    "permanently":1,
    "riddance":1,
    "losing":2,
    "ten":2,
    "checked":2,
    "ready":2,
    "trust":2,
    "child":2,
    "break":2,
    "falls":2,
    "words":2,
    "runs":2,
    "without":2,
    "eternity":2,
    "which":2,
    "men":2,
    "mouth":2,
    "gas":2,
    "main":2,
    "knows":2,
    "himself":2,
    "survivor":2,
    "stat":2,
    "pulse":2,
    "basement":2,
    "continue":2,
    "age":2,
    "32":2,
    "guarded":2,
    "general":2,
    "area":2,
    "pressure":2,
    "wheres":2,
    "clear":2,
    "normal":2,
    "roof":2,
    "embassy":2,
    "begin":2,
    "remain":2,
    "reagan":2,
    "foot":2,
    "checks":2,
    "past":2,
    "side":2,
    "months":2,
    "record":2,
    "itself":2,
    "serious":2,
    "trauma":2,
    "looking":2,
    "transfer":2,
    "grounds":2,
    "slides":2,
    "young":2,
    "platform":2,
    "chocolate":2,
    "ice":2,
    "cream":2,
    "entire":2,
    "throat":2,
    "hardly":2,
    "forget":2,
    "staff":2,
    "psychiatrist":2,
    "beyond":2,
    "muscle":2,
    "assistant":2,
    "putting":2,
    "shouldnt":2,
    "waited":2,
    "speak":2,
    "questions":2,
    "leader":2,
    "charge":2,
    "working":2,
    "society":2,
    "popular":2,
    "press":2,
    "blame":2,
    "responsible":2,
    "interested":2,
    "makes":2,
    "depression":2,
    "sit":2,
    "cut":2,
    "breakthrough":2,
    "least":2,
    "along":2,
    "identity":2,
    "addictions":2,
    "anxiety":2,
    "violent":2,
    "mood":2,
    "suicidal":2,
    "tendencies":2,
    "previous":2,
    "ancient":2,
    "anyway":2,
    "binge":2,
    "eating":2,
    "description":2,
    "thought":2,
    "80s":2,
    "kinds":2,
    "togetherness":2,
    "oneness":2,
    "name":2,
    "totally":2,
    "committed":2,
    "change":2,
    "turns":2,
    "slowly":2,
    "smiles":2,
    "exactly":2,
    "system":2,
    "matrix":2,
    "unlike":2,
    "energy":2,
    "follow":2,
    "deeply":2,
    "rush":2,
    "seems":2,
    "lifts":2,
    "theyve":2,
    "hit":2,
    "coming":2,
    "sounds":2,
    "negative":2,
    "ayatollah":2,
    "buy":2,
    "impressed":2,
    "leave":2,
    "able":2,
    "hands":2,
    "crash":2,
    "pay":2,
    "far":2,
    "ground":2,
    "floor":2,
    "across":2,
    "delusions":2,
    "talks":2,
    "perhaps":2,
    "symptomatic":2,
    "under":2,
    "pretty":2,
    "went":2,
    "later":2,
    "itll":2,
    "sleep":2,
    "ghost":2,
    "zeke":2,
    "lived":2,
    "hated":2,
    "happen":2,
    "idea":2,
    "amazing":2,
    "wouldnt":2,
    "fix":2,
    "searching":2,
    "chance":2,
    "edge":2,
    "ummm":2,
    "alone":2,
    "backwards":2,
    "having":2,
    "special":2,
    "aflame":2,
    "bedroom":2,
    "kids":2,
    "month":2,
    "says":2,
    "closet":2,
    "positive":2,
    "wanna":2,
    "case":2,
    "found":2,
    "delusion":2,
    "rug":2,
    "generic":2,
    "prove":2,
    "lemme":2,
    "card":2,
    "emotion":2,
    "silly":2,
    "shirt":2,
    "many":2,
    "fill":2,
    "fat":2,
    "factor":2,
    "dried":2,
    "kelp":2,
    "pillow":2,
    "liquid":2,
    "failed":2,
    "taking":2,
    "same":2,
    "pool":2,
    "gasoline":2,
    "choice":2,
    "drops":2,
    "crying":2,
    "happiness":2,
    "somehow":2,
    "fell":2,
    "evidence":2,
    "guilty":2,
    "promised":2,
    "decent":2,
    "friend":2,
    "means":2,
    "heart":2,
    "self":2,
    "spirit":2,
    "warned":2,
    "environment":2,
    "immersion":2,
    "philosophy":2,
    "possible":2,
    "theyll":2,
    "women":2,
    "unhappy":2,
    "girls":2,
    "herself":2,
    "money":2,
    "ass":2,
    "magazine":2,
    "funny":2,
    "big":2,
    "between":2,
    "owe":2,
    "live":2,
    "uh":2,
    "mustnt":2,
    "suicides":2,
    "coincidence":2,
    "confirmed":2,
    "mass":2,
    "completely":2,
    "further":2,
    "ah":2,
    "promise":2,
    "spiral":2,
    "prescriptions":2,
    "upstairs":2,
    "reach":2,
    "state":2,
    "protection":2,
    "christ":2,
    "everythings":2,
    "flip":2,
    "strangely":2,
    "faces":2,
    "pills":2,
    "play":2,
    "isolation":2,
    "psychosis":2,
    "ideology":2,
    "scared":2,
    "late":2,
    "feels":2,
    "cars":2,
    "skidding":2,
    "read":2,
    "faster":2,
    "exist":2,
    "letting":2,
    "youll":2,
    "purpose":2,
    "book":2,
    "peers":2,
    "justice":2,
    "daughter":2,
    "":3,
    "moment":3,
    "made":3,
    "sunset":3,
    "cyn":3,
    "done":3,
    "steps":3,
    "puts":3,
    "bodies":3,
    "inspector":3,
    "kind":3,
    "whoa":3,
    "degree":3,
    "commune":3,
    "condition":3,
    "apartment":3,
    "brain":3,
    "sign":3,
    "patient":3,
    "comatose":3,
    "shows":3,
    "range":3,
    "progress":3,
    "mother":3,
    "assassinated":3,
    "bring":3,
    "united":3,
    "hold":3,
    "island":3,
    "renewed":3,
    "middle":3,
    "east":3,
    "point":3,
    "threw":3,
    "space":3,
    "arms":3,
    "wind":3,
    "changed":3,
    "camera":3,
    "bed":3,
    "reacts":3,
    "holy":3,
    "does":3,
    "family":3,
    "friends":3,
    "both":3,
    "problems":3,
    "set":3,
    "another":3,
    "lady":3,
    "walk":3,
    "chief":3,
    "reality":3,
    "sometimes":3,
    "confused":3,
    "session":3,
    "listen":3,
    "turn":3,
    "officer":3,
    "smiling":3,
    "sort":3,
    "cult":3,
    "question":3,
    "syndrome":3,
    "wasnt":3,
    "person":3,
    "probably":3,
    "welcome":3,
    "hospital":3,
    "forgot":3,
    "suicide":3,
    "finished":3,
    "came":3,
    "dream":3,
    "perfect":3,
    "bullshit":3,
    "tried":3,
    "weeks":3,
    "peace":3,
    "belief":3,
    "disturbed":3,
    "opened":3,
    "front":3,
    "promises":3,
    "crazy":3,
    "rocky":3,
    "stuff":3,
    "nah":3,
    "father":3,
    "used":3,
    "havent":3,
    "upset":3,
    "thanks":3,
    "answer":3,
    "everything":3,
    "works":3,
    "elevator":3,
    "psychotic":3,
    "history":3,
    "drug":3,
    "incredible":3,
    "dreams":3,
    "meant":3,
    "aint":3,
    "burned":3,
    "2b":3,
    "yadda":3,
    "ceiling":3,
    "called":3,
    "security":3,
    "guard":3,
    "match":3,
    "finally":3,
    "stupid":3,
    "death":3,
    "sees":3,
    "light":3,
    "myself":3,
    "wanted":3,
    "morning":3,
    "share":3,
    "stay":3,
    "doctors":3,
    "glory":3,
    "human":3,
    "theory":3,
    "use":3,
    "inside":3,
    "goddamn":3,
    "counts":3,
    "murder":3,
    "times":4,
    "revealing":4,
    "easy":4,
    "things":4,
    "old":4,
    "start":4,
    "new":4,
    "day":4,
    "forward":4,
    "cannot":4,
    "against":4,
    "explosion":4,
    "soon":4,
    "hope":4,
    "second":4,
    "died":4,
    "care":4,
    "fighting":4,
    "own":4,
    "goes":4,
    "moves":4,
    "begins":4,
    "someone":4,
    "clinic":4,
    "rest":4,
    "fifteen":4,
    "wont":4,
    "much":4,
    "wants":4,
    "feel":4,
    "making":4,
    "fit":4,
    "close":4,
    "whole":4,
    "gilda":4,
    "gets":4,
    "takes":4,
    "matter":4,
    "total":4,
    "arent":4,
    "afraid":4,
    "youd":4,
    "relax":4,
    "whos":4,
    "heard":4,
    "put":4,
    "ones":4,
    "hours":4,
    "find":4,
    "anyone":4,
    "should":4,
    "course":4,
    "saw":4,
    "pull":4,
    "show":4,
    "six":4,
    "nice":4,
    "minute":4,
    "needs":4,
    "seen":4,
    "wonderful":4,
    "waiting":4,
    "die":4,
    "car":4,
    "killed":4,
    "always":4,
    "write":4,
    "turbine":4,
    "medication":4,
    "ago":5,
    "few":5,
    "ever":5,
    "man":5,
    "around":5,
    "room":5,
    "president":5,
    "three":5,
    "body":5,
    "bad":5,
    "anything":5,
    "memory":5,
    "berrisfords":5,
    "thank":5,
    "hate":5,
    "head":5,
    "every":5,
    "enough":5,
    "patients":5,
    "word":5,
    "understand":5,
    "fine":5,
    "also":5,
    "atlantis":5,
    "everyone":5,
    "feeling":5,
    "towards":5,
    "comes":5,
    "weve":5,
    "getting":5,
    "next":5,
    "guess":5,
    "deaths":5,
    "everybody":5,
    "shock":5,
    "alive":5,
    "thinking":5,
    "mind":5,
    "hear":5,
    "try":5,
    "pain":5,
    "girl":6,
    "wait":6,
    "than":6,
    "forever":6,
    "move":6,
    "doesnt":6,
    "keep":6,
    "blood":6,
    "days":6,
    "while":6,
    "shot":6,
    "work":6,
    "twelve":6,
    "coma":6,
    "accident":6,
    "end":6,
    "again":6,
    "even":6,
    "long":6,
    "part":6,
    "personality":6,
    "ask":6,
    "until":6,
    "happy":6,
    "behind":6,
    "stop":6,
    "fucking":6,
    "trying":6,
    "face":6,
    "knew":6,
    "lot":6,
    "great":6,
    "else":6,
    "never":6,
    "being":6,
    "cleanse":6,
    "bliss":6,
    "sure":7,
    "night":7,
    "lovechild":7,
    "eyes":7,
    "belong":7,
    "wasserman":7,
    "fire":7,
    "make":7,
    "weston":7,
    "before":7,
    "today":7,
    "damn":7,
    "theres":7,
    "took":7,
    "happened":7,
    "wrong":7,
    "very":7,
    "had":7,
    "therapy":7,
    "left":7,
    "told":7,
    "thing":7,
    "away":7,
    "id":7,
    "doing":7,
    "open":7,
    "real":7,
    "most":7,
    "story":7,
    "hell":7,
    "way":7,
    "place":7,
    "gonna":7,
    "eternal":7,
    "honey":8,
    "really":8,
    "must":8,
    "run":8,
    "maybe":8,
    "more":8,
    "god":8,
    "first":8,
    "sorry":8,
    "after":8,
    "their":8,
    "two":8,
    "am":8,
    "supposed":8,
    "ive":8,
    "life":8,
    "talking":8,
    "police":8,
    "nothing":8,
    "who":8,
    "borderline":8,
    "jesus":8,
    "believe":8,
    "yeah":8,
    "ed":8,
    "join":8,
    "connie":8,
    "say":9,
    "will":9,
    "last":9,
    "looks":9,
    "through":9,
    "remember":9,
    "other":9,
    "isnt":9,
    "together":9,
    "could":9,
    "vic":9,
    "fuck":9,
    "because":9,
    "dead":9,
    "lana":9,
    "hey":10,
    "victor":10,
    "talk":10,
    "by":10,
    "call":10,
    "any":10,
    "youve":10,
    "ill":10,
    "miss":10,
    "theyre":10,
    "those":10,
    "better":10,
    "said":10,
    "miriam":10,
    "these":10,
    "hand":11,
    "only":11,
    "our":11,
    "need":12,
    "lets":12,
    "lieutenant":12,
    "something":12,
    "whats":12,
    "beautiful":12,
    "mean":12,
    "kill":12,
    "years":13,
    "world":13,
    "too":13,
    "off":13,
    "group":13,
    "hes":13,
    "yourself":13,
    "love":13,
    "yes":13,
    "doctor":14,
    "down":15,
    "help":15,
    "when":15,
    "little":15,
    "harris":16,
    "tell":16,
    "shit":16,
    "take":16,
    "good":16,
    "shes":16,
    "think":16,
    "back":17,
    "over":17,
    "still":17,
    "oh":17,
    "would":17,
    "alan":17,
    "where":18,
    "please":18,
    "then":18,
    "has":18,
    "them":19,
    "people":19,
    "an":19,
    "did":20,
    "there":20,
    "house":20,
    "see":20,
    "how":20,
    "him":20,
    "got":21,
    "cant":21,
    "berrisford":21,
    "why":21,
    "look":21,
    "okay":22,
    "thats":22,
    "into":22,
    "so":22,
    "didnt":22,
    "some":23,
    "from":23,
    "or":24,
    "one":24,
    "well":24,
    "been":24,
    "let":24,
    "time":25,
    "dr":25,
    "goldman":25,
    "ralph":25,
    "his":27,
    "come":28,
    "can":28,
    "right":29,
    "get":29,
    "want":30,
    "up":30,
    "like":31,
    "just":31,
    "unity":31,
    "at":32,
    "now":32,
    "if":32,
    "as":33,
    "youre":33,
    "go":34,
    "going":36,
    "were":39,
    "us":40,
    "my":41,
    "are":42,
    "they":42,
    "but":43,
    "know":43,
    "not":45,
    "about":46,
    "here":48,
    "for":48,
    "im":48,
    "have":52,
    "dont":53,
    "be":53,
    "on":54,
    "your":56,
    "out":57,
    "he":57,
    "her":59,
    "she":60,
    "we":60,
    "no":60,
    "do":61,
    "its":62,
    "with":64,
    "all":65,
    "what":67,
    "was":71,
    "this":76,
    "is":82,
    "that":84,
    "me":89,
    "cynthia":101,
    "in":102,
    "and":115,
    "it":146,
    "of":158,
    "a":194,
    "i":208,
    "to":230,
    "the":286,
    "you":309
}