{
    "mother":1,
    "pneumonia":1,
    "kid":1,
    "wedding":1,
    "cake":1,
    "freezer":1,
    "funeral":1,
    "yardman":1,
    "act":1,
    "cheerful":1,
    "consoled":1,
    "stranger":1,
    "hoping":1,
    "begin":1,
    "scene":1,
    "memories":1,
    "ft":1,
    "dupree":1,
    "heads":1,
    "realize":1,
    "began":1,
    "alleys":1,
    "ways":1,
    "badlands":1,
    "yet":1,
    "cost":1,
    "twenty":1,
    "bills":1,
    "gonna":1,
    "throwed":1,
    "keeping":1,
    "messing":1,
    "hello":1,
    "minds":1,
    "incidentally":1,
    "druthers":1,
    "hung":1,
    "early":1,
    "daddys":1,
    "honest":1,
    "collects":1,
    "feet":1,
    "yardwork":1,
    "bother":1,
    "throw":1,
    "qualified":1,
    "write":1,
    "proving":1,
    "working":1,
    "cattle":1,
    "pens":1,
    "breeze":1,
    "handsomer":1,
    "seemed":1,
    "mi":1,
    "trabajo":1,
    "cowboy":1,
    "routine":1,
    "wearing":1,
    "boots":1,
    "homework":1,
    "bag":1,
    "sidewalk":1,
    "townd":1,
    "mess":1,
    "redhead":1,
    "headache":1,
    "tomorrow":1,
    "studies":1,
    "popular":1,
    "personality":1,
    "surprised":1,
    "liking":1,
    "given":1,
    "half":1,
    "sex":1,
    "compliment":1,
    "fifteenyearold":1,
    "behaved":1,
    "grownup":1,
    "giggly":1,
    "makes":1,
    "flowers":1,
    "play":1,
    "secret":1,
    "since":1,
    "older":1,
    "limited":1,
    "precious":1,
    "cares":1,
    "stomachs":1,
    "growling":1,
    "fudgesicle":1,
    "kids":1,
    "korea":1,
    "stench":1,
    "slime":1,
    "ran":1,
    "hair":1,
    "traced":1,
    "outline":1,
    "lips":1,
    "fingertip":1,
    "dreamed":1,
    "arms":1,
    "fish":1,
    "incident":1,
    "bothering":1,
    "turned":1,
    "telling":1,
    "instance":1,
    "faked":1,
    "whenever":1,
    "forging":1,
    "bed":1,
    "holding":1,
    "seashell":1,
    "beautiful":1,
    "white":1,
    "robes":1,
    "forehead":1,
    "uz":1,
    "supposed":1,
    "wreck":1,
    "water":1,
    "washed":1,
    "roots":1,
    "crunch":1,
    "stone":1,
    "forget":1,
    "hurt":1,
    "point":1,
    "souvenir":1,
    "lighter":1,
    "solemn":1,
    "vow":1,
    "stand":1,
    "beside":1,
    "wrote":1,
    "writing":1,
    "paper":1,
    "box":1,
    "tokens":1,
    "balloon":1,
    "heart":1,
    "filled":1,
    "longing":1,
    "watched":1,
    "drift":1,
    "happiness":1,
    "madder":1,
    "punishment":1,
    "deceiving":1,
    "extra":1,
    "music":1,
    "lessons":1,
    "till":1,
    "piano":1,
    "streets":1,
    "pretty":1,
    "aware":1,
    "leaning":1,
    "willys":1,
    "respect":1,
    "hanging":1,
    "whatre":1,
    "turning":1,
    "authorities":1,
    "onto":1,
    "property":1,
    "allow":1,
    "daddy":1,
    "front":1,
    "thatd":1,
    "toaster":1,
    "already":1,
    "late":1,
    "kidding":1,
    "neighbors":1,
    "police":1,
    "decided":1,
    "ourselves":1,
    "decision":1,
    "reasons":1,
    "obvious":1,
    "provoking":1,
    "popped":1,
    "pop":1,
    "nobodys":1,
    "deny":1,
    "mmmm":1,
    "record":1,
    "district":1,
    "attorney":1,
    "gambling":1,
    "books":1,
    "starting":1,
    "change":1,
    "names":1,
    "priscilla":1,
    "spies":1,
    "somewhere":1,
    "questions":1,
    "snuck":1,
    "boiler":1,
    "room":1,
    "sensed":1,
    "destiny":1,
    "worse":1,
    "spend":1,
    "week":1,
    "loved":1,
    "wilderness":1,
    "grove":1,
    "cottonwoods":1,
    "flood":1,
    "season":1,
    "built":1,
    "trees":1,
    "tamarisk":1,
    "walls":1,
    "willows":1,
    "laid":1,
    "plant":1,
    "handy":1,
    "huge":1,
    "network":1,
    "tunnels":1,
    "under":1,
    "order":1,
    "decide":1,
    "password":1,
    "sneak":1,
    "steal":1,
    "chicken":1,
    "corn":1,
    "melons":1,
    "melon":1,
    "patch":1,
    "stared":1,
    "clouds":1,
    "marble":1,
    "hall":1,
    "talked":1,
    "low":1,
    "voices":1,
    "tiniest":1,
    "sound":1,
    "set":1,
    "bones":1,
    "ashes":1,
    "prepared":1,
    "lectures":1,
    "works":1,
    "apart":1,
    "together":1,
    "case":1,
    "carry":1,
    "devil":1,
    "pounds":1,
    "wood":1,
    "five":1,
    "hiding":1,
    "covered":1,
    "eyes":1,
    "makeup":1,
    "moments":1,
    "accused":1,
    "drown":1,
    "break":1,
    "riley":1,
    "stayed":1,
    "chickens":1,
    "almost":1,
    "stepped":1,
    "kontiki":1,
    "motion":1,
    "usually":1,
    "conditions":1,
    "become":1,
    "sensitive":1,
    "changes":1,
    "rhythm":1,
    "logs":1,
    "suction":1,
    "coast":1,
    "drawing":1,
    "near":1,
    "continually":1,
    "deck":1,
    "mast":1,
    "nervous":1,
    "passed":1,
    "torstein":1,
    "hurrying":1,
    "masthead":1,
    "small":1,
    "palmclad":1,
    "islands":1,
    "grew":1,
    "cooing":1,
    "doves":1,
    "hum":1,
    "dragonflies":1,
    "seem":1,
    "lonesome":1,
    "everybodys":1,
    "leaves":1,
    "rustled":1,
    "overhead":1,
    "spirits":1,
    "bothered":1,
    "vistas":1,
    "dads":1,
    "stereopticon":1,
    "born":1,
    "whose":1,
    "sign":1,
    "painter":1,
    "many":1,
    "chill":1,
    "spine":1,
    "killed":1,
    "mom":1,
    "man":1,
    "marry":1,
    "coincidence":1,
    "face":1,
    "afterward":1,
    "dread":1,
    "asleep":1,
    "men":1,
    "played":1,
    "overheard":1,
    "reward":1,
    "lawmen":1,
    "bounty":1,
    "hunter":1,
    "fella":1,
    "speak":1,
    "hustling":1,
    "antlers":1,
    "sargis":1,
    "nuthouse":1,
    "naked":1,
    "comes":1,
    "plays":1,
    "bored":1,
    "plowing":1,
    "coins":1,
    "showed":1,
    "round":1,
    "gold":1,
    "finish":1,
    "supper":1,
    "visit":1,
    "mexicos":1,
    "shovel":1,
    "lid":1,
    "laying":1,
    "ground":1,
    "shovels":1,
    "hows":1,
    "stomach":1,
    "upset":1,
    "stole":1,
    "cage":1,
    "company":1,
    "spider":1,
    "feed":1,
    "flies":1,
    "grasshoppers":1,
    "bite":1,
    "bit":1,
    "wheres":1,
    "lift":1,
    "studebaker":1,
    "chances":1,
    "young":1,
    "step":1,
    "skip":1,
    "eye":1,
    "frog":1,
    "jump":1,
    "friends":1,
    "stick":1,
    "feels":1,
    "trapped":1,
    "imagine":1,
    "cellar":1,
    "promise":1,
    "hour":1,
    "shut":1,
    "suddenly":1,
    "thrown":1,
    "shock":1,
    "trigger":1,
    "person":1,
    "keeps":1,
    "witnesses":1,
    "consequences":1,
    "whine":1,
    "sun":1,
    "shame":1,
    "fear":1,
    "blah":1,
    "waters":1,
    "bathtub":1,
    "thick":1,
    "lookie":1,
    "bastards":1,
    "strike":1,
    "supplies":1,
    "rich":1,
    "mans":1,
    "figured":1,
    "safer":1,
    "quicker":1,
    "shopping":1,
    "downtown":1,
    "check":1,
    "meter":1,
    "tools":1,
    "barge":1,
    "uh":1,
    "hang":1,
    "ring":1,
    "parlor":1,
    "stroll":1,
    "outside":1,
    "serene":1,
    "deep":1,
    "faraway":1,
    "planet":1,
    "full":1,
    "parents":1,
    "teachers":1,
    "treat":1,
    "enemies":1,
    "learn":1,
    "viewpoint":1,
    "others":1,
    "consider":1,
    "minority":1,
    "majority":1,
    "accepted":1,
    "rushed":1,
    "grammar":1,
    "downstairs":1,
    "dictaphone":1,
    "acts":1,
    "bean":1,
    "goes":1,
    "odd":1,
    "claim":1,
    "wrapped":1,
    "finger":1,
    "mister":1,
    "scarborough":1,
    "flu":1,
    "invite":1,
    "except":1,
    "contagious":1,
    "epidemic":1,
    "bye":1,
    "tex":1,
    "drive":1,
    "everything":1,
    "borrowed":1,
    "maam":1,
    "monkey":1,
    "groceries":1,
    "sell":1,
    "sample":1,
    "handwriting":1,
    "whyre":1,
    "positive":1,
    "must":1,
    "nose":1,
    "lawn":1,
    "bagworms":1,
    "plus":1,
    "upkeep":1,
    "pocket":1,
    "problems":1,
    "solved":1,
    "fix":1,
    "fearing":1,
    "thered":1,
    "roadblocks":1,
    "highways":1,
    "area":1,
    "plains":1,
    "scenery":1,
    "boone":1,
    "seriously":1,
    "considering":1,
    "giving":1,
    "fulltime":1,
    "complete":1,
    "intimates":1,
    "will":1,
    "seat":1,
    "frank":1,
    "sinatra":1,
    "rita":1,
    "hayworth":1,
    "true":1,
    "desert":1,
    "mesa":1,
    "endless":1,
    "range":1,
    "headlong":1,
    "steering":1,
    "telephone":1,
    "lines":1,
    "kitd":1,
    "ram":1,
    "cow":1,
    "save":1,
    "cook":1,
    "salt":1,
    "tasted":1,
    "cabbage":1,
    "leakage":1,
    "valves":1,
    "pipelines":1,
    "drip":1,
    "approached":1,
    "cursed":1,
    "communists":1,
    "atomic":1,
    "bomb":1,
    "rapid":1,
    "acquaintance":1,
    "reason":1,
    "birds":1,
    "meadowlark":1,
    "utter":1,
    "neither":1,
    "nor":1,
    "solitude":1,
    "word":1,
    "meant":1,
    "exactly":1,
    "expression":1,
    "bitching":1,
    "animal":1,
    "bathe":1,
    "loves":1,
    "serious":1,
    "train":1,
    "making":1,
    "silently":1,
    "plain":1,
    "caravan":1,
    "adventures":1,
    "marco":1,
    "polo":1,
    "taste":1,
    "civilization":1,
    "football":1,
    "excess":1,
    "baggage":1,
    "afterwards":1,
    "buried":1,
    "bucket":1,
    "someday":1,
    "dig":1,
    "thousand":1,
    "wonder":1,
    "hop":1,
    "fast":1,
    "pulled":1,
    "slowed":1,
    "oughta":1,
    "saying":1,
    "spun":1,
    "leaving":1,
    "fate":1,
    "slope":1,
    "worth":1,
    "miracles":1,
    "heading":1,
    "mountain":1,
    "sunset":1,
    "saskatchewan":1,
    "beyond":1,
    "reach":1,
    "stopped":1,
    "paying":1,
    "attention":1,
    "instead":1,
    "sat":1,
    "map":1,
    "spelled":1,
    "entire":1,
    "sentences":1,
    "tongue":1,
    "roof":1,
    "prairie":1,
    "edge":1,
    "horizon":1,
    "w":1,
    "fires":1,
    "refinery":1,
    "missoula":1,
    "grander":1,
    "tag":1,
    "hellbent":1,
    "type":1,
    "finally":1,
    "strength":1,
    "pointed":1,
    "northwest":1,
    "qualifications":1,
    "usual":1,
    "listening":1,
    "lip":1,
    "drivers":1,
    "license":1,
    "hired":1,
    "smoke":1,
    "pall":1,
    "mall":1,
    "tough":1,
    "touch":1,
    "nat":1,
    "king":1,
    "cole":1,
    "pronounce":1,
    "able":1,
    "dreaded":1,
    "alone":1,
    "scream":1,
    "instant":1,
    "light":1,
    "hopes":1,
    "god":1,
    "driving":1,
    "actually":1,
    "explain":1,
    "swap":1,
    "blue":1,
    "book":1,
    "value":1,
    "mildred":1,
    "deserve":1,
    "medal":1,
    "git":1,
    "feeling":1,
    "helicopter":1,
    "twelve":1,
    "noon":1,
    "coulee":1,
    "dam":1,
    "1964":1,
    "shells":1,
    "300":1,
    "pissed":1,
    "bottles":1,
    "fill":1,
    "please":1,
    "often":1,
    "figure":1,
    "theyld":1,
    "despair":1,
    "tire":1,
    "suspect":1,
    "false":1,
    "hold":1,
    "army":1,
    "gotten":1,
    "rock":1,
    "ray":1,
    "aint":1,
    "cauliflower":1,
    "sheriff":1,
    "hup":1,
    "juice":1,
    "beats":1,
    "rifle":1,
    "aught":1,
    "performed":1,
    "heroes":1,
    "pass":1,
    "tossed":1,
    "window":1,
    "wanta":1,
    "sue":1,
    "question":1,
    "mmmmm":1,
    "whyd":1,
    "criminal":1,
    "kiss":1,
    "ass":1,
    "expected":1,
    "locked":1,
    "coat":1,
    "leather":1,
    "real":1,
    "prize":1,
    "comb":1,
    "joni":1,
    "kansas":1,
    "favorite":1,
    "singer":1,
    "pen":1,
    "death":1,
    "cuffs":1,
    "pinching":1,
    "coke":1,
    "hollys":1,
    "slack":1,
    "charges":1,
    "rang":1,
    "bells":1,
    "sometime":1,
    "chief":1,
    "sims":1,
    "caused":1,
    "inconvenience":1,
    "solitary":1,
    "acquainted":1,
    "inmates":1,
    "murderers":1,
    "myself":1,
    "probation":1,
    "nasty":1,
    "son":1,
    "lawyer":1,
    "defended":1,
    "sleep":1,
    "courtroom":1,
    "confession":1,
    "sentenced":1,
    "chair":1,
    "warm":1,
    "spring":1,
    "months":1,
    "donating":1,
    "body":1,
    "science":1,
    "quite":1,
    "individual":1,
    "theyll":1,
    "consideration":1,
    "their":2,
    "moved":2,
    "collie":2,
    "dog":2,
    "woody":2,
    "cigarette":2,
    "talk":2,
    "quiet":2,
    "lady":2,
    "pay":2,
    "shes":2,
    "lucky":2,
    "carruthers":2,
    "sounds":2,
    "getting":2,
    "wants":2,
    "grass":2,
    "another":2,
    "lost":2,
    "slip":2,
    "hope":2,
    "dean":2,
    "stop":2,
    "quit":2,
    "great":2,
    "move":2,
    "least":2,
    "bring":2,
    "dropped":2,
    "feedlot":2,
    "fell":2,
    "grand":2,
    "interested":2,
    "whatever":2,
    "tree":2,
    "tracks":2,
    "called":2,
    "hours":2,
    "remember":2,
    "hand":2,
    "forever":2,
    "sick":2,
    "strange":2,
    "signature":2,
    "middle":2,
    "noise":2,
    "against":2,
    "ear":2,
    "gosh":2,
    "glad":2,
    "afraid":2,
    "might":2,
    "hands":2,
    "stupid":2,
    "between":2,
    "sent":2,
    "route":2,
    "live":2,
    "clarinet":2,
    "means":2,
    "really":2,
    "happen":2,
    "shed":2,
    "deserved":2,
    "understand":2,
    "takes":2,
    "kinds":2,
    "planned":2,
    "taking":2,
    "part":2,
    "ought":2,
    "funny":2,
    "wont":2,
    "hot":2,
    "same":2,
    "happy":2,
    "weve":2,
    "message":2,
    "hide":2,
    "north":2,
    "hid":2,
    "loneliness":2,
    "floor":2,
    "business":2,
    "mostly":2,
    "backs":2,
    "without":2,
    "thirty":2,
    "distance":2,
    "miles":2,
    "times":2,
    "dawn":2,
    "ahead":2,
    "air":2,
    "whispering":2,
    "hit":2,
    "taken":2,
    "magical":2,
    "land":2,
    "those":2,
    "dirty":2,
    "besides":2,
    "money":2,
    "fair":2,
    "whered":2,
    "meet":2,
    "gloves":2,
    "nurse":2,
    "anyway":2,
    "isnt":2,
    "field":2,
    "ones":2,
    "truck":2,
    "afford":2,
    "bottle":2,
    "arent":2,
    "jack":2,
    "two":2,
    "stay":2,
    "expect":2,
    "door":2,
    "claimed":2,
    "considered":2,
    "sit":2,
    "buy":2,
    "steak":2,
    "probably":2,
    "blame":2,
    "country":2,
    "itd":2,
    "maid":2,
    "deaf":2,
    "known":2,
    "clear":2,
    "return":2,
    "enjoy":2,
    "opinion":2,
    "crazy":2,
    "ah":2,
    "inside":2,
    "heres":2,
    "list":2,
    "cars":2,
    "walking":2,
    "electric":2,
    "soon":2,
    "rumor":2,
    "pat":2,
    "career":2,
    "education":2,
    "ammo":2,
    "border":2,
    "couldnt":2,
    "having":2,
    "trout":2,
    "closer":2,
    "shouldve":2,
    "direction":2,
    "flat":2,
    "mouth":2,
    "lights":2,
    "cheyenne":2,
    "bigger":2,
    "mounties":2,
    "sing":2,
    "song":2,
    "wondered":2,
    "second":2,
    "savage":2,
    "nope":2,
    "yours":2,
    "head":2,
    "looks":2,
    "eddie":2,
    "fisher":2,
    "married":2,
    "tom":2,
    "thanks":2,
    "died":3,
    "father":3,
    "kept":3,
    "ten":3,
    "gave":3,
    "tried":3,
    "dollar":3,
    "watch":3,
    "notice":3,
    "end":3,
    "fit":3,
    "trouble":3,
    "enough":3,
    "trash":3,
    "today":3,
    "morning":3,
    "important":3,
    "am":3,
    "walk":3,
    "asked":3,
    "wait":3,
    "minute":3,
    "shouldnt":3,
    "done":3,
    "held":3,
    "used":3,
    "city":3,
    "find":3,
    "looked":3,
    "world":3,
    "whatcha":3,
    "spanish":3,
    "everybody":3,
    "carried":3,
    "such":3,
    "especially":3,
    "wouldve":3,
    "each":3,
    "lived":3,
    "die":3,
    "lay":3,
    "heard":3,
    "toward":3,
    "cold":3,
    "talking":3,
    "deal":3,
    "river":3,
    "mustve":3,
    "should":3,
    "every":3,
    "law":3,
    "stuck":3,
    "howd":3,
    "hear":3,
    "doctor":3,
    "saw":3,
    "believe":3,
    "yourself":3,
    "thank":3,
    "left":3,
    "playing":3,
    "fall":3,
    "tired":3,
    "first":3,
    "bunch":3,
    "knew":3,
    "couple":3,
    "wished":3,
    "different":3,
    "six":3,
    "line":3,
    "far":3,
    "dead":3,
    "em":3,
    "does":3,
    "show":3,
    "felt":3,
    "shooting":3,
    "friend":3,
    "kits":3,
    "sombitch":3,
    "junk":3,
    "state":3,
    "feel":3,
    "sitting":3,
    "excuse":3,
    "open":3,
    "has":3,
    "caught":3,
    "start":3,
    "leave":3,
    "cadillac":3,
    "living":3,
    "damn":3,
    "sight":3,
    "boys":3,
    "whos":3,
    "life":4,
    "away":4,
    "gimme":4,
    "montana":4,
    "doesnt":4,
    "guess":4,
    "most":4,
    "last":4,
    "still":4,
    "throwing":4,
    "again":4,
    "seen":4,
    "kill":4,
    "whatd":4,
    "wanted":4,
    "needed":4,
    "work":4,
    "moment":4,
    "james":4,
    "these":4,
    "ride":4,
    "red":4,
    "couldve":4,
    "care":4,
    "else":4,
    "lets":4,
    "pick":4,
    "side":4,
    "old":4,
    "through":4,
    "cause":4,
    "papers":4,
    "days":4,
    "gone":4,
    "running":4,
    "gun":4,
    "idea":4,
    "suppose":4,
    "need":4,
    "honey":4,
    "fun":4,
    "which":4,
    "forest":4,
    "very":4,
    "says":4,
    "luck":4,
    "long":4,
    "next":4,
    "sorry":4,
    "worry":4,
    "across":4,
    "texas":5,
    "dakota":5,
    "give":5,
    "eat":5,
    "either":5,
    "much":5,
    "town":5,
    "nah":5,
    "try":5,
    "once":5,
    "stuff":5,
    "school":5,
    "garbage":5,
    "hell":5,
    "thinking":5,
    "somebody":5,
    "call":5,
    "took":5,
    "nice":5,
    "theyre":5,
    "course":5,
    "dad":5,
    "wrong":5,
    "later":5,
    "happened":5,
    "sometimes":5,
    "behind":5,
    "shot":5,
    "fact":5,
    "into":5,
    "looking":5,
    "shoot":5,
    "car":5,
    "hat":5,
    "yes":5,
    "gas":5,
    "mountains":5,
    "whole":6,
    "after":6,
    "new":6,
    "south":6,
    "cato":6,
    "catch":6,
    "mine":6,
    "nobody":6,
    "nothing":6,
    "met":6,
    "along":6,
    "wasnt":6,
    "being":6,
    "only":6,
    "ask":6,
    "let":6,
    "matter":6,
    "bad":6,
    "big":6,
    "make":6,
    "chance":6,
    "read":6,
    "years":7,
    "wouldnt":7,
    "name":7,
    "cant":7,
    "more":7,
    "went":7,
    "coming":7,
    "thing":7,
    "made":7,
    "told":7,
    "sir":7,
    "guy":7,
    "better":7,
    "fine":7,
    "theyd":7,
    "even":7,
    "house":8,
    "mean":8,
    "anything":8,
    "job":8,
    "mind":8,
    "love":8,
    "run":8,
    "huh":8,
    "who":8,
    "boy":8,
    "came":8,
    "lot":8,
    "girl":8,
    "place":8,
    "tell":8,
    "by":9,
    "hes":9,
    "why":9,
    "thought":9,
    "people":9,
    "oh":9,
    "can":9,
    "anybody":9,
    "theres":9,
    "something":9,
    "than":9,
    "been":9,
    "good":9,
    "time":9,
    "night":9,
    "things":9,
    "always":9,
    "put":9,
    "found":10,
    "hadnt":10,
    "her":10,
    "she":10,
    "whats":10,
    "sure":10,
    "ive":10,
    "or":10,
    "other":10,
    "hed":10,
    "an":10,
    "maybe":10,
    "look":10,
    "then":11,
    "them":11,
    "holly":11,
    "before":11,
    "right":11,
    "keep":11,
    "our":11,
    "where":11,
    "are":11,
    "when":12,
    "day":12,
    "kind":12,
    "did":12,
    "back":12,
    "would":12,
    "thats":12,
    "listen":13,
    "too":13,
    "go":13,
    "wed":13,
    "us":14,
    "do":14,
    "around":14,
    "over":14,
    "doing":14,
    "though":14,
    "youre":14,
    "while":14,
    "were":14,
    "ill":15,
    "hi":15,
    "take":15,
    "way":15,
    "so":15,
    "any":15,
    "little":16,
    "hey":16,
    "see":16,
    "id":16,
    "down":16,
    "off":16,
    "think":17,
    "ever":17,
    "come":17,
    "said":17,
    "up":17,
    "some":18,
    "its":18,
    "didnt":18,
    "one":19,
    "all":19,
    "how":19,
    "no":19,
    "say":19,
    "never":20,
    "your":20,
    "had":21,
    "from":21,
    "want":21,
    "at":21,
    "his":22,
    "they":22,
    "okay":22,
    "now":22,
    "as":22,
    "is":23,
    "but":24,
    "have":24,
    "could":26,
    "know":26,
    "get":26,
    "im":28,
    "yeah":29,
    "there":30,
    "not":31,
    "here":31,
    "be":32,
    "just":33,
    "if":33,
    "about":33,
    "going":34,
    "him":34,
    "this":35,
    "got":36,
    "my":38,
    "out":41,
    "kit":42,
    "what":43,
    "with":43,
    "like":46,
    "on":49,
    "well":50,
    "we":50,
    "dont":52,
    "was":60,
    "for":60,
    "me":66,
    "it":80,
    "in":89,
    "he":89,
    "that":91,
    "of":108,
    "and":110,
    "a":160,
    "you":161,
    "to":174,
    "i":188,
    "the":228
}