{
    "kissin":1,
    "four":1,
    "stinkin":1,
    "flights":1,
    "el":1,
    "roars":1,
    "castiron":1,
    "daylight":1,
    "dream":1,
    "lived":1,
    "closed":1,
    "open":1,
    "dressed":1,
    "rags":1,
    "part":1,
    "suns":1,
    "hawking":1,
    "hawk":1,
    "hearts":1,
    "fresh":1,
    "spit":1,
    "monsieur":1,
    "several":1,
    "members":1,
    "party":1,
    "stanford":1,
    "minutes":1,
    "st":1,
    "claire":1,
    "carnahan":1,
    "champagne":1,
    "honor":1,
    "occasion":1,
    "embarrass":1,
    "caven":1,
    "contain":1,
    "himself":1,
    "corker":1,
    "tacked":1,
    "yacht":1,
    "club":1,
    "ouch":1,
    "bravo":1,
    "nevertheless":1,
    "weeping":1,
    "copius":1,
    "triumph":1,
    "star":1,
    "stage":1,
    "belasco":1,
    "thespians":1,
    "acquitted":1,
    "admirably":1,
    "folk":1,
    "mongers":1,
    "whose":1,
    "brute":1,
    "existence":1,
    "cannot":1,
    "quite":1,
    "quell":1,
    "longing":1,
    "higher":1,
    "nobility":1,
    "squalid":1,
    "corners":1,
    "callused":1,
    "speech":1,
    "american":1,
    "owner":1,
    "wrapping":1,
    "total":1,
    "waste":1,
    "cynic":1,
    "celebrate":1,
    "listening":1,
    "writes":1,
    "merely":1,
    "adequate":1,
    "critic":1,
    "lord":1,
    "charming":1,
    "aaawoooooooo":1,
    "panic":1,
    "wept":1,
    "copiously":1,
    "millions":1,
    "phone":1,
    "offered":1,
    "thousand":1,
    "anymore":1,
    "pressure":1,
    "hundred":1,
    "sells":1,
    "million":1,
    "brief":1,
    "tenure":1,
    "support":1,
    "plays":1,
    "brink":1,
    "enjoying":1,
    "fawn":1,
    "producers":1,
    "creation":1,
    "ran":1,
    "parties":1,
    "meeting":1,
    "shots":1,
    "wellspring":1,
    "sprouting":1,
    "certain":1,
    "capable":1,
    "lead":1,
    "percenter":1,
    "decide":1,
    "decision":1,
    "informed":1,
    "realism":1,
    "everybody":1,
    "cavens":1,
    "review":1,
    "copy":1,
    "toast":1,
    "broadway":1,
    "redeem":1,
    "strike":1,
    "manll":1,
    "rationalization":1,
    "joke":1,
    "welcome":1,
    "checking":1,
    "tranz":1,
    "transient":1,
    "resident":1,
    "indefinitely":1,
    "thatll":1,
    "twentyfive":1,
    "payable":1,
    "advance":1,
    "checkout":1,
    "sharp":1,
    "account":1,
    "dial":1,
    "zero":1,
    "inroom":1,
    "telephone":1,
    "kitchen":1,
    "closes":1,
    "clerk":1,
    "sandwiches":1,
    "provide":1,
    "privacy":1,
    "residential":1,
    "guest":1,
    "full":1,
    "including":1,
    "complimentary":1,
    "shoe":1,
    "shine":1,
    "okeydokey":1,
    "sixohfive":1,
    "bags":1,
    "sent":1,
    "peeled":1,
    "lemme":1,
    "arms":1,
    "trip":1,
    "treating":1,
    "wilshire":1,
    "dirty":1,
    "sat":1,
    "given":1,
    "walked":1,
    "handicap":1,
    "medium":1,
    "mumbo":1,
    "jumbo":1,
    "learn":1,
    "laugh":1,
    "cry":1,
    "break":1,
    "joyous":1,
    "song":1,
    "mumbojumbo":1,
    "horsesense":1,
    "showmanship":1,
    "meaner":1,
    "dicks":1,
    "coffee":1,
    "used":1,
    "shares":1,
    "ownership":1,
    "twenties":1,
    "muscled":1,
    "schmuck":1,
    "sensitive":1,
    "mention":1,
    "barring":1,
    "rule":1,
    "westerns":1,
    "pirate":1,
    "screwball":1,
    "roman":1,
    "poetic":1,
    "minsk":1,
    "peoplere":1,
    "bullshit":1,
    "excellent":1,
    "saturday":1,
    "post":1,
    "mixed":1,
    "element":1,
    "crack":1,
    "swing":1,
    "tackle":1,
    "assuming":1,
    "spades":1,
    "seriously":1,
    "moving":1,
    "expecting":1,
    "604":1,
    "somebody":1,
    "complained":1,
    "distress":1,
    "bothered":1,
    "inconvenience":1,
    "youd":1,
    "buy":1,
    "carrying":1,
    "liquors":1,
    "glass":1,
    "least":1,
    "quick":1,
    "nip":1,
    "carryingson":1,
    "assure":1,
    "racket":1,
    "hats":1,
    "doortodoor":1,
    "contact":1,
    "merchandise":1,
    "spite":1,
    "theft":1,
    "casualty":1,
    "providing":1,
    "fella":1,
    "worse":1,
    "scribbler":1,
    "newspaperman":1,
    "ambitious":1,
    "youngster":1,
    "beating":1,
    "competition":1,
    "patronizing":1,
    "egg":1,
    "showing":1,
    "starting":1,
    "established":1,
    "renown":1,
    "exciting":1,
    "bestread":1,
    "mug":1,
    "planet":1,
    "heel":1,
    "showsve":1,
    "writeup":1,
    "everyone":1,
    "venue":1,
    "thematically":1,
    "caught":1,
    "fancy":1,
    "question":1,
    "strange":1,
    "average":1,
    "kick":1,
    "hopefully":1,
    "numbers":1,
    "growing":1,
    "forge":1,
    "everyday":1,
    "masses":1,
    "based":1,
    "truths":1,
    "shopworn":1,
    "abstractions":1,
    "today":1,
    "stories\u0096":1,
    "pill":1,
    "swallow":1,
    "strongly":1,
    "horse":1,
    "ourselves":1,
    "cares":1,
    "fifth":1,
    "earl":1,
    "bastrop":1,
    "lady":1,
    "higginbottom":1,
    "killed":1,
    "nigel":1,
    "grinchgibbons":1,
    "butt":1,
    "sore":1,
    "literary":1,
    "types":1,
    "insulate":1,
    "fight":1,
    "converse":1,
    "suffers":1,
    "regresses":1,
    "empty":1,
    "formalism":1,
    "spouting":1,
    "language":1,
    "dollar":1,
    "tragedy":1,
    "seldom":1,
    "remarked":1,
    "stopped":1,
    "bored":1,
    "schmoe":1,
    "view":1,
    "contribute":1,
    "whatever\u0096":1,
    "interruption":1,
    "revelry":1,
    "opposite":1,
    "bed":1,
    "norman":1,
    "steele":1,
    "western":1,
    "o":1,
    "assigned":1,
    "year":1,
    "squeeze":1,
    "bowl":1,
    "screwy":1,
    "says":1,
    "whatm":1,
    "janitor":1,
    "whod":1,
    "dimpled":1,
    "chow":1,
    "budget":1,
    "sofa":1,
    "blocked":1,
    "indication":1,
    "confused":1,
    "guidance":1,
    "rock":1,
    "hit":1,
    "odor":1,
    "beg":1,
    "pardon":1,
    "novelist":1,
    "bein":1,
    "occupied":1,
    "worship":1,
    "mammon":1,
    "chance":1,
    "news":1,
    "reaches":1,
    "flattered":1,
    "undomesticated":1,
    "salt":1,
    "allus":1,
    "thrust":1,
    "social":1,
    "lubricant":1,
    "imposing":1,
    "busy":1,
    "wonder":1,
    "written":1,
    "drippin":1,
    "suh":1,
    "othuh":1,
    "invited":1,
    "essay":1,
    "stabs":1,
    "form":1,
    "stabbed":1,
    "gather":1,
    "freshman":1,
    "upperclassmans":1,
    "council":1,
    "moment":1,
    "drinkin":1,
    "bungalow":1,
    "numbah":1,
    "fifteen":1,
    "discuss":1,
    "litrary":1,
    "indisposed":1,
    "moment\u0096":1,
    "taylor":1,
    "mayhews":1,
    "horrid":1,
    "drinks":1,
    "embarassing":1,
    "wres":1,
    "reschedule":1,
    "appointment":1,
    "\u0096im":1,
    "abrupt":1,
    "bastardass":1,
    "waters":1,
    "howdy":1,
    "interrupting":1,
    "walking":1,
    "figured":1,
    "chronic":1,
    "cotton":1,
    "staunch":1,
    "flow":1,
    "pus":1,
    "contagious":1,
    "doctors":1,
    "stuck":1,
    "seat":1,
    "invite":1,
    "mess":1,
    "married":1,
    "lassoed":1,
    "sweetheart":1,
    "unfair":1,
    "ladies":1,
    "smoke":1,
    "screen":1,
    "demanding":1,
    "howre":1,
    "fixed":1,
    "department":1,
    "brooklyn":1,
    "expression":1,
    "often":1,
    "surrounded":1,
    "stranger":1,
    "loneliness":1,
    "dames":1,
    "opportunities":1,
    "galore":1,
    "wing":1,
    "curl":1,
    "hair":1,
    "plying":1,
    "holders":1,
    "customers":1,
    "appreciate":1,
    "offer":1,
    "hubby":1,
    "envy":1,
    "daily":1,
    "routine":1,
    "job":1,
    "plumb":1,
    "depths":1,
    "dredge":1,
    "territory":1,
    "exploring":1,
    "painful":1,
    "boring":1,
    "actor":1,
    "beat":1,
    "stitch":1,
    "pip":1,
    "school":1,
    "moves":1,
    "watched":1,
    "itself":1,
    "seconds":1,
    "purposes":1,
    "demonstration":1,
    "easiest":1,
    "slap":1,
    "champ":1,
    "except":1,
    "grunting":1,
    "squirming":1,
    "clumsy":1,
    "lug":1,
    "wasnt":1,
    "endowed":1,
    "match":1,
    "mental":1,
    "gymnastics":1,
    "holler":1,
    "close":1,
    "meyes":1,
    "oak":1,
    "hamburger":1,
    "grease":1,
    "molfactorys":1,
    "turnin":1,
    "womanish":1,
    "lyin":1,
    "deceitful":1,
    "writin":1,
    "inner":1,
    "realization":1,
    "somehow":1,
    "ease":1,
    "rate":1,
    "possible":1,
    "mmm":1,
    "wal":1,
    "maikn":1,
    "yessir":1,
    "mself":1,
    "tear":1,
    "mhead":1,
    "screamin":1,
    "mballs":1,
    "fruitpickers":1,
    "pail":1,
    "thisll":1,
    "solomans":1,
    "mammy":1,
    "among":1,
    "sposed":1,
    "roll":1,
    "ol":1,
    "gettin":1,
    "ger":1,
    "belly":1,
    "scratched":1,
    "none":1,
    "talent":1,
    "obligation":1,
    "art":1,
    "thisahere":1,
    "moonshines":1,
    "nothin":1,
    "shuttin":1,
    "usin":1,
    "buildin":1,
    "raisin":1,
    "ragin":1,
    "river":1,
    "mdoor":1,
    "buried":1,
    "pretends":1,
    "impatient":1,
    "shell":1,
    "test":1,
    "lucky":1,
    "schoolboys":1,
    "gives":1,
    "pays":1,
    "pity":1,
    "basest":1,
    "coin":1,
    "tart":1,
    "scrutiny":1,
    "breach":1,
    "peril":1,
    "jus":1,
    "walk":1,
    "pacific":1,
    "improvise":1,
    "silent":1,
    "darien":1,
    "estelle":1,
    "wife":1,
    "fayettesville":1,
    "disturbed":1,
    "behavior":1,
    "wander":1,
    "sober":1,
    "empathy":1,
    "requires":1,
    "shoes":1,
    "hi":1,
    "lately":1,
    "couldntve":1,
    "sold":1,
    "ice":1,
    "water":1,
    "sahara":1,
    "loss":1,
    "normal":1,
    "restore":1,
    "pleasure":1,
    "bottle":1,
    "mechanism":1,
    "thanking":1,
    "offering":1,
    "finally":1,
    "decided":1,
    "knock":1,
    "advice":1,
    "went":1,
    "infected":1,
    "led":1,
    "argument":1,
    "bellyachin":1,
    "problems":1,
    "amounted":1,
    "beans":1,
    "fraud":1,
    "staring":1,
    "paper":1,
    "lovebirds":1,
    "drivin":1,
    "doin":1,
    "piece":1,
    "pipes":1,
    "ply":1,
    "weewee":1,
    "hours":1,
    "shoulders":1,
    "proves":1,
    "halfdozen":1,
    "policies":1,
    "stakes":1,
    "temporarily":1,
    "stompin":1,
    "grounds":1,
    "truly":1,
    "sooner":1,
    "mark":1,
    "picturell":1,
    "finished":1,
    "strangers":1,
    "homecooked":1,
    "meal":1,
    "heats":1,
    "sweating":1,
    "wallpaper":1,
    "heat":1,
    "poison":1,
    "leave":1,
    "bite":1,
    "breed":1,
    "swamps":1,
    "desert":1,
    "started\u0096":1,
    "hamlet":1,
    "ruggles":1,
    "gap":1,
    "prob":1,
    "consult":1,
    "manages":1,
    "cared":1,
    "deaf":1,
    "drew":1,
    "straw":1,
    "supervise":1,
    "turkey":1,
    "fatassed":1,
    "covered":1,
    "excited":1,
    "himtell":1,
    "chrissake":1,
    "projection":1,
    "jerry":1,
    "rooms":1,
    "free":1,
    "victor":1,
    "sjoderberg":1,
    "shooting":1,
    "dailies":1,
    "eightfifteen":1,
    "devil":1,
    "aaaaaaaaaaaaaahhhhhhhhhhhh":1,
    "slausen":1,
    "64304":1,
    "alternative":1,
    "rascals":1,
    "\u0096i":1,
    "deadline":1,
    "gaddamn":1,
    "jealous":1,
    "quiets":1,
    "passes":1,
    "buffoon":1,
    "irrational\u0096":1,
    "hesh":1,
    "everythingll":1,
    "drifted":1,
    "sleep":1,
    "outline":1,
    "soup":1,
    "acts":1,
    "actual":1,
    "scenes":1,
    "morality":1,
    "tales":1,
    "whom":1,
    "confronts":1,
    "child":1,
    "protect":1,
    "backwoods":1,
    "convict":1,
    "instead":1,
    "waif":1,
    "protecting":1,
    "idiot":1,
    "manchild":1,
    "hated":1,
    "spirited":1,
    "formula":1,
    "invent":1,
    "setting":1,
    "times":1,
    "came":1,
    "concentrate":1,
    "project":1,
    "books":1,
    "honestly":1,
    "input":1,
    "editorial":1,
    "william":1,
    "guff":1,
    "escaped":1,
    "condescend":1,
    "helped":1,
    "appreciating":1,
    "horribles":1,
    "whatre":1,
    "this\u0096":1,
    "deep":1,
    "woke":1,
    "boyfriend":1,
    "able":1,
    "hang":1,
    "intercourse":1,
    "cleared":1,
    "ruin":1,
    "bathroom":1,
    "nothings":1,
    "usual":1,
    "happy":1,
    "relax":1,
    "rye":1,
    "whiskey":1,
    "thingsre":1,
    "along":1,
    "winner":1,
    "counting":1,
    "interfere":1,
    "necessary":1,
    "storyteller":1,
    "stature":1,
    "givitta":1,
    "bold":1,
    "outlines":1,
    "lights":1,
    "logo":1,
    "tenement":1,
    "building":1,
    "lower":1,
    "east":1,
    "side":1,
    "dealings":1,
    "sharks":1,
    "swimming":1,
    "within":1,
    "mile":1,
    "unless":1,
    "comfortable":1,
    "discussing":1,
    "force":1,
    "prematurely":1,
    "meaning":1,
    "employees":1,
    "draws":1,
    "pay":1,
    "contents":1,
    "fast":1,
    "lousy":1,
    "telling":1,
    "creates":1,
    "food":1,
    "ungrateful":1,
    "necessar":1,
    "cover":1,
    "reconsider":1,
    "goddammit":1,
    "artistry":1,
    "methods":1,
    "fill":1,
    "kissing":1,
    "efforts":1,
    "country":1,
    "taught":1,
    "children":1,
    "shame":1,
    "supplicatin":1,
    "behalf":1,
    "administration":1,
    "stockholders":1,
    "accept":1,
    "symbol":1,
    "apology":1,
    "timer":1,
    "rough":1,
    "losing":1,
    "do\u0096":1,
    "carry":1,
    "locked":1,
    "figure":1,
    "drag":1,
    "trust":1,
    "lifetime":1,
    "fit":1,
    "finish":1,
    "send":1,
    "pete":1,
    "holy":1,
    "lapd":1,
    "questions":1,
    "deal":1,
    "partner":1,
    "load":1,
    "multiple":1,
    "choice":1,
    "tuesday":1,
    "slob":1,
    "twice":1,
    "karl":1,
    "known":1,
    "ventilate":1,
    "shotgun":1,
    "ago":1,
    "mo":1,
    "feliz":1,
    "missin":1,
    "physician":1,
    "heal":1,
    "thyself":1,
    "precinct":1,
    "looking":1,
    "doc":1,
    "female":1,
    "caucasian":1,
    "nice":1,
    "tits":1,
    "meets":1,
    "reputable":1,
    "hire":1,
    "ordinarily":1,
    "frank":1,
    "jewish":1,
    "restricted":1,
    "disappeared":1,
    "idiotic":1,
    "connect":1,
    "operator":1,
    "large":1,
    "happens":1,
    "little\u0096":1,
    "encouragement":1,
    "nitwit":1,
    "motion":1,
    "scenario":1,
    "cute":1,
    "scuse":1,
    "shipping":1,
    "celebrating":1,
    "completion":1,
    "aside":1,
    "foureyes":1,
    "spin":1,
    "navy":1,
    "hey":1,
    "fourf":1,
    "hike":1,
    "monsters":1,
    "points":1,
    "uniform":1,
    "serve":1,
    "mother":1,
    "become":1,
    "father":1,
    "hearing":1,
    "duke":1,
    "kinda":1,
    "filthy":1,
    "second":1,
    "sixth":1,
    "floor":1,
    "bleeds":1,
    "kidding":1,
    "bright":1,
    "smelt":1,
    "fry":1,
    "killing":1,
    "teach":1,
    "fuck":1,
    "moron":1,
    "arrest":1,
    "tight":1,
    "whys":1,
    "mitts":1,
    "air":1,
    "complying":1,
    "heil":1,
    "hitler":1,
    "personality":1,
    "mad":1,
    "trapped":1,
    "feels":1,
    "crawl":1,
    "skin":1,
    "dripping":1,
    "tourist":1,
    "typewriter":1,
    "merrygoround":1,
    "package":1,
    "lied":1,
    "answer":1,
    "shall":1,
    "check":1,
    "siddown":1,
    "commissioned":1,
    "army":1,
    "reserve":1,
    "henry":1,
    "morgenthau":1,
    "arranged":1,
    "congratulations":1,
    "officially":1,
    "wardrobe":1,
    "whip":1,
    "teeth":1,
    "tape":1,
    "peacetime":1,
    "allout":1,
    "warfare":1,
    "japs":1,
    "yellow":1,
    "bastards":1,
    "wash":1,
    "due":1,
    "best":1,
    "gas":1,
    "opinion":1,
    "mattered":1,
    "resign":1,
    "lunatics":1,
    "particular":1,
    "asylum":1,
    "pushing":1,
    "after":1,
    "disappointed":1,
    "heartbroken":1,
    "explain":1,
    "stinks":1,
    "insult":1,
    "intelligence":1,
    "carrot":1,
    "wags":1,
    "exits":1,
    "blame":1,
    "square":1,
    "movie":1,
    "die":1,
    "scribble":1,
    "trusted":1,
    "outdoors":1,
    "fucked":1,
    "convince":1,
    "produce":1,
    "until":1,
    "grow":1,
    "writeoff":1,
    "arrogant":1,
    "twenty":1,
    "finktype":1,
    "swellheaded":1,
    "hypocrite":1,
    "revolves":1,
    "rattles":1,
    "stays":1,
    "lost":1,
    "war":1,
    "silly":1,
    "blowin":2,
    "walls":2,
    "wind":2,
    "miss":2,
    "dreaming":2,
    "lil":2,
    "awake":2,
    "years":2,
    "sing":2,
    "postcard":2,
    "hands":2,
    "table":2,
    "arrived":2,
    "called":2,
    "drinking":2,
    "hardly":2,
    "loved":2,
    "power":2,
    "wall":2,
    "devastated":2,
    "tears":2,
    "bare":2,
    "involved":2,
    "themselves":2,
    "evening":2,
    "author":2,
    "struggle":2,
    "playwright":2,
    "finds":2,
    "voice":2,
    "named":2,
    "enjoy":2,
    "start":2,
    "own":2,
    "pretend":2,
    "simply":2,
    "marvelous":2,
    "alone":2,
    "theyve":2,
    "far":2,
    "difference":2,
    "fifty":2,
    "eighty":2,
    "pap":2,
    "however":2,
    "cutting":2,
    "artist":2,
    "use":2,
    "word":2,
    "same":2,
    "breath":2,
    "opportunity":2,
    "cash":2,
    "hotel":2,
    "earle":2,
    "order":2,
    "mostly":2,
    "service":2,
    "eight":2,
    "ring":2,
    "ahead":2,
    "forgot":2,
    "others":2,
    "eye":2,
    "dya":2,
    "papers":2,
    "hells":2,
    "mosquito":2,
    "move":2,
    "king":2,
    "paycheck":2,
    "hasnt":2,
    "preference":2,
    "probably":2,
    "knew":2,
    "technical":2,
    "goddamnit":2,
    "bigger":2,
    "kike":2,
    "sexual":2,
    "although":2,
    "company":2,
    "bought":2,
    "according":2,
    "poor":2,
    "arent":2,
    "askin":2,
    "rumor":2,
    "talking":2,
    "treatment":2,
    "hopes":2,
    "dreams":2,
    "naturally":2,
    "young":2,
    "orphan":2,
    "wally":2,
    "saw":2,
    "powerful":2,
    "noise":2,
    "complain":2,
    "concerned":2,
    "difficult":2,
    "names":2,
    "neighbors":2,
    "imagine":2,
    "sell":2,
    "game":2,
    "tonight":2,
    "surprise":2,
    "fire":2,
    "eager":2,
    "movies":2,
    "recognize":2,
    "played":2,
    "quality":2,
    "stiff":2,
    "experience":2,
    "create":2,
    "true":2,
    "noble":2,
    "becomes":2,
    "frequently":2,
    "whos":2,
    "indians":2,
    "producing":2,
    "almost":2,
    "breeze":2,
    "lipniks":2,
    "smell":2,
    "reason":2,
    "bring":2,
    "book":2,
    "screening":2,
    "short":2,
    "having":2,
    "expected":2,
    "road":2,
    "map":2,
    "throw":2,
    "favor":2,
    "eventually":2,
    "mebbe":2,
    "genre":2,
    "wrastlin":2,
    "scenarios":2,
    "asked":2,
    "honey":2,
    "dropped":2,
    "perhaps":2,
    "sounds":2,
    "each":2,
    "lappin":2,
    "judge":2,
    "hadnt":2,
    "infection":2,
    "away":2,
    "nope":2,
    "worked":2,
    "attention":2,
    "friends":2,
    "mm":2,
    "beef":2,
    "kansas":2,
    "policy":2,
    "wrestled":2,
    "thirty":2,
    "class":2,
    "bit":2,
    "hand":2,
    "wrestle":2,
    "wake":2,
    "hurt":2,
    "gimme":2,
    "felt":2,
    "productive":2,
    "found":2,
    "fellow":2,
    "suffering":2,
    "gift":2,
    "build":2,
    "somethin":2,
    "gulp":2,
    "brick":2,
    "manure":2,
    "theyd":2,
    "truth":2,
    "bear":2,
    "hill":2,
    "shes":2,
    "gave":2,
    "rude":2,
    "person":2,
    "lift":2,
    "pal":2,
    "housewives":2,
    "problem":2,
    "cross":2,
    "dunno":2,
    "defense":2,
    "against":2,
    "nuts":2,
    "practically":2,
    "wish":2,
    "bet":2,
    "leaving":2,
    "balled":2,
    "office":2,
    "home":2,
    "morris":2,
    "lillian":2,
    "course":2,
    "mosquitos":2,
    "red":2,
    "men":2,
    "tights":2,
    "talked":2,
    "whered":2,
    "care":2,
    "progress":2,
    "wait":2,
    "ought":2,
    "house":2,
    "broad":2,
    "strokes":2,
    "aaaahhhh":2,
    "slip":2,
    "voices":2,
    "gets":2,
    "between":2,
    "type":2,
    "studio":2,
    "soul":2,
    "hah":2,
    "grip":2,
    "mercy":2,
    "uhhuh":2,
    "case":2,
    "audience":2,
    "fade":2,
    "pool":2,
    "cleaning":2,
    "changes":2,
    "soon":2,
    "employee":2,
    "property":2,
    "mans":2,
    "everythings":2,
    "mentally":2,
    "crazy":2,
    "argue":2,
    "box":2,
    "luck":2,
    "fuckin":2,
    "nine":2,
    "buck":2,
    "rogers":2,
    "nose":2,
    "throat":2,
    "description":2,
    "remember":2,
    "distance":2,
    "dance":2,
    "sailor":2,
    "cmon":2,
    "charlies":2,
    "sick":2,
    "sex":2,
    "fred":2,
    "colonel":2,
    "plenty":2,
    "blood":2,
    "sweat":2,
    "tried":2,
    "outta":2,
    "goodbye":3,
    "choir":3,
    "both":3,
    "coming":3,
    "fulton":3,
    "ruined":3,
    "early":3,
    "ready":3,
    "hed":3,
    "poppy":3,
    "dear":3,
    "derek":3,
    "choirs":3,
    "last":3,
    "find":3,
    "drama":3,
    "poetry":3,
    "tough":3,
    "critics":3,
    "dog":3,
    "sense":3,
    "high":3,
    "living":3,
    "fair":3,
    "enough":3,
    "every":3,
    "generally":3,
    "money":3,
    "weve":3,
    "seem":3,
    "asking":3,
    "may":3,
    "rez":3,
    "excuse":3,
    "downstairs":3,
    "looks":3,
    "less":3,
    "hows":3,
    "dead":3,
    "family":3,
    "fruity":3,
    "together":3,
    "romantic":3,
    "drill":3,
    "feeling":3,
    "dammit":3,
    "605":3,
    "meadows":3,
    "neighbor":3,
    "drink":3,
    "interesting":3,
    "easy":3,
    "human":3,
    "basic":3,
    "sitting":3,
    "made":3,
    "means":3,
    "saying":3,
    "phony":3,
    "drop":3,
    "act":3,
    "alright":3,
    "without":3,
    "script":3,
    "another":3,
    "finest":3,
    "havent":3,
    "mistuh":3,
    "god":3,
    "lick":3,
    "such":3,
    "invented":3,
    "later":3,
    "afternoon":3,
    "secretary":3,
    "sons":3,
    "bitches":3,
    "gotten":3,
    "goes":3,
    "doctor":3,
    "folks":3,
    "passed":3,
    "especially":3,
    "city":3,
    "her":3,
    "oakie":3,
    "weight":3,
    "compadre":3,
    "knees":3,
    "pin":3,
    "usually":3,
    "helpful":3,
    "physically":3,
    "ones":3,
    "escape":3,
    "bitch":3,
    "levee":3,
    "puts":3,
    "lives":3,
    "understanding":3,
    "day":3,
    "cruel":3,
    "once":3,
    "words":3,
    "gone":3,
    "yesterday":3,
    "ben":3,
    "ideas":3,
    "canvas":3,
    "baker":3,
    "action":3,
    "scripts":3,
    "sort":3,
    "till":3,
    "friend":3,
    "totally":3,
    "sit":3,
    "fired":3,
    "sight":3,
    "madman":3,
    "liked":3,
    "step":3,
    "beautiful":3,
    "six":4,
    "maury":4,
    "eyes":4,
    "theyll":4,
    "late":4,
    "already":4,
    "richard":4,
    "seen":4,
    "herald":4,
    "happen":4,
    "simple":4,
    "itll":4,
    "gut":4,
    "tells":4,
    "join":4,
    "minute":4,
    "dollars":4,
    "angeles":4,
    "five":4,
    "number":4,
    "making":4,
    "ten":4,
    "forget":4,
    "personal":4,
    "also":4,
    "being":4,
    "face":4,
    "bad":4,
    "grand":4,
    "wanted":4,
    "thinking":4,
    "interested":4,
    "yours":4,
    "bible":4,
    "thinks":4,
    "b":4,
    "dame":4,
    "since":4,
    "heart":4,
    "wuddya":4,
    "line":4,
    "peace":4,
    "insurance":4,
    "stories":4,
    "many":4,
    "trade":4,
    "okum":4,
    "shit":4,
    "calling":4,
    "wp":4,
    "idea":4,
    "while":4,
    "comes":4,
    "speak":4,
    "upon":4,
    "nothing":4,
    "pull":4,
    "buddy":4,
    "pathetic":4,
    "afraid":4,
    "souse":4,
    "likes":4,
    "wrote":4,
    "feet":4,
    "kiss":5,
    "first":5,
    "dave":5,
    "theyre":5,
    "street":5,
    "few":5,
    "ah":5,
    "glad":5,
    "boy":5,
    "night":5,
    "wrong":5,
    "left":5,
    "she":5,
    "los":5,
    "contract":5,
    "couple":5,
    "through":5,
    "lot":5,
    "real":5,
    "huh":5,
    "working":5,
    "jack":5,
    "matter":5,
    "stay":5,
    "old":5,
    "guys":5,
    "aint":5,
    "else":5,
    "world":5,
    "wouldnt":5,
    "doing":5,
    "someone":5,
    "mine":5,
    "exactly":5,
    "trying":5,
    "damned":5,
    "stuff":5,
    "shouldnt":5,
    "hard":5,
    "getting":5,
    "christ":5,
    "yourself":5,
    "ted":5,
    "ass":5,
    "trouble":5,
    "very":5,
    "wheres":5,
    "sound":5,
    "bills":5,
    "ear":5,
    "inside":5,
    "whole":5,
    "listen":5,
    "done":5,
    "pick":5,
    "cut":5,
    "heads":5,
    "these":6,
    "three":6,
    "uncle":6,
    "fish":6,
    "hear":6,
    "important":6,
    "play":6,
    "fact":6,
    "most":6,
    "morning":6,
    "worry":6,
    "wants":6,
    "under":6,
    "respect":6,
    "place":6,
    "love":6,
    "seems":6,
    "twelve":6,
    "dump":6,
    "heard":6,
    "end":6,
    "hope":6,
    "told":6,
    "which":6,
    "wont":6,
    "damn":6,
    "apologize":6,
    "":6,
    "anyone":6,
    "sometimes":6,
    "geisler":6,
    "started":6,
    "youll":6,
    "ask":6,
    "pain":6,
    "anyway":6,
    "tomorrow":6,
    "police":6,
    "hot":6,
    "am":7,
    "youve":7,
    "lets":7,
    "success":7,
    "myself":7,
    "thought":7,
    "those":7,
    "them":7,
    "try":7,
    "because":7,
    "point":7,
    "better":7,
    "does":7,
    "might":7,
    "sir":7,
    "must":7,
    "chet":7,
    "wanna":7,
    "next":7,
    "around":7,
    "run":7,
    "whatever":7,
    "writers":7,
    "hello":7,
    "door":7,
    "brother":7,
    "hold":7,
    "live":7,
    "before":7,
    "son":7,
    "taken":7,
    "happened":7,
    "sonofabitch":7,
    "destroy":7,
    "drown":7,
    "again":8,
    "kid":8,
    "their":8,
    "long":8,
    "read":8,
    "though":8,
    "theater":8,
    "has":8,
    "even":8,
    "business":8,
    "capitol":8,
    "week":8,
    "over":8,
    "than":8,
    "stop":8,
    "guy":8,
    "ya":8,
    "other":8,
    "town":8,
    "york":8,
    "into":8,
    "great":8,
    "actually":8,
    "funny":8,
    "mhoney":8,
    "isnt":8,
    "our":9,
    "yet":9,
    "thanks":9,
    "ever":9,
    "common":9,
    "two":9,
    "big":9,
    "everything":9,
    "uh":9,
    "always":9,
    "honest":9,
    "story":9,
    "days":9,
    "oh":9,
    "wallace":9,
    "wrestler":9,
    "pretty":9,
    "mayhew":9,
    "audrey":9,
    "whats":10,
    "going":10,
    "show":10,
    "writing":10,
    "doesnt":10,
    "life":10,
    "when":10,
    "then":10,
    "never":10,
    "interest":10,
    "way":10,
    "give":10,
    "any":11,
    "more":11,
    "please":11,
    "things":11,
    "hollywood":11,
    "still":11,
    "name":11,
    "room":11,
    "much":11,
    "fine":11,
    "thing":11,
    "gonna":11,
    "where":12,
    "bart":12,
    "come":12,
    "had":12,
    "garland":13,
    "only":13,
    "new":13,
    "talk":13,
    "yes":13,
    "keep":13,
    "there":13,
    "thank":13,
    "beery":13,
    "mundt":13,
    "let":14,
    "been":14,
    "anything":14,
    "believe":14,
    "would":14,
    "wrestling":14,
    "should":14,
    "didnt":14,
    "call":14,
    "write":14,
    "understand":14,
    "em":15,
    "will":15,
    "time":15,
    "down":15,
    "want":15,
    "put":15,
    "off":15,
    "maybe":15,
    "said":16,
    "too":16,
    "take":16,
    "cant":16,
    "go":16,
    "sure":16,
    "id":16,
    "kind":16,
    "who":16,
    "lou":16,
    "why":16,
    "goddamn":16,
    "us":17,
    "mean":17,
    "people":17,
    "feel":17,
    "mind":17,
    "lipnik":17,
    "theres":17,
    "man":18,
    "ive":18,
    "help":18,
    "an":18,
    "picture":19,
    "gotta":19,
    "sorry":19,
    "head":19,
    "make":20,
    "something":20,
    "need":20,
    "really":20,
    "work":21,
    "could":21,
    "back":22,
    "how":22,
    "by":23,
    "now":23,
    "guess":23,
    "pictures":24,
    "good":25,
    "say":25,
    "did":25,
    "little":25,
    "or":25,
    "look":25,
    "mr":25,
    "his":26,
    "some":26,
    "tell":26,
    "bill":26,
    "ill":27,
    "writer":28,
    "jesus":28,
    "think":28,
    "see":29,
    "were":29,
    "from":29,
    "right":29,
    "as":29,
    "one":29,
    "got":29,
    "hes":29,
    "they":32,
    "up":33,
    "charlie":34,
    "get":37,
    "okay":37,
    "here":38,
    "like":38,
    "are":38,
    "was":38,
    "with":39,
    "yeah":39,
    "so":39,
    "at":41,
    "hell":42,
    "thats":43,
    "him":43,
    "youre":43,
    "out":45,
    "can":45,
    "if":48,
    "not":51,
    "do":51,
    "no":51,
    "have":52,
    "we":52,
    "about":56,
    "all":58,
    "fink":59,
    "just":60,
    "on":61,
    "he":61,
    "know":62,
    "my":68,
    "but":68,
    "barton":68,
    "is":73,
    "be":74,
    "its":74,
    "for":75,
    "your":76,
    "well":76,
    "this":80,
    "what":80,
    "dont":94,
    "im":102,
    "me":104,
    "that":124,
    "and":131,
    "in":135,
    "of":145,
    "it":146,
    "\u0096":167,
    "to":198,
    "a":254,
    "the":282,
    "i":347,
    "you":356
}