{
    "suppose":1,
    "gareth":1,
    "mental":1,
    "strain":1,
    "inflicts":1,
    "bradbury":1,
    "mmmm":1,
    "hubert":1,
    "loading":1,
    "data":1,
    "milord":1,
    "awful":1,
    "programs":1,
    "running":1,
    "become":1,
    "useful":1,
    "simpler":1,
    "pack":1,
    "onto":1,
    "trucks":1,
    "seconded":1,
    "france":1,
    "favour":1,
    "elevator":1,
    "steady":1,
    "idiot":1,
    "van":1,
    "hocht":1,
    "circa":1,
    "1670":1,
    "inventory":1,
    "british":1,
    "stored":1,
    "curious":1,
    "yours":1,
    "agreed":1,
    "positive":1,
    "database":1,
    "render":1,
    "hitherto":1,
    "talents":1,
    "obsolete":1,
    "pills":1,
    "hutchinson":1,
    "invited":1,
    "southern":1,
    "visit":1,
    "fairly":1,
    "modest":1,
    "collection":1,
    "include":1,
    "famous":1,
    "rupert":1,
    "honoured":1,
    "grace":1,
    "wisdom":1,
    "infinite":1,
    "invaluable":1,
    "voting":1,
    "slips":1,
    "six":1,
    "months":1,
    "fair":1,
    "south":1,
    "opportunity":1,
    "thousandsof":1,
    "milesaway":1,
    "wonderful":1,
    "ooooh":1,
    "lovely":1,
    "sacked":1,
    "assures":1,
    "top":1,
    "scholars":1,
    "doctorates":1,
    "desk":1,
    "l":1,
    "st":1,
    "class":1,
    "apparently":1,
    "friends":1,
    "delighted":1,
    "instead":1,
    "expensive":1,
    "hotel":1,
    "sensitive":1,
    "vicepresident":1,
    "view":1,
    "unfortunate":1,
    "attendances":1,
    "massive":1,
    "hand":1,
    "breath":1,
    "fresh":1,
    "air":1,
    "fabulous":1,
    "triumphant":1,
    "smoothing":1,
    "whens":1,
    "perfect":1,
    "forward":1,
    "fault":1,
    "load":1,
    "present":1,
    "charlie":1,
    "lifes":1,
    "spose":1,
    "lookswise":1,
    "weekend":1,
    "drive":1,
    "coast":1,
    "motel":1,
    "fairground":1,
    "win":1,
    "coming":1,
    "yeeees":1,
    "wed":1,
    "arent":1,
    "popcorn":1,
    "waffles":1,
    "male":1,
    "mentioned":1,
    "blind":1,
    "dwarf":1,
    "kills":1,
    "lots":1,
    "moderately":1,
    "normal":1,
    "sometime":1,
    "sensational":1,
    "hiya":1,
    "imagining":1,
    "careful":1,
    "granddaughter":1,
    "creep":1,
    "englishmen":1,
    "claim":1,
    "dan":1,
    "daylewis":1,
    "liam":1,
    "neeson":1,
    "irish":1,
    "anthony":1,
    "hopkins":1,
    "prince":1,
    "pay":1,
    "bucks":1,
    "indoors":1,
    "richard":1,
    "burton":1,
    "sean":1,
    "connery":1,
    "scottish":1,
    "tom":1,
    "jones":1,
    "meatloafs":1,
    "backside":1,
    "asking":1,
    "ugliest":1,
    "lived":1,
    "michael":1,
    "boltons":1,
    "grisly":1,
    "vote":1,
    "bart":1,
    "seriously":1,
    "boyfriend":1,
    "upper":1,
    "lip":1,
    "weird":1,
    "moustache":1,
    "cluster":1,
    "11":1,
    "mosquitoes":1,
    "resting":1,
    "children":1,
    "nope":1,
    "presently":1,
    "medication":1,
    "mine":1,
    "talking":1,
    "many":1,
    "jerks":1,
    "spilling":1,
    "guts":1,
    "listener":1,
    "george":1,
    "fix":1,
    "longer":1,
    "partly":1,
    "london":1,
    "confession":1,
    "awake":1,
    "ahead":1,
    "strawberry":1,
    "refrigerator":1,
    "strawberries":1,
    "liar":1,
    "0h":1,
    "face":1,
    "foot":1,
    "calm":1,
    "woke":1,
    "sense":1,
    "wakes":1,
    "strange":1,
    "supposed":1,
    "amusing":1,
    "ties":1,
    "godawful":1,
    "wear":1,
    "charge":1,
    "730":1,
    "clientele":1,
    "grips":1,
    "deep":1,
    "aesthetic":1,
    "john":1,
    "everett":1,
    "1829":1,
    "96":1,
    "called":1,
    "hates":1,
    "being":1,
    "across":1,
    "sea":1,
    "tribune":1,
    "mind":1,
    "feast":1,
    "arthur":1,
    "rackham":1,
    "originals":1,
    "four":1,
    "venus":1,
    "cat":1,
    "aesops":1,
    "fables":1,
    "price":1,
    "ideas":1,
    "crossgallery":1,
    "exciting":1,
    "developing":1,
    "ultimate":1,
    "userfriendly":1,
    "public":1,
    "particular":1,
    "glory":1,
    "screens":1,
    "each":1,
    "individual":1,
    "network":1,
    "dropping":1,
    "enjoy":1,
    "simple":1,
    "peoplebut":1,
    "warm":1,
    "um":1,
    "settled":1,
    "yet":1,
    "plenty":1,
    "tour":1,
    "pleased":1,
    "safe":1,
    "identifies":1,
    "player":1,
    "whole":1,
    "familys":1,
    "excited":1,
    "glad":1,
    "larson":1,
    "breaking":1,
    "tinted":1,
    "takes":1,
    "goodnight":1,
    "gimme":1,
    "easy":1,
    "1234":1,
    "5":1,
    "678":1,
    "910":1,
    "f":1,
    "ssssh":1,
    "gun":1,
    "eddie":1,
    "pick":1,
    "fled":1,
    "scene":1,
    "160":1,
    "k":1,
    "white":1,
    "plastic":1,
    "pairs":1,
    "stinking":1,
    "pantyhose":1,
    "fraid":1,
    "lookin":1,
    "incredible":1,
    "fearless":1,
    "fear":1,
    "brainless":1,
    "chance":1,
    "computers":1,
    "embarrassing":1,
    "3":1,
    "stuck":1,
    "lousy":1,
    "wizard":1,
    "winkle":1,
    "gotta":1,
    "cuckoo":1,
    "howd":1,
    "obvious":1,
    "waaaaay":1,
    "dinner":1,
    "putting":1,
    "meaning":1,
    "sentence":1,
    "seemed":1,
    "mistake":1,
    "honestly":1,
    "change":1,
    "swear":1,
    "packing":1,
    "anywhere":1,
    "wish":1,
    "feelings":1,
    "between":1,
    "aint":1,
    "used":1,
    "space":1,
    "swap":1,
    "kick":1,
    "enter":1,
    "disturbing":1,
    "none":1,
    "reason":1,
    "ergreat":1,
    "almost":1,
    "grand":1,
    "madame":1,
    "fancy":1,
    "meeting":1,
    "flesh":1,
    "exhibition":1,
    "whether":1,
    "healing":1,
    "power":1,
    "securitys":1,
    "tight":1,
    "section":1,
    "nobody":1,
    "past":1,
    "piece":1,
    "tried":1,
    "interfere":1,
    "vouch":1,
    "five":1,
    "place":1,
    "sweetypie":1,
    "coochiecoo":1,
    "15":1,
    "size":1,
    "hunk":1,
    "shift":1,
    "closed":1,
    "lock":1,
    "few":1,
    "proper":1,
    "whatever":1,
    "megasecurity":1,
    "third":1,
    "hoping":1,
    "du":1,
    "project":1,
    "mention":1,
    "saw":1,
    "movies":1,
    "hers":1,
    "left":1,
    "chat":1,
    "subtle":1,
    "joy":1,
    "hinting":1,
    "someones":1,
    "balls":1,
    "crap":1,
    "book":1,
    "means":1,
    "necessarily":1,
    "comes":1,
    "soon":1,
    "wheres":1,
    "mary":1,
    "nazareth":1,
    "bother":1,
    "solved":1,
    "lady":1,
    "interested":1,
    "flying":1,
    "doughnut":1,
    "sisters":1,
    "brothers":1,
    "pray":1,
    "pieces":1,
    "continue":1,
    "rounds":1,
    "giving":1,
    "thorough":1,
    "times":1,
    "mum":1,
    "facelift":1,
    "toll":1,
    "surprisingly":1,
    "terrible":1,
    "painter":1,
    "chooser":1,
    "paints":1,
    "however":1,
    "flattery":1,
    "nowhere":1,
    "quietly":1,
    "hold":1,
    "sustain":1,
    "loses":1,
    "already":1,
    "prospective":1,
    "buyer":1,
    "current":1,
    "flies":1,
    "inspect":1,
    "clinch":1,
    "deal":1,
    "spread":1,
    "decisive":1,
    "trick":1,
    "marvellous":1,
    "drink":1,
    "acceptance":1,
    "cest":1,
    "la":1,
    "vie":1,
    "married":1,
    "figures":1,
    "accountant":1,
    "artist":1,
    "figure":1,
    "cry":1,
    "smoked":1,
    "gitanes":1,
    "spoonful":1,
    "bowels":1,
    "disappointed":1,
    "turned":1,
    "spine":1,
    "medical":1,
    "miracle":1,
    "flippyfloppy":1,
    "seem":1,
    "fight":1,
    "handing":1,
    "reality":1,
    "utterly":1,
    "destroyed":1,
    "position":1,
    "pair":1,
    "yfronts":1,
    "kevins":1,
    "chewing":1,
    "gum":1,
    "6":1,
    "eggs":1,
    "brush":1,
    "bottle":1,
    "clear":1,
    "nail":1,
    "varnish":1,
    "davids":1,
    "tin":1,
    "drier":1,
    "bottom":1,
    "tennis":1,
    "ball":1,
    "volumes":1,
    "encyclopaedia":1,
    "britannica":1,
    "fully":1,
    "tooled":1,
    "snaps":1,
    "suitcase":1,
    "vas":1,
    "danny":1,
    "de":1,
    "vito":1,
    "looked":1,
    "worth":1,
    "cent":1,
    "10":1,
    "ssshhhh":1,
    "watch":1,
    "saturday":1,
    "monday":1,
    "bike":1,
    "handsome":1,
    "driver":1,
    "death":1,
    "traps":1,
    "promise":1,
    "reasonable":1,
    "promised":1,
    "rid":1,
    "till":1,
    "rash":1,
    "stand":1,
    "both":1,
    "hows":1,
    "adopt":1,
    "debt":1,
    "concentrating":1,
    "cell":1,
    "dumb":1,
    "intellectually":1,
    "afternoon":1,
    "pipe":1,
    "video":1,
    "impress":1,
    "ma":1,
    "winning":1,
    "round":1,
    "flowers":1,
    "yourself":1,
    "army":1,
    "torn":1,
    "mans":1,
    "throat":1,
    "bare":1,
    "hands":1,
    "kidding":1,
    "1990s":1,
    "women":1,
    "run":1,
    "country":1,
    "alex":1,
    "longest":1,
    "serving":1,
    "junk":1,
    "veterans":1,
    "remind":1,
    "piles":1,
    "uniforms":1,
    "leary":1,
    "echo":1,
    "patronage":1,
    "excuses":1,
    "smartening":1,
    "pops":1,
    "access":1,
    "tries":1,
    "`access":1,
    "opens":1,
    "jump":1,
    "cannot":1,
    "doorway":1,
    "downstairs":1,
    "lift":1,
    "forgive":1,
    "war":1,
    "regiments":1,
    "striking":1,
    "peg":1,
    "bern":1,
    "jalopy":1,
    "taller":1,
    "age":1,
    "decent":1,
    "beach":1,
    "drop":1,
    "utah":1,
    "omaha":1,
    "drugged":1,
    "killing":1,
    "soldier":1,
    "favourites":1,
    "expresses":1,
    "universal":1,
    "agony":1,
    "established":1,
    "church":1,
    "rarely":1,
    "acknowledges":1,
    "ones":1,
    "crying":1,
    "loud":1,
    "dammed":1,
    "parking":1,
    "trouble":1,
    "sore":1,
    "seen":1,
    "step":1,
    "audience":1,
    "friend":1,
    "glass":1,
    "expert":1,
    "shorty":1,
    "try":1,
    "kiddo":1,
    "classic":1,
    "timing":1,
    "date":1,
    "divorce":1,
    "diary":1,
    "hospital":1,
    "line":1,
    "buns":1,
    "soldiers":1,
    "whove":1,
    "heads":1,
    "blown":1,
    "intelligent":1,
    "failed":1,
    "protect":1,
    "valuable":1,
    "possession":1,
    "theft":1,
    "sooner":1,
    "buy":1,
    "heroin":1,
    "sells":1,
    "drugs":1,
    "outside":1,
    "grandsons":1,
    "shortass":1,
    "stinks":1,
    "obviously":1,
    "dye":1,
    "cop":1,
    "ride":1,
    "jeese":1,
    "jenny":1,
    "helmet":1,
    "worse":1,
    "tail":1,
    "em":1,
    "dyou":1,
    "word":1,
    "fitting":1,
    "jacobson":1,
    "urgently":1,
    "c":1,
    "theatre":1,
    "number":1,
    "urgent":1,
    "disturb":1,
    "buck":1,
    "remembered":1,
    "victims":1,
    "playing":1,
    "recordings":1,
    "dish":1,
    "washers":1,
    "grinders":1,
    "picked":1,
    "thinking":1,
    "evening":1,
    "wound":1,
    "lower":1,
    "thorax":1,
    "ruptured":1,
    "lung":1,
    "severe":1,
    "inner":1,
    "bleeding":1,
    "abdomen":1,
    "t":1,
    "70":1,
    "straight":1,
    "week":1,
    "xrays":1,
    "support":1,
    "systems":1,
    "extend":1,
    "tricky":1,
    "chief":1,
    "saved":1,
    "tag":1,
    "changes":1,
    "beg":1,
    "pardon":1,
    "slightly":1,
    "healthy":1,
    "broken":1,
    "arm":1,
    "waiting":1,
    "explain":1,
    "precious":1,
    "intelligence":1,
    "attention":1,
    "case":1,
    "gods":1,
    "sake":1,
    "goddamn":1,
    "smiling":1,
    "company":1,
    "scientific":1,
    "experiment":1,
    "wake":1,
    "sleeping":1,
    "beauty":1,
    "tortured":1,
    "screams":1,
    "vampire":1,
    "bats":1,
    "disgusting":1,
    "everythings":1,
    "shhh":1,
    "laugh":1,
    "laughed":1,
    "arsehole":1,
    "spectacular":1,
    "proportions":1,
    "olympic":1,
    "standard":1,
    "hijacked":1,
    "trying":1,
    "hall":1,
    "fire":1,
    "ought":1,
    "sonofabitch":1,
    "slow":1,
    "anyone":1,
    "brought":1,
    "sister":1,
    "under":1,
    "laboratory":1,
    "conditions":1,
    "lie":1,
    "tale":1,
    "happy":1,
    "incidents":1,
    "occurred":1,
    "lessons":1,
    "reflection":1,
    "sin":1,
    "impertinent":1,
    "philistine":1,
    "therefore":1,
    "blame":1,
    "having":1,
    "pass":1,
    "felt":1,
    "hasnt":1,
    "flabby":1,
    "lazy":1,
    "appoint":1,
    "plan":1,
    "profitability":1,
    "21st":1,
    "century":1,
    "precisely":1,
    "perceptive":1,
    "interjection":1,
    "vp":1,
    "survive":1,
    "single":1,
    "greatest":1,
    "asset":1,
    "robber":1,
    "clearly":1,
    "best":1,
    "security":1,
    "return":1,
    "posts":1,
    "shimmel":1,
    "until":1,
    "rudely":1,
    "interrupted":1,
    "events":1,
    "fired":1,
    "copy":1,
    "neglectful":1,
    "conduct":1,
    "relating":1,
    "incurred":1,
    "recent":1,
    "lack":1,
    "professional":1,
    "judgement":1,
    "reverse":1,
    "invite":1,
    "reference":1,
    "alternative":1,
    "accommodation":1,
    "suite":1,
    "bathroom":1,
    "fixed":1,
    "davey":1,
    "story":1,
    "visiting":1,
    "chosen":1,
    "splendid":1,
    "corner":1,
    "jokes":1,
    "joke":1,
    "confidential":1,
    "siphoning":1,
    "accounts":1,
    "publicity":1,
    "expenditure":1,
    "catering":1,
    "completely":1,
    "fictional":1,
    "june":1,
    "93":1,
    "horse":1,
    "shit":1,
    "greaseball":1,
    "moron":1,
    "against":1,
    "deny":1,
    "typed":1,
    "himself":1,
    "suspicious":1,
    "fingertips":1,
    "limey":1,
    "exceedingly":1,
    "rude":1,
    "methods":1,
    "officer":1,
    "forgot":1,
    "owe":1,
    "apology":1,
    "wouldnt":1,
    "surprise":1,
    "sincerely":1,
    "hope":1,
    "accommodating":1,
    "mmmmm":1,
    "sensible":1,
    "fridays":1,
    "spend":1,
    "speaking":1,
    "unusual":1,
    "screamed":1,
    "phoned":1,
    "surreal":1,
    "forget":1,
    "anytime":1,
    "distant":1,
    "insane":1,
    "others":1,
    "catalogue":2,
    "paintings":2,
    "entire":2,
    "settle":2,
    "everyone":2,
    "int":2,
    "goes":2,
    "history":2,
    "taking":2,
    "miss":2,
    "send":2,
    "boardroom":2,
    "once":2,
    "american":2,
    "thoughts":2,
    "knowledge":2,
    "happening":2,
    "remember":2,
    "seat":2,
    "moment":2,
    "boy":2,
    "doctorate":2,
    "america":2,
    "couple":2,
    "airport":2,
    "reception":2,
    "moved":2,
    "finally":2,
    "wondering":2,
    "love":2,
    "spare":2,
    "summer":2,
    "financial":2,
    "needs":2,
    "due":2,
    "fantastic":2,
    "wow":2,
    "weve":2,
    "heavy":2,
    "level":2,
    "break":2,
    "born":2,
    "excellent":2,
    "whos":2,
    "asked":2,
    "hotels":2,
    "itd":2,
    "least":2,
    "2":2,
    "someone":2,
    "upstairs":2,
    "homework":2,
    "20":2,
    "ago":2,
    "makes":2,
    "goodlooking":2,
    "noones":2,
    "doesnt":2,
    "person":2,
    "bit":2,
    "millennium":2,
    "action":2,
    "end":2,
    "parents":2,
    "live":2,
    "appreciate":2,
    "problems":2,
    "poor":2,
    "alison":2,
    "important":2,
    "smells":2,
    "open":2,
    "trust":2,
    "sit":2,
    "days":2,
    "usually":2,
    "money":2,
    "neither":2,
    "notice":2,
    "young":2,
    "sometimes":2,
    "worry":2,
    "mistress":2,
    "millais":2,
    "bernard":2,
    "anyway":2,
    "business":2,
    "showing":2,
    "system":2,
    "dave":2,
    "interactive":2,
    "also":2,
    "program":2,
    "eh":2,
    "taken":2,
    "team":2,
    "repeat":2,
    "keys":2,
    "guardino":2,
    "bag":2,
    "goblins":2,
    "key":2,
    "cool":2,
    "roses":2,
    "wine":2,
    "kill":2,
    "guest":2,
    "tv":2,
    "teach":2,
    "hard":2,
    "interesting":2,
    "ga":2,
    "folks":2,
    "came":2,
    "twelve":2,
    "meet":2,
    "big":2,
    "works":2,
    "true":2,
    "gets":2,
    "matter":2,
    "inspection":2,
    "floor":2,
    "guess":2,
    "howls":2,
    "wont":2,
    "emergency":2,
    "measures":2,
    "house":2,
    "sacking":2,
    "seems":2,
    "picture":2,
    "father":2,
    "theyve":2,
    "tiny":2,
    "girl":2,
    "wasnt":2,
    "fact":2,
    "decided":2,
    "leadership":2,
    "lose":2,
    "met":2,
    "went":2,
    "laxative":2,
    "stick":2,
    "police":2,
    "situation":2,
    "paint":2,
    "poster":2,
    "4":2,
    "dream":2,
    "bye":2,
    "en":2,
    "sting":2,
    "badly":2,
    "future":2,
    "wanted":2,
    "babe":2,
    "count":2,
    "later":2,
    "screen":2,
    "thatll":2,
    "hurry":2,
    "arrange":2,
    "introduce":2,
    "medals":2,
    "reunion":2,
    "wearing":2,
    "colleagues":2,
    "hour":2,
    "message":2,
    "denied":2,
    "suit":2,
    "park":2,
    "set":2,
    "everything":2,
    "ladies":2,
    "private":2,
    "maam":2,
    "believe":2,
    "call":2,
    "stolen":2,
    "kid":2,
    "cars":2,
    "ass":2,
    "bring":2,
    "coffee":2,
    "along":2,
    "prepared":2,
    "nothing":2,
    "haul":2,
    "care":2,
    "yesterday":2,
    "point":2,
    "expect":2,
    "match":2,
    "master":2,
    "daaa":2,
    "goodbye":2,
    "hate":3,
    "professor":3,
    "far":3,
    "timothy":3,
    "speak":3,
    "morning":3,
    "national":3,
    "somewhere":3,
    "without":3,
    "brain":3,
    "beans":3,
    "question":3,
    "stop":3,
    "second":3,
    "staff":3,
    "short":3,
    "catch":3,
    "genius":3,
    "walton":3,
    "enough":3,
    "dear":3,
    "saying":3,
    "couldnt":3,
    "thought":3,
    "show":3,
    "loss":3,
    "other":3,
    "might":3,
    "hello":3,
    "charles":3,
    "tough":3,
    "bambi":3,
    "england":3,
    "while":3,
    "real":3,
    "check":3,
    "learn":3,
    "exactly":3,
    "idea":3,
    "minutes":3,
    "ugly":3,
    "turn":3,
    "welsh":3,
    "use":3,
    "busy":3,
    "sitting":3,
    "since":3,
    "much":3,
    "working":3,
    "probably":3,
    "three":3,
    "ali":3,
    "honey":3,
    "next":3,
    "door":3,
    "daughter":3,
    "totally":3,
    "beautiful":3,
    "must":3,
    "schimmel":3,
    "although":3,
    "doing":3,
    "guide":3,
    "large":3,
    "bad":3,
    "hair":3,
    "havent":3,
    "suddenly":3,
    "spineless":3,
    "known":3,
    "mrs":3,
    "whistler":3,
    "want":3,
    "today":3,
    "boss":3,
    "always":3,
    "pleasure":3,
    "gone":3,
    "brilliant":3,
    "feel":3,
    "state":3,
    "done":3,
    "congratulations":3,
    "able":3,
    "told":3,
    "inside":3,
    "uh":3,
    "welcome":3,
    "governors":3,
    "son":3,
    "feet":3,
    "coma":3,
    "realise":3,
    "bullet":3,
    "sack":4,
    "less":4,
    "move":4,
    "else":4,
    "late":4,
    "old":4,
    "afraid":4,
    "absolutely":4,
    "another":4,
    "perhaps":4,
    "mean":4,
    "year":4,
    "over":4,
    "tomorrow":4,
    "minute":4,
    "too":4,
    "kids":4,
    "pretty":4,
    "years":4,
    "shut":4,
    "jen":4,
    "says":4,
    "wrong":4,
    "start":4,
    "dead":4,
    "yeah":4,
    "stupid":4,
    "hell":4,
    "lot":4,
    "making":4,
    "serious":4,
    "kinda":4,
    "first":4,
    "understand":4,
    "getting":4,
    "ready":4,
    "eyes":4,
    "every":4,
    "youd":4,
    "through":4,
    "hey":4,
    "around":4,
    "calling":4,
    "should":4,
    "happened":4,
    "myself":4,
    "because":4,
    "truth":4,
    "sell":4,
    "bravo":4,
    "quite":4,
    "shall":4,
    "0":4,
    "looks":4,
    "curtsy":4,
    "such":4,
    "criminal":4,
    "final":5,
    "than":5,
    "day":5,
    "painting":5,
    "life":5,
    "california":5,
    "most":5,
    "lord":5,
    "whats":5,
    "which":5,
    "english":5,
    "world":5,
    "period":5,
    "school":5,
    "more":5,
    "stuff":5,
    "into":5,
    "find":5,
    "sounds":5,
    "their":5,
    "million":5,
    "ya":5,
    "job":5,
    "make":5,
    "youll":5,
    "better":5,
    "actually":5,
    "vice":5,
    "president":5,
    "hear":5,
    "keep":5,
    "away":5,
    "beanie":5,
    "leave":5,
    "damn":5,
    "mom":5,
    "am":5,
    "elmer":5,
    "god":5,
    "wife":5,
    "wait":5,
    "ten":5,
    "reynolds":5,
    "little":6,
    "those":6,
    "still":6,
    "art":6,
    "then":6,
    "again":6,
    "does":6,
    "may":6,
    "didnt":6,
    "news":6,
    "long":6,
    "night":6,
    "last":6,
    "er":6,
    "jennifer":6,
    "even":6,
    "thanks":6,
    "these":6,
    "help":6,
    "wanna":6,
    "click":6,
    "sort":6,
    "half":6,
    "never":6,
    "huh":6,
    "computer":7,
    "only":7,
    "by":7,
    "gentlemen":7,
    "new":7,
    "though":7,
    "home":7,
    "room":7,
    "problem":7,
    "ask":7,
    "theyre":7,
    "car":7,
    "ever":7,
    "own":7,
    "two":7,
    "bed":7,
    "certainly":7,
    "cant":7,
    "them":7,
    "off":7,
    "give":7,
    "fine":7,
    "she":7,
    "an":8,
    "when":8,
    "maybe":8,
    "looking":8,
    "grierson":8,
    "did":8,
    "hi":8,
    "talk":8,
    "work":8,
    "sure":8,
    "where":8,
    "isnt":8,
    "jesus":8,
    "dollars":8,
    "let":8,
    "dr":8,
    "could":9,
    "down":9,
    "any":9,
    "put":9,
    "things":9,
    "family":9,
    "course":9,
    "had":9,
    "lets":9,
    "why":9,
    "after":9,
    "anything":9,
    "people":9,
    "gonna":9,
    "us":10,
    "has":10,
    "back":10,
    "or":10,
    "stay":10,
    "kind":10,
    "before":10,
    "nice":10,
    "said":10,
    "dad":10,
    "ill":10,
    "something":10,
    "excuse":10,
    "annie":10,
    "shes":10,
    "thing":11,
    "sorry":11,
    "whistlers":11,
    "take":11,
    "guy":11,
    "who":11,
    "thank":12,
    "guys":12,
    "id":12,
    "bernie":12,
    "cut":13,
    "tell":13,
    "theres":13,
    "mother":13,
    "some":13,
    "youve":13,
    "way":13,
    "need":13,
    "kevin":13,
    "they":13,
    "please":14,
    "ahm":14,
    "going":14,
    "doctor":14,
    "ive":14,
    "i11":14,
    "if":15,
    "very":15,
    "see":15,
    "thats":15,
    "there":15,
    "his":15,
    "gallery":16,
    "were":16,
    "hes":16,
    "governor":16,
    "our":17,
    "would":17,
    "come":17,
    "ah":17,
    "really":17,
    "about":17,
    "her":17,
    "man":18,
    "how":18,
    "youre":18,
    "out":18,
    "mr":19,
    "will":19,
    "one":19,
    "time":19,
    "from":19,
    "say":20,
    "been":20,
    "was":20,
    "oh":20,
    "get":20,
    "as":21,
    "got":21,
    "him":22,
    "good":22,
    "now":22,
    "look":23,
    "can":23,
    "go":23,
    "he":24,
    "up":25,
    "at":25,
    "right":25,
    "okay":25,
    "dont":26,
    "are":26,
    "think":27,
    "sir":28,
    "so":28,
    "david":28,
    "great":29,
    "but":30,
    "your":32,
    "know":33,
    "like":33,
    "be":34,
    "what":34,
    "all":35,
    "no":35,
    "well":35,
    "here":35,
    "im":36,
    "yes":36,
    "just":39,
    "on":40,
    "for":40,
    "with":41,
    "my":41,
    "do":42,
    "have":42,
    "this":42,
    "not":43,
    "its":46,
    "bean":46,
    "we":50,
    "me":50,
    "that":53,
    "is":54,
    "in":63,
    "it":65,
    "and":79,
    "of":106,
    "i":148,
    "a":155,
    "to":161,
    "":191,
    "the":194,
    "you":208
}