{
    "young":1,
    "desired":1,
    "selfish":1,
    "unkind":1,
    "taxed":1,
    "fill":1,
    "objects":1,
    "ma\u00eetre":1,
    "parties":1,
    "divine":1,
    "glamour":1,
    "combine":1,
    "maidens":1,
    "anxious":1,
    "shine":1,
    "sign":1,
    "enhances":1,
    "chances":1,
    "display":1,
    "breathtaking":1,
    "thrilling":1,
    "array":1,
    "passion":1,
    "gusto":1,
    "bust":1,
    "unexpected":1,
    "intruder":1,
    "seeking":1,
    "bitter":1,
    "single":1,
    "repulsed":1,
    "haggard":1,
    "turned":1,
    "warned":1,
    "deceived":1,
    "appearances":1,
    "within":1,
    "dismissed":1,
    "womans":1,
    "outward":1,
    "melted":1,
    "reveal":1,
    "apologize":1,
    "punishment":1,
    "transformed":1,
    "hideous":1,
    "placed":1,
    "powerful":1,
    "bled":1,
    "servants":1,
    "erased":1,
    "memory":1,
    "enchanted":1,
    "doomed":1,
    "remain":1,
    "passed":1,
    "despair":1,
    "quiet":1,
    "full":1,
    "waking":1,
    "baker":1,
    "tray":1,
    "rolls":1,
    "sell":1,
    "jean":1,
    "problem":1,
    "verona":1,
    "boring":1,
    "dazed":1,
    "distracted":1,
    "crowd":1,
    "`cause":1,
    "cloud":1,
    "denying":1,
    "six":1,
    "bookworm":1,
    "cities":1,
    "northern":1,
    "italy":1,
    "places":1,
    "reread":1,
    "library":1,
    "corner":1,
    "big":1,
    "faroff":1,
    "nose":1,
    "stuck":1,
    "puzzle":1,
    "heres":1,
    "meets":1,
    "discover":1,
    "chapter":1,
    "parallel":1,
    "wellread":1,
    "athletically":1,
    "inclined":1,
    "argumentative":1,
    "gives":1,
    "sense":1,
    "je":1,
    "ne":1,
    "sais":1,
    "quoi":1,
    "plans":1,
    "cute":1,
    "breathing":1,
    "tall":1,
    "brute":1,
    "gonna":1,
    "happen":1,
    "ladies":1,
    "mais":1,
    "pound":1,
    "`scuse":1,
    "fish":1,
    "stale":1,
    "pity":1,
    "sin":1,
    "evening":1,
    "busy":1,
    "sweetest":1,
    "prey":1,
    "appealing":1,
    "hasnt":1,
    "herself":1,
    "gain":1,
    "favor":1,
    "outrageously":1,
    "attractive":1,
    "sometimes":1,
    "happiness":1,
    "captured":1,
    "smallminded":1,
    "also":1,
    "daring":1,
    "mocked":1,
    "themselves":1,
    "imitating":1,
    "market":1,
    "painting":1,
    "laundry":1,
    "bird":1,
    "flies":1,
    "earth":1,
    "teaching":1,
    "wildest":1,
    "deserves":1,
    "catching":1,
    "damsel":1,
    "distress":1,
    "trouble":1,
    "headmaster":1,
    "liked":1,
    "either":1,
    "advice":1,
    "child":1,
    "concern":1,
    "changed":1,
    "spinsters":1,
    "beg":1,
    "scraps":1,
    "folk":1,
    "farm":1,
    "imagine":1,
    "boorish":1,
    "brainless":1,
    "guarantee":1,
    "adventure":1,
    "wide":1,
    "grand":1,
    "theyve":1,
    "planned":1,
    "recognized":1,
    "hmm":1,
    "path":1,
    "snow":1,
    "hurry":1,
    "else":1,
    "water":1,
    "fresh":1,
    "hay":1,
    "pay":1,
    "respects":1,
    "unwitting":1,
    "host":1,
    "whoever":1,
    "hm":1,
    "intrude":1,
    "shut":1,
    "idiot":1,
    "extraordinary":1,
    "oops":1,
    "wherever":1,
    "mom":1,
    "supposed":1,
    "scary":1,
    "cannot":1,
    "hospitality":1,
    "kindness":1,
    "roses":1,
    "handed":1,
    "promised":1,
    "ice":1,
    "liar":1,
    "stole":1,
    "asked":1,
    "punish":1,
    "apparently":1,
    "flower":1,
    "sentence":1,
    "received":1,
    "eternal":1,
    "damnation":1,
    "merely":1,
    "locking":1,
    "choose":1,
    "alright":1,
    "coldhearted":1,
    "allow":1,
    "spare":1,
    "intrusion":1,
    "escort":1,
    "rarrr":1,
    "gets":1,
    "dramatic":1,
    "`allo":1,
    "ahhh":1,
    "quality":1,
    "household":1,
    "demand":1,
    "cell":1,
    "mantle":1,
    "impressions":1,
    "candle":1,
    "candelabra":1,
    "enormous":1,
    "difference":1,
    "anywhere":1,
    "except":1,
    "storage":1,
    "space":1,
    "sil":1,
    "vous":1,
    "plait":1,
    "modest":1,
    "comfortable":1,
    "finest":1,
    "expecting":1,
    "guests":1,
    "enchant\u00e9":1,
    "spotless":1,
    "risk":1,
    "burned":1,
    "weak":1,
    "um":1,
    "alarmed":1,
    "wardrobe":1,
    "garderobe":1,
    "singer":1,
    "diva":1,
    "rrr":1,
    "proud":1,
    "face":1,
    "canvas":1,
    "worthy":1,
    "nonsense":1,
    "drawers":1,
    "embarrassing":1,
    "perfetta":1,
    "subtle":1,
    "understated":1,
    "send":1,
    "rustic":1,
    "cabin":1,
    "latest":1,
    "roasting":1,
    "adorable":1,
    "rubs":1,
    "tired":1,
    "girls":1,
    "hunter":1,
    "rabbits":1,
    "gosh":1,
    "disturbs":1,
    "looking":1,
    "dumps":1,
    "hered":1,
    "taking":1,
    "lumps":1,
    "admired":1,
    "awed":1,
    "inspired":1,
    "slick":1,
    "quick":1,
    "necks":1,
    "incredibly":1,
    "thick":1,
    "half":1,
    "manly":1,
    "pure":1,
    "paragon":1,
    "tom":1,
    "dick":1,
    "stanley":1,
    "whose":1,
    "team":1,
    "prefer":1,
    "plays":1,
    "darts":1,
    "breaks":1,
    "sum":1,
    "parts":1,
    "specimen":1,
    "intimidating":1,
    "encouragement":1,
    "bolster":1,
    "yep":1,
    "fights":1,
    "douses":1,
    "lights":1,
    "wrestling":1,
    "bites":1,
    "hunt":1,
    "sneak":1,
    "quiver":1,
    "field":1,
    "carefully":1,
    "liver":1,
    "shoot":1,
    "behind":1,
    "hits":1,
    "matches":1,
    "wits":1,
    "spitting":1,
    "spits":1,
    "especially":1,
    "expectorating":1,
    "ten":1,
    "evry":1,
    "large":1,
    "grown":1,
    "roughly":1,
    "size":1,
    "barge":1,
    "brains":1,
    "entertains":1,
    "endless":1,
    "refrains":1,
    "antlers":1,
    "decorating":1,
    "among":1,
    "super":1,
    "success":1,
    "guess":1,
    "fans":1,
    "hangerson":1,
    "names":1,
    "`gast":1,
    "`t":1,
    "occurred":1,
    "illiterate":1,
    "snatched":1,
    "clingy":1,
    "locked":1,
    "dungeon":1,
    "horrible":1,
    "laugh":1,
    "fun":1,
    "captain":1,
    "ohhh":1,
    "soon":1,
    "handle":1,
    "appreciate":1,
    "assure":1,
    "hopeless":1,
    "preparing":1,
    "designing":1,
    "gown":1,
    "giving":1,
    "using":1,
    "ridiculous":1,
    "passing":1,
    "common":1,
    "person":1,
    "judge":1,
    "gently":1,
    "freedom":1,
    "probably":1,
    "death":1,
    "dashing":1,
    "debonair":1,
    "dieu":1,
    "taken":1,
    "insane":1,
    "losing":1,
    "idiots":1,
    "forbid":1,
    "shame":1,
    "returned":1,
    "grew":1,
    "feathers":1,
    "plucked":1,
    "yesterday":1,
    "metallic":1,
    "happening":1,
    "cuckoo":1,
    "yourselves":1,
    "vision":1,
    "acquaintance":1,
    "journey":1,
    "troubles":1,
    "seem":1,
    "troubling":1,
    "bracing":1,
    "cup":1,
    "slowly":1,
    "pleased":1,
    "worried":1,
    "cheer":1,
    "end":1,
    "anger":1,
    "choice":1,
    "whether":1,
    "final":1,
    "checks":1,
    "tout":1,
    "violated":1,
    "orders":1,
    "fed":1,
    "blame":1,
    "telling":1,
    "stays":1,
    "missed":1,
    "sparkle":1,
    "buds":1,
    "exquisite":1,
    "work":1,
    "pepper":1,
    "cracking":1,
    "salt":1,
    "leg":1,
    "cadenza":1,
    "performed":1,
    "cavity":1,
    "upstairs":1,
    "dental":1,
    "sotto":1,
    "voce":1,
    "tasteless":1,
    "demands":1,
    "artistry":1,
    "ma":1,
    "chere":1,
    "deepest":1,
    "pride":1,
    "greatest":1,
    "pleasure":1,
    "invite":1,
    "relax":1,
    "pull":1,
    "chair":1,
    "proudly":1,
    "presents":1,
    "test":1,
    "tie":1,
    "napkin":1,
    "`round":1,
    "neck":1,
    "cherie":1,
    "provide":1,
    "soup":1,
    "du":1,
    "jour":1,
    "hors":1,
    "doeuvres":1,
    "grey":1,
    "stuff":1,
    "delicious":1,
    "dishes":1,
    "second":1,
    "unfold":1,
    "menu":1,
    "beef":1,
    "ragout":1,
    "cheese":1,
    "souffle":1,
    "pie":1,
    "en":1,
    "flamb\u00e9":1,
    "prepare":1,
    "flair":1,
    "culinary":1,
    "cabaret":1,
    "banquets":1,
    "gloomy":1,
    "complaining":1,
    "flatwares":1,
    "entertaining":1,
    "tricks":1,
    "candlesticks":1,
    "won":1,
    "pass":1,
    "stressed":1,
    "suggest":1,
    "unnerving":1,
    "servant":1,
    "serving":1,
    "whole":1,
    "useful":1,
    "suddenly":1,
    "rusting":1,
    "dusting":1,
    "exercise":1,
    "chance":1,
    "skills":1,
    "lay":1,
    "flabby":1,
    "lazy":1,
    "walked":1,
    "oopsadaisie":1,
    "sakes":1,
    "blessed":1,
    "wines":1,
    "poured":1,
    "napkins":1,
    "freshly":1,
    "pressed":1,
    "dessert":1,
    "cups":1,
    "soft":1,
    "shoeing":1,
    "bubbling":1,
    "brewing":1,
    "clean":1,
    "impressed":1,
    "lump":1,
    "command":1,
    "obsessed":1,
    "meal":1,
    "ease":1,
    "candlelights":1,
    "glowing":1,
    "til":1,
    "shout":1,
    "digest":1,
    "prop":1,
    "surely":1,
    "trapped":1,
    "masters":1,
    "appears":1,
    "mentioned":1,
    "nightynight":1,
    "realize":1,
    "damned":1,
    "checkmate":1,
    "cheated":1,
    "playtime":1,
    "`stop":1,
    "downed":1,
    "lightning":1,
    "restored":1,
    "upright":1,
    "position":1,
    "sort":1,
    "definitely":1,
    "playing":1,
    "game":1,
    "teacups":1,
    "frostbite":1,
    "starvation":1,
    "villeneuve":1,
    "cooking":1,
    "offer":1,
    "feed":1,
    "breathe":1,
    "thoughts":1,
    "blood":1,
    "explosions":1,
    "countless":1,
    "bean":1,
    "blessing":1,
    "finished":1,
    "exhausting":1,
    "options":1,
    "gruesome":1,
    "alternative":1,
    "rooooaarrrr":1,
    "hurts":1,
    "held":1,
    "none":1,
    "frightened":1,
    "shouldnt":1,
    "control":1,
    "temper":1,
    "eternally":1,
    "grateful":1,
    "cursed":1,
    "cruel":1,
    "twisted":1,
    "begun":1,
    "tremble":1,
    "refrain":1,
    "relive":1,
    "undo":1,
    "midst":1,
    "sorrow":1,
    "endure":1,
    "wiser":1,
    "precious":1,
    "secure":1,
    "closer":1,
    "shining":1,
    "falls":1,
    "remains":1,
    "antiques":1,
    "knickknacks":1,
    "lightly":1,
    "houseware":1,
    "lamb":1,
    "lie":1,
    "drink":1,
    "transpose":1,
    "form":1,
    "winged":1,
    "cupid":1,
    "painted":1,
    "blind":1,
    "shakespeare":1,
    "education":1,
    "romeo":1,
    "juliet":1,
    "heartache":1,
    "pining":1,
    "many":1,
    "greek":1,
    "joke":1,
    "air":1,
    "keen":1,
    "frozen":1,
    "sheath":1,
    "enrolled":1,
    "branch":1,
    "twig":1,
    "blade":1,
    "grass":1,
    "clad":1,
    "miraculously":1,
    "seeing":1,
    "solemn":1,
    "whisper":1,
    "sleeping":1,
    "wake":1,
    "coarse":1,
    "unrefined":1,
    "glanced":1,
    "touched":1,
    "shudder":1,
    "paw":1,
    "ignore":1,
    "alarming":1,
    "simply":1,
    "bless":1,
    "known":1,
    "guessed":1,
    "theyd":1,
    "few":1,
    "okay":1,
    "reading":1,
    "guinevere":1,
    "lancelot":1,
    "king":1,
    "arthur":1,
    "round":1,
    "knights":1,
    "swords":1,
    "romance":1,
    "felt":1,
    "saving":1,
    "leaving":1,
    "eaten":1,
    "enter":1,
    "laughter":1,
    "dies":1,
    "compliment":1,
    "allows":1,
    "cruelest":1,
    "outside":1,
    "eye":1,
    "notre":1,
    "dame":1,
    "champs":1,
    "elys\u00e9es":1,
    "touristy":1,
    "smaller":1,
    "imagined":1,
    "borders":1,
    "crumbling":1,
    "attic":1,
    "artist":1,
    "answer":1,
    "abandoned":1,
    "knowing":1,
    "himself":1,
    "plague":1,
    "quickly":1,
    "takes":1,
    "wow":1,
    "tied":1,
    "middle":1,
    "nowhere":1,
    "stranded":1,
    "spent":1,
    "rave":1,
    "delusions":1,
    "accuse":1,
    "attempted":1,
    "murder":1,
    "rescued":1,
    "accusation":1,
    "testimony":1,
    "filthy":1,
    "hag":1,
    "offense":1,
    "dearest":1,
    "companion":1,
    "oldest":1,
    "compatriot":1,
    "complicated":1,
    "number":1,
    "accounts":1,
    "pains":1,
    "others":1,
    "heal":1,
    "troubled":1,
    "everythings":1,
    "ballroom":1,
    "petals":1,
    "discouraged":1,
    "romantic":1,
    "candlelight":1,
    "moments":1,
    "slightly":1,
    "nauseous":1,
    "being":1,
    "coward":1,
    "drinking":1,
    "covered":1,
    "dust":1,
    "makeover":1,
    "women":1,
    "fingers":1,
    "teeth":1,
    "closed":1,
    "pi\u00e8ce":1,
    "r\u00e9sistance":1,
    "ok":1,
    "ahh":1,
    "finishing":1,
    "touch":1,
    "friends":1,
    "bends":1,
    "unexpectedly":1,
    "both":1,
    "rise":1,
    "danced":1,
    "foolish":1,
    "affection":1,
    "taught":1,
    "doubts":1,
    "clockwork":1,
    "win":1,
    "loves":1,
    "fate":1,
    "truth":1,
    "steal":1,
    "melancholy":1,
    "bear":1,
    "runs":1,
    "rage":1,
    "against":1,
    "trials":1,
    "fading":1,
    "flown":1,
    "beyond":1,
    "reach":1,
    "sight":1,
    "fades":1,
    "view":1,
    "nights":1,
    "begin":1,
    "mad":1,
    "house":1,
    "unbelievable":1,
    "claims":1,
    "raving":1,
    "admire":1,
    "devotion":1,
    "sorcery":1,
    "cared":1,
    "effects":1,
    "existence":1,
    "due":1,
    "respect":1,
    "fetch":1,
    "stalking":1,
    "sacrifice":1,
    "appetite":1,
    "wreak":1,
    "havoc":1,
    "wander":1,
    "action":1,
    "mist":1,
    "darkness":1,
    "shadows":1,
    "nightmare":1,
    "exciting":1,
    "ride":1,
    "drawbridge":1,
    "razor":1,
    "massive":1,
    "paws":1,
    "killer":1,
    "roar":1,
    "foam":1,
    "torch":1,
    "mount":1,
    "screw":1,
    "courage":1,
    "sticking":1,
    "wild":1,
    "fear":1,
    "monsters":1,
    "released":1,
    "sally":1,
    "forth":1,
    "tally":1,
    "ho":1,
    "sword":1,
    "bow":1,
    "praise":1,
    "sacrebleu":1,
    "invaders":1,
    "ruffians":1,
    "barricades":1,
    "fast":1,
    "ablaze":1,
    "banners":1,
    "high":1,
    "marching":1,
    "battle":1,
    "unafraid":1,
    "increased":1,
    "aside":1,
    "raise":1,
    "flag":1,
    "frenchmen":1,
    "maman":1,
    "gears":1,
    "springs":1,
    "disturb":1,
    "matter":1,
    "working":1,
    "concerned":1,
    "haunted":1,
    "nerve":1,
    "familiar":1,
    "teacup":1,
    "headstrong":1,
    "excellent":1,
    "infantrys":1,
    "lesson":1,
    "third":1,
    "rate":1,
    "musketeers":1,
    "terribly":1,
    "boiling":1,
    "mister":1,
    "nicely":1,
    "handled":1,
    "gastons":1,
    "side":1,
    "anyway":1,
    "concerto":1,
    "harpsichord":1,
    "lady":1,
    "singing":1,
    "bravissima":1,
    "trip":1,
    "honestly":1,
    "wall":1,
    "victory":1,
    "ours":1,
    "chime":1,
    "speak":1,
    "mine":1,
    "beat":1,
    "amour":1,
    "mr":1,
    "beatrice":1,
    "henry":1,
    "spring":1,
    "famine":1,
    "nature":1,
    "growing":1,
    "beard":1,
    "hidden":2,
    "france":2,
    "handsome":2,
    "although":2,
    "special":2,
    "fit":2,
    "arrived":2,
    "shelter":2,
    "gift":2,
    "offered":2,
    "appearance":2,
    "forgotten":2,
    "minds":2,
    "earn":2,
    "broken":2,
    "bread":2,
    "pere":2,
    "robert":2,
    "lovers":2,
    "fair":2,
    "sounds":2,
    "heads":2,
    "expensive":2,
    "week":2,
    "bon":2,
    "voyage":2,
    "feeling":2,
    "dreamy":2,
    "amazing":2,
    "`til":2,
    "name":2,
    "needs":2,
    "missing":2,
    "moment":2,
    "gorgeous":2,
    "woo":2,
    "hardly":2,
    "smell":2,
    "peculiar":2,
    "quite":2,
    "wonderful":2,
    "table":2,
    "moving":2,
    "hard":2,
    "dignity":2,
    "story":2,
    "die":2,
    "somehow":2,
    "lives":2,
    "hand":2,
    "odd":2,
    "idea":2,
    "knew":2,
    "ahead":2,
    "fearless":2,
    "year":2,
    "tomorrow":2,
    "blue":2,
    "over":2,
    "wood":2,
    "yet":2,
    "neither":2,
    "villagers":2,
    "though":2,
    "trust":2,
    "trying":2,
    "teach":2,
    "yourself":2,
    "havent":2,
    "simple":2,
    "sir":2,
    "someone":2,
    "arent":2,
    "whoa":2,
    "opens":2,
    "june":2,
    "saved":2,
    "mm":2,
    "warm":2,
    "fire":2,
    "empty":2,
    "hands":2,
    "finds":2,
    "pick":2,
    "alone":2,
    "kiss":2,
    "goodbye":2,
    "listen":2,
    "live":2,
    "forget":2,
    "lumiere":2,
    "head":2,
    "startled":2,
    "consider":2,
    "service":2,
    "which":2,
    "uh":2,
    "step":2,
    "welcome":2,
    "plan":2,
    "brush":2,
    "meet":2,
    "awake":2,
    "dress":2,
    "finally":2,
    "princess":2,
    "picture":2,
    "feet":2,
    "waste":2,
    "everyones":2,
    "needed":2,
    "match":2,
    "nobody":2,
    "prayer":2,
    "aim":2,
    "points":2,
    "lad":2,
    "ate":2,
    "dozen":2,
    "use":2,
    "men":2,
    "next":2,
    "loud":2,
    "somebody":2,
    "monstrous":2,
    "daughters":2,
    "already":2,
    "crazy":2,
    "real":2,
    "lead":2,
    "nice":2,
    "mrs":2,
    "company":2,
    "suite":2,
    "gave":2,
    "bedroom":2,
    "charm":2,
    "thinking":2,
    "prisoner":2,
    "request":2,
    "gentle":2,
    "smile":2,
    "starve":2,
    "tock":2,
    "fix":2,
    "o":2,
    "trick":2,
    "brave":2,
    "poppet":2,
    "fall":2,
    "chapeau":2,
    "spot":2,
    "ami":2,
    "straight":2,
    "shake":2,
    "without":2,
    "counting":2,
    "quietly":2,
    "dining":2,
    "pudding":2,
    "prepared":2,
    "jokes":2,
    "fellow":2,
    "bet":2,
    "lift":2,
    "glass":2,
    "gone":2,
    "needing":2,
    "fat":2,
    "lord":2,
    "piping":2,
    "heavens":2,
    "sake":2,
    "anybody":2,
    "indeed":2,
    "sleep":2,
    "tree":2,
    "breaths":2,
    "widows":2,
    "fatherinlaw":2,
    "hadnt":2,
    "looked":2,
    "innocent":2,
    "unsure":2,
    "past":2,
    "couldnt":2,
    "rubbish":2,
    "therefore":2,
    "surprise":2,
    "suppose":2,
    "cold":2,
    "seems":2,
    "silence":2,
    "together":2,
    "perhaps":2,
    "older":2,
    "thanked":2,
    "dusty":2,
    "called":2,
    "saying":2,
    "hang":2,
    "loyal":2,
    "ran":2,
    "shed":2,
    "dip":2,
    "snip":2,
    "tune":2,
    "bittersweet":2,
    "learning":2,
    "rising":2,
    "learned":2,
    "torment":2,
    "wasting":2,
    "tower":2,
    "evermore":2,
    "far":2,
    "fangs":2,
    "claws":2,
    "monster":2,
    "threat":2,
    "lock":2,
    "horse":2,
    "hell":2,
    "boys":2,
    "follow":2,
    "sharp":2,
    "feast":2,
    "grab":2,
    "fifty":2,
    "attack":2,
    "grandmother":2,
    "ha":2,
    "honor":2,
    "turns":2,
    "upon":3,
    "lived":3,
    "oui":3,
    "night":3,
    "storm":3,
    "woman":3,
    "found":3,
    "enchantress":3,
    "loved":3,
    "truly":3,
    "learn":3,
    "petal":3,
    "poor":3,
    "monsieur":3,
    "question":3,
    "family":3,
    "eggs":3,
    "new":3,
    "favorite":3,
    "charming":3,
    "three":3,
    "looks":3,
    "different":3,
    "future":3,
    "best":3,
    "exactly":3,
    "war":3,
    "such":3,
    "watch":3,
    "books":3,
    "join":3,
    "hold":3,
    "easy":3,
    "inside":3,
    "hearts":3,
    "until":3,
    "word":3,
    "hero":3,
    "theyre":3,
    "wanted":3,
    "ready":3,
    "happens":3,
    "fathers":3,
    "somewhere":3,
    "woods":3,
    "lovely":3,
    "walk":3,
    "closes":3,
    "bit":3,
    "theyll":3,
    "anyone":3,
    "mean":3,
    "taste":3,
    "myself":3,
    "ow":3,
    "alive":3,
    "thief":3,
    "lose":3,
    "escape":3,
    "promise":3,
    "sent":3,
    "dangerous":3,
    "anything":3,
    "hair":3,
    "de":3,
    "pretty":3,
    "running":3,
    "beasts":3,
    "four":3,
    "slow":3,
    "danger":3,
    "winter":3,
    "everyone":3,
    "calm":3,
    "start":3,
    "less":3,
    "human":3,
    "scared":3,
    "eh":3,
    "getting":3,
    "tick":3,
    "pardon":3,
    "times":3,
    "keep":3,
    "barely":3,
    "finding":3,
    "harder":3,
    "pain":3,
    "hot":3,
    "serve":3,
    "dance":3,
    "soul":3,
    "wait":3,
    "terrible":3,
    "deep":3,
    "mind":3,
    "bed":3,
    "hear":3,
    "close":3,
    "wouldnt":3,
    "under":3,
    "childhood":3,
    "used":3,
    "creature":3,
    "left":3,
    "toes":3,
    "rhyme":3,
    "warn":3,
    "dead":3,
    "protect":3,
    "poof":4,
    "magic":4,
    "tried":4,
    "years":4,
    "fell":4,
    "goes":4,
    "same":4,
    "since":4,
    "came":4,
    "provincial":4,
    "book":4,
    "strange":4,
    "run":4,
    "youd":4,
    "makes":4,
    "met":4,
    "shall":4,
    "made":4,
    "call":4,
    "forever":4,
    "stand":4,
    "mother":4,
    "certain":4,
    "heard":4,
    "each":4,
    "other":4,
    "happy":4,
    "great":4,
    "wish":4,
    "forgive":4,
    "wasnt":4,
    "move":4,
    "happened":4,
    "break":4,
    "around":4,
    "light":4,
    "minute":4,
    "took":4,
    "put":4,
    "west":4,
    "whats":4,
    "east":4,
    "worry":4,
    "yours":4,
    "froufrou":4,
    "guy":4,
    "five":4,
    "these":4,
    "told":4,
    "potts":4,
    "become":4,
    "sweet":4,
    "mon":4,
    "darling":4,
    "curse":4,
    "weve":4,
    "waiting":4,
    "whod":4,
    "lonely":4,
    "proof":4,
    "wrong":4,
    "everything":5,
    "music":5,
    "dog":5,
    "world":5,
    "late":5,
    "seen":5,
    "return":5,
    "hope":5,
    "believe":5,
    "remember":5,
    "two":5,
    "part":5,
    "almost":5,
    "small":5,
    "wonder":5,
    "wont":5,
    "saw":5,
    "said":5,
    "strong":5,
    "read":5,
    "play":5,
    "fool":5,
    "actually":5,
    "daughter":5,
    "talk":5,
    "safe":5,
    "paris":5,
    "doing":5,
    "bad":5,
    "give":5,
    "maybe":5,
    "agathe":5,
    "madame":5,
    "understand":5,
    "boy":5,
    "set":5,
    "friend":5,
    "talking":5,
    "find":5,
    "miss":5,
    "plumette":5,
    "ah":5,
    "perfect":5,
    "tea":5,
    "show":5,
    "things":5,
    "lot":5,
    "fine":5,
    "shell":6,
    "sing":6,
    "care":6,
    "their":6,
    "always":6,
    "morning":6,
    "sure":6,
    "funny":6,
    "didnt":6,
    "afraid":6,
    "making":6,
    "dark":6,
    "tonight":6,
    "does":6,
    "thing":6,
    "ask":6,
    "philippe":6,
    "stay":6,
    "enough":6,
    "least":6,
    "children":6,
    "done":6,
    "kind":6,
    "should":6,
    "own":6,
    "after":6,
    "while":6,
    "hello":6,
    "cogsworth":6,
    "open":6,
    "hurt":6,
    "clock":6,
    "first":6,
    "lets":6,
    "eat":6,
    "true":6,
    "id":6,
    "long":6,
    "turn":6,
    "through":6,
    "wolves":6,
    "tale":6,
    "song":6,
    "heart":7,
    "spell":7,
    "bonjour":7,
    "wife":7,
    "isnt":7,
    "may":7,
    "means":7,
    "nothing":7,
    "youve":7,
    "marry":7,
    "make":7,
    "mademoiselle":7,
    "try":7,
    "bring":7,
    "change":7,
    "better":7,
    "eyes":7,
    "door":7,
    "room":7,
    "lumi\u00e8re":7,
    "wing":7,
    "mama":7,
    "maestro":7,
    "down":7,
    "once":8,
    "people":8,
    "them":8,
    "last":8,
    "lost":8,
    "town":8,
    "any":8,
    "ones":8,
    "because":8,
    "going":8,
    "papa":8,
    "even":8,
    "man":8,
    "might":8,
    "thought":8,
    "sun":8,
    "village":9,
    "beauty":9,
    "some":9,
    "need":9,
    "youll":9,
    "lefou":9,
    "those":9,
    "really":9,
    "place":9,
    "most":10,
    "an":10,
    "rose":10,
    "into":10,
    "another":10,
    "off":10,
    "than":10,
    "rest":10,
    "doesnt":10,
    "sorry":10,
    "course":10,
    "or":10,
    "dear":10,
    "coming":10,
    "prince":11,
    "feel":11,
    "whos":11,
    "please":11,
    "think":11,
    "am":11,
    "take":11,
    "home":11,
    "free":11,
    "out":11,
    "every":12,
    "has":12,
    "day":12,
    "away":12,
    "about":12,
    "only":12,
    "got":12,
    "leave":12,
    "stop":12,
    "let":13,
    "from":13,
    "little":13,
    "where":13,
    "tell":13,
    "very":13,
    "still":13,
    "way":13,
    "why":13,
    "kill":13,
    "maurice":13,
    "chip":14,
    "days":14,
    "they":14,
    "could":14,
    "would":14,
    "something":14,
    "thank":14,
    "theres":14,
    "dinner":14,
    "beautiful":15,
    "by":15,
    "again":15,
    "cant":15,
    "right":15,
    "get":15,
    "much":15,
    "father":15,
    "help":15,
    "had":16,
    "master":16,
    "before":16,
    "more":16,
    "life":16,
    "been":16,
    "hes":16,
    "look":17,
    "then":17,
    "ever":17,
    "youre":17,
    "too":18,
    "shes":18,
    "castle":19,
    "say":19,
    "must":19,
    "want":19,
    "here":19,
    "ill":19,
    "who":20,
    "were":20,
    "up":20,
    "girl":20,
    "thats":20,
    "did":20,
    "ive":20,
    "guest":20,
    "when":21,
    "old":21,
    "good":21,
    "how":22,
    "us":22,
    "back":22,
    "was":23,
    "come":24,
    "yes":25,
    "on":26,
    "if":26,
    "know":26,
    "see":27,
    "at":27,
    "well":30,
    "his":31,
    "never":31,
    "time":32,
    "love":32,
    "just":32,
    "now":33,
    "dont":34,
    "our":36,
    "can":36,
    "he":37,
    "beast":37,
    "all":37,
    "will":37,
    "":38,
    "go":38,
    "do":38,
    "him":39,
    "gaston":39,
    "with":40,
    "oh":41,
    "like":41,
    "belle":41,
    "are":41,
    "im":42,
    "so":44,
    "one":44,
    "she":44,
    "there":48,
    "for":50,
    "not":50,
    "have":51,
    "what":53,
    "her":53,
    "this":54,
    "we":57,
    "as":64,
    "but":64,
    "your":65,
    "no":66,
    "its":70,
    "my":71,
    "be":72,
    "that":78,
    "it":81,
    "in":84,
    "of":88,
    "me":92,
    "is":99,
    "and":131,
    "a":172,
    "to":196,
    "i":204,
    "the":254,
    "you":271
}