{
    "31w":1,
    "lat":1,
    "46":1,
    "7n":1,
    "x":1,
    "lend":1,
    "assistance":1,
    "xx":1,
    "day":1,
    "americans":1,
    "talians":1,
    "assume":1,
    "appear":1,
    "suggestion":1,
    "does":1,
    "silver":1,
    "star":1,
    "yet":1,
    "plot":1,
    "gunners":1,
    "mates":1,
    "weapons":1,
    "sail":1,
    "white":1,
    "red":1,
    "teach":1,
    "ocs":1,
    "fraid":1,
    "recite":1,
    "submariners":1,
    "motto":1,
    "latin":1,
    "beam":1,
    "11":1,
    "miles":1,
    "pourin":1,
    "coal":1,
    "breathing":1,
    "stand":1,
    "passengers":1,
    "lay":1,
    "aside":1,
    "leg":1,
    "ladsalready":1,
    "pieces":1,
    "survivorsbritsones":1,
    "pass":1,
    "bags":1,
    "aw":1,
    "baby":1,
    "wash":1,
    "buttsquirt":1,
    "piece":1,
    "rotten":1,
    "plug":1,
    "bridge":1,
    "pressure":1,
    "dress":1,
    "theyd":1,
    "cleaned":1,
    "sulphating":1,
    "agents":1,
    "morphinepenicillinetherthis":1,
    "pharmacist":1,
    "mate":1,
    "missed":1,
    "supply":1,
    "gave":1,
    "cuz":1,
    "keys":1,
    "twostacker":1,
    "9000":1,
    "isrear":1,
    "throwers":1,
    "twin":1,
    "sixinch":1,
    "grapple\u00adhooksgood":1,
    "attacked":1,
    "brains":1,
    "foggy":1,
    "reasonably":1,
    "fill":1,
    "details":1,
    "whale":1,
    "thati":1,
    "small":1,
    "withconfined":1,
    "throughwatch":1,
    "toesmake":1,
    "cut":1,
    "clothes":1,
    "dressings":1,
    "shower":1,
    "30":1,
    "seconds":1,
    "others":1,
    "rescued":1,
    "currents":1,
    "consider":1,
    "plusorminus":1,
    "degree":1,
    "15":1,
    "knots":1,
    "96":1,
    "crossed":1,
    "moons":1,
    "reflection":1,
    "explosion":1,
    "type":1,
    "7":1,
    "older":1,
    "newer":1,
    "netcutter":1,
    "helpful":1,
    "lookout":1,
    "mister":1,
    "sublieutenant":1,
    "merchant":1,
    "marine":1,
    "hello":1,
    "grabbing":1,
    "gasper":1,
    "smoke":1,
    "300":1,
    "africa":1,
    "70":1,
    "enemy":1,
    "sub":1,
    "normal":1,
    "conditions":1,
    "drop":1,
    "300mile":1,
    "detour":1,
    "extended":1,
    "each":1,
    "message":1,
    "fraternize":1,
    "women":1,
    "superstitious":1,
    "boots":1,
    "boggy":1,
    "shallows":1,
    "sweat":1,
    "grime":1,
    "clung":1,
    "adonis":1,
    "brow":1,
    "suddenly":1,
    "backwards":1,
    "chest":1,
    "huge":1,
    "wally":1,
    "instantly":1,
    "widened":1,
    "terrible":1,
    "hungry":1,
    "menace":1,
    "uttered":1,
    "deepthroated":1,
    "stank":1,
    "gloriously":1,
    "rotted":1,
    "carp":1,
    "matted":1,
    "gorilla":1,
    "skins":1,
    "bilgewater":1,
    "slouched":1,
    "toward":1,
    "himnot":1,
    "whazzis":1,
    "shewitch":1,
    "lake":1,
    "another":1,
    "farewell":1,
    "arms":1,
    "incredibly":1,
    "tales":1,
    "chickenfried":1,
    "asswipe":1,
    "alla":1,
    "maneuvering":1,
    "maneuver":1,
    "bullslingers":1,
    "cloggin":1,
    "subs":1,
    "females":1,
    "bothers":1,
    "slowsinking":1,
    "slow":1,
    "fires":1,
    "textbook":1,
    "tactics":1,
    "shakedown":1,
    "coast":1,
    "florida":1,
    "boats":1,
    "seem":1,
    "littleoff":1,
    "somehow":1,
    "cups":1,
    "blonde":1,
    "shake":1,
    "downbubble":1,
    "thermograph":1,
    "fivedegree":1,
    "gradient":1,
    "210":1,
    "colder":1,
    "waterdeflects":1,
    "wavesjust":1,
    "start":1,
    "youin":1,
    "splashes":1,
    "stick":1,
    "dud":1,
    "playing":1,
    "music":1,
    "killed":1,
    "reports":1,
    "zat":1,
    "pint":1,
    "tourniquet":1,
    "faint":1,
    "completely":1,
    "shes":1,
    "certified":1,
    "medtech":1,
    "attack":1,
    "quicker":1,
    "suggesting":1,
    "responsible":1,
    "hot":1,
    "mark14":1,
    "detonate":1,
    "magnetically":1,
    "steel":1,
    "500":1,
    "damn":1,
    "outer":1,
    "doors":1,
    "barrel":1,
    "underway":1,
    "hard":1,
    "phonograph":1,
    "securedand":1,
    "intercom":1,
    "onand":1,
    "haywire":1,
    "someones":1,
    "claims":1,
    "mayve":1,
    "slipped":1,
    "spending":1,
    "backs":1,
    "twice":1,
    "birddoggin":1,
    "boatmatters":1,
    "maintenance":1,
    "bulletin":1,
    "mark14s":1,
    "selfstarting":1,
    "history":1,
    "twitchy":1,
    "behavior":1,
    "record":1,
    "player":1,
    "lynching":1,
    "deep":1,
    "set":1,
    "toss":1,
    "halfdead":1,
    "hallo":1,
    "mein":1,
    "kapit\u00e4n":1,
    "speak":1,
    "noseswhole":1,
    "bernard":1,
    "downed":1,
    "aviator":1,
    "patient":1,
    "prisoner":1,
    "entitled":1,
    "protection":1,
    "geneva":1,
    "conv":1,
    "cause":1,
    "thingshe":1,
    "family":1,
    "childrenhe":1,
    "sort":1,
    "whose":1,
    "worried":1,
    "thatthat":1,
    "cost":1,
    "life":1,
    "confined":1,
    "duration":1,
    "asks":1,
    "toilet":1,
    "bucket":1,
    "body":1,
    "fuckin":1,
    "a1":1,
    "yours":1,
    "berth":1,
    "sleeping":1,
    "onejust":1,
    "whos":1,
    "screwing":1,
    "levels":1,
    "ride":1,
    "2100":1,
    "seven":1,
    "weeks":1,
    "rough":1,
    "duress":1,
    "eyes":1,
    "trust":1,
    "bleeds":1,
    "five":1,
    "bright":1,
    "kid":1,
    "hespoke":1,
    "wasi":1,
    "sport":1,
    "midst":1,
    "play":1,
    "sick":1,
    "jokes":1,
    "wrap":1,
    "dump":1,
    "respect":1,
    "guest":1,
    "forget":1,
    "compliments":1,
    "sleep":1,
    "motor":1,
    "changing":1,
    "comes":1,
    "goes":1,
    "poliomyelitis":1,
    "growing":1,
    "slept":1,
    "months":1,
    "iron":1,
    "lung":1,
    "respirator":1,
    "ward":1,
    "knew":1,
    "swore":1,
    "someday":1,
    "metalthis":1,
    "theirs":1,
    "itsealed":1,
    "offliving":1,
    "world":1,
    "scarcely":1,
    "complain":1,
    "mistake":1,
    "nice":1,
    "toldja":1,
    "tryingtrying":1,
    "tellin":1,
    "ya":1,
    "baaaad":1,
    "mighta":1,
    "worked":1,
    "brillo":1,
    "pad":1,
    "uhhuh":1,
    "uhenglish":1,
    "closed":1,
    "upsettin":1,
    "lucky":1,
    "sinatra":1,
    "fan":1,
    "listen":1,
    "milk":1,
    "cows":1,
    "ifyou":1,
    "knowwhat":1,
    "prepare":1,
    "induction":1,
    "switching":1,
    "upbubble":1,
    "1420":1,
    "photos":1,
    "subpens":1,
    "lorient":1,
    "oni":1,
    "happy":1,
    "results":1,
    "1550":1,
    "multiple":1,
    "targets":1,
    "passed":1,
    "itchy":1,
    "resisting":1,
    "temptation":1,
    "staying":1,
    "focused":1,
    "primary":1,
    "photo":1,
    "recon":1,
    "tall":1,
    "grass":1,
    "skies":1,
    "stars":1,
    "position":1,
    "sextant":1,
    "0840":1,
    "picked":1,
    "victims":1,
    "fellow":1,
    "earl":1,
    "grey":1,
    "steward":1,
    "surfacing":1,
    "fresh":1,
    "comfortable":1,
    "walls":1,
    "skippers":1,
    "current":1,
    "anywhere":1,
    "assigned":1,
    "keel":1,
    "120":1,
    "trim":1,
    "offtrim":1,
    "offandall":1,
    "above":1,
    "offgas":1,
    "unless":1,
    "extraneous":1,
    "activity":1,
    "smoking":1,
    "lamp":1,
    "johnny":1,
    "whistling":1,
    "tune":1,
    "nerves":1,
    "frayed":1,
    "cords":1,
    "paused":1,
    "cemetery":1,
    "cigarette":1,
    "pregnant":1,
    "moon":1,
    "wisely":1,
    "refuge":1,
    "leaden":1,
    "clouds":1,
    "johnnys":1,
    "unwary":1,
    "ground":1,
    "soft":1,
    "wormy":1,
    "freshly":1,
    "dug":1,
    "earth":1,
    "began":1,
    "heave":1,
    "stitches":1,
    "holdin":1,
    "zap":1,
    "matches":1,
    "zippos":1,
    "key":1,
    "bandages":1,
    "meyers":1,
    "chinese":1,
    "railroad":1,
    "couple":1,
    "hundred":1,
    "years":1,
    "buried":1,
    "research":1,
    "farm":1,
    "chop":1,
    "chicken":1,
    "seen":1,
    "rooster":1,
    "chase":1,
    "round":1,
    "sowhat":1,
    "givin":1,
    "nightmares":1,
    "calling":1,
    "zippo":1,
    "theme":1,
    "imprecise":1,
    "absolute":1,
    "seaweed":1,
    "fishing":1,
    "net":1,
    "slaps":1,
    "navy":1,
    "passenger":1,
    "defied":1,
    "chained":1,
    "gagged":1,
    "regret":1,
    "becausewell":1,
    "shouldve":1,
    "secrets":1,
    "licks":1,
    "shot":1,
    "cracked":1,
    "survey":1,
    "damage":1,
    "gone":1,
    "debris":1,
    "decides":1,
    "haul":1,
    "middle":1,
    "atlantic":1,
    "souvenir":1,
    "hunting":1,
    "fireplace":1,
    "mantle":1,
    "underwater":1,
    "obstruction":1,
    "fell":1,
    "struck":1,
    "drowned":1,
    "radioed":1,
    "sections":1,
    "humidity":1,
    "builds":1,
    "trips":1,
    "power":1,
    "reconsider":1,
    "finding":1,
    "saint":1,
    "using":1,
    "inquiry":1,
    "sloughin":1,
    "12":1,
    "leaking":1,
    "hereits":1,
    "dumping":1,
    "slick":1,
    "ridin":1,
    "outsidein":1,
    "linin":1,
    "gear":1,
    "volunteers":1,
    "freedive":1,
    "outsideinto":1,
    "coalblack":1,
    "watermake":1,
    "boatlocate":1,
    "portsslither":1,
    "hulls":1,
    "hang":1,
    "submerged":1,
    "tanks":1,
    "fulla":1,
    "thinks":1,
    "gives":1,
    "weight":1,
    "charges":1,
    "inexplicable":1,
    "happening":1,
    "flash":1,
    "yeoman":1,
    "leads":1,
    "desperate":1,
    "buddy":1,
    "greased":1,
    "amazing":1,
    "holy":1,
    "jamoley":1,
    "sucked":1,
    "squid":1,
    "rack":1,
    "easily":1,
    "making":1,
    "chamber":1,
    "redolent":1,
    "stench":1,
    "dying":1,
    "calamarithe":1,
    "such":1,
    "bang":1,
    "fore":1,
    "movin":1,
    "used":1,
    "dock":1,
    "welded":1,
    "inside":1,
    "bounds":1,
    "likes":1,
    "started":1,
    "gunnery":1,
    "machinegunning":1,
    "germans":1,
    "heated":1,
    "protect":1,
    "memory":1,
    "tough":1,
    "sonuvabitch":1,
    "reputationhis":1,
    "familys":1,
    "sake":1,
    "understand":1,
    "slippery":1,
    "metalbad":1,
    "footing":1,
    "accidents":1,
    "upshut":1,
    "upwould":1,
    "grow":1,
    "od":1,
    "wheres":1,
    "sirthats":1,
    "personi":1,
    "guarantee":1,
    "touchdont":1,
    "touch":1,
    "ditdotdotdot":1,
    "morse":1,
    "planes":1,
    "smacking":1,
    "lathered":1,
    "whered":1,
    "ditdotdit":1,
    "talking":1,
    "jugheads":1,
    "minute":1,
    "mouths":1,
    "fuel":1,
    "repaired":1,
    "sewed":1,
    "whenwhen":1,
    "weathers":1,
    "pushing":1,
    "southern":1,
    "navigational":1,
    "depths":1,
    "nets":1,
    "fields":1,
    "raf":1,
    "bomb":1,
    "mistook":1,
    "safetycorridors":1,
    "rejected":1,
    "periscopes":1,
    "blind":1,
    "deaf":1,
    "senior":1,
    "welcome":1,
    "allow":1,
    "haunted":1,
    "loss":1,
    "unfortunate":1,
    "fails":1,
    "affect":1,
    "plans":1,
    "daylight":1,
    "expect":1,
    "1900":1,
    "recharge":1,
    "proceed":1,
    "regs":1,
    "burma":1,
    "sets":1,
    "further":1,
    "agitate":1,
    "knock":1,
    "nose":1,
    "28":1,
    "standard":1,
    "oversteering":1,
    "helmsman":1,
    "yessir":1,
    "someresistance":1,
    "roomchief":1,
    "pump":1,
    "quite":1,
    "overshot":1,
    "170":1,
    "reallycreepshow":1,
    "ifwhen":1,
    "sink":1,
    "ifand":1,
    "nobody":1,
    "excitedwhat":1,
    "sank":1,
    "controlsthey":1,
    "froze":1,
    "theyve":1,
    "rusted":1,
    "upbecause":1,
    "ocean":1,
    "rescue":1,
    "divers":1,
    "hydrogenco2ozone":1,
    "breathin":1,
    "makin":1,
    "loopier":1,
    "roller":1,
    "coaster":1,
    "problems":1,
    "messages":1,
    "lately":1,
    "sweetandsour":1,
    "hand":1,
    "pot":1,
    "pinch":1,
    "less":1,
    "remember":1,
    "zeroninefive":1,
    "hereand":1,
    "latitude":1,
    "variation":1,
    "tween":1,
    "magnetic":1,
    "whatever":1,
    "pumps":1,
    "dedicated":1,
    "abaft":1,
    "steering":1,
    "battery":1,
    "dicey":1,
    "venting":1,
    "threading":1,
    "hydraulics":1,
    "welding":1,
    "sealed":1,
    "repeat":1,
    "hindenburg":1,
    "fewer":1,
    "guardian":1,
    "angelfish":1,
    "bowling":1,
    "watching":1,
    "mistakes":1,
    "rag":1,
    "tools":1,
    "chow":1,
    "word":1,
    "sec":1,
    "watches":1,
    "coincidencei":1,
    "begin":1,
    "withbut":1,
    "pappy":1,
    "sorta":1,
    "repressurize":1,
    "brakes":1,
    "joyride":1,
    "reset":1,
    "tripped":1,
    "coincidence":1,
    "question":1,
    "youve":1,
    "hardon":1,
    "messin":1,
    "assembly":1,
    "motormac":1,
    "tired":1,
    "horseshit":1,
    "remotely":1,
    "respond":1,
    "anybody":1,
    "1mc":1,
    "warm":1,
    "break":1,
    "lungs":1,
    "medical":1,
    "training":1,
    "intelligence":1,
    "chose":1,
    "lead":1,
    "scrub":1,
    "legs":1,
    "feels":1,
    "toes":1,
    "arcing":1,
    "somethinsomethin":1,
    "kicked":1,
    "andand":1,
    "alltheyre":1,
    "hereoutta":1,
    "heregotta":1,
    "nowhere":1,
    "heeven":1,
    "tight":1,
    "bitch":1,
    "surfacebut":1,
    "friggin":1,
    "fixed":1,
    "apparently":1,
    "repeating":1,
    "count":1,
    "versions":1,
    "suppose":1,
    "certain":1,
    "reporting":1,
    "heatings":1,
    "levers":1,
    "inoperable":1,
    "jammed":1,
    "depthcharging":1,
    "stumbos":1,
    "show":1,
    "90":1,
    "pounds":1,
    "compressed":1,
    "600":1,
    "pound":1,
    "nightsomething":1,
    "understandwhy":1,
    "anymore":1,
    "awkward":1,
    "rightmaybe":1,
    "bought":1,
    "coldif":1,
    "heap":1,
    "evil":1,
    "spirit":1,
    "cleanup":1,
    "ways":1,
    "fair":1,
    "hangs":1,
    "low":1,
    "controls":1,
    "vicious":1,
    "whore":1,
    "lads":1,
    "pulley":1,
    "wench":1,
    "comealong":1,
    "together":1,
    "conspire":1,
    "cover":1,
    "alone":1,
    "major":1,
    "citation":1,
    "command":1,
    "annapolis":1,
    "naval":1,
    "familycoors":1,
    "irish":1,
    "boston":1,
    "talkin":1,
    "live":1,
    "missing":1,
    "read":1,
    "plays":1,
    "playbook":1,
    "scoffed":1,
    "himtried":1,
    "silence":1,
    "himyet":1,
    "dire":1,
    "hour":1,
    "turned":1,
    "understanding":1,
    "checking":1,
    "literature":1,
    "subject":1,
    "heaven":1,
    "unresolved":1,
    "fact":1,
    "great":1,
    "description":1,
    "natives":1,
    "novella":1,
    "pierce":1,
    "milestone":1,
    "opens":1,
    "suffice":1,
    "satisfaction":1,
    "escape":1,
    "satisfy":1,
    "obvious":1,
    "care":1,
    "bleed":1,
    "surfacesaid":1,
    "meplease":1,
    "worse":1,
    "gather":1,
    "religious":1,
    "2230":1,
    "sight":1,
    "believed":1,
    "gain":1,
    "angle":1,
    "2315":1,
    "checks":1,
    "profile":1,
    "log":1,
    "matching":1,
    "personally":1,
    "verify":1,
    "match":1,
    "2320":1,
    "single":1,
    "4":1,
    "strike":1,
    "followed":1,
    "collapsing":1,
    "bulkheads":1,
    "classtype":1,
    "sunkand":1,
    "shipfort":1,
    "leaving":1,
    "survivorsand":1,
    "misidd":1,
    "either":1,
    "crapped":1,
    "hate":1,
    "drain":1,
    "trunk":1,
    "raising":1,
    "distress":1,
    "sj":1,
    "4000":1,
    "lanes":1,
    "raise":1,
    "challenge":1,
    "ral6":1,
    "itself":1,
    "abandon":1,
    "rather":1,
    "scuttled":1,
    "fleet":1,
    "carrying":1,
    "panicked":1,
    "handful":1,
    "disagreed":1,
    "superior":1,
    "ignored":1,
    "chain":1,
    "ofcommand":1,
    "matters":1,
    "owntheir":1,
    "sewer":1,
    "pipe":1,
    "lull":1,
    "conversationcontact":1,
    "2500":1,
    "astern":1,
    "shack":1,
    "establish":1,
    "neither":1,
    "rain":1,
    "squall":1,
    "weather":1,
    "safe":1,
    "truth":1,
    "plan":1,
    "scared":1,
    "coward":1,
    "work":1,
    "mortar":1,
    "rooms":1,
    "800":1,
    "blame":1,
    "u":1,
    "knowchamp":1,
    "kept":1,
    "wayto":1,
    "backmake":1,
    "end":1,
    "rightsome":1,
    "dishonoring":1,
    "buti":1,
    "wear":1,
    "uniform":1,
    "ruined":1,
    "signal":1,
    "ending":1,
    "figured":1,
    "dear":1,
    "freighter":1,
    "acknowledged":1,
    "werent":1,
    "slapped":1,
    "4inch":1,
    "unlikely":1,
    "period":1,
    "iti":1,
    "kind":1,
    "breathingdoes":1,
    "brain":1,
    "almost":2,
    "friendly":2,
    "besides":2,
    "standing":2,
    "stow":2,
    "krauts":2,
    "lifeboats":2,
    "radar":2,
    "ahead":2,
    "amidships":2,
    "speed":2,
    "grab":2,
    "board":2,
    "easy":2,
    "later":2,
    "move":2,
    "ladder":2,
    "tea":2,
    "bleeder":2,
    "sweet":2,
    "shorts":2,
    "needs":2,
    "luck":2,
    "vents":2,
    "negative":2,
    "65":2,
    "wounds":2,
    "uh":2,
    "arent":2,
    "doctor":2,
    "best":2,
    "job":2,
    "debrief":2,
    "bout":2,
    "tons":2,
    "rhine":2,
    "racks":2,
    "200":2,
    "250":2,
    "secure":2,
    "fort":2,
    "hospital":2,
    "nights":2,
    "ago":2,
    "areas":2,
    "workin":2,
    "maam":2,
    "ever":2,
    "starfix":2,
    "clean":2,
    "second":2,
    "probably":2,
    "fired":2,
    "area":2,
    "third":2,
    "nearest":2,
    "fine":2,
    "heart":2,
    "rolled":2,
    "wretched":2,
    "weird":2,
    "breath":2,
    "fast":2,
    "called":2,
    "blood":2,
    "female":2,
    "wanna":2,
    "classic":2,
    "fiction":2,
    "firing":2,
    "sunk":2,
    "run":2,
    "school":2,
    "worry":2,
    "coffee":2,
    "10":2,
    "familiar":2,
    "ran":2,
    "christ":2,
    "runnin":2,
    "cross":2,
    "floor":2,
    "tighter":2,
    "wardroom":2,
    "prior":2,
    "please":2,
    "itll":2,
    "moving":2,
    "open":2,
    "tubes":2,
    "flood":2,
    "number":2,
    "stepped":2,
    "watchin":2,
    "pretty":2,
    "missy":2,
    "wai":2,
    "wait":2,
    "goin":2,
    "calls":2,
    "tenant":2,
    "mess":2,
    "straight":2,
    "noticed":2,
    "came":2,
    "wake":2,
    "come":2,
    "secret":2,
    "nearly":2,
    "says":2,
    "vent":2,
    "ayeaye":2,
    "days":2,
    "always":2,
    "shouldnt":2,
    "nothing":2,
    "order":2,
    "everyone":2,
    "since":2,
    "youll":2,
    "breathe":2,
    "eight":2,
    "especially":2,
    "dark":2,
    "smatter":2,
    "hoodoo":2,
    "aint":2,
    "also":2,
    "wouldja":2,
    "lights":2,
    "shipping":2,
    "lock":2,
    "cabin":2,
    "merchantman":2,
    "reportedly":2,
    "hmm":2,
    "feeling":2,
    "bloody":2,
    "permission":2,
    "gladly":2,
    "bottom":2,
    "diesels":2,
    "ordered":2,
    "watch":2,
    "tried":2,
    "beside":2,
    "foot":2,
    "workers":2,
    "girl":2,
    "big":2,
    "death":2,
    "caught":2,
    "lot":2,
    "identify":2,
    "telling":2,
    "realized":2,
    "charging":2,
    "news":2,
    "accident":2,
    "free":2,
    "buss":2,
    "hooks":2,
    "hope":2,
    "somewhere":2,
    "tank":2,
    "ready":2,
    "yourself":2,
    "someone":2,
    "between":2,
    "leak":2,
    "flooded":2,
    "system":2,
    "turn":2,
    "point":2,
    "trailing":2,
    "2330":2,
    "confirm":2,
    "four":2,
    "jg":2,
    "steven":2,
    "odd":2,
    "felt":2,
    "thinkin":2,
    "stern":2,
    "stays":2,
    "argument":2,
    "b":2,
    "c":2,
    "gettin":2,
    "k":2,
    "ports":2,
    "hostile":2,
    "considered":2,
    "both":2,
    "bad":2,
    "longer":2,
    "base":2,
    "shave":2,
    "285":2,
    "imo":2,
    "battin":2,
    "twist":2,
    "explain":2,
    "pounding":2,
    "slopworld":2,
    "mechanical":2,
    "new":2,
    "beat":2,
    "during":2,
    "regain":2,
    "secondplace":2,
    "team":2,
    "trophy":2,
    "armynavy":2,
    "tournament":2,
    "chances":2,
    "heads":2,
    "engine":2,
    "report":2,
    "methat":2,
    "shinola":2,
    "lose":2,
    "issue":2,
    "netherworld":2,
    "chance":2,
    "close":2,
    "berlin":2,
    "being":2,
    "cranking":2,
    "rising":2,
    "mast":2,
    "same":2,
    "opportunity":2,
    "scuttle":2,
    "vessel":2,
    "hmmm":2,
    "bury":2,
    "13":3,
    "possible":3,
    "behind":3,
    "starboard":3,
    "emergency":3,
    "battle":3,
    "flank":3,
    "comin":3,
    "talk":3,
    "woman":3,
    "ones":3,
    "jesus":3,
    "pull":3,
    "clear":3,
    "periscope":3,
    "cycle":3,
    "officer":3,
    "stuff":3,
    "guns":3,
    "full":3,
    "james":3,
    "bit":3,
    "soon":3,
    "far":3,
    "sounds":3,
    "change":3,
    "hold":3,
    "thank":3,
    "taking":3,
    "conn":3,
    "myself":3,
    "mine":3,
    "actually":3,
    "sonar":3,
    "weve":3,
    "couldnt":3,
    "save":3,
    "stuck":3,
    "most":3,
    "thwuck":3,
    "mouth":3,
    "slowly":3,
    "exactly":3,
    "wondering":3,
    "wouldnt":3,
    "quiet":3,
    "degrees":3,
    "cold":3,
    "seeing":3,
    "places":3,
    "may":3,
    "wrong":3,
    "asked":3,
    "around":3,
    "god":3,
    "tower":3,
    "left":3,
    "reason":3,
    "talked":3,
    "schillings":3,
    "has":3,
    "home":3,
    "rest":3,
    "matter":3,
    "really":3,
    "every":3,
    "bring":3,
    "howre":3,
    "percent":3,
    "tonight":3,
    "own":3,
    "things":3,
    "stupid":3,
    "late":3,
    "voice":3,
    "mean":3,
    "wont":3,
    "co":3,
    "anyway":3,
    "call":3,
    "real":3,
    "musta":3,
    "kraut":3,
    "english":3,
    "happen":3,
    "charge":3,
    "getting":3,
    "shoot":3,
    "survivors":3,
    "check":3,
    "whatre":3,
    "without":3,
    "co2":3,
    "electrical":3,
    "cmon":3,
    "sometimes":3,
    "once":3,
    "saying":3,
    "sloppy":3,
    "against":3,
    "connecticut":3,
    "feel":3,
    "theyll":3,
    "repair":3,
    "while":3,
    "aft":3,
    "commander":3,
    "kinda":3,
    "ideas":3,
    "thinking":3,
    "door":3,
    "true":3,
    "havent":3,
    "looking":3,
    "tap":3,
    "put":3,
    "lemme":3,
    "died":3,
    "pretend":3,
    "am":3,
    "maledictions":3,
    "brits":4,
    "patrol":4,
    "british":4,
    "ensign":4,
    "though":4,
    "somebody":4,
    "crew":4,
    "stations":4,
    "awright":4,
    "leave":4,
    "next":4,
    "means":4,
    "finally":4,
    "rig":4,
    "looks":4,
    "quarters":4,
    "class":4,
    "side":4,
    "able":4,
    "problem":4,
    "uboat":4,
    "bow":4,
    "deck":4,
    "aboard":4,
    "patients":4,
    "least":4,
    "north":4,
    "hands":4,
    "party":4,
    "name":4,
    "port":4,
    "people":4,
    "oil":4,
    "malediction":4,
    "alive":4,
    "few":4,
    "whole":4,
    "target":4,
    "champ":4,
    "stop":4,
    "believe":4,
    "tube":4,
    "yards":4,
    "kill":4,
    "ive":4,
    "yeah":4,
    "away":4,
    "guy":4,
    "war":4,
    "wants":4,
    "wanted":4,
    "doing":4,
    "hoag":4,
    "gotta":4,
    "mission":4,
    "skipper":4,
    "hit":4,
    "gonna":4,
    "everybody":4,
    "gimme":4,
    "place":4,
    "cruiser":4,
    "asking":4,
    "ballast":4,
    "fix":4,
    "pick":4,
    "belay":4,
    "found":4,
    "sinking":4,
    "lt":4,
    "line":4,
    "long":5,
    "might":5,
    "very":5,
    "whats":5,
    "em":5,
    "dive":5,
    "blow":5,
    "until":5,
    "gets":5,
    "officers":5,
    "case":5,
    "anyone":5,
    "heading":5,
    "barn":5,
    "said":5,
    "give":5,
    "england":5,
    "seems":5,
    "oh":5,
    "thing":5,
    "into":5,
    "sound":5,
    "stumpie":5,
    "idea":5,
    "already":5,
    "fuck":5,
    "she":5,
    "everything":5,
    "told":5,
    "running":5,
    "guess":5,
    "took":5,
    "light":5,
    "orders":5,
    "topside":5,
    "water":5,
    "fucking":5,
    "many":6,
    "below":6,
    "contact":6,
    "enough":6,
    "outta":6,
    "been":6,
    "submarine":6,
    "those":6,
    "than":6,
    "much":6,
    "story":6,
    "kingsley":6,
    "under":6,
    "id":6,
    "radio":6,
    "miss":6,
    "through":6,
    "trying":6,
    "stay":6,
    "which":6,
    "lieutenant":6,
    "working":6,
    "fish":6,
    "hull":6,
    "thought":6,
    "man":6,
    "die":6,
    "shut":6,
    "main":6,
    "ask":6,
    "theres":6,
    "lost":6,
    "going":6,
    "hell":7,
    "by":7,
    "three":7,
    "guys":7,
    "more":7,
    "depth":7,
    "feet":7,
    "them":7,
    "paige":7,
    "other":7,
    "night":7,
    "hours":7,
    "saw":7,
    "only":7,
    "strange":7,
    "went":7,
    "hear":7,
    "first":7,
    "old":7,
    "huh":7,
    "control":7,
    "goddamn":7,
    "her":7,
    "something":7,
    "then":7,
    "because":7,
    "hydrogen":7,
    "dead":7,
    "isnt":7,
    "course":7,
    "batteries":7,
    "head":7,
    "who":8,
    "doesnt":8,
    "theyre":8,
    "else":8,
    "happened":8,
    "still":8,
    "look":8,
    "let":8,
    "forward":8,
    "heard":8,
    "torpedo":8,
    "last":8,
    "chief":8,
    "want":8,
    "did":8,
    "never":8,
    "even":9,
    "rudder":9,
    "done":9,
    "hes":9,
    "find":9,
    "claire":9,
    "men":9,
    "cant":9,
    "these":9,
    "wasnt":9,
    "an":9,
    "over":9,
    "help":9,
    "again":9,
    "shit":9,
    "need":9,
    "air":9,
    "why":10,
    "use":10,
    "anything":10,
    "sure":10,
    "good":10,
    "better":10,
    "make":10,
    "after":10,
    "ill":10,
    "stumbo":10,
    "say":11,
    "try":11,
    "any":11,
    "sorry":11,
    "okay":11,
    "two":12,
    "before":12,
    "where":12,
    "loomis":13,
    "their":13,
    "see":13,
    "lets":13,
    "take":13,
    "as":13,
    "too":13,
    "when":13,
    "hey":13,
    "room":13,
    "time":13,
    "german":13,
    "my":13,
    "coors":14,
    "tell":14,
    "didnt":14,
    "youre":14,
    "would":14,
    "little":14,
    "could":14,
    "think":15,
    "like":15,
    "should":15,
    "way":15,
    "surface":15,
    "brice":15,
    "had":15,
    "sir":16,
    "got":16,
    "ship":16,
    "wallace":16,
    "from":17,
    "keep":17,
    "winters":17,
    "some":18,
    "thats":19,
    "odell":19,
    "at":20,
    "im":20,
    "or":20,
    "off":20,
    "go":20,
    "there":21,
    "can":22,
    "have":22,
    "him":22,
    "how":22,
    "our":22,
    "mr":23,
    "down":23,
    "maybe":23,
    "about":23,
    "do":24,
    "know":24,
    "us":25,
    "his":25,
    "boat":26,
    "your":26,
    "right":26,
    "are":27,
    "they":27,
    "back":28,
    "he":29,
    "well":32,
    "dont":32,
    "one":32,
    "no":32,
    "up":33,
    "not":35,
    "here":35,
    "me":35,
    "with":35,
    "now":36,
    "its":37,
    "was":37,
    "all":38,
    "is":39,
    "for":40,
    "if":41,
    "but":41,
    "be":42,
    "out":42,
    "so":43,
    "get":45,
    "were":46,
    "on":51,
    "what":51,
    "just":56,
    "this":63,
    "that":64,
    "of":76,
    "in":79,
    "i":84,
    "":86,
    "we":87,
    "and":95,
    "it":104,
    "a":119,
    "you":125,
    "to":158,
    "the":265
}