{
    "perfect":1,
    "comes":1,
    "sky":1,
    "thunderbolt":1,
    "nope":1,
    "running":1,
    "reading":1,
    "staying":1,
    "countryside":1,
    "films":1,
    "thoughtful":1,
    "ambitious":1,
    "wellread":1,
    "popular":1,
    "balanced":1,
    "trusting":1,
    "attractive":1,
    "intelligent":1,
    "humour":1,
    "communicate":1,
    "level":1,
    "key":1,
    "turn":1,
    "thirty":1,
    "theyve":1,
    "baggage":1,
    "history":1,
    "past":1,
    "skeleton":1,
    "least":1,
    "patio":1,
    "literally":1,
    "image":1,
    "modern":1,
    "move":1,
    "reasonable":1,
    "start":1,
    "welcome":1,
    "speech":1,
    "map":1,
    "london":1,
    "itself":1,
    "roman":1,
    "warmer":1,
    "weather":1,
    "root":1,
    "everywhere":1,
    "ant":1,
    "stupid":1,
    "nervous":1,
    "joke":1,
    "speaking":1,
    "fast":1,
    "giraffe":1,
    "lounge":1,
    "kitchen":1,
    "bathroom":1,
    "ashtray":1,
    "office":1,
    "reopens":1,
    "monday":1,
    "services":1,
    "urgently":1,
    "letters":1,
    "youd":1,
    "studied":1,
    "ring":1,
    "deal":1,
    "gets":1,
    "message":1,
    "emergency":1,
    "mistake":1,
    "booking":1,
    "tomorrow":1,
    "solving":1,
    "identifies":1,
    "appropriate":1,
    "develops":1,
    "several":1,
    "alternative":1,
    "resolves":1,
    "minimises":1,
    "grow":1,
    "into":1,
    "larger":1,
    "weekend":1,
    "special":1,
    "communications":1,
    "listens":1,
    "comprehends":1,
    "communicating":1,
    "selecting":1,
    "efficient":1,
    "methods":1,
    "displays":1,
    "effective":1,
    "verbal":1,
    "occasion":1,
    "showed":1,
    "class":1,
    "delicate":1,
    "situation":1,
    "initiative":1,
    "volunteer":1,
    "whenever":1,
    "others":1,
    "reluctant":1,
    "unwilling":1,
    "ask":1,
    "himself":1,
    "adequate":1,
    "resolving":1,
    "difficult":1,
    "fulfills":1,
    "commitments":1,
    "expected":1,
    "service":1,
    "high":1,
    "degree":1,
    "respect":1,
    "reluctance":1,
    "carving":1,
    "relationships":1,
    "judgment":1,
    "able":1,
    "decisions":1,
    "areas":1,
    "follows":1,
    "instructions":1,
    "conscientiously":1,
    "responds":1,
    "personal":1,
    "directions":1,
    "normally":1,
    "punctual":1,
    "assumes":1,
    "responsibility":1,
    "actions":1,
    "outcomes":1,
    "fair":1,
    "called":1,
    "might":1,
    "twentyfour":1,
    "bug":1,
    "beaky":1,
    "dear":1,
    "hows":1,
    "piss":1,
    "plates":1,
    "lost":1,
    "pratsteetye":1,
    "cold":1,
    "frenzy":1,
    "safe":1,
    "shit":1,
    "speaks":1,
    "light":1,
    "beginning":1,
    "story":1,
    "short":1,
    "hold":1,
    "seriously":1,
    "kidding":1,
    "nadias":1,
    "cousins":1,
    "watch":1,
    "crazy":1,
    "musician":1,
    "noodle":1,
    "along":1,
    "retard":1,
    "uk":1,
    "actors":1,
    "meet":1,
    "freak":1,
    "novgorod":1,
    "chicken":1,
    "asked":1,
    "food":1,
    "shy":1,
    "plans":1,
    "architects":1,
    "politicians":1,
    "forth":1,
    "visa":1,
    "documents":1,
    "europeans":1,
    "europe":1,
    "tony":1,
    "blair":1,
    "maggie":1,
    "thatcher":1,
    "fiancee":1,
    "years":1,
    "understandable":1,
    "translate":1,
    "classic":1,
    "god":1,
    "watched":1,
    "airport":1,
    "waiting":1,
    "birds":1,
    "kept":1,
    "war":1,
    "pictures":1,
    "stand":1,
    "far":1,
    "examine":1,
    "closely":1,
    "nasyekski":1,
    "judgmental":1,
    "define":1,
    "terms":1,
    "truly":1,
    "themselves":1,
    "greatest":1,
    "human":1,
    "disaster":1,
    "newspapers":1,
    "marches":1,
    "heartache":1,
    "ministries":1,
    "loneliness":1,
    "concerts":1,
    "disappointment":1,
    "important":1,
    "share":1,
    "bread":1,
    "khylep":1,
    "cannot":1,
    "survive":1,
    "meat":1,
    "blood":1,
    "myasa":1,
    "family":1,
    "country":1,
    "flesh":1,
    "strength":1,
    "joy":1,
    "pain":1,
    "chyesnok":1,
    "without":1,
    "flavour":1,
    "vodka":1,
    "magic":1,
    "changes":1,
    "inside":1,
    "moon":1,
    "stars":1,
    "sun":1,
    "soldiers":1,
    "beloved":1,
    "afghanstya":1,
    "veteran":1,
    "afghanistan":1,
    "lovely":1,
    "doesnt":1,
    "necessarily":1,
    "impression":1,
    "ch":1,
    "approaching":1,
    "rear":1,
    "desk":1,
    "hiding":1,
    "leaving":1,
    "indoors":1,
    "crime":1,
    "fun":1,
    "stay":1,
    "tonight":1,
    "brought":1,
    "fault":1,
    "scare":1,
    "soldier":1,
    "trained":1,
    "killer":1,
    "agree":1,
    "shithead":1,
    "pounds":1,
    "sure":1,
    "ah":1,
    "moseley":1,
    "south":1,
    "east":1,
    "tour":1,
    "indian":1,
    "guide":1,
    "play":1,
    "surprising":1,
    "hidden":1,
    "talents":1,
    "band":1,
    "keyboards":1,
    "marillion":1,
    "maestro":1,
    "ball":1,
    "till":1,
    "fourth":1,
    "quarter":1,
    "beneficial":1,
    "exciting":1,
    "frightening":1,
    "starting":1,
    "karen":1,
    "whos":1,
    "moseleys":1,
    "fifty":1,
    "almost":1,
    "sixty":1,
    "four":1,
    "over":1,
    "eighty":1,
    "forget":1,
    "owe":1,
    "\ufffd150":1,
    "paul":1,
    "smith":1,
    "rock":1,
    "cafe":1,
    "arent":1,
    "presents":1,
    "normal":1,
    "friendship":1,
    "guitar":1,
    "bits":1,
    "rubbish":1,
    "coke":1,
    "cans":1,
    "wrappers":1,
    "dustbins":1,
    "cat":1,
    "size":1,
    "clever":1,
    "times":1,
    "bastards":1,
    "burnt":1,
    "burn":1,
    "wrists":1,
    "taken":1,
    "heard":1,
    "supposed":1,
    "lip":1,
    "espresso":1,
    "pastry":1,
    "continental":1,
    "breakfast":1,
    "expect":1,
    "deputy":1,
    "assistant":1,
    "individuals":1,
    "understanding":1,
    "sympathy":1,
    "line":1,
    "anymore":1,
    "nowadays":1,
    "robber":1,
    "covers":1,
    "grasped":1,
    "being":1,
    "dumped":1,
    "smart":1,
    "strictly":1,
    "observers":1,
    "capacity":1,
    "seemed":1,
    "two":1,
    "getting":1,
    "famously":1,
    "routine":1,
    "stick":1,
    "distract":1,
    "bust":1,
    "steal":1,
    "cup":1,
    "fall":1,
    "obvious":1,
    "relief":1,
    "regular":1,
    "station":1,
    "lawyers":1,
    "loss":1,
    "humiliation":1,
    "gutter":1,
    "press":1,
    "blame":1,
    "employee":1,
    "anyway":1,
    "hated":1,
    "decision":1,
    "burst":1,
    "rob":1,
    "remained":1,
    "turns":1,
    "splendid":1,
    "pleasure":1,
    "biggest":1,
    "pillock":1,
    "punish":1,
    "badly":1,
    "vindictive":1,
    "every":1,
    "already":1,
    "id":1,
    "bash":1,
    "dumb":1,
    "plenty":1,
    "babies":1,
    "after":1,
    "motorway":1,
    "sunglasses":1,
    "absolutely":1,
    "disappointing":1,
    "shock":1,
    "bed":1,
    "bigger":1,
    "cock":1,
    "kids":1,
    "type":1,
    "broody":1,
    "miffed":1,
    "ticket":1,
    "clear":1,
    "abandon":1,
    "started":1,
    "listening":1,
    "pretend":1,
    "lets":1,
    "morals":1,
    "ones":1,
    "decency":1,
    "orgasm":1,
    "detach":1,
    "whereas":1,
    "wet":1,
    "n":1,
    "wild":1,
    "journey":1,
    "tethered":1,
    "moving":1,
    "huh":1,
    "anna":1,
    "karenina":1,
    "rooting":1,
    "private":1,
    "funny":1,
    "switch":1,
    "neither":1,
    "liking":1,
    "ever":1,
    "charm":1,
    "erection":1,
    "front":1,
    "matter":1,
    "safest":1,
    "recover":1,
    "each":1,
    "savage":1,
    "monster":1,
    "animal":1,
    "also":1,
    "hide":1,
    "bottom":1,
    "wardrobe":1,
    "healthy":1,
    "fucked":1,
    "mute":1,
    "another":1,
    "twenty":1,
    "werent":1,
    "plane":1,
    "met":1,
    "fifteen":1,
    "smashing":1,
    "bloke":1,
    "christ":1,
    "boy":1,
    "sounds":1,
    "between":1,
    "blonde":1,
    "thin":1,
    "cupboard":1,
    "best":1,
    "friend":1,
    "boss":1,
    "awful":1,
    "forgive":1,
    "laugh":1,
    "smoking":1,
    "lab":1,
    "dog":1,
    "quit":1,
    "news":1,
    "working":1,
    "days":1,
    "nobodys":1,
    "end":1,
    "definitely":1,
    "blanket":1,
    "lie":1,
    "child":1,
    "confused":1,
    "easy":1,
    "needed":1,
    "simple":1,
    "eh":1,
    "while":1,
    "cigarette":1,
    "lighter":1,
    "creep":1,
    "fallen":1,
    "prick":1,
    "kill":1,
    "duck":1,
    "passports":1,
    "aeroflot":1,
    "proceed":1,
    "immediately":1,
    "12":1,
    "quitting":1,
    "deserve":1,
    "closing":1,
    "tickets":1,
    "ready":1,
    "came":1,
    "making":1,
    "marry":1,
    "way":1,
    "matters":1,
    "hurry":1,
    "wait":1,
    "closed":1,
    "cash":1,
    "kam":1,
    "kapsi":1,
    "schta":1,
    "names":1,
    "mines":1,
    "ridiculous":2,
    "theyre":2,
    "outgoing":2,
    "reasonably":2,
    "kind":2,
    "by":2,
    "stroke":2,
    "weve":2,
    "person":2,
    "under":2,
    "because":2,
    "losers":2,
    "bit":2,
    "sad":2,
    "brave":2,
    "forty":2,
    "miles":2,
    "looked":2,
    "close":2,
    "city":2,
    "house":2,
    "seem":2,
    "nest":2,
    "different":2,
    "imagined":2,
    "follow":2,
    "slower":2,
    "bedroom":2,
    "reached":2,
    "interested":2,
    "st":2,
    "albans":2,
    "soon":2,
    "guy":2,
    "anyone":2,
    "night":2,
    "terrible":2,
    "within":2,
    "frames":2,
    "solutions":2,
    "skills":2,
    "quick":2,
    "although":2,
    "emotional":2,
    "situations":2,
    "made":2,
    "shows":2,
    "own":2,
    "used":2,
    "ok":2,
    "hour":2,
    "rest":2,
    "drink":2,
    "glasses":2,
    "toast":2,
    "explains":2,
    "cut":2,
    "cousin":2,
    "serious":2,
    "wife":2,
    "secret":2,
    "father":2,
    "word":2,
    "taking":2,
    "things":2,
    "liked":2,
    "mind":2,
    "picture":2,
    "gave":2,
    "bad":2,
    "took":2,
    "send":2,
    "ashamed":2,
    "surprise":2,
    "never":2,
    "song":2,
    "sensitive":2,
    "such":2,
    "hey":2,
    "strong":2,
    "trouble":2,
    "police":2,
    "sit":2,
    "let":2,
    "toilet":2,
    "trousers":2,
    "man":2,
    "pay":2,
    "lot":2,
    "fuckin":2,
    "eight":2,
    "hundred":2,
    "robert":2,
    "head":2,
    "loud":2,
    "results":2,
    "wouldnt":2,
    "exactly":2,
    "sweet":2,
    "cases":2,
    "split":2,
    "buying":2,
    "week":2,
    "went":2,
    "cats":2,
    "alright":2,
    "sets":2,
    "excellent":2,
    "felt":2,
    "easier":2,
    "enough":2,
    "myself":2,
    "cooking":2,
    "weeks":2,
    "throwing":2,
    "great":2,
    "croissant":2,
    "part":2,
    "though":2,
    "imagine":2,
    "unless":2,
    "tied":2,
    "faster":2,
    "probably":2,
    "prison":2,
    "even":2,
    "else":2,
    "restroom":2,
    "sick":2,
    "shut":2,
    "which":2,
    "none":2,
    "tend":2,
    "happened":2,
    "havent":2,
    "moral":2,
    "trying":2,
    "either":2,
    "soul":2,
    "prefer":2,
    "dark":2,
    "naive":2,
    "scared":2,
    "fox":2,
    "alive":2,
    "unhappy":2,
    "buy":2,
    "whatever":2,
    "last":2,
    "1311":2,
    "moscow":2,
    "promise":2,
    "mine":2,
    "date":2,
    "full":2,
    "check":2,
    "critical":3,
    "sense":3,
    "communication":3,
    "always":3,
    "everything":3,
    "strange":3,
    "bet":3,
    "other":3,
    "buckingham":3,
    "possible":3,
    "usually":3,
    "before":3,
    "customer":3,
    "customers":3,
    "new":3,
    "face":3,
    "job":3,
    "feel":3,
    "feels":3,
    "weird":3,
    "letting":3,
    "asking":3,
    "hard":3,
    "long":3,
    "except":3,
    "both":3,
    "actor":3,
    "england":3,
    "gate":3,
    "girl":3,
    "beautiful":3,
    "old":3,
    "watching":3,
    "run":3,
    "around":3,
    "them":3,
    "left":3,
    "could":3,
    "many":3,
    "their":3,
    "against":3,
    "show":3,
    "eat":3,
    "fine":3,
    "hell":3,
    "kettle":3,
    "much":3,
    "prostitute":3,
    "later":3,
    "thousand":3,
    "those":3,
    "actually":3,
    "babe":3,
    "pregnant":3,
    "sir":3,
    "men":3,
    "than":3,
    "passport":3,
    "tie":3,
    "wont":3,
    "hate":3,
    "half":3,
    "beast":3,
    "dead":3,
    "sophia":3,
    "believe":4,
    "quite":4,
    "suppose":4,
    "same":4,
    "people":4,
    "where":4,
    "only":4,
    "thought":4,
    "sort":4,
    "youve":4,
    "nice":4,
    "ants":4,
    "saying":4,
    "call":4,
    "back":4,
    "big":4,
    "thanks":4,
    "help":4,
    "sometimes":4,
    "still":4,
    "trust":4,
    "today":4,
    "bath":4,
    "syevodnya":4,
    "party":4,
    "better":4,
    "excuse":4,
    "hang":4,
    "yuri":4,
    "wanted":4,
    "little":4,
    "smokes":4,
    "make":4,
    "saw":4,
    "binoculars":4,
    "away":4,
    "life":4,
    "wrong":4,
    "fucking":4,
    "business":4,
    "any":4,
    "stuff":4,
    "try":4,
    "hurt":4,
    "wheres":4,
    "woman":4,
    "die":4,
    "time":5,
    "our":5,
    "thing":5,
    "world":5,
    "car":5,
    "having":5,
    "find":5,
    "am":5,
    "theres":5,
    "english":5,
    "morning":5,
    "makes":5,
    "eyes":5,
    "alexei":5,
    "shes":5,
    "alone":5,
    "wants":5,
    "tune":5,
    "paid":5,
    "listen":5,
    "name":5,
    "off":5,
    "goodbye":5,
    "someone":6,
    "had":6,
    "again":6,
    "problem":6,
    "russian":6,
    "need":6,
    "take":6,
    "work":6,
    "anything":6,
    "his":6,
    "day":6,
    "birthday":6,
    "small":6,
    "us":6,
    "smoke":6,
    "maybe":6,
    "there":6,
    "more":6,
    "baby":6,
    "women":6,
    "wasnt":6,
    "been":7,
    "didnt":7,
    "whats":7,
    "isnt":7,
    "flight":7,
    "should":7,
    "speak":7,
    "russia":7,
    "now":7,
    "problems":7,
    "first":7,
    "has":7,
    "hes":7,
    "would":7,
    "fuck":7,
    "stop":7,
    "sex":7,
    "coffee":7,
    "really":8,
    "most":8,
    "some":8,
    "who":8,
    "an":8,
    "right":8,
    "ive":8,
    "too":8,
    "said":8,
    "yeah":8,
    "happy":8,
    "something":8,
    "nothing":8,
    "these":8,
    "down":8,
    "put":8,
    "talk":9,
    "one":9,
    "nadia":9,
    "look":9,
    "then":9,
    "does":9,
    "come":9,
    "bank":9,
    "leave":9,
    "hello":10,
    "out":10,
    "pretty":10,
    "about":10,
    "jesus":10,
    "will":10,
    "her":10,
    "cant":11,
    "understand":11,
    "thats":11,
    "mean":11,
    "please":11,
    "when":11,
    "why":11,
    "money":11,
    "up":11,
    "love":12,
    "course":12,
    "as":12,
    "oh":12,
    "thank":12,
    "must":12,
    "":12,
    "doing":12,
    "youre":12,
    "see":12,
    "going":13,
    "at":13,
    "did":13,
    "from":13,
    "very":13,
    "give":13,
    "they":14,
    "say":14,
    "well":14,
    "how":14,
    "or":14,
    "ill":14,
    "says":14,
    "got":15,
    "was":15,
    "get":16,
    "tell":16,
    "if":17,
    "okay":17,
    "she":17,
    "good":18,
    "be":18,
    "him":18,
    "all":19,
    "were":19,
    "just":19,
    "go":19,
    "my":19,
    "but":20,
    "on":20,
    "think":20,
    "like":21,
    "sorry":21,
    "want":21,
    "here":22,
    "with":23,
    "uh":24,
    "can":24,
    "your":26,
    "we":27,
    "yes":28,
    "that":29,
    "do":32,
    "not":33,
    "so":34,
    "know":35,
    "have":37,
    "are":37,
    "no":38,
    "john":39,
    "im":40,
    "dont":42,
    "me":42,
    "in":43,
    "this":43,
    "for":44,
    "of":46,
    "he":48,
    "and":57,
    "is":61,
    "its":62,
    "what":72,
    "it":75,
    "a":96,
    "the":98,
    "to":113,
    "i":165,
    "you":237
}