{
    "lift":1,
    "transmissions":1,
    "midnight":1,
    "comes":1,
    "hardest":1,
    "watchll":1,
    "mmmmmmmmmmmm":1,
    "nothing":1,
    "anger":1,
    "slap":1,
    "kind":1,
    "tongue":1,
    "heavenly":1,
    "father":1,
    "divine":1,
    "lies":1,
    "shadow":1,
    "surpasses":1,
    "amen":1,
    "mothers":1,
    "funeral":1,
    "pallbearer":1,
    "stayin":1,
    "coffeell":1,
    "weekend":1,
    "muthafucka":1,
    "sittin":1,
    "boughtcha":1,
    "grow":1,
    "dirt":1,
    "living":1,
    "mend":1,
    "drafty":1,
    "damned":1,
    "rusty":1,
    "burned":1,
    "passed":1,
    "warm":1,
    "twelve":1,
    "deserve":1,
    "bettern":1,
    "counselor":1,
    "forgive":1,
    "younger":1,
    "bleed":1,
    "bled":1,
    "woulda":1,
    "chopped":1,
    "asked":1,
    "askin":1,
    "trick":1,
    "neither":1,
    "hustle":1,
    "ballers":1,
    "sell":1,
    "whatd":1,
    "communications":1,
    "cards":1,
    "twoways":1,
    "technology":1,
    "niggaz":1,
    "ahead":1,
    "anyways":1,
    "drugs":1,
    "rednecks":1,
    "popping":1,
    "skittles":1,
    "sugar":1,
    "spoonful":1,
    "jackll":1,
    "eh":1,
    "bootie":1,
    "buckwild":1,
    "illest":1,
    "noon":1,
    "rebel":1,
    "cootch":1,
    "faggot":1,
    "drops":1,
    "condoms":1,
    "dressin":1,
    "vests":1,
    "ticket":1,
    "shipped":1,
    "assistance":1,
    "ten":1,
    "bags":1,
    "mulch":1,
    "mr":1,
    "tip":1,
    "storebought":1,
    "luther":1,
    "vandross":1,
    "dancin":1,
    "saturday":1,
    "bands":1,
    "kinds":1,
    "dance":1,
    "snakeskin":1,
    "york":1,
    "computer":1,
    "snakes":1,
    "north":1,
    "dye":1,
    "though":1,
    "boots":1,
    "cow":1,
    "music":1,
    "ol":1,
    "shakin":1,
    "girlfriends":1,
    "useta":1,
    "fingertips":1,
    "gotem":1,
    "peas":1,
    "strings":1,
    "mayella":1,
    "happenin":1,
    "ears":1,
    "blues":1,
    "lotta":1,
    "spread":1,
    "promise":1,
    "joint":1,
    "layin":1,
    "clean":1,
    "unexpected":1,
    "bo":1,
    "22":1,
    "tap":1,
    "able":1,
    "envy":1,
    "ship":1,
    "military":1,
    "career":1,
    "auto":1,
    "shop":1,
    "knoxville":1,
    "cars":1,
    "stubborn":1,
    "obligation":1,
    "duty":1,
    "buick":1,
    "dale":1,
    "purrs":1,
    "kitten":1,
    "nothings":1,
    "arabs":1,
    "themselves":1,
    "gourd":1,
    "waste":1,
    "waitin":1,
    "married":1,
    "punt":1,
    "fuckers":1,
    "chicks":1,
    "jello":1,
    "shots":1,
    "tennessee":1,
    "vols":1,
    "indoors":1,
    "florida":1,
    "state":1,
    "sonsa":1,
    "plays":1,
    "space":1,
    "block":1,
    "conner":1,
    "sack":1,
    "join":1,
    "chaser":1,
    "jess":1,
    "robotrippin":1,
    "eight":1,
    "packs":1,
    "dxm":1,
    "oxycontin":1,
    "coricidin":1,
    "outabody":1,
    "nall":1,
    "ronnies":1,
    "tomorrow":1,
    "halfway":1,
    "shoulders":1,
    "hi":1,
    "kicker":1,
    "kicking":1,
    "seem":1,
    "drove":1,
    "muddy":1,
    "hollow":1,
    "log":1,
    "angels":1,
    "above":1,
    "murder":1,
    "penitentiary":1,
    "caught":1,
    "cheating":1,
    "jes":1,
    "jesse":1,
    "ground":1,
    "upside":1,
    "feels":1,
    "earlier":1,
    "others":1,
    "handy":1,
    "nigger":1,
    "thinks":1,
    "player":1,
    "hustles":1,
    "dope":1,
    "hubcaps":1,
    "cock":1,
    "sees":1,
    "disgust":1,
    "laughin":1,
    "broken":1,
    "bottle":1,
    "preach":1,
    "cheek":1,
    "circumstances":1,
    "showing":1,
    "mmmmmmmmmm":1,
    "lady":1,
    "teh":1,
    "youve":1,
    "reached":1,
    "fisherville":1,
    "police":1,
    "department":1,
    "received":1,
    "emergency":1,
    "hang":1,
    "dial":1,
    "91":1,
    "ima":1,
    "chill":1,
    "hows":1,
    "year":1,
    "melvin":1,
    "soft":1,
    "wear":1,
    "standing":1,
    "most":1,
    "support":1,
    "extra":1,
    "sundays":1,
    "deep":1,
    "foa":1,
    "nooooo":1,
    "12":1,
    "pneumonia":1,
    "copied":1,
    "prescription":1,
    "finds":1,
    "card":1,
    "migraine":1,
    "tossed":1,
    "ago":1,
    "treated":1,
    "course":1,
    "less":1,
    "closed":1,
    "sunday":1,
    "t":1,
    "win":1,
    "weed":1,
    "fooled":1,
    "blond":1,
    "hair":1,
    "middle":1,
    "pimp":1,
    "doole":1,
    "sexy":1,
    "tail":1,
    "girls":1,
    "hasnt":1,
    "minute":1,
    "shell":1,
    "anyone":1,
    "deal":1,
    "itch":1,
    "scene":1,
    "favor":1,
    "collar":1,
    "hers":1,
    "hurtcha":1,
    "calm":1,
    "woods":1,
    "touch":1,
    "sno":1,
    "mmmmmmmmmmmmmmm":1,
    "n":1,
    "nyou":1,
    "s":1,
    "ifi":1,
    "givea":1,
    "spooked":1,
    "lord":1,
    "showed":1,
    "mercy":1,
    "lunatic":1,
    "sore":1,
    "vexed":1,
    "sores":1,
    "brought":1,
    "o":1,
    "hither":1,
    "rebuked":1,
    "cast":1,
    "grain":1,
    "mustard":1,
    "mountain":1,
    "remove":1,
    "hence":1,
    "impossible":1,
    "coolin":1,
    "nronnie":1,
    "travelin":1,
    "nooo":1,
    "noooooooooo":1,
    "until":1,
    "top":1,
    "went":1,
    "valley":1,
    "hooked":1,
    "16":1,
    "principal":1,
    "coach":1,
    "reynolds":1,
    "tapped":1,
    "bumpin":1,
    "hookin":1,
    "whoever":1,
    "fed":1,
    "park":1,
    "benches":1,
    "hoopty":1,
    "hoods":1,
    "nuhuh":1,
    "meanin":1,
    "team":1,
    "sweat":1,
    "football":1,
    "letter":1,
    "jacket":1,
    "lap":1,
    "writin":1,
    "john":1,
    "revelator":1,
    "book":1,
    "seven":1,
    "seals":1,
    "rush":1,
    "wheres":1,
    "fixin":1,
    "nawsir":1,
    "wits":1,
    "harms":1,
    "however":1,
    "runnin":1,
    "wild":1,
    "chasin":1,
    "chainin":1,
    "backs":1,
    "saved":1,
    "sos":1,
    "food":1,
    "swallows":1,
    "path":1,
    "wickedness":1,
    "pervert":1,
    "lip":1,
    "hoarse":1,
    "whose":1,
    "seat":1,
    "spent":1,
    "melted":1,
    "four":1,
    "ice":1,
    "trays":1,
    "wicked":1,
    "athat":1,
    "hitcha":1,
    "hmmmmmm":1,
    "hungry":1,
    "ache":1,
    "greens":1,
    "slow":1,
    "walkin":1,
    "mule":1,
    "mens":1,
    "organize":1,
    "conservation":1,
    "parts":1,
    "group":1,
    "farmers":1,
    "season":1,
    "theyd":1,
    "once":1,
    "fertilizer":1,
    "next":1,
    "plant":1,
    "soy":1,
    "sting":1,
    "itches":1,
    "means":1,
    "farmin":1,
    "13":1,
    "parable":1,
    "sower":1,
    "toss":1,
    "wayside":1,
    "fell":1,
    "thorns":1,
    "nature":1,
    "cause":1,
    "fools":1,
    "somebodys":1,
    "joins":1,
    "union":1,
    "sanctity":1,
    "degrade":1,
    "herself":1,
    "mans":1,
    "weak":1,
    "bloodbucket":1,
    "jukes":1,
    "gon":1,
    "respect":1,
    "bile":1,
    "tear":1,
    "nother":1,
    "bath":1,
    "fortune":1,
    "ourselves":1,
    "maes":1,
    "pantyhose":1,
    "hello":1,
    "choke":1,
    "horse":1,
    "womens":1,
    "proper":1,
    "hussy":1,
    "sir":1,
    "ladys":1,
    "rightcher":1,
    "easier":1,
    "swap":1,
    "sizes":1,
    "prefer":1,
    "scent":1,
    "bodies":1,
    "perfume":1,
    "scented":1,
    "moisturize":1,
    "womans":1,
    "favorite":1,
    "recommend":1,
    "applying":1,
    "damp":1,
    "perhaps":1,
    "jar":1,
    "basket":1,
    "goodies":1,
    "tomatoes":1,
    "okra":1,
    "appreciate":1,
    "cured":1,
    "very":1,
    "enjoy":1,
    "oooooo":1,
    "hush":1,
    "later":1,
    "honeydos":1,
    "red":1,
    "revrend":1,
    "spins":1,
    "barks":1,
    "slams":1,
    "james":1,
    "whys":1,
    "knees":1,
    "dove":1,
    "huntin":1,
    "foolin":1,
    "guns":1,
    "killa":1,
    "oughta":1,
    "pointing":1,
    "sheep":1,
    "flock":1,
    "poundin":1,
    "pulpit":1,
    "sucked":1,
    "nurse":1,
    "slapped":1,
    "figure":1,
    "wipe":1,
    "ought":1,
    "lords":1,
    "dead":1,
    "towns":1,
    "sinners":1,
    "ear":1,
    "crabs":1,
    "stds":1,
    "thinking":1,
    "wick":1,
    "sheriff":1,
    "yoself":1,
    "beaten":1,
    "law":1,
    "nearby":1,
    "expect":1,
    "girlll":1,
    "grasshopper":1,
    "alive":1,
    "braggin":1,
    "struck":1,
    "gold":1,
    "uncles":1,
    "barn":1,
    "weighed":1,
    "tons":1,
    "coulda":1,
    "shonuf":1,
    "responsible":1,
    "safe":1,
    "endin":1,
    "bleedin":1,
    "stitch":1,
    "clothing":1,
    "washed":1,
    "carry":1,
    "allyoucan":1,
    "buffet":1,
    "clouds":1,
    "pearly":1,
    "gates":1,
    "shoneys":1,
    "forgiveness":1,
    "messages":1,
    "station":1,
    "message":1,
    "downtown":1,
    "toward":1,
    "working":1,
    "virgin":1,
    "biscuits":1,
    "pop":1,
    "oven":1,
    "grillin":1,
    "hardcursin":1,
    "folk":1,
    "dress":1,
    "handlin":1,
    "restraint":1,
    "filth":1,
    "tune":1,
    "pass":1,
    "wonderful":1,
    "skipped":1,
    "lunch":1,
    "dig":1,
    "kick":1,
    "chef":1,
    "cayenne":1,
    "pepper":1,
    "marv":1,
    "names":1,
    "corps":1,
    "rid":1,
    "guard":1,
    "conduct":1,
    "discharge":1,
    "bcd":1,
    "brig":1,
    "wantin":1,
    "government":1,
    "administrative":1,
    "separation":1,
    "whoa":1,
    "talking":1,
    "tove":1,
    "somewhere":1,
    "folder":1,
    "tic":1,
    "ulcers":1,
    "target":1,
    "pro":1,
    "tag":1,
    "numbers":1,
    "noises":1,
    "shaky":1,
    "breath":1,
    "severe":1,
    "process":1,
    "sent":1,
    "anywhere":1,
    "somethins":1,
    "hitchin":1,
    "cleaned":1,
    "mixed":1,
    "lately":1,
    "history":1,
    "works":1,
    "grocery":1,
    "joined":1,
    "troop":1,
    "armyd":1,
    "degree":1,
    "agriculture":1,
    "slut":1,
    "stuck":1,
    "bitchs":1,
    "wouldnt":1,
    "person":1,
    "abused":1,
    "guts":1,
    "throwin":1,
    "choking":1,
    "grip":1,
    "faithful":1,
    "cunts":1,
    "drop":1,
    "keys":1,
    "hours":1,
    "aching":1,
    "anymore":1,
    "steal":1,
    "heap":1,
    "dealin":1,
    "unless":1,
    "sewing":1,
    "circles":1,
    "matter":1,
    "devilled":1,
    "whiskey":1,
    "straight":1,
    "freedom":1,
    "jokes":1,
    "joke":1,
    "anybody":1,
    "elses":1,
    "lived":1,
    "hurry":1,
    "kids":1,
    "chilren":1,
    "spring":1,
    "breasts":1,
    "swellin":1,
    "mornings":1,
    "heavin":1,
    "visit":1,
    "jackson":1,
    "glow":1,
    "sleepin":1,
    "pillow":1,
    "killin":1,
    "howlin":1,
    "haunted":1,
    "ailing":1,
    "pines":1,
    "moan":1,
    "nowmmmm":1,
    "nowits":1,
    "late":1,
    "singin":1,
    "roommmmm":1,
    "roomsome":1,
    "soon":1,
    "seeblack":1,
    "seewoke":1,
    "doozy":1,
    "helps":1,
    "stood":1,
    "passes":1,
    "loyal":1,
    "customers":1,
    "eatin":1,
    "princess":1,
    "picnic":1,
    "gazebo":1,
    "accident":1,
    "far":1,
    "daughter":1,
    "family":1,
    "needed":1,
    "clear":1,
    "difrent":1,
    "shits":1,
    "aisle":1,
    "5":1,
    "along":1,
    "pretend":1,
    "shout":1,
    "puttin":1,
    "fires":1,
    "waggin":1,
    "blame":1,
    "mad":1,
    "listenin":1,
    "parents":1,
    "having":1,
    "instead":1,
    "liar":1,
    "himoff":1,
    "singing":1,
    "mmhm":1,
    "mondays":1,
    "wednesdays":1,
    "shy":1,
    "wounded":1,
    "tried":1,
    "owls":1,
    "use":1,
    "band":1,
    "stick":1,
    "butterflies":1,
    "gut":1,
    "nail":1,
    "pissed":1,
    "walked":1,
    "jelly":1,
    "roll":1,
    "headache":1,
    "wise":1,
    "isnt":1,
    "fair":1,
    "arty":1,
    "piss":1,
    "moods":1,
    "vomit":1,
    "toilet":1,
    "anyway":1,
    "wasted":1,
    "messed":1,
    "star":1,
    "shoutin":1,
    "gotll":1,
    "control":1,
    "usually":1,
    "afraid":1,
    "learnt":1,
    "hangover":1,
    "early":1,
    "sun":1,
    "shining":1,
    "picture":1,
    "sleeping":1,
    "dreamed":1,
    "arms":1,
    "awoke":1,
    "mistaken":1,
    "hung":1,
    "cried":1,
    "niggers":1,
    "whore":1,
    "peach":1,
    "blast":1,
    "careful":1,
    "blow":1,
    "motherfucker":1,
    "green":1,
    "duck":1,
    "testing":1,
    "testin":1,
    "prove":1,
    "squeeze":1,
    "trigger":1,
    "scraps":1,
    "louder":1,
    "comeup":1,
    "acloud":1,
    "clapped":1,
    "thunder":1,
    "bam":1,
    "light":1,
    "brains":1,
    "stingin":1,
    "pointed":1,
    "paint":1,
    "shed":1,
    "patience":1,
    "children":1,
    "cowboys":1,
    "cops":1,
    "hate":1,
    "corner":1,
    "bumping":1,
    "dreamin":1,
    "plans":1,
    "tour":1,
    "chattanooga":1,
    "sissy":1,
    "spreads":1,
    "moves":1,
    "lower":1,
    "mostly":1,
    "everythingll":1,
    "normal":1,
    "feeling":1,
    "met":1,
    "else":1,
    "atcha":1,
    "nosey":1,
    "counter":1,
    "address":1,
    "syrup":1,
    "lied":1,
    "earful":1,
    "explain":1,
    "feelings":1,
    "trust":1,
    "knowin":1,
    "precious":1,
    "pinetop":1,
    "thatll":1,
    "miles":1,
    "22s":1,
    "worry":1,
    "pinks":1,
    "problem":1,
    "ridin":1,
    "generosity":1,
    "catch":1,
    "asks":1,
    "seriously":1,
    "honey":1,
    "tie":1,
    "turned":1,
    "mae":1,
    "ruined":1,
    "somehow":1,
    "reasoned":1,
    "became":1,
    "childish":1,
    "poor":1,
    "reflection":1,
    "part":1,
    "known":1,
    "three":1,
    "remain":1,
    "greatest":1,
    "carefully":1,
    "require":1,
    "charge":1,
    "presence":1,
    "loyalty":1,
    "avail":1,
    "foundation":1,
    "enduring":1,
    "human":1,
    "ties":1,
    "tender":1,
    "sacred":1,
    "assume":1,
    "solemn":1,
    "inviolate":1,
    "which":1,
    "establishing":1,
    "abide":1,
    "filled":1,
    "joy":1,
    "fucking":2,
    "beep":2,
    "wherever":2,
    "same":2,
    "fuss":2,
    "wonderin":2,
    "shake":2,
    "spirit":2,
    "understanding":2,
    "suit":2,
    "coffee":2,
    "order":2,
    "deke":2,
    "friend":2,
    "mobile":2,
    "job":2,
    "company":2,
    "fool":2,
    "speak":2,
    "friendly":2,
    "carryin":2,
    "foot":2,
    "heat":2,
    "legs":2,
    "hurtin":2,
    "piece":2,
    "curse":2,
    "ho":2,
    "played":2,
    "field":2,
    "crack":2,
    "stolen":2,
    "pills":2,
    "fits":2,
    "bitches":2,
    "skirt":2,
    "werent":2,
    "bag":2,
    "yours":2,
    "load":2,
    "wake":2,
    "mirror":2,
    "hard":2,
    "pickin":2,
    "pussy":2,
    "finish":2,
    "beer":2,
    "afternoon":2,
    "bullet":2,
    "hed":2,
    "ease":2,
    "bed":2,
    "cain":2,
    "slew":2,
    "mark":2,
    "witcha":2,
    "says":2,
    "wants":2,
    "knows":2,
    "happens":2,
    "fixed":2,
    "line":2,
    "fire":2,
    "blowin":2,
    "second":2,
    "spy":2,
    "satellites":2,
    "uhhuh":2,
    "dumb":2,
    "pound":2,
    "fun":2,
    "world":2,
    "game":2,
    "lose":2,
    "asleep":2,
    "bird":2,
    "feather":2,
    "because":2,
    "judge":2,
    "loved":2,
    "turnin":2,
    "tree":2,
    "bojo":2,
    "shame":2,
    "answer":2,
    "door":2,
    "knockin":2,
    "answered":2,
    "sleep":2,
    "damn":2,
    "squash":2,
    "gave":2,
    "angela":2,
    "uh":2,
    "doctor":2,
    "older":2,
    "sister":2,
    "pay":2,
    "wrote":2,
    "true":2,
    "holla":2,
    "cha":2,
    "private":2,
    "split":2,
    "pregnant":2,
    "spare":2,
    "snatch":2,
    "different":2,
    "sometimes":2,
    "sexual":2,
    "addiction":2,
    "harm":2,
    "mamuh":2,
    "hurtchu":2,
    "lettin":2,
    "fear":2,
    "healin":2,
    "faithless":2,
    "perverse":2,
    "generation":2,
    "unto":2,
    "nnnn":2,
    "hearin":2,
    "reach":2,
    "soul":2,
    "teachers":2,
    "trucks":2,
    "train":2,
    "fellas":2,
    "whos":2,
    "broke":2,
    "side":2,
    "itd":2,
    "aim":2,
    "dreams":2,
    "woke":2,
    "stand":2,
    "feet":2,
    "treat":2,
    "kitchen":2,
    "bathroom":2,
    "itll":2,
    "plenty":2,
    "yself":2,
    "bend":2,
    "hurts":2,
    "quit":2,
    "sofa":2,
    "tub":2,
    "locked":2,
    "foolishness":2,
    "hmmm":2,
    "stopit":2,
    "taste":2,
    "strong":2,
    "rotate":2,
    "corn":2,
    "nitrate":2,
    "keeps":2,
    "rock":2,
    "story":2,
    "land":2,
    "ruttin":2,
    "almighty":2,
    "sense":2,
    "learn":2,
    "tramp":2,
    "goes":2,
    "ella":2,
    "needin":2,
    "dresses":2,
    "size":2,
    "young":2,
    "makes":2,
    "whipped":2,
    "creams":2,
    "lotion":2,
    "ginger":2,
    "souffle":2,
    "cream":2,
    "shower":2,
    "fresh":2,
    "helping":2,
    "hot":2,
    "headin":2,
    "skies":2,
    "outside":2,
    "table":2,
    "britches":2,
    "made":2,
    "preachin":2,
    "turn":2,
    "stomp":2,
    "blood":2,
    "naked":2,
    "beat":2,
    "havent":2,
    "loves":2,
    "toe":2,
    "supper":2,
    "jump":2,
    "fault":2,
    "buddies":2,
    "cousin":2,
    "someones":2,
    "preacher":2,
    "gives":2,
    "interstate":2,
    "find":2,
    "potatoes":2,
    "boil":2,
    "yonder":2,
    "cook":2,
    "fightin":2,
    "eggs":2,
    "set":2,
    "herman":2,
    "chicken":2,
    "dinner":2,
    "adsep":2,
    "sound":2,
    "wed":2,
    "loud":2,
    "anxiety":2,
    "truck":2,
    "ride":2,
    "scared":2,
    "monkey":2,
    "talked":2,
    "terrible":2,
    "losin":2,
    "listened":2,
    "fit":2,
    "tied":2,
    "news":2,
    "liked":2,
    "held":2,
    "calls":2,
    "crawlin":2,
    "breathe":2,
    "nowhere":2,
    "watched":2,
    "forgives":2,
    "makeup":2,
    "mine":2,
    "week":2,
    "thatd":2,
    "choir":2,
    "balm":2,
    "gilead":2,
    "getchu":2,
    "drunk":2,
    "wall":2,
    "georgia":2,
    "pee":2,
    "feelin":2,
    "came":2,
    "cereal":2,
    "great":2,
    "test":2,
    "killer":2,
    "reason":2,
    "imagine":2,
    "does":2,
    "ways":2,
    "rules":2,
    "pull":2,
    "fully":2,
    "vows":2,
    "shot":3,
    "smoke":3,
    "bus":3,
    "watch":3,
    "plan":3,
    "strength":3,
    "fine":3,
    "leavin":3,
    "leave":3,
    "new":3,
    "livin":3,
    "happen":3,
    "marriage":3,
    "radiator":3,
    "church":3,
    "dry":3,
    "arm":3,
    "lay":3,
    "wasnt":3,
    "callin":3,
    "save":3,
    "fix":3,
    "rough":3,
    "swear":3,
    "kiss":3,
    "workin":3,
    "today":3,
    "yessir":3,
    "butter":3,
    "by":3,
    "used":3,
    "buy":3,
    "ball":3,
    "theyre":3,
    "guitar":3,
    "yet":3,
    "moren":3,
    "cure":3,
    "friends":3,
    "sit":3,
    "gods":3,
    "dirty":3,
    "together":3,
    "starts":3,
    "morning":3,
    "begged":3,
    "their":3,
    "practice":3,
    "those":3,
    "worse":3,
    "trying":3,
    "clothes":3,
    "yall":3,
    "fall":3,
    "youd":3,
    "bet":3,
    "playin":3,
    "mm":3,
    "rest":3,
    "outcha":3,
    "bring":3,
    "may":3,
    "hands":3,
    "number":3,
    "box":3,
    "shoulda":3,
    "white":3,
    "hook":3,
    "beatin":3,
    "wit":3,
    "dog":3,
    "sickness":3,
    "freak":3,
    "dick":3,
    "disciples":3,
    "suffer":3,
    "ye":3,
    "bit":3,
    "inside":3,
    "stay":3,
    "bitch":3,
    "fucked":3,
    "easy":3,
    "after":3,
    "spells":3,
    "found":3,
    "road":3,
    "someone":3,
    "whatever":3,
    "kinda":3,
    "growin":3,
    "shoot":3,
    "soil":3,
    "grown":3,
    "body":3,
    "brung":3,
    "special":3,
    "smell":3,
    "gray":3,
    "alone":3,
    "point":3,
    "gun":3,
    "being":3,
    "handling":3,
    "makin":3,
    "steaks":3,
    "keepin":3,
    "looks":3,
    "holy":3,
    "big":3,
    "stomach":3,
    "play":3,
    "taking":3,
    "couldnt":3,
    "stuff":3,
    "hole":3,
    "song":3,
    "lie":4,
    "stupid":4,
    "every":4,
    "believe":4,
    "business":4,
    "pray":4,
    "fore":4,
    "question":4,
    "last":4,
    "saw":4,
    "pretty":4,
    "kept":4,
    "years":4,
    "theys":4,
    "phone":4,
    "medicine":4,
    "already":4,
    "blue":4,
    "beans":4,
    "shoes":4,
    "whole":4,
    "till":4,
    "truth":4,
    "try":4,
    "brother":4,
    "end":4,
    "sin":4,
    "move":4,
    "an":4,
    "uncle":4,
    "lets":4,
    "everybody":4,
    "round":4,
    "mouth":4,
    "half":4,
    "under":4,
    "crop":4,
    "thank":4,
    "switch":4,
    "kid":4,
    "faith":4,
    "seed":4,
    "isokay":4,
    "hill":4,
    "stayed":4,
    "gettin":4,
    "men":4,
    "drink":4,
    "cut":4,
    "uhuh":4,
    "understand":4,
    "nice":4,
    "hope":4,
    "ones":4,
    "dammit":4,
    "evil":4,
    "really":4,
    "sharp":4,
    "handle":4,
    "school":4,
    "knew":4,
    "gill":4,
    "close":4,
    "nervous":4,
    "doing":4,
    "laid":5,
    "hand":5,
    "drinkin":5,
    "would":5,
    "times":5,
    "our":5,
    "water":5,
    "many":5,
    "ready":5,
    "none":5,
    "mornin":5,
    "naw":5,
    "junk":5,
    "niece":5,
    "em":5,
    "place":5,
    "happened":5,
    "tonight":5,
    "youll":5,
    "cool":5,
    "wife":5,
    "through":5,
    "took":5,
    "again":5,
    "nigga":5,
    "own":5,
    "tryin":5,
    "hes":5,
    "maam":5,
    "heaven":5,
    "sure":5,
    "ive":5,
    "heard":5,
    "sweet":5,
    "trouble":5,
    "crazy":5,
    "eye":5,
    "child":5,
    "break":5,
    "fever":5,
    "matthew":5,
    "voice":5,
    "while":5,
    "chained":5,
    "mess":5,
    "everything":5,
    "few":5,
    "kill":5,
    "women":5,
    "dear":5,
    "shut":5,
    "myself":5,
    "guess":5,
    "eat":5,
    "gone":5,
    "before":5,
    "care":5,
    "am":5,
    "miss":6,
    "goddammit":6,
    "even":6,
    "between":6,
    "lost":6,
    "both":6,
    "wont":6,
    "moved":6,
    "skin":6,
    "tellin":6,
    "lookin":6,
    "alright":6,
    "ever":6,
    "square":6,
    "best":6,
    "havin":6,
    "somebody":6,
    "yo":6,
    "peace":6,
    "funny":6,
    "heart":6,
    "open":6,
    "boys":6,
    "head":6,
    "wrong":6,
    "tehronne":6,
    "yes":6,
    "left":6,
    "anything":6,
    "word":6,
    "real":6,
    "listen":6,
    "die":6,
    "devil":6,
    "son":6,
    "shall":6,
    "enough":6,
    "comin":6,
    "another":6,
    "givin":6,
    "things":6,
    "yourself":6,
    "sing":6,
    "night":7,
    "other":7,
    "never":7,
    "start":7,
    "name":7,
    "remember":7,
    "old":7,
    "live":7,
    "since":7,
    "maybe":7,
    "daddy":7,
    "any":7,
    "should":7,
    "change":7,
    "lazarus":7,
    "lincoln":7,
    "from":7,
    "talkin":7,
    "outta":7,
    "hold":7,
    "ass":7,
    "run":7,
    "without":7,
    "huh":7,
    "face":7,
    "will":7,
    "mister":7,
    "bad":7,
    "happy":7,
    "first":7,
    "days":7,
    "lot":7,
    "work":8,
    "help":8,
    "thinkin":8,
    "were":8,
    "rl":8,
    "long":8,
    "money":8,
    "behind":8,
    "folks":8,
    "house":8,
    "cough":8,
    "hell":8,
    "gets":8,
    "wanted":8,
    "id":8,
    "youre":8,
    "thing":8,
    "where":8,
    "wait":8,
    "eyes":8,
    "chain":8,
    "theres":8,
    "bout":9,
    "each":9,
    "momma":9,
    "rose":9,
    "whatchu":9,
    "who":9,
    "nobody":9,
    "fuckin":9,
    "snake":9,
    "too":10,
    "day":10,
    "ask":10,
    "thought":10,
    "than":10,
    "sorry":10,
    "jesus":10,
    "town":10,
    "two":10,
    "shes":10,
    "still":11,
    "us":11,
    "whats":11,
    "told":11,
    "goon":11,
    "called":11,
    "much":11,
    "hurt":11,
    "always":11,
    "away":11,
    "boy":11,
    "way":11,
    "sick":12,
    "his":12,
    "into":12,
    "sayin":12,
    "goddamn":12,
    "little":12,
    "goin":12,
    "sunshine":12,
    "done":13,
    "hear":13,
    "over":13,
    "nothin":13,
    "doin":13,
    "black":13,
    "around":13,
    "yeah":14,
    "baby":14,
    "mmmm":14,
    "oh":14,
    "keep":14,
    "please":14,
    "said":14,
    "call":14,
    "ill":14,
    "look":15,
    "feel":15,
    "seen":15,
    "could":15,
    "as":15,
    "mind":16,
    "wanna":16,
    "girl":16,
    "fuck":16,
    "then":16,
    "why":17,
    "okay":17,
    "better":17,
    "home":17,
    "time":18,
    "there":18,
    "people":18,
    "stop":18,
    "hey":18,
    "down":18,
    "cuz":18,
    "woman":19,
    "god":19,
    "give":19,
    "only":19,
    "did":19,
    "mean":19,
    "talk":20,
    "had":20,
    "put":20,
    "have":21,
    "make":21,
    "tell":21,
    "them":21,
    "somethin":22,
    "these":22,
    "right":23,
    "off":23,
    "him":23,
    "more":23,
    "let":23,
    "didnt":24,
    "back":24,
    "one":24,
    "life":24,
    "gal":24,
    "ronnie":25,
    "love":26,
    "man":26,
    "cant":26,
    "out":26,
    "are":28,
    "rae":29,
    "see":29,
    "well":29,
    "or":29,
    "good":29,
    "take":29,
    "when":32,
    "its":32,
    "gotta":33,
    "at":33,
    "they":33,
    "want":33,
    "come":34,
    "thats":35,
    "need":36,
    "laz":36,
    "been":36,
    "so":37,
    "here":38,
    "was":39,
    "about":40,
    "think":40,
    "some":41,
    "shit":43,
    "he":43,
    "can":44,
    "if":45,
    "not":47,
    "say":48,
    "how":51,
    "go":52,
    "we":54,
    "be":54,
    "all":54,
    "her":57,
    "ya":57,
    "now":60,
    "no":60,
    "with":61,
    "but":66,
    "is":69,
    "your":70,
    "up":70,
    "she":70,
    "aint":72,
    "for":78,
    "what":78,
    "do":83,
    "im":83,
    "of":84,
    "get":86,
    "dont":88,
    "know":88,
    "just":98,
    "gonna":104,
    "like":105,
    "got":106,
    "on":109,
    "this":116,
    "my":134,
    "in":141,
    "it":153,
    "that":156,
    "and":165,
    "the":183,
    "me":195,
    "a":207,
    "to":227,
    "i":381,
    "you":576
}