{
    "reputation":1,
    "respective":1,
    "records":1,
    "pat":1,
    "4342":1,
    "heavyweight":1,
    "formerly":1,
    "attraction":1,
    "legion":1,
    "stadium":1,
    "3600":1,
    "ranked":1,
    "ring":1,
    "magazine":1,
    "1937":1,
    "noname":1,
    "opponents":1,
    "nomansland":1,
    "jarheads":1,
    "beatin":1,
    "habla":1,
    "ingles":1,
    "ninth":1,
    "felon":1,
    "sucking":1,
    "gas":1,
    "wets":1,
    "wangle":1,
    "stumblebums":1,
    "handpicked":1,
    "olympic":1,
    "whatta":1,
    "yep":1,
    "canal":1,
    "zone":1,
    "nothin":1,
    "skeeter":1,
    "bites":1,
    "drunk":1,
    "somethin":1,
    "tommy":1,
    "toppin":1,
    "retirement":1,
    "felony":1,
    "das":1,
    "fill":1,
    "buckaroo":1,
    "coat":1,
    "tie":1,
    "romance":1,
    "mileage":1,
    "diem":1,
    "civilian":1,
    "winos":1,
    "wienie":1,
    "waggers":1,
    "midnight":1,
    "mission":1,
    "gentlemen":1,
    "thad":1,
    "aloud":1,
    "sundays":1,
    "angels":1,
    "graced":1,
    "born":1,
    "raised":1,
    "scant":1,
    "miles":1,
    "apart":1,
    "pugilists":1,
    "styles":1,
    "different":1,
    "bowlegged":1,
    "windmill":1,
    "leather":1,
    "slinger":1,
    "each":1,
    "spirit":1,
    "los":1,
    "angeles":1,
    "cracked":1,
    "baffling":1,
    "boulevardcitizens":1,
    "robbery":1,
    "1939":1,
    "thrillkiller":1,
    "dos":1,
    "santos":1,
    "distinction":1,
    "zoot":1,
    "wars":1,
    "sacrifices":1,
    "thingvote":1,
    "proposal":1,
    "upgrade":1,
    "lapds":1,
    "equipment":1,
    "provide":1,
    "percent":1,
    "personnel":1,
    "examples":1,
    "vote":1,
    "prop":1,
    "bs":1,
    "drum":1,
    "47":1,
    "morale":1,
    "impress":1,
    "gym":1,
    "gate":1,
    "interdivisional":1,
    "uh":1,
    "fan":1,
    "drag":1,
    "somme":1,
    "smokers":1,
    "vegetable":1,
    "shuffle":1,
    "happy":1,
    "gather":1,
    "win":1,
    "moral":1,
    "ridiculed":1,
    "perpetrating":1,
    "financial":1,
    "wins":1,
    "aesthetic":1,
    "shirts":1,
    "77th":1,
    "tapped":1,
    "official":1,
    "bookmaker":1,
    "3":1,
    "favorite":1,
    "guten":1,
    "tag":1,
    "speak":1,
    "english":1,
    "englisch":1,
    "amerikan":1,
    "speakenglish":1,
    "stroke":1,
    "soa":1,
    "easier":1,
    "soim":1,
    "bettern":1,
    "bettin":1,
    "knockout":1,
    "dragnas":1,
    "background":1,
    "turned":1,
    "germanamerican":1,
    "bund":1,
    "membership":1,
    "pressured":1,
    "fbi":1,
    "goons":1,
    "patriotism":1,
    "alien":1,
    "sam":1,
    "murakawa":1,
    "grown":1,
    "secure":1,
    "appointment":1,
    "sammy":1,
    "manzanar":1,
    "fit":1,
    "snitchs":1,
    "jacket":1,
    "alteration":1,
    "easily":1,
    "shirt":1,
    "ended":1,
    "degree":1,
    "masters":1,
    "educations":1,
    "expensive":1,
    "shouldnt":1,
    "animals":1,
    "saving":1,
    "rita":1,
    "hayworth":1,
    "wondering":1,
    "shackings":1,
    "stripe":1,
    "heist":1,
    "snitches":1,
    "fingered":1,
    "greasy":1,
    "yard":1,
    "behind":1,
    "harrells":1,
    "hibernating":1,
    "bunco":1,
    "et":1,
    "cetera":1,
    "enjoyed":1,
    "ovation":1,
    "kids":1,
    "yyyyes":1,
    "thththanks":1,
    "bb":1,
    "patrons":1,
    "smarter":1,
    "blow":1,
    "ready":1,
    "benny":1,
    "contract":1,
    "jew":1,
    "syndicate":1,
    "muster":1,
    "maynard":1,
    "colemans":1,
    "recognized":1,
    "fence":1,
    "tends":1,
    "albanese":1,
    "versailles":1,
    "apartments":1,
    "st":1,
    "andrews":1,
    "arrest":1,
    "kiddie":1,
    "porks":1,
    "burglaries":1,
    "commendations":1,
    "loves":1,
    "lieutenants":1,
    "kike":1,
    "cmon":1,
    "pot":1,
    "roast":1,
    "upset":1,
    "takin":1,
    "bribes":1,
    "stash":1,
    "toastto":1,
    "bigger":1,
    "louisschmeling":1,
    "tous":1,
    "politics":1,
    "quote":1,
    "itself":1,
    "news":1,
    "actin":1,
    "uppity":1,
    "witnesses":1,
    "stickup":1,
    "weekend":1,
    "pistol":1,
    "whipped":1,
    "common":1,
    "negro":1,
    "complainants":1,
    "seeya":1,
    "total":1,
    "felons":1,
    "traffic":1,
    "warrantees":1,
    "probation":1,
    "absconders":1,
    "tours":1,
    "flick":1,
    "tour":1,
    "stuffs":1,
    "favors":1,
    "shacking":1,
    "poon":1,
    "crib":1,
    "slauson":1,
    "hoover":1,
    "hopheads":1,
    "shake":1,
    "theblanchard":1,
    "duck":1,
    "busted":1,
    "loitering":1,
    "sort":1,
    "baby":1,
    "edge":1,
    "swore":1,
    "rise":1,
    "shine":1,
    "mulholland":1,
    "coliseum":1,
    "okie":1,
    "sears":1,
    "kibosh":1,
    "disemboweled":1,
    "information":1,
    "yourselves":1,
    "wives":1,
    "girlfriends":1,
    "renting":1,
    "premises":1,
    "labll":1,
    "judge":1,
    "warrantee":1,
    "ours":1,
    "screams":1,
    "discarding":1,
    "womens":1,
    "clothing":1,
    "bureau":1,
    "passing":1,
    "showcase":1,
    "aplus":1,
    "reporters":1,
    "heinous":1,
    "nature":1,
    "imperative":1,
    "fiend":1,
    "specially":1,
    "trained":1,
    "detached":1,
    "slow":1,
    "memo":1,
    "jurisdiction":1,
    "stands":1,
    "staked":1,
    "gross":1,
    "caucasian":1,
    "cadaver":1,
    "presented":1,
    "halves":1,
    "umbilicus":1,
    "itall":1,
    "smoke":1,
    "bingo":1,
    "raped":1,
    "dried":1,
    "semen":1,
    "indicates":1,
    "voluntary":1,
    "intercourse":1,
    "weekshe":1,
    "gentle":1,
    "whipping":1,
    "daysin":1,
    "terms":1,
    "nittygrittyshe":1,
    "fortyeight":1,
    "wound":1,
    "beaten":1,
    "baseball":1,
    "bat":1,
    "insides":1,
    "drained":1,
    "washed":1,
    "bathtub":1,
    "medicine":1,
    "anatomy":1,
    "typebut":1,
    "veterinary":1,
    "biological":1,
    "beginners":1,
    "class":1,
    "ucla":1,
    "russell":1,
    "balls":1,
    "frederick":1,
    "newbarr":1,
    "md":1,
    "jumper":1,
    "popped":1,
    "underage":1,
    "drinking":1,
    "divorced":1,
    "portrait":1,
    "photos":1,
    "double":1,
    "press":1,
    "excited":1,
    "purple":1,
    "fits":1,
    "crime":1,
    "hindrance":1,
    "victims":1,
    "loss":1,
    "neither":1,
    "youda":1,
    "lasted":1,
    "jim":1,
    "jeffries":1,
    "cest":1,
    "vie":1,
    "tune":1,
    "piper":1,
    "anxious":1,
    "seven":1,
    "refrigerator":1,
    "repairman":1,
    "twentyseven":1,
    "overtime":1,
    "tighter":1,
    "west":1,
    "stars":1,
    "squares":1,
    "fivespot":1,
    "tidy":1,
    "soldier":1,
    "boyfriend":1,
    "wearing":1,
    "quantity":1,
    "tramp":1,
    "daughters":1,
    "apple":1,
    "butjust":1,
    "paraded":1,
    "getups":1,
    "hers":1,
    "handed":1,
    "entire":1,
    "armed":1,
    "suspects":1,
    "flip":1,
    "staking":1,
    "drivebys":1,
    "sight":1,
    "drop":1,
    "stomps":1,
    "tread":1,
    "lightly":1,
    "guesslees":1,
    "benzedrine":1,
    "againworking":1,
    "cautious":1,
    "hardcase":1,
    "justhes":1,
    "storage":1,
    "railway":1,
    "mash":1,
    "hundreds":1,
    "bevo":1,
    "means":1,
    "bevos":1,
    "alan":1,
    "ladd":1,
    "triple":1,
    "dice":1,
    "residences":1,
    "university":1,
    "leash":1,
    "write":1,
    "billys":1,
    "illiterate":1,
    "usually":1,
    "saddon":1,
    "rko":1,
    "jaywalking":1,
    "due":1,
    "dawn":1,
    "bust":1,
    "reefer":1,
    "flushed":1,
    "delongpre":1,
    "orange":1,
    "problem":1,
    "enemies":1,
    "gathered":1,
    "subject":1,
    "finance":1,
    "congratulations":1,
    "bragging":1,
    "breakhad":1,
    "viewfinders":1,
    "neck":1,
    "tendency":1,
    "stretch":1,
    "rides":1,
    "whatd":1,
    "thisll":1,
    "dunno":1,
    "engaged":1,
    "prostitution":1,
    "gift":1,
    "pleasea":1,
    "become":1,
    "youbut":1,
    "wasntshe":1,
    "sometime":1,
    "costarring":1,
    "role":1,
    "fox":1,
    "paramount":1,
    "fibbing":1,
    "don":1,
    "haroldsitting":1,
    "thati":1,
    "justdidnt":1,
    "attention":1,
    "wellright":1,
    "outl":1,
    "martintalking":1,
    "older":1,
    "hair":1,
    "manonly":1,
    "stiff":1,
    "peddled":1,
    "twat":1,
    "strapped":1,
    "zipped":1,
    "statements":1,
    "godshes":1,
    "omaha":1,
    "runaway":1,
    "whend":1,
    "couldnt":1,
    "sherlock":1,
    "bethelizabeth":1,
    "relax":1,
    "prerogative":1,
    "issued":1,
    "aka":1,
    "wrote":1,
    "omitting":1,
    "marjorie":1,
    "grahams":1,
    "quashing":1,
    "skinny":1,
    "parttime":1,
    "prostie":1,
    "random":1,
    "horseshit":1,
    "thishated":1,
    "premed":1,
    "dwights":1,
    "listen":1,
    "babes":1,
    "ideas":1,
    "theorizings":1,
    "nonsense":1,
    "teach":1,
    "killers":1,
    "torture":1,
    "cuts":1,
    "crude":1,
    "cut":1,
    "abdomen":1,
    "neat":1,
    "til":1,
    "administrative":1,
    "beverage":1,
    "cept":1,
    "schoolgirl":1,
    "twist":1,
    "underaged":1,
    "slap":1,
    "contributing":1,
    "beef":1,
    "servin":1,
    "raisinjack":1,
    "bulldykes":1,
    "tehachapi":1,
    "interrupt":1,
    "broadcast":1,
    "major":1,
    "investigation":1,
    "ravenhaired":1,
    "huntington":1,
    "hardware":1,
    "salesman":1,
    "currently":1,
    "hollenback":1,
    "puts":1,
    "tan":1,
    "dodge":1,
    "partial":1,
    "plate":1,
    "ident":1,
    "crosscheck":1,
    "matched":1,
    "robert":1,
    "forward":1,
    "chip":1,
    "slowdanced":1,
    "wantedto":1,
    "test":1,
    "loyalty":1,
    "cockteased":1,
    "period":1,
    "child":1,
    "veteran":1,
    "angry":1,
    "drove":1,
    "ondecember":1,
    "hotel":1,
    "earth":1,
    "mickey":1,
    "slept":1,
    "chemistry":1,
    "learn":1,
    "interesting":1,
    "keeps":1,
    "russs":1,
    "actual":1,
    "hitting":1,
    "fresh":1,
    "gash":1,
    "strong":1,
    "rag":1,
    "final":1,
    "straw":1,
    "bleed":1,
    "plied":1,
    "corporal":1,
    "willing":1,
    "toolshed":1,
    "warehouses":1,
    "ford":1,
    "plant":1,
    "picorivera":1,
    "twine":1,
    "lots":1,
    "cutting":1,
    "hardon":1,
    "reddy":1,
    "mommy":1,
    "spanked":1,
    "evil":1,
    "soldiers":1,
    "trombone":1,
    "hates":1,
    "liars":1,
    "lord":1,
    "shepherd":1,
    "shall":1,
    "canvass":1,
    "reconstructing":1,
    "snatched":1,
    "run":1,
    "outright":1,
    "kiboshed":1,
    "grandstanding":1,
    "brighter":1,
    "pennies":1,
    "eliminate":1,
    "phonies":1,
    "sheet":1,
    "minions":1,
    "coerce":1,
    "innocent":1,
    "holding":1,
    "barflies":1,
    "daytime":1,
    "juicersthe":1,
    "longer":1,
    "listened":1,
    "interweaving":1,
    "glamorous":1,
    "siren":1,
    "stardom":1,
    "insane":1,
    "everythingand":1,
    "rent":1,
    "misdemeanors":1,
    "gutless":1,
    "slumming":1,
    "am":1,
    "spying":1,
    "fluke":1,
    "meal":1,
    "lounge":1,
    "chitchat":1,
    "ye":1,
    "rabbit":1,
    "beach":1,
    "imagine":1,
    "tycoons":1,
    "caseplayed":1,
    "footsie":1,
    "nightclub":1,
    "picture":1,
    "technicolor":1,
    "boring":1,
    "hicktown":1,
    "wherever":1,
    "latest":1,
    "screen":1,
    "dreams":1,
    "yards":1,
    "specific":1,
    "conversational":1,
    "cute":1,
    "volunteer":1,
    "ahead":1,
    "laguna":1,
    "thursday":1,
    "livein":1,
    "servants":1,
    "verification":1,
    "discreet":1,
    "ah":1,
    "laddies":1,
    "oclock":1,
    "482":1,
    "muirfield":1,
    "efficient":1,
    "soyou":1,
    "smooth":1,
    "rented":1,
    "chump":1,
    "lean":1,
    "logged":1,
    "fortysix":1,
    "tips":1,
    "reasonably":1,
    "dodging":1,
    "stuck":1,
    "summary":1,
    "concerned":1,
    "numerous":1,
    "bogus":1,
    "gut":1,
    "certain":1,
    "boston":1,
    "massachusetts":1,
    "rome":1,
    "insisted":1,
    "exhibit":1,
    "stanley":1,
    "roses":1,
    "bookshop":1,
    "pump":1,
    "everybody":1,
    "august":1,
    "1926":1,
    "bringing":1,
    "accountant":1,
    "consecrate":1,
    "moment":1,
    "cathcart":1,
    "mcconville":1,
    "pleasure":1,
    "sanchez":1,
    "boxed":1,
    "conn":1,
    "overdose":1,
    "shamed":1,
    "speaking":1,
    "families":1,
    "ninethirty":1,
    "dig":1,
    "fare":1,
    "haute":1,
    "cuisine":1,
    "degenerates":1,
    "caricaturing":1,
    "maddys":1,
    "certified":1,
    "genius":1,
    "german":1,
    "germans":1,
    "hitler":1,
    "excessive":1,
    "mark":1,
    "words":1,
    "regret":1,
    "joining":1,
    "reds":1,
    "countrymen":1,
    "hallway":1,
    "realistic":1,
    "stuffed":1,
    "scots":1,
    "regiment":1,
    "1920":1,
    "cow":1,
    "pasture":1,
    "silent":1,
    "booming":1,
    "lighting":1,
    "uphollywoodland":1,
    "underneath":1,
    "godawful":1,
    "sign":1,
    "kops":1,
    "squeeze":1,
    "dry":1,
    "moonlighting":1,
    "laborers":1,
    "versa":1,
    "twelve":1,
    "flicker":1,
    "torchlight":1,
    "assistant":1,
    "credit":1,
    "grateful":1,
    "squeezed":1,
    "slaves":1,
    "influence":1,
    "zoning":1,
    "manage":1,
    "deadend":1,
    "lincoln":1,
    "heights":1,
    "familiar":1,
    "neighborhood":1,
    "grew":1,
    "prostitutes":1,
    "windows":1,
    "attract":1,
    "customers":1,
    "sosorry":1,
    "donttheyre":1,
    "announce":1,
    "wedding":1,
    "hypocrite":1,
    "pills":1,
    "hophead":1,
    "rotten":1,
    "lumber":1,
    "facades":1,
    "firetraps":1,
    "registered":1,
    "corporationshis":1,
    "disfigured":1,
    "crash":1,
    "errands":1,
    "throws":1,
    "scraps":1,
    "nowodd":1,
    "jobs":1,
    "tending":1,
    "rental":1,
    "barhopping":1,
    "bars":1,
    "curious":1,
    "lookalike":1,
    "prepared":1,
    "combing":1,
    "info":1,
    "worked":1,
    "free":1,
    "described":1,
    "sounded":1,
    "natural":1,
    "hmmmshe":1,
    "girlcame":1,
    "nothingbut":1,
    "knowwhen":1,
    "romanticize":1,
    "emancipated":1,
    "minor":1,
    "matron":1,
    "sue":1,
    "mistermymy":1,
    "recall":1,
    "pickups":1,
    "harm":1,
    "casting":1,
    "itsa":1,
    "sweetheart":1,
    "wascadging":1,
    "raoul":1,
    "jorge":1,
    "desperate":1,
    "wicked":1,
    "act":1,
    "nudie":1,
    "bettyafter":1,
    "bettyi":1,
    "conned":1,
    "aviation":1,
    "somewhere":1,
    "thoughti":1,
    "wasa":1,
    "collectors":1,
    "item":1,
    "willingly":1,
    "copy":1,
    "covering":1,
    "sound":1,
    "detach":1,
    "meg":1,
    "caulfield":1,
    "clerical":1,
    "cellmate":1,
    "hall":1,
    "killer":1,
    "scouts":1,
    "less":1,
    "gotten":1,
    "personally":1,
    "involved":1,
    "0800":1,
    "letters":1,
    "apology":1,
    "horrall":1,
    "pension":1,
    "suggest":1,
    "grovel":1,
    "skating":1,
    "radio":1,
    "noshows":1,
    "arrow":1,
    "apartment":1,
    "11":1,
    "smile":1,
    "picked":1,
    "noteleaving":1,
    "fair":1,
    "sugar":1,
    "swear":1,
    "units":1,
    "crenshaw":1,
    "stocker":1,
    "raymond":1,
    "douglas":1,
    "wall":1,
    "losing":1,
    "sprained":1,
    "wrist":1,
    "dislocated":1,
    "knuckles":1,
    "notorious":1,
    "guns":1,
    "peoplethats":1,
    "scary":1,
    "peddlersdouble":1,
    "border":1,
    "spotted":1,
    "hobnobbing":1,
    "bunch":1,
    "roughlooking":1,
    "rosa":1,
    "depot":1,
    "slip":1,
    "walter":1,
    "copped":1,
    "making":1,
    "provided":1,
    "frameup":1,
    "circus":1,
    "becoming":1,
    "pic":1,
    "heart":1,
    "heavyweights":1,
    "american":1,
    "il":1,
    "flush":1,
    "q":1,
    "goddamned":1,
    "ratinfested":1,
    "country":1,
    "profanity":1,
    "o":1,
    "manieschewitz":1,
    "laugh":1,
    "flapped":1,
    "trap":1,
    "thinkin":1,
    "cellies":1,
    "niggers":1,
    "fellow":1,
    "syphilitic":1,
    "defaming":1,
    "risked":1,
    "violation":1,
    "cunt":1,
    "trafficker":1,
    "laundry":1,
    "sliced":1,
    "spent":1,
    "internal":1,
    "affairs":1,
    "themeverything":1,
    "muchand":1,
    "teaching":1,
    "grade":1,
    "fairfax":1,
    "producer":1,
    "tracking":1,
    "herthrough":1,
    "files":1,
    "collected":1,
    "strangers":1,
    "recollections":1,
    "leading":1,
    "throw":1,
    "trick":1,
    "doughbut":1,
    "deeper":1,
    "understood":1,
    "worth":1,
    "side":1,
    "yaone":1,
    "wake":1,
    "killerangry":1,
    "noplease":1,
    "few":1,
    "walking":1,
    "harder":1,
    "pathfearpainlossfew":1,
    "waking":1,
    "richard":1,
    "list":1,
    "harrys":1,
    "retiring":1,
    "spell":1,
    "fun":1,
    "moves":1,
    "pages":1,
    "arrested":1,
    "mexicans":1,
    "juarez":1,
    "must":1,
    "relieved":1,
    "rescinded":1,
    "normal":1,
    "retires":1,
    "raw":1,
    "type":1,
    "theyre":1,
    "violent":1,
    "frothingatthe":1,
    "lunatics":1,
    "reintegrated":1,
    "bills":1,
    "enamored":1,
    "violence":1,
    "inside":1,
    "stripes":1,
    "shitwork":1,
    "patient":1,
    "forbearing":1,
    "sheets":1,
    "hateloren":1,
    "bidwell":1,
    "atascadero":1,
    "falls":1,
    "aggravated":1,
    "sexual":1,
    "assault":1,
    "minors":1,
    "prison":1,
    "jolts":1,
    "crimes":1,
    "confessor":1,
    "specializing":1,
    "copping":1,
    "hooker":1,
    "procuring":1,
    "netted":1,
    "ninety":1,
    "observation":1,
    "stints":1,
    "camarillo":1,
    "nut":1,
    "query":1,
    "bucko":1,
    "pops":1,
    "timid":1,
    "bird":1,
    "hog":1,
    "pop":1,
    "honor":1,
    "hots":1,
    "cot":1,
    "tracy":1,
    "gangbusters":1,
    "mama":1,
    "apologize":1,
    "icant":1,
    "sosweet":1,
    "felt":1,
    "hop":1,
    "nasty":1,
    "glove":1,
    "routines":1,
    "idontknowanything":1,
    "east":1,
    "5th":1,
    "main":1,
    "stanford":1,
    "banks":1,
    "liquor":1,
    "stores":1,
    "selling":1,
    "pints":1,
    "dogs":1,
    "exclusively":1,
    "centanight":1,
    "flophouses":1,
    "derelict":1,
    "missions":1,
    "banished":1,
    "dared":1,
    "twentytwo":1,
    "citys":1,
    "attorney":1,
    "confined":1,
    "determined":1,
    "shifts":1,
    "worst":1,
    "foot":1,
    "dwindled":1,
    "zero":1,
    "except":1,
    "returned":1,
    "assignments":1,
    "contain":1,
    "interests":1,
    "walls":1,
    "okayliz":1,
    "refer":1,
    "nope":1,
    "nnno":1,
    "occurred":1,
    "crooks":1,
    "sellin":1,
    "tipoffs":1,
    "nailed":1,
    "testify":1,
    "burns":1,
    "businesswhy":1,
    "connection":1,
    "pimped":1,
    "outto":1,
    "servicemen":1,
    "sally":1,
    "stick":1,
    "mewhat":1,
    "swingwatch":1,
    "harryll":1,
    "poke":1,
    "cool":1,
    "temper":1,
    "patience":1,
    "fish":1,
    "wriggle":1,
    "extorting":1,
    "criminals":1,
    "bracing":1,
    "johnsmaybe":1,
    "himselfno":1,
    "blabbed":1,
    "tricks":1,
    "overheard":1,
    "confident":1,
    "1546":1,
    "north":1,
    "havenhurst":1,
    "comes":1,
    "territory":1,
    "union":1,
    "dues":1,
    "operators":1,
    "license":1,
    "fullday":1,
    "cnote":1,
    "givin":1,
    "schnitzelmore":1,
    "frank":1,
    "itwell":1,
    "screw":1,
    "afternoongo":1,
    "lobby":1,
    "sittin":1,
    "hooked":1,
    "conventioneers":1,
    "lemme":1,
    "faking":1,
    "virtuoso":1,
    "award":1,
    "porn":1,
    "gooood":1,
    "unusual":1,
    "kinky":1,
    "toyshe":1,
    "havewhipped":1,
    "saidshe":1,
    "schnitzel":1,
    "daysafterliz":1,
    "confesses":1,
    "anyways":1,
    "v":1,
    "whether":1,
    "caps":1,
    "priestwatch":1,
    "bubblesi":1,
    "shoulda":1,
    "cherrynever":1,
    "kink":1,
    "civvies":1,
    "pentothals":1,
    "method":1,
    "loot":1,
    "g":1,
    "fiftytwo":1,
    "uhmmm":1,
    "sixtyeight":1,
    "focus":1,
    "friedrich":1,
    "hoooer":1,
    "rate":1,
    "dickthis":1,
    "methe":1,
    "hooer":1,
    "weplayed":1,
    "schnitz":1,
    "whip":1,
    "slice":1,
    "rightdo":1,
    "daddywent":1,
    "ellisto":1,
    "releasedbut":1,
    "nodaddy":1,
    "morgue":1,
    "owed":1,
    "doa":1,
    "coozedaddy":1,
    "uncle":1,
    "jelly":1,
    "statement":1,
    "signed":1,
    "legal":1,
    "shithouse":1,
    "commentno":1,
    "comment":1,
    "extortion":1,
    "commanders":1,
    "immediately":1,
    "vacation":1,
    "return":1,
    "reassign":1,
    "francisco":1,
    "repaid":1,
    "glory":1,
    "howi":1,
    "headshakes":1,
    "bullshit":1,
    "broadsides":1,
    "series":1,
    "rang":1,
    "blanco":1,
    "explosivo":1,
    "rollers":1,
    "doublesaws":1,
    "peeled":1,
    "large":1,
    "donating":1,
    "200":1,
    "leper":1,
    "ministry":1,
    "decided":1,
    "wise":1,
    "law":1,
    "citizenry":1,
    "however":1,
    "waiting":1,
    "willie":1,
    "pep":1,
    "rains":1,
    "february":1,
    "musta":1,
    "feathers":1,
    "middies":1,
    "motta":1,
    "graziano":1,
    "shitload":1,
    "caused":1,
    "ruckus":1,
    "club":1,
    "satan":1,
    "bribe":1,
    "cook":1,
    "kosher":1,
    "wan":1,
    "handsome":1,
    "breakfast":1,
    "champions":1,
    "vamanos":1,
    "fourteen":1,
    "shots":1,
    "mescal":1,
    "record":1,
    "toasts":1,
    "women":1,
    "donkey":1,
    "fifth":1,
    "finito":1,
    "whoa":1,
    "follow":1,
    "vested":1,
    "interest":1,
    "finding":1,
    "chubby":1,
    "tons":1,
    "dressed":1,
    "nines":1,
    "offers":1,
    "gringo":1,
    "senoritarurales":1,
    "paying":1,
    "protection":1,
    "dough":1,
    "rurale":1,
    "coupla":1,
    "tellin":1,
    "delores":1,
    "garcia":1,
    "obviously":1,
    "bimbos":1,
    "offin":1,
    "flashing":1,
    "bullet":1,
    "cabeza":1,
    "rumor":1,
    "locals":1,
    "lit":1,
    "lotta":1,
    "relatives":1,
    "shovel":1,
    "gardening":1,
    "bannero":1,
    "sailor":1,
    "lived":1,
    "sin":1,
    "forced":1,
    "choose":1,
    "passion":1,
    "veneer":1,
    "bandaid":1,
    "fractured":1,
    "vows":1,
    "results":1,
    "1948":1,
    "republican":1,
    "finaljohn":1,
    "dougdale":1,
    "trouncing":1,
    "64":1,
    "36in":1,
    "primaries":1,
    "reminds":1,
    "floorboards":1,
    "closet":1,
    "lovely":1,
    "hancock":1,
    "accepted":1,
    "lab":1,
    "dining":1,
    "rope":1,
    "excuse":1,
    "garden":1,
    "survivors":1,
    "twentyone":1,
    "twentythree":1,
    "cleans":1,
    "pure":1,
    "ammonia":1,
    "consider":1,
    "brief":1,
    "encounter":1,
    "routine":1,
    "depressed":1,
    "failing":1,
    "health":1,
    "burden":1,
    "moneyll":1,
    "wonder":1,
    "mystery":1,
    "fiance":1,
    "matt":1,
    "durand":1,
    "battalion":1,
    "commander":1,
    "hadthe":1,
    "fiercest":1,
    "deep":1,
    "fishing":1,
    "boat":1,
    "whatre":1,
    "imlooking":1,
    "hammer":1,
    "ben":1,
    "mehow":1,
    "razor":1,
    "mepimped":1,
    "figured":1,
    "framing":1,
    "bobbyd":1,
    "yearthe":1,
    "fourth":1,
    "manthe":1,
    "driverhe":1,
    "paroled":1,
    "threatened":1,
    "framed":1,
    "robber":1,
    "bumfuck":1,
    "triggerman":1,
    "stooge":1,
    "point":1,
    "brings":1,
    "considering":1,
    "courtin":1,
    "widowed":1,
    "expected":1,
    "anymoreyou":1,
    "newlyweds":1,
    "california":1,
    "crook":1,
    "kicked":1,
    "dangerous":1,
    "buildings":1,
    "corporations":1,
    "moments":1,
    "guilt":1,
    "owned":1,
    "slum":1,
    "blocks":1,
    "pedro":1,
    "learned":1,
    "feeling":1,
    "voted":1,
    "democratic":1,
    "meetings":1,
    "council":1,
    "article":1,
    "himself":1,
    "apropos":1,
    "charleston":1,
    "cheating":1,
    "accepting":1,
    "peoples":1,
    "frailties":1,
    "standard":1,
    "mixed":1,
    "led":1,
    "roundheels":1,
    "catty":1,
    "inherited":1,
    "figure":1,
    "birthday":1,
    "condoler":1,
    "sids":1,
    "deserved":1,
    "newton":1,
    "footbeat":1,
    "hacks":1,
    "metalstudded":1,
    "squadroom":1,
    "packed":1,
    "automatics":1,
    "loaded":1,
    "unregulation":1,
    "dumdums":1,
    "supercop":1,
    "pleease":1,
    "reunion":1,
    "avowed":1,
    "tramps":1,
    "rutters":1,
    "afterwards":1,
    "spraguescrazy":1,
    "mostly":1,
    "utter":1,
    "malleability":1,
    "chameleon":1,
    "anybodyand":1,
    "disrupter":1,
    "meit":1,
    "mothers":1,
    "insults":1,
    "pornography":1,
    "stories":1,
    "scheme":1,
    "gossip":1,
    "furniture":1,
    "disappear":1,
    "following":1,
    "hernot":1,
    "whoremonger":1,
    "coward":1,
    "necrophile":1,
    "byebye":1,
    "hasbeen":1,
    "neverwas":1,
    "stool":1,
    "pigeon":1,
    "harness":1,
    "bull":1,
    "hike":1,
    "wait":1,
    "dear":1,
    "pug":1,
    "managed":1,
    "digs":1,
    "mattered":1,
    "solve":1,
    "iti":1,
    "tightern":1,
    "thoughtmaybe":1,
    "timetheres":1,
    "forgotanything":1,
    "folksve":1,
    "practice":1,
    "mirror":1,
    "itreading":1,
    "parts":1,
    "audition":1,
    "stunk":1,
    "parent":1,
    "beth":1,
    "teachers":1,
    "grease":1,
    "med":1,
    "difference":1,
    "coulda":1,
    "written":1,
    "pictures":1,
    "silly":1,
    "proud":1,
    "ace":1,
    "copper":1,
    "champ":1,
    "momma":1,
    "dream":1,
    "dreaminll":1,
    "sandwich":1,
    "sets":1,
    "twenties":1,
    "twentyfive":1,
    "russi":1,
    "thinki":1,
    "hot":1,
    "search":1,
    "inch":1,
    "acre":1,
    "shitty":1,
    "exactly":1,
    "boom":1,
    "baron":1,
    "expert":1,
    "land":1,
    "deals":1,
    "hunch":1,
    "further":1,
    "condemned":1,
    "bungalows":1,
    "isolatedabandoned":1,
    "importantly":1,
    "sourcewhere":1,
    "drain":1,
    "box":1,
    "books":1,
    "lantern":1,
    "istheres":1,
    "set":1,
    "latents":1,
    "doorjamband":1,
    "handsre":1,
    "millardll":1,
    "foremen":1,
    "pipes":1,
    "spewing":1,
    "gastherell":1,
    "europe":1,
    "dreadful":1,
    "provincial":1,
    "direct":1,
    "alwayssneaking":1,
    "properties":1,
    "ithegot":1,
    "course":1,
    "argonne":1,
    "bayonet":1,
    "gerries":1,
    "thrilled":1,
    "washmmdisturbed":1,
    "hima":1,
    "strike":1,
    "rememberbetty":1,
    "calledshort":1,
    "usual":1,
    "georgied":1,
    "wanting":1,
    "passive":1,
    "whore":1,
    "pretend":1,
    "stupid":1,
    "valley":1,
    "filmed":1,
    "crew":1,
    "demon":1,
    "vernesjust":1,
    "hoping":1,
    "smeared":1,
    "scratched":1,
    "figures":1,
    "passports":1,
    "slut":1,
    "necessarily":1,
    "safekeep":1,
    "generations":1,
    "grave":1,
    "tightass":1,
    "kiltwearing":1,
    "motherfucker":1,
    "whered":1,
    "georges":1,
    "card":1,
    "laid":1,
    "amateur":1,
    "taxidermist":1,
    "transient":1,
    "woulda":1,
    "middle":1,
    "hadnt":1,
    "nail":1,
    "rage":1,
    "fists":1,
    "wouldve":1,
    "full":1,
    "load":1,
    "chest":1,
    "mayor":1,
    "dog":1,
    "shoes":1,
    "habits":1,
    "die":1,
    "eldridges":1,
    "receipt":1,
    "appreciate":1,
    "georgia":1,
    "wish":1,
    "voyeur":1,
    "lesser":1,
    "pressing":1,
    "nose":1,
    "glass":1,
    "slashed":1,
    "hospital":1,
    "hugo":1,
    "gwynplain":1,
    "emmetts":1,
    "rageafter":1,
    "thatwe":1,
    "rarely":1,
    "spoke":1,
    "hating":1,
    "richer":1,
    "madeleines":1,
    "worse":1,
    "joke":1,
    "hideaway":1,
    "blackmailed":1,
    "split":1,
    "comfortable":1,
    "frame":1,
    "girlthat":1,
    "ruined":1,
    "lives":1,
    "pointing":1,
    "chance":1,
    "anybody":1,
    "rather":1,
    "guts":1,
    "boxer":1,
    "puncher":1,
    "aaaah":1,
    "hired":1,
    "mamacita":1,
    "wore":1,
    "somethingyou":1,
    "rememberi":1,
    "consummate":1,
    "actor":1,
    "concocting":1,
    "usthe":1,
    "demanding":1,
    "preferred":1,
    "brass":1,
    "iad":1,
    "cleared":1,
    "shootinga":1,
    "makegood":1,
    "buckys":1,
    "cuffs":1,
    "badge":1,
    "sitting":1,
    "table":1,
    "protectpeople":1,
    "briefest":1,
    "darkest":1,
    "heavy":2,
    "halls":2,
    "tripoli":2,
    "shitbirds":2,
    "collar":2,
    "tomas":2,
    "tom":2,
    "deputy":2,
    "pants":2,
    "impressive":2,
    "manager":2,
    "girlfriend":2,
    "someday":2,
    "threedollar":2,
    "skank":2,
    "word":2,
    "christ":2,
    "whod":2,
    "boxing":2,
    "team":2,
    "eh":2,
    "celebrity":2,
    "plainclothes":2,
    "per":2,
    "rousting":2,
    "running":2,
    "skip":2,
    "part":2,
    "fought":2,
    "sense":2,
    "brought":2,
    "joined":2,
    "served":2,
    "during":2,
    "serve":2,
    "election":2,
    "million":2,
    "raise":2,
    "b":2,
    "subtle":2,
    "loser":2,
    "special":2,
    "quality":2,
    "boxers":2,
    "draw":2,
    "charity":2,
    "betting":2,
    "bet":2,
    "colleagues":2,
    "won":2,
    "taking":2,
    "sketch":2,
    "seems":2,
    "1":2,
    "schiesser":2,
    "du":2,
    "fine":2,
    "pete":2,
    "almost":2,
    "finished":2,
    "confirm":2,
    "squad":2,
    "order":2,
    "slipped":2,
    "wheres":2,
    "history":2,
    "habit":2,
    "kick":2,
    "besides":2,
    "catching":2,
    "regs":2,
    "question":2,
    "lead":2,
    "quickly":2,
    "page":2,
    "later":2,
    "brains":2,
    "canvasback":2,
    "bored":2,
    "callin":2,
    "loews":2,
    "deal":2,
    "dicks":2,
    "tierney":2,
    "retire":2,
    "homicides":2,
    "welcome":2,
    "siegel":2,
    "joe":2,
    "louis":2,
    "dives":2,
    "dancing":2,
    "kas":2,
    "bulletin":2,
    "bruno":2,
    "fast":2,
    "sixth":2,
    "under":2,
    "confession":2,
    "angle":2,
    "hm":2,
    "today":2,
    "itll":2,
    "lucky":2,
    "leimert":2,
    "beefs":2,
    "young":2,
    "ones":2,
    "colored":2,
    "court":2,
    "november":2,
    "eleven":2,
    "eighteen":2,
    "shut":2,
    "baxter":2,
    "fitch":2,
    "alone":2,
    "understand":2,
    "okay":2,
    "nashs":2,
    "norton":2,
    "trash":2,
    "quiet":2,
    "anymore":2,
    "female":2,
    "39th":2,
    "supposed":2,
    "tonight":2,
    "snuffed":2,
    "gotta":2,
    "buck":2,
    "headlines":2,
    "confessors":2,
    "makes":2,
    "including":2,
    "covered":2,
    "pathology":2,
    "sixteen":2,
    "bisection":2,
    "level":2,
    "pregnant":2,
    "within":2,
    "tortured":2,
    "knife":2,
    "cause":2,
    "mouth":2,
    "likely":2,
    "body":2,
    "surgeon":2,
    "rule":2,
    "training":2,
    "d":2,
    "date":2,
    "suicide":2,
    "barbara":2,
    "sisters":2,
    "parents":2,
    "herald":2,
    "far":2,
    "prose":2,
    "policeman":2,
    "sent":2,
    "aaah":2,
    "send":2,
    "express":2,
    "gentleman":2,
    "seventeen":2,
    "boss":2,
    "popcorn":2,
    "fart":2,
    "eyes":2,
    "ugly":2,
    "uniform":2,
    "believed":2,
    "calling":2,
    "forces":2,
    "writes":2,
    "favor":2,
    "hi":2,
    "whos":2,
    "quite":2,
    "done":2,
    "carbons":2,
    "notes":2,
    "sailors":2,
    "painting":2,
    "dress":2,
    "station":2,
    "practically":2,
    "sarge":2,
    "does":2,
    "stand":2,
    "muscle":2,
    "phone":2,
    "extras":2,
    "truck":2,
    "minute":2,
    "moved":2,
    "somebody":2,
    "threatening":2,
    "friends":2,
    "high":2,
    "thanksgiving":2,
    "truth":2,
    "cooze":2,
    "handle":2,
    "ask":2,
    "alibis":2,
    "eager":2,
    "whatever":2,
    "walk":2,
    "viewfinder":2,
    "director":2,
    "dated":2,
    "twice":2,
    "mans":2,
    "lesbian":2,
    "fifteen":2,
    "lorna":2,
    "martikova":2,
    "nebraska":2,
    "started":2,
    "warrant":2,
    "dyke":2,
    "kind":2,
    "theory":2,
    "capice":2,
    "spend":2,
    "months":2,
    "cadge":2,
    "suspect":2,
    "held":2,
    "diego":2,
    "witness":2,
    "finally":2,
    "chipping":2,
    "reason":2,
    "combat":2,
    "army":2,
    "band":2,
    "dropped":2,
    "ways":2,
    "fault":2,
    "buying":2,
    "pal":2,
    "abandoned":2,
    "tools":2,
    "lying":2,
    "suck":2,
    "ball":2,
    "suppressor":2,
    "sightings":2,
    "wilshire":2,
    "tank":2,
    "sad":2,
    "actually":2,
    "happen":2,
    "drink":2,
    "cocktail":2,
    "lez":2,
    "built":2,
    "questioned":2,
    "tired":2,
    "sunday":2,
    "werewolf":2,
    "nido":2,
    "scoots":2,
    "coherent":2,
    "writing":2,
    "leads":2,
    "accent":2,
    "pull":2,
    "mondo":2,
    "heroin":2,
    "lad":2,
    "hearty":2,
    "breeds":2,
    "cruel":2,
    "marthas":2,
    "flickers":2,
    "houses":2,
    "introduced":2,
    "housing":2,
    "project":2,
    "putting":2,
    "loved":2,
    "keystone":2,
    "hollywoodland":2,
    "block":2,
    "district":2,
    "expose":2,
    "gives":2,
    "property":2,
    "summer":2,
    "places":2,
    "loose":2,
    "carried":2,
    "dirty":2,
    "starting":2,
    "print":2,
    "sell":2,
    "someone":2,
    "face":2,
    "powerful":2,
    "suspended":2,
    "sake":2,
    "phantom":2,
    "fortyfive":2,
    "having":2,
    "soiree":2,
    "soft":2,
    "playing":2,
    "spooky":2,
    "mention":2,
    "file":2,
    "withholding":2,
    "trade":2,
    "shakes":2,
    "penance":2,
    "whoever":2,
    "famous":2,
    "coming":2,
    "couch":2,
    "goose":2,
    "egg":2,
    "rurales":2,
    "bus":2,
    "ticket":2,
    "wellington":2,
    "coincidence":2,
    "revenge":2,
    "talkin":2,
    "will":2,
    "scum":2,
    "trip":2,
    "move":2,
    "meeting":2,
    "finish":2,
    "seem":2,
    "primary":2,
    "pro":2,
    "perp":2,
    "vic":2,
    "copsll":2,
    "admit":2,
    "closed":2,
    "sob":2,
    "career":2,
    "farm":2,
    "cecil":2,
    "line":2,
    "confess":2,
    "guilty":2,
    "future":2,
    "hack":2,
    "stop":2,
    "ol":2,
    "shaking":2,
    "theyd":2,
    "stinson":2,
    "thinks":2,
    "cocktailing":2,
    "padre":2,
    "idea":2,
    "herself":2,
    "shows":2,
    "tricked":2,
    "sonny":2,
    "chimps":2,
    "priest":2,
    "lose":2,
    "cherry":2,
    "whatcha":2,
    "dirt":2,
    "january":2,
    "horse":2,
    "rider":2,
    "softly":2,
    "tried":2,
    "weak":2,
    "owe":2,
    "office":2,
    "chased":2,
    "beating":2,
    "driving":2,
    "afraid":2,
    "staying":2,
    "ya":2,
    "makeup":2,
    "insult":2,
    "snuff":2,
    "message":2,
    "shack":2,
    "ghosts":2,
    "past":2,
    "private":2,
    "prints":2,
    "sounds":2,
    "study":2,
    "goodbye":2,
    "widow":2,
    "terrible":2,
    "estate":2,
    "water":2,
    "given":2,
    "forgive":2,
    "triangle":2,
    "cancer":2,
    "illusions":2,
    "assume":2,
    "valuable":2,
    "saps":2,
    "45":2,
    "adios":2,
    "sicko":2,
    "mug":2,
    "scotland":2,
    "lassie":2,
    "crazy":2,
    "lied":2,
    "goat":2,
    "ruin":2,
    "giving":2,
    "book":2,
    "shoot":2,
    "regular":3,
    "code":3,
    "tenth":3,
    "happened":3,
    "heres":3,
    "working":3,
    "da":3,
    "fighters":3,
    "promised":3,
    "twenty":3,
    "yours":3,
    "partners":3,
    "goin":3,
    "lookin":3,
    "knows":3,
    "fritzies":3,
    "bring":3,
    "car":3,
    "care":3,
    "chief":3,
    "43":3,
    "voters":3,
    "asked":3,
    "dollar":3,
    "bond":3,
    "eight":3,
    "proposition":3,
    "publicity":3,
    "able":3,
    "wholesome":3,
    "academy":3,
    "anyway":3,
    "lake":3,
    "art":3,
    "classes":3,
    "quit":3,
    "doin":3,
    "farce":3,
    "lieutenant":3,
    "mad":3,
    "promise":3,
    "surprised":3,
    "check":3,
    "cost":3,
    "died":3,
    "looks":3,
    "paid":3,
    "married":3,
    "answer":3,
    "escaped":3,
    "rap":3,
    "catch":3,
    "hide":3,
    "lost":3,
    "hero":3,
    "snitch":3,
    "ad":3,
    "jack":3,
    "wont":3,
    "wife":3,
    "roll":3,
    "scared":3,
    "checked":3,
    "officers":3,
    "watch":3,
    "eat":3,
    "kid":3,
    "billy":3,
    "glad":3,
    "true":3,
    "isnt":3,
    "believe":3,
    "bleichertblanchard":3,
    "fear":3,
    "lady":3,
    "sex":3,
    "sergeant":3,
    "new":3,
    "parole":3,
    "grand":3,
    "fuckin":3,
    "played":3,
    "junior":3,
    "hand":3,
    "building":3,
    "priority":3,
    "weve":3,
    "killing":3,
    "possible":3,
    "apb":3,
    "thirty":3,
    "doctor":3,
    "questions":3,
    "guess":3,
    "minutes":3,
    "santa":3,
    "huh":3,
    "detective":3,
    "round":3,
    "boulevard":3,
    "smart":3,
    "howd":3,
    "such":3,
    "actress":3,
    "blue":3,
    "pick":3,
    "driver":3,
    "sit":3,
    "change":3,
    "bout":3,
    "outside":3,
    "sweet":3,
    "dumb":3,
    "along":3,
    "goddamn":3,
    "calm":3,
    "yourself":3,
    "control":3,
    "drinks":3,
    "manley":3,
    "offered":3,
    "start":3,
    "needed":3,
    "trying":3,
    "themselves":3,
    "pulled":3,
    "convince":3,
    "maam":3,
    "thinking":3,
    "hate":3,
    "stay":3,
    "balto":3,
    "paper":3,
    "present":3,
    "drive":3,
    "named":3,
    "use":3,
    "board":3,
    "fifty":3,
    "town":3,
    "touch":3,
    "gardena":3,
    "":3,
    "mexico":3,
    "stag":3,
    "smut":3,
    "fool":3,
    "werent":3,
    "trouble":3,
    "county":3,
    "transfer":3,
    "stopped":3,
    "spics":3,
    "felix":3,
    "casco":3,
    "fucked":3,
    "dope":3,
    "detectives":3,
    "theyve":3,
    "boyo":3,
    "jail":3,
    "track":3,
    "prove":3,
    "these":3,
    "john":3,
    "fix":3,
    "vasquez":3,
    "ernie":3,
    "chambers":3,
    "away":3,
    "gun":3,
    "roust":4,
    "same":4,
    "six":4,
    "jewboy":4,
    "mex":4,
    "tail":4,
    "without":4,
    "front":4,
    "myself":4,
    "green":4,
    "war":4,
    "captured":4,
    "suit":4,
    "mind":4,
    "passed":4,
    "white":4,
    "soon":4,
    "reasons":4,
    "hope":4,
    "street":4,
    "place":4,
    "eye":4,
    "dollars":4,
    "sold":4,
    "fathers":4,
    "into":4,
    "hey":4,
    "yet":4,
    "issue":4,
    "yesterday":4,
    "hour":4,
    "millard":4,
    "blew":4,
    "shot":4,
    "cuz":4,
    "confessed":4,
    "tale":4,
    "tales":4,
    "dinner":4,
    "rematch":4,
    "near":4,
    "park":4,
    "find":4,
    "sometimes":4,
    "tip":4,
    "mine":4,
    "address":4,
    "trial":4,
    "blood":4,
    "death":4,
    "number":4,
    "easy":4,
    "saying":4,
    "which":4,
    "has":4,
    "bitch":4,
    "wed":4,
    "condolences":4,
    "air":4,
    "boyfriends":4,
    "wrong":4,
    "names":4,
    "matter":4,
    "worried":4,
    "bettys":4,
    "sick":4,
    "talking":4,
    "thousand":4,
    "world":4,
    "showed":4,
    "lie":4,
    "martin":4,
    "sorry":4,
    "havent":4,
    "hit":4,
    "dahlias":4,
    "though":4,
    "beauty":4,
    "san":4,
    "dago":4,
    "wouldnt":4,
    "biltmore":4,
    "takes":4,
    "evidence":4,
    "headed":4,
    "might":4,
    "lavernes":4,
    "laddie":4,
    "cash":4,
    "el":4,
    "motel":4,
    "mother":4,
    "tilden":4,
    "sennett":4,
    "helped":4,
    "mrs":4,
    "phony":4,
    "theres":4,
    "goddammit":4,
    "business":4,
    "close":4,
    "rest":4,
    "blanchards":4,
    "gone":4,
    "head":4,
    "damn":4,
    "ensenada":4,
    "life":4,
    "bury":4,
    "arent":4,
    "spragues":4,
    "already":5,
    "hollywood":5,
    "light":5,
    "fighting":5,
    "division":5,
    "gettin":5,
    "weeks":5,
    "central":5,
    "spot":5,
    "fights":5,
    "says":5,
    "early":5,
    "dick":5,
    "local":5,
    "duty":5,
    "department":5,
    "pay":5,
    "may":5,
    "build":5,
    "rounds":5,
    "sir":5,
    "hello":5,
    "winning":5,
    "papa":5,
    "feel":5,
    "thanks":5,
    "least":5,
    "pad":5,
    "lees":5,
    "getting":5,
    "against":5,
    "sleep":5,
    "vice":5,
    "captain":5,
    "else":5,
    "bar":5,
    "year":5,
    "shitbird":5,
    "liked":5,
    "confessions":5,
    "whats":5,
    "many":5,
    "koenig":5,
    "straight":5,
    "tight":5,
    "kept":5,
    "own":5,
    "harry":5,
    "strange":5,
    "poor":5,
    "known":5,
    "bill":5,
    "nine":5,
    "shed":5,
    "talked":5,
    "de":5,
    "witt":5,
    "being":5,
    "fall":5,
    "home":5,
    "daddys":5,
    "ramona":5,
    "mack":5,
    "george":5,
    "looked":5,
    "tj":5,
    "tijuana":5,
    "missing":5,
    "hard":6,
    "month":6,
    "wanna":6,
    "bright":6,
    "boy":6,
    "cop":6,
    "read":6,
    "city":6,
    "five":6,
    "bank":6,
    "end":6,
    "great":6,
    "whattya":6,
    "meet":6,
    "always":6,
    "lapd":6,
    "luck":6,
    "clean":6,
    "week":6,
    "between":6,
    "whole":6,
    "tomorrow":6,
    "pimp":6,
    "long":6,
    "homicide":6,
    "until":6,
    "play":6,
    "whyd":6,
    "boys":6,
    "wants":6,
    "call":6,
    "fairy":6,
    "through":6,
    "shit":6,
    "leave":6,
    "ran":6,
    "doing":6,
    "put":6,
    "nash":6,
    "anyone":6,
    "show":6,
    "still":6,
    "jesus":6,
    "either":6,
    "doesnt":6,
    "daughter":6,
    "since":6,
    "murder":6,
    "sister":6,
    "fritz":6,
    "most":6,
    "martha":6,
    "mexican":6,
    "everything":6,
    "help":6,
    "jane":6,
    "eldridge":6,
    "next":7,
    "half":7,
    "johnny":7,
    "both":7,
    "case":7,
    "looking":7,
    "miss":7,
    "hurt":7,
    "gets":7,
    "hundred":7,
    "people":7,
    "best":7,
    "enough":7,
    "mister":7,
    "bought":7,
    "while":7,
    "fritzie":7,
    "nice":7,
    "cant":7,
    "youve":7,
    "ago":7,
    "room":7,
    "remember":7,
    "took":7,
    "hours":7,
    "love":7,
    "four":7,
    "youd":7,
    "should":7,
    "called":7,
    "alibi":7,
    "black":7,
    "left":7,
    "penny":7,
    "report":7,
    "bit":7,
    "where":7,
    "mean":7,
    "rich":7,
    "film":7,
    "issler":7,
    "husband":7,
    "years":8,
    "first":8,
    "real":8,
    "ice":8,
    "together":8,
    "used":8,
    "try":8,
    "probably":8,
    "went":8,
    "dewitt":8,
    "lets":8,
    "only":8,
    "house":8,
    "babe":8,
    "beat":8,
    "woman":8,
    "wasnt":8,
    "god":8,
    "father":8,
    "yeah":8,
    "again":8,
    "stuff":8,
    "red":8,
    "met":8,
    "pretty":8,
    "killed":9,
    "hell":9,
    "saw":9,
    "fight":9,
    "morning":9,
    "better":9,
    "fire":9,
    "day":9,
    "oh":9,
    "guy":9,
    "really":9,
    "hed":9,
    "lot":9,
    "heard":9,
    "son":9,
    "because":9,
    "dead":9,
    "family":9,
    "georgie":9,
    "charlie":9,
    "guys":10,
    "police":10,
    "their":10,
    "make":10,
    "thank":10,
    "thought":10,
    "gonna":10,
    "very":10,
    "work":10,
    "name":10,
    "give":10,
    "girls":10,
    "once":10,
    "fucking":10,
    "much":10,
    "movie":10,
    "nothing":10,
    "hear":11,
    "couple":11,
    "times":11,
    "youll":11,
    "big":11,
    "ten":11,
    "another":11,
    "friend":11,
    "even":11,
    "night":11,
    "aint":11,
    "papers":11,
    "shes":11,
    "elizabeth":11,
    "found":11,
    "linda":11,
    "every":11,
    "those":12,
    "something":12,
    "vogel":12,
    "going":12,
    "men":12,
    "gave":12,
    "kill":12,
    "seen":12,
    "let":12,
    "la":12,
    "madeleine":12,
    "liz":12,
    "by":13,
    "came":13,
    "loew":13,
    "before":13,
    "other":13,
    "fuck":13,
    "bobby":13,
    "talk":13,
    "around":13,
    "come":14,
    "warrants":14,
    "more":14,
    "why":14,
    "things":14,
    "off":14,
    "too":14,
    "please":14,
    "than":14,
    "any":14,
    "job":14,
    "cops":14,
    "would":14,
    "girl":14,
    "our":15,
    "could":15,
    "em":15,
    "ellis":15,
    "made":15,
    "need":15,
    "money":15,
    "days":15,
    "little":15,
    "us":15,
    "thing":15,
    "way":16,
    "look":16,
    "after":16,
    "told":16,
    "now":16,
    "russ":16,
    "ive":16,
    "ever":16,
    "sprague":16,
    "emmett":16,
    "take":17,
    "bad":17,
    "them":17,
    "yes":17,
    "dahlia":17,
    "well":18,
    "partner":18,
    "anything":18,
    "keep":19,
    "ill":19,
    "over":19,
    "can":19,
    "officer":19,
    "kay":19,
    "say":19,
    "then":19,
    "time":19,
    "man":20,
    "mr":20,
    "never":20,
    "right":20,
    "hes":21,
    "old":21,
    "some":21,
    "last":21,
    "sure":21,
    "been":21,
    "daddy":21,
    "wanted":21,
    "down":22,
    "there":22,
    "id":22,
    "three":23,
    "they":23,
    "an":24,
    "think":24,
    "blanchard":25,
    "two":25,
    "just":25,
    "are":26,
    "dwight":26,
    "how":26,
    "go":26,
    "from":27,
    "when":27,
    "knew":28,
    "thats":28,
    "who":28,
    "maybe":29,
    "see":30,
    "were":30,
    "back":30,
    "want":30,
    "said":31,
    "good":32,
    "or":32,
    "have":32,
    "here":33,
    "short":33,
    "bucky":35,
    "one":36,
    "youre":36,
    "had":37,
    "get":37,
    "didnt":38,
    "as":39,
    "bleichert":40,
    "its":40,
    "his":41,
    "did":42,
    "lee":44,
    "if":44,
    "out":44,
    "betty":47,
    "tell":48,
    "up":49,
    "be":51,
    "we":51,
    "im":51,
    "do":53,
    "is":53,
    "like":53,
    "so":54,
    "not":55,
    "dont":55,
    "your":56,
    "got":58,
    "but":59,
    "at":63,
    "no":63,
    "all":66,
    "she":66,
    "him":72,
    "what":72,
    "about":73,
    "know":73,
    "this":73,
    "on":82,
    "my":84,
    "with":91,
    "that":97,
    "her":105,
    "was":114,
    "he":116,
    "for":118,
    "me":136,
    "it":138,
    "in":148,
    "of":160,
    "and":249,
    "i":296,
    "to":304,
    "a":330,
    "you":378,
    "the":452
}