{
    "recently":1,
    "visited":1,
    "tropical":1,
    "country":1,
    "uhhuh":1,
    "past":1,
    "twelve":1,
    "months":1,
    "gotten":1,
    "tattoo":1,
    "non":1,
    "sterile":1,
    "acupuncture":1,
    "undergone":1,
    "ear":1,
    "skin":1,
    "piercing":1,
    "hi":1,
    "questionnaire":1,
    "immediate":1,
    "kin":1,
    "emergency":1,
    "donor":1,
    "depends":1,
    "results":1,
    "test":1,
    "very":1,
    "rare":1,
    "phenotype":1,
    "newsbad":1,
    "scenario":1,
    "consider":1,
    "nobodys":1,
    "th":1,
    "whatve":1,
    "done":1,
    "told":1,
    "home":1,
    "lock":1,
    "daughters":1,
    "knight":1,
    "returns":1,
    "toke":1,
    "smokage":1,
    "knock":1,
    "crapping":1,
    "pants":1,
    "help":1,
    "ultrarapid":1,
    "detox":1,
    "heroin":1,
    "coldturkey":1,
    "od":1,
    "retroviral":1,
    "shutters":1,
    "cured":1,
    "daylight":1,
    "heifer":1,
    "kicked":1,
    "backslide":1,
    "bullet":1,
    "brain":1,
    "knocked":1,
    "remission":1,
    "hells":1,
    "lathe":1,
    "speed":1,
    "racer":1,
    "demon":1,
    "wheels":1,
    "gaining":1,
    "busy":1,
    "revving":1,
    "powerful":1,
    "mach":1,
    "five":1,
    "cool":1,
    "beans":1,
    "josh":1,
    "frohmeyer":1,
    "skid":1,
    "whatd":1,
    "charger":1,
    "pimpmobile":1,
    "market":1,
    "modifications":1,
    "nitrousoxide":1,
    "injection":1,
    "forged":1,
    "aluminum":1,
    "pistons":1,
    "crankshaft":1,
    "higher":1,
    "flowing":1,
    "fuel":1,
    "pump":1,
    "exhaust":1,
    "profile":1,
    "ramping":1,
    "packagell":1,
    "crank":1,
    "betty":1,
    "another":1,
    "threehundred":1,
    "horsepower":1,
    "damn":1,
    "oil":1,
    "change":1,
    "dig":1,
    "wound":1,
    "sucking":1,
    "clots":1,
    "choking":1,
    "candyass":1,
    "sitcom":1,
    "built":1,
    "turd":1,
    "stain":1,
    "motion":1,
    "sensors":1,
    "zone":1,
    "temps":1,
    "fifty":1,
    "suck":1,
    "cams":1,
    "fried":1,
    "whoevers":1,
    "magnesium":1,
    "flares":1,
    "stopped":1,
    "trusting":1,
    "yet":1,
    "hit":1,
    "godlights":1,
    "fight":1,
    "deliver":1,
    "message":1,
    "masks":1,
    "represent":1,
    "ruling":1,
    "offering":1,
    "truce":1,
    "feared":1,
    "streets":1,
    "worse":1,
    "serious":1,
    "buttwillies":1,
    "obviously":1,
    "base":1,
    "operations":1,
    "trap":1,
    "flip":1,
    "dicks":1,
    "announcing":1,
    "agree":1,
    "wind":1,
    "learning":1,
    "ticks":1,
    "worms":1,
    "bedtime":1,
    "stories":1,
    "boogieman":1,
    "frankly":1,
    "disappointed":1,
    "easily":1,
    "without":1,
    "assurances":1,
    "semtex":1,
    "city":1,
    "block":1,
    "hows":1,
    "erebus":1,
    "encountered":1,
    "feudal":1,
    "lords":1,
    "power":1,
    "lies":1,
    "warmbloods":1,
    "such":1,
    "reaches":1,
    "advanced":1,
    "age":1,
    "certain":1,
    "precautions":1,
    "needed":1,
    "preserve":1,
    "overlord":1,
    "eli":1,
    "welcome":1,
    "daywalker":1,
    "anxious":1,
    "late":1,
    "abraham":1,
    "amongst":1,
    "numbers":1,
    "agreeable":1,
    "despise":1,
    "proud":1,
    "success":1,
    "shall":1,
    "regard":1,
    "eliminating":1,
    "deacon":1,
    "frost":1,
    "unseemly":1,
    "lamagra":1,
    "lawyer":1,
    "mr":1,
    "works":1,
    "health":1,
    "given":1,
    "monitor":1,
    "nations":1,
    "supply":1,
    "strategic":1,
    "alliance":1,
    "seemed":1,
    "prudent":1,
    "also":1,
    "finance":1,
    "number":1,
    "humanitarian":1,
    "organizations":1,
    "infectious":1,
    "diseases":1,
    "genome":1,
    "project":1,
    "survival":1,
    "vampirism":1,
    "arbovirus":1,
    "spread":1,
    "saliva":1,
    "organisms":1,
    "vector":1,
    "replicates":1,
    "within":1,
    "bloodstream":1,
    "evolving":1,
    "host":1,
    "entirely":1,
    "lifeform":1,
    "unfortunately":1,
    "viruses":1,
    "dubbed":1,
    "pathogen":1,
    "appears":1,
    "greece":1,
    "pure":1,
    "anomaly":1,
    "unlike":1,
    "however":1,
    "feeds":1,
    "victims":1,
    "carriers":1,
    "continue":1,
    "unchecked":1,
    "could":1,
    "month":1,
    "math":1,
    "alone":1,
    "small":1,
    "tactical":1,
    "bloodpack":1,
    "lead":1,
    "social":1,
    "club":1,
    "werent":1,
    "sounds":1,
    "plan":1,
    "guys":1,
    "shitting":1,
    "bricks":1,
    "cause":1,
    "top":1,
    "food":1,
    "chain":1,
    "friends":1,
    "saying":1,
    "worried":1,
    "turkey":1,
    "snow":1,
    "white":1,
    "seven":1,
    "check":1,
    "troops":1,
    "count":1,
    "chocula":1,
    "free":1,
    "shot":1,
    "permission":1,
    "cabron":1,
    "manual":1,
    "adolph":1,
    "popped":1,
    "rigged":1,
    "tampers":1,
    "keeping":1,
    "detonator":1,
    "times":1,
    "crosswise":1,
    "swear":1,
    "macking":1,
    "girlfriends":1,
    "pie":1,
    "neck":1,
    "stump":1,
    "questions":1,
    "glaser":1,
    "safety":1,
    "rounds":1,
    "38":1,
    "45":1,
    "9mm":1,
    "caliber":1,
    "foil":1,
    "capsules":1,
    "tip":1,
    "filled":1,
    "grains":1,
    "pack":1,
    "major":1,
    "kinetic":1,
    "energy":1,
    "filters":1,
    "puppy":1,
    "hypervelocity":1,
    "railgun":1,
    "spits":1,
    "silvertipped":1,
    "iron":1,
    "core":1,
    "needles":1,
    "thousand":1,
    "butt":1,
    "humping":1,
    "attention":1,
    "girls":1,
    "finished":1,
    "flirting":1,
    "sister":1,
    "part":1,
    "beat":1,
    "chest":1,
    "vow":1,
    "directors":1,
    "cut":1,
    "gather":1,
    "packs":1,
    "targeting":1,
    "places":1,
    "congregate":1,
    "bloodbanks":1,
    "safehouses":1,
    "underground":1,
    "clubs":1,
    "traffic":1,
    "glyphs":1,
    "efforts":1,
    "rethink":1,
    "habits":1,
    "tighten":1,
    "clusterfuck":1,
    "anywhere":1,
    "greenjeans":1,
    "pass":1,
    "smell":1,
    "stay":1,
    "dog":1,
    "curbed":1,
    "pushing":1,
    "asshole":1,
    "entering":1,
    "suspicious":1,
    "kidding":1,
    "sensations":1,
    "addictive":1,
    "tattoos":1,
    "piercings":1,
    "tribal":1,
    "scarring":1,
    "regenerate":1,
    "none":1,
    "permanent":1,
    "remind":1,
    "reading":1,
    "loud":1,
    "clear":1,
    "everythings":1,
    "copacetic":1,
    "mystery":1,
    "van":1,
    "sunshine":1,
    "tokeboy":1,
    "f":1,
    "ohmygodhesfuckingkillingmehes":1,
    "headlights":1,
    "cmon":1,
    "fuckmefuckmefuckmefuckme":1,
    "heading":1,
    "across":1,
    "roof":1,
    "hurt":1,
    "heal":1,
    "garlic":1,
    "lose":1,
    "ugh":1,
    "bitten":1,
    "changing":1,
    "shut":1,
    "cells":1,
    "arent":1,
    "producing":1,
    "oxygen":1,
    "suffocating":1,
    "crack":1,
    "somebody":1,
    "misery":1,
    "fucks":1,
    "mierda":1,
    "turdstains":1,
    "offer":1,
    "impressed":1,
    "ran":1,
    "trouble":1,
    "noticed":1,
    "men":1,
    "farting":1,
    "ratchet":1,
    "nads":1,
    "notches":1,
    "hillbilly":1,
    "cunthair":1,
    "buttercup":1,
    "show":1,
    "crawl":1,
    "culvert":1,
    "casualties":1,
    "inevitability":1,
    "among":1,
    "dangerous":1,
    "worthy":1,
    "played":1,
    "outlived":1,
    "blades":1,
    "volatile":1,
    "manipulating":1,
    "events":1,
    "unfolding":1,
    "sacrifice":1,
    "takes":1,
    "jar":1,
    "contains":1,
    "relinquished":1,
    "fool":1,
    "appeal":1,
    "recognize":1,
    "footage":1,
    "bloodbank":1,
    "guards":1,
    "seventytwo":1,
    "broken":1,
    "wounds":1,
    "hemoglobin":1,
    "metabolisms":1,
    "often":1,
    "systems":1,
    "self":1,
    "destructing":1,
    "nomaks":1,
    "driving":1,
    "nictating":1,
    "membrane":1,
    "youd":1,
    "crocodile":1,
    "camel":1,
    "shields":1,
    "eyes":1,
    "bifurcated":1,
    "mandible":1,
    "developed":1,
    "masseter":1,
    "muscles":1,
    "zygomatic":1,
    "allowing":1,
    "larger":1,
    "stronger":1,
    "bite":1,
    "epidermal":1,
    "layers":1,
    "thicker":1,
    "tougher":1,
    "holee":1,
    "almost":1,
    "rewiring":1,
    "bodies":1,
    "creating":1,
    "consume":1,
    "ones":1,
    "purpose":1,
    "digestive":1,
    "drastically":1,
    "simplified":1,
    "super":1,
    "charged":1,
    "completely":1,
    "encased":1,
    "luck":1,
    "till":1,
    "again":1,
    "joking":1,
    "daylights":1,
    "advantage":1,
    "vulnerable":1,
    "care":1,
    "spare":1,
    "card":1,
    "oj":1,
    "risky":1,
    "protect":1,
    "buying":1,
    "chocolate":1,
    "elvis":1,
    "guy":1,
    "whos":1,
    "rules":1,
    "chowing":1,
    "heehaw":1,
    "sidekick":1,
    "miss":1,
    "muffet":1,
    "mite":1,
    "cozy":1,
    "taste":1,
    "worrying":1,
    "confused":1,
    "side":1,
    "hollow":1,
    "spent":1,
    "running":1,
    "wonder":1,
    "hooks":1,
    "acting":1,
    "strange":1,
    "ever":1,
    "reckless":1,
    "quick":1,
    "anger":1,
    "defense":1,
    "backwards":1,
    "forwards":1,
    "intel":1,
    "stinkfinger":1,
    "vampirella":1,
    "lookin":1,
    "horse":1,
    "hawaiian":1,
    "ice":1,
    "huh":1,
    "fear":1,
    "adrenaline":1,
    "chaser":1,
    "puto":1,
    "baboso":1,
    "until":1,
    "allies":1,
    "wondering":1,
    "starve":1,
    "fee":1,
    "live":1,
    "scumbag":1,
    "drugdealer":1,
    "justify":1,
    "saving":1,
    "managing":1,
    "tread":1,
    "water":1,
    "living":1,
    "constant":1,
    "state":1,
    "shoot":1,
    "serum":1,
    "surviving":1,
    "fiddling":1,
    "tweaked":1,
    "rod":1,
    "collimated":1,
    "beam":1,
    "wanna":1,
    "concentrate":1,
    "light":1,
    "laser":1,
    "scudster":1,
    "nope":1,
    "known":1,
    "twenty":1,
    "backpacking":1,
    "chicks":1,
    "festival":1,
    "e":1,
    "freeball":1,
    "desert":1,
    "riff":1,
    "dear":1,
    "penthouse":1,
    "happen":1,
    "halfway":1,
    "threes":1,
    "marathon":1,
    "janet":1,
    "chrissy":1,
    "chunks":1,
    "woulda":1,
    "died":1,
    "shown":1,
    "staked":1,
    "mamacitas":1,
    "honeyhole":1,
    "kinda":1,
    "fell":1,
    "place":1,
    "souvenirs":1,
    "mmmmmm":1,
    "poppas":1,
    "brand":1,
    "bag":1,
    "powerpacks":1,
    "limited":1,
    "ten":1,
    "continuous":1,
    "flashbang":1,
    "grenades":1,
    "plugin":1,
    "sticks":1,
    "grand":1,
    "finale":1,
    "wired":1,
    "coupledozen":1,
    "puppies":1,
    "careful":1,
    "pop":1,
    "load":1,
    "frying":1,
    "process":1,
    "lover":1,
    "fighter":1,
    "firepower":1,
    "hiding":1,
    "foul":1,
    "infused":1,
    "adrenal":1,
    "glands":1,
    "mammals":1,
    "mark":1,
    "territory":1,
    "spraying":1,
    "gash":1,
    "hounds":1,
    "nutjuice":1,
    "key":1,
    "draw":1,
    "nyssas":1,
    "eau":1,
    "de":1,
    "tasty":1,
    "split":1,
    "units":1,
    "makes":1,
    "wins":1,
    "prize":1,
    "maintain":1,
    "radio":1,
    "silence":1,
    "attract":1,
    "scare":1,
    "fangs":1,
    "bifocals":1,
    "grandpa":1,
    "hundreds":1,
    "skeletons":1,
    "underestimated":1,
    "dealing":1,
    "heyhillbilly":1,
    "screw":1,
    "possum":1,
    "master":1,
    "beginning":1,
    "wheres":1,
    "forget":1,
    "chunkstyle":1,
    "same":1,
    "perfume":1,
    "trick":1,
    "partridge":1,
    "family":1,
    "unless":1,
    "bright":1,
    "ideas":1,
    "battery":1,
    "gangbang":1,
    "verlaines":1,
    "somewhere":1,
    "bomb":1,
    "train":1,
    "guns":1,
    "direction":1,
    "drive":1,
    "opening":1,
    "ranks":1,
    "run":1,
    "break":1,
    "hear":1,
    "sir":1,
    "she":1,
    "needs":1,
    "hypertransfusion":1,
    "particularly":1,
    "waking":1,
    "rising":1,
    "birth":1,
    "fresh":1,
    "youth":1,
    "sleep":1,
    "death":1,
    "wouldve":1,
    "today":1,
    "read":1,
    "ends":1,
    "useful":1,
    "bets":1,
    "whyd":1,
    "pureblood":1,
    "wasnt":1,
    "evil":1,
    "wolf":1,
    "predator":1,
    "difference":1,
    "between":1,
    "peace":1,
    "ashamed":1,
    "hurting":1,
    "reminds":1,
    "wants":1,
    "disappeared":1,
    "mightve":1,
    "dialects":1,
    "bloodbrother":1,
    "securitys":1,
    "connecting":1,
    "dots":1,
    "bangin":1,
    "chick":1,
    "faux":1,
    "pas":1,
    "double":1,
    "bagged":1,
    "least":1,
    "girlfriend":1,
    "checking":1,
    "character":1,
    "familiar":1,
    "theirs":1,
    "claimed":1,
    "nih":1,
    "biotech":1,
    "outfit":1,
    "called":1,
    "caliban":1,
    "industries":1,
    "lying":1,
    "fucker":1,
    "designed":1,
    "believe":1,
    "ohgodohgodohgod":1,
    "find":1,
    "rid":1,
    "hereditary":1,
    "weaknesses":1,
    "viral":1,
    "epidemiology":1,
    "immunochemistry":1,
    "recombinant":1,
    "dna":1,
    "possible":1,
    "went":1,
    "clean":1,
    "mess":1,
    "fact":1,
    "artificially":1,
    "threat":1,
    "less":1,
    "urgent":1,
    "spreading":1,
    "spliced":1,
    "obvious":1,
    "reasoning":1,
    "conclusion":1,
    "offspring":1,
    "breed":1,
    "begotten":1,
    "wolves":1,
    "lain":1,
    "sheep":1,
    "compromises":1,
    "closure":1,
    "park":1,
    "sixthousand":1,
    "dodge":1,
    "kiss":1,
    "goodbye":1,
    "flechettes":1,
    "explode":1,
    "control":1,
    "short":1,
    "familiars":1,
    "cootchie":1,
    "hair":1,
    "willie":1,
    "nelson":1,
    "lookalike":1,
    "digging":1,
    "scoped":1,
    "keys":1,
    "information":1,
    "providing":1,
    "samples":1,
    "helping":1,
    "program":1,
    "daywalkers":1,
    "strong":1,
    "dirty":1,
    "moment":1,
    "switched":1,
    "hobo":1,
    "kelly":1,
    "unfinished":1,
    "killed":1,
    "nearly":1,
    "fritz":1,
    "begging":1,
    "dirt":1,
    "nap":1,
    "cotton":1,
    "worst":1,
    "child":1,
    "perspective":1,
    "favors":1,
    "web":1,
    "spider":1,
    "fly":1,
    "learn":1,
    "course":1,
    "experimented":1,
    "fathered":1,
    "children":1,
    "centuries":1,
    "walked":1,
    "earth":1,
    "mistake":1,
    "bloodties":1,
    "measured":1,
    "ascendancy":1,
    "interest":1,
    "remaining":1,
    "century":1,
    "repulsive":1,
    "once":1,
    "souls":1,
    "taken":1,
    "corrupted":1,
    "disgraced":1,
    "meat":1,
    "harvest":1,
    "marrow":1,
    "tissues":1,
    "waste":1,
    "thanks":1,
    "weakness":1,
    "contained":1,
    "matter":1,
    "pay":1,
    "fortunately":1,
    "idea":1,
    "facility":1,
    "located":1,
    "tunnels":1,
    "following":1,
    "led":1,
    "trail":1,
    "bread":1,
    "crumbs":1,
    "overrode":1,
    "codes":1,
    "locked":1,
    "insane":1,
    "both":1,
    "gods":1,
    "frightened":1,
    "prodigal":1,
    "returned":1,
    "rise":1,
    "yelling":1,
    "tender":1,
    "touch":1,
    "cover":1,
    "love":1,
    "ce":1,
    "soir":1,
    "forgot":1,
    "unusual":2,
    "quite":2,
    "valuable":2,
    "news":2,
    "loose":2,
    "finish":2,
    "dark":2,
    "stand":2,
    "mind":2,
    "addicts":2,
    "cure":2,
    "left":2,
    "morning":2,
    "either":2,
    "fry":2,
    "dump":2,
    "mouth":2,
    "start":2,
    "expect":2,
    "suckhead":2,
    "cancer":2,
    "comes":2,
    "nice":2,
    "heard":2,
    "lot":2,
    "aggressive":2,
    "burn":2,
    "whered":2,
    "shitbird":2,
    "tried":2,
    "blow":2,
    "year":2,
    "half":2,
    "standing":2,
    "walking":2,
    "stake":2,
    "practically":2,
    "compromised":2,
    "puckered":2,
    "looks":2,
    "three":2,
    "guess":2,
    "understand":2,
    "surveillance":2,
    "using":2,
    "whoa":2,
    "easy":2,
    "cowboy":2,
    "name":2,
    "shadow":2,
    "cabinet":2,
    "nation":2,
    "bullshit":2,
    "decades":2,
    "deals":2,
    "kid":2,
    "by":2,
    "play":2,
    "world":2,
    "big":2,
    "willing":2,
    "explosive":2,
    "level":2,
    "assurance":2,
    "house":2,
    "beyond":2,
    "door":2,
    "cold":2,
    "order":2,
    "flesh":2,
    "whom":2,
    "should":2,
    "business":2,
    "favor":2,
    "carter":2,
    "barely":2,
    "national":2,
    "institute":2,
    "parasitic":2,
    "evolve":2,
    "strain":2,
    "carrier":2,
    "zero":2,
    "thiavolos":2,
    "used":2,
    "born":2,
    "missing":2,
    "point":2,
    "turn":2,
    "thousands":2,
    "unit":2,
    "together":2,
    "really":2,
    "longer":2,
    "chance":2,
    "closer":2,
    "goes":2,
    "watch":2,
    "okay":2,
    "um":2,
    "company":2,
    "suckheads":2,
    "priest":2,
    "chupa":2,
    "verlaine":2,
    "blush":2,
    "working":2,
    "taking":2,
    "orders":2,
    "looking":2,
    "her":2,
    "wrong":2,
    "charge":2,
    "nitrate":2,
    "modified":2,
    "feet":2,
    "per":2,
    "second":2,
    "paco":2,
    "warmblood":2,
    "started":2,
    "revenge":2,
    "far":2,
    "attacked":2,
    "gear":2,
    "able":2,
    "backs":2,
    "choice":2,
    "forgotten":2,
    "exactly":2,
    "gotta":2,
    "cuts":2,
    "deepest":2,
    "buddy":2,
    "escaped":2,
    "immune":2,
    "anybody":2,
    "minutes":2,
    "jesus":2,
    "anymore":2,
    "sake":2,
    "killing":2,
    "best":2,
    "hadnt":2,
    "while":2,
    "heaven":2,
    "aint":2,
    "wing":2,
    "yes":2,
    "suppose":2,
    "being":2,
    "must":2,
    "worry":2,
    "inside":2,
    "scripted":2,
    "heart":2,
    "dying":2,
    "appear":2,
    "bones":2,
    "kind":2,
    "fast":2,
    "having":2,
    "others":2,
    "different":2,
    "organs":2,
    "bone":2,
    "sunrise":2,
    "happens":2,
    "race":2,
    "sun":2,
    "follow":2,
    "ask":2,
    "starting":2,
    "words":2,
    "knew":2,
    "hooked":2,
    "hook":2,
    "ourselves":2,
    "phosphor":2,
    "wasting":2,
    "days":2,
    "burning":2,
    "dude":2,
    "even":2,
    "settle":2,
    "regroup":2,
    "perfect":2,
    "other":2,
    "step":2,
    "real":2,
    "greek":2,
    "please":2,
    "logical":2,
    "brother":2,
    "dud":2,
    "leash":2,
    "wanted":2,
    "cared":2,
    "losing":2,
    "voulezvous":2,
    "coucher":2,
    "avec":2,
    "moi":2,
    "ready":3,
    "contact":3,
    "nobody":3,
    "call":3,
    "came":3,
    "b":3,
    "em":3,
    "try":3,
    "listen":3,
    "feel":3,
    "hope":3,
    "else":3,
    "mine":3,
    "meet":3,
    "though":3,
    "most":3,
    "whatever":3,
    "made":3,
    "problem":3,
    "head":3,
    "last":3,
    "hey":3,
    "ass":3,
    "pretty":3,
    "weapon":3,
    "stop":3,
    "giving":3,
    "found":3,
    "themselves":3,
    "along":3,
    "might":3,
    "feeding":3,
    "seen":3,
    "myself":3,
    "thank":3,
    "coming":3,
    "ive":3,
    "patient":3,
    "devil":3,
    "rest":3,
    "humans":3,
    "become":3,
    "training":3,
    "friend":3,
    "snowman":3,
    "lighthammer":3,
    "chief":3,
    "game":3,
    "hunter":3,
    "will":3,
    "give":3,
    "anyone":3,
    "sunlight":3,
    "lights":3,
    "six":3,
    "had":3,
    "remember":3,
    "havent":3,
    "athelfiki":3,
    "singenia":3,
    "ex":3,
    "amato":3,
    "hours":3,
    "lost":3,
    "away":3,
    "everything":3,
    "playing":3,
    "ago":3,
    "which":3,
    "turned":3,
    "against":3,
    "yourselves":3,
    "survive":3,
    "talk":3,
    "maybe":3,
    "pheromones":3,
    "team":3,
    "dead":3,
    "each":3,
    "life":3,
    "turns":3,
    "material":3,
    "jared":4,
    "case":4,
    "does":4,
    "mean":4,
    "bad":4,
    "hate":4,
    "end":4,
    "scud":4,
    "work":4,
    "night":4,
    "theres":4,
    "son":4,
    "bitch":4,
    "took":4,
    "watching":4,
    "put":4,
    "better":4,
    "gave":4,
    "anyway":4,
    "chicken":4,
    "around":4,
    "operation":4,
    "save":4,
    "getting":4,
    "security":4,
    "asad":4,
    "than":4,
    "true":4,
    "trust":4,
    "through":4,
    "virus":4,
    "years":4,
    "created":4,
    "isnt":4,
    "alright":4,
    "silver":4,
    "entry":4,
    "kill":4,
    "theyll":4,
    "things":4,
    "oh":4,
    "god":4,
    "hurts":4,
    "own":4,
    "feed":4,
    "trying":4,
    "many":4,
    "means":4,
    "line":4,
    "yourself":4,
    "hunting":4,
    "genetic":4,
    "body":5,
    "next":5,
    "cant":5,
    "talking":5,
    "gonna":5,
    "enough":5,
    "thirst":5,
    "close":5,
    "seems":5,
    "alive":5,
    "system":5,
    "yeah":5,
    "whole":5,
    "nyssa":5,
    "father":5,
    "enemies":5,
    "enemy":5,
    "stevens":5,
    "over":5,
    "need":5,
    "id":5,
    "pain":5,
    "because":5,
    "wont":5,
    "every":5,
    "thought":5,
    "down":5,
    "only":5,
    "would":5,
    "never":5,
    "still":5,
    "let":5,
    "day":5,
    "has":6,
    "use":6,
    "anything":6,
    "those":6,
    "youll":6,
    "wouldnt":6,
    "thing":6,
    "few":6,
    "theyve":6,
    "damaskinos":6,
    "new":6,
    "reaper":6,
    "die":6,
    "hell":6,
    "since":6,
    "uv":6,
    "already":6,
    "right":6,
    "way":6,
    "doesnt":6,
    "some":7,
    "lets":7,
    "make":7,
    "after":7,
    "before":7,
    "human":7,
    "nothing":7,
    "when":7,
    "said":7,
    "may":7,
    "yours":7,
    "hunt":7,
    "first":7,
    "reinhardt":7,
    "shit":7,
    "supposed":7,
    "an":8,
    "good":8,
    "come":8,
    "go":8,
    "youve":8,
    "say":8,
    "into":8,
    "take":8,
    "two":8,
    "am":8,
    "much":8,
    "people":9,
    "vampires":9,
    "tell":9,
    "old":9,
    "man":9,
    "can":9,
    "more":9,
    "reapers":9,
    "these":9,
    "keep":9,
    "or":10,
    "blood":10,
    "his":10,
    "ill":10,
    "weve":10,
    "long":10,
    "doing":10,
    "look":10,
    "whats":10,
    "vampire":10,
    "who":10,
    "off":11,
    "their":11,
    "see":12,
    "didnt":12,
    "back":12,
    "did":12,
    "at":12,
    "theyre":12,
    "no":13,
    "thats":13,
    "why":13,
    "fuck":13,
    "time":13,
    "where":14,
    "got":14,
    "there":14,
    "well":14,
    "then":14,
    "them":14,
    "how":15,
    "whistler":15,
    "all":15,
    "our":15,
    "too":15,
    "little":16,
    "something":16,
    "know":16,
    "hes":16,
    "want":16,
    "nomak":17,
    "now":17,
    "get":17,
    "think":17,
    "any":18,
    "from":18,
    "one":18,
    "its":18,
    "fucking":18,
    "just":18,
    "but":18,
    "my":19,
    "here":19,
    "as":20,
    "going":21,
    "if":21,
    "us":22,
    "so":22,
    "been":22,
    "they":23,
    "blade":23,
    "were":24,
    "im":24,
    "about":25,
    "he":25,
    "him":25,
    "dont":26,
    "not":26,
    "up":26,
    "youre":26,
    "out":27,
    "was":27,
    "like":31,
    "on":32,
    "have":33,
    "are":33,
    "with":34,
    "be":35,
    "is":37,
    "we":38,
    "do":38,
    "for":39,
    "and":45,
    "in":46,
    "this":46,
    "me":51,
    "your":52,
    "that":53,
    "what":56,
    "":59,
    "it":65,
    "of":68,
    "i":93,
    "a":102,
    "to":135,
    "the":165,
    "you":204
}