{
    "petes":1,
    "guests":1,
    "fooling":1,
    "darn":1,
    "rheostat":1,
    "miles":1,
    "report":1,
    "numbers":1,
    "declaring":1,
    "stand":1,
    "calvins":1,
    "nutty":1,
    "housewife":1,
    "cook":1,
    "pregnant":1,
    "betty":1,
    "dave":1,
    "sister":1,
    "cash":1,
    "goldenboy":1,
    "professor":1,
    "cal":1,
    "tech":1,
    "starts":1,
    "inventing":1,
    "special":1,
    "synthetic":1,
    "rubber":1,
    "automated":1,
    "machine":1,
    "gets":1,
    "quits":1,
    "teaching":1,
    "doctor":1,
    "moved":1,
    "beverly":1,
    "hills":1,
    "decided":1,
    "spends":1,
    "tinkering":1,
    "workshop":1,
    "strange":1,
    "currently":1,
    "exists":1,
    "neon":1,
    "battery":1,
    "decade":1,
    "marketing":1,
    "products":1,
    "veeeery":1,
    "harold":1,
    "capitalism":1,
    "reasons":1,
    "complete":1,
    "kennedys":1,
    "toetotoe":1,
    "khrushchev":1,
    "sudden":1,
    "clandestine":1,
    "decision":1,
    "strategic":1,
    "weapons":1,
    "soil":1,
    "deliberately":1,
    "provocative":1,
    "unjustified":1,
    "status":1,
    "quo":1,
    "cannot":1,
    "accepted":1,
    "intentions":1,
    "secondaries":1,
    "fire":1,
    "area":1,
    "eject":1,
    "prematurely":1,
    "unnecessarily":1,
    "cost":1,
    "worldwide":1,
    "fruits":1,
    "victory":1,
    "ashes":1,
    "neither":1,
    "shrink":1,
    "faced":1,
    "extraordinary":1,
    "events":1,
    "prudent":1,
    "cuban":1,
    "resolve":1,
    "itself":1,
    "meantimeid":1,
    "suggest":1,
    "prayerful":1,
    "watchandwait":1,
    "stance":1,
    "next":1,
    "wrap":1,
    "whatd":1,
    "contrary":1,
    "pot":1,
    "waste":1,
    "cover":1,
    "shuts":1,
    "automatically":1,
    "clever":1,
    "fighter":1,
    "jet":1,
    "amigo":1,
    "repeat":1,
    "downstairs":1,
    "dishes":1,
    "dried":1,
    "radioactive":1,
    "cheese":1,
    "troublesome":1,
    "kraft":1,
    "mexican":1,
    "jumping":1,
    "bean":1,
    "step":1,
    "radio":1,
    "sar":1,
    "helo":1,
    "airborne":1,
    "marking":1,
    "180":1,
    "radial":1,
    "ejecting":1,
    "rather":1,
    "motto":1,
    "labor":1,
    "read":1,
    "deliver":1,
    "smoking":1,
    "death":1,
    "fathers":1,
    "heat":1,
    "indicators":1,
    "knocked":1,
    "lordits":1,
    "actually":1,
    "noise":1,
    "atomic":1,
    "halflife":1,
    "worry":1,
    "according":1,
    "bonafide":1,
    "borderline":1,
    "hit":1,
    "postcard":1,
    "somethin":1,
    "relatives":1,
    "east":1,
    "neighbors":1,
    "spent":1,
    "shed":1,
    "sandwiches":1,
    "feeling":1,
    "strong":1,
    "sweetheart":1,
    "ourselves":1,
    "burnt":1,
    "crisp":1,
    "welldone":1,
    "hungry":1,
    "bit":1,
    "chilly":1,
    "temperatures":1,
    "73":1,
    "degrees":1,
    "creeps":1,
    "different":1,
    "tranquilizer":1,
    "tranquilizers":1,
    "annihilation":1,
    "babies":1,
    "cry":1,
    "noticed":1,
    "wonderingifif":1,
    "iyou":1,
    "ceiling":1,
    "examining":1,
    "rear":1,
    "hatchway":1,
    "reason":1,
    "return":1,
    "using":1,
    "elevator":1,
    "fool":1,
    "septic":1,
    "tank":1,
    "lay":1,
    "foundation":1,
    "certain":1,
    "webbers":1,
    "parcel":1,
    "rezoned":1,
    "commercial":1,
    "avenue":1,
    "willies":1,
    "al":1,
    "ice":1,
    "won":1,
    "der":1,
    "lan":1,
    "half":1,
    "year":1,
    "terrific":1,
    "bright":1,
    "littleyoung":1,
    "nonsense":1,
    "alice":1,
    "rebuild":1,
    "promises":1,
    "kept":1,
    "fact":1,
    "guessing":1,
    "somethings":1,
    "moving":1,
    "cockroaches":1,
    "banana":1,
    "splits":1,
    "cherry":1,
    "coke":1,
    "world":1,
    "fun":1,
    "learning":1,
    "flowerpower":1,
    "kids":1,
    "umuh":1,
    "music":1,
    "coin":1,
    "investment":1,
    "worthless":1,
    "move":1,
    "latin":1,
    "already":1,
    "flies":1,
    "tempus":1,
    "fugit":1,
    "en":1,
    "arte":1,
    "voluptus":1,
    "que":1,
    "les":1,
    "bons":1,
    "temps":1,
    "roul\ufffd":1,
    "gerade":1,
    "aus":1,
    "dann":1,
    "links":1,
    "sorgen":1,
    "bitte":1,
    "dafur":1,
    "das":1,
    "gepack":1,
    "sorgfaltic":1,
    "behandeldt":1,
    "warren":1,
    "haben":1,
    "etuas":1,
    "nettes":1,
    "leder":1,
    "acorn":1,
    "tree":1,
    "game":1,
    "painting":1,
    "moms":1,
    "throws":1,
    "ball":1,
    "bat":1,
    "nocturnal":1,
    "flying":1,
    "mammal":1,
    "likeoh":1,
    "wowlikeuh":1,
    "neighborhood":1,
    "runner":1,
    "goes":1,
    "forced":1,
    "force":1,
    "presents":1,
    "lights":1,
    "jacket":1,
    "herself":1,
    "cow":1,
    "rollerskates":1,
    "redesigned":1,
    "design":1,
    "bunch":1,
    "baloney":1,
    "believed":1,
    "wished":1,
    "glow":1,
    "hopeful":1,
    "dig":1,
    "elbows":1,
    "someday":1,
    "dine":1,
    "white":1,
    "president":1,
    "upim":1,
    "generator":1,
    "fascinates":1,
    "sowe":1,
    "umis":1,
    "prayer":1,
    "nowis":1,
    "precisely":1,
    "cautious":1,
    "barely":1,
    "whisper":1,
    "tired":1,
    "helenthomaswebber":1,
    "word":1,
    "archaic":1,
    "colloquialism":1,
    "roughly":1,
    "meaninggood":1,
    "wellthenshit":1,
    "monsieur":1,
    "merci":1,
    "thingsalcoholics":1,
    "anonymouscocaine":1,
    "anonymousheroin":1,
    "heroin":1,
    "power":1,
    "greater":1,
    "lifted":1,
    "skyward":1,
    "except":1,
    "airplane":1,
    "afford":1,
    "bel":1,
    "ohgod":1,
    "save":1,
    "peace":1,
    "soyousurvived":1,
    "host":1,
    "survive":1,
    "mehas":1,
    "beenhell":1,
    "yonder":1,
    "everywhere":1,
    "cute":1,
    "remarkably":1,
    "low":1,
    "200":1,
    "browse":1,
    "beating":1,
    "bush":1,
    "apparently":1,
    "createda":1,
    "subspecies":1,
    "garbage":1,
    "cans":1,
    "arecover":1,
    "ears":1,
    "hum":1,
    "literally":1,
    "aremultisexual":1,
    "seemsthey":1,
    "masculine":1,
    "femininesimultaneously":1,
    "body":1,
    "rebuilding":1,
    "society":1,
    "utterly":1,
    "streets":1,
    "terribly":1,
    "automobiles":1,
    "andand":1,
    "ohmy":1,
    "opinion":1,
    "eventually":1,
    "deserve":1,
    "household":1,
    "mountain":1,
    "range":1,
    "attack":1,
    "horrifying":1,
    "experience":1,
    "brave":1,
    "anybody":1,
    "asks":1,
    "travel":1,
    "nightfall":1,
    "packed":1,
    "uhyou":1,
    "allthat":1,
    "knowtry":1,
    "littlejust":1,
    "lastfifteen":1,
    "adamthat":1,
    "mutantand":1,
    "hopefully":1,
    "against":1,
    "knowalways":1,
    "seemed":1,
    "nicer":1,
    "liquor":1,
    "shopping":1,
    "list":1,
    "3000":1,
    "final":1,
    "words":1,
    "buzz":1,
    "adamdont":1,
    "forgetdont":1,
    "alsostay":1,
    "poison":1,
    "ooooohhhh":1,
    "wasted":1,
    "awful":1,
    "fault":1,
    "decay":1,
    "pray":1,
    "mommy":1,
    "whatcha":1,
    "stars":1,
    "negro":1,
    "afternoon":1,
    "howdy":1,
    "angry":1,
    "grocery":1,
    "knowmaybe":1,
    "meshugina":1,
    "geemanee":1,
    "bakersfield":1,
    "sixthirty":1,
    "dozen":1,
    "pound":1,
    "twelve":1,
    "seventyfive":1,
    "boxes":1,
    "almostfive":1,
    "hamburger":1,
    "diesel":1,
    "oil":1,
    "meat":1,
    "delivered":1,
    "terrificexceptit":1,
    "occurred":1,
    "gladly":1,
    "myoh":1,
    "alive":1,
    "although":1,
    "hoping":1,
    "howhow":1,
    "mickey":1,
    "rookie":1,
    "season":1,
    "smaller":1,
    "fives":1,
    "tens":1,
    "whatill":1,
    "workin":1,
    "eveypoo":1,
    "soir":1,
    "mademoiselle":1,
    "sports":1,
    "memorabilia":1,
    "self":1,
    "terrificyoure":1,
    "ferryexcuse":1,
    "salon":1,
    "chevy":1,
    "dealer":1,
    "appreciate":1,
    "heathcliff":1,
    "corner":1,
    "mazelfuckintov":1,
    "ms":1,
    "finished":1,
    "hobby":1,
    "dontcha":1,
    "judging":1,
    "barber":1,
    "college":1,
    "saydid":1,
    "lose":1,
    "sick":1,
    "working":1,
    "penis":1,
    "intelligent":1,
    "speech":1,
    "mental":1,
    "surprise":1,
    "psychici":1,
    "land":1,
    "hollywood":1,
    "idiot":1,
    "exciting":1,
    "fernando":1,
    "clue":1,
    "brings":1,
    "correct":1,
    "predict":1,
    "sweetie":1,
    "rule":1,
    "nope":1,
    "changes":1,
    "fuck":1,
    "hornsbys":1,
    "dimaggios":1,
    "robinsons":1,
    "physical":1,
    "space":1,
    "ship":1,
    "somister":1,
    "andretti":1,
    "traffic":1,
    "reports":1,
    "takes":1,
    "scary":1,
    "sonofagun":1,
    "shortcut":1,
    "geezooie":1,
    "cranked":1,
    "waswonderful":1,
    "suitcase":1,
    "bathrooms":1,
    "tvs":1,
    "remotes":1,
    "top":1,
    "menu":1,
    "dial":1,
    "kiddin":1,
    "wellgood":1,
    "sleep":1,
    "tight":1,
    "bedbugs":1,
    "bite":1,
    "beginning":1,
    "twentyfive":1,
    "send":1,
    "angel":1,
    "protect":1,
    "beloved":1,
    "hotdiggitydog":1,
    "calling":1,
    "telephone":1,
    "grief":1,
    "driving":1,
    "desk":1,
    "brushed":1,
    "enjoy":1,
    "follow":1,
    "puppy":1,
    "taken":1,
    "above":1,
    "eyeman":1,
    "watching":1,
    "cross":1,
    "andmen":1,
    "butts":1,
    "wind":1,
    "lowpaying":1,
    "demeaning":1,
    "named":1,
    "keeps":1,
    "telling":1,
    "lousy":1,
    "helping":1,
    "several":1,
    "large":1,
    "trucks":1,
    "fair":1,
    "careers":1,
    "twenty":1,
    "cia":1,
    "nawits":1,
    "charity":1,
    "thingi":1,
    "yachts":1,
    "milk":1,
    "staring":1,
    "eight":1,
    "rent":1,
    "refrigerated":1,
    "dandy":1,
    "locker":1,
    "sounds":1,
    "meaner":1,
    "sound":1,
    "genie":1,
    "awife":1,
    "mutant":1,
    "dogs":1,
    "marry":1,
    "locate":1,
    "pasadenathat":1,
    "running":1,
    "driven":1,
    "bitching":1,
    "laurens":1,
    "interesting":1,
    "fellow":1,
    "doin":1,
    "shana":1,
    "gillroys":1,
    "apartment":1,
    "harvard":1,
    "former":1,
    "lived":1,
    "actuallyno":1,
    "mans":1,
    "unbelievable":1,
    "darlin":1,
    "xfile":1,
    "negotiable":1,
    "property":1,
    "setting":1,
    "selfsustaining":1,
    "island":1,
    "coast":1,
    "south":1,
    "instance":1,
    "cult":1,
    "sea":1,
    "urchin":1,
    "wrapped":1,
    "seaweed":1,
    "nori":1,
    "prefer":1,
    "sushi":1,
    "lucy":1,
    "nut":1,
    "champagne":1,
    "cocktail":1,
    "hookers":1,
    "fifteen":1,
    "minutes":1,
    "chat":1,
    "adamwhere":1,
    "rearended":1,
    "palm":1,
    "springs":1,
    "guessed":1,
    "button":1,
    "dionne":1,
    "warwick":1,
    "seeim":1,
    "promising":1,
    "umhum":1,
    "seeingsnow":1,
    "lots":1,
    "snow":1,
    "inalaska":1,
    "wow":1,
    "butthead":1,
    "clairvoyant":1,
    "goosebumps":1,
    "closer":1,
    "questions":1,
    "become":1,
    "russia":1,
    "1867":1,
    "sewards":1,
    "folly":1,
    "paid":1,
    "72":1,
    "million":1,
    "tidy":1,
    "sum":1,
    "quoting":1,
    "capitol":1,
    "anchorage":1,
    "gotcha":1,
    "largest":1,
    "city":1,
    "wheres":1,
    "answers":1,
    "excused":1,
    "talking":1,
    "mac":1,
    "hacker":1,
    "cabin":1,
    "winters":1,
    "peak":1,
    "mt":1,
    "mckinley":1,
    "stink":1,
    "itsjust":1,
    "start":1,
    "chance":1,
    "dressed":1,
    "object":1,
    "whataya":1,
    "surfer":1,
    "grunge":1,
    "hip":1,
    "hop":1,
    "euro":1,
    "trash":1,
    "mens":1,
    "apparel":1,
    "blunt":1,
    "shoe":1,
    "fits":1,
    "strapless":1,
    "elegant":1,
    "lauren":1,
    "sensing":1,
    "boring":1,
    "wearing":1,
    "napkins":1,
    "clothing":1,
    "tiring":1,
    "arm":1,
    "foot":1,
    "tall":1,
    "buildings":1,
    "impressive":1,
    "rebuilt":1,
    "impressed":1,
    "thinkitworks":1,
    "trousseau":1,
    "block":1,
    "himself":1,
    "bike":1,
    "path":1,
    "waters":1,
    "freezing":1,
    "standards":1,
    "hasnt":1,
    "rain":1,
    "scientist":1,
    "miracle":1,
    "recently":1,
    "wasn":1,
    "t":1,
    "meant":1,
    "hunting":1,
    "tonight":1,
    "finding":1,
    "every":1,
    "wellyeah":1,
    "q":1,
    "park":1,
    "refuses":1,
    "total":1,
    "ladies":1,
    "vaguely":1,
    "loose":1,
    "advice":1,
    "moly":1,
    "payoly":1,
    "neato":1,
    "easier":1,
    "hunk":1,
    "lives":1,
    "parle":1,
    "tres":1,
    "accent":1,
    "speak":1,
    "beautiful":1,
    "jai":1,
    "habit\ufffd":1,
    "ville":1,
    "de":1,
    "lumieres":1,
    "bien":1,
    "rencontrer":1,
    "quelquun":1,
    "pour":1,
    "le":1,
    "si":1,
    "veux":1,
    "nous":1,
    "pouvons":1,
    "beaucoup":1,
    "des":1,
    "choses":1,
    "ensemble":1,
    "non":1,
    "cherie":1,
    "bientot":1,
    "rob":1,
    "roy":1,
    "popular":1,
    "written":1,
    "dictionary":1,
    "bitches":1,
    "expression":1,
    "face":1,
    "fingernails":1,
    "crumb":1,
    "educate":1,
    "putting":1,
    "unpredictable":1,
    "basically":1,
    "sending":1,
    "signals":1,
    "ahha":1,
    "hors":1,
    "doeuvres":1,
    "lie":1,
    "lying":1,
    "effective":1,
    "dating":1,
    "tool":1,
    "juliet":1,
    "cried":1,
    "seem":1,
    "congressional":1,
    "medal":1,
    "honor":1,
    "bravo":1,
    "rodeo":1,
    "professional":1,
    "lesson":1,
    "everyday":1,
    "couple":1,
    "ago":1,
    "taught":1,
    "lovely":1,
    "foreigner":1,
    "bathroom":1,
    "bossy":1,
    "whered":1,
    "learn":1,
    "subject":1,
    "truth":1,
    "sap":1,
    "clean":1,
    "green":1,
    "sport":1,
    "bar":1,
    "roommate":1,
    "interruption":1,
    "brother":1,
    "rude":1,
    "warn":1,
    "defend":1,
    "fighting":1,
    "immature":1,
    "blame":1,
    "outbecause":1,
    "uhhe":1,
    "sluts":1,
    "hold":1,
    "weirdos":1,
    "known":1,
    "grown":1,
    "collect":1,
    "pee":1,
    "slob":1,
    "present":1,
    "proper":1,
    "appearing":1,
    "superior":1,
    "thinks":1,
    "consider":1,
    "source":1,
    "owned":1,
    "horses":1,
    "turns":1,
    "definition":1,
    "attempts":1,
    "matters":1,
    "oddest":1,
    "memo":1,
    "swept":1,
    "whispering":1,
    "ear":1,
    "scare":1,
    "stupid":1,
    "vicente":1,
    "boulevard":1,
    "unsafe":1,
    "knowand":1,
    "neck":1,
    "limping":1,
    "sophies":1,
    "hospitable":1,
    "politely":1,
    "mister":1,
    "sings":1,
    "sing":1,
    "once":1,
    "iseveral":1,
    "stories":1,
    "knowing":1,
    "imon":1,
    "overjoyed":1,
    "adamdumb":1,
    "dropped":1,
    "huge":1,
    "shelters":1,
    "worked":1,
    "secretly":1,
    "contractors":1,
    "outof":1,
    "portion":1,
    "government":1,
    "experiment":1,
    "liar":1,
    "case":1,
    "brothers":1,
    "vent":1,
    "tricky":1,
    "able":1,
    "flood":1,
    "control":1,
    "sewer":1,
    "plenty":1,
    "cab":1,
    "hour":1,
    "tonightand":1,
    "kiss":1,
    "pleasure":1,
    "strangest":1,
    "allbeef":1,
    "magazine":1,
    "toy":1,
    "places":1,
    "mask":1,
    "usually":1,
    "glasses":1,
    "yeahseems":1,
    "county":1,
    "services":1,
    "department":1,
    "difference":1,
    "introduce":1,
    "associate":1,
    "brown":1,
    "experiences":1,
    "depends":1,
    "invitation":1,
    "adamyou":1,
    "bother":1,
    "hearing":1,
    "underground":1,
    "silence":1,
    "lambs":1,
    "catch":1,
    "assistance":1,
    "complaint":1,
    "resists":1,
    "obser":1,
    "theyll":1,
    "handcuffs":1,
    "needs":1,
    "protection":1,
    "confused":1,
    "judge":1,
    "frightened":1,
    "yourecertainly":1,
    "license":1,
    "fuckedup":1,
    "godyou":1,
    "melker":1,
    "earlier":1,
    "church":1,
    "group":1,
    "volunteered":1,
    "hurry":1,
    "chased":1,
    "happens":1,
    "horrible":1,
    "forehead":1,
    "sogoddamn":1,
    "ibm":1,
    "att":1,
    "polaroid":1,
    "purchased":1,
    "1958":1,
    "59":1,
    "shares":1,
    "theyd":1,
    "knowmillions":1,
    "toothpaste":1,
    "level":1,
    "blew":1,
    "walks":1,
    "kindest":1,
    "polite":1,
    "honest":1,
    "trustworthy":1,
    "incredibly":1,
    "committed":1,
    "iswhat":1,
    "anywhere":1,
    "stopped":1,
    "excited":1,
    "dirty":1,
    "trendy":1,
    "address":1,
    "basement":1,
    "shop":1,
    "none":1,
    "mostly":1,
    "homes":1,
    "fruit":1,
    "orchards":1,
    "message":1,
    "fast":1,
    "hate":1,
    "evethis":1,
    "meand":1,
    "iuhthat":1,
    "umi":1,
    "thatsconsiderably":1,
    "shorter":1,
    "worried":1,
    "wewe":1,
    "entertained":1,
    "guest":1,
    "inum":1,
    "asking":1,
    "trust":1,
    "understanding":1,
    "caseof":1,
    "wellsureokay":1,
    "nosey":1,
    "adamumdating":1,
    "toast":1,
    "shstuff":1,
    "heated":1,
    "garden":1,
    "eden":1,
    "between":1,
    "truly":1,
    "unlimited":1,
    "funds":1,
    "built":1,
    "thisi":1,
    "costs":1,
    "lamp":1,
    "elton":1,
    "john":1,
    "handle":1,
    "lifewell":1,
    "frankly":1,
    "joke":1,
    "mothers":1,
    "convince":1,
    "milker":1,
    "broken":1,
    "showed":1,
    "plans":1,
    "hottest":1,
    "original":1,
    "spot":1,
    "percent":1,
    "partner":1,
    "retain":1,
    "ownership":1,
    "praise":1,
    "real":1,
    "slowly":1,
    "break":1,
    "news":1,
    "holocaust":1,
    "internet":1,
    "tape":1,
    "turned":1,
    "ieloped":1,
    "mighty":1,
    "typewritertelephonepost":1,
    "eves":1,
    "russian":1,
    "ukrainian":1,
    "grandparents":1,
    "immigrated":1,
    "thinkdadthere":1,
    "newspapers":1,
    "positive":1,
    "union":1,
    "cold":1,
    "believes":1,
    "politburo":1,
    "commies":1,
    "brilliant":1,
    "bombs":1,
    "evil":1,
    "empire":1,
    "cagey":1,
    "rascals":1,
    "sly":1,
    "dissemblers":1,
    "pulled":1,
    "wool":1,
    "historically":1,
    "whenever":1,
    "incorrect":1,
    "smile":1,
    "slap":1,
    "knee":1,
    "spoil":1,
    "sake":2,
    "hon":2,
    "overhead":2,
    "normal":2,
    "husband":2,
    "welcome":2,
    "clerk":2,
    "lip":2,
    "balm":2,
    "bill":2,
    "suddenly":2,
    "hows":2,
    "ordered":2,
    "type":2,
    "lasts":2,
    "wont":2,
    "market":2,
    "simple":2,
    "rig":2,
    "system":2,
    "public":2,
    "free":2,
    "order":2,
    "collection":2,
    "station":2,
    "outside":2,
    "soviet":2,
    "engine":2,
    "clear":2,
    "roger":2,
    "risk":2,
    "nuclear":2,
    "war":2,
    "mouth":2,
    "given":2,
    "turn":2,
    "short":2,
    "week":2,
    "heres":2,
    "hat":2,
    "everythings":2,
    "roast":2,
    "seat":2,
    "chair":2,
    "west":2,
    "luck":2,
    "declared":2,
    "plates":2,
    "arent":2,
    "particularly":2,
    "dip":2,
    "sight":2,
    "blow":2,
    "baby":2,
    "waiting":2,
    "thirty":2,
    "caltech":2,
    "genius":2,
    "nutcase":2,
    "unless":2,
    "drank":2,
    "child":2,
    "friends":2,
    "favorite":2,
    "born":2,
    "earth":2,
    "shall":2,
    "whatever":2,
    "looked":2,
    "caved":2,
    "killed":2,
    "bank":2,
    "crashed":2,
    "yep":2,
    "gives":2,
    "price":2,
    "school":2,
    "match":2,
    "human":2,
    "capable":2,
    "hole":2,
    "making":2,
    "survivors":2,
    "boys":2,
    "uhyeah":2,
    "hard":2,
    "looks":2,
    "paper":2,
    "certificates":2,
    "bought":2,
    "quite":2,
    "valuable":2,
    "exam":2,
    "tuesday":2,
    "sie":2,
    "sense":2,
    "humor":2,
    "gave":2,
    "entire":2,
    "explain":2,
    "pitcher":2,
    "anyway":2,
    "cool":2,
    "second":2,
    "third":2,
    "candles":2,
    "tells":2,
    "dark":2,
    "cake":2,
    "definitely":2,
    "cest":2,
    "anonymous":2,
    "high":2,
    "welli":2,
    "earthquake":2,
    "air":2,
    "survived":2,
    "act":2,
    "throw":2,
    "furniture":2,
    "tried":2,
    "sell":2,
    "offer":2,
    "guns":2,
    "each":2,
    "terrible":2,
    "head":2,
    "seems":2,
    "afraid":2,
    "simply":2,
    "outoftown":2,
    "standing":2,
    "few":2,
    "loves":2,
    "invisible":2,
    "yellow":2,
    "close":2,
    "alright":2,
    "poisonous":2,
    "immediately":2,
    "gun":2,
    "birthday":2,
    "beef":2,
    "patties":2,
    "fresh":2,
    "nine":2,
    "gracious":2,
    "older":2,
    "window":2,
    "interested":2,
    "mantle":2,
    "dollar":2,
    "bills":2,
    "screw":2,
    "jerry":2,
    "lords":2,
    "vain":2,
    "walk":2,
    "hah":2,
    "happy":2,
    "shot":2,
    "saying":2,
    "admire":2,
    "jewelry":2,
    "walking":2,
    "picture":2,
    "pick":2,
    "visit":2,
    "staying":2,
    "somewhere":2,
    "san":2,
    "completely":2,
    "strangers":2,
    "hornsby":2,
    "freeway":2,
    "part":2,
    "slow":2,
    "end":2,
    "felt":2,
    "fill":2,
    "makes":2,
    "fifteenth":2,
    "amen":2,
    "lobby":2,
    "glad":2,
    "boyfriend":2,
    "combination":2,
    "crap":2,
    "color":2,
    "knows":2,
    "marriage":2,
    "pay":2,
    "instead":2,
    "mad":2,
    "um":2,
    "married":2,
    "single":2,
    "bites":2,
    "sisters":2,
    "everybodys":2,
    "huh":2,
    "probably":2,
    "laid":2,
    "nonmutant":2,
    "later":2,
    "forgot":2,
    "ralph":2,
    "wherever":2,
    "model":2,
    "admit":2,
    "wear":2,
    "underpants":2,
    "obviously":2,
    "ceilings":2,
    "em":2,
    "dinner":2,
    "anyone":2,
    "nome":2,
    "gay":2,
    "state":2,
    "use":2,
    "juneau":2,
    "through":2,
    "highest":2,
    "knock":2,
    "personal":2,
    "meeting":2,
    "seeing":2,
    "means":2,
    "suppose":2,
    "busy":2,
    "recovery":2,
    "skate":2,
    "girlfriend":2,
    "unimpressed":2,
    "bored":2,
    "jonathan":2,
    "names":2,
    "francais":2,
    "un":2,
    "paris":2,
    "pratiquer":2,
    "showing":2,
    "obvious":2,
    "drink":2,
    "attractive":2,
    "romeo":2,
    "surprising":2,
    "heather":2,
    "dancer":2,
    "lied":2,
    "agree":2,
    "leaving":2,
    "pimp":2,
    "slut":2,
    "bed":2,
    "respect":2,
    "trouble":2,
    "having":2,
    "cars":2,
    "houses":2,
    "information":2,
    "coward":2,
    "sex":2,
    "aid":2,
    "steady":2,
    "taxi":2,
    "drop":2,
    "street":2,
    "los":2,
    "angeles":2,
    "secret":2,
    "dads":2,
    "choice":2,
    "neat":2,
    "sign":2,
    "movie":2,
    "nina":2,
    "mr":2,
    "today":2,
    "wants":2,
    "knowi":2,
    "police":2,
    "hurt":2,
    "remain":2,
    "archbishop":2,
    "psychiatrist":2,
    "porno":2,
    "under":2,
    "adams":2,
    "poor":2,
    "children":2,
    "such":2,
    "emergency":3,
    "mention":3,
    "communists":3,
    "helen":3,
    "duck":3,
    "check":3,
    "same":3,
    "batteries":3,
    "yacht":3,
    "easily":3,
    "television":3,
    "country":3,
    "everyone":3,
    "cut":3,
    "taking":3,
    "yet":3,
    "ones":3,
    "lawn":3,
    "anymore":3,
    "hear":3,
    "rest":3,
    "easy":3,
    "getting":3,
    "watch":3,
    "safe":3,
    "myself":3,
    "straight":3,
    "happened":3,
    "trying":3,
    "blast":3,
    "fine":3,
    "mrs":3,
    "bedroom":3,
    "front":3,
    "service":3,
    "daddy":3,
    "idea":3,
    "used":3,
    "living":3,
    "stock":3,
    "die":3,
    "fall":3,
    "sit":3,
    "made":3,
    "holy":3,
    "family":3,
    "bon":3,
    "shut":3,
    "backyard":3,
    "song":3,
    "point":3,
    "others":3,
    "theyve":3,
    "collapsed":3,
    "ii":3,
    "matter":3,
    "sky":3,
    "heart":3,
    "town":3,
    "write":3,
    "inn":3,
    "hed":3,
    "fight":3,
    "pipe":3,
    "tobacco":3,
    "young":3,
    "woman":3,
    "lord":3,
    "forgive":3,
    "deal":3,
    "box":3,
    "whole":3,
    "fired":3,
    "quit":3,
    "together":3,
    "serious":3,
    "ass":3,
    "kick":3,
    "dickhead":3,
    "la":3,
    "amazing":3,
    "own":3,
    "north":3,
    "feel":3,
    "rogers":3,
    "four":3,
    "many":3,
    "como":3,
    "thirtyfive":3,
    "floor":3,
    "somebody":3,
    "havent":3,
    "hand":3,
    "weeks":3,
    "someone":3,
    "poultry":3,
    "crazy":3,
    "alone":3,
    "everybody":3,
    "bye":3,
    "question":3,
    "wondering":3,
    "youd":3,
    "weird":3,
    "computer":3,
    "windows":3,
    "taste":3,
    "mother":3,
    "clothes":3,
    "wazoo":3,
    "men":3,
    "pants":3,
    "until":3,
    "rustokov":3,
    "jason":3,
    "tu":3,
    "women":3,
    "dancers":3,
    "fell":3,
    "1962":3,
    "asked":3,
    "lady":3,
    "comfortable":3,
    "aron":3,
    "office":3,
    "calm":3,
    "ten":3,
    "dreams":3,
    "set":3,
    "tower":4,
    "number":4,
    "likes":4,
    "rich":4,
    "heck":4,
    "may":4,
    "perfect":4,
    "best":4,
    "change":4,
    "ocean":4,
    "evening":4,
    "coat":4,
    "key":4,
    "food":4,
    "worse":4,
    "holiday":4,
    "happen":4,
    "room":4,
    "surface":4,
    "locks":4,
    "after":4,
    "radiation":4,
    "plane":4,
    "entrance":4,
    "went":4,
    "open":4,
    "since":4,
    "selling":4,
    "mind":4,
    "america":4,
    "worth":4,
    "girls":4,
    "gosh":4,
    "gone":4,
    "done":4,
    "eyes":4,
    "mutants":4,
    "both":4,
    "kill":4,
    "called":4,
    "while":4,
    "pasadena":4,
    "also":4,
    "store":4,
    "saw":4,
    "adult":4,
    "gas":4,
    "promise":4,
    "healthy":4,
    "came":4,
    "smart":4,
    "goodbye":4,
    "hundred":4,
    "small":4,
    "six":4,
    "job":4,
    "butt":4,
    "car":4,
    "holding":4,
    "perry":4,
    "table":4,
    "goodnight":4,
    "finally":4,
    "talk":4,
    "legs":4,
    "works":4,
    "shallow":4,
    "enough":4,
    "starving":4,
    "divorced":4,
    "possible":4,
    "months":4,
    "heard":4,
    "shes":4,
    "she":4,
    "show":4,
    "person":4,
    "bitch":4,
    "took":4,
    "manners":4,
    "gentleman":4,
    "upon":4,
    "remember":5,
    "far":5,
    "day":5,
    "valley":5,
    "light":5,
    "three":5,
    "seen":5,
    "tomorrow":5,
    "days":5,
    "comes":5,
    "yourself":5,
    "other":5,
    "dear":5,
    "sweet":5,
    "keep":5,
    "hot":5,
    "pepper":5,
    "almost":5,
    "perhaps":5,
    "coming":5,
    "swell":5,
    "eat":5,
    "door":5,
    "supposed":5,
    "shit":5,
    "sort":5,
    "anything":5,
    "goddamn":5,
    "uhhuh":5,
    "thankq":5,
    "lot":5,
    "knew":5,
    "goodness":5,
    "thinking":5,
    "forget":5,
    "wasnt":5,
    "frozen":5,
    "hair":5,
    "psychic":5,
    "away":5,
    "drive":5,
    "left":5,
    "guys":5,
    "funny":5,
    "truck":5,
    "stuff":5,
    "met":5,
    "isnt":5,
    "alaska":5,
    "ridiculous":5,
    "friend":5,
    "dance":5,
    "minute":5,
    "found":5,
    "weve":6,
    "put":6,
    "bet":6,
    "wouldnt":6,
    "anyhow":6,
    "true":6,
    "last":6,
    "bring":6,
    "which":6,
    "ya":6,
    "certainly":6,
    "wish":6,
    "morning":6,
    "bad":6,
    "dr":6,
    "shouldnt":6,
    "bomb":6,
    "damn":6,
    "old":6,
    "care":6,
    "nothing":6,
    "french":6,
    "yours":6,
    "thanks":6,
    "else":6,
    "exactly":6,
    "might":6,
    "wrong":6,
    "run":6,
    "business":6,
    "whos":6,
    "sir":6,
    "bookstore":6,
    "understand":6,
    "driver":6,
    "bus":6,
    "big":6,
    "live":6,
    "without":6,
    "does":6,
    "their":6,
    "sophie":6,
    "being":6,
    "millions":6,
    "five":7,
    "problem":7,
    "money":7,
    "only":7,
    "least":7,
    "hope":7,
    "most":7,
    "call":7,
    "too":7,
    "house":7,
    "looking":7,
    "fallout":7,
    "dollars":7,
    "thousand":7,
    "before":7,
    "troy":7,
    "wanted":7,
    "wolf":8,
    "wife":8,
    "any":8,
    "says":8,
    "buy":8,
    "stay":8,
    "years":8,
    "new":8,
    "card":8,
    "leave":8,
    "said":8,
    "youve":8,
    "pretty":8,
    "youll":8,
    "more":8,
    "theyre":8,
    "doesnt":8,
    "boy":8,
    "kidding":8,
    "meet":8,
    "another":8,
    "am":8,
    "supplies":8,
    "try":8,
    "love":8,
    "lost":8,
    "cards":8,
    "thought":8,
    "shelter":8,
    "honey":9,
    "great":9,
    "baseball":9,
    "than":9,
    "better":9,
    "told":9,
    "uh":9,
    "girl":9,
    "should":9,
    "around":9,
    "miss":9,
    "kind":10,
    "our":10,
    "again":10,
    "still":10,
    "listen":10,
    "long":10,
    "into":10,
    "god":10,
    "doing":10,
    "excuse":10,
    "name":10,
    "dad":10,
    "wonderful":10,
    "maam":10,
    "hello":10,
    "had":10,
    "cliff":10,
    "id":11,
    "ask":11,
    "make":11,
    "must":11,
    "night":11,
    "place":11,
    "bout":11,
    "man":11,
    "hotel":11,
    "parents":11,
    "always":11,
    "stop":11,
    "help":11,
    "little":12,
    "find":12,
    "us":12,
    "everything":12,
    "father":12,
    "two":12,
    "ever":13,
    "off":13,
    "has":13,
    "been":13,
    "give":13,
    "webber":13,
    "people":13,
    "course":13,
    "lets":13,
    "son":13,
    "work":13,
    "didnt":13,
    "an":14,
    "whats":14,
    "maybe":14,
    "those":14,
    "theres":14,
    "guess":14,
    "believe":14,
    "guy":15,
    "even":15,
    "never":15,
    "because":15,
    "life":15,
    "things":16,
    "thing":16,
    "something":16,
    "were":16,
    "much":16,
    "then":17,
    "they":17,
    "when":17,
    "them":17,
    "wait":17,
    "by":18,
    "hi":18,
    "hey":18,
    "need":18,
    "tell":18,
    "way":18,
    "over":18,
    "hell":18,
    "mom":18,
    "calvin":19,
    "look":19,
    "will":19,
    "some":19,
    "take":19,
    "mean":20,
    "first":20,
    "":20,
    "ill":20,
    "sure":20,
    "let":20,
    "nice":20,
    "home":20,
    "these":20,
    "thank":20,
    "sorry":21,
    "down":21,
    "her":21,
    "really":21,
    "come":22,
    "his":22,
    "did":22,
    "about":22,
    "hes":23,
    "time":24,
    "where":24,
    "could":25,
    "can":25,
    "youre":26,
    "say":26,
    "cant":26,
    "who":26,
    "now":27,
    "or":27,
    "good":27,
    "please":27,
    "as":27,
    "going":27,
    "back":27,
    "yeah":27,
    "from":28,
    "would":28,
    "want":28,
    "see":29,
    "okay":30,
    "him":32,
    "ive":33,
    "at":36,
    "out":37,
    "why":37,
    "got":38,
    "one":38,
    "think":39,
    "eve":39,
    "there":40,
    "very":40,
    "get":41,
    "go":44,
    "right":44,
    "so":45,
    "if":46,
    "up":46,
    "how":46,
    "adam":46,
    "with":47,
    "here":47,
    "he":51,
    "was":55,
    "not":55,
    "are":56,
    "on":56,
    "thats":56,
    "your":57,
    "oh":60,
    "all":62,
    "like":63,
    "be":65,
    "but":66,
    "just":67,
    "well":68,
    "do":68,
    "we":70,
    "yes":73,
    "its":74,
    "know":76,
    "have":77,
    "dont":78,
    "my":80,
    "for":83,
    "no":84,
    "im":87,
    "this":91,
    "me":98,
    "in":104,
    "what":110,
    "of":121,
    "is":122,
    "it":151,
    "that":153,
    "and":159,
    "to":234,
    "a":241,
    "the":322,
    "i":343,
    "you":378
}