{
    "mens":1,
    "nicely":1,
    "groomed":1,
    "terry":1,
    "spoiled":1,
    "bloodred":1,
    "rinse":1,
    "copper":1,
    "soften":1,
    "tan":1,
    "spotted":1,
    "fram":1,
    "dab":1,
    "success":1,
    "half":1,
    "dripping":1,
    "drizzles":1,
    "disappear":1,
    "narrow":1,
    "footfalls":1,
    "echo":1,
    "unadorned":1,
    "cement":1,
    "block":1,
    "walls":1,
    "shape":1,
    "mid":1,
    "forties":1,
    "powerful":1,
    "pulled":1,
    "carrying":1,
    "twenty":1,
    "widow":1,
    "surgeon":1,
    "bread":1,
    "priest":1,
    "masst":1,
    "mass":1,
    "salesman":1,
    "seems":1,
    "except":1,
    "folding":1,
    "chairs":1,
    "disarray":1,
    "clustered":1,
    "chalkboard":1,
    "chateau":1,
    "beychevelle":1,
    "written":1,
    "vintages":1,
    "listed":1,
    "underneath":1,
    "womans":1,
    "replies":1,
    "dressed":1,
    "panties":1,
    "midtwenties":1,
    "striking":1,
    "sipping":1,
    "spoil":1,
    "religious":1,
    "experience":1,
    "georges":1,
    "palate":1,
    "gift":1,
    "grape":1,
    "harvest":1,
    "describe":1,
    "beaujolais":1,
    "produce":1,
    "competition":1,
    "victorias":1,
    "secret":1,
    "95":1,
    "picked":1,
    "wines":1,
    "smell":1,
    "perfume":1,
    "bra":1,
    "1":1,
    "unlocks":1,
    "honda":1,
    "civic":1,
    "cleaning":1,
    "cadillac":1,
    "convertible":1,
    "idling":1,
    "noseto":1,
    "locked":1,
    "twenties":1,
    "whose":1,
    "tropical":1,
    "glows":1,
    "pair":1,
    "bolt":1,
    "cutters":1,
    "middleaged":1,
    "lazily":1,
    "sir":1,
    "star":1,
    "leasing":1,
    "buries":1,
    "waistband":1,
    "though":1,
    "rubbing":1,
    "cranks":1,
    "higher":1,
    "wattage":1,
    "collect":1,
    "given":1,
    "owe":1,
    "hacked":1,
    "inventory":1,
    "property":1,
    "yard":1,
    "exit":1,
    "combination":1,
    "natural":1,
    "curiosity":1,
    "charm":1,
    "stillrunning":1,
    "ignores":1,
    "booze":1,
    "cases":1,
    "malt":1,
    "whiskey":1,
    "aged":1,
    "barrel":1,
    "born":1,
    "caddys":1,
    "overdue":1,
    "smooth":1,
    "yourselves":1,
    "breather":1,
    "hogs":1,
    "space":1,
    "squeeze":1,
    "bumps":1,
    "topple":1,
    "exhales":1,
    "cantfish":1,
    "tax":1,
    "fire":1,
    "purpose":1,
    "bike":1,
    "knocked":1,
    "toaster":1,
    "oven":1,
    "dings":1,
    "muffin":1,
    "regular":1,
    "pointing":1,
    "rising":1,
    "pointed":1,
    "weapon":1,
    "exits":1,
    "skip":1,
    "chemical":1,
    "also":1,
    "idea":1,
    "none":1,
    "zip":1,
    "marriage":1,
    "learning":1,
    "thirties":1,
    "sense":1,
    "humor":1,
    "irony":1,
    "chemically":1,
    "relaxed":1,
    "stupefied":1,
    "robe":1,
    "bodys":1,
    "spectacular":1,
    "trim":1,
    "athletic":1,
    "build":1,
    "argument":1,
    "downstairs":1,
    "cooperation":1,
    "hallway":1,
    "slams":1,
    "enters":1,
    "amoment":1,
    "enter":1,
    "husband":1,
    "whatever":1,
    "television":1,
    "cassette":1,
    "vcr":1,
    "porno":1,
    "assumes":1,
    "twin":1,
    "nurses":1,
    "remote":1,
    "rio":1,
    "busy":1,
    "sneak":1,
    "packed":1,
    "beaches":1,
    "hotels":1,
    "spotters":1,
    "roof":1,
    "scopes":1,
    "guests":1,
    "inch":1,
    "scope":1,
    "fallen":1,
    "tenderly":1,
    "settles":1,
    "tape":1,
    "drifter":1,
    "frombelow":1,
    "yawning":1,
    "scratching":1,
    "33":1,
    "wears":1,
    "panama":1,
    "weathered":1,
    "hauls":1,
    "rod":1,
    "rises":1,
    "recognize":1,
    "sharks":1,
    "miamis":1,
    "spits":1,
    "ones":1,
    "reel":1,
    "shoot":1,
    "suckers":1,
    "fore":1,
    "barb":1,
    "braces":1,
    "skill":1,
    "guns":1,
    "rob":1,
    "shown":1,
    "frenchaccented":1,
    "paycheck":1,
    "cares":1,
    "charge":1,
    "starving":1,
    "chinese":1,
    "denim":1,
    "display":1,
    "fresh":1,
    "gaffed":1,
    "instinct":1,
    "chef":1,
    "thumb":1,
    "joint":1,
    "cauldron":1,
    "boiling":1,
    "register":1,
    "weaves":1,
    "traffic":1,
    "expert":1,
    "goose":1,
    "stink":1,
    "wash":1,
    "dries":1,
    "finds":1,
    "packets":1,
    "rubs":1,
    "anybody":1,
    "else":1,
    "finesse":1,
    "dismissively":1,
    "someday":1,
    "11":1,
    "near":1,
    "stamp":1,
    "driveway":1,
    "development":1,
    "score":1,
    "dolphins":1,
    "nine":1,
    "forty":1,
    "underestimate":1,
    "marino":1,
    "ticks":1,
    "acknowledgment":1,
    "grounds":1,
    "delivery":1,
    "clicks":1,
    "footsteps":1,
    "approaching":1,
    "focus":1,
    "full":1,
    "burp":1,
    "cloths":1,
    "politely":1,
    "expecting":1,
    "circuit":1,
    "connects":1,
    "lawn":1,
    "leads":1,
    "point":1,
    "having":1,
    "insure":1,
    "tiredalex":1,
    "policy":1,
    "below":1,
    "fading":1,
    "insuring":1,
    "relaxes":1,
    "fittings":1,
    "definitely":1,
    "type":1,
    "likeboats":1,
    "climatized":1,
    "builtin":1,
    "galley":1,
    "watches":1,
    "talks":1,
    "headed":1,
    "i\u00e2\u0080\u00a2dont":1,
    "green":1,
    "country":1,
    "nurse":1,
    "housesit":1,
    "obvious":1,
    "chafes":1,
    "authority":1,
    "worst":1,
    "venezuela":1,
    "india":1,
    "seem":1,
    "nuts":1,
    "mel":1,
    "smells":1,
    "disgusting":1,
    "encourage":1,
    "painting":1,
    "stateroom":1,
    "label":1,
    "hides":1,
    "pour":1,
    "flirting":1,
    "skimming":1,
    "layer":1,
    "wood":1,
    "thoughts":1,
    "noise":1,
    "understanding":1,
    "booms":1,
    "startling":1,
    "fussing":1,
    "gesture":1,
    "apology":1,
    "pacifier":1,
    "sometime":1,
    "topside":1,
    "deckhand":1,
    "remaining":1,
    "stock":1,
    "nap":1,
    "policies":1,
    "manila":1,
    "ties":1,
    "string":1,
    "storage":1,
    "elsell":1,
    "travel":1,
    "vintage":1,
    "armagnac":1,
    "porto":1,
    "gangplank":1,
    "vendor":1,
    "nursery":1,
    "softly":1,
    "possible":1,
    "gasp":1,
    "stillborn":1,
    "kissing":1,
    "herear":1,
    "idiot":1,
    "study":1,
    "td":1,
    "deported":1,
    "halfheartedly":1,
    "tempting":1,
    "deserve":1,
    "pleat":1,
    "frustrated":1,
    "ah":1,
    "hurriedly":1,
    "unhooks":1,
    "gathers":1,
    "polaroids":1,
    "spilled":1,
    "tucking":1,
    "impatient":1,
    "liquor":1,
    "terrace":1,
    "doors":1,
    "reflected":1,
    "entry":1,
    "optimist":1,
    "overriding":1,
    "htm":1,
    "losers":1,
    "attitude":1,
    "wins":1,
    "juice":1,
    "flowin":1,
    "peepee":1,
    "veins":1,
    "habit":1,
    "stained":1,
    "pants":1,
    "dave":1,
    "adlib":1,
    "etc":1,
    "file":1,
    "paltry":1,
    "pickings":1,
    "amount":1,
    "pot":1,
    "fans":1,
    "less":1,
    "spades":1,
    "tugs":1,
    "beat":1,
    "produces":1,
    "polaroid":1,
    "auction":1,
    "catalogue":1,
    "windsors":1,
    "baubles":1,
    "appraised":1,
    "thousand":1,
    "inflation":1,
    "retired":1,
    "broke":1,
    "bullshit":1,
    "blink":1,
    "curiositys":1,
    "sake":1,
    "friend":1,
    "girlfriend":1,
    "i\u00ef\u00bf\u00bdcan":1,
    "distract":1,
    "jury":1,
    "system":1,
    "israeli":1,
    "government":1,
    "flips":1,
    "clubs":1,
    "distracted":1,
    "proposition":1,
    "scoop":1,
    "cards":1,
    "pumped":1,
    "offense":1,
    "whenever":1,
    "giveaway":1,
    "playing":1,
    "sip":1,
    "ivenever":1,
    "exist":1,
    "won":1,
    "lightning":1,
    "strikes":1,
    "fills":1,
    "tired":1,
    "charging":1,
    "groceries":1,
    "today":1,
    "wed":1,
    "cancelled":1,
    "ant":1,
    "third":1,
    "everythings":1,
    "often":1,
    "dinner":1,
    "anymoret":1,
    "heret":1,
    "saint":1,
    "guessed":1,
    "must":1,
    "amid":1,
    "replying":1,
    "cognac":1,
    "gimme":1,
    "pierre":1,
    "ferrand":1,
    "deliver":1,
    "dusts":1,
    "investment":1,
    "second":1,
    "honeymoon":1,
    "maneuver":1,
    "fiddles":1,
    "suit":1,
    "lint":1,
    "babys":1,
    "later":1,
    "reassembled":1,
    "breathlessness":1,
    "recognizes":1,
    "spies":1,
    "interaction":1,
    "maids":1,
    "playpen":1,
    "cruise":1,
    "wire":1,
    "humidifier":1,
    "ridiculous":1,
    "ego":1,
    "zipping":1,
    "match":1,
    "mug":1,
    "shots":1,
    "shadow":1,
    "anxiety":1,
    "free":1,
    "respirator":1,
    "unchanging":1,
    "melting":1,
    "honk":1,
    "drivers":1,
    "brilliant":1,
    "weve":1,
    "violated":1,
    "law":1,
    "rolling":1,
    "flip":1,
    "helping":1,
    "checked":1,
    "sailed":1,
    "nannys":1,
    "unseen":1,
    "nanny":1,
    "venezuelan":1,
    "goodlooking":1,
    "jobs":1,
    "interrupts":1,
    "gossip":1,
    "repairman":1,
    "schedule":1,
    "freeman":1,
    "notes":1,
    "stitched":1,
    "coveralls":1,
    "rides":1,
    "shade":1,
    "stifles":1,
    "missed":1,
    "robert":1,
    "trouble":1,
    "whyve":1,
    "youbeen":1,
    "congratulations":1,
    "cats":1,
    "everybody":1,
    "legal":1,
    "connectagain":1,
    "scares":1,
    "vote":1,
    "factory":1,
    "size":1,
    "staff":1,
    "hang":1,
    "wharf":1,
    "narrowly":1,
    "starting":1,
    "fix":1,
    "condition":1,
    "pipes":1,
    "coolant":1,
    "leaking":1,
    "attic":1,
    "signals":1,
    "dropping":1,
    "heading":1,
    "shift":1,
    "uniform":1,
    "crisp":1,
    "nature":1,
    "alert":1,
    "suspicious":1,
    "valves":1,
    "stuck":1,
    "sprinkler":1,
    "valve":1,
    "bushes":1,
    "direction":1,
    "unaccompanied":1,
    "fault":1,
    "winks":1,
    "scored":1,
    "learn":1,
    "junk":1,
    "commitment":1,
    "investing":1,
    "afternoon":1,
    "landscape":1,
    "lovely":1,
    "isolation":1,
    "drowned":1,
    "storm":1,
    "shivers":1,
    "involuntarily":1,
    "boats":1,
    "horizon":1,
    "emotions":1,
    "sympathy":1,
    "roiled":1,
    "impulse":1,
    "photograph":1,
    "goods":1,
    "disagreement":1,
    "hopeless":1,
    "ask":1,
    "shot":1,
    "film":1,
    "glides":1,
    "sensibly":1,
    "whet":1,
    "honor":1,
    "myth":1,
    "reappears":1,
    "airline":1,
    "parole":1,
    "known":1,
    "newark":1,
    "shuttle":1,
    "city":1,
    "pasde":1,
    "probleme":1,
    "bordeaux":1,
    "being":1,
    "condescending":1,
    "meaning":1,
    "chickenshit":1,
    "economy":1,
    "swim":1,
    "nude":1,
    "cuts":1,
    "meant":1,
    "rail":1,
    "barefoot":1,
    "breeze":1,
    "thin":1,
    "shoes":1,
    "thetboat\u00ef\u00bf\u00bdela":1,
    "ughing":1,
    "ng":1,
    "nkl":1,
    "t":1,
    "breasts":1,
    "o":1,
    "laughin":1,
    "saving":1,
    "speak":1,
    "puedo":1,
    "hablar":1,
    "con":1,
    "yo":1,
    "quiero":1,
    "dejar":1,
    "un":1,
    "mesajo":1,
    "gracias":1,
    "voy":1,
    "llamarla":1,
    "mas":1,
    "tarde":1,
    "si":1,
    "buenas":1,
    "tardes":1,
    "speeddials":1,
    "typed":1,
    "list":1,
    "ted":1,
    "class":1,
    "sweat":1,
    "waited":1,
    "arranges":1,
    "helm":1,
    "clutched":1,
    "sneaks":1,
    "resting":1,
    "chin":1,
    "switches":1,
    "eases":1,
    "anchor":1,
    "engages":1,
    "power":1,
    "note":1,
    "trip":1,
    "supplier":1,
    "boutique":1,
    "wineries":1,
    "owned":1,
    "exlawyers":1,
    "via":1,
    "wholesaler":1,
    "amazing":1,
    "explain":1,
    "courtesy":1,
    "terrys":1,
    "goddamn":1,
    "girlfriends":1,
    "checks":1,
    "bounce":1,
    "twelve":1,
    "oneday":1,
    "weekends":1,
    "treated":1,
    "wasting":1,
    "sssh":1,
    "calm":1,
    "forcing":1,
    "smothers":1,
    "grips":1,
    "tighter":1,
    "breathless":1,
    "pinning":1,
    "pries":1,
    "hits":1,
    "gush":1,
    "thefloor":1,
    "savagely":1,
    "swipes":1,
    "temple":1,
    "squeamishly":1,
    "fall":1,
    "rapid":1,
    "shallow":1,
    "whimpers":1,
    "smeared":1,
    "clothe":1,
    "+":1,
    "bubbles":1,
    "wrenches":1,
    "steers":1,
    "driving":1,
    "contemporary":1,
    "dad":1,
    "whites":1,
    "gods":1,
    "muggedby":1,
    "ironic":1,
    "plenty":1,
    "sighs":1,
    "removes":1,
    "stitches":1,
    "sewing":1,
    "kit":1,
    "doctors":1,
    "darned":1,
    "socks":1,
    "order":1,
    "concern":1,
    "exasperation":1,
    "cancel":1,
    "unlaces":1,
    "spreads":1,
    "examines":1,
    "carry":1,
    "cinches":1,
    "closed":1,
    "those":1,
    "buzzes":1,
    "release":1,
    "pan":1,
    "strawberry":1,
    "waffle":1,
    "eggs":1,
    "wheat":1,
    "toast":1,
    "ham":1,
    "steak":1,
    "hash":1,
    "browns":1,
    "ojs":1,
    "milk":1,
    "extra":1,
    "syrup":1,
    "returns":1,
    "starve":1,
    "waitress":1,
    "strolls":1,
    "hungry":1,
    "worried":1,
    "picnic":1,
    "someplace":1,
    "romantic":1,
    "exhilarated":1,
    "freedom":1,
    "wedding":1,
    "ring":1,
    "finger":1,
    "overhand":1,
    "gusto":1,
    "quiet":1,
    "itll":1,
    "itself":1,
    "reply":1,
    "discount":1,
    "ten":1,
    "percent":1,
    "send":1,
    "write":1,
    "cross":1,
    "startled":1,
    "great":1,
    "realize":1,
    "world":1,
    "outside":1,
    "damp":1,
    "dreamed":1,
    "bank":1,
    "holes":1,
    "realized":1,
    "vocal":1,
    "cords":1,
    "truth":1,
    "lighten":1,
    "hooks":1,
    "grown":1,
    "gotten":1,
    "occurs":1,
    "eightfaceted":1,
    "quite":1,
    "unique":1,
    "individual":1,
    "stones":1,
    "preference":1,
    "word":1,
    "network":1,
    "fences":1,
    "tampa":1,
    "hope":1,
    "sells":1,
    "waterview":1,
    "suite":1,
    "marbella":1,
    "management":1,
    "swiss":1,
    "chocolate":1,
    "pillows":1,
    "masseuse":1,
    "intend":1,
    "death":1,
    "county":1,
    "screwed":1,
    "blowing":1,
    "whitecaps":1,
    "currents":1,
    "brighter":1,
    "chefs":1,
    "cooking":1,
    "grill":1,
    "kidding":1,
    "customers":1,
    "enjoying":1,
    "greasyaproned":1,
    "rump":1,
    "dick":1,
    "fishermen":1,
    "guffaws":1,
    "pissed":1,
    "witnessed":1,
    "notfired":1,
    "jerk":1,
    "satisfying":1,
    "concentrating":1,
    "buy":1,
    "estate":1,
    "ziplock":1,
    "respect":1,
    "nervous":1,
    "belonged":1,
    "version":1,
    "occasion":1,
    "balls":1,
    "classifieds":1,
    "grabass":1,
    "peoplel":1,
    "outfits":1,
    "coupla":1,
    "towns":1,
    "coast":1,
    "skippers":1,
    "crews":1,
    "packing":1,
    "kinda":1,
    "asking":1,
    "selling":1,
    "parts":1,
    "totally":1,
    "believable":1,
    "pain":1,
    "classier":1,
    "clientele":1,
    "yknow":1,
    "anyway":1,
    "joins":1,
    "instinctively":1,
    "plucks":1,
    "stitch":1,
    "wound":1,
    "winces":1,
    "irritating":1,
    "implied":1,
    "passed":1,
    "hunches":1,
    "depth":1,
    "finder":1,
    "blew":1,
    "insulted":1,
    "patience":1,
    "poise":1,
    "question":1,
    "says":1,
    "paid":1,
    "fiftydollar":1,
    "bill":1,
    "wanting":1,
    "unnoticed":1,
    "aggressively":1,
    "book":1,
    "swift":1,
    "unexpected":1,
    "toppling":1,
    "upright":1,
    "optimism":1,
    "lied":1,
    "mister":1,
    "section":1,
    "cheap":1,
    "square":1,
    "rock":1,
    "sliced":1,
    "studs":1,
    "accommodate":1,
    "pulling":1,
    "frantically":1,
    "jam":1,
    "ebbs":1,
    "forgot":1,
    "advantage":1,
    "trusted":1,
    "escapes":1,
    "greedily":1,
    "francisco":1,
    "miserable":1,
    "napas":1,
    "farther":1,
    "north":1,
    "vanishes":1,
    "laughed":1,
    "carries":1,
    "mail":1,
    "leaf":1,
    "crumpled":1,
    "pile":1,
    "forwarded":1,
    "several":1,
    "addressed":1,
    "lonely":1,
    "return":1,
    "slits":1,
    "thumbnail":1,
    "trickle":1,
    "dozen":1,
    "youid":1,
    "thanks":1,
    "callyou":1,
    "gdnight":1,
    "excited":1,
    "party":1,
    "hats":1,
    "darker":1,
    "bl":1,
    "ue":1,
    "deepens":1,
    "\u00e2\u0080\u00a2i":1,
    "sugar":1,
    "wade":1,
    "floats":1,
    "weighting":1,
    "aslight":1,
    "thoughtless":1,
    "nondescript":1,
    "parallel":1,
    "parks":1,
    "careful":1,
    "manner":1,
    "risky":1,
    "barrels":1,
    "seventeenyearold":1,
    "waltzes":1,
    "toenail":1,
    "shouldnt":1,
    "touched":1,
    "iti":1,
    "recover":1,
    "sell":1,
    "appreciate":1,
    "smart":1,
    "lady":1,
    "interesting":1,
    "women":1,
    "wanders":1,
    "sport":1,
    "whoa":1,
    "share":1,
    "partner":1,
    "ran":1,
    "goodbyegood":1,
    "complicated":1,
    "sank":1,
    "awhile":1,
    "crew":1,
    "checking":1,
    "henrys":1,
    "surreptitiously":1,
    "withdraws":1,
    "reassured":1,
    "secures":1,
    "offered":1,
    "motherfucker":1,
    "family":1,
    "deep":1,
    "ways":1,
    "misunderstanding":1,
    "lean":1,
    "um":1,
    "serious":1,
    "raindrops":1,
    "spatter":1,
    "windows":1,
    "likely":1,
    "tows":1,
    "wegotta":1,
    "anxiously":1,
    "snack":1,
    "blocked":1,
    "paper":1,
    "stride":1,
    "pockets":1,
    "myself":1,
    "occur":1,
    "panic":1,
    "bastard":1,
    "bridge":1,
    "ahead":1,
    "pivot":1,
    "stamps":1,
    "pedal":1,
    "rockets":1,
    "thrill":1,
    "suzannes":1,
    "raining":1,
    "tourist":1,
    "cruising":1,
    "butt":1,
    "believes":1,
    "mexico":1,
    "cortez":1,
    "marlin":1,
    "biggest":1,
    "sharp":1,
    "skidding":1,
    "traction":1,
    "anywhere":1,
    "brakes":1,
    "calmly":1,
    "reverses":1,
    "talked":1,
    "crushed":1,
    "skull":1,
    "silence":1,
    "truck":1,
    "blasts":1,
    "spins":1,
    "headon":1,
    "protect":1,
    "scraping":1,
    "unconscious":1,
    "limbs":1,
    "entangled":1,
    "hemorrhaging":1,
    "twitches":1,
    "spasm":1,
    "afraid":1,
    "christ":1,
    "heel":1,
    "spurts":1,
    "purse":1,
    "goddammit":1,
    "fumbles":1,
    "chrissake":1,
    "mumbles":1,
    "indecipherable":1,
    "sirens":1,
    "bearing":1,
    "ale7":1,
    "ankles":1,
    "reemerge":1,
    "license":1,
    "miami":1,
    "scene":1,
    "dreads":1,
    "flew":1,
    "straight":1,
    "struggles":1,
    "sit":1,
    "equilibrium":1,
    "fully":1,
    "restored":1,
    "hows":1,
    "horror":1,
    "rage":1,
    "flood":1,
    "iv":1,
    "protectively":1,
    "tackles":1,
    "smashing":1,
    "dresser":1,
    "snaps":1,
    "backward":1,
    "cracking":1,
    "fuckl":1,
    "eventually":1,
    "forced":1,
    "bearhug":1,
    "injury":1,
    "concussion":1,
    "lobby":1,
    "gained":1,
    "master":1,
    "wake":1,
    "stir":1,
    "strike":1,
    "strangled":1,
    "scream":1,
    "timidly":1,
    "corners":1,
    "belly":1,
    "length":1,
    "freezes":1,
    "cars":1,
    "hearing":1,
    "lightly":1,
    "fingertips":1,
    "waste":1,
    "knows":1,
    "demand":1,
    "beg":1,
    "forgotten":1,
    "drifts":1,
    "lock":1,
    "mentioned":1,
    "itl":1,
    "curves":1,
    "knocks":1,
    "alongside":1,
    "followed":1,
    "wwhy":1,
    "grief":1,
    "driven":1,
    "comfort":1,
    "skitters":1,
    "loss":1,
    "gain":1,
    "furious":1,
    "forgets":1,
    "caution":1,
    "sideways":1,
    "pins":1,
    "surprisingly":1,
    "gentle":1,
    "knee":1,
    "apart":1,
    "respond":1,
    "spite":1,
    "circumstances":1,
    "scissor":1,
    "nipple":1,
    "peels":1,
    "begin":1,
    "gently":1,
    "stomach":1,
    "rapidly":1,
    "pace":1,
    "warm":1,
    "witness":1,
    "planned":1,
    "caracas":1,
    "live":1,
    "hide":1,
    "nakedness":1,
    "persuade":1,
    "marry":1,
    "click":1,
    "cry":1,
    "relishes":1,
    "hitchhiked":1,
    "youhungry":1,
    "sandwich":1,
    "workout":1,
    "condo":1,
    "lost":1,
    "expect":1,
    "act":1,
    "normal":1,
    "sonlething":1,
    "wish":1,
    "bit":1,
    "stupid":1,
    "someone":1,
    "screw":1,
    "crush":1,
    "windpipe":1,
    "barbell":1,
    "finishing":1,
    "reracking":1,
    "expression":1,
    "accident":1,
    "wads":1,
    "met":1,
    "weirdlooking":1,
    "fucker":1,
    "witha":1,
    "gray":1,
    "crewcut":1,
    "steal":1,
    "whoever":1,
    "wavers":1,
    "plausible":1,
    "guilty":1,
    "fastidiously":1,
    "hamper":1,
    "split":1,
    "handling":1,
    "commission":1,
    "ingratiating":1,
    "rests":1,
    "dumbbell":1,
    "murderous":1,
    "instant":1,
    "diddlyshit":1,
    "suspect":1,
    "rather":1,
    "blowtorch":1,
    "girl":1,
    "cooperates":1,
    "example":1,
    "rocks":1,
    "muffled":1,
    "causing":1,
    "probably":1,
    "misses":1,
    "buying":1,
    "france":1,
    "paris":1,
    "scoots":1,
    "possession":1,
    "ritz":1,
    "threestar":1,
    "restaurant":1,
    "fit":1,
    "themselves":1,
    "burgundy":1,
    "rhone":1,
    "provence":1,
    "riviera":1,
    "monte":1,
    "carlo":1,
    "princess":1,
    "stephanie":1,
    "rueful":1,
    "easily":1,
    "remembers":1,
    "tables":1,
    "casino":1,
    "baccarat":1,
    "bets":1,
    "able":1,
    "afford":1,
    "spent":1,
    "slipping":1,
    "ohl":1,
    "cold":1,
    "watchful":1,
    "bet":1,
    "bond":1,
    "expense":1,
    "graying":1,
    "looked":1,
    "screech":1,
    "startles":1,
    "haitian":1,
    "marketplace":1,
    "watching":1,
    "trinket":1,
    "ordered":1,
    "pie":1,
    "fork":1,
    "folded":1,
    "customer":1,
    "refill":1,
    "hon":1,
    "page":1,
    "windsor":1,
    "jewelsstolen":1,
    "socialite":1,
    "picture":1,
    "glory":1,
    "headline":1,
    "justicel":1,
    "widen":1,
    "candles":1,
    "drama":1,
    "faces":1,
    "difference":1,
    "accelerates":1,
    "breeding":1,
    "usually":1,
    "midsection":1,
    "cries":1,
    "blow":1,
    "street":1,
    "bare":1,
    "teeth":1,
    "clenched":1,
    "togive":1,
    "crawl":1,
    "physical":1,
    "shortens":1,
    "sprays":1,
    "grip":1,
    "refuse":1,
    "staggers":1,
    "struggling":1,
    "jerks":1,
    "pitiful":1,
    "gags":1,
    "desperately":1,
    "mess":1,
    "arrange":1,
    "react":1,
    "flail":1,
    "thumps":1,
    "movements":1,
    "slow":1,
    "possibility":1,
    "trickery":1,
    "dumb":1,
    "whatll":1,
    "passport":1,
    "quickly":1,
    "shake":1,
    "sucker":1,
    "swinging":1,
    "financial":1,
    "pages":1,
    "lap":1,
    "styrofoam":1,
    "brought":1,
    "residual":1,
    "loyalty":1,
    "ride":1,
    "useful":1,
    "bow":1,
    "backs":1,
    "theboat":1,
    "marine":1,
    "supplies":1,
    "shuttered":1,
    "rejoins":1,
    "ignore":1,
    "personal":1,
    "history":1,
    "stake":1,
    "bewildered":1,
    "tight":1,
    "silences":1,
    "hull":1,
    "hitting":1,
    "substitute":1,
    "pole":1,
    "swivels":1,
    "quivers":1,
    "somethings":1,
    "male":1,
    "plays":1,
    "thrashing":1,
    "expertly":1,
    "bucking":1,
    "tenfoot":1,
    "threefinned":1,
    "beast":1,
    "spadeshaped":1,
    "attaches":1,
    "wildly":1,
    "knocking":1,
    "slows":1,
    "heaving":1,
    "disappeared":1,
    "noticing":1,
    "materializes":1,
    "retreats":1,
    "backup":1,
    "herand":1,
    "puzzled":1,
    "warned":1,
    "thrashes":1,
    "snapping":1,
    "screams":1,
    "fires":1,
    "continues":1,
    "helpmel":1,
    "hates":1,
    "straddles":1,
    "primordial":1,
    "brain":1,
    "handle":1,
    "instantly":1,
    "trembling":1,
    "drags":1,
    "mangled":1,
    "changes":1,
    "dull":1,
    "brown":1,
    "knew":1,
    "injuries":1,
    "needed":1,
    "ini":1,
    "manages":1,
    "strips":1,
    "bandage":1,
    "smears":1,
    "tears":1,
    "tracked":1,
    "bloody":1,
    "clutching":1,
    "microphone":1,
    "setting":1,
    "course":1,
    "waist":1,
    "hercules":1,
    "ii":1,
    "calling":1,
    "harbormaster":1,
    "ya":1,
    "fortune":1,
    "thrusting":1,
    "possibilities":1,
    "advice":1,
    "fast":1,
    "spots":2,
    "south":2,
    "actually":2,
    "came":2,
    "passing":2,
    "suddenly":2,
    "felt":2,
    "tasting":2,
    "large":2,
    "wooden":2,
    "leaning":2,
    "corner":2,
    "american":2,
    "vasquez":2,
    "duboeuf":2,
    "glasses":2,
    "taste":2,
    "single":2,
    "passes":2,
    "lowers":2,
    "breast":2,
    "means":2,
    "parking":2,
    "fairly":2,
    "using":2,
    "scared":2,
    "calls":2,
    "belongs":2,
    "rear":2,
    "pop":2,
    "eye":2,
    "soon":2,
    "pops":2,
    "enjoy":2,
    "few":2,
    "tightly":2,
    "ducati":2,
    "edge":2,
    "voices":2,
    "once":2,
    "modest":2,
    "although":2,
    "asked":2,
    "clean":2,
    "past":2,
    "gone":2,
    "bends":2,
    "props":2,
    "best":2,
    "liked":2,
    "story":2,
    "week":2,
    "nowhere":2,
    "thieves":2,
    "draws":2,
    "bite":2,
    "black":2,
    "appears":2,
    "ocean":2,
    "fished":2,
    "damn":2,
    "grins":2,
    "worry":2,
    "sets":2,
    "fight":2,
    "place":2,
    "fiftyfifty":2,
    "gas":2,
    "fins":2,
    "mans":2,
    "answers":2,
    "yet":2,
    "retire":2,
    "lemme":2,
    "hours":2,
    "revenge":2,
    "shows":2,
    "missing":2,
    "works":2,
    "dangerous":2,
    "smiling":2,
    "lots":2,
    "chances":2,
    "washed":2,
    "glove":2,
    "college":2,
    "done":2,
    "gave":2,
    "steady":2,
    "tried":2,
    "vineyard":2,
    "save":2,
    "expensive":2,
    "appointment":2,
    "gate":2,
    "year":2,
    "drives":2,
    "hooked":2,
    "boss":2,
    "dock":2,
    "wear":2,
    "covered":2,
    "bother":2,
    "kids":2,
    "ugly":2,
    "solid":2,
    "closet":2,
    "leave":2,
    "rich":2,
    "stepfather":2,
    "indian":2,
    "safe":2,
    "alternative":2,
    "offends":2,
    "agent":2,
    "allowed":2,
    "along":2,
    "yes":2,
    "needs":2,
    "follow":2,
    "ladder":2,
    "desk":2,
    "hardens":2,
    "slightly":2,
    "drinking":2,
    "dies":2,
    "diamond":2,
    "runs":2,
    "hall":2,
    "franks":2,
    "jeans":2,
    "resist":2,
    "papers":2,
    "closer":2,
    "bathroom":2,
    "game":2,
    "saying":2,
    "loses":2,
    "guys":2,
    "feeling":2,
    "try":2,
    "chuckles":2,
    "king":2,
    "hundred":2,
    "sweet":2,
    "personally":2,
    "stack":2,
    "glad":2,
    "credit":2,
    "making":2,
    "shouldve":2,
    "window":2,
    "seat":2,
    "dark":2,
    "month":2,
    "may":2,
    "replaced":2,
    "brushes":2,
    "leaves":2,
    "moment":2,
    "thank":2,
    "jail":2,
    "yanks":2,
    "hospital":2,
    "waits":2,
    "makeup":2,
    "offended":2,
    "horn":2,
    "cart":2,
    "doorbell":2,
    "pay":2,
    "mr":2,
    "gates":2,
    "cop":2,
    "conversation":2,
    "hated":2,
    "couch":2,
    "meet":2,
    "real":2,
    "break":2,
    "relax":2,
    "might":2,
    "injured":2,
    "dignity":2,
    "nobodys":2,
    "em":2,
    "used":2,
    "fisherman":2,
    "turned":2,
    "hers":2,
    "senses":2,
    "avoid":2,
    "sale":2,
    "drawer":2,
    "short":2,
    "among":2,
    "ticket":2,
    "fly":2,
    "address":2,
    "dives":2,
    "kicks":2,
    "quit":2,
    "number":2,
    "tickets":2,
    "york":2,
    "account":2,
    "scrambles":2,
    "bench":2,
    "winch":2,
    "hour":2,
    "matter":2,
    "ohio":2,
    "years":2,
    "spend":2,
    "hate":2,
    "slap":2,
    "painfully":2,
    "elbow":2,
    "sonofabitch":2,
    "seizes":2,
    "metal":2,
    "hasnt":2,
    "charges":2,
    "curb":2,
    "prison":2,
    "velvet":2,
    "loupe":2,
    "angry":2,
    "strides":2,
    "san":2,
    "fruit":2,
    "slips":2,
    "far":2,
    "eats":2,
    "staring":2,
    "manage":2,
    "reason":2,
    "glance":2,
    "youd":2,
    "moving":2,
    "dog":2,
    "lure":2,
    "sky":2,
    "taken":2,
    "piece":2,
    "notice":2,
    "dying":2,
    "clinic":2,
    "giving":2,
    "winds":2,
    "color":2,
    "jewelers":2,
    "squats":2,
    "charter":2,
    "start":2,
    "bartender":2,
    "feels":2,
    "usual":2,
    "booth":2,
    "threat":2,
    "stares":2,
    "town":2,
    "lose":2,
    "jams":2,
    "doorway":2,
    "silent":2,
    "uses":2,
    "paneling":2,
    "run":2,
    "grateful":2,
    "rain":2,
    "satisfied":2,
    "blue":2,
    "raines":2,
    "tomorrow":2,
    "flat":2,
    "current":2,
    "underage":2,
    "gotta":2,
    "gaze":2,
    "interested":2,
    "howd":2,
    "cast":2,
    "eating":2,
    "since":2,
    "luck":2,
    "hidden":2,
    "wraps":2,
    "concealed":2,
    "neither":2,
    "contraband":2,
    "struck":2,
    "view":2,
    "easy":2,
    "drifting":2,
    "bright":2,
    "clips":2,
    "jammed":2,
    "badly":2,
    "bleeding":2,
    "comfortable":2,
    "\u00e2\u0080\u00a2":2,
    "naked":2,
    "flaps":2,
    "touches":2,
    "blade":2,
    "children":2,
    "folds":2,
    "air":2,
    "caress":2,
    "crazy":2,
    "ribs":2,
    "guides":2,
    "step":2,
    "wipes":2,
    "jumps":2,
    "nuzzles":2,
    "yours":2,
    "position":2,
    "person":2,
    "figured":2,
    "james":2,
    "chest":2,
    "newspaper":2,
    "werent":2,
    "reads":2,
    "maid":2,
    "vic":2,
    "golf":2,
    "cops":2,
    "foot":2,
    "donut":2,
    "donuts":2,
    "stern":2,
    "casts":2,
    "choice":2,
    "shut":2,
    "hammerhead":2,
    "flare":2,
    "radio":2,
    "small":3,
    "sink":3,
    "stains":3,
    "sleeve":3,
    "throw":3,
    "falls":3,
    "drop":3,
    "rack":3,
    "beach":3,
    "plastic":3,
    "empty":3,
    "bottles":3,
    "end":3,
    "wall":3,
    "woman":3,
    "red":3,
    "nose":3,
    "bought":3,
    "heads":3,
    "finish":3,
    "security":3,
    "lights":3,
    "repo":3,
    "company":3,
    "stiff":3,
    "figure":3,
    "keeps":3,
    "clear":3,
    "worked":3,
    "teach":3,
    "isnt":3,
    "exactly":3,
    "mind":3,
    "wonder":3,
    "modicum":3,
    "own":3,
    "tone":3,
    "alone":3,
    "lie":3,
    "kiss":3,
    "elbows":3,
    "brings":3,
    "control":3,
    "read":3,
    "watch":3,
    "tall":3,
    "hat":3,
    "stuff":3,
    "jaws":3,
    "fin":3,
    "caught":3,
    "gash":3,
    "tosses":3,
    "took":3,
    "check":3,
    "business":3,
    "part":3,
    "wave":3,
    "intercom":3,
    "reese":3,
    "happy":3,
    "arent":3,
    "instead":3,
    "chair":3,
    "nods":3,
    "stops":3,
    "mrs":3,
    "slides":3,
    "stool":3,
    "answering":3,
    "sweeps":3,
    "envelope":3,
    "closes":3,
    "beautiful":3,
    "snatches":3,
    "ear":3,
    "tshirt":3,
    "waiting":3,
    "blows":3,
    "breath":3,
    "insurance":3,
    "tightens":3,
    "cover":3,
    "million":3,
    "dollars":3,
    "shed":3,
    "whatd":3,
    "champagne":3,
    "such":3,
    "pours":3,
    "poker":3,
    "seen":3,
    "play":3,
    "men":3,
    "kept":3,
    "wallet":3,
    "effort":3,
    "shoulders":3,
    "chance":3,
    "standing":3,
    "dress":3,
    "tension":3,
    "wrong":3,
    "morning":3,
    "gonna":3,
    "harold":3,
    "name":3,
    "cough":3,
    "wouldnt":3,
    "thinks":3,
    "running":3,
    "office":3,
    "married":3,
    "lunch":3,
    "stole":3,
    "whips":3,
    "hears":3,
    "hatch":3,
    "climbs":3,
    "breathing":3,
    "eight":3,
    "cheek":3,
    "stand":3,
    "lips":3,
    "advances":3,
    "tear":3,
    "cab":3,
    "reels":3,
    "legs":3,
    "pull":3,
    "couple":3,
    "feet":3,
    "stands":3,
    "cushion":3,
    "sorry":3,
    "pack":3,
    "pick":3,
    "miss":3,
    "believe":3,
    "wanted":3,
    "whirls":3,
    "havent":3,
    "sofa":3,
    "ashtray":3,
    "moved":3,
    "knees":3,
    "happened":3,
    "hit":3,
    "grandmother":3,
    "leans":3,
    "jewelry":3,
    "found":3,
    "diamonds":3,
    "cup":3,
    "aint":3,
    "hurls":3,
    "answer":3,
    "made":3,
    "shoves":3,
    "swallows":3,
    "hed":3,
    "times":3,
    "whole":3,
    "wind":3,
    "pats":3,
    "waves":3,
    "longer":3,
    "boy":3,
    "little":3,
    "pass":3,
    "somewhere":3,
    "tackle":3,
    "picks":3,
    "news":3,
    "messages":3,
    "sick":3,
    "finally":3,
    "bucks":3,
    "plan":3,
    "leg":3,
    "presses":3,
    "happen":3,
    "theyll":3,
    "call":3,
    "killed":3,
    "steps":3,
    "lip":3,
    "costs":3,
    "white":4,
    "same":4,
    "wet":4,
    "floor":4,
    "owner":4,
    "hook":4,
    "neck":4,
    "wearing":4,
    "goodbye":4,
    "lot":4,
    "younger":4,
    "trunk":4,
    "drink":4,
    "worth":4,
    "days":4,
    "grabs":4,
    "late":4,
    "night":4,
    "working":4,
    "their":4,
    "mothers":4,
    "asleep":4,
    "son":4,
    "ass":4,
    "leaving":4,
    "bedroom":4,
    "really":4,
    "went":4,
    "rest":4,
    "cmon":4,
    "things":4,
    "shrugs":4,
    "slaps":4,
    "rings":4,
    "adrenalin":4,
    "compartment":4,
    "mean":4,
    "hi":4,
    "minute":4,
    "raises":4,
    "told":4,
    "frank":4,
    "case":4,
    "talking":4,
    "wife":4,
    "tries":4,
    "fired":4,
    "loose":4,
    "mirror":4,
    "cut":4,
    "remember":4,
    "duchess":4,
    "three":4,
    "access":4,
    "trust":4,
    "saw":4,
    "light":4,
    "new":4,
    "change":4,
    "reeses":4,
    "box":4,
    "always":4,
    "coming":4,
    "sight":4,
    "guard":4,
    "again":4,
    "sounds":4,
    "dear":4,
    "crying":4,
    "walking":4,
    "sleep":4,
    "understand":4,
    "wasnt":4,
    "move":4,
    "catch":4,
    "walk":4,
    "taking":4,
    "bag":4,
    "napa":4,
    "problem":4,
    "fifty":4,
    "twists":4,
    "sand":4,
    "anymore":4,
    "coffee":4,
    "letter":4,
    "couldnt":4,
    "called":4,
    "listen":4,
    "cabin":4,
    "headlights":4,
    "pillow":4,
    "gabby":4,
    "die":4,
    "following":4,
    "club":4,
    "hold":5,
    "bottle":5,
    "shirt":5,
    "people":5,
    "tonight":5,
    "jesus":5,
    "should":5,
    "heard":5,
    "kisses":5,
    "because":5,
    "pretty":5,
    "drive":5,
    "chain":5,
    "wheel":5,
    "either":5,
    "almost":5,
    "engine":5,
    "gets":5,
    "lays":5,
    "work":5,
    "day":5,
    "fishing":5,
    "young":5,
    "front":5,
    "pushes":5,
    "would":5,
    "last":5,
    "every":5,
    "body":5,
    "makes":5,
    "store":5,
    "fine":5,
    "bring":5,
    "nice":5,
    "cash":5,
    "said":5,
    "shit":5,
    "himself":5,
    "set":5,
    "deck":5,
    "big":5,
    "stop":5,
    "wheres":5,
    "bottom":5,
    "dinas":5,
    "without":5,
    "throat":5,
    "skin":5,
    "guy":5,
    "wont":5,
    "phone":5,
    "fuck":5,
    "eat":5,
    "father":5,
    "wants":5,
    "first":5,
    "sheets":5,
    "catches":5,
    "supposed":5,
    "anything":5,
    "old":5,
    "clothes":5,
    "hair":5,
    "lies":5,
    "blood":5,
    "hello":5,
    "road":5,
    "bar":6,
    "stay":6,
    "hangs":6,
    "started":6,
    "top":6,
    "gabriellas":6,
    "only":6,
    "throws":6,
    "god":6,
    "show":6,
    "kid":6,
    "use":6,
    "feel":6,
    "help":6,
    "herself":6,
    "follows":6,
    "id":6,
    "kind":6,
    "youll":6,
    "sheet":6,
    "shoulder":6,
    "cool":6,
    "which":6,
    "each":6,
    "arms":6,
    "glances":6,
    "card":6,
    "lifts":6,
    "hurt":6,
    "our":6,
    "looking":6,
    "nothing":6,
    "smiles":6,
    "holding":6,
    "yourself":6,
    "pocket":6,
    "photo":6,
    "honey":6,
    "bad":6,
    "after":6,
    "rolls":6,
    "keys":6,
    "kill":6,
    "gives":6,
    "please":6,
    "counter":6,
    "jeweler":6,
    "mom":6,
    "jacket":7,
    "room":7,
    "smile":7,
    "ready":7,
    "job":7,
    "trying":7,
    "better":7,
    "hell":7,
    "could":7,
    "mother":7,
    "thought":7,
    "find":7,
    "line":7,
    "shark":7,
    "arm":7,
    "already":7,
    "close":7,
    "thing":7,
    "care":7,
    "sees":7,
    "between":7,
    "house":7,
    "fingers":7,
    "inside":7,
    "comes":7,
    "drops":7,
    "forward":7,
    "hard":7,
    "laugh":7,
    "slowly":7,
    "let":7,
    "or":8,
    "ever":8,
    "under":8,
    "these":8,
    "doing":8,
    "home":8,
    "while":8,
    "ive":8,
    "both":8,
    "fish":8,
    "am":8,
    "theyre":8,
    "turn":8,
    "mike":8,
    "eyes":8,
    "baby":8,
    "next":8,
    "never":8,
    "dina":8,
    "puts":8,
    "give":8,
    "will":8,
    "very":8,
    "shakes":8,
    "victors":8,
    "holds":8,
    "talk":8,
    "another":8,
    "towel":9,
    "moves":9,
    "stairs":9,
    "some":9,
    "any":9,
    "now":9,
    "yeah":9,
    "wait":9,
    "gun":9,
    "fucking":9,
    "keep":9,
    "had":9,
    "dead":9,
    "gulf":9,
    "other":9,
    "life":9,
    "sea":9,
    "left":9,
    "sits":9,
    "reaches":9,
    "long":9,
    "beside":9,
    "table":10,
    "across":10,
    "voice":10,
    "mouth":10,
    "say":10,
    "something":10,
    "than":10,
    "two":10,
    "knife":10,
    "bed":10,
    "jasons":10,
    "love":10,
    "does":10,
    "enough":10,
    "hear":10,
    "come":10,
    "pouch":10,
    "make":10,
    "until":10,
    "way":11,
    "more":11,
    "still":11,
    "walks":11,
    "together":11,
    "glass":11,
    "before":11,
    "okay":11,
    "even":11,
    "then":11,
    "money":11,
    "much":11,
    "put":11,
    "hey":11,
    "thats":11,
    "turns":11,
    "sure":11,
    "against":12,
    "open":12,
    "maybe":12,
    "think":12,
    "alexs":12,
    "pulls":12,
    "whats":12,
    "side":12,
    "water":12,
    "hands":13,
    "opens":13,
    "behind":13,
    "toward":13,
    "by":14,
    "wine":14,
    "got":14,
    "goes":14,
    "one":14,
    "lets":14,
    "onto":14,
    "theres":14,
    "why":14,
    "oh":15,
    "been":15,
    "didnt":15,
    "good":16,
    "man":16,
    "starts":16,
    "take":16,
    "us":16,
    "laughs":17,
    "through":17,
    "if":17,
    "suzanne":17,
    "look":17,
    "henry":17,
    "who":17,
    "right":17,
    "when":17,
    "time":18,
    "tell":18,
    "takes":18,
    "well":18,
    "cant":18,
    "youre":18,
    "too":19,
    "about":19,
    "them":19,
    "face":19,
    "were":21,
    "boat":21,
    "necklace":21,
    "need":21,
    "can":22,
    "car":22,
    "go":22,
    "did":22,
    "where":22,
    "there":23,
    "doesnt":23,
    "an":23,
    "be":23,
    "but":24,
    "shes":24,
    "how":24,
    "head":24,
    "get":25,
    "looks":25,
    "door":25,
    "here":25,
    "ill":25,
    "all":26,
    "around":26,
    "off":27,
    "into":29,
    "want":30,
    "going":30,
    "so":30,
    "see":32,
    "like":32,
    "away":32,
    "just":32,
    "over":32,
    "we":34,
    "hand":34,
    "they":36,
    "has":36,
    "do":37,
    "have":37,
    "no":39,
    "hes":39,
    "was":40,
    "victor":41,
    "from":42,
    "are":42,
    "know":43,
    "this":44,
    "your":46,
    "my":46,
    "its":47,
    "gabriella":48,
    "im":49,
    "back":50,
    "as":51,
    "what":52,
    "not":54,
    "down":55,
    "that":58,
    "at":61,
    "me":61,
    "dont":65,
    "up":66,
    "with":72,
    "for":75,
    "out":78,
    "is":90,
    "jason":94,
    "him":99,
    "on":100,
    "alex":109,
    "in":121,
    "of":134,
    "she":135,
    "":143,
    "it":156,
    "his":177,
    "and":184,
    "her":192,
    "i":218,
    "he":224,
    "a":262,
    "you":279,
    "to":294,
    "the":656
}