{
    "door":1,
    "alcala":1,
    "darkened":1,
    "dispose":1,
    "identity":1,
    "halfjoking":1,
    "adventurer":1,
    "fate":1,
    "wrote":1,
    "standard":1,
    "biography":1,
    "fill":1,
    "flap":1,
    "books":1,
    "sailor":1,
    "industrial":1,
    "doorman":1,
    "parisian":1,
    "boxer":1,
    "waiter":1,
    "advertisement":1,
    "handdouble":1,
    "active":1,
    "attractive":1,
    "english":1,
    "vital":1,
    "skeptical":1,
    "sarcastic":1,
    "shared":1,
    "sudden":1,
    "than":1,
    "planned":1,
    "heterodox":1,
    "stated":1,
    "selfwritten":1,
    "detail":1,
    "foreseen":1,
    "blind":1,
    "stroll":1,
    "nearby":1,
    "blocks":1,
    "browse":1,
    "granddaughters":1,
    "politics":1,
    "economy":1,
    "culture":1,
    "describing":1,
    "laughing":1,
    "helping":1,
    "helped":1,
    "invited":1,
    "helps":1,
    "across":1,
    "add":1,
    "final":1,
    "epilogue":1,
    "deliver":1,
    "definitive":1,
    "version":1,
    "monday":1,
    "run":1,
    "horror":1,
    "fantasy":1,
    "bratty":1,
    "teenagers":1,
    "sells":1,
    "developing":1,
    "inspired":1,
    "millers":1,
    "marilyn":1,
    "giving":1,
    "defense":1,
    "retarded":1,
    "condemned":1,
    "forced":1,
    "confession":1,
    "among":1,
    "integrally":1,
    "organizations":1,
    "aided":1,
    "sorts":1,
    "disabled":1,
    "proud":1,
    "sharing":1,
    "approached":1,
    "stage":1,
    "held":1,
    "embrace":1,
    "endless":1,
    "extract":1,
    "politically":1,
    "correct":1,
    "stranger":1,
    "moving":1,
    "procuring":1,
    "rights":1,
    "writers":1,
    "miserliness":1,
    "strength":1,
    "rancor":1,
    "toward":1,
    "ignored":1,
    "troubles":1,
    "overcome":1,
    "inherent":1,
    "goodness":1,
    "selling":1,
    "remakes":1,
    "sequels":1,
    "biopics":1,
    "protagonists":1,
    "bear":1,
    "document":1,
    "session":1,
    "warm":1,
    "downloaded":1,
    "emule":1,
    "dude":1,
    "crystal":1,
    "pass":1,
    "alice":1,
    "munro":1,
    "mp3":1,
    "budget":1,
    "tommorow":1,
    "passed":1,
    "residence":1,
    "countryside":1,
    "berzosa":1,
    "chilean":1,
    "origin":1,
    "achieved":1,
    "success":1,
    "notoriety":1,
    "due":1,
    "involvement":1,
    "financing":1,
    "crucial":1,
    "infrastructures":1,
    "latin":1,
    "american":1,
    "countries":1,
    "recently":1,
    "financial":1,
    "scandals":1,
    "implicated":1,
    "fraud":1,
    "infamous":1,
    "bank":1,
    "banelco":1,
    "transportation":1,
    "swing":1,
    "caracas":1,
    "dictate":1,
    "letter":1,
    "industry":1,
    "releasing":1,
    "metastasized":1,
    "thrown":1,
    "dogs":1,
    "alvaro":1,
    "vacation":1,
    "protested":1,
    "head":1,
    "news":1,
    "paca":1,
    "glad":1,
    "emilio":1,
    "mylene":1,
    "mylenes":1,
    "behalf":1,
    "sir":1,
    "dialed":1,
    "client":1,
    "complain":1,
    "speediness":1,
    "mad":1,
    "account":1,
    "foray":1,
    "sometimes":1,
    "acted":1,
    "bright":1,
    "lengths":1,
    "sugar":1,
    "daddy":1,
    "dear":1,
    "hellish":1,
    "eaten":1,
    "bleeding":1,
    "burst":1,
    "admit":1,
    "released":1,
    "puerta":1,
    "hierro":1,
    "digestive":1,
    "europe":1,
    "admittance":1,
    "hows":1,
    "patient":1,
    "parenteral":1,
    "nutrition":1,
    "transfusion":1,
    "relatives":1,
    "updated":1,
    "nickname":1,
    "direct":1,
    "garcias":1,
    "wellknown":1,
    "production":1,
    "bell":1,
    "accepted":1,
    "accompany":1,
    "loaded":1,
    "judging":1,
    "voice":1,
    "seat":1,
    "address":1,
    "formally":1,
    "including":1,
    "vanished":1,
    "hed":1,
    "track":1,
    "intrigued":1,
    "stupendous":1,
    "screenwriter":1,
    "disaster":1,
    "reason":1,
    "mystery":1,
    "sons":1,
    "memory":1,
    "ruined":1,
    "practically":1,
    "nullifying":1,
    "lived":1,
    "successful":1,
    "violent":1,
    "homophobic":1,
    "unscrupulous":1,
    "thinks":1,
    "behaves":1,
    "misfortune":1,
    "referring":1,
    "entails":1,
    "broker":1,
    "generation":1,
    "speculators":1,
    "quick":1,
    "highprofit":1,
    "gains":1,
    "80s":1,
    "oil":1,
    "crisis":1,
    "sensitive":1,
    "complexes":1,
    "preoccupations":1,
    "shadow":1,
    "despite":1,
    "marries":1,
    "twice":1,
    "separates":1,
    "personal":1,
    "yours":1,
    "aiming":1,
    "base":1,
    "develop":1,
    "miracle":1,
    "overhear":1,
    "flipping":1,
    "pictures":1,
    "`94":1,
    "photographs":1,
    "date":1,
    "carrying":1,
    "small":1,
    "camera":1,
    "super":1,
    "8":1,
    "16mm":1,
    "thinner":1,
    "beard":1,
    "handing":1,
    "pack":1,
    "cigarettes":1,
    "radio":1,
    "microphone":1,
    "refusing":1,
    "caught":1,
    "dresses":1,
    "effeminate":1,
    "humiliate":1,
    "depressed":1,
    "psychiatrist":1,
    "seventeen":1,
    "figure":1,
    "learn":1,
    "precisely":1,
    "deep":1,
    "include":1,
    "whos":1,
    "blackmailing":1,
    "harsh":1,
    "blackmailers":1,
    "invite":1,
    "itd":1,
    "theater":1,
    "faggot":1,
    "whether":1,
    "remedy":1,
    "count":1,
    "reproaching":1,
    "separation":1,
    "hadnt":1,
    "exclusively":1,
    "erase":1,
    "protagonist":1,
    "near":1,
    "ever":1,
    "report":1,
    "harassment":1,
    "pleased":1,
    "scout":1,
    "concerns":1,
    "absence":1,
    "manages":1,
    "juniors":1,
    "guard":1,
    "appears":1,
    "calls":1,
    "summarize":1,
    "hey":1,
    "bothers":1,
    "quit":1,
    "job":1,
    "hire":1,
    "secrecy":1,
    "training":1,
    "fanaticism":1,
    "older":1,
    "fanatic":1,
    "critical":1,
    "physical":1,
    "injury":1,
    "huge":1,
    "letters":1,
    "includes":1,
    "title":1,
    "flick":1,
    "hiding":1,
    "actually":1,
    "donors":1,
    "consumption":1,
    "ethnic":1,
    "completely":1,
    "assimilated":1,
    "spanish":1,
    "society":1,
    "occupy":1,
    "positions":1,
    "secret":1,
    "shadows":1,
    "industries":1,
    "example":1,
    "responsible":1,
    "sunglasses":1,
    "nightly":1,
    "entertainment":1,
    "bars":1,
    "discos":1,
    "afterhours":1,
    "awake":1,
    "apt":1,
    "sell":1,
    "protected":1,
    "sunscreen":1,
    "function":1,
    "dense":1,
    "armour":1,
    "gorgeous":1,
    "rubbing":1,
    "superdense":1,
    "velvety":1,
    "pale":1,
    "opening":1,
    "hybrid":1,
    "female":1,
    "normal":1,
    "cat":1,
    "beings":1,
    "species":1,
    "works":1,
    "labs":1,
    "donated":1,
    "snatch":1,
    "themselves":1,
    "sex":1,
    "problems":1,
    "desperately":1,
    "fucking":1,
    "becomes":1,
    "prudish":1,
    "losing":1,
    "excitement":1,
    "bite":1,
    "jugular":1,
    "aha":1,
    "horny":1,
    "ravaging":1,
    "gets":1,
    "highrisk":1,
    "territory":1,
    "cover":1,
    "pillow":1,
    "shredding":1,
    "fangs":1,
    "dick":1,
    "react":1,
    "kissing":1,
    "rough":1,
    "cock":1,
    "sucked":1,
    "deeply":1,
    "accepts":1,
    "comfortable":1,
    "muzzle":1,
    "security":1,
    "turned":1,
    "dental":1,
    "erection":1,
    "grows":1,
    "shewolf":1,
    "sparring":1,
    "partner":1,
    "fondling":1,
    "kicks":1,
    "ass":1,
    "holy":1,
    "jack":1,
    "coke":1,
    "unconscious":1,
    "immediate":1,
    "godfather":1,
    "nephew":1,
    "icu":1,
    "ingested":1,
    "lethal":1,
    "combination":1,
    "informed":1,
    "healthy":1,
    "barring":1,
    "complications":1,
    "certain":1,
    "prefer":1,
    "alarm":1,
    "unless":1,
    "truly":1,
    "recuperate":1,
    "dazed":1,
    "convinced":1,
    "location":1,
    "scouting":1,
    "sleepy":1,
    "distract":1,
    "remain":1,
    "alert":1,
    "reappeared":1,
    "explains":1,
    "met":1,
    "office":1,
    "rented":1,
    "dramas":1,
    "managed":1,
    "comedy":1,
    "genres":1,
    "swear":1,
    "accomplished":1,
    "tycoon":1,
    "polite":1,
    "showed":1,
    "running":1,
    "auditions":1,
    "convenient":1,
    "served":1,
    "womans":1,
    "presence":1,
    "perturbed":1,
    "went":1,
    "study":1,
    "interior":1,
    "design":1,
    "redecorate":1,
    "transform":1,
    "shipwrecked":1,
    "marriages":1,
    "decorator":1,
    "attempted":1,
    "cheap":1,
    "sufficient":1,
    "mornings":1,
    "evenings":1,
    "marry":1,
    "divorced":1,
    "offered":1,
    "produce":1,
    "subsidy":1,
    "ministry":1,
    "sale":1,
    "television":1,
    "enjoyed":1,
    "styling":1,
    "shirley":1,
    "mclaine":1,
    "apartment":1,
    "audrey":1,
    "hepburn":1,
    "tiffanys":1,
    "goldie":1,
    "hawn":1,
    "far":1,
    "known":1,
    "obsessed":1,
    "producing":1,
    "desperate":1,
    "attempt":1,
    "lose":1,
    "middle":1,
    "emotional":1,
    "quagmire":1,
    "instant":1,
    "sergeants":1,
    "staying":1,
    "tries":1,
    "massage":1,
    "therapist":1,
    "spasm":1,
    "footage":1,
    "pest":1,
    "lookout":1,
    "around":1,
    "edurne":1,
    "madness":1,
    "paris":1,
    "wherever":1,
    "travel":1,
    "rehearsing":1,
    "elses":1,
    "aside":1,
    "hardly":1,
    "complains":1,
    "monopolizing":1,
    "businessman":1,
    "artist":1,
    "signed":1,
    "cigarette":1,
    "fucks":1,
    "ten":1,
    "honours":1,
    "gifts":1,
    "tossed":1,
    "killed":1,
    "somebody":1,
    "terrace":1,
    "metal":1,
    "furniture":1,
    "grandfather":1,
    "neapolitan":1,
    "anxious":1,
    "throwing":1,
    "relaxes":1,
    "tone":1,
    "thirty":1,
    "rehearsed":1,
    "nightmare":1,
    "literally":1,
    "top":1,
    "fortyeight":1,
    "leech":1,
    "asshole":1,
    "grownup":1,
    "former":1,
    "mansion":1,
    "finds":1,
    "areas":1,
    "approaches":1,
    "slight":1,
    "lips":1,
    "gesture":1,
    "relaxed":1,
    "yoga":1,
    "isnt":1,
    "join":1,
    "hungry":1,
    "yogurt":1,
    "idiot":1,
    "tape":1,
    "scruples":1,
    "taping":1,
    "anywhere":1,
    "hurt":1,
    "drunk":1,
    "thump":1,
    "madam":1,
    "paperwork":1,
    "absolutely":1,
    "unexpected":1,
    "everythings":1,
    "begins":1,
    "directly":1,
    "strange":1,
    "nothings":1,
    "bruises":1,
    "according":1,
    "barrage":1,
    "questions":1,
    "guys":1,
    "assured":1,
    "respect":1,
    "decision":1,
    "cost":1,
    "prepared":1,
    "support":1,
    "team":1,
    "option":1,
    "hate":1,
    "stopping":1,
    "careful":1,
    "truth":1,
    "psychopath":1,
    "proof":1,
    "sacrifice":1,
    "solution":1,
    "mine":1,
    "content":1,
    "repeat":1,
    "stairway":1,
    "note":1,
    "dare":1,
    "crumple":1,
    "whore":1,
    "psychiatric":1,
    "cut":1,
    "direction":1,
    "hoped":1,
    "piece":1,
    "agree":1,
    "arrive":1,
    "worn":1,
    "patience":1,
    "greet":1,
    "cmon":1,
    "quickly":1,
    "selected":1,
    "rescue":1,
    "downstairs":1,
    "forgotten":1,
    "brutal":1,
    "fight":1,
    "ripped":1,
    "clothes":1,
    "shoes":1,
    "threw":1,
    "highway":1,
    "jacket":1,
    "belongs":1,
    "driver":1,
    "nearest":1,
    "station":1,
    "denounce":1,
    "hotel":1,
    "hanging":1,
    "realizing":1,
    "elapsed":1,
    "postponing":1,
    "goodbye":1,
    "suffering":1,
    "allergy":1,
    "furious":1,
    "editing":1,
    "shed":1,
    "island":1,
    "seeing":1,
    "employment":1,
    "opportunities":1,
    "available":1,
    "high":1,
    "season":1,
    "experience":1,
    "secretary":1,
    "m":1,
    "capital":1,
    "finance":1,
    "afternoons":1,
    "emerge":1,
    "scheme":1,
    "annoy":1,
    "trap":1,
    "lacking":1,
    "missing":1,
    "attend":1,
    "pathetic":1,
    "firsttime":1,
    "talent":1,
    "wonders":1,
    "resounding":1,
    "downfall":1,
    "witnessed":1,
    "apologize":1,
    "heres":1,
    "opened":1,
    "pissed":1,
    "undergoing":1,
    "treatment":1,
    "pulmonary":1,
    "illness":1,
    "exorcist":1,
    "possessed":1,
    "demon":1,
    "behaved":1,
    "selfishly":1,
    "choice":1,
    "fact":1,
    "broached":1,
    "topic":1,
    "curious":1,
    "curiosity":1,
    "killing":1,
    "nonstop":1,
    "answered":1,
    "happening":1,
    "generous":1,
    "paid":1,
    "town":1,
    "lacked":1,
    "pardon":1,
    "natural":1,
    "skeletons":1,
    "born":1,
    "hypnotized":1,
    "salvation":1,
    "manage":1,
    "respond":1,
    "insists":1,
    "source":1,
    "refer":1,
    "cortical":1,
    "blindness":1,
    "irreversible":1,
    "result":1,
    "lesion":1,
    "occipital":1,
    "lobe":1,
    "brain":1,
    "processing":1,
    "visual":1,
    "information":1,
    "neurons":1,
    "permanent":1,
    "felt":1,
    "filmdirector":1,
    "lenas":1,
    "hometown":1,
    "thankful":1,
    "buried":1,
    "beach":1,
    "close":1,
    "water":1,
    "bill":1,
    "bungalow":1,
    "poor":1,
    "souls":1,
    "kites":1,
    "dieguito":1,
    "obey":1,
    "wind":1,
    "play":1,
    "elevator":1,
    "gallows":1,
    "ending":1,
    "heart":1,
    "visualize":1,
    "tarantino":1,
    "scorsese":1,
    "asian":1,
    "cinema":1,
    "volume":1,
    "wow":1,
    "ones":1,
    "numbers":1,
    "widow":1,
    "edited":1,
    "nieves":1,
    "quite":1,
    "purpose":1,
    "sending":1,
    "arriving":1,
    "message":1,
    "celebrate":1,
    "todays":1,
    "fiftyone":1,
    "entered":1,
    "flu":1,
    "buy":1,
    "however":1,
    "arms":1,
    "flowers":1,
    "djs":1,
    "grabbed":1,
    "spiked":1,
    "drinks":1,
    "dangerous":1,
    "mixed":1,
    "cuba":1,
    "libres":1,
    "affected":1,
    "diegos":1,
    "addict":1,
    "containing":1,
    "glace":1,
    "difference":1,
    "glasses":1,
    "contained":1,
    "alarmed":1,
    "succeeded":1,
    "answering":1,
    "asks":1,
    "differently":1,
    "jean":1,
    "seberg":1,
    "breathless":1,
    "joan":1,
    "arc":1,
    "bonfire":1,
    "liza":1,
    "minnelli":1,
    "yul":1,
    "brynner":1,
    "fortysomethings":1,
    "appear":1,
    "younger":1,
    "javier":1,
    "shoulders":1,
    "indianfile":1,
    "table":1,
    "eight":1,
    "dinning":1,
    "plate":1,
    "silverware":1,
    "9h":1,
    "3h":1,
    "1h":1,
    "bread":1,
    "11h":1,
    "sight":1,
    "harnesses":1,
    "senses":1,
    "touch":1,
    "acquire":1,
    "special":1,
    "intensity":1,
    "gentlemen":1,
    "bottle":1,
    "german":1,
    "restaurant":1,
    "eyes":1,
    "slipped":1,
    "ear":1,
    "sprinkle":1,
    "luck":1,
    "past":1,
    "disappeared":1,
    "plan":1,
    "occurred":1,
    "sold":1,
    "ourselves":1,
    "hesitation":1,
    "courtesy":1,
    "alibi":1,
    "proposed":1,
    "half":1,
    "united":1,
    "states":1,
    "mayo":1,
    "opted":1,
    "betray":1,
    "hell":1,
    "torture":1,
    "select":1,
    "worst":1,
    "turning":1,
    "monster":1,
    "withstanding":1,
    "suffer":1,
    "hired":1,
    "detectives":1,
    "search":1,
    "embarrassed":1,
    "stunned":1,
    "famara":1,
    "sweating":1,
    "attack":1,
    "purse":1,
    "returns":1,
    "feel":1,
    "dialing":1,
    "impressive":1,
    "specializing":1,
    "breakfasts":1,
    "occasionally":1,
    "scared":1,
    "alien":1,
    "pop":1,
    "eighties":1,
    "`77":1,
    "exact":1,
    "supposed":1,
    "existed":1,
    "gay":1,
    "shortlived":1,
    "conceived":1,
    "denied":1,
    "pressure":1,
    "relationship":1,
    "recriminate":1,
    "mateos":1,
    "8h":1,
    "awakened":1,
    "forty":1,
    "meters":1,
    "negative":1,
    "hideous":1,
    "mood":1,
    "ernestos":1,
    "bar":1,
    "salary":1,
    "craziness":1,
    "blame":1,
    "magdalenas":1,
    "insist":1,
    "shortly":1,
    "aberration":1,
    "disposes":1,
    "access":1,
    "intercepted":1,
    "lying":1,
    "double":1,
    "internegative":1,
    "tapes":1,
    "whenever":1,
    "changes":1,
    "copy":1,
    "plus":1,
    "interesting":1,
    "followed":1,
    "recorded":1,
    "safe":1,
    "distance":1,
    "dinner":1,
    "headlights":1,
    "saved":1,
    "e":1,
    "suv":1,
    "crashed":1,
    "ordinary":1,
    "kisses":1,
    "four":1,
    "bowl":1,
    "torn":1,
    "wall":1,
    "rage":1,
    "pry":1,
    "smoking":1,
    "dropped":1,
    "match":1,
    "squelch":1,
    "fire":1,
    "purifies":1,
    "mattress":1,
    "memories":1,
    "interrupted":1,
    "husbands":1,
    "uncut":1,
    "dealer":1,
    "chon":1,
    "jail":1,
    "rid":1,
    "politicians":1,
    "consume":1,
    "cohorts":1,
    "distribute":1,
    "finding":1,
    "bumped":1,
    "hung":1,
    "summing":1,
    "divine":1,
    "shows":1,
    "cared":1,
    "attached":1,
    "pure":1,
    "nabbed":1,
    "sting":1,
    "traffickers":1,
    "filled":1,
    "bags":1,
    "returned":1,
    "highstakes":1,
    "ideal":1,
    "upset":1,
    "mayor":1,
    "shush":1,
    "attracts":1,
    "attention":1,
    "pretend":1,
    "hilarious":1,
    "watched":1,
    "wonderful":1,
    "rerelease":1,
    "beside":2,
    "single":2,
    "pseudonym":2,
    "author":2,
    "scripts":2,
    "cabaret":2,
    "selfmade":2,
    "along":2,
    "smiling":2,
    "enjoy":2,
    "necessary":2,
    "committed":2,
    "saw":2,
    "conference":2,
    "finally":2,
    "seemed":2,
    "names":2,
    "survives":2,
    "entire":2,
    "whose":2,
    "biopic":2,
    "americans":2,
    "financier":2,
    "public":2,
    "children":2,
    "spoke":2,
    "minister":2,
    "help":2,
    "hour":2,
    "honey":2,
    "operate":2,
    "twenty":2,
    "torturing":2,
    "tests":2,
    "preparation":2,
    "operation":2,
    "doctor":2,
    "surgeon":2,
    "dad":2,
    "service":2,
    "funny":2,
    "madame":2,
    "weekends":2,
    "busy":2,
    "lives":2,
    "contact":2,
    "clients":2,
    "bitch":2,
    "side":2,
    "inside":2,
    "ready":2,
    "urgently":2,
    "emergency":2,
    "private":2,
    "clinic":2,
    "clinica":2,
    "luz":2,
    "issue":2,
    "conditions":2,
    "save":2,
    "impossible":2,
    "providing":2,
    "survive":2,
    "eighteen":2,
    "fiction":2,
    "young":2,
    "advance":2,
    "check":2,
    "send":2,
    "suitcases":2,
    "almost":2,
    "lost":2,
    "five":2,
    "desire":2,
    "powerful":2,
    "everyone":2,
    "price":2,
    "meeting":2,
    "power":2,
    "economic":2,
    "amassed":2,
    "fortune":2,
    "trying":2,
    "homosexual":2,
    "wears":2,
    "saying":2,
    "wear":2,
    "rosanna":2,
    "fault":2,
    "problem":2,
    "feelings":2,
    "goodlooking":2,
    "taste":2,
    "set":2,
    "accept":2,
    "concerned":2,
    "fathers":2,
    "noticed":2,
    "wanting":2,
    "bundle":2,
    "perfectly":2,
    "trust":2,
    "fast":2,
    "keeping":2,
    "billboard":2,
    "behind":2,
    "group":2,
    "ambulatory":2,
    "type":2,
    "control":2,
    "provide":2,
    "drugs":2,
    "most":2,
    "burn":2,
    "lotion":2,
    "begin":2,
    "totally":2,
    "body":2,
    "heading":2,
    "couple":2,
    "comes":2,
    "front":2,
    "mouth":2,
    "breasts":2,
    "sucks":2,
    "ends":2,
    "damn":2,
    "ghb":2,
    "shit":2,
    "roof":2,
    "taken":2,
    "friend":2,
    "uncle":2,
    "admitted":2,
    "coma":2,
    "alcohol":2,
    "recover":2,
    "twelve":2,
    "guide":2,
    "sit":2,
    "grave":2,
    "normally":2,
    "point":2,
    "asleep":2,
    "anymore":2,
    "written":2,
    "risk":2,
    "heard":2,
    "nervous":2,
    "ended":2,
    "forgive":2,
    "role":2,
    "yet":2,
    "fine":2,
    "dressing":2,
    "breakfast":2,
    "use":2,
    "spasms":2,
    "interrupt":2,
    "worked":2,
    "hard":2,
    "dress":2,
    "break":2,
    "ibiza":2,
    "makes":2,
    "boss":2,
    "breathe":2,
    "slept":2,
    "wink":2,
    "talked":2,
    "shouldnt":2,
    "crap":2,
    "advantage":2,
    "less":2,
    "naples":2,
    "eve":2,
    "carry":2,
    "minutes":2,
    "snack":2,
    "forbidden":2,
    "follow":2,
    "gives":2,
    "happiest":2,
    "hide":2,
    "planning":2,
    "started":2,
    "studio":2,
    "move":2,
    "decides":2,
    "stupid":2,
    "clear":2,
    "walking":2,
    "wearing":2,
    "fall":2,
    "scene":2,
    "broken":2,
    "getting":2,
    "grab":2,
    "cab":2,
    "month":2,
    "decided":2,
    "ad":2,
    "wondering":2,
    "release":2,
    "words":2,
    "intelligent":2,
    "premier":2,
    "lack":2,
    "speaking":2,
    "registered":2,
    "aspergillosis":2,
    "witness":2,
    "needed":2,
    "images":2,
    "traffic":2,
    "circle":2,
    "action":2,
    "describe":2,
    "open":2,
    "notebook":2,
    "friends":2,
    "drank":2,
    "spent":2,
    "urgent":2,
    "changed":2,
    "smell":2,
    "others":2,
    "darkness":2,
    "discover":2,
    "wine":2,
    "fashion":2,
    "understand":2,
    "screwed":2,
    "joy":2,
    "gift":2,
    "bribe":2,
    "undergo":2,
    "cure":2,
    "gave":2,
    "panic":2,
    "feeling":2,
    "year":2,
    "punk":2,
    "imagined":2,
    "fleeting":2,
    "biological":2,
    "vicente":2,
    "94":2,
    "effect":2,
    "lab":2,
    "lit":2,
    "breaking":2,
    "gazpacho":2,
    "fifteen":2,
    "cocaine":2,
    "counselor":2,
    "affairs":2,
    "city":2,
    "hall":2,
    "appeared":2,
    "scandal":2,
    "arm":2,
    "goosebumps":2,
    "easy":2,
    "tv":2,
    "wasnt":3,
    "became":3,
    "stories":3,
    "spy":3,
    "might":3,
    "cross":3,
    "light":3,
    "dark":3,
    "knew":3,
    "interested":3,
    "happen":3,
    "yesterday":3,
    "finished":3,
    "id":3,
    "spoken":3,
    "ran":3,
    "start":3,
    "arthur":3,
    "mentally":3,
    "believed":3,
    "handicapped":3,
    "himself":3,
    "family":3,
    "men":3,
    "beautiful":3,
    "writing":3,
    "exactly":3,
    "tip":3,
    "decide":3,
    "away":3,
    "different":3,
    "full":3,
    "afternoon":3,
    "pick":3,
    "cancer":3,
    "dr":3,
    "torre":3,
    "forget":3,
    "broke":3,
    "matter":3,
    "hear":3,
    "free":3,
    "hi":3,
    "gone":3,
    "knows":3,
    "months":3,
    "perhaps":3,
    "business":3,
    "through":3,
    "ambulance":3,
    "immediately":3,
    "parents":3,
    "meet":3,
    "terrible":3,
    "wish":3,
    "maam":3,
    "stand":3,
    "ring":3,
    "seems":3,
    "blancos":3,
    "girls":3,
    "badly":3,
    "revenge":3,
    "against":3,
    "artistic":3,
    "looks":3,
    "asking":3,
    "martels":3,
    "spend":3,
    "company":3,
    "their":3,
    "garcia":3,
    "hoping":3,
    "outside":3,
    "visit":3,
    "tired":3,
    "mean":3,
    "vampire":3,
    "whole":3,
    "vampires":3,
    "though":3,
    "social":3,
    "theyre":3,
    "world":3,
    "cocacola":3,
    "drinking":3,
    "realize":3,
    "arrived":3,
    "order":3,
    "fourteen":3,
    "lover":3,
    "actress":3,
    "reading":3,
    "hasnt":3,
    "audition":3,
    "become":3,
    "together":3,
    "waiting":3,
    "suddenly":3,
    "wigs":3,
    "warned":3,
    "sooner":3,
    "especially":3,
    "girl":3,
    "makeup":3,
    "dressed":3,
    "rehearse":3,
    "pretty":3,
    "ms":3,
    "second":3,
    "carefully":3,
    "loves":3,
    "tripped":3,
    "fell":3,
    "longer":3,
    "answer":3,
    "else":3,
    "messages":3,
    "ivans":3,
    "exwife":3,
    "pushed":3,
    "shape":3,
    "onto":3,
    "lanzarote":3,
    "editor":3,
    "looked":3,
    "chance":3,
    "used":3,
    "coffee":3,
    "watching":3,
    "toast":3,
    "edit":3,
    "affair":3,
    "material":3,
    "kilos":3,
    "closet":3,
    "party":3,
    "dead":4,
    "another":4,
    "someone":4,
    "seem":4,
    "came":4,
    "blanco":4,
    "newspaper":4,
    "street":4,
    "agreed":4,
    "hurry":4,
    "tonight":4,
    "kind":4,
    "death":4,
    "present":4,
    "involved":4,
    "least":4,
    "situation":4,
    "arent":4,
    "began":4,
    "sleep":4,
    "continue":4,
    "various":4,
    "times":4,
    "alright":4,
    "stomach":4,
    "believe":4,
    "severine":4,
    "calling":4,
    "acting":4,
    "promise":4,
    "wont":4,
    "mr":4,
    "morning":4,
    "bother":4,
    "dying":4,
    "brought":4,
    "able":4,
    "condition":4,
    "mom":4,
    "theres":4,
    "took":4,
    "documentary":4,
    "naked":4,
    "hope":4,
    "seen":4,
    "under":4,
    "being":4,
    "few":4,
    "sent":4,
    "having":4,
    "weeks":4,
    "walk":4,
    "drug":4,
    "says":4,
    "working":4,
    "between":4,
    "guy":4,
    "except":4,
    "glass":4,
    "notice":4,
    "liquid":4,
    "god":4,
    "making":4,
    "junior":4,
    "neither":4,
    "later":4,
    "horrible":4,
    "arrives":4,
    "bed":4,
    "drive":4,
    "drag":4,
    "deal":4,
    "kept":4,
    "sound":4,
    "short":4,
    "destroyed":4,
    "person":5,
    "writer":5,
    "anyone":5,
    "coming":5,
    "yourself":5,
    "bring":5,
    "these":5,
    "awful":5,
    "producer":5,
    "weve":5,
    "next":5,
    "miller":5,
    "people":5,
    "given":5,
    "nor":5,
    "wouldnt":5,
    "drink":5,
    "early":5,
    "week":5,
    "over":5,
    "happy":5,
    "mistake":5,
    "excuse":5,
    "done":5,
    "own":5,
    "got":5,
    "remember":5,
    "part":5,
    "room":5,
    "suppose":5,
    "husband":5,
    "ray":5,
    "such":5,
    "ecstasy":5,
    "none":5,
    "afraid":5,
    "rather":5,
    "boy":5,
    "happens":5,
    "fuck":5,
    "woman":5,
    "face":5,
    "little":5,
    "six":5,
    "telling":5,
    "try":5,
    "werent":5,
    "shot":5,
    "every":5,
    "hair":5,
    "takes":5,
    "pina":5,
    "listen":5,
    "cast":5,
    "leg":5,
    "living":6,
    "caine":6,
    "read":6,
    "off":6,
    "live":6,
    "looking":6,
    "alone":6,
    "today":6,
    "married":6,
    "bit":6,
    "youd":6,
    "true":6,
    "throw":6,
    "while":6,
    "possible":6,
    "la":6,
    "three":6,
    "really":6,
    "de":6,
    "cannot":6,
    "leaving":6,
    "hello":6,
    "find":6,
    "called":6,
    "moment":6,
    "donate":6,
    "x":6,
    "lot":6,
    "either":6,
    "films":6,
    "talk":6,
    "important":6,
    "taking":6,
    "hand":6,
    "liked":6,
    "senior":6,
    "magdalena":6,
    "weekend":6,
    "ivan":6,
    "kiss":6,
    "wife":6,
    "police":6,
    "birthday":6,
    "enough":7,
    "many":7,
    "couldnt":7,
    "director":7,
    "youll":7,
    "best":7,
    "imagine":7,
    "which":7,
    "change":7,
    "once":7,
    "finish":7,
    "great":7,
    "doing":7,
    "hospital":7,
    "shoot":7,
    "money":7,
    "during":7,
    "care":7,
    "give":7,
    "hours":7,
    "rest":7,
    "phone":7,
    "wants":7,
    "pay":7,
    "whatever":7,
    "talking":7,
    "put":7,
    "idea":7,
    "madrid":7,
    "worried":7,
    "shes":7,
    "place":7,
    "new":7,
    "nothing":7,
    "until":7,
    "stairs":7,
    "thousand":7,
    "watch":8,
    "thank":8,
    "turn":8,
    "martel":8,
    "end":8,
    "found":8,
    "without":8,
    "said":8,
    "wait":8,
    "explain":8,
    "make":8,
    "movies":8,
    "come":8,
    "our":8,
    "crazy":8,
    "doesnt":8,
    "lets":8,
    "return":8,
    "accident":8,
    "always":9,
    "same":9,
    "better":9,
    "thanks":9,
    "thought":9,
    "days":9,
    "script":9,
    "tomorrow":9,
    "worry":9,
    "died":9,
    "long":9,
    "thinking":9,
    "again":9,
    "still":9,
    "wrong":9,
    "sure":9,
    "course":9,
    "keep":9,
    "where":9,
    "blood":9,
    "name":9,
    "each":9,
    "movie":9,
    "home":9,
    "down":9,
    "myself":10,
    "life":10,
    "house":10,
    "may":10,
    "write":10,
    "then":10,
    "ok":10,
    "does":10,
    "havent":10,
    "number":10,
    "thing":10,
    "even":11,
    "since":11,
    "those":11,
    "soon":11,
    "things":11,
    "before":11,
    "made":11,
    "suitcase":11,
    "luis":11,
    "much":12,
    "too":12,
    "hes":12,
    "way":12,
    "youre":12,
    "case":12,
    "both":12,
    "judit":12,
    "work":12,
    "shooting":12,
    "also":13,
    "wanted":13,
    "back":13,
    "man":13,
    "oh":13,
    "into":13,
    "whats":13,
    "any":13,
    "youve":13,
    "speak":13,
    "love":13,
    "say":14,
    "other":14,
    "first":14,
    "left":14,
    "ago":14,
    "stop":14,
    "last":14,
    "already":14,
    "night":14,
    "lena":14,
    "stay":14,
    "sorry":15,
    "mind":15,
    "let":15,
    "film":15,
    "ask":15,
    "asked":15,
    "happened":15,
    "should":15,
    "two":16,
    "by":16,
    "son":16,
    "day":16,
    "anything":16,
    "right":16,
    "because":17,
    "everything":17,
    "some":17,
    "leave":17,
    "mother":17,
    "please":17,
    "us":17,
    "more":17,
    "years":18,
    "never":18,
    "story":18,
    "told":19,
    "look":19,
    "or":19,
    "need":19,
    "when":20,
    "them":20,
    "were":21,
    "think":21,
    "only":22,
    "must":22,
    "im":22,
    "thats":22,
    "diego":22,
    "did":22,
    "get":22,
    "take":22,
    "harry":23,
    "good":23,
    "well":23,
    "now":24,
    "father":24,
    "why":24,
    "see":24,
    "time":25,
    "go":25,
    "going":25,
    "something":26,
    "there":26,
    "ill":26,
    "tell":26,
    "after":26,
    "her":27,
    "ive":27,
    "call":27,
    "up":28,
    "been":29,
    "from":29,
    "cant":29,
    "could":29,
    "didnt":30,
    "very":30,
    "here":30,
    "an":32,
    "who":32,
    "just":34,
    "can":34,
    "they":34,
    "out":36,
    "mateo":37,
    "as":37,
    "had":41,
    "want":41,
    "about":42,
    "all":43,
    "has":44,
    "ernesto":44,
    "she":44,
    "":48,
    "how":49,
    "on":50,
    "this":50,
    "would":53,
    "one":53,
    "so":53,
    "know":53,
    "his":54,
    "be":59,
    "like":60,
    "do":60,
    "if":60,
    "will":62,
    "yes":62,
    "at":65,
    "no":65,
    "your":65,
    "my":71,
    "with":75,
    "we":75,
    "but":79,
    "am":79,
    "its":79,
    "dont":81,
    "what":81,
    "are":81,
    "not":82,
    "was":92,
    "for":104,
    "him":113,
    "have":117,
    "is":119,
    "in":127,
    "it":144,
    "that":150,
    "he":152,
    "of":155,
    "me":158,
    "and":218,
    "a":248,
    "to":344,
    "the":397,
    "you":432,
    "i":480
}