{
    "tiptoes":1,
    "credits":1,
    "fearful":1,
    "confrontation":1,
    "coping":1,
    "directing":1,
    "maximum":1,
    "resentment":1,
    "spies":1,
    "welldressed":1,
    "halfadozen":1,
    "shabbier":1,
    "stung":1,
    "barb":1,
    "remembered":1,
    "leans":1,
    "woman\u2019s":1,
    "humiliated":1,
    "spit":1,
    "likes":1,
    "whose":1,
    "arranged":1,
    "lived":1,
    "sponsored":1,
    "visa":1,
    "needing":1,
    "sail":1,
    "shall":1,
    "mothers":1,
    "rosethat\u2019s":1,
    "despair":1,
    "prettiest":1,
    "choose":1,
    "sheridan":1,
    "scornful":1,
    "emphasises":1,
    "social":1,
    "institution":1,
    "suggests":1,
    "gary":1,
    "cooper":1,
    "blazers":1,
    "shudders":1,
    "distaste":1,
    "market":1,
    "square":1,
    "blue":1,
    "discomfited":1,
    "effort":1,
    "however":1,
    "lying":1,
    "sheridan\u2019s":1,
    "nod":1,
    "floor":1,
    "holding":1,
    "clubbers":1,
    "whisper":1,
    "considering":1,
    "actually":1,
    "witch":1,
    "scandalised":1,
    "hotter":1,
    "heaven\u2019s":1,
    "wasting":1,
    "choice":1,
    "sentence":1,
    "deeper":1,
    "unhappier":1,
    "decide":1,
    "taken":1,
    "reasons":1,
    "penny":1,
    "gladly":1,
    "number":1,
    "bunk":1,
    "scrambles":1,
    "ladder":1,
    "low":1,
    "lie":1,
    "therefore":1,
    "unable":1,
    "eyecontact":1,
    "scene":1,
    "hell":1,
    "mistake":1,
    "horrible":1,
    "unless":1,
    "bustles":1,
    "everybody\u2019s":1,
    "weather":1,
    "forecast":1,
    "none":1,
    "passengers":1,
    "spoonfuls":1,
    "soup":1,
    "mutton":1,
    "comprehension":1,
    "dawns":1,
    "unlock":1,
    "stumbles":1,
    "corridor":1,
    "bucket":1,
    "stinks":1,
    "locked":1,
    "themselves":1,
    "fishes":1,
    "handbag":1,
    "nailfile":1,
    "deftly":1,
    "unlocks":1,
    "trunk":1,
    "jams":1,
    "comfortable":1,
    "ours":1,
    "furious":1,
    "knocking":1,
    "hurls":1,
    "fury":1,
    "fair":1,
    "bring":1,
    "night\u2019s":1,
    "treaty":1,
    "given":1,
    "solemn":1,
    "using":1,
    "depth":1,
    "staying":1,
    "wrily":1,
    "auntie":1,
    "hungry":1,
    "quarantine":1,
    "enter":1,
    "fancy":1,
    "mustn\u2019t":1,
    "white":1,
    "floral":1,
    "pattern":1,
    "plain":1,
    "cardigan":1,
    "innocent":1,
    "rouge":1,
    "mascara":1,
    "eyeliner":1,
    "tall":1,
    "hardluck":1,
    "stories":1,
    "represent":1,
    "pushy":1,
    "hearing":1,
    "official\u2019s":1,
    "ushers":1,
    "light":1,
    "blanches":1,
    "silhouette":1,
    "bless":1,
    "gifts":1,
    "receive":1,
    "bounty":1,
    "christ":1,
    "operation":1,
    "holland":1,
    "describe":1,
    "\u201cpolitics\u201d":1,
    "firmness":1,
    "parodic":1,
    "operations":1,
    "belong":1,
    "politician":1,
    "hospitals":1,
    "tyler":1,
    "cosmetics":1,
    "showed":1,
    "advertisement":1,
    "jar":1,
    "bound":1,
    "webster\u2019s":1,
    "lucky":1,
    "justwell":1,
    "wash":1,
    "brand":1,
    "bible":1,
    "disbelief":1,
    "lord\u2019s":1,
    "complexion":1,
    "suitable":1,
    "enthusiastic":1,
    "murmurings":1,
    "consent":1,
    "opposite":1,
    "carries":1,
    "exasperated":1,
    "lack":1,
    "embarks":1,
    "\u201cwhat":1,
    "dorothy\u201d":1,
    "\u2018the":1,
    "man\u2019":1,
    "filmed":1,
    "\u201coh":1,
    "interested\u201d":1,
    "finishes":1,
    "yards":1,
    "unnoticed":1,
    "initially":1,
    "supervisor":1,
    "thirtysomething":1,
    "utterly":1,
    "devoted":1,
    "spots":1,
    "uncomfortable":1,
    "maker":1,
    "stocking":1,
    "bag":1,
    "docket":1,
    "unseen":1,
    "mime":1,
    "justlooks":1,
    "ends":1,
    "ward":1,
    "switches":1,
    "elsewhere":1,
    "visible":1,
    "relief":1,
    "warm":1,
    "interesting":1,
    "analogy":1,
    "slightly":1,
    "inappropriate":1,
    "pearly":1,
    "gates":1,
    "brogue":1,
    "sweetheart":1,
    "thin":1,
    "nylon":1,
    "information":1,
    "bet":1,
    "loyal":1,
    "bosses":1,
    "spy":1,
    "flustered":1,
    "nylons":1,
    "settle":1,
    "electrocuted":1,
    "check":1,
    "halfstands":1,
    "stopped":1,
    "36a":1,
    "bread":1,
    "overcharged":1,
    "36b":1,
    "overcharges":1,
    "bread\u2019s":1,
    "pages":1,
    "carry":1,
    "pretend":1,
    "rummages":1,
    "desultory":1,
    "fashion":1,
    "pile":1,
    "newspapers":1,
    "magazines":1,
    "pulled":1,
    "stunt":1,
    "sipping":1,
    "bearded":1,
    "pleasantlooking":1,
    "trustworthy":1,
    "fault":1,
    "notes":1,
    "led":1,
    "franco":1,
    "bartocci":1,
    "nicest":1,
    "lodger":1,
    "giving":1,
    "enrolled":1,
    "qualification":1,
    "semester":1,
    "\u201cwhy\u201d":1,
    "\u201cthank":1,
    "you\u201d":1,
    "butwhy":1,
    "amazed":1,
    "proper":1,
    "church":1,
    "sicknesses":1,
    "decisively":1,
    "taylor":1,
    "versus":1,
    "standard":1,
    "gas":1,
    "co":1,
    "corporate":1,
    "cases":1,
    "decided":1,
    "supreme":1,
    "court":1,
    "twenty":1,
    "responsible":1,
    "rock":1,
    "doctrine":1,
    "milestone":1,
    "parentsubsidiary":1,
    "public":1,
    "utility":1,
    "integration":1,
    "students":1,
    "emphasise":1,
    "thousands":1,
    "investors":1,
    "affected":1,
    "application":1,
    "closeup":1,
    "pad":1,
    "underlining":1,
    "\u2018literally":1,
    "thousands\u2019":1,
    "covers":1,
    "reading":1,
    "book":1,
    "hour":1,
    "easier":1,
    "crams":1,
    "remaining":1,
    "crust":1,
    "ruins":1,
    "tastes":1,
    "sawdust":1,
    "cheese":1,
    "sandwich":1,
    "plans":1,
    "serving":1,
    "who\u2019ve":1,
    "husbandhunting":1,
    "witticisms":1,
    "christian":1,
    "cooking":1,
    "consolation":1,
    "maureen":1,
    "near":1,
    "large":1,
    "double":1,
    "unbolts":1,
    "shabby":1,
    "tubercular":1,
    "pour":1,
    "apparently":1,
    "neverending":1,
    "haunting":1,
    "sight":1,
    "lonely":1,
    "defeated":1,
    "forgets":1,
    "expecting":1,
    "occasional":1,
    "cook":1,
    "nearly":1,
    "fifty":1,
    "touch":1,
    "built":1,
    "tunnels":1,
    "bridges":1,
    "highways":1,
    "fixated":1,
    "wearing":1,
    "scarf":1,
    "cap":1,
    "obscures":1,
    "ghost":1,
    "da":1,
    "childhood":1,
    "dead":1,
    "thirty":1,
    "points":1,
    "doran":1,
    "tables":1,
    "cleared":1,
    "bottles":1,
    "carrier":1,
    "playing":1,
    "fiddles":1,
    "accordion":1,
    "clears":1,
    "throat":1,
    "silent":1,
    "interrupt":1,
    "day\u2019s":1,
    "applause":1,
    "applauding":1,
    "direction":1,
    "youngest":1,
    "helper":1,
    "feet":1,
    "singer":1,
    "persuaded":1,
    "entertain":1,
    "earned":1,
    "warmest":1,
    "quietest":1,
    "bestappointed":1,
    "certain":1,
    "suppressing":1,
    "amusement":1,
    "admit":1,
    "advantage":1,
    "pretty":1,
    "sensible":1,
    "pack":1,
    "moved":1,
    "drains":1,
    "realises":1,
    "weekends":1,
    "plenty":1,
    "there\u2019ll":1,
    "alcohol":1,
    "instead":1,
    "surprising":1,
    "sniggers":1,
    "advent":1,
    "pattydiana":1,
    "adversarial":1,
    "gooseberry":1,
    "miraculously":1,
    "boyfriends":1,
    "satisfaction":1,
    "pointedly":1,
    "claps":1,
    "cleans":1,
    "shopgirls":1,
    "stenographers":1,
    "scrubbers":1,
    "begins":1,
    "close":1,
    "under":1,
    "roof":1,
    "aunt":1,
    "war":1,
    "wondered":1,
    "burst":1,
    "mostly":1,
    "nines":1,
    "among":1,
    "atmosphere":1,
    "changes":1,
    "enjoyment":1,
    "liars":1,
    "pair":1,
    "appraises":1,
    "milking":1,
    "teaching":1,
    "unlike":1,
    "taught":1,
    "secret":1,
    "dancing":1,
    "couples":1,
    "assumes":1,
    "levels":1,
    "incompetence":1,
    "uncertainty":1,
    "decides":1,
    "clinton":1,
    "street":1,
    "leather":1,
    "picking":1,
    "fingernails":1,
    "rescuing":1,
    "clear":1,
    "grandparents":1,
    "dances":1,
    "behave":1,
    "danced":1,
    "loads":1,
    "others":1,
    "teasing":1,
    "formulate":1,
    "response":1,
    "grins":1,
    "arrive":1,
    "sowhat":1,
    "school":1,
    "knowbrooklyn":1,
    "accountant":1,
    "wow":1,
    "taps":1,
    "drip":1,
    "toilets":1,
    "blocked":1,
    "switched":1,
    "following":1,
    "unstoppable":1,
    "unbroken":1,
    "maths":1,
    "doubleentry":1,
    "terrifies":1,
    "insurance":1,
    "bankrupt":1,
    "1930s":1,
    "legal":1,
    "issues":1,
    "untouched":1,
    "several":1,
    "loaded":1,
    "plays":1,
    "steadily":1,
    "gossipmongers":1,
    "starving":1,
    "nicelooking":1,
    "earth":1,
    "colour":1,
    "preach":1,
    "sermon":1,
    "dangers":1,
    "eighth":1,
    "deadly":1,
    "sin":1,
    "giddy":1,
    "evil":1,
    "slothful":1,
    "worse":1,
    "hate":1,
    "swimsuits":1,
    "stupid":1,
    "clothing":1,
    "splash":1,
    "thirtyfive":1,
    "dollars":1,
    "blink":1,
    "opened":1,
    "quizzically":1,
    "marches":1,
    "contains":1,
    "packet":1,
    "examines":1,
    "angry":1,
    "employment":1,
    "clearing":1,
    "locker":1,
    "mystified":1,
    "series":1,
    "nonsequiturs":1,
    "follow":1,
    "shelves":1,
    "specially":1,
    "negro":1,
    "selling":1,
    "otherwise":1,
    "unaffected":1,
    "impossible":1,
    "assent":1,
    "pantomimes":1,
    "alarm":1,
    "guys":1,
    "terrify":1,
    "sometime":1,
    "dublin":1,
    "mood":1,
    "amenablecan":1,
    "sign":1,
    "disaster":1,
    "broader":1,
    "congratulations":1,
    "cylindrical":1,
    "tube":1,
    "shoots":1,
    "receipt":1,
    "mouse":1,
    "startled":1,
    "realised":1,
    "passing":1,
    "heartbroken":1,
    "hold":1,
    "flies":1,
    "\u201csplash\u201d":1,
    "problems":1,
    "jump":1,
    "splashed":1,
    "walls":1,
    "mention":1,
    "decent":1,
    "works":1,
    "cinema":1,
    "wednesdays":1,
    "flood\u2019s":1,
    "saturdays":1,
    "69a":1,
    "body":1,
    "halfway":1,
    "sea":1,
    "warn":1,
    "eighteen":1,
    "smart":1,
    "tried":1,
    "threatened":1,
    "happily":1,
    "learn":1,
    "confessing":1,
    "delighted":1,
    "teach":1,
    "cooked":1,
    "general":1,
    "cries":1,
    "outrage":1,
    "cuffs":1,
    "fact":1,
    "gang":1,
    "stitches":1,
    "cops":1,
    "confirmation":1,
    "legs":1,
    "ear":1,
    "defence":1,
    "who\u2019ll":1,
    "education":1,
    "keeps":1,
    "shut":1,
    "reenters":1,
    "applaud":1,
    "scallopini":1,
    "vegetables":1,
    "italianstyle":1,
    "offered":1,
    "mentioned":1,
    "lewd":1,
    "grace":1,
    "supporting":1,
    "giants":1,
    "heart":1,
    "manage":1,
    "\u201cour":1,
    "kids\u201d":1,
    "mapped":1,
    "concerned":1,
    "reaction":1,
    "laughing":1,
    "yanks":1,
    "fan":1,
    "stays":1,
    "ithank":1,
    "wistfully":1,
    "andwell":1,
    "boardinghouse":1,
    "badtempered":1,
    "growing":1,
    "ears":1,
    "reads":1,
    "anklesewage":1,
    "lady\u2019s":1,
    "inviting":1,
    "sake":1,
    "spent":1,
    "explaining":1,
    "difference":1,
    "six":1,
    "inches":1,
    "foot":1,
    "okay":1,
    "sombre":1,
    "i\u2019lli\u2019ll":1,
    "holy":1,
    "shit":1,
    "language":1,
    "flashes":1,
    "fans":1,
    "push":1,
    "exams":1,
    "flew":1,
    "saved":1,
    "year\u2019s":1,
    "parishioners":1,
    "mankind":1,
    "how\u2019s":1,
    "solid":1,
    "qualifications":1,
    "exam":1,
    "murmurs":1,
    "cutting":1,
    "pie":1,
    "bowls":1,
    "celebrate":1,
    "boy":1,
    "exactly":1,
    "diana\u2019s":1,
    "cares":1,
    "girlfriend":1,
    "shave":1,
    "razor":1,
    "reaches":1,
    "cup":1,
    "fuller":1,
    "figure":1,
    "black\u2019s":1,
    "pale":1,
    "green":1,
    "spot":1,
    "wedge":1,
    "ourselves":1,
    "create":1,
    "space":1,
    "struggling":1,
    "deeply":1,
    "tournament":1,
    "took":1,
    "team":1,
    "loves":1,
    "annoyed":1,
    "interview":1,
    "textile":1,
    "who\u2019d":1,
    "bookkeepers":1,
    "music":1,
    "fades":1,
    "sudden":1,
    "bury":1,
    "cry":1,
    "hysterical":1,
    "selfish":1,
    "blinks":1,
    "simply":1,
    "sincerely":1,
    "build":1,
    "yard":1,
    "sell":1,
    "onemy":1,
    "land":1,
    "sold":1,
    "cables":1,
    "electricity":1,
    "set":1,
    "building":1,
    "laurence":1,
    "carpentry":1,
    "figures":1,
    "exist":1,
    "quaid":1,
    "collect":1,
    "drive":1,
    "human":1,
    "rings":1,
    "noticeably":1,
    "held":1,
    "intercut":1,
    "phone":1,
    "houseful":1,
    "afterwards":1,
    "neighbours":1,
    "reflect":1,
    "daddy":1,
    "grieve":1,
    "everyone\u2019s":1,
    "crazy":1,
    "easily":1,
    "weakly":1,
    "evict":1,
    "gently":1,
    "kiss":1,
    "passionate":1,
    "shirt":1,
    "speaking":1,
    "undoes":1,
    "sense":1,
    "expressed":1,
    "doubt":1,
    "removes":1,
    "boxer":1,
    "shorts":1,
    "panic":1,
    "sensation":1,
    "meanwhile":1,
    "noisier":1,
    "panics":1,
    "further":1,
    "floorboard":1,
    "creaks":1,
    "heads":1,
    "worrying":1,
    "unstrap":1,
    "bra":1,
    "gate":1,
    "folds":1,
    "paper":1,
    "witness":1,
    "sounded":1,
    "brother":1,
    "exact":1,
    "age":1,
    "obvious":1,
    "throws":1,
    "kid":1,
    "gentle":1,
    "pitch":1,
    "wife":1,
    "fiorellos":1,
    "italy":1,
    "chuckles":1,
    "calls":1,
    "emerges":1,
    "addresses":1,
    "anthony":1,
    "children":1,
    "anniversary":1,
    "wonder":1,
    "ate":1,
    "dogs":1,
    "dropped":1,
    "pans":1,
    "black":1,
    "wiggles":1,
    "fingers":1,
    "ring":1,
    "finger":1,
    "accepted":1,
    "invitation":1,
    "behalf":1,
    "27th":1,
    "permission":1,
    "key":1,
    "rejoins":1,
    "booked":1,
    "twentyfirst":1,
    "elderly":1,
    "selfconscious":1,
    "waits":1,
    "walked":1,
    "past":1,
    "city":1,
    "properly":1,
    "sweet":1,
    "heavily":1,
    "wishoh":1,
    "strange":1,
    "slightest":1,
    "momentarily":1,
    "condolence":1,
    "birthday":1,
    "writes":1,
    "nor":1,
    "horn":1,
    "beeps":1,
    "cheery":1,
    "greeting":1,
    "that\u2019ll":1,
    "turned":1,
    "whydidn\u2019t":1,
    "youtellme":1,
    "connaught":1,
    "hotel":1,
    "wanting":1,
    "amused":1,
    "apologise":1,
    "jim\u2019s":1,
    "particularly":1,
    "nudges":1,
    "pleading":1,
    "except":1,
    "recognition":1,
    "cathleen":1,
    "cassidy":1,
    "broke":1,
    "upset":1,
    "slows":1,
    "pace":1,
    "privately":1,
    "she\u2019swell":1,
    "older":1,
    "fond":1,
    "saddest":1,
    "gossip":1,
    "exciting":1,
    "skyscrapers":1,
    "river":1,
    "often":1,
    "evenwhat":1,
    "sells":1,
    "numbers":1,
    "managed":1,
    "replace":1,
    "business":1,
    "reliable":1,
    "qualified":1,
    "earn":1,
    "meantime":1,
    "ambiguously":1,
    "subject":1,
    "d\u2019you":1,
    "contact":1,
    "retiring":1,
    "airmail":1,
    "goodness":1,
    "lad":1,
    "employee":1,
    "favour":1,
    "blocks":1,
    "impatiently":1,
    "drivers":1,
    "millworkers":1,
    "add":1,
    "wage":1,
    "complain":1,
    "blame":1,
    "whoever":1,
    "questions":1,
    "systems":1,
    "similar":1,
    "wages":1,
    "during":1,
    "parttime":1,
    "basis":1,
    "united":1,
    "states":1,
    "decisions":1,
    "remembering":1,
    "butthey\u2019re":1,
    "stony":1,
    "crowded":1,
    "walkers":1,
    "backward":1,
    "calm":1,
    "civilized":1,
    "charming":1,
    "amazement":1,
    "flirting":1,
    "inaugurating":1,
    "prize":1,
    "special":1,
    "score":1,
    "newcomer":1,
    "newcomers":1,
    "overcome":1,
    "win":1,
    "winner":1,
    "nowi":1,
    "vague":1,
    "gesture":1,
    "include":1,
    "dumps":1,
    "ageold":1,
    "inelegant":1,
    "struggle":1,
    "immodesty":1,
    "costumes":1,
    "hop":1,
    "leg":1,
    "curse":1,
    "blouse":1,
    "reveal":1,
    "generally":1,
    "depressing":1,
    "suits":1,
    "exchange":1,
    "knowing":1,
    "glances":1,
    "bolt":1,
    "upright":1,
    "radio":1,
    "produces":1,
    "pocket":1,
    "crumpled":1,
    "grubby":1,
    "writer":1,
    "reader":1,
    "dunno":1,
    "writing":1,
    "spelling":1,
    "sentences":1,
    "grammar":1,
    "hopefully":1,
    "desperately":1,
    "world\u2019s":1,
    "basements":1,
    "flooding":1,
    "fixed":1,
    "saving":1,
    "\u2018e\u2019":1,
    "\u201ceverybody\u201d":1,
    "concentrate":1,
    "games":1,
    "\u201cconcentrate\u201d":1,
    "darkness":1,
    "chastely":1,
    "oil":1,
    "sports":1,
    "disguise":1,
    "selfdeprecatingly":1,
    "smooths":1,
    "132a":1,
    "father\u2019s":1,
    "parents\u2019":1,
    "roast":1,
    "touched":1,
    "full":1,
    "flow":1,
    "anywhere":1,
    "england":1,
    "paris":1,
    "rome":1,
    "frightens":1,
    "dying":1,
    "drinking":1,
    "thousand":1,
    "talked":1,
    "secondbest":1,
    "places":1,
    "grand":1,
    "briskly":1,
    "ticket":1,
    "sickness":1,
    "health":1,
    "honour":1,
    "congregation":1,
    "steal":1,
    "sideways":1,
    "glance":1,
    "unreadable":1,
    "service":1,
    "promised":1,
    "we\u2019d":1,
    "parked":1,
    "\u201cjim":1,
    "i\u201d":1,
    "thinly":1,
    "aboutwell":1,
    "regret":1,
    "stiffens":1,
    "question":1,
    "bombard":1,
    "expectantly":1,
    "grateful":1,
    "flattered":1,
    "justi":1,
    "imagined":1,
    "finish":1,
    "perfectly":1,
    "provide":1,
    "entertainment":1,
    "ignore":1,
    "irritation":1,
    "stomps":1,
    "destroy":1,
    "panicky":1,
    "clarify":1,
    "position":1,
    "float":1,
    "worked":1,
    "upstairs":1,
    "follows":1,
    "lots":1,
    "pretends":1,
    "usually":1,
    "blank":1,
    "enjoying":1,
    "unsettling":1,
    "niece":1,
    "uneasy":1,
    "chill":1,
    "weeks":1,
    "registry":1,
    "bumped":1,
    "bump":1,
    "virtue":1,
    "visibly":1,
    "shaking":1,
    "loving":1,
    "unambiguous":1,
    "fool":1,
    "planning":1,
    "ruin":1,
    "meets":1,
    "reservation":1,
    "available":1,
    "sailing":1,
    "cobh":1,
    "nancy\u2019s":1,
    "buying":1,
    "broom\u2019s":1,
    "stapleton":1,
    "detail":1,
    "minute":1,
    "steady":1,
    "pain":1,
    "brief":1,
    "appears":1,
    "crying":1,
    "early":1,
    "mummyit\u2019s":1,
    "tired":1,
    "goodbye":1,
    "safe":1,
    "journey":1,
    "dignified":1,
    "determined":1,
    "broken":1,
    "montage":1,
    "visiting":1,
    "wearily":1,
    "youth":1,
    "innocence":1,
    "gratefully":1,
    "unfriendliness":1,
    "it\u2019ll":1,
    "hammering":1,
    "negotiate":1,
    "immigration":1,
    "wide":1,
    "die":1,
    "endure":1,
    "kill":1,
    "realise":1,
    "tracks":1,
    "broadly":1,
    "road":1,
    "reception":1,
    "arms":1,
    "freeze":1,
    "cause":2,
    "nine":2,
    "o\u2019clock":2,
    "packed":2,
    "designed":2,
    "rashers":2,
    "serve":2,
    "helplessly":2,
    "o\u2019leary":2,
    "shoe":2,
    "item":2,
    "tea":2,
    "yesterday":2,
    "timid":2,
    "stares":2,
    "hadn\u2019t":2,
    "whatever":2,
    "i\u2019mi\u2019m":2,
    "pause":2,
    "recovers":2,
    "play":2,
    "train":2,
    "poor":2,
    "wexford":2,
    "hoping":2,
    "boys":2,
    "hairoil":2,
    "dress":2,
    "late":2,
    "walking":2,
    "moments":2,
    "picks":2,
    "snigger":2,
    "watch":2,
    "written":2,
    "nettles":2,
    "knife":2,
    "finishing":2,
    "visit":2,
    "bottom":2,
    "mine":2,
    "throughout":2,
    "cabin":2,
    "suit":2,
    "blankly":2,
    "rough":2,
    "stew":2,
    "boat":2,
    "thrown":2,
    "throwing":2,
    "bastards":2,
    "nights":2,
    "fix":2,
    "against":2,
    "fuck":2,
    "played":2,
    "use":2,
    "water":2,
    "allowed":2,
    "rain":2,
    "sleep":2,
    "peace":2,
    "women":2,
    "papers":2,
    "sometimes":2,
    "tart":2,
    "gave":2,
    "cough":2,
    "remembers":2,
    "rude":2,
    "advice":2,
    "lifts":2,
    "official":2,
    "sun":2,
    "thy":2,
    "amen":2,
    "de":2,
    "valera":2,
    "newspaper":2,
    "politics":2,
    "cream":2,
    "travel":2,
    "greasy":2,
    "engagement":2,
    "sides":2,
    "\u201ci":2,
    "ireland\u201d":2,
    "watches":2,
    "freezes":2,
    "hot":2,
    "awkward":2,
    "speech":2,
    "forced":2,
    "attention":2,
    "treat":2,
    "panties":2,
    "bill":2,
    "nervously":2,
    "sale":2,
    "we\u2019ve":2,
    "forgot":2,
    "fresh":2,
    "cheer":2,
    "staff":2,
    "chair":2,
    "glass":2,
    "warmly":2,
    "surprised":2,
    "continue":2,
    "paid":2,
    "tuition":2,
    "wonderingly":2,
    "clever":2,
    "forget":2,
    "wrote":2,
    "homesickness":2,
    "biggest":2,
    "law":2,
    "proceedings":2,
    "literally":2,
    "its":2,
    "turkey":2,
    "extra":2,
    "brays":2,
    "lunch":2,
    "asks":2,
    "saint":2,
    "appreciate":2,
    "kept":2,
    "stream":2,
    "such":2,
    "particular":2,
    "shock":2,
    "seeing":2,
    "faces":2,
    "fire":2,
    "filled":2,
    "bags":2,
    "corner":2,
    "slowly":2,
    "appreciation":2,
    "survived":2,
    "basement":2,
    "entrance":2,
    "notices":2,
    "trust":2,
    "cue":2,
    "dynamic":2,
    "enjoy":2,
    "movies":2,
    "cavan":2,
    "group":2,
    "changed":2,
    "relationship":2,
    "welcome":2,
    "join":2,
    "resist":2,
    "scrubber":2,
    "houses":2,
    "london":2,
    "terribly":2,
    "shuffles":2,
    "dressed":2,
    "bitches":2,
    "called":2,
    "apart":2,
    "cows":2,
    "clean":2,
    "guy":2,
    "middle":2,
    "pick":2,
    "apparent":2,
    "jacket":2,
    "discreetly":2,
    "lives":2,
    "boarding":2,
    "italians":2,
    "studying":2,
    "bookkeeper":2,
    "system":2,
    "listening":2,
    "eaten":2,
    "gentleman":2,
    "funny":2,
    "am":2,
    "giddiness":2,
    "who\u2019s":2,
    "box":2,
    "peers":2,
    "fox":2,
    "unhappy":2,
    "drink":2,
    "simplicity":2,
    "amenable":2,
    "chance":2,
    "tony\u2019s":2,
    "judge":2,
    "heating":2,
    "miserable":2,
    "gone":2,
    "rather":2,
    "homesick":2,
    "sauce":2,
    "giggle":2,
    "helped":2,
    "ball":2,
    "causing":2,
    "he\u2019ll":2,
    "beating":2,
    "spaghetti":2,
    "lessons":2,
    "idiot":2,
    "ebbett\u2019s":2,
    "field":2,
    "yankees":2,
    "break":2,
    "path":2,
    "pouring":2,
    "coffee":2,
    "ten":2,
    "somewhere":2,
    "sewage":2,
    "anxiously":2,
    "breath":2,
    "serious":2,
    "excuse":2,
    "shyly":2,
    "woods":2,
    "slices":2,
    "putting":2,
    "weekend":2,
    "sunglasses":2,
    "beach":2,
    "they\u2019d":2,
    "shocked":2,
    "dark":2,
    "eventually":2,
    "underneath":2,
    "also":2,
    "started":2,
    "firm":2,
    "voice":2,
    "trails":2,
    "ill":2,
    "studies":2,
    "intently":2,
    "there\u2019d":2,
    "telephone":2,
    "imagine":2,
    "holds":2,
    "tiny":2,
    "real":2,
    "everybody":2,
    "weeping":2,
    "runs":2,
    "skirt":2,
    "lies":2,
    "fear":2,
    "annoying":2,
    "where\u2019s":2,
    "glamorous":2,
    "funeral":2,
    "august":2,
    "perceptibly":2,
    "wonderful":2,
    "pray":2,
    "missed":2,
    "blazer":2,
    "arrange":2,
    "engaged":2,
    "sad":2,
    "they\u2019ve":2,
    "teased":2,
    "accounts":2,
    "overtime":2,
    "slips":2,
    "maria":2,
    "done":2,
    "rose\u2019s":2,
    "certificate":2,
    "beaches":2,
    "stones":2,
    "trophy":2,
    "towels":2,
    "impressed":2,
    "seats":2,
    "glenbrien":2,
    "pipe":2,
    "mother\u2019s":2,
    "fetch":2,
    "firelighters":2,
    "four":3,
    "brady":3,
    "front":3,
    "polish":3,
    "stare":3,
    "needed":3,
    "used":3,
    "behind":3,
    "country":3,
    "county":3,
    "able":3,
    "those":3,
    "wear":3,
    "pleasure":3,
    "twice":3,
    "hasn\u2019t":3,
    "nervous":3,
    "shoulders":3,
    "quite":3,
    "terrible":3,
    "colder":3,
    "fork":3,
    "despairingly":3,
    "silence":3,
    "falls":3,
    "bought":3,
    "case":3,
    "worry":3,
    "ceiling":3,
    "georgina":3,
    "smoke":3,
    "tonight":3,
    "stricken":3,
    "longer":3,
    "smell":3,
    "class":3,
    "least":3,
    "word":3,
    "lock":3,
    "easy":3,
    "sick":3,
    "problem":3,
    "point":3,
    "nowhere":3,
    "luck":3,
    "manhattan":3,
    "skin":3,
    "soap":3,
    "pleased":3,
    "boyfriend":3,
    "changing":3,
    "write":3,
    "tells":3,
    "steps":3,
    "since":3,
    "friend":3,
    "deal":3,
    "ii":3,
    "quick":3,
    "date":3,
    "sort":3,
    "plate":3,
    "kelly\u2019s":3,
    "tears":3,
    "give":3,
    "great":3,
    "ma":3,
    "pass":3,
    "wretched":3,
    "move":3,
    "alone":3,
    "everyone":3,
    "marvellous":3,
    "afford":3,
    "doors":3,
    "ready":3,
    "less":3,
    "hand":3,
    "passed":3,
    "parish":3,
    "happened":3,
    "small":3,
    "show":3,
    "blushes":3,
    "present":3,
    "sherry":3,
    "although":3,
    "having":3,
    "staring":3,
    "involved":3,
    "ignores":3,
    "meant":3,
    "complicated":3,
    "moves":3,
    "part":3,
    "difficult":3,
    "plumbing":3,
    "finished":3,
    "goodnight":3,
    "beginning":3,
    "world":3,
    "along":3,
    "classes":3,
    "thanks":3,
    "baseball":3,
    "across":3,
    "eight":3,
    "pay":3,
    "forward":3,
    "hey":3,
    "taking":3,
    "made":3,
    "maurizio":3,
    "known":3,
    "weren\u2019t":3,
    "fiorello":3,
    "forever":3,
    "kids":3,
    "embrace":3,
    "lady":3,
    "loved":3,
    "smiling":3,
    "coney":3,
    "trick":3,
    "kisses":3,
    "fade":3,
    "anybody":3,
    "happen":3,
    "died":3,
    "sounds":3,
    "gestures":3,
    "mom":3,
    "sighs":3,
    "trousers":3,
    "above":3,
    "gets":3,
    "save":3,
    "annette":3,
    "wants":3,
    "o\u2019toole":3,
    "cush":3,
    "bar":3,
    "department":3,
    "run":3,
    "expression":3,
    "trouble":4,
    "deep":4,
    "mess":4,
    "notice":4,
    "care":4,
    "found":4,
    "month":4,
    "until":4,
    "turn":4,
    "asking":4,
    "telling":4,
    "already":4,
    "camera":4,
    "making":4,
    "coat":4,
    "shouldn\u2019t":4,
    "evening":4,
    "summer":4,
    "buy":4,
    "shopping":4,
    "either":4,
    "yet":4,
    "bit":4,
    "top":4,
    "sit":4,
    "eating":4,
    "toilet":4,
    "finds":4,
    "side":4,
    "each":4,
    "immediately":4,
    "five":4,
    "days":4,
    "dear":4,
    "stand":4,
    "lord":4,
    "fun":4,
    "eye":4,
    "cold":4,
    "store":4,
    "both":4,
    "expect":4,
    "mcadam":4,
    "shakes":4,
    "ladies":4,
    "change":4,
    "becomes":4,
    "quiet":4,
    "carefully":4,
    "clearly":4,
    "customer":4,
    "living":4,
    "inside":4,
    "everywhere":4,
    "glad":4,
    "letters":4,
    "hundred":4,
    "heard":4,
    "opens":4,
    "second":4,
    "college":4,
    "somebody":4,
    "important":4,
    "words":4,
    "far":4,
    "kehoe\u2019s":4,
    "open":4,
    "start":4,
    "moving":4,
    "lost":4,
    "brown":4,
    "seen":4,
    "leads":4,
    "aren\u2019t":4,
    "between":4,
    "true":4,
    "study":4,
    "bench":4,
    "person":4,
    "pauses":4,
    "ok":4,
    "parents":4,
    "listen":4,
    "lot":4,
    "times":4,
    "worried":4,
    "met":4,
    "noise":4,
    "afraid":4,
    "stockings":4,
    "means":4,
    "beat":4,
    "town":4,
    "certainly":4,
    "dad":4,
    "round":4,
    "embarrassed":4,
    "hair":4,
    "brothers":4,
    "sits":4,
    "season":4,
    "rolls":4,
    "sees":4,
    "waiting":4,
    "anyone":4,
    "costume":4,
    "office":4,
    "car":4,
    "davis\u2019s":4,
    "closes":5,
    "mass":5,
    "customers":5,
    "three":5,
    "sunday":5,
    "couldn\u2019t":5,
    "shoes":5,
    "gives":5,
    "walk":5,
    "catch":5,
    "looked":5,
    "call":5,
    "wasn\u2019t":5,
    "future":5,
    "bear":5,
    "supposed":5,
    "few":5,
    "quickly":5,
    "meet":5,
    "red":5,
    "ahead":5,
    "saw":5,
    "today":5,
    "read":5,
    "seems":5,
    "wrong":5,
    "watching":5,
    "finally":5,
    "outside":5,
    "sound":5,
    "leaves":5,
    "may":5,
    "god":5,
    "awful":5,
    "feels":5,
    "thinking":5,
    "christmas":5,
    "myself":5,
    "ago":5,
    "laughter":5,
    "leaving":5,
    "stay":5,
    "saturday":5,
    "once":5,
    "hesitates":5,
    "seem":5,
    "company":5,
    "gonna":5,
    "island":5,
    "husband":5,
    "minutes":5,
    "bathing":5,
    "marry":5,
    "enniscorthy":5,
    "lacey":5,
    "wedding":5,
    "bed":6,
    "end":6,
    "counter":6,
    "suppose":6,
    "forgotten":6,
    "soon":6,
    "idea":6,
    "job":6,
    "straight":6,
    "sister":6,
    "always":6,
    "rest":6,
    "does":6,
    "beautiful":6,
    "place":6,
    "rugby":6,
    "hours":6,
    "name":6,
    "clothes":6,
    "stop":6,
    "they\u2019ll":6,
    "coming":6,
    "wait":6,
    "whole":6,
    "friends":6,
    "perhaps":6,
    "which":6,
    "news":6,
    "movie":6,
    "busy":6,
    "trying":6,
    "lovely":6,
    "big":6,
    "mummy":6,
    "cannot":6,
    "believe":6,
    "bookkeeping":6,
    "feeling":6,
    "understand":6,
    "hall":6,
    "fellas":6,
    "sheila":6,
    "kissing":6,
    "food":6,
    "turns":6,
    "guess":6,
    "shrugs":6,
    "probably":6,
    "knew":6,
    "promise":6,
    "shop":7,
    "morning":7,
    "these":7,
    "golf":7,
    "help":7,
    "she\u2019ll":7,
    "asked":7,
    "laugh":7,
    "keep":7,
    "almost":7,
    "head":7,
    "spend":7,
    "winter":7,
    "you\u2019ve":7,
    "yourself":7,
    "find":7,
    "they\u2019re":7,
    "tomorrow":7,
    "suddenly":7,
    "american":7,
    "letter":7,
    "bartocci\u2019s":7,
    "saying":7,
    "than":7,
    "tries":7,
    "let":7,
    "must":7,
    "sitting":7,
    "she\u2019d":7,
    "someone":7,
    "single":7,
    "mouth":7,
    "many":7,
    "happy":7,
    "fella":7,
    "different":7,
    "hello":7,
    "italian":7,
    "dodgers":7,
    "what\u2019s":7,
    "farrell":7,
    "conversation":8,
    "standing":8,
    "best":8,
    "woman":8,
    "mr":8,
    "let\u2019s":8,
    "left":8,
    "leave":8,
    "working":8,
    "kind":8,
    "puts":8,
    "pulls":8,
    "eat":8,
    "hands":8,
    "went":8,
    "speak":8,
    "matter":8,
    "hope":8,
    "comes":8,
    "ever":8,
    "ireland":8,
    "goes":8,
    "young":8,
    "while":8,
    "getting":8,
    "ah":9,
    "dinner":9,
    "club":9,
    "talking":9,
    "stops":9,
    "year":9,
    "bathroom":9,
    "nobody":9,
    "bad":9,
    "diana":9,
    "says":9,
    "dorothy":9,
    "thinks":9,
    "else":9,
    "though":9,
    "mind":9,
    "ask":9,
    "came":9,
    "wanted":9,
    "nods":10,
    "might":10,
    "another":10,
    "knows":10,
    "starts":10,
    "laughs":10,
    "doing":10,
    "old":10,
    "money":10,
    "herself":10,
    "hard":10,
    "better":10,
    "haven\u2019t":10,
    "we\u2019ll":10,
    "through":10,
    "walks":10,
    "thought":10,
    "men":10,
    "frankie":10,
    "dolores":10,
    "thing":11,
    "looking":11,
    "makes":11,
    "towards":11,
    "couple":11,
    "put":11,
    "feel":11,
    "try":11,
    "patty":11,
    "stands":11,
    "same":11,
    "years":11,
    "yeah":11,
    "anyway":12,
    "things":12,
    "everything":12,
    "york":12,
    "being":12,
    "should":12,
    "little":12,
    "mean":12,
    "smile":12,
    "you\u2019d":12,
    "live":12,
    "around":12,
    "two":12,
    "week":12,
    "without":12,
    "girls":13,
    "please":13,
    "still":13,
    "work":13,
    "isn\u2019t":13,
    "man":13,
    "wish":13,
    "face":13,
    "table":13,
    "most":13,
    "nice":13,
    "hear":13,
    "family":13,
    "remember":13,
    "our":13,
    "said":13,
    "long":13,
    "takes":13,
    "eyes":14,
    "next":14,
    "make":14,
    "we\u2019re":14,
    "eilis\u2019s":14,
    "wouldn\u2019t":14,
    "maybe":14,
    "night":14,
    "where":14,
    "brooklyn":14,
    "love":14,
    "before":14,
    "rose":15,
    "kelly":15,
    "later":15,
    "":15,
    "mary":15,
    "course":15,
    "flood":15,
    "last":15,
    "any":15,
    "day":15,
    "take":15,
    "i\u2019ve":15,
    "enough":15,
    "by":16,
    "sorry":16,
    "got":16,
    "life":16,
    "george":16,
    "dance":16,
    "own":16,
    "nothing":16,
    "fortini":16,
    "only":16,
    "married":16,
    "house":17,
    "america":17,
    "new":17,
    "door":17,
    "never":17,
    "other":17,
    "were":17,
    "right":18,
    "much":18,
    "you\u2019ll":18,
    "first":18,
    "who":18,
    "people":19,
    "girl":19,
    "told":19,
    "way":20,
    "moment":20,
    "over":20,
    "because":20,
    "could":20,
    "room":20,
    "kehoe":20,
    "tell":20,
    "some":21,
    "need":21,
    "won\u2019t":21,
    "after":21,
    "time":21,
    "didn\u2019t":21,
    "more":21,
    "talk":22,
    "their":22,
    "into":22,
    "good":22,
    "down":22,
    "sure":22,
    "irish":22,
    "smiles":23,
    "really":23,
    "away":23,
    "nancy":23,
    "even":23,
    "did":23,
    "or":24,
    "father":24,
    "us":24,
    "something":24,
    "how":24,
    "off":25,
    "very":25,
    "when":26,
    "every":26,
    "mother":26,
    "i\u2019d":26,
    "home":26,
    "again":26,
    "there\u2019s":26,
    "then":27,
    "doesn\u2019t":28,
    "thank":28,
    "look":28,
    "an":28,
    "can\u2019t":28,
    "i\u2019ll":28,
    "why":29,
    "them":31,
    "mrs":31,
    "anything":31,
    "get":32,
    "she\u2019s":32,
    "too":33,
    "had":34,
    "been":35,
    "now":36,
    "one":36,
    "yes":36,
    "jim":36,
    "come":37,
    "well":37,
    "that\u2019s":37,
    "he\u2019s":37,
    "would":40,
    "has":40,
    "go":41,
    "miss":41,
    "going":42,
    "looks":42,
    "up":42,
    "from":42,
    "say":43,
    "his":43,
    "you\u2019re":44,
    "think":46,
    "back":47,
    "see":47,
    "just":47,
    "tony":48,
    "as":49,
    "was":49,
    "out":50,
    "him":50,
    "no":52,
    "my":53,
    "here":54,
    "will":55,
    "they":55,
    "oh":55,
    "want":56,
    "your":58,
    "this":61,
    "there":61,
    "all":61,
    "are":62,
    "do":62,
    "if":64,
    "it\u2019s":66,
    "can":71,
    "what":73,
    "not":75,
    "about":75,
    "we":79,
    "i\u2019m":80,
    "know":81,
    "like":82,
    "don\u2019t":82,
    "with":84,
    "so":87,
    "but":89,
    "he":90,
    "on":92,
    "at":93,
    "be":96,
    "have":103,
    "me":107,
    "for":108,
    "she":152,
    "that":153,
    "is":159,
    "in":167,
    "her":168,
    "of":171,
    "it":184,
    "eilis":198,
    "a":277,
    "and":366,
    "i":392,
    "to":428,
    "you":445,
    "the":485
}