{
    "accidents":1,
    "goal":1,
    "businesses":1,
    "individuals":1,
    "wisconsins":1,
    "endeavor":1,
    "prices":1,
    "awarded":1,
    "prestigious":1,
    "society":1,
    "insurers":1,
    "insure":1,
    "holee":1,
    "christmas":1,
    "knocked":1,
    "gd":1,
    "copy":1,
    "gripe":1,
    "waited":1,
    "proud":1,
    "roggie":1,
    "timmy":1,
    "field":1,
    "vehicles":1,
    "homes":1,
    "biggie":1,
    "bummer":1,
    "ad":1,
    "cutting":1,
    "cake":1,
    "tada":1,
    "gayle":1,
    "syrst\ufffdd":1,
    "quackers":1,
    "santa":1,
    "nan":1,
    "cute":1,
    "dress":1,
    "rigmarole":1,
    "diarrhea":1,
    "sick":1,
    "menopause":1,
    "middle":1,
    "tummy":1,
    "hold":1,
    "daaaarrghoawesome":1,
    "goofball":1,
    "galen":1,
    "dar":1,
    "krause":1,
    "bahamas":1,
    "reasonable":1,
    "pricewise":1,
    "mon":1,
    "bahamamama":1,
    "shillyshally":1,
    "found":1,
    "viking":1,
    "gradea":1,
    "wheres":1,
    "coming":1,
    "dozen":1,
    "tommy":1,
    "bartletts":1,
    "ski":1,
    "sky":1,
    "settle":1,
    "state":1,
    "missing":1,
    "grow":1,
    "perfectly":1,
    "waters":1,
    "spare":1,
    "phoenix":1,
    "pammy":1,
    "umbrella":1,
    "policys":1,
    "known":1,
    "protect":1,
    "napkin":1,
    "retirement":1,
    "july":1,
    "transitioned":1,
    "ownership":1,
    "role":1,
    "payment":1,
    "branson":1,
    "black":1,
    "florida":1,
    "units":1,
    "cow":1,
    "christknowswhat":1,
    "wifes":1,
    "spending":1,
    "powerball":1,
    "belt":1,
    "lederhosen":1,
    "quoteunquote":1,
    "theyre":1,
    "stain":1,
    "goddamned":1,
    "prepare":1,
    "heavy":1,
    "unearthed":1,
    "polack":1,
    "marry":1,
    "whoawhoawait":1,
    "fill":1,
    "shoes":1,
    "deliver":1,
    "lila":1,
    "lilas":1,
    "charismatic":1,
    "bag":1,
    "hair":1,
    "dabbled":1,
    "pro":1,
    "16":1,
    "filing":1,
    "raising":1,
    "places":1,
    "makes":1,
    "sense":1,
    "loses":1,
    "early":1,
    "age":1,
    "becomes":1,
    "stunted":1,
    "almighty":1,
    "rot":1,
    "dating":1,
    "threell":1,
    "charm":1,
    "dancing":1,
    "streets":1,
    "perception":1,
    "pie":1,
    "eyed":1,
    "upstanding":1,
    "christian":1,
    "hiya":1,
    "wades":1,
    "espn":1,
    "2":1,
    "strut":1,
    "rooster":1,
    "jetting":1,
    "gallivant":1,
    "tom":1,
    "petty":1,
    "bother":1,
    "whose":1,
    "carol":1,
    "seasonal":1,
    "certain":1,
    "lightning":1,
    "bottle":1,
    "homicides":1,
    "122thousand":1,
    "darn":1,
    "forcible":1,
    "rape":1,
    "admittedly":1,
    "higher":1,
    "send":1,
    "telegram":1,
    "airport":1,
    "flight":1,
    "cold":1,
    "heading":1,
    "mid30s":1,
    "quartsize":1,
    "ziplock":1,
    "laptop":1,
    "computers":1,
    "bible":1,
    "cancer":1,
    "sonofabitch":1,
    "biggest":1,
    "plague":1,
    "rooming":1,
    "stick":1,
    "affirmative":1,
    "heyhey":1,
    "prep":1,
    "climbed":1,
    "planted":1,
    "seed":1,
    "atta":1,
    "dogs":1,
    "allstates":1,
    "prudentials":1,
    "decide":1,
    "safe":1,
    "representing":1,
    "seated":1,
    "exit":1,
    "row":1,
    "willing":1,
    "assist":1,
    "crew":1,
    "members":1,
    "evacuation":1,
    "landing":1,
    "terror":1,
    "terrorists":1,
    "formality":1,
    "airplane":1,
    "david":1,
    "wondering":1,
    "mines":1,
    "grandma":1,
    "germans":1,
    "lippuh":1,
    "alltel":1,
    "bum":1,
    "cigarette":1,
    "`bout":1,
    "roof":1,
    "surgeon":1,
    "general":1,
    "hearty":1,
    "chatting":1,
    "trent":1,
    "impression":1,
    "honored":1,
    "imprint":1,
    "method":1,
    "aware":1,
    "rent":1,
    "movie":1,
    "minibar":1,
    "nondrinker":1,
    "standard":1,
    "smell":1,
    "chlorine":1,
    "blown":1,
    "oop":1,
    "321":1,
    "mi":1,
    "casa":1,
    "works":1,
    "keys":1,
    "afroamerican":1,
    "roommates":1,
    "tiiim":1,
    "robbed":1,
    "digs":1,
    "huzzah":1,
    "cards":1,
    "junior":1,
    "upgrade":1,
    "overbooked":1,
    "consolidate":1,
    "independent":1,
    "adding":1,
    "positive":1,
    "qualms":1,
    "chilling":1,
    "roommatewise":1,
    "snore":1,
    "imagine":1,
    "terrible":1,
    "gas":1,
    "finger":1,
    "brrump":1,
    "woodstock":1,
    "whoever":1,
    "shooter":1,
    "billboard":1,
    "traffic":1,
    "load":1,
    "eyeballs":1,
    "twin":1,
    "cities":1,
    "corridor":1,
    "nt":1,
    "s":1,
    "shabby":1,
    "nts":1,
    "baroobaroo":1,
    "motherrubbers":1,
    "loveuh":1,
    "soul":1,
    "brothuh":1,
    "volume":1,
    "petes":1,
    "sake":1,
    "chocolatevanilla":1,
    "sandwich":1,
    "buttfucking":1,
    "medicated":1,
    "drew":1,
    "straw":1,
    "pitiful":1,
    "reprobate":1,
    "quietland":1,
    "krogger":1,
    "passing":1,
    "prayers":1,
    "wingnuts":1,
    "drinkzie":1,
    "hooha":1,
    "hit":1,
    "twoforone":1,
    "cent":1,
    "wings":1,
    "unappealing":1,
    "remains":1,
    "opening":1,
    "steaming":1,
    "pottymouth":1,
    "nonsense":1,
    "ignore":1,
    "degenerate":1,
    "ladies":1,
    "excellent":1,
    "region":1,
    "chief":1,
    "`09":1,
    "forward":1,
    "asmiteer":1,
    "dealing":1,
    "sort":1,
    "kits":1,
    "colors":1,
    "specifically":1,
    "ran":1,
    "votes":1,
    "bluster":1,
    "exemplifies":1,
    "decree":1,
    "maintaining":1,
    "country":1,
    "record":1,
    "entries":1,
    "luck":1,
    "brutal":1,
    "brought":1,
    "agame":1,
    "shot":1,
    "owns":1,
    "sixth":1,
    "upper":1,
    "shark":1,
    "moment":1,
    "silence":1,
    "michael":1,
    "jordan":1,
    "dunno":1,
    "badger":1,
    "hockeys":1,
    "ring":1,
    "pervo":1,
    "hitting":1,
    "innocent":1,
    "women":1,
    "maam":1,
    "unbelievable":1,
    "messing":1,
    "jerkhead":1,
    "basketball":1,
    "updated":1,
    "uniform":1,
    "gullible":1,
    "dictionary":1,
    "association":1,
    "insur":1,
    "screwing":1,
    "gross":1,
    "bid":1,
    "farewell":1,
    "spying":1,
    "shower":1,
    "evil":1,
    "enjoyed":1,
    "speech":1,
    "terrific":1,
    "whew":1,
    "loss":1,
    "retire":1,
    "hook":1,
    "darnedest":1,
    "pains":1,
    "rescind":1,
    "core":1,
    "tenets":1,
    "activity":1,
    "entirely":1,
    "godly":1,
    "nambypamby":1,
    "extra":1,
    "411":1,
    "balcony":1,
    "overlooks":1,
    "roomie":1,
    "hanging":1,
    "ahoy":1,
    "capn":1,
    "thirsty":1,
    "sailor":1,
    "navy":1,
    "seaman":1,
    "getcha":1,
    "root":1,
    "beer":1,
    "busting":1,
    "balls":1,
    "whod":1,
    "nobody":1,
    "poison":1,
    "bs":1,
    "propaganda":1,
    "wowwowwow":1,
    "na\ufffdve":1,
    "rail":1,
    "bucks":1,
    "40":1,
    "iscratch":1,
    "yourbackyouscratchmine":1,
    "invited":1,
    "fourth":1,
    "view":1,
    "mexican":1,
    "pussywise":1,
    "crapids":1,
    "engaged":1,
    "pointing":1,
    "read":1,
    "split":1,
    "17":1,
    "hole":1,
    "deduce":1,
    "led":1,
    "sheltered":1,
    "existence":1,
    "oughta":1,
    "win":1,
    "ps":1,
    "relations":1,
    "hubbahubba":1,
    "studs":1,
    "america":1,
    "arms":1,
    "drove":1,
    "maahvelous":1,
    "shagalicious":1,
    "queen":1,
    "bee":1,
    "naughty":1,
    "whatll":1,
    "jaeger":1,
    "drambuie":1,
    "grenadine":1,
    "advantage":1,
    "whoao":1,
    "eater":1,
    "marlenes":1,
    "brothers":1,
    "hospital":1,
    "canceled":1,
    "watched":1,
    "hockey":1,
    "bed":1,
    "decision":1,
    "reminding":1,
    "current":1,
    "mechanisms":1,
    "available":1,
    "operations":1,
    "futures":1,
    "options":1,
    "private":1,
    "agree":1,
    "stairwell":1,
    "wrap":1,
    "drunk":1,
    "finish":1,
    "confab":1,
    "shocker":1,
    "buttering":1,
    "camp":1,
    "voting":1,
    "asks":1,
    "classa":1,
    "deviant":1,
    "whoawhoa":1,
    "whore":1,
    "harping":1,
    "elsewhere":1,
    "calls":1,
    "lower":1,
    "premium":1,
    "greasy":1,
    "twat":1,
    "aint":1,
    "personally":1,
    "donuts":1,
    "swoop":1,
    "bargain":1,
    "wading":1,
    "duvious":1,
    "er":1,
    "dubious":1,
    "pray":1,
    "author":1,
    "salvation":1,
    "redeemer":1,
    "lead":1,
    "overwhelming":1,
    "deciding":1,
    "attend":1,
    "politics":1,
    "pressure":1,
    "palling":1,
    "laughing":1,
    "jokes":1,
    "steer":1,
    "warn":1,
    "sent":1,
    "restore":1,
    "image":1,
    "atlas":1,
    "driving":1,
    "polacks":1,
    "papers":1,
    "cashing":1,
    "swear":1,
    "smoke":1,
    "virginia":1,
    "slim":1,
    "yell":1,
    "hardest":1,
    "ninja":1,
    "nin":1,
    "jette":1,
    "hoowaaaah":1,
    "dorky":1,
    "freaky":1,
    "interested":1,
    "killed":1,
    "died":1,
    "fought":1,
    "tiger":1,
    "opened":1,
    "treat":1,
    "flooded":1,
    "massive":1,
    "firemen":1,
    "policemen":1,
    "claims":1,
    "werent":1,
    "lurch":1,
    "billions":1,
    "damages":1,
    "rebuild":1,
    "superman":1,
    "dweeby":1,
    "surface":1,
    "underneath":1,
    "theyd":1,
    "chest":1,
    "freezing":1,
    "arse":1,
    "alive":1,
    "administration":1,
    "abandon":1,
    "supporter":1,
    "yours":1,
    "lousy":1,
    "gigantic":1,
    "boner":1,
    "spooning":1,
    "spoon":1,
    "each":1,
    "teasing":1,
    "executive":1,
    "council":1,
    "fellas":1,
    "pyles":1,
    "seminar":1,
    "mikes":1,
    "dynamite":1,
    "orator":1,
    "flock":1,
    "humorous":1,
    "anecdote":1,
    "pond":1,
    "sees":1,
    "throws":1,
    "rope":1,
    "halfway":1,
    "propertycasualty":1,
    "dynamic":1,
    "areas":1,
    "herro":1,
    "chin":1,
    "chang":1,
    "wise":1,
    "horrible":1,
    "h":1,
    "voice":1,
    "giving":1,
    "grief":1,
    "fire":1,
    "putting":1,
    "fires":1,
    "lucy":1,
    "kofnetka":1,
    "altar":1,
    "guild":1,
    "lucys":1,
    "seeing":1,
    "apparently":1,
    "feels":1,
    "maintain":1,
    "responsibil":1,
    "outside":1,
    "teaming":1,
    "coworker":1,
    "tv":1,
    "winning":1,
    "eastern":1,
    "iowas":1,
    "twostory":1,
    "blouse":1,
    "burn":1,
    "sidekick":1,
    "therell":1,
    "physical":1,
    "challenges":1,
    "pumped":1,
    "whoohoo":1,
    "building":1,
    "clue":1,
    "sea":1,
    "perry":1,
    "perryplegic":1,
    "paraplegic":1,
    "retard":1,
    "compiled":1,
    "info":1,
    "laminator":1,
    "hot":1,
    "maps":1,
    "attractions":1,
    "crime":1,
    "stats":1,
    "customs":1,
    "bingo":1,
    "natural":1,
    "gyp":1,
    "clues":1,
    "blairs":1,
    "ferry":1,
    "avenue":1,
    "east":1,
    "memorized":1,
    "major":1,
    "thoroughfares":1,
    "landmarks":1,
    "metro":1,
    "czechoslovakia":1,
    "cows":1,
    "quit":1,
    "pulling":1,
    "puke":1,
    "wiener":1,
    "mouth":1,
    "joke":1,
    "complete":1,
    "challenge":1,
    "shootin":1,
    "match":1,
    "behind":1,
    "scaling":1,
    "abc":1,
    "story":1,
    "youtube":1,
    "uhuh":1,
    "crapless":1,
    "heights":1,
    "cuz":1,
    "jack":1,
    "leap":1,
    "tall":1,
    "buildings":1,
    "bound":1,
    "pants":1,
    "gang":1,
    "rick":1,
    "martini":1,
    "final":1,
    "task":1,
    "prize":1,
    "anyones":1,
    "dangit":1,
    "police":1,
    "vet":1,
    "swallowed":1,
    "pencil":1,
    "eraser":1,
    "paired":1,
    "hyper":1,
    "types":1,
    "overdoes":1,
    "dollar":1,
    "complain":1,
    "brother":1,
    "fish":1,
    "eagles":1,
    "warm":1,
    "convenient":1,
    "certificate":1,
    "supper":1,
    "reservation":1,
    "madam":1,
    "monsieur":1,
    "bottomless":1,
    "bread":1,
    "sticks":1,
    "joys":1,
    "cheers":1,
    "communion":1,
    "wine":1,
    "aspirations":1,
    "greenhouse":1,
    "backyard":1,
    "fairly":1,
    "portable":1,
    "fleet":1,
    "break":1,
    "bank":1,
    "hoped":1,
    "retired":1,
    "grrrr":1,
    "tylers":1,
    "ashleyll":1,
    "hubby":1,
    "fox":1,
    "rotary":1,
    "exchange":1,
    "students":1,
    "lived":1,
    "semester":1,
    "spaz":1,
    "band":1,
    "geek":1,
    "ugly":1,
    "duckling":1,
    "braces":1,
    "acne":1,
    "boobs":1,
    "college":1,
    "sophomore":1,
    "richies":1,
    "supervisor":1,
    "county":1,
    "effed":1,
    "choose":1,
    "option":1,
    "husband":1,
    "responsibility":1,
    "potatoes":1,
    "compared":1,
    "randys":1,
    "dawg":1,
    "simons":1,
    "superior":1,
    "solo":1,
    "political":1,
    "middlin":1,
    "baritone":1,
    "practice":1,
    "loosen":1,
    "kneecap":1,
    "wondered":1,
    "bigshot":1,
    "winners":1,
    "pop":1,
    "lites":1,
    "wash":1,
    "quick":1,
    "tag":1,
    "moist":1,
    "damp":1,
    "sponge":1,
    "piss":1,
    "speaking":1,
    "crank":1,
    "earlier":1,
    "courage":1,
    "crosses":1,
    "offense":1,
    "mucho":1,
    "senior":1,
    "warden":1,
    "guilty":1,
    "pleasures":1,
    "antiquing":1,
    "active":1,
    "enthusiast":1,
    "shux":1,
    "proper":1,
    "gay":1,
    "cruises":1,
    "rookie":1,
    "pt":1,
    "prime":1,
    "rather":1,
    "eat":1,
    "butthole":1,
    "bj":1,
    "clean":1,
    "dressing":1,
    "island":1,
    "kamikazes":1,
    "mic":1,
    "neat":1,
    "song":1,
    "dedicate":1,
    "africanamerican":1,
    "oneida":1,
    "rhinelander":1,
    "born":1,
    "alabama":1,
    "ragged":1,
    "patches":1,
    "tease":1,
    "shovel":1,
    "education":1,
    "wonders":1,
    "crops":1,
    "36":1,
    "afford":1,
    "frankly":1,
    "closed":1,
    "uhoh":1,
    "tails":1,
    "poop":1,
    "captain":1,
    "nemo":1,
    "dippy":1,
    "ich":1,
    "nicht":1,
    "schwimmen":1,
    "bathing":1,
    "shallow":1,
    "yow":1,
    "chilly":1,
    "yep":1,
    "fian":1,
    "key":1,
    "wake":1,
    "bodys":1,
    "firm":1,
    "mmm":1,
    "playing":1,
    "papillionla":1,
    "vista":1,
    "week":1,
    "tyler":1,
    "schedule":1,
    "fridge":1,
    "conversation":1,
    "minutes":1,
    "playoffs":1,
    "regular":1,
    "season":1,
    "speed":1,
    "84th":1,
    "giles":1,
    "chris":1,
    "beelers":1,
    "busted":1,
    "golf":1,
    "tara":1,
    "bye":1,
    "ty":1,
    "`k":1,
    "crisis":1,
    "woke":1,
    "problemo":1,
    "cell":1,
    "kept":1,
    "ringing":1,
    "fanny":1,
    "solid":1,
    "treated":1,
    "brangelina":1,
    "certainly":1,
    "ts":1,
    "remind":1,
    "minded":1,
    "egotistical":1,
    "infinitely":1,
    "smart":1,
    "grrr":1,
    "confused":1,
    "fall":1,
    "stays":1,
    "clothes":1,
    "adults":1,
    "lost":1,
    "slacks":1,
    "wilkess":1,
    "judge":1,
    "lords":1,
    "derelict":1,
    "stuck":1,
    "harder":1,
    "arithmetic":1,
    "class":1,
    "acts":1,
    "late":1,
    "fyi":1,
    "hootenanny":1,
    "violation":1,
    "morals":1,
    "code":1,
    "meaning":1,
    "certification":1,
    "rating":1,
    "customers":1,
    "anyone":1,
    "commit":1,
    "suicide":1,
    "bride":1,
    "yah":1,
    "miracle":1,
    "shaping":1,
    "worst":1,
    "flower":1,
    "goddarnit":1,
    "philanderer":1,
    "kiddo":1,
    "wellestablished":1,
    "broad":1,
    "cuntstain":1,
    "`cept":1,
    "17yearold":1,
    "pregnant":1,
    "household":1,
    "depressed":1,
    "afghan":1,
    "couch":1,
    "showers":1,
    "meg":1,
    "gyno":1,
    "sudden":1,
    "shows":1,
    "waste":1,
    "jerkoff":1,
    "opportunities":1,
    "bullshit":1,
    "lifes":1,
    "ado":1,
    "keynote":1,
    "speaker":1,
    "commissioner":1,
    "susan":1,
    "voss":1,
    "contest":1,
    "compete":1,
    "perks":1,
    "presidency":1,
    "seat":1,
    "davenport":1,
    "ploy":1,
    "poof":1,
    "rainmaker":1,
    "previous":1,
    "dolled":1,
    "beanie":1,
    "babies":1,
    "ebay":1,
    "brain":1,
    "mandated":1,
    "billing":1,
    "shebang":1,
    "70yearsold":1,
    "likely":1,
    "whiz":1,
    "computer":1,
    "system":1,
    "lightbulbgoingoff":1,
    "saving":1,
    "profit":1,
    "dime":1,
    "opportunity":1,
    "serve":1,
    "board":1,
    "deserve":1,
    "blessed":1,
    "knowhow":1,
    "reading":1,
    "arent":1,
    "asmiteers":1,
    "39hundred":1,
    "goes":1,
    "performance":1,
    "firstrate":1,
    "floozy":1,
    "ambiguity":1,
    "stealing":1,
    "pontoon":1,
    "boats":1,
    "themselves":1,
    "showed":1,
    "rewarded":1,
    "skyrockets":1,
    "retires":1,
    "coworkers":1,
    "change":1,
    "carla":1,
    "count":1,
    "tomorrow":1,
    "snowballs":1,
    "hades":1,
    "dicks":1,
    "hangover":1,
    "harry":1,
    "18":1,
    "counting":1,
    "guns":1,
    "nervous":1,
    "circle":1,
    "entertainment":1,
    "saturday":1,
    "whatcha":1,
    "drinkin":1,
    "cheering":1,
    "rains":1,
    "chickens":1,
    "fowl":1,
    "weather":1,
    "holidome":1,
    "across":1,
    "street":1,
    "whatd":1,
    "heaters":1,
    "smokers":1,
    "cough":1,
    "unfortunately":1,
    "productive":1,
    "occasionally":1,
    "ride":1,
    "express":1,
    "yo":1,
    "shifts":1,
    "relaxation":1,
    "messed":1,
    "advice":1,
    "convinced":1,
    "crapper":1,
    "85":1,
    "low":1,
    "indicate":1,
    "onto":1,
    "policies":1,
    "simply":1,
    "satellite":1,
    "branch":1,
    "palookaville":1,
    "square":1,
    "systems":1,
    "tribulations":1,
    "seven":1,
    "lock":1,
    "pen":1,
    "paper":1,
    "contract":1,
    "sooner":1,
    "albatross":1,
    "backs":1,
    "happening":1,
    "kansas":1,
    "speedwagon":1,
    "tambourine":1,
    "odd":1,
    "choice":1,
    "headliner":1,
    "budget":1,
    "crunch":1,
    "danny":1,
    "torrance":1,
    "liquidating":1,
    "operation":1,
    "smokes":1,
    "likes":1,
    "cry":1,
    "honey":1,
    "once":1,
    "jackass":1,
    "bash":1,
    "brains":1,
    "downers":1,
    "huff":1,
    "afraid":1,
    "deanzies":1,
    "applebees":1,
    "pounds":1,
    "pass":1,
    "cube":1,
    "skeet":1,
    "marijuana":1,
    "guessing":1,
    "glass":1,
    "cashwise":1,
    "90":1,
    "crypto":1,
    "hundred":1,
    "ripped":1,
    "cook":1,
    "dope":1,
    "boonies":1,
    "became":1,
    "protective":1,
    "sports":1,
    "except":1,
    "gardening":1,
    "livin":1,
    "pills":1,
    "thesell":1,
    "funny":1,
    "shits":1,
    "tight":1,
    "dying":1,
    "save":1,
    "subconscience":1,
    "faggot":1,
    "standing":1,
    "`case":1,
    "squirrelly":1,
    "getaway":1,
    "vehicle":1,
    "scenario":1,
    "sending":1,
    "shithole":1,
    "chivalrous":1,
    "trouble":1,
    "mmmowmow":1,
    "tickets":1,
    "hmmhmm":1,
    "bags":1,
    "crystal":1,
    "meth":1,
    "traced":1,
    "wearin":1,
    "businessman":1,
    "yall":1,
    "gangsta":1,
    "ponderin":1,
    "suggest":1,
    "nigga":1,
    "muthafucka":1,
    "kicked":1,
    "ghetto":1,
    "order":1,
    "extricate":1,
    "clearly":1,
    "volatile":1,
    "rely":1,
    "brag":1,
    "convincing":1,
    "omar":1,
    "least":1,
    "crackers":1,
    "yonder":1,
    "seemed":1,
    "devil":1,
    "chew":1,
    "arm":1,
    "johnnys":1,
    "pocket":1,
    "posies":1,
    "light":1,
    "sight":1,
    "glowin":1,
    "forever":1,
    "slippery":1,
    "nmmmmmmmmm":1,
    "research":1,
    "source":1,
    "recorded":1,
    "death":1,
    "meaningless":1,
    "handed":1,
    "legitimate":1,
    "deserves":1,
    "sunday":1,
    "girls":1,
    "everythings":1,
    "promises":1,
    "nsf":1,
    "sacred":1,
    "creed":1,
    "travis":1,
    "smooth":1,
    "exlax":1,
    "23":1,
    "drugs":1,
    "insightful":1,
    "intense":1,
    "safety":1,
    "net":1,
    "former":1,
    "law":1,
    "mustve":1,
    "missed":1,
    "constitutional":1,
    "amendment":1,
    "foolish":1,
    "couldnt":1,
    "depended":1,
    "ideas":1,
    "squat":1,
    "loyal":1,
    "waking":1,
    "blotto":1,
    "hung":1,
    "talked":1,
    "staying":1,
    "congratulations":1,
    "losing":1,
    "officer":1,
    "wiseacres":1,
    "baloney":1,
    "reginald":1,
    "candidate":1,
    "term":1,
    "mobile":1,
    "rammed":1,
    "ram":1,
    "jail":1,
    "free":1,
    "particularly":1,
    "sweat":1,
    "rat":1,
    "pathetic":1,
    "drop":1,
    "charges":1,
    "itd":1,
    "subject":1,
    "daar":1,
    "saves":1,
    "ruined":1,
    "cousin":1,
    "bob":1,
    "truckload":1,
    "scented":1,
    "pine":1,
    "trees":1,
    "ragheads":1,
    "cabs":1,
    "cottage":1,
    "canada":1,
    "whenever":1,
    "book":1,
    "june":1,
    "mosquitoes":1,
    "apeshit":1,
    "tightly":1,
    "enclosed":1,
    "gee":1,
    "touch":1,
    "omahas":1,
    "kingdom":1,
    "walleye":1,
    "meatloafs":1,
    "dry":1,
    "hidin":1,
    "meatloaf":1,
    "attract":1,
    "junk":1,
    "leslie":1,
    "switching":1,
    "policy":1,
    "notice":1,
    "difference":1,
    "nothin":1,
    "cocksucker":1,
    "keepin":1,
    "feeder":1,
    "22":1,
    "chances":1,
    "companies":1,
    "hedging":1,
    "bets":1,
    "property":1,
    "harm":1,
    "fullest":1,
    "guarantee":1,
    "devastating":1,
    "losses":1,
    "peace":1,
    "awful":1,
    "unfortunate":1,
    "unicorn":1,
    "represented":1,
    "alls":1,
    "mightve":1,
    "hire":1,
    "actor":1,
    "retarded":1,
    "sitting":1,
    "yelling":1,
    "wouldve":1,
    "holes":1,
    "paradise":2,
    "provide":2,
    "quality":2,
    "services":2,
    "related":2,
    "products":2,
    "also":2,
    "coverage":2,
    "reason":2,
    "award":2,
    "sonofagun":2,
    "face":2,
    "winner":2,
    "arooaroo":2,
    "boys":2,
    "noble":2,
    "stole":2,
    "somewhere":2,
    "cut":2,
    "brad":2,
    "pitt":2,
    "feeling":2,
    "whoop":2,
    "quack":2,
    "secret":2,
    "trade":2,
    "knowledge":2,
    "suppose":2,
    "germany":2,
    "gwen":2,
    "parks":2,
    "stage":2,
    "timothy":2,
    "barely":2,
    "rest":2,
    "ridiculous":2,
    "gosh":2,
    "fast":2,
    "die":2,
    "perverted":2,
    "personal":2,
    "rich":2,
    "bull":2,
    "roar":2,
    "salesman":2,
    "excuse":2,
    "sec":2,
    "gambsky":2,
    "pilot":2,
    "ease":2,
    "buyer":2,
    "innovations":2,
    "helped":2,
    "company":2,
    "brand":2,
    "daughter":2,
    "kayla":2,
    "locked":2,
    "gladstone":2,
    "flex":2,
    "child":2,
    "wholesome":2,
    "cables":2,
    "six":2,
    "tims":2,
    "employees":2,
    "hed":2,
    "twice":2,
    "open":2,
    "liquids":2,
    "gels":2,
    "aerosols":2,
    "placed":2,
    "taken":2,
    "havent":2,
    "forgot":2,
    "basically":2,
    "avoid":2,
    "fellowship":2,
    "network":2,
    "stevens":2,
    "armbr\ufffdster":2,
    "smeared":2,
    "poacher":2,
    "fella":2,
    "discs":2,
    "pure":2,
    "spirit":2,
    "lucky":2,
    "ducks":2,
    "score":2,
    "able":2,
    "emergency":2,
    "greek":2,
    "german":2,
    "mister":2,
    "pronounce":2,
    "email":2,
    "heater":2,
    "borrow":2,
    "smoking":2,
    "premiums":2,
    "checking":2,
    "credit":2,
    "incidentals":2,
    "insured":2,
    "charge":2,
    "topnotch":2,
    "minute":2,
    "table":2,
    "third":2,
    "roommate":2,
    "savings":2,
    "sounded":2,
    "someone":2,
    "regional":2,
    "straight":2,
    "allyoucaretoeat":2,
    "pussy":2,
    "buffet":2,
    "st":2,
    "cloud":2,
    "gimme":2,
    "turn":2,
    "nah":2,
    "handle":2,
    "short":2,
    "hail":2,
    "krogstads":2,
    "spose":2,
    "tragedy":2,
    "uh":2,
    "amen":2,
    "cocktails":2,
    "helgessons":2,
    "remarks":2,
    "pardon":2,
    "french":2,
    "cunt":2,
    "dog":2,
    "selling":2,
    "learn":2,
    "midwest":2,
    "chapter":2,
    "seriously":2,
    "theme":2,
    "build":2,
    "breakout":2,
    "sessions":2,
    "e":2,
    "commerce":2,
    "pick":2,
    "sweater":2,
    "vest":2,
    "beige":2,
    "commitment":2,
    "agencies":2,
    "competing":2,
    "largest":2,
    "considered":2,
    "crucified":2,
    "swim":2,
    "millies":2,
    "john":2,
    "fitness":2,
    "wouldnt":2,
    "poor":2,
    "totally":2,
    "jerk":2,
    "professional":2,
    "indeed":2,
    "ohmygod":2,
    "nebraska":2,
    "son":2,
    "bills":2,
    "local":2,
    "coupons":2,
    "drinks":2,
    "nipple":2,
    "buddy":2,
    "friendly":2,
    "large":2,
    "hmm":2,
    "cocksuckers":2,
    "hernandez":2,
    "whatre":2,
    "compass":2,
    "young":2,
    "shall":2,
    "fly":2,
    "shots":2,
    "gentlemen":2,
    "include":2,
    "needs":2,
    "wife":2,
    "bar":2,
    "companys":2,
    "nonono":2,
    "pervert":2,
    "price":2,
    "basement":2,
    "else":2,
    "orins":2,
    "impossible":2,
    "breakfast":2,
    "came":2,
    "knowing":2,
    "tells":2,
    "goddamnit":2,
    "lousing":2,
    "daughters":2,
    "absolutely":2,
    "`sides":2,
    "howd":2,
    "sawmill":2,
    "accident":2,
    "forget":2,
    "disaster":2,
    "literally":2,
    "claim":2,
    "realize":2,
    "stud":2,
    "stupid":2,
    "wed":2,
    "stab":2,
    "meeting":2,
    "ought":2,
    "propcas":2,
    "drowning":2,
    "lake":2,
    "feet":2,
    "offshore":2,
    "along":2,
    "foot":2,
    "industry":2,
    "car":2,
    "security":2,
    "food":2,
    "department":2,
    "asked":2,
    "partner":2,
    "race":2,
    "instead":2,
    "world":2,
    "million":2,
    "westdale":2,
    "signed":2,
    "mans":2,
    "set":2,
    "roll":2,
    "deantard":2,
    "planet":2,
    "x":2,
    "possibly":2,
    "czech":2,
    "past":2,
    "wins":2,
    "asmis":2,
    "silo":2,
    "ice":2,
    "climbing":2,
    "single":2,
    "problem":2,
    "eight":2,
    "between":2,
    "promised":2,
    "disappointed":2,
    "important":2,
    "lite":2,
    "victory":2,
    "friends":2,
    "taste":2,
    "hopes":2,
    "blahblahblah":2,
    "mine":2,
    "fantasyland":2,
    "loan":2,
    "perfect":2,
    "ten":2,
    "next":2,
    "month":2,
    "richie":2,
    "total":2,
    "nine":2,
    "ended":2,
    "wow":2,
    "wild":2,
    "idol":2,
    "choir":2,
    "fair":2,
    "nightcap":2,
    "itll":2,
    "hands":2,
    "weigh":2,
    "gone":2,
    "dear":2,
    "toss":2,
    "hate":2,
    "guts":2,
    "situation":2,
    "chamber":2,
    "theater":2,
    "admit":2,
    "hbo":2,
    "wire":2,
    "takes":2,
    "bums":2,
    "salad":2,
    "raised":2,
    "woods":2,
    "papa":2,
    "deep":2,
    "cause":2,
    "paid":2,
    "presentations":2,
    "neither":2,
    "suck":2,
    "dead":2,
    "making":2,
    "special":2,
    "ralston":2,
    "calm":2,
    "gotten":2,
    "front":2,
    "phone":2,
    "pack":2,
    "shut":2,
    "everyone":2,
    "jealous":2,
    "acting":2,
    "fricking":2,
    "prostitute":2,
    "covered":2,
    "chinese":2,
    "taking":2,
    "matters":2,
    "value":2,
    "cheap":2,
    "keeps":2,
    "prom":2,
    "dance":2,
    "prepared":2,
    "kinda":2,
    "printing":2,
    "costs":2,
    "online":2,
    "mind":2,
    "butterscotch":2,
    "uncle":2,
    "trigger":2,
    "milwaukee":2,
    "consultants":2,
    "fee":2,
    "81":2,
    "bands":2,
    "reo":2,
    "fault":2,
    "protecting":2,
    "training":2,
    "move":2,
    "lie":2,
    "showin":2,
    "heavenly":2,
    "listen":2,
    "wood":2,
    "risks":2,
    "american":3,
    "mutual":3,
    "park":3,
    "until":3,
    "bud":3,
    "insuring":3,
    "peoples":3,
    "sometimes":3,
    "heard":3,
    "ol":3,
    "floor":3,
    "gave":3,
    "school":3,
    "negative":3,
    "bringing":3,
    "ooh":3,
    "cruise":3,
    "honeymoon":3,
    "children":3,
    "water":3,
    "20":3,
    "flew":3,
    "cessna":3,
    "christ":3,
    "pam":3,
    "since":3,
    "himself":3,
    "hills":3,
    "won":3,
    "tired":3,
    "sell":3,
    "asking":3,
    "alone":3,
    "somehow":3,
    "parents":3,
    "house":3,
    "outfit":3,
    "hilarious":3,
    "shoot":3,
    "days":3,
    "other":3,
    "lives":3,
    "plus":3,
    "part":3,
    "owner":3,
    "kidding":3,
    "scared":3,
    "city":3,
    "numbers":3,
    "sheesh":3,
    "supposed":3,
    "must":3,
    "case":3,
    "praise":3,
    "lemme":3,
    "joyce":3,
    "inside":3,
    "ask":3,
    "obviously":3,
    "marinakis":3,
    "dave":3,
    "gal":3,
    "checks":3,
    "100":3,
    "happened":3,
    "space":3,
    "l":3,
    "hope":3,
    "their":3,
    "north":3,
    "started":3,
    "bite":3,
    "pal":3,
    "rep":3,
    "asshole":3,
    "blow":3,
    "happy":3,
    "planning":3,
    "wet":3,
    "newsletter":3,
    "digital":3,
    "worried":3,
    "full":3,
    "community":3,
    "number":3,
    "15":3,
    "allstate":3,
    "agents":3,
    "lord":3,
    "center":3,
    "ostrowskifox":3,
    "town":3,
    "omaha":3,
    "ugh":3,
    "marvelous":3,
    "ecommerce":3,
    "future":3,
    "rough":3,
    "father":3,
    "knows":3,
    "awards":3,
    "understand":3,
    "side":3,
    "tiffany":3,
    "deals":3,
    "yup":3,
    "hecks":3,
    "moral":3,
    "true":3,
    "together":3,
    "loaded":3,
    "act":3,
    "second":3,
    "fuckin":3,
    "ex":3,
    "figured":3,
    "close":3,
    "same":3,
    "drive":3,
    "truth":3,
    "prayer":3,
    "trust":3,
    "gets":3,
    "girl":3,
    "kick":3,
    "weird":3,
    "agent":3,
    "crazy":3,
    "wish":3,
    "red":3,
    "under":3,
    "enjoy":3,
    "11":3,
    "leave":3,
    "actuary":3,
    "most":3,
    "news":3,
    "ahole":3,
    "amazing":3,
    "75":3,
    "area":3,
    "ton":3,
    "road":3,
    "dick":3,
    "national":3,
    "ahead":3,
    "reach":3,
    "coors":3,
    "whaddaya":3,
    "screw":3,
    "squirrels":3,
    "beautiful":3,
    "norway":3,
    "small":3,
    "watching":3,
    "mrs":3,
    "program":3,
    "person":3,
    "hurt":3,
    "suit":3,
    "tan":3,
    "cuddle":3,
    "chance":3,
    "cmere":3,
    "sleep":3,
    "without":3,
    "teat":3,
    "almost":3,
    "grand":3,
    "account":3,
    "kens":3,
    "bought":3,
    "high":4,
    "boss":4,
    "couldve":4,
    "rock":4,
    "ach":4,
    "dyou":4,
    "brandy":4,
    "still":4,
    "long":4,
    "enough":4,
    "remember":4,
    "through":4,
    "try":4,
    "babygirl":4,
    "living":4,
    "idea":4,
    "share":4,
    "holy":4,
    "worse":4,
    "myself":4,
    "wedding":4,
    "heres":4,
    "kid":4,
    "cripes":4,
    "old":4,
    "exactly":4,
    "weve":4,
    "stinkin":4,
    "office":4,
    "event":4,
    "type":4,
    "lippy":4,
    "crap":4,
    "mr":4,
    "hotel":4,
    "welcome":4,
    "given":4,
    "travelers":4,
    "fully":4,
    "percent":4,
    "suite":4,
    "c":4,
    "loud":4,
    "pull":4,
    "horizons":4,
    "tonight":4,
    "far":4,
    "having":4,
    "tits":4,
    "hour":4,
    "10":4,
    "smug":4,
    "bridge":4,
    "22nd":4,
    "century":4,
    "many":4,
    "stay":4,
    "fianc\ufffd":4,
    "bunch":4,
    "word":4,
    "doin":4,
    "sounds":4,
    "find":4,
    "petition":4,
    "honest":4,
    "`em":4,
    "vote":4,
    "patti":4,
    "decent":4,
    "everybody":4,
    "ofox":4,
    "baby":4,
    "sign":4,
    "quite":4,
    "figure":4,
    "butt":4,
    "couple":4,
    "telling":4,
    "huh":4,
    "mall":4,
    "teammate":4,
    "looks":4,
    "saw":4,
    "half":4,
    "cream":4,
    "richard":4,
    "thousand":4,
    "money":4,
    "fact":4,
    "serious":4,
    "pay":4,
    "whyd":4,
    "happen":5,
    "room":5,
    "cool":5,
    "wasnt":5,
    "sit":5,
    "calling":5,
    "bring":5,
    "different":5,
    "wisconsin":5,
    "kurt":5,
    "hang":5,
    "hows":5,
    "sound":5,
    "wants":5,
    "worked":5,
    "while":5,
    "against":5,
    "passed":5,
    "risk":5,
    "mitigation":5,
    "rogers":5,
    "lemkes":5,
    "folks":5,
    "away":5,
    "woman":5,
    "point":5,
    "hi":5,
    "new":5,
    "hours":5,
    "yet":5,
    "clients":5,
    "frickin":5,
    "boy":5,
    "worry":5,
    "unless":5,
    "gentleman":5,
    "taco":5,
    "later":5,
    "family":5,
    "ones":5,
    "buying":5,
    "few":5,
    "anymore":5,
    "vacation":5,
    "another":5,
    "run":5,
    "may":5,
    "dollars":5,
    "made":5,
    "church":5,
    "stuff":5,
    "gift":5,
    "doing":5,
    "sherry":5,
    "dude":5,
    "lose":5,
    "ken":5,
    "river":6,
    "play":6,
    "live":6,
    "three":6,
    "running":6,
    "outta":6,
    "dad":6,
    "miss":6,
    "tss":6,
    "wait":6,
    "agreed":6,
    "dells":6,
    "mom":6,
    "whatever":6,
    "aw":6,
    "things":6,
    "such":6,
    "hero":6,
    "both":6,
    "buy":6,
    "dione":6,
    "goddamn":6,
    "mm":6,
    "iowa":6,
    "wade":6,
    "wanted":6,
    "wont":6,
    "talk":6,
    "lot":6,
    "careful":6,
    "bit":6,
    "wanna":6,
    "name":6,
    "meet":6,
    "lip":6,
    "dream":6,
    "party":6,
    "sir":6,
    "being":6,
    "clear":6,
    "own":6,
    "matter":6,
    "thought":6,
    "watch":6,
    "anyhow":6,
    "drink":6,
    "nothing":6,
    "night":6,
    "comes":6,
    "wrong":6,
    "ago":6,
    "scavenger":6,
    "hunt":6,
    "team":6,
    "paypal":6,
    "dreams":7,
    "hell":7,
    "game":7,
    "knew":7,
    "already":7,
    "cmon":7,
    "times":7,
    "every":7,
    "show":7,
    "everything":7,
    "always":7,
    "hard":7,
    "place":7,
    "saying":7,
    "hog":7,
    "farm":7,
    "presentation":7,
    "whos":7,
    "keep":7,
    "called":7,
    "better":7,
    "again":7,
    "pool":7,
    "agency":7,
    "head":7,
    "ass":7,
    "anyway":7,
    "met":7,
    "jesus":7,
    "business":7,
    "ready":7,
    "care":8,
    "best":8,
    "has":8,
    "though":8,
    "line":8,
    "probably":8,
    "millie":8,
    "does":8,
    "feel":8,
    "home":8,
    "yourself":8,
    "thinking":8,
    "something":8,
    "used":8,
    "put":8,
    "job":8,
    "should":8,
    "sweet":8,
    "these":8,
    "course":8,
    "bree":8,
    "done":8,
    "seen":8,
    "deanzie":8,
    "use":8,
    "brown":9,
    "valley":9,
    "after":9,
    "four":9,
    "left":9,
    "whole":9,
    "mil":9,
    "friend":9,
    "ya":9,
    "youve":9,
    "fine":9,
    "kids":9,
    "anything":9,
    "than":9,
    "getting":9,
    "married":9,
    "will":9,
    "talking":9,
    "nice":9,
    "card":9,
    "yes":9,
    "end":9,
    "which":9,
    "work":10,
    "give":10,
    "years":10,
    "doesnt":10,
    "heck":10,
    "believe":10,
    "great":10,
    "gotta":10,
    "convention":10,
    "might":10,
    "morning":10,
    "looking":10,
    "hes":10,
    "bad":10,
    "where":11,
    "diamond":11,
    "youd":11,
    "sure":11,
    "last":11,
    "hello":11,
    "jeez":11,
    "into":11,
    "kind":11,
    "guess":11,
    "them":11,
    "youll":11,
    "check":11,
    "wilkes":11,
    "before":11,
    "pyle":11,
    "says":11,
    "around":12,
    "because":12,
    "her":12,
    "said":12,
    "diamonds":12,
    "ha":12,
    "whoa":12,
    "hear":12,
    "those":12,
    "um":12,
    "mean":12,
    "then":12,
    "maybe":12,
    "fucking":12,
    "ronimal":12,
    "fun":12,
    "president":12,
    "helgesson":12,
    "first":12,
    "shes":12,
    "lemke":13,
    "only":13,
    "thank":13,
    "very":13,
    "never":13,
    "tell":13,
    "life":13,
    "theres":13,
    "back":13,
    "more":13,
    "mike":13,
    "us":13,
    "isnt":13,
    "been":14,
    "yknow":14,
    "by":14,
    "guy":14,
    "year":14,
    "told":14,
    "ever":14,
    "any":14,
    "actually":14,
    "bet":14,
    "please":14,
    "trying":14,
    "god":15,
    "they":15,
    "deal":15,
    "had":15,
    "whats":15,
    "":15,
    "off":15,
    "ziegler":15,
    "could":15,
    "joan":15,
    "timbo":15,
    "even":16,
    "awesome":16,
    "people":16,
    "id":16,
    "big":16,
    "why":16,
    "help":16,
    "krogstad":16,
    "thanks":16,
    "come":16,
    "look":17,
    "she":17,
    "how":17,
    "make":17,
    "lets":17,
    "take":17,
    "much":18,
    "super":18,
    "over":18,
    "am":18,
    "ill":18,
    "ah":18,
    "pretty":19,
    "would":19,
    "way":19,
    "dean":19,
    "orin":19,
    "gonna":20,
    "time":20,
    "ive":20,
    "fuck":20,
    "day":21,
    "cant":21,
    "let":21,
    "who":21,
    "guys":21,
    "asmi":21,
    "ronald":21,
    "need":22,
    "man":22,
    "too":22,
    "real":22,
    "thing":22,
    "call":22,
    "him":22,
    "from":23,
    "when":23,
    "sorry":23,
    "his":23,
    "roger":24,
    "see":24,
    "shit":24,
    "northlands":25,
    "did":25,
    "hey":25,
    "didnt":26,
    "think":26,
    "little":28,
    "thats":28,
    "our":29,
    "really":29,
    "good":29,
    "an":29,
    "love":29,
    "down":30,
    "ok":30,
    "two":31,
    "want":31,
    "right":31,
    "or":31,
    "as":31,
    "if":32,
    "go":32,
    "say":33,
    "got":34,
    "now":34,
    "going":35,
    "some":36,
    "out":38,
    "one":38,
    "at":39,
    "lippe":39,
    "can":40,
    "yeah":41,
    "insurance":42,
    "well":42,
    "are":44,
    "there":46,
    "with":46,
    "about":48,
    "he":48,
    "get":49,
    "were":50,
    "bill":51,
    "all":52,
    "dont":52,
    "up":52,
    "have":53,
    "here":56,
    "know":59,
    "oh":60,
    "do":62,
    "was":62,
    "youre":63,
    "we":69,
    "your":71,
    "not":72,
    "like":72,
    "be":74,
    "61209":75,
    "but":76,
    "so":81,
    "on":81,
    "its":82,
    "just":83,
    "what":83,
    "no":83,
    "is":94,
    "rapids":94,
    "tim":95,
    "cedar":96,
    "for":96,
    "my":97,
    "this":105,
    "me":109,
    "im":115,
    "it":119,
    "that":126,
    "of":142,
    "and":148,
    "in":150,
    "to":280,
    "a":294,
    "the":362,
    "i":380,
    "you":387
}