{
    "liked":1,
    "beautiful":1,
    "fit":1,
    "thatll":1,
    "s":1,
    "broken":1,
    "bet":1,
    "fix":1,
    "agreed":1,
    "fourandtwenty":1,
    "almost":1,
    "again":1,
    "rhyme":1,
    "rhymes":1,
    "fairy":1,
    "tales":1,
    "preparation":1,
    "horrors":1,
    "anybody":1,
    "haircut":1,
    "nurse":1,
    "loves":1,
    "wonders":1,
    "hospital":1,
    "applications":1,
    "scanner":1,
    "invaluable":1,
    "eighteen":1,
    "signs":1,
    "proof":1,
    "belief":1,
    "interaction":1,
    "hallucination":1,
    "picked":1,
    "gladly":1,
    "wave":1,
    "doubting":1,
    "invested":1,
    "millions":1,
    "dollars":1,
    "study":1,
    "others":1,
    "profit":1,
    "lucien":1,
    "wouldnt":1,
    "dislikes":1,
    "distrusts":1,
    "adores":1,
    "dozen":1,
    "run":1,
    "harm":1,
    "reactive":1,
    "active":1,
    "shush":1,
    "creates":1,
    "obstacles":1,
    "decides":1,
    "which":1,
    "games":1,
    "argument":1,
    "past":1,
    "barriers":1,
    "created":1,
    "reverse":1,
    "devastating":1,
    "imagine":1,
    "shock":1,
    "suddenly":1,
    "existing":1,
    "willing":1,
    "participant":1,
    "picture":1,
    "strange":1,
    "blame":1,
    "terrifying":1,
    "erase":1,
    "accomplished":1,
    "gone":1,
    "exhausted":1,
    "sleeping":1,
    "prescribe":1,
    "nightmares":1,
    "healthy":1,
    "relaxed":1,
    "eat":1,
    "meditate":1,
    "exercise":1,
    "mindless":1,
    "reading":1,
    "file":1,
    "millionth":1,
    "balance":1,
    "key":1,
    "vietnamese":1,
    "wild":1,
    "pleasant":1,
    "dreams":1,
    "surveyor":1,
    "railroad":1,
    "bout":1,
    "waiting":1,
    "teddy":1,
    "marie":1,
    "santa":1,
    "cruz":1,
    "graduated":1,
    "single":1,
    "mom":1,
    "twoyearold":1,
    "legs":1,
    "abdomen":1,
    "grandparents":1,
    "davis":1,
    "poor":1,
    "complaining":1,
    "government":1,
    "farmers":1,
    "starve":1,
    "nodd":1,
    "exagggeerrrrrayding":1,
    "iff":1,
    "werrrr":1,
    "tooooo":1,
    "gawwwwwdd":1,
    "caaaarrrrlll":1,
    "mee":1,
    "meeeeewwuuuuuddunnnnttttt":1,
    "spending":1,
    "billions":1,
    "countries":1,
    "problems":1,
    "jeannie":1,
    "byebye":1,
    "jeannies":1,
    "personal":1,
    "appreciate":1,
    "occasional":1,
    "pregnant":1,
    "partner":1,
    "tells":1,
    "wifes":1,
    "coroners":1,
    "whatll":1,
    "hot":1,
    "presses":1,
    "chicken":1,
    "fried":1,
    "steak":1,
    "mashed":1,
    "potatoes":1,
    "garden":1,
    "salad":1,
    "thousand":1,
    "island":1,
    "dressing":1,
    "icedtea":1,
    "darlin":1,
    "lungs":1,
    "brand":1,
    "lots":1,
    "knit":1,
    "toupee":1,
    "absence":1,
    "melanin":1,
    "means":1,
    "dogs":1,
    "rare":1,
    "indeed":1,
    "donna":1,
    "krozin":1,
    "helen":1,
    "francis":1,
    "teresa":1,
    "manicki":1,
    "antoinette":1,
    "simms":1,
    "natalie":1,
    "pagels":1,
    "grace":1,
    "cassatt":1,
    "smart":1,
    "gentle":1,
    "attractive":1,
    "women":1,
    "starting":1,
    "embarking":1,
    "killed":1,
    "tortured":1,
    "murdered":1,
    "white":1,
    "male":1,
    "30years":1,
    "purebred":1,
    "shepherd":1,
    "typically":1,
    "destroy":1,
    "pups":1,
    "truly":1,
    "unique":1,
    "nicole":1,
    "labetzki":1,
    "forensics":1,
    "k9":1,
    "unit":1,
    "scene":1,
    "checked":1,
    "phoenix":1,
    "tested":1,
    "ago":1,
    "shepherds":1,
    "thorough":1,
    "guys":1,
    "accelerating":1,
    "pass":1,
    "catch":1,
    "fun":1,
    "sloppy":1,
    "inches":1,
    "meee":1,
    "apartments":1,
    "nobody":1,
    "moving":1,
    "together":1,
    "wedding":1,
    "pick":1,
    "oclock":1,
    "birthday":1,
    "made":1,
    "mistake":1,
    "drove":1,
    "truck":1,
    "ramsey":1,
    "stockwell":1,
    "edison":1,
    "east":1,
    "loma":1,
    "park":1,
    "swats":1,
    "surveillance":1,
    "suspect":1,
    "rudolph":1,
    "weapons":1,
    "priors":1,
    "license":1,
    "glad":1,
    "lose":1,
    "sun":1,
    "perimeters":1,
    "twohundred":1,
    "yards":1,
    "rear":1,
    "front":1,
    "marksmen":1,
    "roof":1,
    "movement":1,
    "proceed":1,
    "assuming":1,
    "close":1,
    "repeat":1,
    "face":1,
    "paramedics":1,
    "county":1,
    "general":1,
    "reids":1,
    "cuffed":1,
    "treating":1,
    "thermometer":1,
    "downstairs":1,
    "minimal":1,
    "dorsolateral":1,
    "prefrontal":1,
    "anterior":1,
    "cingulate":1,
    "helps":1,
    "external":1,
    "internal":1,
    "stimuli":1,
    "whatre":1,
    "paving":1,
    "insanity":1,
    "defense":1,
    "areas":1,
    "affected":1,
    "infected":1,
    "virus":1,
    "utero":1,
    "lay":1,
    "dormant":1,
    "exhibited":1,
    "symptoms":1,
    "awhile":1,
    "breach":1,
    "occur":1,
    "today":1,
    "age":1,
    "triggers":1,
    "vary":1,
    "results":1,
    "awareness":1,
    "thorazine":1,
    "desoxyn":1,
    "psychotropics":1,
    "catatonic":1,
    "disappeared":1,
    "analyze":1,
    "videos":1,
    "sales":1,
    "records":1,
    "property":1,
    "forty":1,
    "fouroh":1,
    "seventhirty":1,
    "longshot":1,
    "shot":1,
    "crazy":1,
    "fixed":1,
    "asked":1,
    "situation":1,
    "lapse":1,
    "sometime":1,
    "yesterday":1,
    "tape":1,
    "food":1,
    "drinking":1,
    "toilet":1,
    "periodically":1,
    "shower":1,
    "timer":1,
    "clever":1,
    "machines":1,
    "simple":1,
    "kidnapping":1,
    "possibility":1,
    "rescue":1,
    "survival":1,
    "torture":1,
    "fortieth":1,
    "drain":1,
    "shuts":1,
    "tonight":1,
    "ella":1,
    "board":1,
    "directors":1,
    "given":1,
    "decision":1,
    "legalities":1,
    "custody":1,
    "functional":1,
    "equivalent":1,
    "normally":1,
    "mirandize":1,
    "interrogate":1,
    "condition":1,
    "waive":1,
    "illegal":1,
    "exigent":1,
    "circumstances":1,
    "weigh":1,
    "suspects":1,
    "constitutional":1,
    "against":1,
    "favors":1,
    "gives":1,
    "leeway":1,
    "exception":1,
    "reasonable":1,
    "expectation":1,
    "privacy":1,
    "conscious":1,
    "needed":1,
    "violent":1,
    "cases":1,
    "children":1,
    "lies":1,
    "sometimes":1,
    "disclosure":1,
    "sympathetic":1,
    "ear":1,
    "hide":1,
    "bodies":1,
    "carefully":1,
    "ritual":1,
    "werent":1,
    "physical":1,
    "meticulously":1,
    "wiped":1,
    "clean":1,
    "careless":1,
    "beyond":1,
    "assume":1,
    "hated":1,
    "dead":1,
    "schizophrenics":1,
    "sever":1,
    "possible":1,
    "takes":1,
    "fantasy":1,
    "timbuktu":1,
    "hundred":1,
    "percent":1,
    "quantico":1,
    "field":1,
    "sd":1,
    "la":1,
    "francisco":1,
    "pd":1,
    "california":1,
    "arizona":1,
    "nevada":1,
    "police":1,
    "open":1,
    "lines":1,
    "direct":1,
    "link":1,
    "gets":1,
    "database":1,
    "gods":1,
    "sake":1,
    "nuts":1,
    "jeopardize":1,
    "sonofabitch":1,
    "bundy":1,
    "gacy":1,
    "dahmer":1,
    "push":1,
    "bullshit":1,
    "smelling":1,
    "burns":1,
    "heat":1,
    "permission":1,
    "finger":1,
    "realizing":1,
    "die":1,
    "catheter":1,
    "guests":1,
    "tour":1,
    "stand":1,
    "cartography":1,
    "synaptic":1,
    "detailed":1,
    "brain":1,
    "mri":1,
    "reads":1,
    "processes":1,
    "electronically":1,
    "allowing":1,
    "transferred":1,
    "interrupted":1,
    "thoughts":1,
    "stored":1,
    "dvd":1,
    "player":1,
    "record":1,
    "store":1,
    "data":1,
    "nerve":1,
    "cells":1,
    "constantly":1,
    "modified":1,
    "subject":1,
    "sends":1,
    "receive":1,
    "broadcast":1,
    "become":1,
    "snow":1,
    "troubled":1,
    "nausea":1,
    "migraines":1,
    "hallucinations":1,
    "insomnia":1,
    "paranoia":1,
    "hangover":1,
    "turned":1,
    "deeply":1,
    "disturbed":1,
    "may":1,
    "catherines":1,
    "removed":1,
    "rings":1,
    "comforted":1,
    "weightlessness":1,
    "floating":1,
    "touch":1,
    "responsibility":1,
    "guilt":1,
    "tool":1,
    "convincingly":1,
    "stuff":1,
    "research":1,
    "exactly":1,
    "psychostimulants":1,
    "serotonin":1,
    "stabilizers":1,
    "meprobamate":1,
    "neurontin":1,
    "lithium":1,
    "carbonate":1,
    "duplicates":1,
    "expands":1,
    "upon":1,
    "effects":1,
    "chemical":1,
    "oxytocin":1,
    "forcing":1,
    "break":1,
    "neuron":1,
    "touchsensitive":1,
    "microchip":1,
    "implanted":1,
    "hand":1,
    "becomes":1,
    "disoriented":1,
    "simply":1,
    "session":1,
    "signals":1,
    "abort":1,
    "although":1,
    "none":1,
    "experiences":1,
    "tricked":1,
    "awfully":1,
    "gullible":1,
    "herself":1,
    "start":1,
    "evolved":1,
    "area":1,
    "cerebral":1,
    "genetic":1,
    "fluke":1,
    "tremendous":1,
    "empathy":1,
    "test":1,
    "subjects":1,
    "acted":1,
    "receivers":1,
    "observe":1,
    "understood":1,
    "responded":1,
    "engaged":1,
    "dialogue":1,
    "places":1,
    "cared":1,
    "intravenous":1,
    "administration":1,
    "initiating":1,
    "connection":1,
    "begins":1,
    "1100":1,
    "34":1,
    "12":1,
    "seconds":1,
    "names":1,
    "wro":1,
    "mustve":1,
    "unusual":1,
    "within":1,
    "range":1,
    "selfcognitive":1,
    "dreaming":1,
    "however":1,
    "level":1,
    "involvement":1,
    "intense":1,
    "perceive":1,
    "difficult":1,
    "perspective":1,
    "theoretically":1,
    "while":1,
    "convince":1,
    "um":1,
    "actually":1,
    "closely":1,
    "degree":1,
    "perceptual":1,
    "pump":1,
    "liters":1,
    "pure":1,
    "oxygen":1,
    "cold":1,
    "presume":1,
    "ed":1,
    "texas":1,
    "beat":1,
    "faster":1,
    "scientists":1,
    "science":1,
    "spirit":1,
    "ah":1,
    "explained":1,
    "show":1,
    "everyone":1,
    "fantasies":1,
    "share":1,
    "sessions":1,
    "person":1,
    "hides":1,
    "despite":1,
    "utopia":1,
    "consequence":1,
    "restriction":1,
    "idealized":1,
    "version":1,
    "pleases":1,
    "fear":1,
    "horrible":1,
    "primitive":1,
    "ugly":1,
    "whyd":1,
    "shrink":1,
    "soon":1,
    "met":1,
    "target":1,
    "emotions":1,
    "reluctant":1,
    "witness":1,
    "testify":1,
    "attorney":1,
    "prosecutor":1,
    "order":1,
    "murder":1,
    "north":1,
    "carolina":1,
    "butchered":1,
    "seventeen":1,
    "tiny":1,
    "piece":1,
    "tainted":1,
    "quit":1,
    "das":1,
    "joined":1,
    "truth":1,
    "terrible":1,
    "finished":1,
    "othershe":1,
    "able":1,
    "shame":1,
    "redeemed":1,
    "split":1,
    "goodevil":1,
    "rightwrong":1,
    "mercifulcruel":1,
    "innocent":1,
    "sides":1,
    "personality":1,
    "worst":1,
    "decent":1,
    "evil":1,
    "waste":1,
    "difference":1,
    "released":1,
    "mrs":1,
    "frank":1,
    "simmons":1,
    "charlie":1,
    "room":1,
    "watching":1,
    "tv":1,
    "twelveyear":1,
    "margaret":1,
    "carving":1,
    "freezer":1,
    "luckily":1,
    "slit":1,
    "throat":1,
    "couldve":1,
    "ozzie":1,
    "harriet":1,
    "wouldve":1,
    "abuse":1,
    "charlies":1,
    "grow":1,
    "looked":1,
    "cute":1,
    "colleagues":1,
    "prep":1,
    "admit":1,
    "perversely":1,
    "satisfying":1,
    "interesting":1,
    "increased":1,
    "frontal":1,
    "lobes":1,
    "rising":1,
    "dopamine":1,
    "levels":1,
    "basal":1,
    "ganglia":1,
    "since":1,
    "priority":1,
    "uhoh":1,
    "circuit":1,
    "breaker":1,
    "switches":1,
    "awake":1,
    "sweetie":1,
    "shine":1,
    "cutiepie":1,
    "anywhere":1,
    "slithered":1,
    "pissed":1,
    "pants":1,
    "dolls":1,
    "careful":1,
    "away":1,
    "happy":1,
    "liar":1,
    "wanna":1,
    "shud":1,
    "mouth":1,
    "slice":1,
    "kunt":1,
    "tits":1,
    "mek":1,
    "beaudiful":1,
    "topped":1,
    "pulled":1,
    "accustomed":1,
    "unfamiliar":1,
    "territory":1,
    "mercy":1,
    "art":1,
    "hallowed":1,
    "earth":1,
    "pulse":1,
    "rapid":1,
    "pressures":1,
    "high":1,
    "nervous":1,
    "ask":1,
    "prescription":1,
    "prevacid":1,
    "stomach":1,
    "psychiatric":1,
    "medication":1,
    "narcotics":1,
    "partners":1,
    "important":1,
    "honest":1,
    "boring":1,
    "doubt":1,
    "hurry":1,
    "five":1,
    "disorienting":1,
    "smell":1,
    "taste":1,
    "acclimated":1,
    "instinct":1,
    "plays":1,
    "huge":1,
    "role":1,
    "clothes":1,
    "shoes":1,
    "change":1,
    "introduce":1,
    "upset":1,
    "press":1,
    "sensor":1,
    "abomination":1,
    "damned":1,
    "majored":1,
    "psych":1,
    "uc":1,
    "industries":1,
    "died":1,
    "crash":1,
    "twentyone":1,
    "arrested":1,
    "possession":1,
    "community":1,
    "service":1,
    "petethis":1,
    "center":1,
    "abused":1,
    "kids":1,
    "stayed":1,
    "salary":1,
    "nursing":1,
    "cath":1,
    "gut":1,
    "follow":1,
    "brought":1,
    "friend":1,
    "helped":1,
    "proud":1,
    "sit":1,
    "whove":1,
    "basement":1,
    "winch":1,
    "plaque":1,
    "plate":1,
    "logo":1,
    "base":1,
    "history":1,
    "bought":1,
    "stubs":1,
    "contractor":1,
    "worked":1,
    "calling":1,
    "considering":1,
    "whoawhoawhoa":1,
    "telling":1,
    "fuck":1,
    "bettin":1,
    "farm":1,
    "pumped":1,
    "knowswhat":1,
    "shit":1,
    "mightve":1,
    "jimmy":1,
    "hoffa":1,
    "dancing":1,
    "timothy":1,
    "leary":1,
    "clear":1,
    "eye":1,
    "learn":1,
    "gave":1,
    "theday":1,
    "clue":1,
    "head":1,
    "playing":1,
    "postprocedure":1,
    "consciousness":1,
    "recovery":1,
    "remarkably":1,
    "quick":1,
    "changed":1,
    "codes":1,
    "reroute":1,
    "instead":1,
    "bringing":1,
    "hers":1,
    "safe":1,
    "promises":1,
    "ohno":1,
    "finds":1,
    "thiisss":1,
    "att":1,
    "trubblemekker":1,
    "cogsugger":1,
    "haffa":1,
    "punish":1,
    "hoo":1,
    "himm":1,
    "muther":1,
    "gimme":1,
    "welcome":1,
    "wif":1,
    "rules":1,
    "teached":1,
    "lesson":1,
    "deserved":1,
    "deserves":1,
    "yer":1,
    "enuff":1,
    "whatd":1,
    "bye":1,
    "goodbye":1,
    "ahead":1,
    "manufactured":1,
    "1982":1,
    "serial":1,
    "117337j":1,
    "purchased":1,
    "boat":1,
    "shop":1,
    "lake":1,
    "havasu":1,
    "lattimers":1,
    "supply":1,
    "1992":1,
    "everythings":1,
    "lattimer":1,
    "tired":1,
    "near":1,
    "ends":1,
    "bankruptcy":1,
    "court":1,
    "winds":1,
    "land":1,
    "guess":1,
    "hired":1,
    "seal":1,
    "kidding":1,
    "serious":1,
    "exact":1,
    "location":1,
    "engine":1,
    "aside":1,
    "nutritional":1,
    "fridge":1,
    "refilled":1,
    "zyprexa":1,
    "atavan":1,
    "tomorrow":1,
    "dinner":1,
    "reversal":1,
    "secret":1,
    "federal":1,
    "investigation":1,
    "maam":1,
    "awaiting":1,
    "arrival":1,
    "completely":1,
    "unaware":1,
    "abigail":1,
    "eloped":1,
    "optimistic":1,
    "mine":1,
    "boss":1,
    "strangest":1,
    "requests":1,
    "bureaus":1,
    "also":1,
    "proven":1,
    "differently":1,
    "result":1,
    "oldfashioned":1,
    "detective":1,
    "yet":1,
    "sailing":2,
    "promised":2,
    "blackbirds":2,
    "baked":2,
    "pie":2,
    "showed":2,
    "ass":2,
    "nursery":2,
    "edwards":2,
    "parents":2,
    "husband":2,
    "realize":2,
    "company":2,
    "though":2,
    "waited":2,
    "progress":2,
    "procedure":2,
    "works":2,
    "job":2,
    "ability":2,
    "convinced":2,
    "suppose":2,
    "responsible":2,
    "thinks":2,
    "someday":2,
    "taking":2,
    "long":2,
    "reach":2,
    "play":2,
    "whole":2,
    "frightened":2,
    "moment":2,
    "youve":2,
    "besides":2,
    "watch":2,
    "television":2,
    "nine":2,
    "dear":2,
    "leave":2,
    "cat":2,
    "bed":2,
    "early":2,
    "sleep":2,
    "school":2,
    "daughter":2,
    "semen":2,
    "subsidies":2,
    "families":2,
    "meeeee":2,
    "cum":2,
    "worse":2,
    "idea":2,
    "hows":2,
    "wife":2,
    "gordon":2,
    "damn":2,
    "baby":2,
    "report":2,
    "match":2,
    "complete":2,
    "animal":2,
    "young":2,
    "careers":2,
    "getting":2,
    "married":2,
    "kidnapped":2,
    "owns":2,
    "german":2,
    "breeders":2,
    "victim":2,
    "car":2,
    "registered":2,
    "fast":2,
    "started":2,
    "different":2,
    "cumm":2,
    "wake":2,
    "sir":2,
    "eight":2,
    "remembers":2,
    "under":2,
    "twenty":2,
    "named":2,
    "bad":2,
    "half":2,
    "hour":2,
    "men":2,
    "each":2,
    "side":2,
    "four":2,
    "kitchen":2,
    "door":2,
    "christ":2,
    "theyll":2,
    "anyone":2,
    "reid":2,
    "hey":2,
    "distinguish":2,
    "schizophrenic":2,
    "wont":2,
    "act":2,
    "whoa":2,
    "minute":2,
    "hear":2,
    "these":2,
    "hit":2,
    "neurological":2,
    "most":2,
    "likely":2,
    "happen":2,
    "ties":2,
    "reality":2,
    "normal":2,
    "waking":2,
    "lot":2,
    "track":2,
    "somewhere":2,
    "signalling":2,
    "starts":2,
    "building":2,
    "form":2,
    "end":2,
    "day":2,
    "dies":2,
    "sunerset":2,
    "approval":2,
    "yours":2,
    "being":2,
    "arrest":2,
    "lawyer":2,
    "capacity":2,
    "rights":2,
    "dealing":2,
    "woman":2,
    "public":2,
    "safety":2,
    "called":2,
    "save":2,
    "confess":2,
    "theyve":2,
    "used":2,
    "very":2,
    "weeks":2,
    "evidence":2,
    "build":2,
    "everything":2,
    "diego":2,
    "state":2,
    "ten":2,
    "chopper":2,
    "else":2,
    "makes":2,
    "point":2,
    "shouldnt":2,
    "transfer":2,
    "highly":2,
    "map":2,
    "information":2,
    "thinking":2,
    "connections":2,
    "during":2,
    "whatever":2,
    "tune":2,
    "disorientation":2,
    "metal":2,
    "feeling":2,
    "twelve":2,
    "remind":2,
    "hold":2,
    "monitor":2,
    "therapists":2,
    "patient":2,
    "hello":2,
    "another":2,
    "rather":2,
    "neural":2,
    "power":2,
    "deep":2,
    "breaths":2,
    "funny":2,
    "read":2,
    "heart":2,
    "soul":2,
    "control":2,
    "kingdom":2,
    "trick":2,
    "scared":2,
    "walked":2,
    "sound":2,
    "feels":2,
    "remorse":2,
    "middle":2,
    "capable":2,
    "big":2,
    "sitting":2,
    "cut":2,
    "knife":2,
    "raised":2,
    "sleepy":2,
    "problem":2,
    "present":2,
    "lie":2,
    "punished":2,
    "shut":2,
    "whore":2,
    "mommy":2,
    "youll":2,
    "bitch":2,
    "until":2,
    "heaven":2,
    "grandmother":2,
    "pay":2,
    "promise":2,
    "alright":2,
    "carver":2,
    "equipment":2,
    "machine":2,
    "look":2,
    "full":2,
    "left":2,
    "told":2,
    "bishhorkund":2,
    "liddle":2,
    "bainbridge":2,
    "delano":2,
    "yep":2,
    "kiss":2,
    "horse":3,
    "mister":3,
    "e":3,
    "oh":3,
    "bogeyman":3,
    "pocketful":3,
    "rye":3,
    "fine":3,
    "pain":3,
    "hungry":3,
    "visit":3,
    "mr":3,
    "dr":3,
    "kent":3,
    "son":3,
    "next":3,
    "less":3,
    "matters":3,
    "hates":3,
    "please":3,
    "times":3,
    "once":3,
    "trial":3,
    "heard":3,
    "night":3,
    "morning":3,
    "bleach":3,
    "anne":3,
    "vicksey":3,
    "law":3,
    "looking":3,
    "live":3,
    "without":3,
    "asking":3,
    "til":3,
    "luck":3,
    "monster":3,
    "love":3,
    "call":3,
    "gonna":3,
    "those":3,
    "itll":3,
    "off":3,
    "own":3,
    "hed":3,
    "gentlemen":3,
    "seven":3,
    "office":3,
    "days":3,
    "having":3,
    "body":3,
    "knew":3,
    "living":3,
    "john":3,
    "dream":3,
    "wanted":3,
    "house":3,
    "arent":3,
    "around":3,
    "check":3,
    "move":3,
    "jesus":3,
    "alive":3,
    "stays":3,
    "activity":3,
    "cortex":3,
    "between":3,
    "way":3,
    "coma":3,
    "whalens":3,
    "infraction":3,
    "hard":3,
    "system":3,
    "people":3,
    "hours":3,
    "provides":3,
    "rest":3,
    "chance":3,
    "wasnt":3,
    "far":3,
    "went":3,
    "san":3,
    "bureau":3,
    "our":3,
    "ready":3,
    "first":3,
    "new":3,
    "gift":3,
    "use":3,
    "experience":3,
    "number":3,
    "name":3,
    "matter":3,
    "priddy":3,
    "talk":3,
    "drugs":3,
    "hi":3,
    "every":3,
    "anymore":3,
    "charles":3,
    "gish":3,
    "child":3,
    "hate":3,
    "stay":3,
    "liars":3,
    "cunt":3,
    "father":3,
    "thy":3,
    "nod":3,
    "reel":3,
    "cole":3,
    "hoist":3,
    "industrial":3,
    "sold":3,
    "enough":3,
    "thought":4,
    "says":4,
    "sing":4,
    "song":4,
    "sixpence":4,
    "needs":4,
    "place":4,
    "other":4,
    "baines":4,
    "months":4,
    "took":4,
    "should":4,
    "thirty":4,
    "bring":4,
    "over":4,
    "miriam":4,
    "before":4,
    "happening":4,
    "feed":4,
    "lost":4,
    "id":4,
    "mother":4,
    "case":4,
    "honey":4,
    "yourself":4,
    "too":4,
    "life":4,
    "how":4,
    "girls":4,
    "their":4,
    "albino":4,
    "old":4,
    "last":4,
    "stupid":4,
    "wed":4,
    "caught":4,
    "himself":4,
    "seen":4,
    "lets":4,
    "let":4,
    "starghers":4,
    "hickson":4,
    "knows":4,
    "through":4,
    "nothing":4,
    "human":4,
    "always":4,
    "absolutely":4,
    "talking":4,
    "said":4,
    "keep":4,
    "inside":4,
    "hurt":4,
    "mess":4,
    "true":5,
    "care":5,
    "might":5,
    "girl":5,
    "six":5,
    "wait":5,
    "hair":5,
    "guy":5,
    "minutes":5,
    "mean":5,
    "than":5,
    "still":5,
    "came":5,
    "sorry":5,
    "valentine":5,
    "fbi":5,
    "much":5,
    "understand":5,
    "hell":5,
    "does":5,
    "fucking":5,
    "wrong":5,
    "doesnt":5,
    "pretty":5,
    "even":5,
    "kid":5,
    "listen":5,
    "yeah":5,
    "saw":5,
    "worm":5,
    "thanks":6,
    "henry":6,
    "try":6,
    "take":6,
    "trust":6,
    "already":6,
    "home":6,
    "will":6,
    "pete":6,
    "thank":6,
    "two":6,
    "three":6,
    "stop":6,
    "down":6,
    "ever":6,
    "isnt":6,
    "anything":6,
    "happens":6,
    "doing":7,
    "weve":7,
    "same":7,
    "years":7,
    "sure":7,
    "any":7,
    "someone":7,
    "peter":7,
    "man":7,
    "water":7,
    "by":7,
    "only":7,
    "make":7,
    "theyre":7,
    "really":7,
    "done":7,
    "into":8,
    "mockylock":8,
    "more":8,
    "from":8,
    "ill":8,
    "part":8,
    "ive":8,
    "feel":8,
    "say":8,
    "back":8,
    "believe":8,
    "because":8,
    "mind":8,
    "after":8,
    "didnt":8,
    "some":8,
    "kind":8,
    "am":9,
    "yes":9,
    "remember":9,
    "then":9,
    "maybe":9,
    "us":9,
    "happened":9,
    "found":9,
    "little":9,
    "things":9,
    "agent":9,
    "would":9,
    "come":10,
    "world":10,
    "boy":10,
    "find":10,
    "has":10,
    "whats":10,
    "dog":10,
    "novak":10,
    "going":11,
    "wants":11,
    "them":11,
    "see":11,
    "something":11,
    "well":11,
    "had":11,
    "an":11,
    "never":11,
    "cant":12,
    "work":12,
    "catherine":12,
    "theres":12,
    "help":12,
    "who":13,
    "edward":13,
    "tell":13,
    "when":13,
    "there":13,
    "been":13,
    "need":13,
    "time":13,
    "good":13,
    "give":13,
    "shes":13,
    "were":14,
    "did":14,
    "real":14,
    "out":14,
    "so":14,
    "think":14,
    "where":15,
    "okay":15,
    "get":15,
    "hes":16,
    "could":16,
    "got":16,
    "or":16,
    "now":17,
    "are":17,
    "god":17,
    "why":17,
    "just":17,
    "at":17,
    "":17,
    "go":18,
    "one":18,
    "as":18,
    "julia":18,
    "up":19,
    "thing":19,
    "thats":20,
    "your":20,
    "right":20,
    "my":21,
    "they":21,
    "stargher":21,
    "on":22,
    "here":22,
    "can":23,
    "have":23,
    "its":23,
    "his":23,
    "carl":23,
    "im":26,
    "all":27,
    "youre":27,
    "like":27,
    "was":27,
    "about":30,
    "with":30,
    "want":30,
    "know":31,
    "not":34,
    "be":35,
    "her":35,
    "if":36,
    "him":38,
    "no":39,
    "do":40,
    "we":41,
    "she":41,
    "but":42,
    "dont":42,
    "for":43,
    "this":47,
    "me":60,
    "he":61,
    "in":65,
    "what":70,
    "that":71,
    "it":71,
    "is":76,
    "and":76,
    "of":81,
    "a":127,
    "i":130,
    "to":136,
    "the":185,
    "you":194
}