{
    "idiot":1,
    "selfish":1,
    "attention":1,
    "ensure":1,
    "appropriate":1,
    "identification":1,
    "papers":1,
    "honey":1,
    "together":1,
    "everythings":1,
    "train":1,
    "goodbye":1,
    "darlings":1,
    "incorrectly":1,
    "labeled":1,
    "else":1,
    "maam":1,
    "favours":1,
    "unaccustomed":1,
    "few":1,
    "rules":1,
    "shouting":1,
    "improper":1,
    "dumbwaiter":1,
    "touching":1,
    "historical":1,
    "artifacts":1,
    "above":1,
    "disturbing":1,
    "german":1,
    "aircraft":1,
    "carried":1,
    "several":1,
    "attacks":1,
    "britain":1,
    "sheets":1,
    "feel":1,
    "scratchy":1,
    "wars":1,
    "homes":1,
    "gastrovascular":1,
    "invented":1,
    "hideandseek":1,
    "onetwothreefour":1,
    "eight":1,
    "eighty":1,
    "five":1,
    "aaauuugggghhhhh":1,
    "uh":1,
    "gk":1,
    "hiding":1,
    "huh":1,
    "um":1,
    "nn":1,
    "scare":1,
    "askingwhat":1,
    "beardless":1,
    "tallest":1,
    "class":1,
    "helen":1,
    "fact":1,
    "lamp":1,
    "post":1,
    "stick":1,
    "icicle":1,
    "awfully":1,
    "allow":1,
    "introduce":1,
    "extends":1,
    "shake":1,
    "shining":1,
    "city":1,
    "drobe":1,
    "tea":1,
    "new":1,
    "roaring":1,
    "cakes":1,
    "break":1,
    "bucket":1,
    "face":1,
    "alike":1,
    "away":1,
    "ago":1,
    "dreadful":1,
    "skating":1,
    "snow":1,
    "ball":1,
    "fights":1,
    "loved":1,
    "spring":1,
    "dryads":1,
    "fauns":1,
    "dance":1,
    "familiar":1,
    "lullabies":1,
    "sound":1,
    "nicest":1,
    "poor":1,
    "sampling":1,
    "kidnapping":1,
    "supposed":1,
    "quietly":1,
    "98":1,
    "99":1,
    "shhh":1,
    "gotten":1,
    "idea":1,
    "werent":1,
    "wondering":1,
    "seeking":1,
    "mean":1,
    "anymore":1,
    "imagining":1,
    "football":1,
    "field":1,
    "bathroom":1,
    "closet":1,
    "grow":1,
    "shut":1,
    "nicely":1,
    "handled":1,
    "susans":1,
    "dark":1,
    "ginarrbrik":1,
    "address":1,
    "afterwards":1,
    "enter":1,
    "dominion":1,
    "walked":1,
    "following":1,
    "sledge":1,
    "drink":1,
    "yesyour":1,
    "taller":1,
    "becoming":1,
    "prince":1,
    "servants":1,
    "em":1,
    "beyond":1,
    "hills":1,
    "between":1,
    "rooms":1,
    "simply":1,
    "stuffed":1,
    "ruin":1,
    "appetite":1,
    "until":1,
    "thendear":1,
    "fine":1,
    "helping":1,
    "calls":1,
    "herself":1,
    "awful":1,
    "freezing":1,
    "onthis":1,
    "dreaming":1,
    "playing":1,
    "days":1,
    "shenanigan":1,
    "shy":1,
    "sleeping":1,
    "stable":1,
    "disturbed":1,
    "logical":1,
    "explanation":1,
    "hot":1,
    "chocolate":1,
    "ahem":1,
    "internal":1,
    "balance":1,
    "housekeeper":1,
    "hence":1,
    "handle":1,
    "magical":1,
    "lunatic":1,
    "youreyoure":1,
    "youyou":1,
    "possibly":1,
    "teach":1,
    "schools":1,
    "truthful":1,
    "lying":1,
    "mad":1,
    "assume":1,
    "telling":1,
    "truth":1,
    "start":1,
    "acting":1,
    "winds":1,
    "goes":1,
    "bowl":1,
    "whoops":1,
    "dolly":1,
    "daydream":1,
    "hide":1,
    "seek":1,
    "kids":1,
    "fresh":1,
    "bowled":1,
    "liar":1,
    "either":1,
    "apologize":1,
    "lease":1,
    "decide":1,
    "walk":1,
    "clothes":1,
    "belong":1,
    "taking":1,
    "wall":1,
    "former":1,
    "occupant":1,
    "premises":1,
    "under":1,
    "arrest":1,
    "awaiting":1,
    "trial":1,
    "charge":1,
    "treason":1,
    "imperial":1,
    "chatelaine":1,
    "empress":1,
    "lone":1,
    "islands":1,
    "comforting":1,
    "majestys":1,
    "harbouring":1,
    "fraternizing":1,
    "signed":1,
    "captain":1,
    "call":1,
    "criminal":1,
    "bird":1,
    "clicks":1,
    "hereclicks":1,
    "aint":1,
    "handkerchief":1,
    "took":1,
    "further":1,
    "beaverhe":1,
    "shouldnt":1,
    "safer":1,
    "corners":1,
    "sweet":1,
    "beautiful":1,
    "merely":1,
    "trifle":1,
    "find":1,
    "badger":1,
    "illoh":1,
    "badgers":1,
    "given":1,
    "week":1,
    "food":1,
    "civilized":1,
    "conversation":1,
    "enjoying":1,
    "scenery":1,
    "fish":1,
    "sticks":1,
    "yeah":1,
    "aslanyou":1,
    "silly":1,
    "blighteryou":1,
    "return":1,
    "arrestthe":1,
    "happening":1,
    "thanking":1,
    "theresa":1,
    "flesh":1,
    "bone":1,
    "sits":1,
    "throne":1,
    "evil":1,
    "rhyme":1,
    "missing":1,
    "sons":1,
    "daughters":1,
    "appear":1,
    "defeat":1,
    "ones":1,
    "fitted":1,
    "mistake":1,
    "heroes":1,
    "finchley":1,
    "hospitality":1,
    "tohas":1,
    "shh":1,
    "theyll":1,
    "bait":1,
    "none":1,
    "listened":1,
    "place":1,
    "apologies":1,
    "favourite":1,
    "ye":1,
    "sisters":1,
    "deaf":1,
    "unintelligent":1,
    "dare":1,
    "ask":1,
    "half":1,
    "welli":1,
    "total":1,
    "lost":1,
    "chance":1,
    "ginnabrick":1,
    "guest":1,
    "wayfor":1,
    "num":1,
    "nums":1,
    "tunnel":1,
    "map":1,
    "next":1,
    "mate":1,
    "happens":1,
    "relax":1,
    "mighty":1,
    "unfortunate":1,
    "resemblance":1,
    "discuss":1,
    "breeding":1,
    "suggest":1,
    "evening":1,
    "gents":1,
    "lose":1,
    "patronized":1,
    "allegiance":1,
    "lies":1,
    "looking":1,
    "valuable":1,
    "information":1,
    "heading":1,
    "north":1,
    "wish":1,
    "bark":1,
    "bite":1,
    "squirming":1,
    "bath":1,
    "year":1,
    "healing":1,
    "leaving":1,
    "pleasure":1,
    "asked":1,
    "himself":1,
    "planning":1,
    "surely":1,
    "pevensies":1,
    "same":1,
    "nose":1,
    "tore":1,
    "apart":1,
    "nowhere":1,
    "longer":1,
    "meguard":1,
    "anymorei":1,
    "guard":1,
    "release":1,
    "free":1,
    "turned":1,
    "infor":1,
    "sweeties":1,
    "misses":1,
    "camp":1,
    "world":1,
    "smaller":1,
    "whenever":1,
    "old":1,
    "tells":1,
    "fluffy":1,
    "bossy":1,
    "certainly":1,
    "witchs":1,
    "power":1,
    "crumbling":1,
    "juice":1,
    "flower":1,
    "friends":1,
    "wounded":1,
    "cordial":1,
    "brave":1,
    "bow":1,
    "easily":1,
    "making":1,
    "horn":1,
    "lips":1,
    "blow":1,
    "wherever":1,
    "tools":1,
    "toys":1,
    "bare":1,
    "things":1,
    "pile":1,
    "thousand":1,
    "real":1,
    "realistic":1,
    "smartas":1,
    "usual":1,
    "sneaking":1,
    "second":1,
    "helpings":1,
    "meal":1,
    "especially":1,
    "cooking":1,
    "down":1,
    "hurt":1,
    "slit":1,
    "throat":1,
    "leaves":1,
    "smart":1,
    "man":1,
    "red":1,
    "suit":1,
    "hero":1,
    "hold":1,
    "onto":1,
    "anyone":1,
    "looked":1,
    "needing":1,
    "check":1,
    "gathering":1,
    "near":1,
    "sharwood":1,
    "understand":1,
    "helpful":1,
    "forgive":1,
    "waste":1,
    "flattery":1,
    "rude":1,
    "answer":1,
    "creature":1,
    "honesty":1,
    "dies":1,
    "mine":1,
    "theirs":1,
    "staring":1,
    "fussing":1,
    "lovely":1,
    "daughtersofeve":1,
    "fourth":1,
    "excellence":1,
    "hard":1,
    "betrayal":1,
    "harder":1,
    "thrones":1,
    "doubt":1,
    "ityoure":1,
    "formerly":1,
    "finnchley":1,
    "mother":1,
    "dress":1,
    "since":1,
    "trunk":1,
    "homesorry":1,
    "remember":1,
    "boring":1,
    "wed":1,
    "prefer":1,
    "clean":1,
    "rise":1,
    "wolfsbaneknight":1,
    "minotaurs":1,
    "send":1,
    "dwarfs":1,
    "work":1,
    "past":1,
    "hello":1,
    "restand":1,
    "wander":1,
    "pack":1,
    "promised":1,
    "three":1,
    "usall":1,
    "dangerous":1,
    "drowned":1,
    "killed":1,
    "behind":1,
    "suffer":1,
    "practice":1,
    "showed":1,
    "whoa":1,
    "horsey":1,
    "quick":1,
    "requested":1,
    "meeting":1,
    "midst":1,
    "offence":1,
    "forgotten":1,
    "cite":1,
    "belongs":1,
    "simple":1,
    "threat":1,
    "deny":1,
    "blood":1,
    "law":1,
    "demands":1,
    "overturned":1,
    "perish":1,
    "water":1,
    "talk":1,
    "denounced":1,
    "claim":1,
    "promise":1,
    "kept":1,
    "sleep":1,
    "company":1,
    "farewell":1,
    "fight":1,
    "bind":1,
    "shaved":1,
    "appeased":1,
    "tomorrow":1,
    "disappointed":1,
    "ha":1,
    "saving":1,
    "knowledge":1,
    "despair":1,
    "cat":1,
    "general":1,
    "prepare":1,
    "however":1,
    "fear":1,
    "princes":1,
    "tidings":1,
    "grave":1,
    "news":1,
    "believed":1,
    "orders":1,
    "highness":1,
    "weapons":1,
    "greater":1,
    "bet":1,
    "interest":1,
    "prisoners":1,
    "sky":1,
    "knife":1,
    "meaning":1,
    "sacrifice":1,
    "interpreted":1,
    "differently":1,
    "willing":1,
    "victim":1,
    "committed":1,
    "treachery":1,
    "died":1,
    "traitors":1,
    "stead":1,
    "crack":1,
    "itself":1,
    "begin":1,
    "unwind":1,
    "sent":1,
    "word":1,
    "climb":1,
    "ways":1,
    "ears":1,
    "roar":1,
    "fall":1,
    "draw":1,
    "rocks":1,
    "signal":1,
    "search":1,
    "trapped":1,
    "peters":1,
    "finished":1,
    "wheres":1,
    "forth":1,
    "crowns":1,
    "glistening":1,
    "give":1,
    "valiant":1,
    "western":1,
    "radiant":1,
    "southern":1,
    "sun":1,
    "gentle":1,
    "clear":1,
    "northern":1,
    "skies":1,
    "magnificent":1,
    "once":1,
    "timeyou":1,
    "mustnt":1,
    "press":1,
    "tame":1,
    "lion":1,
    "young":1,
    "used":1,
    "catching":1,
    "breath":1,
    "stag":1,
    "dreamspare":1,
    "branches":1,
    "pushingah":1,
    "wayyou":1,
    "tried":1,
    "least":1,
    "eyes":1,
    "open":1,
    "yourself":2,
    "parents":2,
    "weve":2,
    "okay":2,
    "bye":2,
    "perhaps":2,
    "brought":2,
    "small":2,
    "having":2,
    "running":2,
    "forever":2,
    "bed":2,
    "latin":2,
    "worst":2,
    "fun":2,
    "ch":2,
    "mind":2,
    "dwarf":2,
    "course":2,
    "through":2,
    "room":2,
    "eastern":2,
    "sea":2,
    "myself":2,
    "glad":2,
    "people":2,
    "each":2,
    "other":2,
    "land":2,
    "getting":2,
    "friend":2,
    "sardines":2,
    "while":2,
    "nice":2,
    "went":2,
    "ice":2,
    "presents":2,
    "music":2,
    "late":2,
    "met":2,
    "makes":2,
    "across":2,
    "full":2,
    "spies":2,
    "side":2,
    "100":2,
    "quite":2,
    "point":2,
    "does":2,
    "win":2,
    "wood":2,
    "lu":2,
    "imagination":2,
    "yah":2,
    "many":2,
    "sit":2,
    "eat":2,
    "special":2,
    "own":2,
    "needs":2,
    "those":2,
    "wake":2,
    "upset":2,
    "weeping":2,
    "thinks":2,
    "besides":2,
    "air":2,
    "joking":2,
    "impossible":2,
    "suppose":2,
    "cover":2,
    "funny":2,
    "around":2,
    "coat":2,
    "against":2,
    "also":2,
    "enemies":2,
    "maugrim":2,
    "secret":2,
    "helped":2,
    "psst":2,
    "smell":2,
    "gave":2,
    "trust":2,
    "says":2,
    "knows":2,
    "means":2,
    "lets":2,
    "whos":2,
    "blaming":2,
    "prophecy":2,
    "restore":2,
    "peace":2,
    "made":2,
    "fault":2,
    "save":2,
    "stand":2,
    "stranger":2,
    "fortunate":2,
    "later":2,
    "journey":2,
    "gets":2,
    "cranky":2,
    "jam":2,
    "best":2,
    "guys":2,
    "quickly":2,
    "gather":2,
    "troops":2,
    "hell":2,
    "wolves":2,
    "short":2,
    "wanted":2,
    "sleigh":2,
    "frozen":2,
    "seems":2,
    "hat":2,
    "kinda":2,
    "neither":2,
    "ahhh":2,
    "someone":2,
    "merry":2,
    "eves":2,
    "though":2,
    "battles":2,
    "ugly":2,
    "affairs":2,
    "trouble":2,
    "put":2,
    "trying":2,
    "captured":2,
    "betrayed":2,
    "oreius":2,
    "which":2,
    "able":2,
    "yet":2,
    "reason":2,
    "feeling":2,
    "try":2,
    "philip":2,
    "die":2,
    "arent":2,
    "tonight":2,
    "giving":2,
    "life":2,
    "battle":2,
    "numbers":2,
    "death":2,
    "dream":2,
    "their":3,
    "warm":3,
    "after":3,
    "others":3,
    "mum":3,
    "big":3,
    "mom":3,
    "miss":3,
    "coming":3,
    "macready":3,
    "house":3,
    "follow":3,
    "great":3,
    "night":3,
    "soon":3,
    "play":3,
    "already":3,
    "much":3,
    "eve":3,
    "mums":3,
    "human":3,
    "came":3,
    "spare":3,
    "oom":3,
    "castle":3,
    "every":3,
    "an":3,
    "meet":3,
    "hand":3,
    "far":3,
    "toast":3,
    "into":3,
    "load":3,
    "along":3,
    "father":3,
    "bad":3,
    "hundred":3,
    "tired":3,
    "turn":3,
    "move":3,
    "trees":3,
    "wants":3,
    "tell":3,
    "let":3,
    "sonofadam":3,
    "cold":3,
    "turkish":3,
    "delight":3,
    "id":3,
    "love":3,
    "nothing":3,
    "youd":3,
    "hasnt":3,
    "pretending":3,
    "ow":3,
    "seem":3,
    "happen":3,
    "upstairs":3,
    "logically":3,
    "high":3,
    "coats":3,
    "girls":3,
    "who":3,
    "jadis":3,
    "humans":3,
    "hands":3,
    "left":3,
    "dam":3,
    "hungry":3,
    "true":3,
    "waiting":3,
    "adams":3,
    "doesnt":3,
    "happened":3,
    "beavers":3,
    "traitor":3,
    "seen":3,
    "heard":3,
    "safe":3,
    "river":3,
    "ill":3,
    "dead":3,
    "drop":3,
    "leave":3,
    "sword":3,
    "welcome":3,
    "dad":4,
    "wouldnt":4,
    "wasnt":4,
    "wont":4,
    "got":4,
    "stay":4,
    "mrs":4,
    "havent":4,
    "such":4,
    "shall":4,
    "last":4,
    "still":4,
    "game":4,
    "four":4,
    "saying":4,
    "daughter":4,
    "name":4,
    "whats":4,
    "everything":4,
    "way":4,
    "cair":4,
    "paravel":4,
    "probably":4,
    "fire":4,
    "hear":4,
    "ive":4,
    "son":4,
    "adam":4,
    "am":4,
    "woods":4,
    "two":4,
    "worse":4,
    "guess":4,
    "whole":4,
    "saw":4,
    "forest":4,
    "inside":4,
    "run":4,
    "worry":4,
    "police":4,
    "gonna":4,
    "aslans":4,
    "army":4,
    "hurry":4,
    "ya":4,
    "alone":4,
    "any":4,
    "lead":4,
    "table":4,
    "thanks":4,
    "almost":4,
    "deep":4,
    "magic":4,
    "always":5,
    "enough":5,
    "keep":5,
    "fighting":5,
    "listen":5,
    "girl":5,
    "off":5,
    "knew":5,
    "afraid":5,
    "anything":5,
    "his":5,
    "from":5,
    "ii":5,
    "actually":5,
    "stone":5,
    "pevensie":5,
    "even":5,
    "winter":5,
    "years":5,
    "never":5,
    "youll":5,
    "than":5,
    "ready":5,
    "hope":5,
    "better":5,
    "theyre":5,
    "couldnt":5,
    "expect":5,
    "talking":5,
    "say":5,
    "might":5,
    "gone":5,
    "as":6,
    "sure":6,
    "professor":6,
    "children":6,
    "home":6,
    "please":6,
    "first":6,
    "didnt":6,
    "day":6,
    "make":6,
    "by":6,
    "christmas":6,
    "because":6,
    "found":6,
    "majesty":6,
    "sister":6,
    "boy":6,
    "sir":6,
    "live":6,
    "may":6,
    "only":7,
    "over":7,
    "need":7,
    "use":7,
    "ed":7,
    "want":7,
    "faun":7,
    "dear":7,
    "thank":7,
    "done":7,
    "thought":7,
    "believe":7,
    "bring":7,
    "our":7,
    "shes":7,
    "take":7,
    "kill":7,
    "ever":8,
    "told":8,
    "brother":8,
    "must":8,
    "sorry":8,
    "very":8,
    "before":8,
    "good":8,
    "youve":8,
    "something":8,
    "alright":8,
    "right":8,
    "said":8,
    "wait":9,
    "cant":9,
    "war":9,
    "or":9,
    "isnt":9,
    "could":9,
    "doing":9,
    "wardrobe":9,
    "had":9,
    "theres":9,
    "at":9,
    "too":9,
    "white":9,
    "more":9,
    "where":9,
    "did":9,
    "family":9,
    "has":9,
    "susan":10,
    "help":10,
    "really":10,
    "again":10,
    "stop":10,
    "beaver":10,
    "about":11,
    "how":11,
    "yes":11,
    "mr":11,
    "long":11,
    "":11,
    "these":11,
    "why":12,
    "look":12,
    "should":12,
    "maybe":12,
    "she":12,
    "see":12,
    "going":13,
    "us":13,
    "tumnus":13,
    "when":13,
    "back":13,
    "thats":13,
    "up":13,
    "queen":13,
    "out":14,
    "little":14,
    "her":14,
    "hes":14,
    "been":15,
    "some":15,
    "can":15,
    "witch":15,
    "king":15,
    "time":16,
    "one":16,
    "then":17,
    "with":17,
    "them":17,
    "so":19,
    "aslan":19,
    "they":20,
    "youre":21,
    "here":21,
    "will":21,
    "oh":21,
    "like":21,
    "would":22,
    "if":23,
    "peter":23,
    "get":23,
    "all":24,
    "him":24,
    "now":25,
    "just":25,
    "narnia":25,
    "come":26,
    "was":26,
    "know":26,
    "for":26,
    "me":26,
    "were":27,
    "go":27,
    "think":28,
    "there":29,
    "its":29,
    "he":29,
    "on":30,
    "lucy":30,
    "my":32,
    "im":32,
    "but":32,
    "do":33,
    "this":33,
    "edmund":33,
    "dont":33,
    "well":34,
    "what":37,
    "no":39,
    "that":40,
    "be":42,
    "your":42,
    "in":43,
    "not":43,
    "have":46,
    "are":53,
    "it":61,
    "is":64,
    "of":67,
    "we":71,
    "and":75,
    "a":78,
    "i":121,
    "to":124,
    "the":165,
    "you":201
}