{
    "facts":1,
    "concerning":1,
    "settlement":1,
    "activities":1,
    "promises":1,
    "beguiled":1,
    "presides":1,
    "degradation":1,
    "imagining":1,
    "proved":1,
    "incapable":1,
    "managing":1,
    "affairs":1,
    "appointed":1,
    "important":1,
    "injuring":1,
    "pride":1,
    "dignity":1,
    "isabel":1,
    "collection":1,
    "huts":1,
    "swept":1,
    "rain":1,
    "mud":1,
    "finding":1,
    "quantities":1,
    "commanded":1,
    "pay":1,
    "annual":1,
    "tribute":1,
    "unable":1,
    "barbarously":1,
    "christian":1,
    "ceases":1,
    "fled":1,
    "forests":1,
    "begun":1,
    "slay":1,
    "forced":1,
    "undergo":1,
    "physical":1,
    "labor":1,
    "treating":1,
    "reduced":1,
    "slavery":1,
    "nobleman":1,
    "adrian":1,
    "protested":1,
    "treatment":1,
    "executed":1,
    "arrogance":1,
    "led":1,
    "depravity":1,
    "encourages":1,
    "soldiers":1,
    "paradise":1,
    "hell":1,
    "horrors":1,
    "wrote":1,
    "results":1,
    "human":1,
    "progress":1,
    "achieved":1,
    "unanimous":1,
    "consent":1,
    "enlightened":1,
    "condemned":1,
    "purse":1,
    "light":1,
    "spite":1,
    "sun":1,
    "dared":1,
    "infinity":1,
    "asked":1,
    "wanted":1,
    "replied":1,
    "travel":1,
    "seas":1,
    "weather":1,
    "kiss":1,
    "dining":1,
    "hall":1,
    "hungry":1,
    "bright":1,
    "teach":1,
    "serious":1,
    "raised":1,
    "together":1,
    "different":1,
    "mothers":1,
    "best":1,
    "teacher":1,
    "careful":1,
    "lose":1,
    "university":1,
    "salamanca":1,
    "manage":1,
    "difficulty":1,
    "total":1,
    "open":1,
    "moment":1,
    "african":1,
    "takes":1,
    "turks":1,
    "closed":1,
    "trading":1,
    "orient":1,
    "arduous":1,
    "third":1,
    "across":1,
    "infinite":1,
    "ignorance":1,
    "canary":1,
    "jew":1,
    "christ":1,
    "minutes":1,
    "overwhelm":1,
    "carried":1,
    "eternity":1,
    "meaning":1,
    "whatever":1,
    "executions":1,
    "square":1,
    "theyve":1,
    "love":1,
    "unfortunately":1,
    "precisely":1,
    "opinions":1,
    "differ":1,
    "familiar":1,
    "aristotle":1,
    "erathostene":1,
    "circumference":1,
    "approximately":1,
    "22000":1,
    "evidence":1,
    "proving":1,
    "totally":1,
    "excellencies":1,
    "statements":1,
    "contradict":1,
    "believes":1,
    "florentine":1,
    "french":1,
    "cardinal":1,
    "pierre":1,
    "dailly":1,
    "accurate":1,
    "crossed":1,
    "gentlemen":1,
    "examine":1,
    "opinion":1,
    "during":1,
    "months":1,
    "corrected":1,
    "finest":1,
    "fresh":1,
    "undrinkable":1,
    "experienced":1,
    "conscience":1,
    "relied":1,
    "scholar":1,
    "simple":1,
    "craving":1,
    "renowned":1,
    "none":1,
    "exact":1,
    "width":1,
    "modest":1,
    "question":1,
    "remains":1,
    "unanswered":1,
    "settle":1,
    "ready":1,
    "risk":1,
    "polo":1,
    "kingdom":1,
    "china":1,
    "richest":1,
    "meanest":1,
    "buildings":1,
    "roofed":1,
    "interests":1,
    "portuguese":1,
    "blackskinned":1,
    "populations":1,
    "christo":1,
    "ferens":1,
    "bearer":1,
    "populates":1,
    "intended":1,
    "proximity":1,
    "choose":1,
    "reveal":1,
    "realize":1,
    "heretical":1,
    "blind":1,
    "heresy":1,
    "ifgodwillsit":1,
    "honors":1,
    "presence":1,
    "reason":1,
    "interested":1,
    "mans":1,
    "proposition":1,
    "ours":1,
    "naturally":1,
    "deplore":1,
    "potential":1,
    "opportunity":1,
    "dispute":1,
    "geography":1,
    "mercenary":1,
    "convince":1,
    "king":1,
    "portugal":1,
    "absurd":1,
    "notions":1,
    "indeed":1,
    "mercenaries":1,
    "states":1,
    "often":1,
    "benefits":1,
    "welfare":1,
    "prosperity":1,
    "influence":1,
    "assist":1,
    "intriguer":1,
    "fascinating":1,
    "effortlessly":1,
    "participation":1,
    "highnesses":1,
    "relies":1,
    "feeble":1,
    "impractical":1,
    "impossible":1,
    "mustnt":1,
    "despair":1,
    "intends":1,
    "based":1,
    "safety":1,
    "studies":1,
    "mean":1,
    "theyre":1,
    "whove":1,
    "end":1,
    "books":1,
    "lies":1,
    "sssshhhh":1,
    "seville":1,
    "expected":1,
    "monastery":1,
    "eh":1,
    "martin":1,
    "alonzo":1,
    "owner":1,
    "palos":1,
    "spy":1,
    "trappist":1,
    "vow":1,
    "silence":1,
    "luck":1,
    "nod":1,
    "wife":1,
    "commission":1,
    "turned":1,
    "down":1,
    "foreigner":1,
    "hey":1,
    "example":1,
    "finances":1,
    "audience":1,
    "owes":1,
    "money":1,
    "mistress":1,
    "immediately":1,
    "victory":1,
    "couldnt":1,
    "victors":1,
    "truly":1,
    "grateful":1,
    "tells":1,
    "sincerity":1,
    "impregnable":1,
    "verdict":1,
    "freely":1,
    "inclination":1,
    "otherwise":1,
    "thinks":1,
    "equal":1,
    "informed":1,
    "decision":1,
    "younger":1,
    "knight":1,
    "bear":1,
    "golden":1,
    "spurs":1,
    "title":1,
    "extended":1,
    "descendants":1,
    "highest":1,
    "immigrant":1,
    "sheltered":1,
    "monks":1,
    "furthermore":1,
    "monies":1,
    "precious":1,
    "gems":1,
    "pearls":1,
    "metals":1,
    "lucrative":1,
    "sources":1,
    "conquered":1,
    "within":1,
    "boundaries":1,
    "admiralty":1,
    "monstrous":1,
    "pheasant":1,
    "raw":1,
    "worry":1,
    "carvajal":1,
    "lower":1,
    "carefully":1,
    "expectations":1,
    "excessive":1,
    "fair":1,
    "prepared":1,
    "fought":1,
    "risks":1,
    "while":1,
    "profit":1,
    "remind":1,
    "bargain":1,
    "bargaining":1,
    "ambition":1,
    "virtue":1,
    "among":1,
    "fault":1,
    "renegotiate":1,
    "especially":1,
    "signed":1,
    "pity":1,
    "yeeeeeees":1,
    "asking":1,
    "therell":1,
    "st":1,
    "holy":1,
    "saints":1,
    "heaven":1,
    "nomine":1,
    "patris":1,
    "filius":1,
    "spiritus":1,
    "sancti":1,
    "sinned":1,
    "family":1,
    "sure":1,
    "twice":1,
    "distance":1,
    "certitudes":1,
    "frightening":1,
    "bound":1,
    "oath":1,
    "ispo":1,
    "te":1,
    "absoluto":1,
    "mother":1,
    "investment":1,
    "wherever":1,
    "vaya":1,
    "con":1,
    "due":1,
    "sight":1,
    "quadrant":1,
    "star":1,
    "plumb":1,
    "line":1,
    "vertical":1,
    "move":1,
    "mistake":1,
    "degree":1,
    "6000":1,
    "chickenass":1,
    "shit":1,
    "heat":1,
    "las":1,
    "minas":1,
    "waters":1,
    "barrels":1,
    "drinking":1,
    "glory":1,
    "chicken":1,
    "ass":1,
    "devils":1,
    "crazy":1,
    "culo":1,
    "galina":1,
    "es":1,
    "el":1,
    "hijo":1,
    "del":1,
    "demonio":1,
    "near":1,
    "smell":1,
    "cunt":1,
    "sign":1,
    "sailors":1,
    "post":1,
    "mark":1,
    "rowing":1,
    "permission":1,
    "cheated":1,
    "alive":1,
    "verge":1,
    "mutiny":1,
    "telling":1,
    "turning":1,
    "half":1,
    "nearly":1,
    "listened":1,
    "bloody":1,
    "gave":1,
    "order":1,
    "greed":1,
    "abandoned":1,
    "voice":1,
    "angel":1,
    "mouth":1,
    "blessed":1,
    "evil":1,
    "overcome":1,
    "rewards":1,
    "gods":1,
    "devil":1,
    "puts":1,
    "hearts":1,
    "jacket":1,
    "sights":1,
    "mast":1,
    "jaime":1,
    "wind":1,
    "escape":1,
    "luckier":1,
    "gracious":1,
    "castille":1,
    "powers":1,
    "vested":1,
    "claim":1,
    "salvador":1,
    "arquebuses":1,
    "behave":1,
    "wives":1,
    "children":1,
    "seashell":1,
    "bandana":1,
    "respect":1,
    "beliefs":1,
    "pillage":1,
    "whip":1,
    "rape":1,
    "sword":1,
    "october":1,
    "21st":1,
    "1492":1,
    "eden":1,
    "drop":1,
    "jerez":1,
    "nice":1,
    "slice":1,
    "santa":1,
    "fe":1,
    "lamb":1,
    "sell":1,
    "cures":1,
    "fort":1,
    "thousands":1,
    "admire":1,
    "march":1,
    "1493":1,
    "volunteered":1,
    "less":1,
    "several":1,
    "civilization":1,
    "cities":1,
    "temples":1,
    "resembles":1,
    "polos":1,
    "descriptions":1,
    "hoping":1,
    "intoxicates":1,
    "senses":1,
    "strongest":1,
    "perfumes":1,
    "untamed":1,
    "deck":1,
    "rid":1,
    "prophet":1,
    "preparing":1,
    "inhale":1,
    "palate":1,
    "enjoy":1,
    "flavor":1,
    "tobacco":1,
    "vice":1,
    "thoughts":1,
    "naked":1,
    "nakedness":1,
    "nature":1,
    "ending":1,
    "covered":1,
    "trees":1,
    "blossoms":1,
    "fruits":1,
    "gifts":1,
    "gratified":1,
    "muy":1,
    "bien":1,
    "excellente":1,
    "defend":1,
    "admirably":1,
    "commoner":1,
    "second":1,
    "expedition":1,
    "laws":1,
    "appointing":1,
    "governors":1,
    "whom":1,
    "quality":1,
    "lack":1,
    "notaries":1,
    "contact":1,
    "administration":1,
    "judge":1,
    "dear":1,
    "judges":1,
    "thieves":1,
    "services":1,
    "seem":1,
    "special":1,
    "talent":1,
    "making":1,
    "high":1,
    "short":1,
    "occupation":1,
    "hypocrisy":1,
    "might":1,
    "choice":1,
    "stronger":1,
    "capable":1,
    "living":1,
    "dreamt":1,
    "shared":1,
    "refuse":1,
    "bloodline":1,
    "anyone":1,
    "horses":1,
    "arrived":1,
    "hire":1,
    "blacksmiths":1,
    "halberdiers":1,
    "farmers":1,
    "miners":1,
    "doctor":1,
    "chanca":1,
    "count":1,
    "health":1,
    "growing":1,
    "beatrix":1,
    "usually":1,
    "arrange":1,
    "shown":1,
    "guevara":1,
    "revenge":1,
    "cousins":1,
    "wash":1,
    "blood":1,
    "shoulders":1,
    "trusted":1,
    "thousand":1,
    "outnumber":1,
    "ten":1,
    "crusade":1,
    "forest":1,
    "danger":1,
    "sweep":1,
    "grief":1,
    "died":1,
    "accomplish":1,
    "happened":1,
    "souls":1,
    "monkey":1,
    "raise":1,
    "wheel":1,
    "friend":1,
    "nimas":1,
    "cook":1,
    "later":1,
    "eating":1,
    "seminary":1,
    "priests":1,
    "cellars":1,
    "grows":1,
    "rots":1,
    "ground":1,
    "wheat":1,
    "vines":1,
    "wither":1,
    "harvest":1,
    "single":1,
    "shipment":1,
    "anywhere":1,
    "disease":1,
    "exchanged":1,
    "diseases":1,
    "common":1,
    "cold":1,
    "plague":1,
    "caused":1,
    "intimacy":1,
    "returns":1,
    "cargo":1,
    "sick":1,
    "dying":1,
    "proves":1,
    "expensive":1,
    "expecting":1,
    "immediate":1,
    "profits":1,
    "act":1,
    "brutality":1,
    "tribes":1,
    "fighting":1,
    "joining":1,
    "forces":1,
    "criminal":1,
    "monkeys":1,
    "held":1,
    "detention":1,
    "deprived":1,
    "possessions":1,
    "regret":1,
    "death":1,
    "bastards":1,
    "inherit":1,
    "immortal":1,
    "desire":1,
    "remain":1,
    "godless":1,
    "departure":1,
    "godly":1,
    "heathen":1,
    "execute":1,
    "offer":1,
    "wants":1,
    "exists":1,
    "begins":1,
    "expectation":1,
    "dream":1,
    "imagined":1,
    "learned":1,
    "language":1,
    "failed":1,
    "subjects":1,
    "natives":1,
    "violence":1,
    "sent":1,
    "ordered":1,
    "execution":1,
    "suggest":1,
    "replaced":1,
    "task":1,
    "devotee":1,
    "extremely":1,
    "motivated":1,
    "congratulations":1,
    "search":1,
    "italian":1,
    "forgot":1,
    "disappointed":1,
    "exactly":1,
    "news":1,
    "present":1,
    "forcing":1,
    "anyway":1,
    "taste":1,
    "getting":1,
    "married":1,
    "faults":1,
    "remarkable":1,
    "chance":1,
    "belong":1,
    "beg":1,
    "changed":1,
    "suing":1,
    "breach":1,
    "decided":1,
    "nor":1,
    "colonies":1,
    "content":1,
    "tolerate":1,
    "impertinence":1,
    "guards":1,
    "dreamer":1,
    "window":1,
    "roofs":1,
    "towers":1,
    "palaces":1,
    "spires":1,
    "tried":1,
    "riches":1,
    "rich":1,
    "busier":1,
    "missed":1,
    "chair":1,
    "tries":1,
    "sue":1,
    "repay":1,
    "through":1,
    "adventurer":1,
    "explorer":1,
    "discoverer":1,
    "politician":1,
    "govern":1,
    "compromised":1,
    "easier":1,
    "least":1,
    "bored":1,
    "southwest":1,
    "feeling":1,
    "piece":1,
    "pork":1,
    "fat":1,
    "string":1,
    "worked":1,
    "whats":1,
    "drawing":1,
    "means":1,
    "lakes":1,
    "wide":1,
    "above":1,
    "europe":1,
    "passage":1,
    "virgen":1,
    "madre":1,
    "y":1,
    "todos":1,
    "los":1,
    "santos":1,
    "drink":1,
    "highness":1,
    "honest":1,
    "purpose":1,
    "sincere":1,
    "zeal":1,
    "voyages":1,
    "roof":1,
    "allowed":1,
    "proportions":1,
    "carry":1,
    "divine":1,
    "thereby":1,
    "placed":1,
    "under":1,
    "sovereignty":1,
    "humbly":1,
    "beseech":1,
    "pleases":1,
    "remove":1,
    "hence":1,
    "weep":1,
    "whoever":1,
    "charity":1,
    "justice":1,
    "sunset":1,
    "wellestablished":1,
    "south":1,
    "juan":1,
    "northern":1,
    "raphael":1,
    "onto":1,
    "called":1,
    "gracias":1,
    "majestys":1,
    "confirmed":1,
    "humanity":1,
    "existence":1,
    "incognita":1,
    "commissioned":1,
    "arojaz":1,
    "mine":1,
    "forgiven":1,
    "forgave":1,
    "proud":1,
    "willful":1,
    "hurting":1,
    "process":1,
    "talk":1,
    "achieve":1,
    "changes":1,
    "fill":1,
    "disagree":1,
    "create":1,
    "impression":1,
    "bless":1,
    "busy":1,
    "inside":1,
    "catch":1,
    "moments":1,
    "spend":1,
    "hearing":1,
    "restored":1,
    "maybe":1,
    "dona":1,
    "starting":1,
    "pearl":1,
    "received":1,
    "mostly":1,
    "visit":1,
    "address":1,
    "aboard":1,
    "mind":1,
    "hispanola":2,
    "servant":2,
    "hopes":2,
    "truth":2,
    "chaos":2,
    "madness":2,
    "beyond":2,
    "himself":2,
    "positions":2,
    "city":2,
    "named":2,
    "actually":2,
    "built":2,
    "place":2,
    "easily":2,
    "easy":2,
    "each":2,
    "punished":2,
    "express":2,
    "provocation":2,
    "injustice":2,
    "worse":2,
    "equally":2,
    "control":2,
    "marry":2,
    "native":2,
    "knew":2,
    "venture":2,
    "behind":2,
    "arent":2,
    "boy":2,
    "pleasure":2,
    "chosen":2,
    "myself":2,
    "fool":2,
    "ways":2,
    "reaching":2,
    "around":2,
    "become":2,
    "dangerous":2,
    "toscanelli":2,
    "esdras":2,
    "passion":2,
    "try":2,
    "marchena":2,
    "contradicted":2,
    "makes":2,
    "havent":2,
    "whos":2,
    "argue":2,
    "sometimes":2,
    "meant":2,
    "hard":2,
    "lucky":2,
    "ptolemeus":2,
    "ignore":2,
    "earth":2,
    "uncrossable":2,
    "mistaken":2,
    "aware":2,
    "theories":2,
    "proposal":2,
    "summer":2,
    "times":2,
    "centuries":2,
    "geographers":2,
    "crew":2,
    "survive":2,
    "able":2,
    "youd":2,
    "concern":2,
    "willing":2,
    "loss":2,
    "upon":2,
    "judgment":2,
    "agree":2,
    "matter":2,
    "prove":2,
    "possible":2,
    "reach":2,
    "marco":2,
    "carpenters":2,
    "consider":2,
    "considered":2,
    "faith":2,
    "use":2,
    "power":2,
    "justify":2,
    "assumptions":2,
    "longer":2,
    "heads":2,
    "past":2,
    "penance":2,
    "ah":2,
    "looking":2,
    "names":2,
    "ship":2,
    "told":2,
    "court":2,
    "aragon":2,
    "meet":2,
    "moors":2,
    "tragedy":2,
    "forward":2,
    "council":2,
    "today":2,
    "someone":2,
    "thought":2,
    "cristobal":2,
    "viceroy":2,
    "lands":2,
    "titles":2,
    "spices":2,
    "underdone":2,
    "almost":2,
    "requests":2,
    "position":2,
    "ambitious":2,
    "rest":2,
    "simply":2,
    "monk":2,
    "although":2,
    "hands":2,
    "monsters":2,
    "watch":2,
    "et":2,
    "lied":2,
    "believed":2,
    "absolution":2,
    "soul":2,
    "care":2,
    "night":2,
    "steady":2,
    "off":2,
    "eighth":2,
    "parallel":2,
    "until":2,
    "face":2,
    "putrid":2,
    "piss":2,
    "alone":2,
    "harm":2,
    "left":2,
    "smells":2,
    "bad":2,
    "continue":2,
    "board":2,
    "mad":2,
    "signs":2,
    "fears":2,
    "day":2,
    "shall":2,
    "grace":2,
    "savages":2,
    "neither":2,
    "treat":2,
    "worst":2,
    "returned":2,
    "again":2,
    "got":2,
    "country":2,
    "medicine":2,
    "filled":2,
    "cut":2,
    "four":2,
    "five":2,
    "contrary":2,
    "allow":2,
    "kind":2,
    "sin":2,
    "si":2,
    "bartolome":2,
    "giacomo":2,
    "except":2,
    "goes":2,
    "dreams":2,
    "house":2,
    "surgeon":2,
    "service":2,
    "animals":2,
    "lets":2,
    "head":2,
    "brave":2,
    "fine":2,
    "kill":2,
    "swallow":2,
    "took":2,
    "lying":2,
    "though":2,
    "understands":2,
    "mosquitoes":2,
    "shes":2,
    "iguana":2,
    "wishes":2,
    "learn":2,
    "happen":2,
    "die":2,
    "put":2,
    "table":2,
    "privileges":2,
    "judged":2,
    "please":2,
    "members":2,
    "thinking":2,
    "letters":2,
    "appointment":2,
    "amerigo":2,
    "vespucci":2,
    "asks":2,
    "penitent":2,
    "older":2,
    "undertake":2,
    "theres":2,
    "change":2,
    "between":2,
    "crown":2,
    "owe":2,
    "isthmus":2,
    "side":2,
    "lake":2,
    "big":2,
    "unknown":2,
    "remembered":2,
    "cape":2,
    "waste":2,
    "worlds":2,
    "state":3,
    "nobles":3,
    "gone":3,
    "build":3,
    "wrong":3,
    "indian":3,
    "most":3,
    "being":3,
    "since":3,
    "christians":3,
    "saw":3,
    "full":3,
    "treasurer":3,
    "words":3,
    "exist":3,
    "set":3,
    "week":3,
    "promise":3,
    "sail":3,
    "route":3,
    "sailing":3,
    "year":3,
    "indies":3,
    "calculations":3,
    "dead":3,
    "happy":3,
    "agreed":3,
    "years":3,
    "given":3,
    "child":3,
    "perhaps":3,
    "according":3,
    "knowledge":3,
    "therefore":3,
    "turn":3,
    "point":3,
    "read":3,
    "follow":3,
    "trade":3,
    "waited":3,
    "show":3,
    "really":3,
    "thing":3,
    "damn":3,
    "leave":3,
    "old":3,
    "gardens":3,
    "jesus":3,
    "talking":3,
    "expect":3,
    "granada":3,
    "yet":3,
    "her":3,
    "better":3,
    "rise":3,
    "surely":3,
    "little":3,
    "receive":3,
    "nobility":3,
    "wealth":3,
    "contract":3,
    "granted":3,
    "call":3,
    "decide":3,
    "betrayed":3,
    "trust":3,
    "peace":3,
    "dios":3,
    "sir":3,
    "weve":3,
    "days":3,
    "used":3,
    "north":3,
    "bastard":3,
    "hear":3,
    "far":3,
    "course":3,
    "nobody":3,
    "ships":3,
    "cursed":3,
    "comes":3,
    "start":3,
    "san":3,
    "free":3,
    "cuba":3,
    "tribe":3,
    "below":3,
    "created":3,
    "werent":3,
    "savagery":3,
    "war":3,
    "imagination":3,
    "because":3,
    "same":3,
    "stop":3,
    "still":3,
    "santo":3,
    "domingo":3,
    "things":3,
    "governor":4,
    "after":4,
    "against":4,
    "eyes":4,
    "great":4,
    "into":4,
    "women":4,
    "made":4,
    "doing":4,
    "heard":4,
    "some":4,
    "two":4,
    "journey":4,
    "certain":4,
    "750":4,
    "islands":4,
    "leaving":4,
    "id":4,
    "woman":4,
    "beautiful":4,
    "seven":4,
    "which":4,
    "suppose":4,
    "without":4,
    "wouldnt":4,
    "seaman":4,
    "wonder":4,
    "bring":4,
    "word":4,
    "sailor":4,
    "friends":4,
    "doesnt":4,
    "accept":4,
    "eight":4,
    "royal":4,
    "swear":4,
    "saying":4,
    "mercy":4,
    "seen":4,
    "keep":4,
    "three":4,
    "maria":4,
    "utapan":4,
    "enough":4,
    "return":4,
    "soon":4,
    "bobadilla":4,
    "came":4,
    "horse":4,
    "eat":4,
    "urracan":4,
    "explore":4,
    "oh":4,
    "beginning":5,
    "brothers":5,
    "promised":5,
    "buyl":5,
    "majesties":5,
    "also":5,
    "lost":5,
    "others":5,
    "even":5,
    "just":5,
    "marin":5,
    "cannot":5,
    "knows":5,
    "son":5,
    "look":5,
    "live":5,
    "weeks":5,
    "water":5,
    "senor":5,
    "cross":5,
    "taken":5,
    "any":5,
    "up":5,
    "she":5,
    "listening":5,
    "thirty":5,
    "alonso":5,
    "does":5,
    "hundred":5,
    "tierra":5,
    "seems":5,
    "hope":5,
    "another":5,
    "wish":6,
    "christopher":6,
    "columbus":6,
    "once":6,
    "had":6,
    "away":6,
    "indians":6,
    "before":6,
    "leagues":6,
    "tyr":6,
    "ive":6,
    "stay":6,
    "wont":6,
    "eminence":6,
    "voyage":6,
    "work":6,
    "both":6,
    "long":6,
    "captain":6,
    "understand":6,
    "listen":6,
    "give":6,
    "wait":6,
    "anything":6,
    "thank":6,
    "santangel":6,
    "queen":6,
    "ago":6,
    "afraid":6,
    "demands":6,
    "every":6,
    "youll":6,
    "nine":6,
    "need":6,
    "true":7,
    "island":7,
    "admiral":7,
    "brother":7,
    "honor":7,
    "many":7,
    "sanchez":7,
    "those":7,
    "going":7,
    "asia":7,
    "already":7,
    "youre":7,
    "much":7,
    "found":7,
    "six":7,
    "yourself":7,
    "discovered":7,
    "make":7,
    "too":7,
    "pinzon":7,
    "good":7,
    "very":7,
    "name":7,
    "ask":7,
    "mainland":7,
    "first":8,
    "remember":8,
    "when":8,
    "didnt":8,
    "said":8,
    "believe":8,
    "ill":8,
    "been":8,
    "always":8,
    "excellency":8,
    "im":8,
    "hes":8,
    "sea":9,
    "over":9,
    "nothing":9,
    "such":9,
    "own":9,
    "get":9,
    "why":9,
    "continent":9,
    "let":9,
    "life":9,
    "other":9,
    "about":9,
    "chief":9,
    "everything":9,
    "could":10,
    "moxica":10,
    "its":10,
    "thats":10,
    "way":10,
    "well":10,
    "their":10,
    "may":10,
    "spain":10,
    "people":10,
    "out":10,
    "speak":10,
    "forgive":10,
    "mendez":10,
    "twenty":10,
    "de":11,
    "time":11,
    "where":11,
    "fernando":11,
    "should":11,
    "think":11,
    "something":11,
    "back":11,
    "ever":11,
    "from":12,
    "at":12,
    "gold":12,
    "or":12,
    "these":12,
    "says":12,
    "come":12,
    "say":12,
    "now":13,
    "diego":13,
    "must":13,
    "only":13,
    "help":13,
    "west":14,
    "take":14,
    "did":14,
    "land":14,
    "right":14,
    "more":15,
    "than":15,
    "then":15,
    "majesty":16,
    "ocean":16,
    "find":16,
    "our":17,
    "was":17,
    "yes":17,
    "were":17,
    "see":17,
    "new":18,
    "an":18,
    "like":18,
    "men":18,
    "so":19,
    "father":19,
    "want":19,
    "there":20,
    "one":20,
    "world":21,
    "tell":21,
    "cant":21,
    "am":22,
    "if":22,
    "here":22,
    "as":22,
    "would":23,
    "us":23,
    "has":23,
    "go":23,
    "him":24,
    "they":25,
    "how":25,
    "can":25,
    "who":26,
    "never":26,
    "on":26,
    "don":26,
    "his":27,
    "man":27,
    "colon":27,
    "dont":29,
    "by":30,
    "know":31,
    "them":32,
    "god":33,
    "no":35,
    "all":37,
    "but":38,
    "this":43,
    "my":45,
    "do":46,
    "for":47,
    "in":50,
    "with":50,
    "will":52,
    "not":53,
    "me":53,
    "that":55,
    "":59,
    "what":61,
    "are":62,
    "have":64,
    "be":68,
    "he":71,
    "we":75,
    "your":78,
    "it":81,
    "and":92,
    "is":110,
    "a":130,
    "of":150,
    "i":190,
    "to":205,
    "you":247,
    "the":262
}