{
    "luxembourg":1,
    "towers":1,
    "loves":1,
    "saying":1,
    "bullshit":1,
    "tips":1,
    "offended":1,
    "liar":1,
    "kiss":1,
    "admit":1,
    "jump":1,
    "empire":1,
    "screaming":1,
    "squash":1,
    "arent":1,
    "wrecks":1,
    "turned":1,
    "40th":1,
    "seventh":1,
    "subways":1,
    "river":1,
    "whatre":1,
    "august":1,
    "1st":1,
    "reminds":1,
    "delta":1,
    "mississippi":1,
    "fought":1,
    "aristotle":1,
    "wishbone":1,
    "nearly":1,
    "snapped":1,
    "half":1,
    "fellas":1,
    "essential":1,
    "goddess":1,
    "chain":1,
    "bitter":1,
    "ugly":1,
    "blindfold":1,
    "depends":1,
    "definition":1,
    "start":1,
    "9":1,
    "wow":1,
    "tom":1,
    "cult":1,
    "leader":1,
    "blew":1,
    "citibank":1,
    "none":1,
    "proven":1,
    "deny":1,
    "writ":1,
    "habeas":1,
    "corpus":1,
    "daughter":1,
    "ah":1,
    "psychotic":1,
    "vacation":1,
    "weeks":1,
    "lawyer":1,
    "high":1,
    "school":1,
    "sophomore":1,
    "restraining":1,
    "earthquakes":1,
    "orbit":1,
    "using":1,
    "nukes":1,
    "passe":1,
    "quit":1,
    "presidents":1,
    "europe":1,
    "launched":1,
    "cutting":1,
    "funding":1,
    "milk":1,
    "cow":1,
    "aerospace":1,
    "industry":1,
    "billions":1,
    "united":1,
    "states":1,
    "earthquake":1,
    "throw":1,
    "different":1,
    "real":1,
    "swallow":1,
    "coca":1,
    "cola":1,
    "eat":1,
    "strip":1,
    "sham":1,
    "crazier":1,
    "counting":1,
    "sometime":1,
    "burst":1,
    "horses":1,
    "racehorse":1,
    "beaucoup":1,
    "overtime":1,
    "quite":1,
    "patience":1,
    "everywhere":1,
    "fog":1,
    "specific":1,
    "lysergic":1,
    "acid":1,
    "diethylamide":1,
    "kicker":1,
    "surely":1,
    "lips":1,
    "gods":1,
    "ear":1,
    "nice":1,
    "dating":1,
    "terrible":1,
    "shirt":1,
    "bastards":1,
    "dumb":1,
    "complicit":1,
    "sons":1,
    "bitches":1,
    "statement":1,
    "boss":1,
    "bleeding":1,
    "tip":1,
    "tongue":1,
    "ambulance":1,
    "ease":1,
    "files":1,
    "sent":1,
    "rats":1,
    "ass":1,
    "damnit":1,
    "sucks":1,
    "use":1,
    "illegal":1,
    "bullet":1,
    "passed":1,
    "vital":1,
    "moving":1,
    "ward":1,
    "twenty":1,
    "boyfriend":1,
    "stomach":1,
    "dump":1,
    "tube":1,
    "someplace":1,
    "checked":1,
    "relax":1,
    "gunshot":1,
    "special":1,
    "reason":1,
    "basement":1,
    "traded":1,
    "bullets":1,
    "old":1,
    "liquor":1,
    "store":1,
    "stopped":1,
    "jurisdictional":1,
    "cleared":1,
    "fletchers":1,
    "while":1,
    "walk":1,
    "dc":1,
    "assault":1,
    "counterfeiting":1,
    "string":1,
    "bank":1,
    "robberies":1,
    "wants":1,
    "shrink":1,
    "somehow":1,
    "having":1,
    "cop":1,
    "animal":1,
    "slated":1,
    "destroyed":1,
    "acquainted":1,
    "dogs":1,
    "motion":1,
    "detectors":1,
    "heat":1,
    "sensors":1,
    "psychiatrist":1,
    "serpico":1,
    "arf":1,
    "size":1,
    "quick":1,
    "halfnaked":1,
    "chained":1,
    "bed":1,
    "rail":1,
    "exits":1,
    "unbespleenable":1,
    "plotting":1,
    "insist":1,
    "heres":1,
    "fresh":1,
    "colleague":1,
    "seems":1,
    "oddly":1,
    "possessive":1,
    "behavior":1,
    "honestly":1,
    "charming":1,
    "visits":1,
    "tolerate":1,
    "leaving":1,
    "late":1,
    "mug":1,
    "horrible":1,
    "nowhere":1,
    "rescue":1,
    "storybook":1,
    "beat":1,
    "avoid":1,
    "harvard":1,
    "veritas":1,
    "shall":1,
    "yale":1,
    "football":1,
    "psychiatrists":1,
    "specialized":1,
    "brain":1,
    "washing":1,
    "reeducating":1,
    "ways":1,
    "polite":1,
    "society":1,
    "whove":1,
    "arab":1,
    "rabbi":1,
    "arresting":1,
    "officers":1,
    "expression":1,
    "input":1,
    "officer":1,
    "gum":1,
    "keys":1,
    "odd":1,
    "apparently":1,
    "desperado":1,
    "subject":1,
    "multijurisdictional":1,
    "task":1,
    "force":1,
    "manhunt":1,
    "nuts":1,
    "less":1,
    "outta":1,
    "speech":1,
    "hospital":1,
    "stick":1,
    "lunatic":1,
    "acting":1,
    "change":1,
    "lanes":1,
    "rearview":1,
    "flat":1,
    "wraparound":1,
    "headlights":1,
    "crown":1,
    "victoria":1,
    "legitimate":1,
    "tail":1,
    "opposed":1,
    "serious":1,
    "drive":1,
    "speed":1,
    "lose":1,
    "noticed":1,
    "dinner":1,
    "inter":1,
    "agency":1,
    "cooperation":1,
    "ready":1,
    "squealing":1,
    "tires":1,
    "knocking":1,
    "trash":1,
    "cans":1,
    "known":1,
    "word":1,
    "curious":1,
    "sidetracked":1,
    "hero":1,
    "pounded":1,
    "vc":1,
    "greek":1,
    "cat":1,
    "named":1,
    "ari":1,
    "seconds":1,
    "scared":1,
    "lettuce":1,
    "tomatoes":1,
    "dressing":1,
    "punishing":1,
    "personal":1,
    "untrained":1,
    "ahh":1,
    "ooooo":1,
    "rock":1,
    "south":1,
    "pole":1,
    "explain":1,
    "cost":1,
    "chechenia":1,
    "banks":1,
    "lent":1,
    "selling":1,
    "weapons":1,
    "gas":1,
    "colorado":1,
    "researchers":1,
    "blocked":1,
    "fuel":1,
    "additive":1,
    "accused":1,
    "epa":1,
    "quote":1,
    "blind":1,
    "power":1,
    "misery":1,
    "brings":1,
    "plot":1,
    "master":1,
    "lifetime":1,
    "handshake":1,
    "mustve":1,
    "jumpy":1,
    "certifiable":1,
    "sitting":1,
    "halfway":1,
    "flesh":1,
    "deal":1,
    "park":1,
    "mile":1,
    "aliens":1,
    "grateful":1,
    "tour":1,
    "surprise":1,
    "kit":1,
    "caboodle":1,
    "british":1,
    "intelligence":1,
    "agents":1,
    "spies":1,
    "double":1,
    "o":1,
    "rating":1,
    "james":1,
    "bond":1,
    "drink":1,
    "coffee":1,
    "coffees":1,
    "beans":1,
    "fridge":1,
    "stay":1,
    "fresher":1,
    "language":1,
    "knives":1,
    "whisper":1,
    "delicate":1,
    "shadow":1,
    "wanting":1,
    "forgot":1,
    "combination":1,
    "grapefruit":1,
    "juice":1,
    "universe":1,
    "equitation":1,
    "reading":1,
    "theory":1,
    "tuesday":1,
    "third":1,
    "issue":1,
    "struck":1,
    "nerve":1,
    "pissed":1,
    "shuttles":1,
    "stonegeorge":1,
    "bush":1,
    "spokesman":1,
    "national":1,
    "podium":1,
    "shout":1,
    "theyd":1,
    "stones":1,
    "disinformation":1,
    "flunky":1,
    "absolutely":1,
    "unprovable":1,
    "screwed":1,
    "july":1,
    "8":1,
    "1979":1,
    "forces":1,
    "trilateral":1,
    "commission":1,
    "abducted":1,
    "nobel":1,
    "prize":1,
    "winners":1,
    "octogenarians":1,
    "forced":1,
    "gunpoint":1,
    "ejaculate":1,
    "small":1,
    "bottles":1,
    "sperm":1,
    "collected":1,
    "study":1,
    "laboratory":1,
    "beneath":1,
    "headquarters":1,
    "rand":1,
    "corporation":1,
    "santa":1,
    "monica":1,
    "california":1,
    "economy":1,
    "fan":1,
    "copies":1,
    "character":1,
    "wanna":1,
    "favorite":1,
    "picturing":1,
    "kids":1,
    "cliff":1,
    "running":1,
    "catch":1,
    "fell":1,
    "itself":1,
    "rent":1,
    "spare":1,
    "hole":1,
    "backs":1,
    "practicing":1,
    "aluminum":1,
    "firewall":1,
    "designed":1,
    "incinerator":1,
    "leaves":1,
    "untouched":1,
    "eats":1,
    "sleeps":1,
    "gynecologist":1,
    "progress":1,
    "satisfaction":1,
    "painting":1,
    "diary":1,
    "context":1,
    "100":1,
    "bucks":1,
    "leave":1,
    "sing":1,
    "music":1,
    "mostly":1,
    "stand":1,
    "borrow":1,
    "twentyfour":1,
    "eight":1,
    "gonna":1,
    "piss":1,
    "starts":1,
    "pour":1,
    "bladder":1,
    "folks":1,
    "steering":1,
    "wheel":1,
    "thank":1,
    "headache":1,
    "guardian":1,
    "angel":1,
    "ironic":1,
    "seemed":1,
    "possibility":1,
    "violent":1,
    "nature":1,
    "pretending":1,
    "shit":1,
    "outside":1,
    "tactic":1,
    "given":1,
    "desist":1,
    "matters":1,
    "relating":1,
    "discuss":1,
    "nypd":1,
    "report":1,
    "attempt":1,
    "contact":1,
    "perfect":1,
    "oeuvre":1,
    "inclined":1,
    "cooperate":1,
    "cooperating":1,
    "credentials":1,
    "flashed":1,
    "settle":1,
    "switzerland":1,
    "messages":1,
    "forest":1,
    "trees":1,
    "hi":1,
    "husband":1,
    "subscribes":1,
    "renew":1,
    "subscription":1,
    "husbands":1,
    "jill":1,
    "post":1,
    "transfer":1,
    "ad":1,
    "computer":1,
    "bulletin":1,
    "board":1,
    "log":1,
    "library":1,
    "bothering":1,
    "stroke":1,
    "jesus":1,
    "drew":1,
    "black":1,
    "worry":1,
    "able":1,
    "reach":1,
    "hard":1,
    "quiet":1,
    "mouse":1,
    "monitor":1,
    "elaborate":1,
    "groups":1,
    "warring":1,
    "factions":1,
    "families":1,
    "held":1,
    "wealth":1,
    "centuries":1,
    "stability":1,
    "boat":1,
    "rockers":1,
    "eisenhowers":1,
    "military":1,
    "industrial":1,
    "complex":1,
    "instability":1,
    "trillion":1,
    "business":1,
    "hot":1,
    "wars":1,
    "feed":1,
    "terrorists":1,
    "multiply":1,
    "latest":1,
    "casualty":1,
    "ernest":1,
    "richest":1,
    "obituary":1,
    "swimming":1,
    "nobody":1,
    "dies":1,
    "sunny":1,
    "von":1,
    "bulow":1,
    "station":1,
    "billionaire":1,
    "bus":1,
    "hitman":1,
    "atlantis":1,
    "stumble":1,
    "news":1,
    "underwater":1,
    "break":1,
    "spot":1,
    "tower":1,
    "subbasement":1,
    "flooded":1,
    "coroner":1,
    "rhode":1,
    "island":1,
    "lungs":1,
    "chlorinated":1,
    "resolve":1,
    "1000":1,
    "marry":1,
    "oldfashioned":1,
    "magic":1,
    "those":1,
    "nervous":1,
    "grabbed":1,
    "christ":1,
    "eating":1,
    "drinking":1,
    "met":1,
    "dream":1,
    "wondering":1,
    "nows":1,
    "insight":1,
    "loved":1,
    "mugged":1,
    "disconcerting":1,
    "obsession":1,
    "respond":1,
    "ruins":1,
    "mail":1,
    "being":1,
    "forwarded":1,
    "international":1,
    "fund":1,
    "mergers":1,
    "acquisitions":1,
    "indeed":1,
    "feeling":1,
    "partially":1,
    "documented":1,
    "freedom":1,
    "act":1,
    "reasons":1,
    "soon":1,
    "regrettably":1,
    "clear":1,
    "share":1,
    "secrets":1,
    "simply":1,
    "bestow":1,
    "title":1,
    "upon":1,
    "truthll":1,
    "set":1,
    "familiar":1,
    "manchurian":1,
    "candidate":1,
    "vulgar":1,
    "pop":1,
    "ordinary":1,
    "goal":1,
    "1973":1,
    "research":1,
    "renamed":1,
    "distinctive":1,
    "mental":1,
    "flash":1,
    "card":1,
    "experimented":1,
    "hallucinogens":1,
    "electro":1,
    "shock":1,
    "vegetative":1,
    "conducted":1,
    "experiments":1,
    "sensory":1,
    "deprivation":1,
    "resulting":1,
    "pushed":1,
    "minor":1,
    "heretic":1,
    "redblooded":1,
    "cheat":1,
    "steal":1,
    "sanction":1,
    "blessings":1,
    "allhighs":1,
    "besides":1,
    "religion":1,
    "intend":1,
    "extrapolate":1,
    "continue":1,
    "religious":1,
    "experiences":1,
    "ended":1,
    "hinckley":1,
    "ronald":1,
    "science":1,
    "sold":1,
    "pandoras":1,
    "opened":1,
    "children":1,
    "taken":1,
    "employed":1,
    "private":1,
    "sector":1,
    "dangerous":1,
    "belief":1,
    "immaterial":1,
    "important":1,
    "job":1,
    "responsible":1,
    "spy":1,
    "novel":1,
    "words":1,
    "telling":1,
    "denied":1,
    "appeal":1,
    "trial":1,
    "murder":1,
    "holding":1,
    "robbed":1,
    "photo":1,
    "obsessed":1,
    "mine":1,
    "least":1,
    "finally":1,
    "seriously":1,
    "window":1,
    "northeast":1,
    "corner":1,
    "cab":1,
    "poem":1,
    "roses":1,
    "red":1,
    "violets":1,
    "popes":1,
    "scheduled":1,
    "visit":1,
    "follow":1,
    "game":1,
    "rigged":1,
    "beacon":1,
    "lady":1,
    "rolling":1,
    "east":1,
    "fender":1,
    "number":1,
    "1301":1,
    "seventyfive":1,
    "yards":1,
    "threw":1,
    "fair":1,
    "instead":1,
    "flanking":1,
    "chopper":1,
    "headed":1,
    "ground":1,
    "units":1,
    "helicopter":1,
    "hang":1,
    "queens":1,
    "lower":1,
    "level":1,
    "forget":1,
    "mysterious":1,
    "ted":1,
    "bundy":1,
    "berkowitz":1,
    "richard":1,
    "speck":1,
    "serial":1,
    "gunman":1,
    "wilkes":1,
    "booth":1,
    "mark":1,
    "chapman":1,
    "lee":1,
    "harvey":1,
    "everybody":1,
    "johnnys":1,
    "lines":1,
    "open":1,
    "house":1,
    "gold":1,
    "fort":1,
    "knox":1,
    "tennessee":1,
    "postcard":1,
    "george":1,
    "doctor":1,
    "bled":1,
    "fraternity":1,
    "secrecy":1,
    "expose":1,
    "labeled":1,
    "hopeless":1,
    "fallen":1,
    "rode":1,
    "excatcher":1,
    "gunmen":1,
    "court":1,
    "hearing":1,
    "hand":1,
    "whoever":1,
    "wanted":1,
    "stalking":1,
    "felt":1,
    "carrying":1,
    "front":1,
    "hallway":1,
    "showed":1,
    "jonass":1,
    "arrived":1,
    "fall":1,
    "blow":1,
    "nut":1,
    "official":1,
    "called":1,
    "cry":1,
    "truck":1,
    "behind":1,
    "hall":1,
    "minute":1,
    "embarrassed":1,
    "notice":1,
    "arranged":1,
    "harassing":1,
    "investigation":1,
    "evening":1,
    "york":1,
    "lynn":1,
    "matthews":1,
    "disturb":1,
    "monkey":1,
    "finger":1,
    "second":1,
    "fool":1,
    "exponentiate":1,
    "employee":1,
    "bait":1,
    "shown":1,
    "arrested":1,
    "done":1,
    "builds":1,
    "living":1,
    "several":1,
    "whom":1,
    "wed":1,
    "birds":1,
    "honest":1,
    "either":1,
    "suggest":1,
    "paid":1,
    "gotten":1,
    "twelve":1,
    "threatened":1,
    "covered":1,
    "white":1,
    "30s":1,
    "wing":1,
    "lizas":1,
    "guard":1,
    "area":1,
    "moments":1,
    "earlier":1,
    "currently":1,
    "germany":1,
    "quake":1,
    "southern":1,
    "measured":1,
    "sevenpointthree":1,
    "richter":1,
    "scale":1,
    "thousands":1,
    "feared":1,
    "end":1,
    "spent":1,
    "medcart":1,
    "demerol":1,
    "phenobarb":1,
    "jacobs":1,
    "ladder":1,
    "fourth":1,
    "continually":1,
    "amaze":1,
    "true":1,
    "accomplish":1,
    "pocket":1,
    "bill":1,
    "charm":1,
    "changed":1,
    "franklins":1,
    "portrait":1,
    "rosie":1,
    "odonnel":1,
    "ben":1,
    "franklin":1,
    "tells":1,
    "decision":1,
    "leaning":1,
    "toward":1,
    "option":1,
    "ours":1,
    "locked":1,
    "case":1,
    "mention":1,
    "fact":1,
    "condition":1,
    "screw":1,
    "rot":1,
    "closest":1,
    "jd":1,
    "7th":2,
    "pretty":2,
    "lives":2,
    "fly":2,
    "state":2,
    "problems":2,
    "broke":2,
    "damn":2,
    "thinking":2,
    "mains":2,
    "mekong":2,
    "vietnam":2,
    "howard":2,
    "hughes":2,
    "onasis":2,
    "legs":2,
    "choice":2,
    "crush":2,
    "pounding":2,
    "eggs":2,
    "appointment":2,
    "conference":2,
    "sharp":2,
    "wilson":2,
    "thousand":2,
    "assassinated":2,
    "demand":2,
    "best":2,
    "order":2,
    "happen":2,
    "connection":2,
    "major":2,
    "seismic":2,
    "weapon":2,
    "future":2,
    "ride":2,
    "turkey":2,
    "along":2,
    "line":2,
    "motive":2,
    "exactly":2,
    "service":2,
    "himself":2,
    "warn":2,
    "kentucky":2,
    "fried":2,
    "chicken":2,
    "lie":2,
    "sounds":2,
    "summer":2,
    "spooks":2,
    "gone":2,
    "patient":2,
    "great":2,
    "own":2,
    "tonight":2,
    "working":2,
    "hmm":2,
    "blood":2,
    "listen":2,
    "hate":2,
    "minutes":2,
    "pay":2,
    "phone":2,
    "cell":2,
    "phones":2,
    "traced":2,
    "clean":2,
    "touch":2,
    "takes":2,
    "plastic":2,
    "guess":2,
    "charge":2,
    "wound":2,
    "attack":2,
    "downstairs":2,
    "initials":2,
    "body":2,
    "switched":2,
    "saved":2,
    "tracking":2,
    "each":2,
    "other":2,
    "crash":2,
    "cart":2,
    "poor":2,
    "rest":2,
    "foot":2,
    "youd":2,
    "company":2,
    "spleen":2,
    "thinks":2,
    "already":2,
    "term":2,
    "couldve":2,
    "free":2,
    "trained":2,
    "killers":2,
    "edge":2,
    "hinkley":2,
    "copy":2,
    "safety":2,
    "welcome":2,
    "compare":2,
    "notes":2,
    "theyve":2,
    "naked":2,
    "alive":2,
    "try":2,
    "easier":2,
    "than":2,
    "months":2,
    "eleven":2,
    "believed":2,
    "impress":2,
    "boy":2,
    "nights":2,
    "certain":2,
    "questions":2,
    "scary":2,
    "mars":2,
    "program":2,
    "cease":2,
    "fire":2,
    "government":2,
    "money":2,
    "turning":2,
    "pull":2,
    "supposed":2,
    "protect":2,
    "always":2,
    "produce":2,
    "recall":2,
    "hub":2,
    "oliver":2,
    "information":2,
    "face":2,
    "prove":2,
    "security":2,
    "many":2,
    "subscribers":2,
    "five":2,
    "seem":2,
    "list":2,
    "holden":2,
    "caulfield":2,
    "read":2,
    "somewhere":2,
    "probably":2,
    "getting":2,
    "rid":2,
    "moved":2,
    "stuff":2,
    "dr":2,
    "actually":2,
    "hundred":2,
    "wall":2,
    "taking":2,
    "punish":2,
    "run":2,
    "once":2,
    "awhile":2,
    "alley":2,
    "hands":2,
    "partner":2,
    "head":2,
    "intentions":2,
    "bomb":2,
    "looks":2,
    "press":2,
    "sight":2,
    "terminated":2,
    "understood":2,
    "far":2,
    "mrs":2,
    "accident":2,
    "expecting":2,
    "comes":2,
    "van":2,
    "four":2,
    "24":2,
    "passing":2,
    "po":2,
    "realized":2,
    "matter":2,
    "kinds":2,
    "dollar":2,
    "cold":2,
    "create":2,
    "fear":2,
    "airport":2,
    "system":2,
    "country":2,
    "america":2,
    "until":2,
    "manhattan":2,
    "drowned":2,
    "pool":2,
    "subway":2,
    "drown":2,
    "week":2,
    "lyrics":2,
    "reached":2,
    "cocacola":2,
    "holes":2,
    "following":2,
    "paranoid":2,
    "ex":2,
    "terminal":2,
    "envelope":2,
    "missionary":2,
    "penance":2,
    "recognize":2,
    "kept":2,
    "wallet":2,
    "story":2,
    "missing":2,
    "god":2,
    "pope":2,
    "somebody":2,
    "weve":2,
    "bridge":2,
    "connecticut":2,
    "david":2,
    "names":2,
    "lone":2,
    "assassins":2,
    "middle":2,
    "wilsons":2,
    "trace":2,
    "works":2,
    "table":2,
    "visited":2,
    "dying":2,
    "baby":2,
    "step":2,
    "alright":2,
    "everyone":2,
    "seen":2,
    "bureau":2,
    "closed":2,
    "ahead":2,
    "deputy":2,
    "director":2,
    "patients":2,
    "north":2,
    "floor":2,
    "diversion":2,
    "fred":2,
    "mertz":2,
    "saddle":2,
    "sound":3,
    "excuse":3,
    "live":3,
    "whole":3,
    "point":3,
    "listening":3,
    "girl":3,
    "alone":3,
    "main":3,
    "winter":3,
    "war":3,
    "death":3,
    "moment":3,
    "smart":3,
    "sir":3,
    "shes":3,
    "room":3,
    "federal":3,
    "judge":3,
    "whos":3,
    "prison":3,
    "anyhow":3,
    "suttons":3,
    "american":3,
    "six":3,
    "three":3,
    "shuttle":3,
    "testing":3,
    "wish":3,
    "hadnt":3,
    "does":3,
    "tomorrow":3,
    "yesterday":3,
    "enough":3,
    "kind":3,
    "promise":3,
    "world":3,
    "against":3,
    "better":3,
    "dancer":3,
    "ten":3,
    "asked":3,
    "which":3,
    "hope":3,
    "tried":3,
    "easy":3,
    "someones":3,
    "apartment":3,
    "side":3,
    "fine":3,
    "yours":3,
    "under":3,
    "arrest":3,
    "switch":3,
    "charts":3,
    "morning":3,
    "miss":3,
    "attacks":3,
    "expect":3,
    "goddamn":3,
    "shut":3,
    "cover":3,
    "speak":3,
    "jerrys":3,
    "year":3,
    "started":3,
    "may":3,
    "sort":3,
    "deposit":3,
    "buy":3,
    "took":3,
    "theyll":3,
    "another":3,
    "assassin":3,
    "worried":3,
    "worked":3,
    "eye":3,
    "found":3,
    "figured":3,
    "newsletter":3,
    "garcia":3,
    "stone":3,
    "hear":3,
    "part":3,
    "home":3,
    "answer":3,
    "possible":3,
    "fuck":3,
    "honorable":3,
    "shouldnt":3,
    "doesnt":3,
    "somethings":3,
    "ketcham":3,
    "hed":3,
    "st":3,
    "louis":3,
    "whered":3,
    "group":3,
    "goes":3,
    "harriman":3,
    "paper":3,
    "newport":3,
    "couldnt":3,
    "details":3,
    "song":3,
    "whatever":3,
    "justice":3,
    "department":3,
    "impressed":3,
    "john":3,
    "blame":3,
    "pizza":3,
    "bring":3,
    "washington":3,
    "horse":3,
    "emergency":3,
    "sleep":4,
    "gives":4,
    "wings":4,
    "makes":4,
    "same":4,
    "uh":4,
    "drop":4,
    "standing":4,
    "usually":4,
    "friend":4,
    "bet":4,
    "used":4,
    "gotta":4,
    "thanks":4,
    "men":4,
    "hows":4,
    "till":4,
    "talk":4,
    "heard":4,
    "today":4,
    "waiting":4,
    "fault":4,
    "nasa":4,
    "talking":4,
    "normal":4,
    "through":4,
    "johnny":4,
    "times":4,
    "left":4,
    "little":4,
    "after":4,
    "lets":4,
    "repeat":4,
    "myself":4,
    "lucky":4,
    "police":4,
    "sit":4,
    "figure":4,
    "remember":4,
    "control":4,
    "said":4,
    "send":4,
    "fbi":4,
    "ms":4,
    "wait":4,
    "understand":4,
    "um":4,
    "wheres":4,
    "question":4,
    "field":4,
    "says":4,
    "making":4,
    "anyone":4,
    "again":4,
    "inside":4,
    "went":4,
    "truth":4,
    "hold":4,
    "mind":4,
    "hurt":4,
    "reagan":4,
    "howd":4,
    "turn":4,
    "oswald":4,
    "looking":4,
    "days":4,
    "hour":4,
    "oh":4,
    "will":4,
    "our":4,
    "fathers":4,
    "thought":4,
    "safe":4,
    "dad":4,
    "murdered":4,
    "hours":4,
    "next":4,
    "mk":4,
    "ultra":4,
    "new":4,
    "watching":4,
    "top":5,
    "came":5,
    "lost":5,
    "em":5,
    "am":5,
    "ezekiel":5,
    "building":5,
    "wont":5,
    "let":5,
    "space":5,
    "secret":5,
    "before":5,
    "huh":5,
    "wrong":5,
    "place":5,
    "very":5,
    "big":5,
    "bit":5,
    "gun":5,
    "fletcher":5,
    "might":5,
    "sense":5,
    "wouldnt":5,
    "died":5,
    "isnt":5,
    "dog":5,
    "everything":5,
    "work":5,
    "say":5,
    "rye":5,
    "book":5,
    "yet":5,
    "their":5,
    "show":5,
    "things":5,
    "shoot":5,
    "anymore":5,
    "since":5,
    "henry":5,
    "street":6,
    "die":6,
    "must":6,
    "told":6,
    "hell":6,
    "only":6,
    "sorry":6,
    "life":6,
    "flip":6,
    "ago":6,
    "ever":6,
    "every":6,
    "still":6,
    "has":6,
    "conspiracy":6,
    "name":6,
    "knew":6,
    "hey":6,
    "knows":6,
    "coming":6,
    "nose":6,
    "without":6,
    "give":6,
    "these":6,
    "shot":6,
    "happened":6,
    "someone":6,
    "trying":6,
    "idea":6,
    "box":6,
    "nothing":6,
    "havent":6,
    "much":6,
    "please":6,
    "killed":6,
    "finch":6,
    "around":6,
    "father":6,
    "nawne":6,
    "even":7,
    "us":7,
    "moon":7,
    "water":7,
    "mr":7,
    "few":7,
    "by":7,
    "walters":7,
    "president":7,
    "anything":7,
    "more":7,
    "people":7,
    "office":7,
    "guys":7,
    "into":7,
    "take":7,
    "hello":7,
    "yeah":7,
    "heart":7,
    "cia":7,
    "gave":7,
    "catcher":7,
    "watch":7,
    "bad":8,
    "feel":8,
    "blue":8,
    "over":8,
    "long":8,
    "years":8,
    "picture":8,
    "agent":8,
    "wasnt":8,
    "doing":8,
    "put":8,
    "should":8,
    "maybe":8,
    "made":8,
    "lowry":8,
    "car":8,
    "lot":8,
    "away":8,
    "youll":9,
    "yourself":9,
    "would":9,
    "because":9,
    "well":9,
    "make":9,
    "yes":9,
    "night":9,
    "need":9,
    "any":9,
    "id":9,
    "as":9,
    "jonas":9,
    "geronimo":10,
    "really":10,
    "keep":10,
    "theyre":10,
    "youve":10,
    "good":10,
    "too":10,
    "theres":10,
    "believe":10,
    "saw":11,
    "off":11,
    "whats":11,
    "crazy":11,
    "two":11,
    "ive":11,
    "last":11,
    "else":11,
    "help":11,
    "day":11,
    "ask":11,
    "find":11,
    "man":12,
    "some":12,
    "never":12,
    "sure":12,
    "or":12,
    "come":12,
    "kill":12,
    "dead":12,
    "mean":12,
    "first":12,
    "call":13,
    "she":13,
    "her":13,
    "sutton":13,
    "time":13,
    "guy":14,
    "look":14,
    "hes":14,
    "thing":14,
    "way":15,
    "when":15,
    "tell":15,
    "cant":15,
    "did":16,
    "okay":16,
    "ill":16,
    "then":16,
    "his":16,
    "something":16,
    "down":17,
    "no":17,
    "them":18,
    "from":18,
    "could":19,
    "got":19,
    "back":19,
    "now":19,
    "didnt":19,
    "had":19,
    "up":20,
    "at":21,
    "an":21,
    "how":22,
    "there":23,
    "were":24,
    "been":24,
    "love":25,
    "just":25,
    "where":25,
    "right":25,
    "going":25,
    "":25,
    "can":25,
    "want":26,
    "go":26,
    "liza":26,
    "so":27,
    "why":27,
    "all":27,
    "thats":28,
    "we":28,
    "out":28,
    "who":29,
    "youre":30,
    "about":30,
    "like":33,
    "think":33,
    "if":34,
    "get":35,
    "with":36,
    "they":36,
    "here":38,
    "my":38,
    "its":39,
    "have":40,
    "are":40,
    "see":40,
    "one":41,
    "but":42,
    "not":43,
    "your":46,
    "be":48,
    "this":49,
    "im":50,
    "on":53,
    "for":53,
    "he":54,
    "him":57,
    "do":58,
    "jerry":63,
    "is":65,
    "dont":65,
    "know":65,
    "that":73,
    "was":75,
    "and":77,
    "what":79,
    "of":92,
    "me":95,
    "in":101,
    "it":140,
    "a":181,
    "to":196,
    "the":247,
    "i":249,
    "you":351
}