{
    "extreme":1,
    "cu":1,
    "pacman":1,
    "yellow":1,
    "ball":1,
    "mouth":1,
    "fills":1,
    "lores":1,
    "glory":1,
    "tracks":1,
    "corridor":1,
    "gobbling":1,
    "dots":1,
    "whathufuck":1,
    "young":1,
    "irritatingly":1,
    "slick":1,
    "eastern":1,
    "euro":1,
    "sarcastic":1,
    "complete":1,
    "dick":1,
    "shaking":1,
    "somehow":1,
    "resisted":1,
    "urge":1,
    "dismember":1,
    "pieces":1,
    "garbage":1,
    "disposal":1,
    "opting":1,
    "instead":1,
    "sick":1,
    "satisfaction":1,
    "squirm":1,
    "candid":1,
    "embarrass":1,
    "tin":1,
    "wizard":1,
    "oz":1,
    "scarecrow":1,
    "max":1,
    "sexy":1,
    "real":1,
    "twice":1,
    "before":1,
    "whacked":1,
    "eighty":1,
    "thousand":1,
    "cockwipe":1,
    "unless":1,
    "sell":1,
    "absolutely":1,
    "miles":1,
    "thefuck":1,
    "answering":1,
    "service":1,
    "paged":1,
    "within":1,
    "spell":1,
    "h":1,
    "wouldve":1,
    "bastard":1,
    "stones":1,
    "whack":1,
    "crib":1,
    "inconceivable":1,
    "simple":1,
    "sees":1,
    "near":1,
    "sabbath":1,
    "clubhouse":1,
    "olando":1,
    "cap":1,
    "refrain":1,
    "sudden":1,
    "blow":1,
    "brains":1,
    "toilet":1,
    "civilized":1,
    "manner":1,
    "question":1,
    "affiliated":1,
    "beginning":1,
    "clarify":1,
    "discussion":1,
    "lead":1,
    "clarity":1,
    "clearly":1,
    "operating":1,
    "false":1,
    "pretense":1,
    "myself":1,
    "owes":1,
    "seventy":1,
    "hunna":1,
    "knew":1,
    "beating":1,
    "gucci":1,
    "tandoff":1,
    "unsteady":1,
    "studying":1,
    "orlandos":1,
    "evaluating":1,
    "resembles":1,
    "civility":1,
    "abundantly":1,
    "us":1,
    "insulting":1,
    "medicinal":1,
    "hat":1,
    "hy":1,
    "hired":1,
    "ah":1,
    "situation":1,
    "okay":1,
    "exactly":1,
    "kick":1,
    "goes":1,
    "meat":1,
    "int":1,
    "23":1,
    "speeding":1,
    "weaving":1,
    "erratically":1,
    "traffic":1,
    "sweating":1,
    "panting":1,
    "ude":1,
    "eah":1,
    "hooking":1,
    "mystery":1,
    "girl":1,
    "banging":1,
    "underground":1,
    "gay":1,
    "bond":1,
    "rape":1,
    "grandmother":1,
    "finds":1,
    "history":1,
    "squad":1,
    "cherry":1,
    "top":1,
    "flashing":1,
    "broadcasting":1,
    "warning":1,
    "intercom":1,
    "arlito":1,
    "carlitos":1,
    "grade":1,
    "lever":1,
    "snappy":1,
    "admit":1,
    "doubt":1,
    "answer":1,
    "picks":1,
    "describe":1,
    "symptoms":1,
    "caught":1,
    "tar":1,
    "pit":1,
    "blurred":1,
    "vision":1,
    "dizziness":1,
    "ure":1,
    "pain":1,
    "driving":1,
    "mall":1,
    "chasing":1,
    "keeping":1,
    "trouble":1,
    "hearing":1,
    "explain":1,
    "beijing":1,
    "cocktail":1,
    "nasty":1,
    "adrenal":1,
    "gland":1,
    "blocking":1,
    "constant":1,
    "hops":1,
    "ear":1,
    "takes":1,
    "second":1,
    "floor":1,
    "riding":1,
    "smashed":1,
    "escalator":1,
    "anything":1,
    "couple":1,
    "grams":1,
    "land":1,
    "pumped":1,
    "gives":1,
    "slip":1,
    "yo":1,
    "straight":1,
    "pulls":1,
    "california":1,
    "roller":1,
    "tires":1,
    "peel":1,
    "music":1,
    "anywhere":1,
    "cowboy":1,
    "move":1,
    "ahhhhhhhhhh":1,
    "beverly":1,
    "hills":1,
    "surprised":1,
    "urgent":1,
    "ha":1,
    "happened":1,
    "travels":1,
    "amaze":1,
    "friend":1,
    "honestly":1,
    "already":1,
    "horses":1,
    "expect":1,
    "fuckin":1,
    "feed":1,
    "`em":1,
    "cage":1,
    "wolverines":1,
    "boys":1,
    "small":1,
    "knows":1,
    "score":1,
    "which":1,
    "perhaps":1,
    "heat":1,
    "anticipated":1,
    "outstanding":1,
    "being":1,
    "noticed":1,
    "re":1,
    "disrespecting":1,
    "orget":1,
    "wet":1,
    "200":1,
    "ladies":1,
    "included":1,
    "dogpile":1,
    "poor":1,
    "wildly":1,
    "protesting":1,
    "thick":1,
    "america":1,
    "bush":1,
    "flights":1,
    "delayed":1,
    "xcitement":1,
    "fear":1,
    "danger":1,
    "causes":1,
    "manufacture":1,
    "binds":1,
    "theyve":1,
    "done":1,
    "introduce":1,
    "blocks":1,
    "bodys":1,
    "bind":1,
    "killing":1,
    "massively":1,
    "increase":1,
    "level":1,
    "force":1,
    "inhibitors":1,
    "english":1,
    "emergency":1,
    "milligram":1,
    "syringes":1,
    "potent":1,
    "overdo":1,
    "injection":1,
    "nephrin":1,
    "epinephrin":1,
    "uh":1,
    "veronas":1,
    "interesting":1,
    "went":1,
    "ago":1,
    "across":1,
    "flower":1,
    "motioning":1,
    "lright":1,
    "ghost":1,
    "awesome":1,
    "iraqi":1,
    "prisoner":1,
    "wonder":1,
    "many":1,
    "steaks":1,
    "lex":1,
    "knees":1,
    "burst":1,
    "energy":1,
    "throws":1,
    "himself":1,
    "smashes":1,
    "alley":1,
    "lands":1,
    "full":1,
    "weight":1,
    "nothings":1,
    "hands":1,
    "whadya":1,
    "sucking":1,
    "ya":1,
    "mood":1,
    "lick":1,
    "sumtink":1,
    "brothers":1,
    "figured":1,
    "supposed":1,
    "struggling":1,
    "heinous":1,
    "threat":1,
    "necklace":1,
    "faggots":1,
    "grandfather":1,
    "medallion":1,
    "father":1,
    "realizing":1,
    "hang":1,
    "after":1,
    "milligrams":1,
    "shakes":1,
    "`e":1,
    "england":1,
    "problems":1,
    "tweaked":1,
    "motherfuckers":1,
    "wanted":1,
    "juice":1,
    "syringe":1,
    "fire":1,
    "cold":1,
    "steel":1,
    "stimulation":1,
    "vessels":1,
    "knot":1,
    "couldnt":1,
    "pee":1,
    "vicadin":1,
    "hospital":1,
    "negative":1,
    "weed":1,
    "costing":1,
    "fortune":1,
    "ground":1,
    "kid":1,
    "declined":1,
    "release":1,
    "name":1,
    "hollywood":1,
    "citywide":1,
    "dozens":1,
    "injured":1,
    "hundreds":1,
    "thousands":1,
    "property":1,
    "damage":1,
    "smoking":1,
    "bloody":1,
    "wake":1,
    "however":1,
    "eyewitness":1,
    "news":1,
    "learned":1,
    "killer":1,
    "ties":1,
    "organized":1,
    "extensive":1,
    "record":1,
    "considered":1,
    "armed":1,
    "highly":1,
    "dangerous":1,
    "our":1,
    "regularly":1,
    "scheduled":1,
    "programming":1,
    "tuned":1,
    "abc":1,
    "continuing":1,
    "coverage":1,
    "bizarre":1,
    "story":1,
    "unfolds":1,
    "return":1,
    "dr":1,
    "phil":1,
    "69":1,
    "stunned":1,
    "silence":1,
    "foodcovered":1,
    "wander":1,
    "dazed":1,
    "shock":1,
    "arm":1,
    "clutching":1,
    "sticks":1,
    "table":1,
    "ring":1,
    "home":1,
    "super":1,
    "rested":1,
    "fatally":1,
    "psychopath":1,
    "heading":1,
    "torture":1,
    "bother":1,
    "bed":1,
    "flash":1,
    "fry":1,
    "kay":1,
    "completely":1,
    "appalling":1,
    "turned":1,
    "tv":1,
    "today":1,
    "freak":1,
    "daylight":1,
    "savings":1,
    "bought":1,
    "flowers":1,
    "sweet":1,
    "drugs":1,
    "wearing":1,
    "irons":1,
    "stressed":1,
    "pot":1,
    "burned":1,
    "worry":1,
    "totally":1,
    "uncalled":1,
    "parked":1,
    "turn":1,
    "building":1,
    "aww":1,
    "swear":1,
    "these":1,
    "yours":1,
    "embarrassing":1,
    "lot":1,
    "pick":1,
    "hm":1,
    "programmer":1,
    "lie":1,
    "hitman":1,
    "freelance":1,
    "major":1,
    "coast":1,
    "syndicate":1,
    "others":1,
    "high":1,
    "special":1,
    "nowhere":1,
    "idea":1,
    "45":1,
    "slug":1,
    "close":1,
    "range":1,
    "heavy":1,
    "paralyzed":1,
    "indecision":1,
    "congratulations":1,
    "win":1,
    "jackass":1,
    "grand":1,
    "sooner":1,
    "happen":1,
    "nstead":1,
    "disappear":1,
    "invisible":1,
    "ask":1,
    "work":1,
    "buddah":1,
    "business":1,
    "everything":1,
    "plane":1,
    "shrugs":1,
    "mob":1,
    "hits":1,
    "ridiculous":1,
    "least":1,
    "sounds":1,
    "scaring":1,
    "trust":1,
    "itll":1,
    "kidding":1,
    "spontaneous":1,
    "soul":1,
    "filthy":1,
    "animal":1,
    "front":1,
    "joking":1,
    "sweats":1,
    "presses":1,
    "knife":1,
    "closer":1,
    "throat":1,
    "shirt":1,
    "factory":1,
    "upstairs":1,
    "finishes":1,
    "zipping":1,
    "shh":1,
    "sight":1,
    "ten":1,
    "turns":1,
    "attention":1,
    "step":1,
    "gonna":1,
    "drink":1,
    "haitian":1,
    "plant":1,
    "laughing":1,
    "power":1,
    "grimacing":1,
    "tastes":1,
    "hevs":1,
    "glazed":1,
    "staring":1,
    "window":1,
    "whatd":1,
    "wow":1,
    "fifty":1,
    "coincidence":1,
    "ding":1,
    "ike":1,
    "ordered":1,
    "ow":1,
    "kills":1,
    "purse":1,
    "birth":1,
    "pill":1,
    "heres":1,
    "keys":1,
    "ve":1,
    "her":1,
    "shes":1,
    "them":1,
    "werent":1,
    "lying":1,
    "welcome":1,
    "slows":1,
    "finish":1,
    "started":1,
    "asleep":1,
    "theyre":1,
    "christ":1,
    "leg":1,
    "ello":1,
    "holy":1,
    "reach":1,
    "owe":1,
    "customer":1,
    "diluted":1,
    "saline":1,
    "sort":1,
    "also":1,
    "meth":1,
    "endorphins":1,
    "rushing":1,
    "shape":1,
    "stunning":1,
    "punishment":1,
    "medical":1,
    "journal":1,
    "solution":1,
    "giving":1,
    "acting":1,
    "competitive":1,
    "replaces":1,
    "temporary":1,
    "fix":1,
    "support":1,
    "string":1,
    "almost":1,
    "certainly":1,
    "lapse":1,
    "coma":1,
    "does":1,
    "she":1,
    "television":1,
    "f":1,
    "load":1,
    "beautiful":1,
    "27":1,
    "127":1,
    "wild":1,
    "began":1,
    "morning":1,
    "los":1,
    "angeles":1,
    "continues":1,
    "mysterious":1,
    "shoulda":1,
    "corpse":1,
    "might":1,
    "mental":1,
    "prepared":1,
    "jewelry":1,
    "faggot":1,
    "cocksucker":1,
    "hmmm":1,
    "thinking":1,
    "trade":1,
    "whore":1,
    "alone":1,
    "scared":1,
    "safe":1,
    "happening":1,
    "amazed":1,
    "remember":1,
    "write":1,
    "ran":1,
    "16":1,
    "popping":1,
    "valium":1,
    "tic":1,
    "tacs":1,
    "balling":1,
    "weeks":1,
    "stick":1,
    "entertainment":1,
    "hurtful":1,
    "period":1,
    "orlando":1,
    "ou":1,
    "persistent":1,
    "sometime":1,
    "michael":1,
    "myers":1,
    "pop":1,
    "gettin":1,
    "terminator":1,
    "def":1,
    "lepard":1,
    "aka":1,
    "legs":1,
    "bipolar":1,
    "sadomasochistic":1,
    "tendencies":1,
    "addicted":1,
    "violence":1,
    "spends":1,
    "thrill":1,
    "rush":1,
    "while":1,
    "screams":1,
    "excrement":1,
    "gift":1,
    "warriors":1,
    "rehearse":1,
    "winding":1,
    "inevitable":1,
    "nonnegotiable":1,
    "until":1,
    "starting":1,
    "pills":1,
    "everyones":1,
    "mess":1,
    "sit":1,
    "goons":1,
    "by":1,
    "door":1,
    "pat":1,
    "clever":1,
    "pump":1,
    "basically":1,
    "resourceful":1,
    "found":1,
    "master":1,
    "hires":1,
    "used":1,
    "throw":1,
    "reacharound":1,
    "show":1,
    "end":1,
    "agree":1,
    "quite":1,
    "nicely":1,
    "bullet":1,
    "goat":1,
    "truly":1,
    "personal":1,
    "dudes":1,
    "gone":1,
    "dipsy":1,
    "doodle":1,
    "psycho":1,
    "afraid":1,
    "houdini":1,
    "act":1,
    "booosh":1,
    "ourfather":1,
    "whoartinheaven":1,
    "hallowedbethy":1,
    "presto":1,
    "ronnie":1,
    "dio":1,
    "moved":1,
    "surround":1,
    "hotel":1,
    "unidentified":1,
    "madman":1,
    "believed":1,
    "holed":1,
    "making":1,
    "desperate":1,
    "stand":1,
    "present":1,
    "whos":1,
    "hatchet":1,
    "remove":1,
    "friends":1,
    "forehead":1,
    "confucius":1,
    "swoons":1,
    "roll":1,
    "limp":1,
    "backwards":1,
    "reflect":1,
    "smell":1,
    "roses":1,
    "greatest":1,
    "old":2,
    "video":2,
    "game":2,
    "screen":2,
    "rolls":2,
    "2":2,
    "accent":2,
    "douchebag":2,
    "heads":2,
    "watching":2,
    "tape":2,
    "means":2,
    "shove":2,
    "sleep":2,
    "knowing":2,
    "heartbeat":2,
    "slowing":2,
    "rust":2,
    "veins":2,
    "freaking":2,
    "brain":2,
    "tough":2,
    "shouldve":2,
    "experiencing":2,
    "2020":2,
    "hindsight":2,
    "dollar":2,
    "ride":2,
    "called":2,
    "because":2,
    "interested":2,
    "times":2,
    "beg":2,
    "pardon":2,
    "fine":2,
    "c":2,
    "uhh":2,
    "wanna":2,
    "killed":2,
    "idiot":2,
    "yet":2,
    "word":2,
    "anyone":2,
    "black":2,
    "prefer":2,
    "any":2,
    "bullshit":2,
    "ilence":2,
    "sound":2,
    "pumping":2,
    "discuss":2,
    "under":2,
    "fact":2,
    "forget":2,
    "made":2,
    "clear":2,
    "carrying":2,
    "telling":2,
    "anyway":2,
    "seems":2,
    "wouldnt":2,
    "mans":2,
    "wants":2,
    "3":2,
    "hard":2,
    "ey":2,
    "arent":2,
    "coming":2,
    "soon":2,
    "james":2,
    "left":2,
    "crew":2,
    "control":2,
    "behind":2,
    "since":2,
    "3rd":2,
    "part":2,
    "must":2,
    "pushes":2,
    "synthetic":2,
    "feels":2,
    "chest":2,
    "feeling":2,
    "cops":2,
    "flow":2,
    "having":2,
    "moving":2,
    "e":2,
    "meaning":2,
    "start":2,
    "taken":2,
    "la":2,
    "cabbie":2,
    "crank":2,
    "weve":2,
    "wish":2,
    "miracle":2,
    "punk":2,
    "opportunity":2,
    "everyone":2,
    "even":2,
    "advised":2,
    "hong":2,
    "kong":2,
    "than":2,
    "al":2,
    "qeada":2,
    "relax":2,
    "mean":2,
    "cutting":2,
    "body":2,
    "chemical":2,
    "inhibitor":2,
    "system":2,
    "shot":2,
    "room":2,
    "comes":2,
    "10":2,
    "fifth":2,
    "epi":2,
    "saw":2,
    "charlie":2,
    "os":2,
    "taco":2,
    "meet":2,
    "mother":2,
    "onto":2,
    "wall":2,
    "chance":2,
    "guys":2,
    "taking":2,
    "heart":2,
    "nasal":2,
    "spray":2,
    "cart":2,
    "needles":2,
    "urinary":2,
    "sphincter":2,
    "live":2,
    "twenty":2,
    "large":2,
    "rampage":2,
    "professional":2,
    "crime":2,
    "9":2,
    "hangs":2,
    "few":2,
    "around":2,
    "sleeping":2,
    "doll":2,
    "boyfriend":2,
    "such":2,
    "change":2,
    "wrong":2,
    "clothes":2,
    "burn":2,
    "days":2,
    "hundred":2,
    "insane":2,
    "kims":2,
    "waiting":2,
    "town":2,
    "care":2,
    "48":2,
    "hours":2,
    "figure":2,
    "weird":2,
    "trip":2,
    "break":2,
    "truth":2,
    "always":2,
    "junkie":2,
    "same":2,
    "hardcore":2,
    "devil":2,
    "spot":2,
    "true":2,
    "stay":2,
    "gesturing":2,
    "better":2,
    "seen":2,
    "ticking":2,
    "dream":2,
    "standard":2,
    "promise":2,
    "mom":2,
    "two":2,
    "big":2,
    "insulin":2,
    "gets":2,
    "fly":2,
    "camera":3,
    "cut":3,
    "fast":3,
    "try":3,
    "message":3,
    "doctor":3,
    "office":3,
    "isnt":3,
    "own":3,
    "copy":3,
    "moments":3,
    "nobodys":3,
    "calm":3,
    "chevs":3,
    "anselmo":3,
    "together":3,
    "things":3,
    "works":3,
    "dollars":3,
    "holds":3,
    "eyes":3,
    "dude":3,
    "dying":3,
    "assholes":3,
    "trigger":3,
    "course":3,
    "shits":3,
    "youd":3,
    "blah":3,
    "guess":3,
    "best":3,
    "hev":3,
    "crazy":3,
    "boss":3,
    "should":3,
    "damn":3,
    "cab":3,
    "restaurant":3,
    "artificial":3,
    "will":3,
    "feel":3,
    "hear":3,
    "enough":3,
    "starts":3,
    "yep":3,
    "air":3,
    "took":3,
    "sure":3,
    "save":3,
    "half":3,
    "long":3,
    "police":3,
    "west":3,
    "suspect":3,
    "people":3,
    "speak":3,
    "waffle":3,
    "other":3,
    "clock":3,
    "microwave":3,
    "changed":3,
    "darn":3,
    "chinatown":3,
    "fall":3,
    "pay":3,
    "tight":4,
    "id":4,
    "poison":4,
    "heard":4,
    "poisoned":4,
    "yourself":4,
    "only":4,
    "whatever":4,
    "point":4,
    "guy":4,
    "kim":4,
    "death":4,
    "glad":4,
    "leave":4,
    "cell":4,
    "talk":4,
    "thank":4,
    "night":4,
    "son":4,
    "who":4,
    "ext":4,
    "street":4,
    "white":4,
    "am":4,
    "pulled":4,
    "pull":4,
    "five":4,
    "gotta":4,
    "every":4,
    "use":4,
    "whoa":4,
    "working":4,
    "through":4,
    "forgot":4,
    "whole":4,
    "funny":4,
    "boy":4,
    "havent":4,
    "woah":4,
    "slow":4,
    "very":4,
    "receptors":4,
    "quit":4,
    "difficult":4,
    "huh":4,
    "downtown":4,
    "hes":4,
    "hold":4,
    "thanks":4,
    "shut":4,
    "hate":4,
    "lets":4,
    "crackhead":4,
    "deal":4,
    "late":4,
    "along":5,
    "nothing":5,
    "hit":5,
    "may":5,
    "sir":5,
    "hello":5,
    "kaylo":5,
    "put":5,
    "actually":5,
    "later":5,
    "gun":5,
    "believe":5,
    "make":5,
    "job":5,
    "easy":5,
    "kill":5,
    "again":5,
    "great":5,
    "pretty":5,
    "new":5,
    "kind":5,
    "blood":5,
    "alive":5,
    "need":5,
    "antidote":5,
    "could":5,
    "love":5,
    "bro":5,
    "ephedrine":5,
    "too":5,
    "head":5,
    "stuff":5,
    "told":5,
    "thought":6,
    "minutes":6,
    "theres":6,
    "fucked":6,
    "don":6,
    "jesus":6,
    "eve":6,
    "trying":6,
    "phone":6,
    "would":6,
    "getting":6,
    "looking":6,
    "wheres":6,
    "cool":6,
    "hand":6,
    "coke":6,
    "really":6,
    "car":6,
    "carlito":6,
    "over":6,
    "gave":6,
    "much":6,
    "day":6,
    "looks":6,
    "youll":6,
    "check":6,
    "still":6,
    "from":7,
    "last":7,
    "had":7,
    "hour":7,
    "baby":7,
    "probably":7,
    "asshole":7,
    "help":7,
    "sorry":7,
    "please":7,
    "cant":7,
    "said":7,
    "listen":7,
    "find":7,
    "fuck":7,
    "chevy":7,
    "has":7,
    "youve":7,
    "brother":7,
    "chinese":7,
    "doc":7,
    "when":7,
    "more":7,
    "didnt":7,
    "stop":7,
    "one":7,
    "minute":7,
    "epinephrine":7,
    "life":7,
    "never":7,
    "nice":8,
    "yes":8,
    "doing":8,
    "understand":8,
    "motherfucker":8,
    "ass":8,
    "matter":8,
    "hell":8,
    "they":8,
    "god":8,
    "talking":9,
    "fucking":9,
    "let":9,
    "take":9,
    "why":9,
    "way":9,
    "die":9,
    "then":10,
    "wait":10,
    "thing":10,
    "tell":10,
    "into":10,
    "good":10,
    "adrenaline":10,
    "ive":10,
    "keep":10,
    "off":10,
    "as":11,
    "give":11,
    "maybe":11,
    "been":11,
    "chelios":11,
    "say":11,
    "an":12,
    "call":12,
    "back":12,
    "were":12,
    "look":12,
    "ricky":13,
    "him":13,
    "well":13,
    "bitch":14,
    "did":14,
    "time":14,
    "or":14,
    "alright":14,
    "want":14,
    "little":15,
    "see":15,
    "go":15,
    "dead":16,
    "how":16,
    "hey":16,
    "think":16,
    "at":17,
    "there":17,
    "if":18,
    "was":18,
    "about":18,
    "his":18,
    "all":19,
    "come":19,
    "whats":20,
    "ok":20,
    "down":21,
    "something":22,
    "man":23,
    "he":23,
    "oh":23,
    "verona":24,
    "no":24,
    "have":24,
    "where":24,
    "we":24,
    "some":24,
    "ill":24,
    "but":26,
    "going":26,
    "not":27,
    "yeah":28,
    "shit":28,
    "can":29,
    "here":29,
    "get":30,
    "chev":30,
    "now":30,
    "be":30,
    "just":32,
    "its":32,
    "with":33,
    "so":33,
    "up":34,
    "out":34,
    "do":34,
    "got":34,
    "my":34,
    "know":35,
    "dont":36,
    "right":38,
    "are":38,
    "like":40,
    "and":41,
    "your":41,
    "on":42,
    "for":43,
    "thats":45,
    "youre":46,
    "this":52,
    "of":54,
    "im":54,
    "in":58,
    "is":68,
    "that":77,
    "me":78,
    "what":80,
    "it":88,
    "a":128,
    "to":141,
    "the":154,
    "i":155,
    "":162,
    "you":306
}