{
    "looking":1,
    "producer":1,
    "epic":1,
    "stamp":1,
    "tracking":1,
    "shot":1,
    "itll":1,
    "aircraft":1,
    "hangar":1,
    "walked":1,
    "girl":1,
    "interrupted":1,
    "set":1,
    "poor":1,
    "arrange":1,
    "seduce":1,
    "desperately":1,
    "needs":1,
    "conquest":1,
    "thank":1,
    "action":1,
    "consider":1,
    "ward":1,
    "reserved":1,
    "aircrash":1,
    "victims":1,
    "beds":1,
    "kept":1,
    "groundloop":1,
    "during":1,
    "flying":1,
    "lesson":1,
    "saturday":1,
    "wake":1,
    "buzzing":1,
    "gift":1,
    "aeronautical":1,
    "celebrate":1,
    "licence":1,
    "aircharter":1,
    "firm":1,
    "getting":1,
    "somewhere":1,
    "patient":1,
    "hallways":1,
    "chemical":1,
    "engineer":1,
    "food":1,
    "company":1,
    "smoking":1,
    "gentlemans":1,
    "mrs":1,
    "stay":1,
    "aida":1,
    "telephoned":1,
    "sorry":1,
    "storyboards":1,
    "changes":1,
    "wheres":1,
    "outside":1,
    "visitors":1,
    "brought":1,
    "complete":1,
    "wreck":1,
    "dragged":1,
    "pound":1,
    "behind":1,
    "sergeant":1,
    "asked":1,
    "identify":1,
    "gotten":1,
    "alive":1,
    "bombarded":1,
    "endlessly":1,
    "roadsafety":1,
    "propaganda":1,
    "relief":1,
    "actual":1,
    "victim":1,
    "both":1,
    "front":1,
    "engine":1,
    "section":1,
    "bowing":1,
    "floor":1,
    "marked":1,
    "hood":1,
    "streamers":1,
    "lace":1,
    "running":1,
    "windshieldwiper":1,
    "gutters":1,
    "flecks":1,
    "spattered":1,
    "across":1,
    "steering":1,
    "wheel":1,
    "instrument":1,
    "panel":1,
    "buckled":1,
    "inwards":1,
    "clock":1,
    "speedometer":1,
    "dials":1,
    "cabin":1,
    "deformed":1,
    "dust":1,
    "glass":1,
    "plastic":1,
    "flakes":1,
    "inside":1,
    "carpeting":1,
    "damp":1,
    "stank":1,
    "machine":1,
    "fluids":1,
    "funeral":1,
    "bury":1,
    "quickly":1,
    "lying":1,
    "months":1,
    "woman":1,
    "visited":1,
    "tells":1,
    "rent":1,
    "sit":1,
    "balcony":1,
    "forever":1,
    "potted":1,
    "plant":1,
    "legs":1,
    "barely":1,
    "heavier":1,
    "three":1,
    "many":1,
    "along":1,
    "handling":1,
    "tiring":1,
    "amazed":1,
    "shell":1,
    "envious":1,
    "am":1,
    "office":1,
    "allowed":1,
    "park":1,
    "exception":1,
    "patch":1,
    "looks":1,
    "motor":1,
    "oil":1,
    "remember":1,
    "love":1,
    "involving":1,
    "detective":1,
    "done":1,
    "exact":1,
    "old":1,
    "planning":1,
    "another":1,
    "manage":1,
    "alone":1,
    "charless":1,
    "holding":1,
    "their":1,
    "forensic":1,
    "morning":1,
    "tear":1,
    "gloves":1,
    "surprised":1,
    "difficult":1,
    "each":1,
    "fact":1,
    "appalled":1,
    "pay":1,
    "small":1,
    "fee":1,
    "scrapped":1,
    "somehow":1,
    "soon":1,
    "doctors":1,
    "family":1,
    "patients":1,
    "doubly":1,
    "uneasy":1,
    "reassure":1,
    "bloody":1,
    "kimono":1,
    "immigration":1,
    "cigarette":1,
    "smoke":1,
    "stupid":1,
    "worse":1,
    "extraordinary":1,
    "feeling":1,
    "gathering":1,
    "reason":1,
    "ten":1,
    "imagining":1,
    "bought":1,
    "yourself":1,
    "shape":1,
    "colour":1,
    "turn":1,
    "wont":1,
    "busy":1,
    "enjoy":1,
    "burying":1,
    "heavy":1,
    "yesterday":1,
    "hired":1,
    "taxidriver":1,
    "hour":1,
    "anywhere":1,
    "sat":1,
    "massive":1,
    "jam":1,
    "under":1,
    "ramp":1,
    "moved":1,
    "fifty":1,
    "yards":1,
    "job":1,
    "officer":1,
    "salary":1,
    "larger":1,
    "certain":1,
    "moral":1,
    "virtue":1,
    "materialistic":1,
    "approach":1,
    "simulate":1,
    "point":1,
    "remotely":1,
    "aware":1,
    "duty":1,
    "commitment":1,
    "probably":1,
    "because":1,
    "complimentary":1,
    "ticket":1,
    "stuntdriving":1,
    "definitely":1,
    "auto":1,
    "map":1,
    "packet":1,
    "note":1,
    "requesting":1,
    "discreet":1,
    "location":1,
    "suspect":1,
    "involves":1,
    "reenactments":1,
    "albert":1,
    "camus":1,
    "kidding":1,
    "serious":1,
    "female":1,
    "dummy":1,
    "dropped":1,
    "jealous":1,
    "intense":1,
    "experience":1,
    "together":1,
    "weve":1,
    "few":1,
    "ourselves":1,
    "confident":1,
    "words":1,
    "young":1,
    "piloted":1,
    "550":1,
    "spyder":1,
    "date":1,
    "lonely":1,
    "stretch":1,
    "twolane":1,
    "blacktop":1,
    "route":1,
    "466":1,
    "1955":1,
    "september":1,
    "thirtieth":1,
    "far":1,
    "popular":1,
    "real":1,
    "available":1,
    "free":1,
    "charge":1,
    "quite":1,
    "legal":1,
    "advertise":1,
    "bastard":1,
    "130":1,
    "painted":1,
    "announcer":1,
    "talked":1,
    "photographer":1,
    "every":1,
    "conceivable":1,
    "detail":1,
    "met":1,
    "specialist":1,
    "international":1,
    "computerized":1,
    "systems":1,
    "second":1,
    "former":1,
    "colin":1,
    "will":1,
    "replica":1,
    "shall":1,
    "play":1,
    "role":1,
    "sent":1,
    "factory":1,
    "zuffenhausen":1,
    "fated":1,
    "die":1,
    "twenty":1,
    "six":1,
    "years":1,
    "third":1,
    "ways":1,
    "most":1,
    "important":1,
    "party":1,
    "college":1,
    "student":1,
    "played":1,
    "movie":1,
    "brett":1,
    "trask":1,
    "fresno":1,
    "weekend":1,
    "automobile":1,
    "salinas":1,
    "dusty":1,
    "town":1,
    "northern":1,
    "two":1,
    "meet":1,
    "legend":1,
    "notice":1,
    "helmets":1,
    "padding":1,
    "equipped":1,
    "roll":1,
    "cages":1,
    "seatbelts":1,
    "depend":1,
    "solely":1,
    "skill":1,
    "bring":1,
    "ultimate":1,
    "authenticity":1,
    "fatal":1,
    "thrown":1,
    "spent":1,
    "recovering":1,
    "injuries":1,
    "wandering":1,
    "daze":1,
    "basically":1,
    "unhurt":1,
    "dizzy":1,
    "stand":1,
    "stunt":1,
    "genuinely":1,
    "illegal":1,
    "unauthorized":1,
    "automotive":1,
    "demonstration":1,
    "contravention":1,
    "highway":1,
    "liable":1,
    "fines":1,
    "possible":1,
    "arrest":1,
    "confinement":1,
    "hit":1,
    "balance":1,
    "seriously":1,
    "transport":1,
    "internal":1,
    "politics":1,
    "joke":1,
    "idea":1,
    "glib":1,
    "resist":1,
    "happened":1,
    "lie":1,
    "perfectly":1,
    "nauseous":1,
    "concussion":1,
    "ah":1,
    "familiar":1,
    "arent":1,
    "details":1,
    "decapitation":1,
    "embedded":1,
    "windshield":1,
    "chihuahuas":1,
    "figured":1,
    "ready":1,
    "tits":1,
    "crowd":1,
    "cut":1,
    "crushed":1,
    "dashboard":1,
    "workshop":1,
    "missing":1,
    "nerve":1,
    "centre":1,
    "everything":1,
    "crime":1,
    "book":1,
    "study":1,
    "sensational":1,
    "documentary":1,
    "intimately":1,
    "involved":1,
    "own":1,
    "excited":1,
    "enjoyed":1,
    "ask":1,
    "fucked":1,
    "women":1,
    "huge":1,
    "smell":1,
    "attractive":1,
    "pale":1,
    "covered":1,
    "scars":1,
    "fuck":1,
    "scarred":1,
    "motorcycle":1,
    "circumcised":1,
    "sodomize":1,
    "put":1,
    "thrust":1,
    "reach":1,
    "unzip":1,
    "greasy":1,
    "jeans":1,
    "suck":1,
    "hand":1,
    "sucked":1,
    "tastes":1,
    "tasted":1,
    "saltier":1,
    "others":1,
    "vaughans":1,
    "salty":1,
    "finish":1,
    "story":1,
    "junior":1,
    "pathologist":1,
    "ashford":1,
    "colleague":1,
    "mine":1,
    "trainee":1,
    "radiologist":1,
    "manager":1,
    "garage":1,
    "men":1,
    "plan":1,
    "fantasize":1,
    "photographing":1,
    "acts":1,
    "felt":1,
    "paper":1,
    "stuff":1,
    "giving":1,
    "terrific":1,
    "mechanisms":1,
    "occupant":1,
    "ejection":1,
    "tolerances":1,
    "impacts":1,
    "monitors":1,
    "showing":1,
    "slow":1,
    "motion":1,
    "always":1,
    "crashed":1,
    "history":1,
    "camuss":1,
    "facel":1,
    "vega":1,
    "nathaniel":1,
    "wests":1,
    "wagon":1,
    "grace":1,
    "kellys":1,
    "rover":1,
    "3500":1,
    "fix":1,
    "rolling":1,
    "touch":1,
    "anything":1,
    "else":1,
    "kennedys":1,
    "assassination":1,
    "satisfying":1,
    "future":1,
    "benevolent":1,
    "beckons":1,
    "towards":1,
    "example":1,
    "fertilizing":1,
    "destructive":1,
    "event":1,
    "liberation":1,
    "sexual":1,
    "energy":1,
    "mediates":1,
    "sexuality":1,
    "intensity":1,
    "impossible":1,
    "fully":1,
    "crude":1,
    "scifi":1,
    "concept":1,
    "floats":1,
    "surface":1,
    "threaten":1,
    "use":1,
    "resilience":1,
    "potential":1,
    "partners":1,
    "rid":1,
    "blowing":1,
    "urethra":1,
    "friends":1,
    "hard":1,
    "thanks":1,
    "questioning":1,
    "near":1,
    "pedestrian":1,
    "run":1,
    "intentionally":1,
    "interested":1,
    "pedestrians":1,
    "bit":1,
    "shaky":1,
    "follow":1,
    "worried":1,
    "mansfields":1,
    "perfect":1,
    "wonder":1,
    "document":1,
    "through":1,
    "pool":1,
    "stop":1,
    "may":1,
    "impound":1,
    "while":1,
    "analyzed":1,
    "allnight":1,
    "carwash":1,
    "area":1,
    "interests":1,
    "sports":1,
    "model":1,
    "fit":1,
    "designed":1,
    "normal":1,
    "somebody":1,
    "hello":1,
    "talk":1,
    "making":1,
    "tattoos":1,
    "supposed":1,
    "personal":1,
    "difference":1,
    "lessons":1,
    "week":1,
    "parkinglot":1,
    "deliberate":1,
    "courting":1,
    "everyone":1,
    "theyve":1,
    "american":1,
    "serviceman":1,
    "killed":1,
    "northolt":1,
    "overpass":1,
    "register":1,
    "claim":1,
    "1963":1,
    "lincoln":1,
    "came":1,
    "couple":1,
    "days":1,
    "ago":1,
    "fill":1,
    "certainly":1,
    "between":1,
    "730":1,
    "430":1,
    "attachment":1,
    "owned":1,
    "total":1,
    "write":1,
    "has":2,
    "mean":2,
    "camera":2,
    "approval":2,
    "course":2,
    "private":2,
    "darling":2,
    "karen":2,
    "been":2,
    "lot":2,
    "waiting":2,
    "listen":2,
    "wendel":2,
    "forgot":2,
    "bed":2,
    "tomorrow":2,
    "doctor":2,
    "dr":2,
    "helen":2,
    "remington":2,
    "shes":2,
    "husband":2,
    "say":2,
    "number":2,
    "carpark":2,
    "station":2,
    "believe":2,
    "being":2,
    "almost":2,
    "deal":2,
    "later":2,
    "wheels":2,
    "driven":2,
    "drivers":2,
    "black":2,
    "toward":2,
    "seat":2,
    "cracking":2,
    "everywhere":2,
    "gone":2,
    "wish":2,
    "renata":2,
    "seem":2,
    "times":2,
    "noticed":2,
    "imagine":2,
    "just":2,
    "youve":2,
    "sort":2,
    "said":2,
    "told":2,
    "badly":2,
    "lift":2,
    "driving":2,
    "leaving":2,
    "already":2,
    "death":2,
    "makes":2,
    "wearing":2,
    "white":2,
    "wear":2,
    "work":2,
    "started":2,
    "left":2,
    "seemed":2,
    "exactly":2,
    "taking":2,
    "laboratory":2,
    "besides":2,
    "matter":2,
    "exhibition":2,
    "big":2,
    "famous":2,
    "mansfield":2,
    "friend":2,
    "test":2,
    "strange":2,
    "those":2,
    "worry":2,
    "guys":2,
    "gotta":2,
    "brilliant":2,
    "hollywood":2,
    "california":2,
    "year":2,
    "named":2,
    "oh":2,
    "doing":2,
    "wanted":2,
    "when":2,
    "stuntman":2,
    "driver":2,
    "mechanic":2,
    "rolf":2,
    "w\ufffdtherich":2,
    "germany":2,
    "donald":2,
    "home":2,
    "create":2,
    "safety":2,
    "act":2,
    "broken":2,
    "neck":2,
    "became":2,
    "immortal":2,
    "hold":2,
    "which":2,
    "disperse":2,
    "whats":2,
    "head":2,
    "god":2,
    "down":2,
    "possibly":2,
    "doesnt":2,
    "global":2,
    "reshaping":2,
    "modern":2,
    "technology":2,
    "hell":2,
    "catherine":2,
    "does":2,
    "kiss":2,
    "ever":2,
    "service":2,
    "sex":2,
    "accidents":2,
    "face":2,
    "psychopathology":2,
    "form":2,
    "lets":2,
    "tattoo":2,
    "prophetic":2,
    "dirty":2,
    "ragged":2,
    "suitors":2,
    "anybody":3,
    "seen":3,
    "department":3,
    "minute":3,
    "thinking":3,
    "better":3,
    "walk":3,
    "dead":3,
    "made":3,
    "yours":3,
    "didnt":3,
    "youd":3,
    "them":3,
    "around":3,
    "couldnt":3,
    "close":3,
    "beginning":3,
    "before":3,
    "never":3,
    "let":3,
    "make":3,
    "case":3,
    "road":3,
    "last":3,
    "same":3,
    "people":3,
    "trying":3,
    "havent":3,
    "though":3,
    "enough":3,
    "rather":3,
    "much":3,
    "day":3,
    "special":3,
    "research":3,
    "need":3,
    "crashes":3,
    "wasnt":3,
    "part":3,
    "show":3,
    "jayne":3,
    "star":3,
    "race":3,
    "first":3,
    "deans":3,
    "racing":3,
    "himself":3,
    "turnupseed":3,
    "only":3,
    "moment":3,
    "died":3,
    "once":3,
    "dog":3,
    "help":3,
    "live":3,
    "human":3,
    "very":3,
    "anus":3,
    "describe":3,
    "away":3,
    "theyre":3,
    "clean":3,
    "prophesy":3,
    "vera":3,
    "saw":4,
    "please":4,
    "little":4,
    "thats":4,
    "might":4,
    "next":4,
    "over":4,
    "other":4,
    "man":4,
    "wife":4,
    "by":4,
    "found":4,
    "myself":4,
    "body":4,
    "leave":4,
    "yet":4,
    "too":4,
    "cant":4,
    "isnt":4,
    "thing":4,
    "hurt":4,
    "give":4,
    "understand":4,
    "off":4,
    "new":4,
    "something":4,
    "any":4,
    "kind":4,
    "us":4,
    "porsche":4,
    "way":4,
    "must":4,
    "penis":4,
    "more":5,
    "than":5,
    "if":5,
    "feel":5,
    "tell":5,
    "maybe":5,
    "youll":5,
    "time":5,
    "after":5,
    "into":5,
    "still":5,
    "should":5,
    "cars":5,
    "got":5,
    "theres":5,
    "why":5,
    "medical":5,
    "hes":5,
    "project":5,
    "semen":5,
    "who":6,
    "take":6,
    "she":6,
    "how":6,
    "ill":6,
    "again":6,
    "accident":6,
    "these":6,
    "blood":6,
    "really":6,
    "thought":6,
    "sure":6,
    "seagrave":6,
    "or":6,
    "id":6,
    "get":7,
    "did":7,
    "had":7,
    "back":7,
    "hospital":7,
    "from":7,
    "going":7,
    "well":7,
    "look":7,
    "right":7,
    "some":7,
    "dean":7,
    "our":8,
    "where":8,
    "come":8,
    "go":8,
    "ive":8,
    "airport":8,
    "up":8,
    "find":8,
    "out":8,
    "but":8,
    "so":8,
    "now":8,
    "see":8,
    "no":9,
    "then":9,
    "police":9,
    "him":10,
    "could":10,
    "her":10,
    "yes":10,
    "youre":10,
    "ballard":11,
    "an":11,
    "want":11,
    "as":11,
    "know":12,
    "my":12,
    "drive":12,
    "traffic":12,
    "would":12,
    "one":12,
    "think":13,
    "about":13,
    "were":14,
    "":14,
    "vaughan":14,
    "dont":15,
    "im":16,
    "there":16,
    "on":16,
    "here":16,
    "crash":16,
    "like":16,
    "all":16,
    "do":17,
    "they":18,
    "his":18,
    "be":19,
    "not":19,
    "we":20,
    "your":20,
    "what":20,
    "can":20,
    "me":20,
    "he":20,
    "for":21,
    "with":21,
    "at":21,
    "james":23,
    "its":23,
    "have":25,
    "was":25,
    "are":27,
    "this":29,
    "car":32,
    "and":40,
    "that":43,
    "is":45,
    "in":51,
    "of":60,
    "it":64,
    "to":80,
    "a":82,
    "i":87,
    "you":101,
    "the":150
}