{
    "chord":1,
    "harshly":1,
    "toplit":1,
    "cellular":1,
    "paunchy":1,
    "bald":1,
    "gray":1,
    "fringe":1,
    "baldness":1,
    "shaped":1,
    "violence":1,
    "docks":1,
    "cause":1,
    "asshole":1,
    "continuing":1,
    "parked":1,
    "middle":1,
    "vast":1,
    "bare":1,
    "bulbs":1,
    "farthest":1,
    "falling":1,
    "comin":1,
    "thinks":1,
    "outs":1,
    "guyyeah":1,
    "hardlooking":1,
    "drivin":1,
    "pieces":1,
    "surprise":1,
    "fuckers":1,
    "visitors":1,
    "assume":1,
    "placing":1,
    "dock":1,
    "workers":1,
    "pat":1,
    "haul":1,
    "lots":1,
    "bum":1,
    "hadda":1,
    "crap":1,
    "chubby":1,
    "nobody":1,
    "muscles":1,
    "especially":1,
    "fucks":1,
    "unha":1,
    "cutcha":1,
    "thatll":1,
    "satisfactory":1,
    "elegantly":1,
    "suited":1,
    "leader":1,
    "goldplated":1,
    "sniphe":1,
    "trims":1,
    "sticks":1,
    "apprehensive":1,
    "nelson":1,
    "splayed":1,
    "1":1,
    "succeed":1,
    "reaching":1,
    "seven":1,
    "blinking":1,
    "nostrils":1,
    "flare":1,
    "hit":1,
    "deeee":1,
    "automatic":1,
    "strobe":1,
    "recharging":1,
    "bdeeeee":1,
    "bdeeee":1,
    "rapidfire":1,
    "profiles":1,
    "belongs":1,
    "japanese":1,
    "graduate":1,
    "student":1,
    "smock":1,
    "thick":1,
    "coke":1,
    "lenses":1,
    "according":1,
    "plan":1,
    "couple":1,
    "months":1,
    "american":1,
    "feeding":1,
    "prints":1,
    "imaging":1,
    "glows":1,
    "dimensional":1,
    "within":1,
    "types":1,
    "containing":1,
    "linear":1,
    "servomotors":1,
    "allow":1,
    "individually":1,
    "command":1,
    "smooth":1,
    "sprayed":1,
    "evenly":1,
    "sprays":1,
    "wet":1,
    "glistens":1,
    "heights":1,
    "molding":1,
    "solidifying":1,
    "millimole":1,
    "skins":1,
    "instability":1,
    "victim":1,
    "complete":1,
    "reconstruction":1,
    "damaged":1,
    "fumbles":1,
    "neck":1,
    "ninetyeight":1,
    "change":1,
    "check":1,
    "friends":1,
    "swimming":1,
    "agarprotoplasm":1,
    "forms":1,
    "molecules":1,
    "rotate":1,
    "synchronization":1,
    "waver":1,
    "randomly":1,
    "unstable":1,
    "fragmentation":1,
    "readout":1,
    "electrolytes":1,
    "temp":1,
    "glucose":1,
    "concentration":1,
    "normal":1,
    "notation":1,
    "pacing":1,
    "destabilizing":1,
    "vivification":1,
    "process":1,
    "rejection":1,
    "licked":1,
    "stable":1,
    "hokay":1,
    "suckers":1,
    "posts":1,
    "completed":1,
    "pokes":1,
    "section":1,
    "twentytwo":1,
    "phase":1,
    "advice":1,
    "emotionally":1,
    "involved":1,
    "analyze":1,
    "punctuate":1,
    "lousy":1,
    "anaheim":1,
    "sake":1,
    "nightly":1,
    "failure":1,
    "basketball":1,
    "striking":1,
    "characteristic":1,
    "thermionic":1,
    "emission":1,
    "question":1,
    "ma":1,
    "dribbles":1,
    "pumpfakes":1,
    "temperature":1,
    "emitter":1,
    "critical":1,
    "pure":1,
    "metals":1,
    "operating":1,
    "temperatures":1,
    "tungsten":1,
    "tantalum":1,
    "amazing":1,
    "swain":1,
    "represent":1,
    "negotiation":1,
    "interrupts":1,
    "sons":1,
    "introduction":1,
    "fancyass":1,
    "woman":1,
    "negotiating":1,
    "herb":1,
    "gorsons":1,
    "litigation":1,
    "worryive":1,
    "done":1,
    "homework":1,
    "ungraciously":1,
    "accepting":1,
    "low":1,
    "lock":1,
    "reasonable":1,
    "frontage":1,
    "robbed":1,
    "seventyfive":1,
    "strikes":1,
    "parcel":1,
    "conclude":1,
    "suppress":1,
    "waiters":1,
    "pour":1,
    "tasting":1,
    "portion":1,
    "coldly":1,
    "watchful":1,
    "sip":1,
    "cocks":1,
    "poured":1,
    "katz":1,
    "factors":1,
    "determine":1,
    "propertys":1,
    "midtown":1,
    "commercial":1,
    "given":1,
    "plans":1,
    "area":1,
    "deals":1,
    "velt":1,
    "vomanand":1,
    "worldly":1,
    "zale":1,
    "zixty":1,
    "millions":1,
    "heel":1,
    "digs":1,
    "toe":1,
    "offered":1,
    "sharing":1,
    "ordered":1,
    "correct":1,
    "oui":1,
    "pleasantly":1,
    "corrects":1,
    "served":1,
    "1981":1,
    "1982":1,
    "pleasant":1,
    "charging":1,
    "ms":1,
    "league":1,
    "bel":1,
    "remeat":1,
    "gratis":1,
    "addresses":1,
    "baron":1,
    "rate":1,
    "prefer":1,
    "attend":1,
    "murmuring":1,
    "permit":1,
    "vine":1,
    "trick":1,
    "labels":1,
    "unfurls":1,
    "revealinga":1,
    "bill":1,
    "retreating":1,
    "instantly":1,
    "reconstitutes":1,
    "steaming":1,
    "glow":1,
    "bulb":1,
    "habit":1,
    "weeks":1,
    "approve":1,
    "puzzlement":1,
    "216":1,
    "gbg":1,
    "excitement":1,
    "quesiton":1,
    "winds":1,
    "toss":1,
    "faked":1,
    "attractive":1,
    "chocolate":1,
    "centers":1,
    "krugerrands":1,
    "frog":1,
    "burp":1,
    "glides":1,
    "rundown":1,
    "texaco":1,
    "station":1,
    "wages":1,
    "isnot":1,
    "discretely":1,
    "straightrazor":1,
    "tire":1,
    "anyway":1,
    "damn":1,
    "prostate":1,
    "deflated":1,
    "ments":1,
    "ltoward":1,
    "taaf":1,
    "r":1,
    "eveal":1,
    "hobbles":1,
    "onequarterview":1,
    "downturned":1,
    "uprevealing":1,
    "malevolent":1,
    "muzzle":1,
    "silencer":1,
    "motionless":1,
    "stomach":1,
    "midnight":1,
    "lincoln":1,
    "scene":1,
    "emotion":1,
    "etched":1,
    "cradles":1,
    "corpse":1,
    "cable":1,
    "ringing":1,
    "silenced":1,
    "ascending":1,
    "uneasy":1,
    "halfway":1,
    "scurry":1,
    "landing":1,
    "knocks":1,
    "brushes":1,
    "extends":1,
    "reacting":1,
    "shattered":1,
    "photicsensor":1,
    "disturbance":1,
    "corrugated":1,
    "coverings":1,
    "blocking":1,
    "laboratory":1,
    "whirring":1,
    "extrude":1,
    "slots":1,
    "hollow":1,
    "seated":1,
    "spotlight":1,
    "illuminating":1,
    "numbly":1,
    "tvoice":1,
    "cati":1,
    "essono":1,
    "heomonotonousltone":1,
    "ofoatnarrator":1,
    "ofhedu":1,
    "films":1,
    "ow":1,
    "yanigita":1,
    "spreads":1,
    "perplexed":1,
    "coats":1,
    "identical":1,
    "perplexity":1,
    "causes":1,
    "detect":1,
    "questions":1,
    "investigate":1,
    "lesson":1,
    "je":1,
    "21":1,
    "splitscreen":1,
    "photos":1,
    "age":1,
    "twelve":1,
    "peers":1,
    "assumes":1,
    "mockdebonair":1,
    "pose":1,
    "met":1,
    "seventh":1,
    "grade":1,
    "field":1,
    "planetarium":1,
    "rich":1,
    "galaxies":1,
    "narrator":1,
    "discussed":1,
    "universe":1,
    "somewhat":1,
    "nerdy":1,
    "stiffly":1,
    "slick":1,
    "soonto":1,
    "jargon":1,
    "teenagersgoing":1,
    "date":1,
    "lifetime":1,
    "montage":1,
    "throughout":1,
    "twoa":1,
    "rare":1,
    "phenomenonit":1,
    "lasted":1,
    "broke":1,
    "sixteen":1,
    "mating":1,
    "rumpled":1,
    "briefs":1,
    "camerafaced":1,
    "crossing":1,
    "develop":1,
    "special":1,
    "shared":1,
    "meaning":1,
    "significant":1,
    "subjects":1,
    "coffeerings":1,
    "tends":1,
    "irritate":1,
    "everywhere":1,
    "bookshelf":1,
    "minor":1,
    "irritations":1,
    "strangely":1,
    "endearing":1,
    "mate":1,
    "wax":1,
    "dom":1,
    "perignon":1,
    "twentyfirst":1,
    "birthday":1,
    "serves":1,
    "candle":1,
    "holder":1,
    "record":1,
    "player":1,
    "romantic":1,
    "ark":1,
    "playing":1,
    "kissed":1,
    "school":1,
    "prom":1,
    "awkwardly":1,
    "fitting":1,
    "tux":1,
    "blossoming":1,
    "beauty":1,
    "ov":1,
    "fundamental":1,
    "nature":1,
    "eludes":1,
    "researchers":1,
    "globe":1,
    "study":1,
    "ancient":1,
    "phenomenon":1,
    "hoping":1,
    "unlock":1,
    "credits":1,
    "westlakeyanagita":1,
    "projector":1,
    "stupid":1,
    "an\ufffdeurl":1,
    "et\ufffd":1,
    "heircloveamaking\ufffdv":1,
    "testtubes":1,
    "cla":1,
    "thm":1,
    "dissolve":1,
    "topmost":1,
    "memos":1,
    "researching":1,
    "supposed":1,
    "named":1,
    "records":1,
    "massages":1,
    "suspicious":1,
    "proceed":1,
    "benefit":1,
    "doubt":1,
    "circumstances":1,
    "kisses":1,
    "blissfully":1,
    "reluctantly":1,
    "shoes":1,
    "ksd":1,
    "beyond":1,
    "impressive":1,
    "corporate":1,
    "briskl":1,
    "sunny":1,
    "stopping":1,
    "sig":1,
    "jeans":1,
    "sweatshirt":1,
    "opening":1,
    "marriagewell":1,
    "thatof":1,
    "careersi":1,
    "marriage":1,
    "grandmother":1,
    "poor":1,
    "womans":1,
    "beginning":1,
    "alzheimers":1,
    "anp":1,
    "di":1,
    "cabbie":1,
    "wristwatch":1,
    "responds":1,
    "meter":1,
    "realized":1,
    "smaller":1,
    "longingly":1,
    "choice":1,
    "dot":1,
    "flourishes":1,
    "lives":1,
    "lush":1,
    "corporatecoffice":1,
    "seeing":1,
    "allfofus":1,
    "documents":1,
    "puzzled":1,
    "bellasariousit":1,
    "signature":1,
    "gotten":1,
    "pace":1,
    "hesitantly":1,
    "bribes":1,
    "disappoints":1,
    "value":1,
    "opinion":1,
    "surely":1,
    "endorse":1,
    "intended":1,
    "compromised":1,
    "bore":1,
    "pond":1,
    "minimall":1,
    "grease":1,
    "laid":1,
    "downtown":1,
    "naive":1,
    "cost":1,
    "ordinarily":1,
    "worse":1,
    "acynicthats":1,
    "tougher":1,
    "tabletop":1,
    "architectural":1,
    "acres":1,
    "reclaimed":1,
    "decay":1,
    "thousands":1,
    "jobs":1,
    "created":1,
    "blocka":1,
    "large":1,
    "blocklaid":1,
    "future":1,
    "dreams":1,
    "realizing":1,
    "distasteful":1,
    "chore":1,
    "possession":1,
    "evidence":1,
    "crime":1,
    "buildings":1,
    "suggest":1,
    "custody":1,
    "responsibility":1,
    "wish":1,
    "simple":1,
    "safe":1,
    "touching":1,
    "protect":1,
    "wondering":1,
    "tru":1,
    "underworld":1,
    "racketeering":1,
    "drugs":1,
    "eloquent":1,
    "trust":1,
    "extract":1,
    "ir":1,
    "=e":1,
    "dare":1,
    "sad":1,
    "womens":1,
    "remarks":1,
    "loston":1,
    "ninetysix":1,
    "asked":1,
    "actually":1,
    "stretches":1,
    "juts":1,
    "shocked":1,
    "hits":1,
    "chunky":1,
    "outline":1,
    "revealed":1,
    "middleaged":1,
    "balding":1,
    "raiseshasboitleare":1,
    "hearty":1,
    "gulp":1,
    "hiteafluid":1,
    "coated":1,
    "chalky":1,
    "corcoran":1,
    "grinning":1,
    "near":1,
    "gills":1,
    "topaulys":1,
    "launched":1,
    "sags":1,
    "hauls":1,
    "behold":1,
    "sniptrimming":1,
    "brought":1,
    "towering":1,
    "foolish":1,
    "heroics":1,
    "documentstell":1,
    "nightmare":1,
    "breaking":1,
    "sadly":1,
    "bellasaurious":1,
    "crackleyakatito":1,
    "thrust":1,
    "stretched":1,
    "houseboys":1,
    "predicament":1,
    "jog":1,
    "memory":1,
    "godspeed":1,
    "breathe":1,
    "vicious":1,
    "backhand":1,
    "sends":1,
    "asbaman":1,
    "orange":1,
    "horrified":1,
    "features":1,
    "thunk":1,
    "yakatito":1,
    "trembling":1,
    "holsters":1,
    "withdraws":1,
    "jacket":1,
    "dry":1,
    "bedroom":1,
    "bingo":1,
    "coffeestained":1,
    "unable":1,
    "valve":1,
    "labeled":1,
    "oil":1,
    "rig":1,
    "birds":1,
    "cradling":1,
    "smoking":1,
    "orderly":1,
    "resistance":1,
    "prompt":1,
    "acts":1,
    "cruelty":1,
    "movement":1,
    "ahold":1,
    "rush":1,
    "dunk":1,
    "upsidedown":1,
    "bulging":1,
    "underwater":1,
    "electrical":1,
    "erupt":1,
    "grins":1,
    "delight":1,
    "wrecked":1,
    "softly":1,
    "asians":1,
    "aloud":1,
    "button":1,
    "stirs":1,
    "wheeze":1,
    "86e":1,
    "slow":1,
    "400":1,
    "frames":1,
    "91a":1,
    "rag":1,
    "silently":1,
    "91b":1,
    "kaaaboooommmm":1,
    "shake":1,
    "gravedigger":1,
    "older":1,
    "soiled":1,
    "overalls":1,
    "props":1,
    "shovel":1,
    "workin":1,
    "ear":1,
    "bury":1,
    "folks":1,
    "lookin":1,
    "discount":1,
    "diggin":1,
    "payin":1,
    "buttons":1,
    "straightens":1,
    "herself":1,
    "gain":1,
    "resolve":1,
    "hammered":1,
    "gait":1,
    "wavers":1,
    "racked":1,
    "sobbing":1,
    "stream":1,
    "grass":1,
    "helps":1,
    "soaked":1,
    "extent":1,
    "suffering":1,
    "undifferentiated":1,
    "resolves":1,
    "ripplin":1,
    "resembling":1,
    "acid":1,
    "depths":1,
    "completely":1,
    "lifted":1,
    "hydro":1,
    "complex":1,
    "vessel":1,
    "treated":1,
    "perfectly":1,
    "swathed":1,
    "20th":1,
    "century":1,
    "tubes":1,
    "wirespoke":1,
    "steady":1,
    "cardiogram":1,
    "strap":1,
    "hydraulically":1,
    "powered":1,
    "multiaxied":1,
    "rotating":1,
    "platforms":1,
    "submerged":1,
    "hydrotanks":1,
    "2530":1,
    "yearoldmale":1,
    "history":1,
    "fished":1,
    "covering":1,
    "forty":1,
    "andface":1,
    "intolerable":1,
    "rest":1,
    "rangeveritz":1,
    "technique":1,
    "simply":1,
    "sever":1,
    "spinothalamic":1,
    "transmits":1,
    "neuralimpulses":1,
    "vibratory":1,
    "sense":1,
    "receiving":1,
    "impulses":1,
    "sharp":1,
    "practiced":1,
    "serious":1,
    "emotional":1,
    "operation":1,
    "sensory":1,
    "alienated":1,
    "regular":1,
    "diet":1,
    "neversatisfied":1,
    "thirst":1,
    "alienation":1,
    "loneliness":1,
    "uncontrolled":1,
    "uncommon":1,
    "exacerbated":1,
    "chemical":1,
    "effect":1,
    "severing":1,
    "adrenaline":1,
    "flow":1,
    "unchecked":1,
    "strength":1,
    "dozen":1,
    "hence":1,
    "resident":1,
    "ducklings":1,
    "naturally":1,
    "recovery":1,
    "futile":1,
    "optimistic":1,
    "inspire":1,
    "confidence":1,
    "rehabilitation":1,
    "potential":1,
    "buzzard":1,
    "emit":1,
    "warning":1,
    "doctors":1,
    "freeze":1,
    "halfmoment":1,
    "pell":1,
    "mell":1,
    "hallway":1,
    "rubbing":1,
    "conductive":1,
    "jelly":1,
    "defibrilator":1,
    "paddles":1,
    "arrive":1,
    "technicians":1,
    "alright":1,
    "charge":1,
    "lemme":1,
    "tangled":1,
    "ekg":1,
    "wires":1,
    "aimlessly":1,
    "bright":1,
    "lightning":1,
    "illuminates":1,
    "hydraulic":1,
    "blown":1,
    "gust":1,
    "confused":1,
    "mud":1,
    "desperate":1,
    "peer":1,
    "slit":1,
    "muddied":1,
    "onward":1,
    "growing":1,
    "misty":1,
    "juuuuulieeeeee":1,
    "heeeeeeeelp":1,
    "despair":1,
    "overcome":1,
    "huddling":1,
    "blankly":1,
    "whirlpool":1,
    "current":1,
    "bears":1,
    "widen":1,
    "headline":1,
    "dies":1,
    "accidental":1,
    "blastbody":1,
    "repulsive":1,
    "recognize":1,
    "sicken":1,
    "glint":1,
    "floods":1,
    "ashes":1,
    "labapartment":1,
    "fissures":1,
    "walls":1,
    "framed":1,
    "bay":1,
    "psychic":1,
    "bur":1,
    "st":1,
    "arkle":1,
    "nignu":1,
    "pained":1,
    "grimace":1,
    "neutral":1,
    "forming":1,
    "wickedly":1,
    "band":1,
    "many":1,
    "couples":1,
    "chat":1,
    "bandleader":1,
    "polite":1,
    "applause":1,
    "beaming":1,
    "redfaced":1,
    "forties":1,
    "constructed":1,
    "shape":1,
    "skyline":1,
    "cuts":1,
    "skyscrapers":1,
    "neatly":1,
    "knife":1,
    "piece":1,
    "opportunity":1,
    "express":1,
    "campaign":1,
    "laughter":1,
    "riverside":1,
    "program":1,
    "breathed":1,
    "new":1,
    "neighborhood":1,
    "democrats":1,
    "lime":1,
    "double":1,
    "flushed":1,
    "observes":1,
    "beside":1,
    "drowning":1,
    "sorrows":1,
    "eh":1,
    "drinks":1,
    "don":1,
    "ya":1,
    "jimbo":1,
    "remove":1,
    "businessman":1,
    "thigh":1,
    "distinguished":1,
    "dapper":1,
    "`":1,
    "famous":1,
    "ferguson":1,
    "chastened":1,
    "beats":1,
    "hasty":1,
    "retreat":1,
    "thanks":1,
    "whether":1,
    "decision":1,
    "regarding":1,
    "belasarius":1,
    "decisions":1,
    "mentioned":1,
    "competitor":1,
    "considered":1,
    "ruled":1,
    "arson":1,
    "gas":1,
    "tiniest":1,
    "choked":1,
    "manner":1,
    "sympathetic":1,
    "solemn":1,
    "stranger":1,
    "frustration":1,
    "anguish":1,
    "rally":1,
    "spirits":1,
    "cure":1,
    "takesher":1,
    "eases":1,
    "symptoms":1,
    "impressed":1,
    "performance":1,
    "negotiations":1,
    "outstanding":1,
    "instinct":1,
    "decide":1,
    "staff":1,
    "member":1,
    "permanent":1,
    "flattering":1,
    "commitments":1,
    "spoken":1,
    "ed":1,
    "lose":1,
    "yousaid":1,
    "tooth":1,
    "nail":1,
    "outbid":1,
    "resents":1,
    "gripped":1,
    "lectured":1,
    "senses":1,
    "magnetism":1,
    "tightens":1,
    "chatting":1,
    "swiftly":1,
    "fishes":1,
    "prescription":1,
    "dryhe":1,
    "clatter":1,
    "terrifying":1,
    "kicking":1,
    "plaster":1,
    "cracks":1,
    "flies":1,
    "ricks":1,
    "twitches":1,
    "sanitys":1,
    "moody":1,
    "inky":1,
    "clouds":1,
    "drift":1,
    "overhead":1,
    "dropping":1,
    "delicately":1,
    "clawa":1,
    "reprise":1,
    "earlierher":1,
    "sscene":1,
    "instinctively":1,
    "shivers":1,
    "darka\u25baan":1,
    "cries":1,
    "curtains":1,
    "flutter":1,
    "protectively":1,
    "child":1,
    "wylight":1,
    "dletting":1,
    "eserted":1,
    "iwa":1,
    "rehouse":1,
    "silhouetted":1,
    "ra":1,
    "tt":1,
    "andaged":1,
    "cavernous":1,
    "stroke":1,
    "meows":1,
    "shtoe":1,
    "scratches":1,
    "flashlight":1,
    "elaborate":1,
    "system":1,
    "voltage":1,
    "cylinders":1,
    "ofnanrinsulated":1,
    "flickers":1,
    "rear":1,
    "casting":1,
    "strokes":1,
    "chin":1,
    "salvaged":1,
    "original":1,
    "data":1,
    "variables":1,
    "87":1,
    "138":1,
    "beeps":1,
    "blanks":1,
    "reconstitution":1,
    "71":1,
    "hours":1,
    "57":1,
    "slightlygrowing":1,
    "imperceptibly":1,
    "sharper":1,
    "outstretched":1,
    "boney":1,
    "poke":1,
    "gently":1,
    "flame":1,
    "swirls":1,
    "tice":1,
    "ailed":1,
    "bunsen":1,
    "unsen":1,
    "burner":1,
    "burning":1,
    "studie":1,
    "handay":1,
    "ois":1,
    "ormal":1,
    "rmal":1,
    "smoldering":1,
    "sensation":1,
    "qui":1,
    "stool":1,
    "studying":1,
    "p193":1,
    "telephoto":1,
    "eating":1,
    "somebody":1,
    "seats":1,
    "downs":1,
    "butt":1,
    "washes":1,
    "chaser":1,
    "disguised":1,
    "bagman":1,
    "alley":1,
    "peering":1,
    "197a":1,
    "197e":1,
    "clickpauly":1,
    "carrying":1,
    "clickhe":1,
    "clickto":1,
    "197c":1,
    "swinging":1,
    "carries":1,
    "shutter":1,
    "si":1,
    "ac":1,
    "ne":1,
    "photographs":1,
    "clothesli":1,
    "different":1,
    "contours":1,
    "subtle":1,
    "shading":1,
    "ief":1,
    "hi":1,
    "chlorofrmedohgn\ufffdtheh":1,
    "clocksrlngsh":1,
    "struggles":1,
    "sinks":1,
    "chloroform":1,
    "hisdface\ufffd":1,
    "gloved":1,
    "ticking":1,
    "clock":1,
    "shut\ufffdtfrom":1,
    "hiskratty":1,
    "latches":1,
    "mummified":1,
    "isreflected":1,
    "unwraps":1,
    "complexion":1,
    "sould":1,
    "ptheyskin":1,
    "aulittle":1,
    "\ufffdtighter":1,
    "k":1,
    "handfulrof":1,
    "paulyss":1,
    "medicine":1,
    "cabinet":1,
    "cologne":1,
    "exaggerated":1,
    "hawwouldiknow":1,
    "notice":1,
    "piss":1,
    "babysitter":1,
    "suspiciously":1,
    "slug":1,
    "glaring":1,
    "concerned":1,
    "clue":1,
    "display":1,
    "sore":1,
    "picku":1,
    "airline":1,
    "strained":1,
    "rio":1,
    "class":1,
    "delightful":1,
    "explains":1,
    "disappearance":1,
    "sleepin":1,
    "jesus":1,
    "crashes":1,
    "23rd":1,
    "hurtling":1,
    "blurs":1,
    "increasing":1,
    "velocity":1,
    "parkbench":1,
    "lovely":1,
    "evening":1,
    "enjoy":1,
    "myselfto":1,
    "whiskey":1,
    "neat":1,
    "etagere":1,
    "dialing":1,
    "zurich":1,
    "insai":1,
    "kru":1,
    "krug":1,
    "rrandsawhe":1,
    "ousa":1,
    "orning":1,
    "silver":1,
    "jus":1,
    "hill":1,
    "financier":1,
    "recapture":1,
    "moments":1,
    "glory":1,
    "unbecoming":1,
    "fish":1,
    "compliments":1,
    "goodnaturedly":1,
    "ine":1,
    "fanything":1,
    "eleame":1,
    "thi":1,
    "differently":1,
    "attention":1,
    "juliesmiles":1,
    "respects":1,
    "difficult":1,
    "somettiimess":1,
    "powerpeople":1,
    "defer":1,
    "ur":1,
    "humanity":1,
    "rob":1,
    "accuse":1,
    "pleading":1,
    "setting":1,
    "coaster":1,
    "notices":1,
    "strains":1,
    "conceal":1,
    "bitterness":1,
    "private":1,
    "aircraft":1,
    "smokeys":1,
    "painless":1,
    "utterly":1,
    "disease":1,
    "quietlywithin":1,
    "meet":1,
    "united":1,
    "wondered":1,
    "understood":1,
    "kindness":1,
    "hidden":1,
    "bushes":1,
    "impatiently":1,
    "taptaptapl":1,
    "le":1,
    "rema":1,
    "stab":1,
    "carbonized":1,
    "disgust":1,
    "bucks":1,
    "hisbandaged":1,
    "shadowa":1,
    "war":1,
    "inner":1,
    "demons":1,
    "concentrates":1,
    "lid":1,
    "less":1,
    "conviction":1,
    "revolve":1,
    "exactly":1,
    "charmingly":1,
    "wreath":1,
    "flowers":1,
    "intruder":1,
    "peytonhis":1,
    "smiling":1,
    "immobilized":1,
    "jaw":1,
    "faints":1,
    "iim":1,
    "ward":1,
    "wa":1,
    "ae":1,
    "z":1,
    "rythi":1,
    "justl":1,
    "sold":1,
    "unhappy":1,
    "forever":1,
    "sweetheart":1,
    "passionately":1,
    "transformed":1,
    "scarred":1,
    "pressed":1,
    "reels":1,
    "shut":1,
    "chinatown":1,
    "today":1,
    "coney":1,
    "stingin":1,
    "tomorrow":1,
    "collection":1,
    "lined":1,
    "velvet":1,
    "glimpse":1,
    "terminals":1,
    "flashing":1,
    "wire":1,
    "microcassette":1,
    "filtered":1,
    "conversation":1,
    "nice":1,
    "addition":1,
    "jew":1,
    "830":1,
    "tracking":1,
    "cassette":1,
    "pair":1,
    "headsets":1,
    "worn":1,
    "glisten":1,
    "slits":1,
    "sprawls":1,
    "guard":1,
    "shoved":1,
    "2s":1,
    "pincer":1,
    "awful":1,
    "muggers":1,
    "shattering":1,
    "shark":1,
    "bites":1,
    "2":1,
    "maw":1,
    "crooked":1,
    "teeth":1,
    "lipless":1,
    "jawbone":1,
    "flee":1,
    "contorts":1,
    "ghastly":1,
    "interpretation":1,
    "kinks":1,
    "ashamed":1,
    "butwhat":1,
    "wasburned":1,
    "wellif":1,
    "warmth":1,
    "accepted":1,
    "arent":1,
    "sleeps":1,
    "garbled":1,
    "chatter":1,
    "audio":1,
    "rewound":1,
    "walkman":1,
    "removed":1,
    "visible":1,
    "singed":1,
    "hairless":1,
    "switches":1,
    "lamp":1,
    "lightproof":1,
    "returns":1,
    "arcs":1,
    "clickthe":1,
    "midsentence":1,
    "hideously":1,
    "mandible":1,
    "finishes":1,
    "\ufffdcw":1,
    "counte":1,
    "lone":1,
    "erk":1,
    "wanna":1,
    "bags":1,
    "pizzas":1,
    "revolver":1,
    "heyhey":1,
    "video":1,
    "cheats":1,
    "matching":1,
    "previous":1,
    "color":1,
    "someone":1,
    "facing":1,
    "hurry":1,
    "meeting":1,
    "snipping":1,
    "calculating":1,
    "sunlight":1,
    "90":1,
    "followsluzman":1,
    "film":1,
    "bail":1,
    "jumps":1,
    "taxi":1,
    "mandarin":1,
    "peels":1,
    "favor":1,
    "venerated":1,
    "seating":1,
    "shabby":1,
    "darkmandurant":1,
    "impassively":1,
    "greater":1,
    "remaining":1,
    "shame":1,
    "hide":1,
    "uncertainty":1,
    "uncomfortable":1,
    "decides":1,
    "begin":1,
    "boss":1,
    "bullshit":1,
    "pick":1,
    "thas":1,
    "harsh":1,
    "fluorescent":1,
    "artificial":1,
    "fleshof":1,
    "checking":1,
    "signs":1,
    "decomposition":1,
    "93":1,
    "regret":1,
    "burden":1,
    "miserable":1,
    "difficulties":1,
    "shift":1,
    "expecting":1,
    "sensing":1,
    "powder":1,
    "iis":1,
    "volume":1,
    "poverty":1,
    "tolerate":1,
    "unworthy":1,
    "servants":1,
    "destitute":1,
    "response":1,
    "signal":1,
    "four":1,
    "enormous":1,
    "chinese":1,
    "crossed":1,
    "posture":1,
    "fats":1,
    "minable":1,
    "slaves":1,
    "wishes":1,
    "attack":1,
    "whom":1,
    "cherishes":1,
    "golden":1,
    "friendship":1,
    "until":1,
    "shining":1,
    "bounty":1,
    "pressing":1,
    "invading":1,
    "physical":1,
    "making":1,
    "mockery":1,
    "idiot":1,
    "dangles":1,
    "lamely":1,
    "bamboo":1,
    "slumps":1,
    "pans":1,
    "snippe":1,
    "puffs":1,
    "size":1,
    "mocking":1,
    "trace":1,
    "accent":1,
    "extinguished":1,
    "ashtray":1,
    "placed":1,
    "98":1,
    "durantdart":1,
    "pointing":1,
    "monogrammed":1,
    "disbelieving":1,
    "identically":1,
    "confrontation":1,
    "gaping":1,
    "wonder":1,
    "dios":1,
    "mio":1,
    "aye":1,
    "que":1,
    "papa":1,
    "dislodging":1,
    "stunned":1,
    "draws":1,
    "sweating":1,
    "incredulous":1,
    "recalibrates":1,
    "orders":1,
    "plug":1,
    "impossible":1,
    "distinguishes":1,
    "throats":1,
    "spun":1,
    "forth":1,
    "brick":1,
    "clutching":1,
    "groggy":1,
    "uncertain":1,
    "warily":1,
    "lookinat":1,
    "retrains":1,
    "deaf":1,
    "wisp":1,
    "thwack":1,
    "alterego":1,
    "woozily":1,
    "snub":1,
    "nosed":1,
    "45":1,
    "ankle":1,
    "holster":1,
    "gamely":1,
    "trail":1,
    "yellow":1,
    "busy":1,
    "cars":1,
    "speed":1,
    "cross":1,
    "gunshots":1,
    "filed":1,
    "wheeled":1,
    "path":1,
    "springs":1,
    "freefall":1,
    "ejects":1,
    "cartridge":1,
    "lands":1,
    "firing":1,
    "frightened":1,
    "scatter":1,
    "note":1,
    "reload":1,
    "slims":1,
    "translucent":1,
    "smolders":1,
    "f1ligs":1,
    "dere":1,
    "track":1,
    "commanding":1,
    "asthey":1,
    "speak":1,
    "hushed":1,
    "tones":1,
    "thrilled":1,
    "prospect":1,
    "squad":1,
    "marines":1,
    "casually":1,
    "recedes":1,
    "trumaynes":1,
    "shallow":1,
    "loosens":1,
    "necktie":1,
    "unbuttons":1,
    "collar":1,
    "clanging":1,
    "gettin":1,
    "jumpy":1,
    "faint":1,
    "cannot":1,
    "heaves":1,
    "crash":1,
    "oppressive":1,
    "crunching":1,
    "gravel":1,
    "trigger":1,
    "sides":1,
    "quicken":1,
    "shines":1,
    "flameblam":1,
    "brilliant":1,
    "boom":1,
    "crazed":1,
    "illumination":1,
    "sparksbeam":1,
    "illuminatedempty":1,
    "saucers":1,
    "scared":1,
    "shit":1,
    "eat":1,
    "approach":1,
    "squint":1,
    "amigo":1,
    "dat":1,
    "chew":1,
    "rods":1,
    "lurches":1,
    "collapses":1,
    "ties":1,
    "gagged":1,
    "wild":1,
    "terror":1,
    "gape":1,
    "fearfully":1,
    "fog":1,
    "gunsmoke":1,
    "gets":1,
    "control":1,
    "loads":1,
    "echoing":1,
    "surrender":1,
    "das":1,
    "outta":1,
    "roar":1,
    "agonized":1,
    "ungodly":1,
    "combination":1,
    "pouring":1,
    "throw":1,
    "rumble":1,
    "smoulders":1,
    "ravaged":1,
    "monsterface":1,
    "leering":1,
    "horses":1,
    "carnival":1,
    "walking":1,
    "midway":1,
    "draped":1,
    "spend":1,
    "offscreen":1,
    "general":1,
    "mutant":1,
    "beast":1,
    "witness":1,
    "prodigy":1,
    "cmon":1,
    "biggest":1,
    "fuzziest":1,
    "pinkiest":1,
    "animal":1,
    "youllbe":1,
    "embarrassed":1,
    "stopped":1,
    "softballs":1,
    "tossed":1,
    "pyramids":1,
    "handed":1,
    "avoiding":1,
    "treatment":1,
    "cured":1,
    "yetbut":1,
    "throb":1,
    "asan":1,
    "invalid":1,
    "fffffffreak":1,
    "force":1,
    "heavily":1,
    "collect":1,
    "says":1,
    "cigarette":1,
    "count":1,
    "na":1,
    "tugs":1,
    "sleeve":1,
    "contain":1,
    "clipped":1,
    "gasps":1,
    "matters":1,
    "won":1,
    "unwisely":1,
    "rocket":1,
    "offending":1,
    "fscreen":1,
    "attendants":1,
    "weirdo":1,
    "blister":1,
    "cheek":1,
    "fuzzy":1,
    "clasped":1,
    "forgotten":1,
    "wisps":1,
    "seen":1,
    "advances":1,
    "gasp":1,
    "ripped":1,
    "shreds":1,
    "stuffing":1,
    "site":1,
    "coward":1,
    "cared":1,
    "whatno":1,
    "huhh":1,
    "coin":1,
    "dimpled":1,
    "pants":1,
    "sweet":1,
    "appointed":1,
    "expected":1,
    "formal":1,
    "ruth":1,
    "inform":1,
    "der":1,
    "fliedermause":1,
    "excellent":1,
    "pours":1,
    "warningits":1,
    "napoleon":1,
    "darling":1,
    "settle":1,
    "rash":1,
    "burnedi":1,
    "visibly":1,
    "aback":1,
    "bittersweet":1,
    "flavor":1,
    "finest":1,
    "disposalburn":1,
    "therapy":1,
    "recon":1,
    "structive":1,
    "surgery":1,
    "badly":1,
    "mutilated":1,
    "broken":1,
    "wracked":1,
    "sobs":1,
    "abandoned":1,
    "adjoining":1,
    "wipes":1,
    "diversified":1,
    "immaterial":1,
    "sheaf":1,
    "stain":1,
    "correctly":1,
    "thousand":1,
    "belasarious":1,
    "relationship":1,
    "further":1,
    "strain":1,
    "wasnt":1,
    "accident":1,
    "employee":1,
    "unofficially":1,
    "books":1,
    "taxes":1,
    "extremely":1,
    "expensive":1,
    "department":1,
    "unsympathetic":1,
    "hatefully":1,
    "strolls":1,
    "os":1,
    "custom":1,
    "dictates":1,
    "render":1,
    "recall":1,
    "difficulty":1,
    "resolved":1,
    "situation":1,
    "uncovered":1,
    "unflattering":1,
    "wife":1,
    "died":1,
    "joking":1,
    "retrieved":1,
    "failed":1,
    "excise":1,
    "saw":1,
    "ends":1,
    "guide":1,
    "desolate":1,
    "nowhere":1,
    "screeches":1,
    "sandwiching":1,
    "riddled":1,
    "bullets":1,
    "peres":1,
    "undin":1,
    "machine":1,
    "peg":1,
    "kicked":1,
    "ps":1,
    "blazing":1,
    "shooting":1,
    "sto":1,
    "speaks":1,
    "rafters":1,
    "ofathence":1,
    "signals":1,
    "split":1,
    "eerily":1,
    "beep":1,
    "holy":1,
    "san":1,
    "juan":1,
    "fuckeen":1,
    "capistrano":1,
    "parallel":1,
    "lines":1,
    "eyeless":1,
    "wrinkled":1,
    "grotesquely":1,
    "lifelike":1,
    "gallery":1,
    "breeze":1,
    "squeak":1,
    "nod":1,
    "panics":1,
    "backs":1,
    "clothing":1,
    "wigs":1,
    "facesrunning":1,
    "latch":1,
    "peep":1,
    "walkee":1,
    "405":1,
    "shootin":1,
    "mercifully":1,
    "burst":1,
    "static":1,
    "412a":1,
    "chopper":1,
    "eliminated":1,
    "assault":1,
    "rifles":1,
    "slam":1,
    "sealing":1,
    "airtight":1,
    "prison":1,
    "pilotand":1,
    "entrance":1,
    "whompia":1,
    "bim":1,
    "start":1,
    "hauling":1,
    "toy":1,
    "dives":1,
    "snatching":1,
    "clenches":1,
    "transparent":1,
    "horror":1,
    "povnearby":1,
    "insynch":1,
    "gropes":1,
    "handhold":1,
    "kicks":1,
    "overboard":1,
    "straight":1,
    "backwards":1,
    "below":1,
    "blur":1,
    "gradually":1,
    "rights":1,
    "banks":1,
    "concrete":1,
    "canyonsa":1,
    "deadly":1,
    "whip":1,
    "hurled":1,
    "70th":1,
    "skyscraper":1,
    "whirling":1,
    "numbers":1,
    "roulette":1,
    "wheel":1,
    "dip":1,
    "whizzing":1,
    "100":1,
    "motorcycle":1,
    "80":1,
    "truck":1,
    "manages":1,
    "loop":1,
    "trucks":1,
    "obliterated":1,
    "rushing":1,
    "doomed":1,
    "triumph":1,
    "impactkaboom":1,
    "444a":1,
    "flaming":1,
    "debris":1,
    "cascading":1,
    "consolidated":1,
    "waterfront":1,
    "aware":1,
    "unpleasantness":1,
    "nervous":1,
    "cop":1,
    "officer":1,
    "awfulface":1,
    "scorched":1,
    "bruised":1,
    "limp":1,
    "malfunctioned":1,
    "ie":1,
    "cockroach":1,
    "tall":1,
    "someplace":1,
    "ise":1,
    "pop":1,
    "survived":1,
    "hate":1,
    "deprived":1,
    "rolemodel":1,
    "grinds":1,
    "glitter":1,
    "breadth":1,
    "landscape":1,
    "urban":1,
    "grandeur":1,
    "example":1,
    "started":1,
    "view":1,
    "broadly":1,
    "indians":1,
    "crazy":1,
    "fourfifty":1,
    "resented":1,
    "crazysometimes":1,
    "sharpens":1,
    "wits":1,
    "pulse":1,
    "predatory":1,
    "evil":1,
    "girl":1,
    "tentative":1,
    "certainly":1,
    "worked":1,
    "mischief":1,
    "wiped":1,
    "sport":1,
    "handle":1,
    "problems":1,
    "whatever":1,
    "properties":1,
    "wifelate":1,
    "wifeheld":1,
    "deeds":1,
    "sent":1,
    "plane":1,
    "smokies":1,
    "landed":1,
    "nightmares":1,
    "share":1,
    "fellows":1,
    "styles":1,
    "taste":1,
    "women":1,
    "nimbly":1,
    "gather":1,
    "peoples":1,
    "loathsome":1,
    "titfor":1,
    "tat":1,
    "stuff":1,
    "silly":1,
    "build":1,
    "whereas":1,
    "ah":1,
    "strings":1,
    "peril":1,
    "separated":1,
    "ruthless":1,
    "larger":1,
    "theywhat":1,
    "banal":1,
    "tale":1,
    "villain":1,
    "juliewhich":1,
    "monster":1,
    "andsquishhhrippp":1,
    "tossing":1,
    "ugly":1,
    "shoots":1,
    "hurling":1,
    "bean":1,
    "limbs":1,
    "bellowing":1,
    "upside":1,
    "downstars":1,
    "upper":1,
    "ibeam":1,
    "pov":1,
    "pocketing":1,
    "recoils":1,
    "shoulders":1,
    "tragedy":1,
    "kill":1,
    "iduis":1,
    "battle":1,
    "death":1,
    "savage":1,
    "reelingbamhe":1,
    "tools":1,
    "grasp":1,
    "inching":1,
    "painfully":1,
    "act":1,
    "revenge":1,
    "rivets":1,
    "balance":1,
    "lunges":1,
    "clang":1,
    "vertical":1,
    "die":1,
    "terrified":1,
    "reality":1,
    "soup":1,
    "nightmarish":1,
    "jeering":1,
    "naked":1,
    "nearing":1,
    "coins":1,
    "unscathed":1,
    "freakish":1,
    "deformed":1,
    "dolls":1,
    "circus":1,
    "wears":1,
    "liquefies":1,
    "drop":1,
    "liquid":1,
    "cube":1,
    "ice":1,
    "bursts":1,
    "flames":1,
    "madly":1,
    "insensitive":1,
    "sinew":1,
    "concentrated":1,
    "task":1,
    "gggggggg":1,
    "grating":1,
    "rips":1,
    "ggggggg":1,
    "pounces":1,
    "flail":1,
    "impotently":1,
    "jars":1,
    "level":1,
    "overcomes":1,
    "repulsion":1,
    "disgusts":1,
    "anguished":1,
    "caress":1,
    "rip":1,
    "usthe":1,
    "hadour":1,
    "togetherit":1,
    "belonged":1,
    "floats":1,
    "stalks":1,
    "construction":1,
    "trailer":1,
    "reappears":1,
    "itsdarkman":1,
    "chases":1,
    "searches":1,
    "snow":1,
    "alien":1,
    "switchblade":1,
    "powerful":2,
    "muscular":2,
    "tough":2,
    "whose":2,
    "eddie":2,
    "foghorn":2,
    "moans":2,
    "pulling":2,
    "fuck":2,
    "pier":2,
    "leaning":2,
    "space":2,
    "lit":2,
    "muscle":2,
    "property":2,
    "approaching":2,
    "theyre":2,
    "ladies":2,
    "search":2,
    "eight":2,
    "iron":2,
    "leg":2,
    "bunch":2,
    "third":2,
    "number":2,
    "balls":2,
    "dumbly":2,
    "full":2,
    "blacks":2,
    "anger":2,
    "yanagita":2,
    "glasses":2,
    "slot":2,
    "imager":2,
    "holographic":2,
    "cylinder":2,
    "wired":2,
    "24p":2,
    "yakatitos":2,
    "rotates":2,
    "keyboard":2,
    "biopress":2,
    "checks":2,
    "hums":2,
    "box":2,
    "rows":2,
    "densely":2,
    "per":2,
    "surface":2,
    "programmed":2,
    "exact":2,
    "replica":2,
    "perfect":2,
    "stopwatch":2,
    "molecule":2,
    "beeping":2,
    "tone":2,
    "spin":2,
    "fragment":2,
    "sheet":2,
    "thinking":2,
    "cake":2,
    "smart":2,
    "alkalinity":2,
    "drunk":2,
    "covered":2,
    "hundreds":2,
    "sheets":2,
    "month":2,
    "bam":2,
    "calmly":2,
    "taps":2,
    "plastic":2,
    "dunking":2,
    "object":2,
    "speech":2,
    "snags":2,
    "angrily":2,
    "means":2,
    "sufficiently":2,
    "blinks":2,
    "gorson":2,
    "tied":2,
    "week":2,
    "scowls":2,
    "missing":2,
    "element":2,
    "party":2,
    "tries":2,
    "appraising":2,
    "none":2,
    "client":2,
    "straw":2,
    "vill":2,
    "ze":2,
    "beautiful":2,
    "fortyeight":2,
    "raise":2,
    "preparing":2,
    "srs":2,
    "moving":2,
    "youd":2,
    "sips":2,
    "frowning":2,
    "steward":2,
    "mistake":2,
    "67":2,
    "maison":2,
    "serve":2,
    "california":2,
    "examines":2,
    "mine":2,
    "tastes":2,
    "plucks":2,
    "forgive":2,
    "gentlemen":2,
    "excuse":2,
    "held":2,
    "stewards":2,
    "fist":2,
    "dollar":2,
    "beaker":2,
    "brown":2,
    "except":2,
    "unbelievable":2,
    "saying":2,
    "grips":2,
    "holding":2,
    "ch":2,
    "u":2,
    "pump":2,
    "kugerands":2,
    "flat":2,
    "sir":2,
    "thisll":2,
    "approaches":2,
    "leak":2,
    "thing":2,
    "myself":2,
    "mans":2,
    "grin":2,
    "newspaper":2,
    "flooded":2,
    "continental":2,
    "lifting":2,
    "flight":2,
    "stairs":2,
    "creak":2,
    "eerie":2,
    "drip":2,
    "dripping":2,
    "pipe":2,
    "causing":2,
    "shatters":2,
    "fills":2,
    "echos":2,
    "tak":2,
    "l":2,
    "nal":2,
    "presentation":2,
    "mystery":2,
    "presence":2,
    "effects":2,
    "distorted":2,
    "origins":2,
    "big":2,
    "trip":2,
    "sky":2,
    "testsubjects":2,
    "period":2,
    "single":2,
    "although":2,
    "legal":2,
    "objects":2,
    "test":2,
    "leaves":2,
    "shots":2,
    "report":2,
    "ceiling":2,
    "become":2,
    "changes":2,
    "champagne":2,
    "gave":2,
    "turning":2,
    "haunting":2,
    "swept":2,
    "kissing":2,
    "modern":2,
    "continue":2,
    "loves":2,
    "etc":2,
    "helped":2,
    "wraps":2,
    "dale":2,
    "mug":2,
    "indeed":2,
    "circle":2,
    "claude":2,
    "bellasarious":2,
    "payments":2,
    "various":2,
    "zoning":2,
    "payoffs":2,
    "least":2,
    "admiring":2,
    "gracefully":2,
    "lays":2,
    "apartment":2,
    "suit":2,
    "running":2,
    "catch":2,
    "wait":2,
    "freezes":2,
    "panicked":2,
    "starting":2,
    "practically":2,
    "pretend":2,
    "wrong":2,
    "asking":2,
    "ou":2,
    "bends":2,
    "mean":2,
    "traffic":2,
    "sympathy":2,
    "person":2,
    "seat":2,
    "felt":2,
    "fathers":2,
    "detailed":2,
    "seems":2,
    "spade":2,
    "expect":2,
    "swim":2,
    "palms":2,
    "doing":2,
    "development":2,
    "point":2,
    "yourself":2,
    "happens":2,
    "isnt":2,
    "document":2,
    "threatening":2,
    "anything":2,
    "listens":2,
    "affected":2,
    "six":2,
    "telephone":2,
    "bother":2,
    "entire":2,
    "gang":2,
    "corky":2,
    "wildly":2,
    "panning":2,
    "shall":2,
    "disappear":2,
    "wide":2,
    "covers":2,
    "may":2,
    "surges":2,
    "blow":2,
    "pills":2,
    "swallows":2,
    "connects":2,
    "electrified":2,
    "tank":2,
    "electronic":2,
    "drinking":2,
    "claws":2,
    "pointless":2,
    "grab":2,
    "sparks":2,
    "bubbles":2,
    "surveys":2,
    "exit":2,
    "hiss":2,
    "filling":2,
    "explosive":2,
    "mix":2,
    "ignition":2,
    "trailing":2,
    "base":2,
    "motion":2,
    "spark":2,
    "born":2,
    "grows":2,
    "doll":2,
    "upward":2,
    "explosion":2,
    "blast":2,
    "earth":2,
    "limousine":2,
    "bored":2,
    "sometimes":2,
    "attempting":2,
    "itself":2,
    "form":2,
    "patients":2,
    "gauze":2,
    "mummy":2,
    "medical":2,
    "river":2,
    "severe":2,
    "spent":2,
    "nerve":2,
    "brain":2,
    "ceases":2,
    "mind":2,
    "giving":2,
    "leather":2,
    "restraints":2,
    "chance":2,
    "circles":2,
    "scale":2,
    "code":2,
    "unit":2,
    "race":2,
    "crowd":2,
    "stupidly":2,
    "torn":2,
    "dangle":2,
    "staggers":2,
    "meeeeeee":2,
    "far":2,
    "coughs":2,
    "rain":2,
    "scrap":2,
    "pictures":2,
    "yo":2,
    "sitting":2,
    "b161":2,
    "during":2,
    "fallen":2,
    "gleam":2,
    "dance":2,
    "bryant":2,
    "crowded":2,
    "elaborately":2,
    "sleek":2,
    "passes":2,
    "gratitude":2,
    "extreme":2,
    "vodka":2,
    "troubles":2,
    "clamps":2,
    "million":2,
    "dollars":2,
    "getting":2,
    "rid":2,
    "glad":2,
    "destroyed":2,
    "police":2,
    "loved":2,
    "sweeps":2,
    "dancing":2,
    "yours":2,
    "fighting":2,
    "alarm":2,
    "passing":2,
    "gusts":2,
    "pavement":2,
    "shaking":2,
    "nerves":2,
    "breast":2,
    "pops":2,
    "shutters":2,
    "game":2,
    "dragging":2,
    "knew":2,
    "bleeding":2,
    "claw":2,
    "lens":2,
    "touches":2,
    "narrow":2,
    "interior":2,
    "doorway":2,
    "sh":2,
    "shaft":2,
    "dangling":2,
    "home":2,
    "clicks":2,
    "cord":2,
    "metal":2,
    "photo":2,
    "drawing":2,
    "extrapolate":2,
    "ignore":2,
    "millimoles":2,
    "following":2,
    "lack":2,
    "digits":2,
    "chili":2,
    "dog":2,
    "clickfreezes":2,
    "click":2,
    "hang":2,
    "clothesline":2,
    "members":2,
    "filled":2,
    "presses":2,
    "deep":2,
    "clothes":2,
    "hesitates":2,
    "shoves":2,
    "tickets":2,
    "swear":2,
    "pickup":2,
    "wouldnt":2,
    "nearby":2,
    "fifty":2,
    "m":2,
    "days":2,
    "sofa":2,
    "gift":2,
    "must":2,
    "warmly":2,
    "pulsates":2,
    "hat":2,
    "restored":2,
    "roll":2,
    "gone":2,
    "happy":2,
    "horrible":2,
    "ass":2,
    "red":2,
    "bug":2,
    "leads":2,
    "throat":2,
    "mugger":2,
    "jerks":2,
    "stay":2,
    "97":2,
    "couldnt":2,
    "touch":2,
    "sight":2,
    "clerk":2,
    "fearful":2,
    "waits":2,
    "cops":2,
    "faintly":2,
    "intensity":2,
    "reads":2,
    "almost":2,
    "bellows":2,
    "fast":2,
    "tremble":2,
    "studies":2,
    "advantage":2,
    "flows":2,
    "former":2,
    "hard":2,
    "bye":2,
    "finish":2,
    "bob":2,
    "win":2,
    "alongside":2,
    "durantdarkmans":2,
    "sprints":2,
    "stare":2,
    "shoot":2,
    "whirl":2,
    "faster":2,
    "whos":2,
    "cash":2,
    "backhands":2,
    "facecrack":2,
    "fires":2,
    "notes":2,
    "knows":2,
    "guzmans":2,
    "follows":2,
    "thin":2,
    "crates":2,
    "clip":2,
    "shower":2,
    "melts":2,
    "fucking":2,
    "breathing":2,
    "cough":2,
    "pierce":2,
    "keeping":2,
    "swallowed":2,
    "guns":2,
    "spits":2,
    "louder":2,
    "snap":2,
    "free":2,
    "laughing":2,
    "whole":2,
    "changed":2,
    "whirls":2,
    "rack":2,
    "truly":2,
    "pyramid":2,
    "misses":2,
    "explodes":2,
    "lip":2,
    "next":2,
    "corner":2,
    "darkened":2,
    "needs":2,
    "care":2,
    "krugerands":2,
    "send":2,
    "rising":2,
    "doctor":2,
    "rung":2,
    "rooftop":2,
    "gunfire":2,
    "hanging":2,
    "hook":2,
    "emerge":2,
    "yanked":2,
    "swoops":2,
    "holograph":2,
    "desperately":2,
    "fingertips":2,
    "rope":2,
    "tumbles":2,
    "p426":2,
    "spinning":2,
    "asphalt":2,
    "executives":2,
    "miles":2,
    "whipping":2,
    "taking":2,
    "young":2,
    "proceeds":2,
    "flailing":2,
    "abyss":2,
    "clamp":2,
    "pulsing":2,
    "push":2,
    "pummelling":2,
    "rivet":2,
    "freed":2,
    "shock":3,
    "shows":3,
    "inside":3,
    "huge":3,
    "gonna":3,
    "position":3,
    "break":3,
    "selling":3,
    "guys":3,
    "trimmer":3,
    "snip":3,
    "screams":3,
    "slightly":3,
    "wearing":3,
    "everything":3,
    "lips":3,
    "weve":3,
    "working":3,
    "packed":3,
    "pin":3,
    "rise":3,
    "substance":3,
    "wont":3,
    "problem":3,
    "photograph":3,
    "tissue":3,
    "microscope":3,
    "bath":3,
    "words":3,
    "loud":3,
    "percent":3,
    "similar":3,
    "word":3,
    "scientist":3,
    "forget":3,
    "tosses":3,
    "used":3,
    "pappas":3,
    "wheres":3,
    "said":3,
    "interested":3,
    "frankly":3,
    "ready":3,
    "deal":3,
    "silent":3,
    "estate":3,
    "location":3,
    "riverfront":3,
    "market":3,
    "fact":3,
    "starts":3,
    "direction":3,
    "firm":3,
    "anyone":3,
    "beaujolais":3,
    "reme":3,
    "madame":3,
    "firmly":3,
    "any":3,
    "leave":3,
    "told":3,
    "calls":3,
    "bottom":3,
    "top":3,
    "leaving":3,
    "tonight":3,
    "marry":3,
    "dr":3,
    "punch":3,
    "ones":3,
    "sounds":3,
    "trying":3,
    "industries":3,
    "took":3,
    "gotta":3,
    "times":3,
    "coming":3,
    "swishes":3,
    "terrible":3,
    "pass":3,
    "rushes":3,
    "lies":3,
    "chest":3,
    "blood":3,
    "shadowy":3,
    "cautiously":3,
    "testtube":3,
    "backward":3,
    "ve":3,
    "science":3,
    "music":3,
    "night":3,
    "stars":3,
    "while":3,
    "short":3,
    "years":3,
    "case":3,
    "shadow":3,
    "album":3,
    "continues":3,
    "theme":3,
    "eventually":3,
    "thought":3,
    "kiss":3,
    "h":3,
    "th":3,
    "late":3,
    "commission":3,
    "leans":3,
    "closing":3,
    "power":3,
    "dressed":3,
    "hurries":3,
    "married":3,
    "kind":3,
    "having":3,
    "living":3,
    "together":3,
    "oh":3,
    "grow":3,
    "put":3,
    "buy":3,
    "heard":3,
    "loss":3,
    "came":3,
    "office":3,
    "went":3,
    "easy":3,
    "gestures":3,
    "model":3,
    "occasional":3,
    "taken":3,
    "remains":3,
    "destroy":3,
    "becomes":3,
    "afraid":3,
    "clutches":3,
    "wrist":3,
    "maalox":3,
    "reveals":3,
    "green":3,
    "knees":3,
    "bid":3,
    "shakes":3,
    "emerges":3,
    "shrieks":3,
    "oxygen":3,
    "switch":3,
    "scream":3,
    "twisted":3,
    "noise":3,
    "tears":3,
    "breaks":3,
    "patient":3,
    "carefully":3,
    "screaming":3,
    "feel":3,
    "interns":3,
    "letting":3,
    "personally":3,
    "turn":3,
    "move":3,
    "pushes":3,
    "loose":3,
    "forces":3,
    "tracks":3,
    "round":3,
    "others":3,
    "bar":3,
    "sighs":3,
    "lead":3,
    "made":3,
    "hot":3,
    "called":3,
    "childish":3,
    "speaking":3,
    "contact":3,
    "shudders":3,
    "play":3,
    "show":3,
    "fear":3,
    "along":3,
    "cart":3,
    "clear":3,
    "information":3,
    "lower":3,
    "n":3,
    "booth":3,
    "closeup":3,
    "suitcase":3,
    "shrugs":3,
    "angry":3,
    "darkmanpauly":3,
    "funny":3,
    "crosses":3,
    "since":3,
    "able":3,
    "really":3,
    "alive":3,
    "suppose":3,
    "deeply":3,
    "world":3,
    "skull":3,
    "sharply":3,
    "temple":3,
    "jig":3,
    "five":3,
    "post":3,
    "staring":3,
    "step":3,
    "happened":3,
    "either":3,
    "attached":3,
    "crack":3,
    "viciously":3,
    "closed":3,
    "center":3,
    "scars":3,
    "anymore":3,
    "horribly":3,
    "tape":3,
    "security":3,
    "sneaks":3,
    "glance":3,
    "em":3,
    "waiting":3,
    "honor":3,
    "soon":3,
    "goodbye":3,
    "sees":3,
    "revolving":3,
    "knocking":3,
    "subway":3,
    "tunnels":3,
    "illuminated":3,
    "blackness":3,
    "quietly":3,
    "attendant":3,
    "girlfriend":3,
    "brandy":3,
    "halt":3,
    "walkeetalkee":3,
    "barely":3,
    "kids":3,
    "elevator":3,
    "enough":3,
    "girder":3,
    "name":4,
    "distance":4,
    "yeah":4,
    "uh":4,
    "pull":4,
    "building":4,
    "nods":4,
    "those":4,
    "c":4,
    "flashes":4,
    "already":4,
    "consider":4,
    "puts":4,
    "try":4,
    "b":4,
    "input":4,
    "pan":4,
    "image":4,
    "pins":4,
    "synthetic":4,
    "skin":4,
    "hangs":4,
    "twenty":4,
    "ago":4,
    "slowly":4,
    "remain":4,
    "quick":4,
    "calm":4,
    "air":4,
    "flinches":4,
    "such":4,
    "work":4,
    "call":4,
    "fair":4,
    "guess":4,
    "jr":4,
    "rolls":4,
    "pay":4,
    "offer":4,
    "toast":4,
    "silence":4,
    "hardly":4,
    "use":4,
    "hundred":4,
    "fresh":4,
    "cat":4,
    "ever":4,
    "remember":4,
    "exits":4,
    "directly":4,
    "water":4,
    "beam":4,
    "snaps":4,
    "chair":4,
    "white":4,
    "part":4,
    "replaced":4,
    "lovers":4,
    "havent":4,
    "song":4,
    "picture":4,
    "caught":4,
    "pretty":4,
    "wanted":4,
    "sets":4,
    "memo":4,
    "find":4,
    "people":4,
    "closes":4,
    "watches":4,
    "sidewalk":4,
    "intersection":4,
    "ring":4,
    "d":4,
    "lot":4,
    "stop":4,
    "ahead":4,
    "franz":4,
    "nd":4,
    "last":4,
    "w":4,
    "rudy":4,
    "end":4,
    "bag":4,
    "acetylene":4,
    "beak":4,
    "keep":4,
    "legs":4,
    "inches":4,
    "smoke":4,
    "tear":4,
    "burns":4,
    "quite":4,
    "longer":4,
    "follow":4,
    "between":4,
    "twists":4,
    "quickly":4,
    "both":4,
    "fight":4,
    "else":4,
    "hair":4,
    "charred":4,
    "quadrant":4,
    "enter":4,
    "final":4,
    "god":4,
    "ground":4,
    "help":4,
    "quiet":4,
    "set":4,
    "mask":4,
    "buddy":4,
    "doors":4,
    "leaps":4,
    "bitch":4,
    "train":4,
    "pink":4,
    "hour":4,
    "ladder":4,
    "pedestrian":4,
    "makes":5,
    "car":5,
    "few":5,
    "guy":5,
    "say":5,
    "finger":5,
    "aint":5,
    "second":5,
    "points":5,
    "grabs":5,
    "goes":5,
    "flash":5,
    "left":5,
    "finally":5,
    "beneath":5,
    "each":5,
    "fall":5,
    "atop":5,
    "halts":5,
    "hold":5,
    "give":5,
    "old":5,
    "hey":5,
    "cells":5,
    "ninetynine":5,
    "ninety":5,
    "nine":5,
    "these":5,
    "ten":5,
    "continued":5,
    "bobs":5,
    "most":5,
    "bring":5,
    "found":5,
    "gold":5,
    "sure":5,
    "once":5,
    "rises":5,
    "youll":5,
    "breath":5,
    "figure":5,
    "fluid":5,
    "stick":5,
    "lifts":5,
    "men":5,
    "climbs":5,
    "slide":5,
    "windows":5,
    "great":5,
    "laughs":5,
    "sunset":5,
    "certain":5,
    "yet":5,
    "fades":5,
    "lights":5,
    "enters":5,
    "papers":5,
    "id":5,
    "son":5,
    "alone":5,
    "could":5,
    "desk":5,
    "miss":5,
    "understand":5,
    "city":5,
    "without":5,
    "paulys":5,
    "forward":5,
    "raises":5,
    "drops":5,
    "opens":5,
    "crawls":5,
    "bobbing":5,
    "moment":5,
    "grief":5,
    "platform":5,
    "pain":5,
    "eye":5,
    "p":5,
    "shoulder":5,
    "burned":5,
    "skeletal":5,
    "slides":5,
    "de":5,
    "vein":5,
    "wahbuht":5,
    "durantdarkman":5,
    "penlight":5,
    "elephant":5,
    "helicopter":5,
    "cut":6,
    "huh":6,
    "stand":6,
    "things":6,
    "f":6,
    "walks":6,
    "slips":6,
    "let":6,
    "better":6,
    "glass":6,
    "tiny":6,
    "whats":6,
    "begins":6,
    "punches":6,
    "maybe":6,
    "listen":6,
    "appears":6,
    "catches":6,
    "answer":6,
    "hoffenstein":6,
    "sr":6,
    "business":6,
    "worth":6,
    "pause":6,
    "believe":6,
    "had":6,
    "news":6,
    "disappears":6,
    "removes":6,
    "pocket":6,
    "line":6,
    "voice":6,
    "coffee":6,
    "plays":6,
    "talk":6,
    "gives":6,
    "waves":6,
    "place":6,
    "thats":6,
    "bad":6,
    "memorandum":6,
    "even":6,
    "dear":6,
    "rick":6,
    "slams":6,
    "places":6,
    "rage":6,
    "bandages":6,
    "governor":6,
    "nothing":6,
    "dead":6,
    "edge":6,
    "runs":6,
    "o":6,
    "restaurant":6,
    "beat":6,
    "footsteps":6,
    "talking":7,
    "matter":7,
    "holds":7,
    "than":7,
    "screen":7,
    "throws":7,
    "high":7,
    "hastings":7,
    "von":7,
    "price":7,
    "smile":7,
    "reveal":7,
    "after":7,
    "did":7,
    "westlake":7,
    "comes":7,
    "coat":7,
    "heads":7,
    "races":7,
    "revealing":7,
    "blue":7,
    "steps":7,
    "picks":7,
    "bed":7,
    "rings":7,
    "frame":7,
    "dream":7,
    "shadows":7,
    "stops":7,
    "side":7,
    "skip":7,
    "falls":7,
    "bandaged":7,
    "window":7,
    "youve":7,
    "fire":7,
    "g":7,
    "need":7,
    "ill":8,
    "trumayne":8,
    "every":8,
    "y":8,
    "close":8,
    "cant":8,
    "bird":8,
    "am":8,
    "above":8,
    "stares":8,
    "sorry":8,
    "should":8,
    "day":8,
    "arms":8,
    "steel":8,
    "sits":8,
    "faces":8,
    "arm":8,
    "dark":8,
    "stracks":8,
    "thank":8,
    "same":8,
    "before":8,
    "burn":8,
    "lost":8,
    "doesnt":8,
    "warehouse":8,
    "darkmans":8,
    "upon":8,
    "durants":8,
    "standing":8,
    "phone":9,
    "minutes":9,
    "does":9,
    "three":9,
    "fingers":9,
    "always":9,
    "wind":9,
    "nose":9,
    "will":9,
    "being":9,
    "real":9,
    "julies":9,
    "drink":9,
    "under":9,
    "much":9,
    "front":9,
    "cab":9,
    "course":9,
    "own":9,
    "money":9,
    "smiley":9,
    "himself":9,
    "onto":9,
    "street":9,
    "run":9,
    "fat":9,
    "tunnel":9,
    "life":10,
    "empty":10,
    "roof":10,
    "reaches":10,
    "youre":10,
    "lets":10,
    "mouth":10,
    "glances":10,
    "hell":10,
    "watch":10,
    "ball":10,
    "ask":10,
    "stands":10,
    "table":10,
    "e":10,
    "floor":10,
    "shot":10,
    "think":10,
    "s":10,
    "hung":10,
    "too":11,
    "against":11,
    "which":11,
    "room":11,
    "their":11,
    "towards":11,
    "computer":11,
    "make":11,
    "half":11,
    "louis":11,
    "theres":11,
    "never":11,
    "t":11,
    "closer":11,
    "first":11,
    "there":11,
    "more":12,
    "suddenly":12,
    "minute":12,
    "why":12,
    "go":12,
    "wine":12,
    "smiles":12,
    "feet":12,
    "sound":12,
    "open":12,
    "going":12,
    "yes":12,
    "very":12,
    "lighter":12,
    "spins":12,
    "hes":13,
    "darkness":13,
    "another":13,
    "got":13,
    "two":13,
    "cigar":13,
    "hear":13,
    "bottle":13,
    "our":13,
    "moves":13,
    "wall":13,
    "mr":13,
    "fine":13,
    "when":13,
    "where":13,
    "gun":13,
    "body":13,
    "looking":14,
    "okay":14,
    "or":14,
    "father":14,
    "us":14,
    "only":14,
    "way":14,
    "would":14,
    "toward":14,
    "across":14,
    "love":14,
    "didnt":14,
    "past":14,
    "black":15,
    "tell":15,
    "right":15,
    "ive":15,
    "so":15,
    "little":15,
    "still":16,
    "again":16,
    "peytons":16,
    "long":16,
    "who":16,
    "other":16,
    "see":16,
    "well":16,
    "robert":16,
    "them":17,
    "time":17,
    "come":17,
    "something":17,
    "pulls":17,
    "good":17,
    "take":17,
    "has":18,
    "hands":18,
    "light":18,
    "please":18,
    "some":18,
    "behind":18,
    "briefcase":18,
    "yakitito":19,
    "away":19,
    "door":19,
    "pauly":19,
    "through":20,
    "takes":21,
    "camera":21,
    "looks":21,
    "head":22,
    "been":22,
    "lab":22,
    "were":22,
    "look":23,
    "here":23,
    "get":23,
    "can":23,
    "how":23,
    "around":23,
    "eyes":23,
    "guzman":23,
    "man":24,
    "off":25,
    "want":25,
    "know":25,
    "do":25,
    "darkman":26,
    "all":27,
    "turns":27,
    "if":28,
    "then":28,
    "they":28,
    "now":29,
    "was":29,
    "hand":30,
    "not":30,
    "by":31,
    "what":31,
    "just":32,
    "about":33,
    "be":34,
    "like":34,
    "over":34,
    "one":37,
    "dont":37,
    "are":38,
    "this":39,
    "your":40,
    "im":41,
    "back":42,
    "but":44,
    "an":45,
    "down":45,
    "durant":45,
    "have":46,
    "its":47,
    "no":49,
    "out":51,
    "face":51,
    "strack":52,
    "my":53,
    "":54,
    "she":55,
    "julie":60,
    "up":61,
    "into":68,
    "peyton":70,
    "me":72,
    "we":76,
    "her":76,
    "with":77,
    "him":80,
    "from":81,
    "at":81,
    "for":85,
    "that":88,
    "as":89,
    "on":109,
    "it":142,
    "is":157,
    "in":172,
    "i":188,
    "you":193,
    "his":210,
    "he":213,
    "and":255,
    "of":277,
    "to":349,
    "a":410,
    "the":872
}