{
    "nervous":1,
    "compassion":1,
    "index":1,
    "sample":1,
    "eighteen":1,
    "`cares":1,
    "numbers":1,
    "toilet":1,
    "twenty":1,
    "march":1,
    "rates":1,
    "mayo":1,
    "centers":1,
    "pricks":1,
    "twice":1,
    "howard":1,
    "dies":1,
    "flob":1,
    "norman":1,
    "forced":1,
    "acting":1,
    "interests":1,
    "radio":1,
    "address":1,
    "bar":1,
    "association":1,
    "front":1,
    "joke":1,
    "wantcha":1,
    "welcome":1,
    "deadringer":1,
    "perched":1,
    "pound":1,
    "hero":1,
    "enters":1,
    "stage":1,
    "wearing":1,
    "uncle":1,
    "hat":1,
    "waving":1,
    "triumphantly":1,
    "teenage":1,
    "rope":1,
    "introduction":1,
    "amongst":1,
    "smiling":1,
    "assure":1,
    "fl":1,
    "considering":1,
    "folks":1,
    "rebate":1,
    "`93":1,
    "convertibles":1,
    "busier":1,
    "mommy":1,
    "riding":1,
    "routine":1,
    "squints":1,
    "wailing":1,
    "parents":1,
    "comfort":1,
    "matter":1,
    "riddle":1,
    "jar":1,
    "sixthirty":1,
    "stacked":1,
    "`ve":1,
    "mabel":1,
    "bus":1,
    "jennifers":1,
    "lolas":1,
    "hour":1,
    "lola":1,
    "meester":1,
    "kobic":1,
    "fault":1,
    "learn":1,
    "ibm":1,
    "wang":1,
    "puedo":1,
    "comprendar":1,
    "esta":1,
    "machina":1,
    "airight":1,
    "checkbook":1,
    "exwife":1,
    "ex":1,
    "e":1,
    "x":1,
    "bottom":1,
    "drawer":1,
    "baseball":1,
    "glove":1,
    "enough":1,
    "si":1,
    "diabetico":1,
    "shortterm":1,
    "swimming":1,
    "dinner":1,
    "joan":1,
    "klahoma":1,
    "sweeping":1,
    "plain":1,
    "`where":1,
    "wavin":1,
    "wheat":1,
    "smell":1,
    "sweet":1,
    "stavensen":1,
    "legitimate":1,
    "deduction":1,
    "taxes":1,
    "purposes":1,
    "hires":1,
    "functions":1,
    "exposed":1,
    "situations":1,
    "johnny":1,
    "match":1,
    "ears":1,
    "stairs":1,
    "limo":1,
    "intro":1,
    "introduce":1,
    "priest":1,
    "thanking":1,
    "father":1,
    "mclntire":1,
    "blessed":1,
    "inauguration":1,
    "ran":1,
    "blankfort":1,
    "couldnthelp":1,
    "remembering":1,
    "law":1,
    "college":1,
    "students":1,
    "beers":1,
    "christ":1,
    "handsome":1,
    "rid":1,
    "grin":1,
    "schmuck":1,
    "speeds":1,
    "curb":1,
    "motorcade":1,
    "ahhh":1,
    "ahhhhh":1,
    "both":1,
    "sides":1,
    "brain":1,
    "vegetable":1,
    "hysterical":1,
    "upstairs":1,
    "laundry":1,
    "nightmare":1,
    "point":1,
    "coma":1,
    "al":1,
    "built":1,
    "cocksucker":1,
    "med":1,
    "temporary":1,
    "solution":1,
    "till":1,
    "tilt":1,
    "handled":1,
    "television":1,
    "cooperative":1,
    "communications":1,
    "director":1,
    "earlier":1,
    "coke":1,
    "perrier":1,
    "1m":1,
    "excited":1,
    "upset":1,
    "nods":1,
    "deep":1,
    "breath":1,
    "difficult":1,
    "feelings":1,
    "focus":1,
    "gqod":1,
    "`incident":1,
    "gosh":1,
    "probably":1,
    "enemies":1,
    "secure":1,
    "bed":1,
    "knowing":1,
    "fully":1,
    "sitting":1,
    "chair":1,
    "presidant":1,
    "mentally":1,
    "unbalanced":1,
    "certifiable":1,
    "usually":1,
    "paid":1,
    "barter":1,
    "legal":1,
    "driven":1,
    "red":1,
    "empty":1,
    "road":1,
    "gues":1,
    "entire":1,
    "quarters":1,
    "bedroom":1,
    "ladys":1,
    "walks":1,
    "awe":1,
    "cow":1,
    "outside":1,
    "classifies":1,
    "`slight":1,
    "although":1,
    "kinds":1,
    "broken":1,
    "send":1,
    "africa":1,
    "dig":1,
    "dirt":1,
    "`president":1,
    "tops":1,
    "poor":1,
    "newly":1,
    "appointed":1,
    "vp":1,
    "becomes":1,
    "containment":1,
    "nurses":1,
    "grand":1,
    "doctors":1,
    "older":1,
    "cdc":1,
    "duanes":1,
    "commencement":1,
    "bryn":1,
    "mawr":1,
    "managed":1,
    "incident":1,
    "`the":1,
    "hate":1,
    "buying":1,
    "minor":1,
    "yutz":1,
    "remarkable":1,
    "signs":1,
    "paralysis":1,
    "emg":1,
    "completely":1,
    "normal":1,
    "gone":1,
    "exercising":1,
    "recently":1,
    "watching":1,
    "diet":1,
    "weight":1,
    "power":1,
    "judging":1,
    "tests":1,
    "reason":1,
    "within":1,
    "clara":1,
    "diane":1,
    "randi":1,
    "leans":1,
    "grasping":1,
    "desperately":1,
    "relieved":1,
    "scared":1,
    "feels":1,
    "attached":1,
    "fell":1,
    "holiday":1,
    "embellish":1,
    "promise":1,
    "ring":1,
    "waiter":1,
    "napkin":1,
    "temps":1,
    "cancun":1,
    "bye":1,
    "continued":1,
    "convalescence":1,
    "resting":1,
    "physician":1,
    "pronounced":1,
    "perfectly":1,
    "examined":1,
    "thoroughly":1,
    "attend":1,
    "official":1,
    "wednesday":1,
    "briefed":1,
    "areas":1,
    "concern":1,
    "confident":1,
    "nation":1,
    "african":1,
    "goodwill":1,
    "tour":1,
    "sander":1,
    "vanocur":1,
    "mannerisms":1,
    "politician":1,
    "hooked":1,
    "overnight":1,
    "presence":1,
    "whenever":1,
    "pocket":1,
    "coat":1,
    "otherwise":1,
    "`em":1,
    "convention":1,
    "stronger":1,
    "prouder":1,
    "wrote":1,
    "distant":1,
    "guiding":1,
    "rocky":1,
    "shoal":1,
    "sunday":1,
    "afternoon":1,
    "leaguer":1,
    "strike":1,
    "swung":1,
    "gentle":1,
    "kindness":1,
    "gather":1,
    "sun":1,
    "tom":1,
    "virtually":1,
    "reporter":1,
    "camped":1,
    "awaiting":1,
    "appearance":1,
    "amazing":1,
    "officials":1,
    "claim":1,
    "expected":1,
    "minutes":1,
    "leaves":1,
    "cousin":1,
    "hardly":1,
    "sees":1,
    "fast":1,
    "move":1,
    "balcony":1,
    "soften":1,
    "staring":1,
    "tuck":1,
    "perhaps":1,
    "pit":1,
    "vipers":1,
    "huddled":1,
    "beside":1,
    "hates":1,
    "bite":1,
    "loves":1,
    "protect":1,
    "gun":1,
    "policy":1,
    "use":1,
    "wondered":1,
    "guysd":1,
    "checked":1,
    "liquor":1,
    "finances":1,
    "race":1,
    "student":1,
    "scout":1,
    "declared":1,
    "frequent":1,
    "flyer":1,
    "miles":1,
    "return":1,
    "check":1,
    "creative":1,
    "sounds":1,
    "bettern":1,
    "judge":1,
    "using":1,
    "robotic":1,
    "mechanism":1,
    "picking":1,
    "engine":1,
    "large":1,
    "duplicate":1,
    "arm":1,
    "movements":1,
    "pounds":1,
    "slip":1,
    "sleeves":1,
    "caught":1,
    "fish":1,
    "soundbite":1,
    "machine":1,
    "mark":1,
    "relaxed":1,
    "comfortable":1,
    "agree":1,
    "pills":1,
    "unbelievable":1,
    "transformation":1,
    "rebirth":1,
    "stared":1,
    "obviously":1,
    "profound":1,
    "strokell":1,
    "dozen":1,
    "jerk":1,
    "bout":1,
    "pushups":1,
    "easier":1,
    "kryptonite":1,
    "ted":1,
    "land":1,
    "legislation":1,
    "misinterpreting":1,
    "study":1,
    "1100":1,
    "calories":1,
    "risk":1,
    "low":1,
    "birthrate":1,
    "brush":1,
    "bounding":1,
    "energy":1,
    "track":1,
    "star":1,
    "merely":1,
    "overcompensation":1,
    "indefatigable":1,
    "greatness":1,
    "truly":1,
    "morton":1,
    "showing":1,
    "strength":1,
    "character":1,
    "elected":1,
    "mort":1,
    "genuflecting":1,
    "makin":1,
    "puppet":1,
    "plant":1,
    "manipulative":1,
    "political":1,
    "theater":1,
    "chris":1,
    "steamed":1,
    "predictions":1,
    "throwing":1,
    "ceremonial":1,
    "pitch":1,
    "fetched":1,
    "theory":1,
    "larry":1,
    "enjoying":1,
    "photograph":1,
    "paranoid":1,
    "compared":1,
    "photographs":1,
    "reaches":1,
    "doorway":1,
    "slides":1,
    "wall":1,
    "slowly":1,
    "bends":1,
    "peeks":1,
    "tuesday":1,
    "25th":1,
    "scheduled":1,
    "favorite":1,
    "nailed":1,
    "dumped":1,
    "anyhow":1,
    "tracking":1,
    "theyll":1,
    "burn":1,
    "seventy":1,
    "percent":1,
    "seniors":1,
    "eighty":1,
    "mothers":1,
    "russell":1,
    "trade":1,
    "pass":1,
    "ferrari":1,
    "garage":1,
    "keeping":1,
    "nights":1,
    "glances":1,
    "puzzled":1,
    "klick":1,
    "visual":1,
    "soup":1,
    "verbal":1,
    "skills":1,
    "ability":1,
    "communicate":1,
    "cartoons":1,
    "tweety":1,
    "bird":1,
    "which":1,
    "cat":1,
    "quick":1,
    "rise":1,
    "particular":1,
    "history":1,
    "thicket":1,
    "middle":1,
    "age":1,
    "rediscover":1,
    "wonder":1,
    "dr":1,
    "henry":1,
    "mueller":1,
    "expert":1,
    "psychological":1,
    "effects":1,
    "midlife":1,
    "crisis":1,
    "gail":1,
    "sheehy":1,
    "coauthored":1,
    "book":1,
    "male":1,
    "menopause":1,
    "`bum":1,
    "da":1,
    "dum":1,
    "swings":1,
    "materializes":1,
    "queen":1,
    "england":1,
    "regal":1,
    "cloud":1,
    "steam":1,
    "patronize":1,
    "turnaround":1,
    "bullshit":1,
    "homes":1,
    "spectacle":1,
    "pulled":1,
    "muppets":1,
    "disappear":1,
    "intentionally":1,
    "immediately":1,
    "tenthirty":1,
    "post":1,
    "vetoes":1,
    "listen":1,
    "budgets":1,
    "occasionally":1,
    "cuts":1,
    "lousy":1,
    "taped":1,
    "undeclared":1,
    "bunch":1,
    "add":1,
    "books":1,
    "surprised":1,
    "anywhere":1,
    "priorities":1,
    "fixed":1,
    "buy":1,
    "payments":1,
    "400":1,
    "billion":1,
    "deficit":1,
    "places":1,
    "top":1,
    "unfolding":1,
    "copy":1,
    "paper":1,
    "art":1,
    "`vice":1,
    "linked":1,
    "genius":1,
    "hundredth":1,
    "cabinet":1,
    "meeting":1,
    "section":1,
    "agenda":1,
    "order":1,
    "achieved":1,
    "example":1,
    "according":1,
    "omb":1,
    "seventeen":1,
    "defense":1,
    "contractors":1,
    "delinquent":1,
    "contracts":1,
    "sense":1,
    "finished":1,
    "bearing":1,
    "took":1,
    "account":1,
    "unfortunately":1,
    "halfway":1,
    "goal":1,
    "commerce":1,
    "fortythree":1,
    "ad":1,
    "boost":1,
    "consumer":1,
    "industry":1,
    "effective":1,
    "designed":1,
    "bolster":1,
    "individual":1,
    "domestic":1,
    "automotive":1,
    "purchase":1,
    "shore":1,
    "product":1,
    "identification":1,
    "preserve":1,
    "market":1,
    "fortyseven":1,
    "theyve":1,
    "bought":1,
    "eight":1,
    "sleep":1,
    "street":1,
    "gives":1,
    "forty":1,
    "postal":1,
    "eightyfour":1,
    "carry":1,
    "fiftysix":1,
    "fantastic":1,
    "heard":1,
    "fuck":1,
    "trilateral":1,
    "commission":1,
    "wrestles":1,
    "struggles":1,
    "free":1,
    "destroy":1,
    "shred":1,
    "threatening":1,
    "`saves":1,
    "camp":1,
    "thatd":1,
    "throws":1,
    "gear":1,
    "bending":1,
    "driveway":1,
    "gate":1,
    "edge":1,
    "lawn":1,
    "fond":1,
    "gin":1,
    "jack":1,
    "`bleed":1,
    "teach":1,
    "academy":1,
    "`dont":1,
    "gold":1,
    "silver":1,
    "worldly":1,
    "pride":1,
    "glory":1,
    "bleeding":1,
    "firearms":1,
    "tobacco":1,
    "trained":1,
    "helped":1,
    "reminds":1,
    "werent":1,
    "jaunt":1,
    "bahamas":1,
    "worker":1,
    "allowed":1,
    "strict":1,
    "planning":1,
    "constitution":1,
    "supposed":1,
    "brief":1,
    "sloppy":1,
    "souvenirs":1,
    "towels":1,
    "you1re":1,
    "shakes":1,
    "deal":1,
    "mouth":1,
    "shut":1,
    "truman":1,
    "walking":1,
    "emerge":1,
    "stepping":1,
    "onto":1,
    "sidewalk":1,
    "anyway":1,
    "starving":1,
    "appetite":1,
    "secrets":1,
    "lost":1,
    "ago":1,
    "agency":1,
    "secretaries":1,
    "stiff":1,
    "funny":1,
    "assume":1,
    "fancy":1,
    "helicopter":1,
    "saving":1,
    "felt":1,
    "visitors":1,
    "ice":1,
    "cream":1,
    "jackson":1,
    "represented":1,
    "lower":1,
    "hurry":1,
    "ideas":1,
    "rises":1,
    "couch":1,
    "blazing":1,
    "lint":1,
    "flea":1,
    "corps":1,
    "guest":1,
    "stare":1,
    "neither":1,
    "stand":1,
    "carpet":1,
    "resignation":1,
    "notice":1,
    "mesmerized":1,
    "announce":1,
    "surprise":1,
    "thinks":1,
    "lying":1,
    "water":1,
    "breathe":1,
    "bars":1,
    "windows":1,
    "graffiti":1,
    "doors":1,
    "afford":1,
    "laid":1,
    "trillions":1,
    "debt":1,
    "roads":1,
    "cracking":1,
    "bridges":1,
    "crumbling":1,
    "build":1,
    "japan":1,
    "cardboard":1,
    "boxes":1,
    "ten":1,
    "drugs":1,
    "decided":1,
    "impossible":1,
    "initiating":1,
    "someones":1,
    "experience":1,
    "fly":1,
    "unless":1,
    "tapping":1,
    "spirit":1,
    "inspirational":1,
    "boldest":1,
    "initiative":1,
    "yet":1,
    "`new":1,
    "proposed":1,
    "comprehensive":1,
    "unparalleled":1,
    "fdr":1,
    "naive":1,
    "irresponsible":1,
    "courageous":1,
    "challenging":1,
    "visionary":1,
    "insane":1,
    "brilliant":1,
    "proposing":1,
    "lamebrained":1,
    "schemes":1,
    "vote":1,
    "figures":1,
    "eightthirty":1,
    "labor":1,
    "briefing":1,
    "bedtime":1,
    "hammered":1,
    "rosenthal":1,
    "inside":1,
    "vicepresident":1,
    "burundi":1,
    "fertility":1,
    "beads":1,
    "speak":1,
    "frankly":1,
    "gotten":1,
    "politically":1,
    "respect":1,
    "role":1,
    "play":1,
    "kept":1,
    "myself":1,
    "support":1,
    "children":1,
    "integrity":1,
    "re":1,
    "choir":1,
    "embarrassing":1,
    "bobs":1,
    "smelling":1,
    "flies":1,
    "watch":1,
    "heads":1,
    "media":1,
    "corner":1,
    "hastily":1,
    "alexanders":1,
    "comment":1,
    "resigning":1,
    "salvo":1,
    "directly":1,
    "pennsylvania":1,
    "avenue":1,
    "concerning":1,
    "restricted":1,
    "uhoh":1,
    "realized":1,
    "pattern":1,
    "corruption":1,
    "extended":1,
    "higher":1,
    "pauses":1,
    "camera":1,
    "saddened":1,
    "discover":1,
    "influenced":1,
    "records":1,
    "destroyed":1,
    "bear":1,
    "bills":1,
    "bones":1,
    "buried":1,
    "dawg":1,
    "hunt":1,
    "while1":1,
    "spit":1,
    "sauce":1,
    "waited":1,
    "fight":1,
    "during":1,
    "ethics":1,
    "eye":1,
    "daggers":1,
    "table":1,
    "beg":1,
    "pardon":1,
    "maam":1,
    "appreciates":1,
    "moren":1,
    "unwieldy":1,
    "targeted":1,
    "credits":1,
    "onsite":1,
    "private":1,
    "partnership":1,
    "jtpa":1,
    "interruptin":1,
    "aint":1,
    "city":1,
    "council":1,
    "silliness":1,
    "blow":1,
    "obstructing":1,
    "hill":1,
    "talkin":1,
    "impeachment":1,
    "dirty":1,
    "whatever":1,
    "anyones":1,
    "pay":1,
    "attention":1,
    "shoe":1,
    "salesman":1,
    "dentist":1,
    "appointment":1,
    "registrar":1,
    "voters":1,
    "lunch":1,
    "councilman":1,
    "manager":1,
    "advertising":1,
    "howd":1,
    "crucifying":1,
    "guyll":1,
    "believing":1,
    "inches":1,
    "apart":1,
    "fall":1,
    "weird":1,
    "lose":1,
    "dissolve":1,
    "requested":1,
    "rare":1,
    "speculation":1,
    "gamut":1,
    "denial":1,
    "possibility":1,
    "relax":1,
    "murmur":1,
    "applause":1,
    "chamber":1,
    "carrying":1,
    "black":1,
    "briefcase":1,
    "aisle":1,
    "mounts":1,
    "steps":1,
    "lead":1,
    "shhh":1,
    "shh":1,
    "circumstances":1,
    "discussing":1,
    "realize":1,
    "possible":1,
    "implicated":1,
    "involving":1,
    "hard":1,
    "accused":1,
    "read":1,
    "illegally":1,
    "influencing":1,
    "behalf":1,
    "major":1,
    "contributors":1,
    "interfering":1,
    "ongoing":1,
    "finance":1,
    "guts":1,
    "charges":1,
    "pond":1,
    "scum":1,
    "buck":1,
    "responsibility":1,
    "entitled":1,
    "written":1,
    "proof":1,
    "form":1,
    "notes":1,
    "memoranda":1,
    "directives":1,
    "incidents":1,
    "planned":1,
    "lie":1,
    "evidence":1,
    "affair":1,
    "servant":1,
    "pain":1,
    "caused":1,
    "setting":1,
    "record":1,
    "lives":1,
    "live":1,
    "bargain":1,
    "expect":1,
    "popular":1,
    "willing":1,
    "belong":1,
    "place":1,
    "pop":1,
    "onlookers":1,
    "horror":1,
    "whisked":1,
    "lift":1,
    "taken":1,
    "842":1,
    "pm":1,
    "concluding":1,
    "remarks":1,
    "bethesda":1,
    "naval":1,
    "confirm":1,
    "`massive":1,
    "edema":1,
    "unlike":1,
    "rendered":1,
    "totally":1,
    "incapacitated":1,
    "conferred":1,
    "authority":1,
    "assumed":1,
    "accordance":1,
    "24th":1,
    "amendment":1,
    "continue":1,
    "mitchells":1,
    "legacy":1,
    "fold":1,
    "neater":1,
    "womans":1,
    "changed":1,
    "woman":1,
    "wrap":1,
    "presents":1,
    "fundraising":1,
    "roll":1,
    "funeral":1,
    "finally":1,
    "missed":1,
    "oval":1,
    "lived":1,
    "wish":2,
    "seven":2,
    "points":2,
    "year":2,
    "raised":2,
    "dammit":2,
    "veto":2,
    "simpson":2,
    "garner":2,
    "hot":2,
    "lunches":2,
    "prick":2,
    "double":2,
    "special":2,
    "durenburgers":2,
    "ladies":2,
    "gentlemen":2,
    "warm":2,
    "appears":2,
    "pig":2,
    "pulls":2,
    "executive":2,
    "busy":2,
    "schedule":2,
    "lebaron":2,
    "hope":2,
    "easy":2,
    "force":2,
    "stops":2,
    "continues":2,
    "tired":2,
    "nose":2,
    "perfect":2,
    "alice":2,
    "area":2,
    "says":2,
    "boss":2,
    "crying":2,
    "de":2,
    "hire":2,
    "gave":2,
    "husbands":2,
    "diabetic":2,
    "catch":2,
    "wind":2,
    "behind":2,
    "swear":2,
    "piano":2,
    "needs":2,
    "occasion":2,
    "security":2,
    "hunh":2,
    "came":2,
    "youll":2,
    "`cause":2,
    "dangerous":2,
    "set":2,
    "fabulous":2,
    "wild":2,
    "enjoy":2,
    "ready":2,
    "jesus":2,
    "stares":2,
    "carefully":2,
    "carried":2,
    "important":2,
    "hed":2,
    "wheres":2,
    "girl":2,
    "mine":2,
    "birthday":2,
    "friends":2,
    "club":2,
    "figure":2,
    "handle":2,
    "sometime":2,
    "until":2,
    "holy":2,
    "drink":2,
    "such":2,
    "ahead":2,
    "takes":2,
    "aside":2,
    "actually":2,
    "shape":2,
    "safe":2,
    "crazy":2,
    "nobodys":2,
    "mother":2,
    "wouldnt":2,
    "sick":2,
    "living":2,
    "barely":2,
    "sleeping":2,
    "circulatory":2,
    "technically":2,
    "spokesmen":2,
    "laws":2,
    "nominate":2,
    "`dave":2,
    "senator":2,
    "course":2,
    "pres":2,
    "piece":2,
    "giving":2,
    "story":2,
    "pull":2,
    "seem":2,
    "changes":2,
    "lifting":2,
    "emotional":2,
    "bring":2,
    "hang":2,
    "health":2,
    "able":2,
    "twelve":2,
    "training":2,
    "professional":2,
    "expects":2,
    "stands":2,
    "podium":2,
    "puts":2,
    "certain":2,
    "given":2,
    "loved":2,
    "somewhere":2,
    "smiles":2,
    "heart":2,
    "kitchen":2,
    "less":2,
    "convince":2,
    "`thanks":2,
    "die":2,
    "secretary":2,
    "smile":2,
    "window":2,
    "outta":2,
    "hungry":2,
    "sandwich":2,
    "bullet":2,
    "means":2,
    "high":2,
    "body":2,
    "income":2,
    "tax":2,
    "arms":2,
    "thousand":2,
    "big":2,
    "david":2,
    "happy":2,
    "death":2,
    "effect":2,
    "hear":2,
    "nathan":2,
    "child":2,
    "turn":2,
    "suddenly":2,
    "blip":2,
    "polls":2,
    "show":2,
    "auto":2,
    "answer":2,
    "stone":2,
    "sits":2,
    "across":2,
    "desk":2,
    "telling":2,
    "truth":2,
    "arent":2,
    "quickly":2,
    "against":2,
    "excuse":2,
    "caring":2,
    "break":2,
    "gift":2,
    "eyes":2,
    "own":2,
    "leg":2,
    "stop":2,
    "trying":2,
    "alive":2,
    "sylvester":2,
    "gimme":2,
    "quarter":2,
    "bum":2,
    "shower":2,
    "looked":2,
    "old":2,
    "bastard":2,
    "vetoed":2,
    "magic":2,
    "trick":2,
    "funding":2,
    "hurt":2,
    "awfully":2,
    "hired":2,
    "emergency":2,
    "times":2,
    "end":2,
    "justice":2,
    "investigate":2,
    "cameras":2,
    "touch":2,
    "ways":2,
    "late":2,
    "havent":2,
    "hold":2,
    "stuck":2,
    "suppose":2,
    "confidence":2,
    "proving":2,
    "cars":2,
    "perceptual":2,
    "previous":2,
    "yearold":2,
    "kid":2,
    "person":2,
    "nine":2,
    "plan":2,
    "starts":2,
    "watches":2,
    "along":2,
    "loyal":2,
    "legislature":2,
    "shouldnt":2,
    "please":2,
    "bad":2,
    "alone":2,
    "leaving":2,
    "pick":2,
    "worried":2,
    "married":2,
    "tv":2,
    "pretending":2,
    "called":2,
    "moves":2,
    "nobody":2,
    "toe":2,
    "center":2,
    "clear":2,
    "win":2,
    "ourselves":2,
    "worst":2,
    "decent":2,
    "wants":2,
    "fix":2,
    "employment":2,
    "disagreed":2,
    "personally":2,
    "nonsense":2,
    "turned":2,
    "attack":2,
    "dogs":2,
    "absolutely":2,
    "fullfledged":2,
    "began":2,
    "loan":2,
    "wrongdoing":2,
    "fifteen":2,
    "separate":2,
    "intervention":2,
    "knowledge":2,
    "illegal":2,
    "brought":2,
    "cases":2,
    "investigation":2,
    "speaker":2,
    "needed":2,
    "violating":2,
    "joint":2,
    "session":2,
    "congress":2,
    "former":2,
    "response":2,
    "involved":2,
    "also":2,
    "apologize":2,
    "forgot":2,
    "ambulance":2,
    "news":3,
    "shelters":3,
    "tried":3,
    "youve":3,
    "monroe":3,
    "working":3,
    "chrysler":3,
    "plymouth":3,
    "four":3,
    "forward":3,
    "wonderful":3,
    "many":3,
    "faces":3,
    "let":3,
    "feeling":3,
    "five":3,
    "air":3,
    "without":3,
    "em":3,
    "turns":3,
    "women":3,
    "hit":3,
    "already":3,
    "temp":3,
    "wed":3,
    "cut":3,
    "short":3,
    "itll":3,
    "teleprompter":3,
    "coming":3,
    "jordan":3,
    "hadnt":3,
    "school":3,
    "bless":3,
    "hello":3,
    "ah":3,
    "shit":3,
    "love":3,
    "mild":3,
    "terrific":3,
    "fact":3,
    "extend":3,
    "bit":3,
    "cmere":3,
    "sort":3,
    "afraid":3,
    "light":3,
    "hospital":3,
    "youd":3,
    "kidding":3,
    "happens":3,
    "resign":3,
    "weeks":3,
    "gets":3,
    "under":3,
    "blood":3,
    "pressure":3,
    "seems":3,
    "recovery":3,
    "month":3,
    "sit":3,
    "business":3,
    "sent":3,
    "strange":3,
    "trouble":3,
    "used":3,
    "found":3,
    "knows":3,
    "least":3,
    "family":3,
    "goes":3,
    "wasnt":3,
    "yourself":3,
    "bet":3,
    "kinda":3,
    "life":3,
    "instead":3,
    "months":3,
    "minute":3,
    "management":3,
    "issue":3,
    "oliver":3,
    "mind":3,
    "spending":3,
    "liberty":3,
    "almost":3,
    "lock":3,
    "helping":3,
    "complicated":3,
    "asked":3,
    "jail":3,
    "paying":3,
    "scandal":3,
    "department":3,
    "savings":3,
    "only":3,
    "tough":3,
    "share":3,
    "state":3,
    "election":3,
    "running":3,
    "darling":3,
    "doctor":3,
    "part":3,
    "administration":3,
    "idea":3,
    "allegations":3,
    "acts":3,
    "regulators":3,
    "harry":3,
    "christmas":3,
    "fun":3,
    "interest":4,
    "told":4,
    "killed":4,
    "dead":4,
    "done":4,
    "cause":4,
    "best":4,
    "american":4,
    "tomorrow":4,
    "night":4,
    "hotel":4,
    "real":4,
    "give":4,
    "sam":4,
    "crowd":4,
    "don":4,
    "nice":4,
    "dollar":4,
    "cash":4,
    "am":4,
    "toward":4,
    "name":4,
    "problem":4,
    "again":4,
    "happened":4,
    "shes":4,
    "later":4,
    "service":4,
    "public":4,
    "wave":4,
    "rest":4,
    "tonight":4,
    "years":4,
    "few":4,
    "though":4,
    "must":4,
    "through":4,
    "washington":4,
    "saying":4,
    "met":4,
    "saw":4,
    "personal":4,
    "condition":4,
    "exactly":4,
    "serious":4,
    "control":4,
    "wait":4,
    "different":4,
    "simple":4,
    "new":4,
    "fifty":4,
    "left":4,
    "national":4,
    "hands":4,
    "chance":4,
    "started":4,
    "those":4,
    "change":4,
    "save":4,
    "quite":4,
    "once":4,
    "same":4,
    "does":4,
    "still":4,
    "leave":4,
    "works":4,
    "wrong":4,
    "mistake":4,
    "hell":4,
    "lots":4,
    "money":4,
    "ordinary":4,
    "maybe":4,
    "king":4,
    "home":4,
    "jobs":4,
    "should":4,
    "presidency":4,
    "fidelity":4,
    "head":5,
    "doesnt":5,
    "someone":5,
    "moment":5,
    "kovic":5,
    "boy":5,
    "being":5,
    "hey":5,
    "getting":5,
    "went":5,
    "far":5,
    "office":5,
    "next":5,
    "anybody":5,
    "straight":5,
    "ya":5,
    "comes":5,
    "states":5,
    "government":5,
    "door":5,
    "usual":5,
    "speech":5,
    "together":5,
    "most":5,
    "liked":5,
    "couldnt":5,
    "guess":5,
    "makes":5,
    "room":5,
    "everything":5,
    "ought":5,
    "soon":5,
    "will":5,
    "might":5,
    "side":5,
    "talking":5,
    "days":5,
    "hand":5,
    "gotta":5,
    "every":5,
    "himself":5,
    "huh":5,
    "nothing":5,
    "face":5,
    "open":5,
    "dollars":5,
    "budget":5,
    "making":5,
    "each":5,
    "full":5,
    "waiting":6,
    "last":6,
    "after":6,
    "wife":6,
    "guy":6,
    "united":6,
    "certainly":6,
    "true":6,
    "other":6,
    "run":6,
    "else":6,
    "seen":6,
    "secret":6,
    "federal":6,
    "help":6,
    "america":6,
    "guys":6,
    "staff":6,
    "remember":6,
    "second":6,
    "alright":6,
    "worry":6,
    "wont":6,
    "anymore":6,
    "before":6,
    "program":6,
    "conference":6,
    "since":6,
    "never":6,
    "long":6,
    "clean":6,
    "shelter":6,
    "choices":6,
    "campaign":6,
    "fired":6,
    "nance":6,
    "off":7,
    "thank":7,
    "today":7,
    "chief":7,
    "another":7,
    "day":7,
    "while":7,
    "any":7,
    "kids":7,
    "duane":7,
    "whos":7,
    "pretty":7,
    "made":7,
    "lady":7,
    "may":7,
    "isnt":7,
    "id":7,
    "everybody":8,
    "kill":8,
    "hi":8,
    "understand":8,
    "care":8,
    "sorry":8,
    "two":8,
    "reed":8,
    "put":8,
    "couple":8,
    "morning":8,
    "lot":8,
    "very":9,
    "uh":9,
    "try":9,
    "three":9,
    "too":9,
    "been":9,
    "god":9,
    "stuff":9,
    "wanted":9,
    "talk":9,
    "alexander":9,
    "away":9,
    "call":9,
    "white":9,
    "house":9,
    "said":9,
    "kind":9,
    "feel":9,
    "mitchell":9,
    "didnt":9,
    "much":9,
    "whole":9,
    "their":9,
    "million":9,
    "theyre":10,
    "because":10,
    "homeless":10,
    "sir":10,
    "hundred":10,
    "us":10,
    "need":10,
    "anything":10,
    "take":10,
    "believe":10,
    "weve":10,
    "presidents":10,
    "press":10,
    "theres":10,
    "better":11,
    "would":11,
    "work":11,
    "country":11,
    "looks":11,
    "by":11,
    "where":11,
    "sometimes":11,
    "car":11,
    "tell":11,
    "lets":11,
    "ellen":11,
    "start":12,
    "always":12,
    "find":12,
    "around":12,
    "thought":12,
    "into":12,
    "more":12,
    "man":12,
    "things":12,
    "ever":12,
    "keep":12,
    "ill":13,
    "over":13,
    "whats":13,
    "thanks":13,
    "or":13,
    "these":13,
    "yes":14,
    "did":14,
    "than":14,
    "come":14,
    "then":14,
    "make":14,
    "fine":14,
    "down":15,
    "why":15,
    "say":15,
    "alan":15,
    "way":15,
    "how":15,
    "people":16,
    "them":16,
    "back":16,
    "ive":16,
    "job":16,
    "vice":16,
    "there":17,
    "time":17,
    "gonna":17,
    "even":17,
    "great":17,
    "she":17,
    "our":18,
    "who":18,
    "okay":18,
    "cant":18,
    "going":18,
    "stroke":18,
    "had":19,
    "an":19,
    "her":19,
    "has":20,
    "see":21,
    "could":21,
    "doing":21,
    "sure":21,
    "out":22,
    "really":23,
    "look":23,
    "when":23,
    "good":23,
    "bill":23,
    "are":24,
    "go":24,
    "some":24,
    "from":25,
    "thing":25,
    "mean":25,
    "thats":26,
    "something":26,
    "as":26,
    "hes":26,
    "little":27,
    "want":28,
    "youre":28,
    "first":28,
    "right":29,
    "mr":29,
    "one":29,
    "my":30,
    "all":31,
    "now":31,
    "bob":31,
    "got":32,
    "up":32,
    "think":33,
    "him":33,
    "they":34,
    "no":35,
    "if":35,
    "can":35,
    "so":36,
    "his":36,
    "your":37,
    "here":37,
    "dave":38,
    "yeah":39,
    "about":40,
    "were":42,
    "but":42,
    "like":43,
    "have":43,
    "he":45,
    "oh":45,
    "be":46,
    "get":46,
    "was":47,
    "at":47,
    "well":51,
    "me":52,
    "with":52,
    "just":53,
    "im":54,
    "not":55,
    "know":58,
    "do":61,
    "dont":65,
    "what":66,
    "we":67,
    "its":72,
    "for":73,
    "on":77,
    "is":81,
    "president":81,
    "that":91,
    "in":102,
    "this":103,
    "it":119,
    "":130,
    "of":138,
    "and":145,
    "to":223,
    "a":237,
    "i":274,
    "you":288,
    "the":359
}