{
    "tomorrows":1,
    "grizzled":1,
    "grudgingly":1,
    "plastic":1,
    "newspapers":1,
    "numerous":1,
    "porn":1,
    "magazines":1,
    "naked":1,
    "startles":1,
    "vibrant":1,
    "haitian":1,
    "thick":1,
    "bundled":1,
    "ski":1,
    "fool":1,
    "oui":1,
    "fixing":1,
    "4":1,
    "awkwardly":1,
    "youthful":1,
    "energetic":1,
    "owner":1,
    "journal":1,
    "halfway":1,
    "marble":1,
    "division":1,
    "japanese":1,
    "toilet":1,
    "analyze":1,
    "urine":1,
    "glucose":1,
    "levels":1,
    "kidney":1,
    "disease":1,
    "cancer":1,
    "referring":1,
    "certainly":1,
    "japan":1,
    "nuts":1,
    "toilets":1,
    "sites":1,
    "symposiums":1,
    "chuckles":1,
    "bowls":1,
    "piano":1,
    "retrieve":1,
    "analysis":1,
    "fly":1,
    "nursing":1,
    "superfly":1,
    "department":1,
    "wee":1,
    "flush":1,
    "cuts":1,
    "zipping":1,
    "buckled":1,
    "addresses":1,
    "manager":1,
    "hires":1,
    "blessing":1,
    "books":1,
    "send":1,
    "oneth":1,
    "faucet":1,
    "ose":1,
    "catch":1,
    "flushes":1,
    "buckles":1,
    "mens":1,
    "messagefour":1,
    "threeoheightpeeem":1,
    "wrapping":1,
    "brilliant":1,
    "best":1,
    "forwarded":1,
    "documentation":1,
    "mouse":1,
    "27":1,
    "amails":1,
    "ending":1,
    "worthbermancom":1,
    "pilot":1,
    "planner":1,
    "stylus":1,
    "writes":1,
    "places":1,
    "daysareall":1,
    "1253":1,
    "welldressed":1,
    "penetrating":1,
    "playful":1,
    "likeably":1,
    "normally":1,
    "upona":1,
    "success":1,
    "measured":1,
    "sweden":1,
    "average":1,
    "vacation":1,
    "assholes":1,
    "disturbing":1,
    "mensa":1,
    "modestly":1,
    "college":1,
    "subsidized":1,
    "graduate":1,
    "bluntness":1,
    "single":1,
    "mother":1,
    "died":1,
    "nineteen":1,
    "harvard":1,
    "andover":1,
    "exeter":1,
    "idle":1,
    "friends":1,
    "spent":1,
    "prove":1,
    "hours":1,
    "realize":1,
    "fell":1,
    "touch":1,
    "ups":1,
    "temporary":1,
    "fixture":1,
    "meaningful":1,
    "disappeared":1,
    "notice":1,
    "talked":1,
    "37":1,
    "cracks":1,
    "filling":1,
    "expansive":1,
    "drowned":1,
    "pouring":1,
    "uheither":1,
    "r":1,
    "sos":1,
    "wavers":1,
    "nerve":1,
    "rising":1,
    "gathering":1,
    "braces":1,
    "grasping":1,
    "screeching":1,
    "grinds":1,
    "sudden":1,
    "jolt":1,
    "braking":1,
    "traincauses":1,
    "stumble":1,
    "bangs":1,
    "snaps":1,
    "contents":1,
    "tumbling":1,
    "lurches":1,
    "knocking":1,
    "sliding":1,
    "stepped":1,
    "files":1,
    "paraphernalia":1,
    "closing":1,
    "boses":1,
    "annoyance":1,
    "attorney":1,
    "sighs":1,
    "upon":1,
    "drawer":1,
    "page":1,
    "extensions":1,
    "taped":1,
    "lazy":1,
    "quit":1,
    "shirt":1,
    "leaps":1,
    "corridor":1,
    "funds":1,
    "happen":1,
    "decent":1,
    "backhand":1,
    "commiserations":1,
    "fancy":1,
    "postgame":1,
    "cocktail":1,
    "wouldve":1,
    "happy":1,
    "couple":1,
    "merrill":1,
    "helps":1,
    "frosh":1,
    "boarding":1,
    "school":1,
    "jeez":1,
    "strings":1,
    "hybrid":1,
    "weave":1,
    "obscure":1,
    "replace":1,
    "frayed":1,
    "considered":1,
    "contacts":1,
    "studying":1,
    "eyeglasses":1,
    "particular":1,
    "tried":1,
    "allergic":1,
    "solution":1,
    "especially":1,
    "towel":1,
    "flood":1,
    "insurance":1,
    "many":1,
    "slept":1,
    "whole":1,
    "halfdressed":1,
    "seated":1,
    "bench":1,
    "afford":1,
    "firming":1,
    "borrow":1,
    "t":1,
    "uten":1,
    "abend":1,
    "gerhard":1,
    "richter":1,
    "hot":1,
    "hooked":1,
    "wanders":1,
    "snapshots":1,
    "strong":1,
    "younger":1,
    "bleached":1,
    "loosely":1,
    "slick":1,
    "remind":1,
    "witty":1,
    "loosened":1,
    "starters":1,
    "dirt":1,
    "boundary":1,
    "argue":1,
    "laid":1,
    "foundation":1,
    "believing":1,
    "clothes":1,
    "wry":1,
    "anecdotes":1,
    "masquerade":1,
    "wear":1,
    "costume":1,
    "scale":1,
    "guarding":1,
    "occurred":1,
    "anonymity":1,
    "asset":1,
    "impression":1,
    "perceived":1,
    "grave":1,
    "smirks":1,
    "cafe":1,
    "germaine":1,
    "velvet":1,
    "introduce":1,
    "lovely":1,
    "miss":1,
    "lamour":1,
    "youd":1,
    "kick":1,
    "bucks":1,
    "spill":1,
    "sexually":1,
    "adventuresome":1,
    "focused":1,
    "eager":1,
    "flipping":1,
    "andthere":1,
    "kept":1,
    "beyond":1,
    "laughing":1,
    "lightsup":1,
    "directs":1,
    "brunette":1,
    "depends":1,
    "stretch":1,
    "definition":1,
    "incorporate":1,
    "amsterdam":1,
    "union":1,
    "pay":1,
    "taxes":1,
    "possess":1,
    "quite":1,
    "international":1,
    "trivia":1,
    "relax":1,
    "relationship":1,
    "mortgaged":1,
    "youth":1,
    "pimped":1,
    "twenties":1,
    "shameful":1,
    "wanting":1,
    "sleep":1,
    "hookers":1,
    "drifting":1,
    "background":1,
    "emcee":1,
    "introduces":1,
    "christ":1,
    "infommercial":1,
    "urges":1,
    "ourselves":1,
    "asses":1,
    "waya":1,
    "mob":1,
    "attention":1,
    "show":1,
    "peoples":1,
    "rhiga":1,
    "royal":1,
    "pats":1,
    "golden":1,
    "glow":1,
    "driving":1,
    "reflection":1,
    "liking":1,
    "rainy":1,
    "ina":1,
    "hypnotic":1,
    "7th":1,
    "avenue":1,
    "julie":1,
    "levinson":1,
    "scott":1,
    "werner":1,
    "werners":1,
    "accountants":1,
    "anticipate":1,
    "righti":1,
    "subaccounts":1,
    "authorize":1,
    "statement":1,
    "verification":1,
    "howd":1,
    "ought":1,
    "caller":1,
    "place":1,
    "wonder":1,
    "founding":1,
    "fathers":1,
    "wearing":1,
    "wolfing":1,
    "23":1,
    "eat":1,
    "jackets":1,
    "cangettme":1,
    "615":1,
    "jfk":1,
    "asap":1,
    "paper":1,
    "financing":1,
    "lloyds":1,
    "loneliness":1,
    "setting":1,
    "exciting":1,
    "nah":1,
    "boring":1,
    "sin":1,
    "receives":1,
    "prerecorded":1,
    "surprising":1,
    "answers":1,
    "mess":1,
    "replaces":1,
    "battery":1,
    "charger":1,
    "soft":1,
    "rustle":1,
    "crackle":1,
    "worsens":1,
    "stored":1,
    "imagine":1,
    "imforget":1,
    "visiting":1,
    "usually":1,
    "lived":1,
    "offence":1,
    "pal":1,
    "cabbie":1,
    "park":1,
    "south":1,
    "renaissance":1,
    "facade":1,
    "looksup":1,
    "age":1,
    "stark":1,
    "dressed":1,
    "chic":1,
    "earlier":1,
    "slightest":1,
    "thin":1,
    "fooling":1,
    "walls":1,
    "carpeting":1,
    "classically":1,
    "headed":1,
    "attracted":1,
    "succumb":1,
    "postcoital":1,
    "anxiety":1,
    "fast":1,
    "asleep":1,
    "620":1,
    "morning":1,
    "guest":1,
    "staying":1,
    "allowed":1,
    "disclose":1,
    "guests":1,
    "registered":1,
    "mineand":1,
    "ivegot":1,
    "nightumi":1,
    "distance":1,
    "hails":1,
    "curl":1,
    "dazed":1,
    "fumbles":1,
    "uptown":1,
    "perhaps":1,
    "mercer":1,
    "eleven":1,
    "evident":1,
    "disturb":1,
    "copy":1,
    "shakespeares":1,
    "midsummer":1,
    "rather":1,
    "herto":1,
    "frankly":1,
    "initiator":1,
    "responsible":1,
    "precisely":1,
    "british":1,
    "opposite":1,
    "slight":1,
    "impatience":1,
    "cart":1,
    "causes":1,
    "crossing":1,
    "uneasily":1,
    "uploaded":1,
    "failed":1,
    "basics":1,
    "stowaway":1,
    "fact":1,
    "flustered":1,
    "offer":1,
    "explanation":1,
    "somebody":1,
    "notion":1,
    "registers":1,
    "sucker":1,
    "bashful":1,
    "boys":1,
    "wrist":1,
    "traces":1,
    "economics":1,
    "arrangement":1,
    "breakfast":1,
    "ceiling":1,
    "busywith":1,
    "kinda":1,
    "bell":1,
    "staffs":1,
    "chipper":1,
    "greetings":1,
    "soundtrack":1,
    "swelling":1,
    "herald":1,
    "montage":1,
    "jai":1,
    "ete":1,
    "tres":1,
    "occupe":1,
    "exhilarated":1,
    "nightly":1,
    "activities":1,
    "trick":1,
    "ecoutez":1,
    "winter":1,
    "roses":1,
    "arrived":1,
    "shewill":1,
    "swoon":1,
    "reticence":1,
    "evasively":1,
    "uncomfortable":1,
    "bothsad":1,
    "worried":1,
    "climbing":1,
    "muted":1,
    "weum":1,
    "lingering":1,
    "clasp":1,
    "bra":1,
    "square":1,
    "squints":1,
    "recalling":1,
    "unbutton":1,
    "strange":1,
    "gearshift":1,
    "hungry":1,
    "messy":1,
    "eater":1,
    "misses":1,
    "dabs":1,
    "cleans":1,
    "specify":1,
    "rigid":1,
    "obey":1,
    "knowyours":1,
    "begins":1,
    "\u00e2\u0080\u009esir":1,
    "monogram":1,
    "seeexcellent":1,
    "holmes":1,
    "ifyou":1,
    "inch":1,
    "hmrnwhat":1,
    "sports":1,
    "camel":1,
    "coat":1,
    "possesses":1,
    "deduceher":1,
    "sybil":1,
    "sarah":1,
    "sara":1,
    "samantha":1,
    "sandra":1,
    "susan":1,
    "makes":1,
    "encouragement":1,
    "hun":1,
    "aha":1,
    "sue":1,
    "z":1,
    "sonia":1,
    "sheena":1,
    "charisse":1,
    "cyd":1,
    "c":1,
    "spell":1,
    "therain":1,
    "mockfrowns":1,
    "ls":1,
    "alighted":1,
    "downtownhmmah":1,
    "foolish":1,
    "sinead":1,
    "giggles":1,
    "charmed":1,
    "stella":1,
    "sky":1,
    "sit":1,
    "pass":1,
    "fish":1,
    "expected":1,
    "nahh":1,
    "bet":1,
    "kid":1,
    "u":1,
    "pro":1,
    "player":1,
    "loved":1,
    "high":1,
    "ball":1,
    "goodmr":1,
    "mcenroe":1,
    "80s":1,
    "radio":1,
    "trust":1,
    "judge":1,
    "agile":1,
    "guide":1,
    "il":1,
    "partner":1,
    "swaying":1,
    "ends":1,
    "yawn":1,
    "escapes":1,
    "s+\u00e2\u0080\u009e":1,
    "tugging":1,
    "s+":1,
    "curls":1,
    "drifts":1,
    "petite":1,
    "divot":1,
    "tiny":1,
    "pierced":1,
    "comma":1,
    "unadorned":1,
    "earlobe":1,
    "20":1,
    "silently":1,
    "slide":1,
    "stirs":1,
    "nuzzles":1,
    "bea":1,
    "wish":1,
    "friggin":1,
    "anarchy":1,
    "uk":1,
    "stuck":1,
    "enjoying":1,
    "gift":1,
    "fantastic":1,
    "gal":1,
    "member":1,
    "broken":1,
    "honesttogod":1,
    "romeo":1,
    "ihave":1,
    "dampen":1,
    "spirits":1,
    "careful":1,
    "anybody":1,
    "true":1,
    "muffled":1,
    "non":1,
    "backtoback":1,
    "bullshit":1,
    "congratulations":1,
    "note":1,
    "intermittent":1,
    "pleasure":1,
    "faster":1,
    "debates":1,
    "haltreplaced":1,
    "faintest":1,
    "whispof":1,
    "female":1,
    "mistaking":1,
    "tone":1,
    "shrill":1,
    "breathlessly":1,
    "witnessed":1,
    "awful":1,
    "possibility":1,
    "clashing":1,
    "callbefore":1,
    "sounded":1,
    "scares":1,
    "sip":1,
    "couldve":1,
    "prank":1,
    "respect":1,
    "menu":1,
    "characters":1,
    "expert":1,
    "j":1,
    "ft":1,
    "order":1,
    "sonot":1,
    "havent":1,
    "stopped":1,
    "thinking":1,
    "lowersher":1,
    "freak":1,
    "touched":1,
    "mindless":1,
    "shtupping":1,
    "during":1,
    "drinks":1,
    "involved":1,
    "familyprevious":1,
    "relationships":1,
    "tenderly":1,
    "turned":1,
    "thirty":1,
    "vow":1,
    "present":1,
    "loving":1,
    "disarmed":1,
    "food":1,
    "asking":1,
    "autobiography":1,
    "intimidate":1,
    "buy":1,
    "nearby":1,
    "ginseng":1,
    "energy":1,
    "tastes":1,
    "hairspray":1,
    "chews":1,
    "sadness":1,
    "complicate":1,
    "complication":1,
    "sc":1,
    "fogging":1,
    "kisses":1,
    "passionately":1,
    "awnings":1,
    "moves":1,
    "shelter":1,
    "leading":1,
    "awning":1,
    "drenching":1,
    "faces":1,
    "purely":1,
    "exhilarating":1,
    "wiping":1,
    "akin":1,
    "awe":1,
    "breathed":1,
    "rack":1,
    "neon":1,
    "lotus":1,
    "recently":1,
    "creamed":1,
    "character":1,
    "level":1,
    "feller":1,
    "idly":1,
    "channels":1,
    "romantic":1,
    "melodrama":1,
    "settle":1,
    "rush":1,
    "record":1,
    "ican":1,
    "applythe":1,
    "wise":1,
    "mature":1,
    "choice":1,
    "mmhmm":1,
    "tear":1,
    "robes":1,
    "terrible":1,
    "consummate":1,
    "deep":1,
    "frenzy":1,
    "ofof":1,
    "fucking":1,
    "sucking":1,
    "beautifully":1,
    "blame":1,
    "inches":1,
    "sips":1,
    "subtle":1,
    "shift":1,
    "herself":1,
    "machine":1,
    "tie":1,
    "closed":1,
    "hops":1,
    "mini":1,
    "surreptitiously":1,
    "adjusts":1,
    "penis":1,
    "immense":1,
    "tenderness":1,
    "p1":1,
    "hurry":1,
    "slow":1,
    "motion":1,
    "stunning":1,
    "maam":1,
    "manage":1,
    "full":1,
    "fills":1,
    "panel":1,
    "knocks":1,
    "jostles":1,
    "budge":1,
    "pounds":1,
    "milliseconds":1,
    "tumbles":1,
    "entryway":1,
    "ahead":1,
    "mussed":1,
    "specks":1,
    "rushes":1,
    "splattered":1,
    "gapes":1,
    "horrified":1,
    "sack":1,
    "potatoes":1,
    "melted":1,
    "pool":1,
    "seeps":1,
    "arrive":1,
    "undershirt":1,
    "tugged":1,
    "misshapen":1,
    "boxers":1,
    "twisted":1,
    "bare":1,
    "thighs":1,
    "wild":1,
    "eyed":1,
    "shaking":1,
    "pipedin":1,
    "muzak":1,
    "rendition":1,
    "beatles":1,
    "cleaned":1,
    "scarf":1,
    "lone":1,
    "existence":1,
    "guards":1,
    "insane":1,
    "flat":1,
    "words":1,
    "guiltily":1,
    "avoids":1,
    "clerk":1,
    "recalled":1,
    "seeing":1,
    "check":1,
    "addition":1,
    "mystery":1,
    "individual":1,
    "shuddering":1,
    "implications":1,
    "experiences":1,
    "medication":1,
    "vanished":1,
    "becomes":1,
    "conscious":1,
    "russos":1,
    "genuine":1,
    "necessary":1,
    "devastation":1,
    "awkward":1,
    "claim":1,
    "crushed":1,
    "exasperated":1,
    "storage":1,
    "including":1,
    "gunmetal":1,
    "filing":1,
    "cabinet":1,
    "rapidly":1,
    "sifts":1,
    "faded":1,
    "folders":1,
    "crammed":1,
    "documents":1,
    "24hour":1,
    "locksmith":1,
    "folder":1,
    "marked":1,
    "sorting":1,
    "statements":1,
    "nightstand":1,
    "candy":1,
    "box":1,
    "brand":1,
    "interrupts":1,
    "raspy":1,
    "grandmother":1,
    "english":1,
    "smock":1,
    "rapid":1,
    "dragon":1,
    "lengthy":1,
    "chinatown":1,
    "although":1,
    "deaths":1,
    "taxi":1,
    "driver":1,
    "shop":1,
    "metallic":1,
    "recovered":1,
    "dumpster":1,
    "sick":1,
    "agurney":1,
    "casually":1,
    "lifts":1,
    "sheet":1,
    "pale":1,
    "quivering":1,
    "camera":1,
    "hardly":1,
    "cops":1,
    "idling":1,
    "earshot":1,
    "presence":1,
    "amps":1,
    "guns":1,
    "holsters":1,
    "handcuffs":1,
    "dangling":1,
    "strained":1,
    "mentioned":1,
    "meets":1,
    "various":1,
    "hotels":1,
    "reaction":1,
    "nervous":1,
    "torn":1,
    "manages":1,
    "attorneys":1,
    "whod":1,
    "howto":1,
    "immediately":1,
    "y":1,
    "middleaged":1,
    "hr":1,
    "masthead":1,
    "assure":1,
    "halls":1,
    "chrissake":1,
    "smoked":1,
    "pot":1,
    "lounge":1,
    "flash":1,
    "greeting":1,
    "coolly":1,
    "easy":1,
    "sleeve":1,
    "fist":1,
    "paperinga":1,
    "scowling":1,
    "recovering":1,
    "surgery":1,
    "jersey":1,
    "assistants":1,
    "clerks":1,
    "60s":1,
    "wife":1,
    "downtown":1,
    "patronofthearts":1,
    "lives":1,
    "past2":1,
    "rightherewith":1,
    "catching":1,
    "wifes":1,
    "chain":1,
    "lock":1,
    "handles":1,
    "moretti":1,
    "carpet":1,
    "unless":1,
    "italian":1,
    "doubt":1,
    "losing":1,
    "mind":1,
    "sono":1,
    "spiacente":1,
    "freelancers":1,
    "policy":1,
    "systems":1,
    "analyst":1,
    "computers":1,
    "receptionists":1,
    "massachusetts":1,
    "drivers":1,
    "license":1,
    "sansky":1,
    "williamr":1,
    "returning":1,
    "fixed":1,
    "damning":1,
    "checking":1,
    "leads":1,
    "werent":1,
    "charges":1,
    "declined":1,
    "cancelled":1,
    "move":1,
    "coincidence":1,
    "suspicion":1,
    "confirmed":1,
    "strangulation":1,
    "cause":1,
    "death":1,
    "fibres":1,
    "wound":1,
    "kinds":1,
    "string":1,
    "closet":1,
    "unsure":1,
    "realizing":1,
    "simplyhangup":1,
    "toeraseandrecordanew":1,
    "messa":1,
    "gepressstar":1,
    "star":1,
    "beep":1,
    "pound":1,
    "breathes":1,
    "nearest":1,
    "blunt":1,
    "object":1,
    "shots":1,
    "makeshift":1,
    "weapon":1,
    "beeeep":1,
    "calling":1,
    "messages":1,
    "lowers":1,
    "dark":1,
    "speed":1,
    "weiss":1,
    "murphy":1,
    "folks":1,
    "expecting":1,
    "biggest":1,
    "needless":1,
    "top":1,
    "crinkled":1,
    "longing":1,
    "pillar":1,
    "getto":1,
    "nimble":1,
    "afar":1,
    "capable":1,
    "onto":1,
    "tracks":1,
    "lands":1,
    "breaking":1,
    "ankle":1,
    "scrambles":1,
    "splashing":1,
    "sludge":1,
    "rails":1,
    "avoid":1,
    "third":1,
    "rail":1,
    "ears":1,
    "attuned":1,
    "races":1,
    "rungs":1,
    "lane":1,
    "separating":1,
    "platform":1,
    "exits":1,
    "muck":1,
    "neither":1,
    "speaks":1,
    "solitary":1,
    "realization":1,
    "fighting":1,
    "cam\u00e2\u0080\u009e":1,
    "caught":1,
    "struggling":1,
    "composed":1,
    "fights":1,
    "tears":1,
    "despite":1,
    "conflicting":1,
    "moved":1,
    "approaching":1,
    "ii":1,
    "7f":1,
    "framing":1,
    "murder":1,
    "louder":1,
    "swipes":1,
    "view":1,
    "struggles":1,
    "peer":1,
    "prevent":1,
    "noise":1,
    "cranes":1,
    "boards":1,
    "bridge":1,
    "pushes":1,
    "yorks":1,
    "direction":1,
    "shed":1,
    "frantically":1,
    "alongside":1,
    "rear":1,
    "pressed":1,
    "pane":1,
    "tearful":1,
    "bidding":1,
    "heartbreaking":1,
    "stumbles":1,
    "devastated":1,
    "pleading":1,
    "vainly":1,
    "recede":1,
    "rectangle":1,
    "directly":1,
    "trains":1,
    "steel":1,
    "exterior":1,
    "labelled":1,
    "lines":1,
    "circled":1,
    "haven":1,
    "six":1,
    "farther":1,
    "hunted":1,
    "yourself":1,
    "messer\u00e2\u0080\u0094":1,
    "angry":1,
    "bears":1,
    "eerily":1,
    "driven":1,
    "verge":1,
    "picking":1,
    "wisps":1,
    "breathing":1,
    "tentative":1,
    "fearful":1,
    "wellexhaled":1,
    "grips":1,
    "tighter":1,
    "troubles":1,
    "yester":1,
    "joined":1,
    "fury":1,
    "area":1,
    "theone":1,
    "whose":1,
    "began":1,
    "finding":1,
    "absently":1,
    "tightens":1,
    "grasp":1,
    "flatly":1,
    "curb":1,
    "dartsfor":1,
    "path":1,
    "scare":1,
    "someoneand":1,
    "canfind":1,
    "kicks":1,
    "shin":1,
    "heel":1,
    "grasps":1,
    "looked":1,
    "clacking":1,
    "incredibly":1,
    "outto":1,
    "dinner":1,
    "partnersa":1,
    "tight":1,
    "smash":1,
    "junior":1,
    "executive":1,
    "intimate":1,
    "capacity":1,
    "prude":1,
    "simply":1,
    "apologized":1,
    "explaining":1,
    "engagement":1,
    "knuckles":1,
    "stroke":1,
    "thigh":1,
    "knowing":1,
    "intrigued":1,
    "intelligent":1,
    "law":1,
    "politics":1,
    "command":1,
    "tricks":1,
    "claimed":1,
    "grooming":1,
    "company":1,
    "also":1,
    "admired":1,
    "silly":1,
    "fascinated":1,
    "afterwards":1,
    "couldnt":1,
    "known":1,
    "obscured":1,
    "trees":1,
    "scansthe":1,
    "piercing":1,
    "drags":1,
    "space":1,
    "run":1,
    "overcoat":1,
    "je":1,
    "suis":1,
    "desole":1,
    "flashes":1,
    "site":1,
    "university":1,
    "alumni":1,
    "g":1,
    "exhales":1,
    "log":1,
    "hs":1,
    "available":1,
    "search":1,
    "engine":1,
    "decides":1,
    "add":1,
    "article":1,
    "appears":1,
    "tribune":1,
    "businessman":1,
    "headshot":1,
    "style":1,
    "shows":1,
    "40s":1,
    "print":1,
    "squeezes":1,
    "lifted":1,
    "ambulance":1,
    "somewhat":1,
    "valuables":1,
    "fuse":1,
    "minimal":1,
    "possessions":1,
    "evidence":1,
    "wrenching":1,
    "sense":1,
    "isolation":1,
    "fishes":1,
    "cannister":1,
    "parts":1,
    "discovers":1,
    "20s":1,
    "boston":1,
    "direct":1,
    "nypd":1,
    "badge":1,
    "274655":1,
    "1":1,
    "suspense":1,
    "awaiting":1,
    "case":1,
    "date":1,
    "encouraged":1,
    "tilt":1,
    "postit":1,
    "scribbled":1,
    "adds":1,
    "mkay":1,
    "swipe":1,
    "atm":1,
    "punch":1,
    "pad":1,
    "mmmkay":1,
    "taupe":1,
    "colored":1,
    "telephones":1,
    "connected":1,
    "andlook":1,
    "passports":1,
    "proves":1,
    "ten":1,
    "dollars":1,
    "wrinkles":1,
    "mmkay":1,
    "0":1,
    "customer":1,
    "representative":1,
    "profanity":1,
    "set":1,
    "ransacked":1,
    "forgive":1,
    "language":1,
    "slackjawed":1,
    "begging":1,
    "typing":1,
    "sent":1,
    "went":1,
    "heeded":1,
    "swivels":1,
    "91st":1,
    "exception":1,
    "pile":1,
    "envelopes":1,
    "nearsto":1,
    "hinge":1,
    "investigate":1,
    "excruciating":1,
    "ease":1,
    "91":1,
    "addressed":1,
    "bottom":1,
    "fearfully":1,
    "subwa":1,
    "latform":1,
    "gripped":1,
    "unaware":1,
    "blurred":1,
    "nearing":1,
    "intruder":1,
    "shouldve":1,
    "simpler":1,
    "panic":1,
    "terrifying":1,
    "erupts":1,
    "brokerage":1,
    "auditing":1,
    "standard":1,
    "temporarily":1,
    "privy":1,
    "required":1,
    "transactions":1,
    "skim":1,
    "total":1,
    "200":1,
    "million":1,
    "established":1,
    "tosses":1,
    "whyd":1,
    "answered":1,
    "job":1,
    "personality":1,
    "tomeet":1,
    "special":1,
    "foreplay":1,
    "fucked":1,
    "grins":1,
    "charming":1,
    "shellshocked":1,
    "managers":1,
    "fred":1,
    "whipples":1,
    "resignation":1,
    "surprise":1,
    "auditors":1,
    "freedom":1,
    "affords":1,
    "benignly":1,
    "copies":1,
    "wondered":1,
    "monitoring":1,
    "transaction":1,
    "transfers":1,
    "impossible":1,
    "code":1,
    "entering":1,
    "remains":1,
    "unnervingly":1,
    "silent":1,
    "tighten":1,
    "plan":1,
    "concocting":1,
    "hinging":1,
    "brief":1,
    "exhalation":1,
    "frostily":1,
    "magnetic":1,
    "brothers":1,
    "except":1,
    "clean":1,
    "crisp":1,
    "dishevelled":1,
    "bag":1,
    "rooms":1,
    "leaves":1,
    "friendship":1,
    "banskys":1,
    "formality":1,
    "bargaining":1,
    "chip":1,
    "speaking":1,
    "indicate":1,
    "handgun":1,
    "concealed":1,
    "creation":1,
    "identity":1,
    "weeping":1,
    "wet":1,
    "ones":1,
    "modem":1,
    "online":1,
    "glares":1,
    "seething":1,
    "stupid":1,
    "use":1,
    "dollar":1,
    "hectic":1,
    "employee":1,
    "illconcealed":1,
    "employees":1,
    "1130":1,
    "momentarily":1,
    "unsurely":1,
    "motherfucker":1,
    "aside":1,
    "resting":1,
    "alarms":1,
    "cleaning":1,
    "hurries":1,
    "slot":1,
    "stick":1,
    "clutching":1,
    "traffic":1,
    "stories":1,
    "evacuating":1,
    "steely":1,
    "rapacious":1,
    "thinning":1,
    "shaky":1,
    "dizzying":1,
    "gaining":1,
    "appearing":1,
    "twist":1,
    "racing":1,
    "upwards":1,
    "bounding":1,
    "stairs":1,
    "echoing":1,
    "save":1,
    "footfall":1,
    "slows":1,
    "railing":1,
    "aim":1,
    "hurrying":1,
    "jolting":1,
    "echo":1,
    "clanging":1,
    "waste":1,
    "bodies":1,
    "moving":1,
    "swell":1,
    "partiers":1,
    "anonymous":1,
    "smartly":1,
    "attired":1,
    "party":1,
    "scanning":1,
    "dense":1,
    "alert":1,
    "partying":1,
    "smirk":1,
    "fades":1,
    "glare":1,
    "stalks":1,
    "periphery":1,
    "ducked":1,
    "low":1,
    "frustration":1,
    "gnashing":1,
    "quickens":1,
    "idiotic":1,
    "enthusiasm":1,
    "enraging":1,
    "sweat":1,
    "beading":1,
    "glancing":1,
    "ladies":1,
    "evacuate":1,
    "picked":1,
    "lightning":1,
    "iron":1,
    "rod":1,
    "pall":1,
    "passing":1,
    "torso":1,
    "fumbling":1,
    "blindly":1,
    "prodding":1,
    "strength":1,
    "jams":1,
    "eye":1,
    "punching":1,
    "retina":1,
    "frank":1,
    "winds":1,
    "toy":1,
    "sidewalk":1,
    "whispers":1,
    "whatever":1,
    "privacy":1,
    "continuing":1,
    "doyou":2,
    "times":2,
    "counter":2,
    "forgot":2,
    "cut":2,
    "fresh":2,
    "nowhere":2,
    "accent":2,
    "jacket":2,
    "such":2,
    "mister":2,
    "mischief":2,
    "maker":2,
    "lady":2,
    "game":2,
    "developing":2,
    "super":2,
    "bowl":2,
    "web":2,
    "cost":2,
    "degree":2,
    "belt":2,
    "travel":2,
    "running":2,
    "drowns":2,
    "chet":2,
    "thursday":2,
    "auditor":2,
    "entirely":2,
    "blank":2,
    "startled":2,
    "heading":2,
    "lights":2,
    "mans":2,
    "worker":2,
    "7":2,
    "accounting":2,
    "screen":2,
    "probably":2,
    "shrugs":2,
    "since":2,
    "senior":2,
    "poor":2,
    "raised":2,
    "worse":2,
    "practically":2,
    "paces":2,
    "myself":2,
    "staff":2,
    "pain":2,
    "screw":2,
    "bother":2,
    "truth":2,
    "neighbor":2,
    "brooklyn":2,
    "hip":2,
    "minutes":2,
    "straight":2,
    "laugh":2,
    "laughter":2,
    "advance":2,
    "n":2,
    "different":2,
    "join":2,
    "determined":2,
    "brakes":2,
    "st":2,
    "seat":2,
    "halt":2,
    "grimy":2,
    "hiss":2,
    "second":2,
    "hurriedly":2,
    "stuffs":2,
    "shoves":2,
    "papers":2,
    "nice":2,
    "mild":2,
    "put":2,
    "laminated":2,
    "finger":2,
    "instinctively":2,
    "leaving":2,
    "reply":2,
    "taps":2,
    "lawyers":2,
    "walk":2,
    "smiling":2,
    "shake":2,
    "net":2,
    "exhausted":2,
    "wed":2,
    "worry":2,
    "years":2,
    "ok":2,
    "natural":2,
    "gut":2,
    "halts":2,
    "observation":2,
    "meant":2,
    "shower":2,
    "locker":2,
    "hanging":2,
    "identical":2,
    "using":2,
    "calls":2,
    "dick":2,
    "plans":2,
    "herr":2,
    "dealer":2,
    "gallery":2,
    "munich":2,
    "framed":2,
    "wealthy":2,
    "bit":2,
    "spiked":2,
    "expensive":2,
    "draped":2,
    "roomed":2,
    "freshman":2,
    "smart":2,
    "fit":2,
    "built":2,
    "whos":2,
    "rope":2,
    "proud":2,
    "lu":2,
    "keep":2,
    "protest":2,
    "waitress":2,
    "arrives":2,
    "macallan":2,
    "25":2,
    "gentlemen":2,
    "fifty":2,
    "wildest":2,
    "lamest":2,
    "months":2,
    "read":2,
    "forgotten":2,
    "ringing":2,
    "crack":2,
    "lame":2,
    "listens":2,
    "receiver":2,
    "eyeing":2,
    "goodbye":2,
    "hooker":2,
    "prostitutes":2,
    "most":2,
    "belong":2,
    "dog":2,
    "french":2,
    "successful":2,
    "care":2,
    "glad":2,
    "funny":2,
    "warmly":2,
    "climbs":2,
    "catches":2,
    "outside":2,
    "manhattan":2,
    "blur":2,
    "problems":2,
    "busy":2,
    "unavailable":2,
    "uneasy":2,
    "banks":2,
    "leg":2,
    "scene":2,
    "lunch":2,
    "reach":2,
    "mask":2,
    "wave":2,
    "ready":2,
    "message":2,
    "electronic":2,
    "eloise":2,
    "portrait":2,
    "scrolls":2,
    "hi":2,
    "ya":2,
    "tourist":2,
    "gorgeous":2,
    "pardon":2,
    "slender":2,
    "grey":2,
    "ding":2,
    "quick":2,
    "fairly":2,
    "certain":2,
    "mistake":2,
    "spoke":2,
    "exactly":2,
    "mouth":2,
    "covers":2,
    "showing":2,
    "having":2,
    "checked":2,
    "afraid":2,
    "regarding":2,
    "raining":2,
    "gonna":2,
    "um":2,
    "shuts":2,
    "hang":2,
    "half":2,
    "shakespeare":2,
    "curiously":2,
    "nights":2,
    "dream":2,
    "falters":2,
    "push":2,
    "rolls":2,
    "surprised":2,
    "leaning":2,
    "growing":2,
    "service":2,
    "obviously":2,
    "removes":2,
    "intimacy":2,
    "intricacy":2,
    "heard":2,
    "stuff":2,
    "wondering":2,
    "returns":2,
    "remain":2,
    "vacant":2,
    "breathe":2,
    "subway":2,
    "station":2,
    "umbrella":2,
    "blouse":2,
    "hmm":2,
    "\u00e2\u0080\u009es\u00e2\u0080\u009e":2,
    "rubs":2,
    "chin":2,
    "napkin":2,
    "rules":2,
    "fun":2,
    "part":2,
    "mysterious":2,
    "suzie":2,
    "sophie":2,
    "definitely":2,
    "syd":2,
    "steffi":2,
    "soaking":2,
    "sally":2,
    "hmmm":2,
    "absolutely":2,
    "living":2,
    "interesting":2,
    "bank":2,
    "tennis":2,
    "sitting":2,
    "chair":2,
    "beams":2,
    "reaching":2,
    "sight":2,
    "closes":2,
    "falling":2,
    "crashing":2,
    "drops":2,
    "jaw":2,
    "lip":2,
    "presently":2,
    "purse":2,
    "under":2,
    "lucky":2,
    "naughty":2,
    "extremely":2,
    "story":2,
    "coming":2,
    "gotta":2,
    "sometimes":2,
    "gasping":2,
    "unclear":2,
    "gasps":2,
    "terrified":2,
    "checks":2,
    "hurt":2,
    "cute":2,
    "sets":2,
    "points":2,
    "brings":2,
    "wouldnt":2,
    "completely":2,
    "uneasiness":2,
    "blinks":2,
    "emotions":2,
    "gently":2,
    "instead":2,
    "focus":2,
    "guys":2,
    "played":2,
    "killer":2,
    "instinct":2,
    "duck":2,
    "bike":2,
    "charm":2,
    "flips":2,
    "film":2,
    "human":2,
    "stand":2,
    "robe":2,
    "bar":2,
    "cryptic":2,
    "blows":2,
    "response":2,
    "anxious":2,
    "quickening":2,
    "light":2,
    "green":2,
    "hesitation":2,
    "jerks":2,
    "throws":2,
    "foot":2,
    "blanket":2,
    "sheets":2,
    "crumpled":2,
    "world":2,
    "senses":2,
    "bang":2,
    "flow":2,
    "person":2,
    "while":2,
    "wallet":2,
    "keys":2,
    "runs":2,
    "clutches":2,
    "trace":2,
    "exchange":2,
    "crazy":2,
    "struck":2,
    "desperation":2,
    "contain":2,
    "items":2,
    "passport":2,
    "today":2,
    "sits":2,
    "sell":2,
    "wary":2,
    "gestures":2,
    "buys":2,
    "questions":2,
    "smoke":2,
    "anxiously":2,
    "shudders":2,
    "tenses":2,
    "beside":2,
    "whip":2,
    "morgue":2,
    "mere":2,
    "figured":2,
    "reason":2,
    "contact":2,
    "receptionist":2,
    "walking":2,
    "confusion":2,
    "nobody":2,
    "conference":2,
    "spots":2,
    "jokes":2,
    "step":2,
    "equally":2,
    "making":2,
    "photocopy":2,
    "pan":2,
    "already":2,
    "exit":2,
    "photos":2,
    "neck":2,
    "wide":2,
    "frame":2,
    "swear":2,
    "faint":2,
    "client":2,
    "priority":2,
    "chilled":2,
    "reeling":2,
    "divider":2,
    "emotion":2,
    "needed":2,
    "sf":2,
    "shocked":2,
    "shuttle":2,
    "grand":2,
    "start":2,
    "transfer":2,
    "movement":2,
    "seemed":2,
    "followup":2,
    "luck":2,
    "shell":2,
    "tensely":2,
    "william":2,
    "blocks":2,
    "computer":2,
    "informed":2,
    "learned":2,
    "position":2,
    "jamie":2,
    "recognize":2,
    "cool":2,
    "icy":2,
    "match":2,
    "photograph":2,
    "whom":2,
    "automated":2,
    "apparently":2,
    "140":2,
    "e":2,
    "others":2,
    "rest":2,
    "instructions":2,
    "11":2,
    "pm":2,
    "overseas":2,
    "eventually":2,
    "quiet":2,
    "safe":2,
    "wireless":2,
    "considers":2,
    "hundred":2,
    "bill":2,
    "907":2,
    "auburn":2,
    "floors":2,
    "upward":2,
    "race":2,
    "higher":2,
    "disappearing":2,
    "staircase":2,
    "stairwell":2,
    "mass":2,
    "within":2,
    "antenna":2,
    "yet":3,
    "bends":3,
    "uh":3,
    "doorway":3,
    "below":3,
    "coffee":3,
    "continue":3,
    "along":3,
    "none":3,
    "accountant":3,
    "follows":3,
    "footsteps":3,
    "audit":3,
    "hows":3,
    "stern":3,
    "laptop":3,
    "confirm":3,
    "clancey":3,
    "palm":3,
    "week":3,
    "familiar":3,
    "finish":3,
    "hard":3,
    "being":3,
    "given":3,
    "always":3,
    "anyone":3,
    "block":3,
    "clock":3,
    "rain":3,
    "wants":3,
    "slightly":3,
    "against":3,
    "nearly":3,
    "pocket":3,
    "point":3,
    "toward":3,
    "office":3,
    "assistant":3,
    "clute":3,
    "nichols":3,
    "after":3,
    "sec":3,
    "remember":3,
    "kevlar":3,
    "attractive":3,
    "selfconscious":3,
    "puzzled":3,
    "pulls":3,
    "change":3,
    "forget":3,
    "mine":3,
    "kleiner":3,
    "downstairs":3,
    "art":3,
    "pauses":3,
    "beautiful":3,
    "photo":3,
    "hair":3,
    "talk":3,
    "pull":3,
    "real":3,
    "assumed":3,
    "done":3,
    "magazine":3,
    "called":3,
    "raises":3,
    "brow":3,
    "sexy":3,
    "distant":3,
    "dance":3,
    "word":3,
    "men":3,
    "store":3,
    "besides":3,
    "love":3,
    "song":3,
    "taken":3,
    "grin":3,
    "lobby":3,
    "accounts":3,
    "account":3,
    "steal":3,
    "yesterday":3,
    "regards":3,
    "suits":3,
    "rests":3,
    "ledge":3,
    "shit":3,
    "itll":3,
    "abruptly":3,
    "click":3,
    "plaza":3,
    "roar":3,
    "central":3,
    "lips":3,
    "details":3,
    "pace":3,
    "kind":3,
    "explain":3,
    "hers":3,
    "kiss":3,
    "fuck":3,
    "sir":3,
    "information":3,
    "damn":3,
    "vaguely":3,
    "disbelief":3,
    "waits":3,
    "whoever":3,
    "gave":3,
    "elevator":3,
    "creak":3,
    "strike":3,
    "suspicious":3,
    "felt":3,
    "inside":3,
    "music":3,
    "gives":3,
    "heads":3,
    "continues":3,
    "stunned":3,
    "soaked":3,
    "saying":3,
    "sunbeam":3,
    "\u00e2\u0080\u009e":3,
    "soon":3,
    "holds":3,
    "perfect":3,
    "above":3,
    "notices":3,
    "less":3,
    "least":3,
    "fear":3,
    "scream":3,
    "edge":3,
    "walks":3,
    "thinks":3,
    "\u00e2\u0080\u009es":3,
    "things":3,
    "wrapper":3,
    "glasses":3,
    "sign":3,
    "watching":3,
    "hears":3,
    "red":3,
    "getting":3,
    "slams":3,
    "desperate":3,
    "blood":3,
    "scans":3,
    "desperately":3,
    "works":3,
    "taking":3,
    "goddamn":3,
    "report":3,
    "searching":3,
    "credit":3,
    "cards":3,
    "body":3,
    "found":3,
    "break":3,
    "forester":3,
    "tension":3,
    "angle":3,
    "minute":3,
    "system":3,
    "firm":3,
    "named":3,
    "god":3,
    "cracking":3,
    "realizes":3,
    "building":3,
    "apartment":3,
    "days":3,
    "freezes":3,
    "among":3,
    "trophy":3,
    "whips":3,
    "darting":3,
    "center":3,
    "crushing":3,
    "incoming":3,
    "kill":3,
    "windows":3,
    "passengers":3,
    "redial":3,
    "connection":3,
    "bansky":3,
    "might":3,
    "chicago":3,
    "hed":3,
    "cigarette":3,
    "discovered":3,
    "reed":3,
    "fire":3,
    "=":3,
    "teller":3,
    "press":3,
    "alive":3,
    "address":3,
    "request":3,
    "fingers":3,
    "stack":4,
    "display":4,
    "anything":4,
    "voice":4,
    "solange":4,
    "hour":4,
    "every":4,
    "ah":4,
    "glance":4,
    "conversation":4,
    "pause":4,
    "take":4,
    "slides":4,
    "kidding":4,
    "berman":4,
    "opening":4,
    "peterson":4,
    "wanted":4,
    "controller":4,
    "anyway":4,
    "clicks":4,
    "scared":4,
    "enjoy":4,
    "monitor":4,
    "question":4,
    "lot":4,
    "princeton":4,
    "hope":4,
    "wall":4,
    "car":4,
    "follow":4,
    "sees":4,
    "stands":4,
    "chance":4,
    "os":4,
    "grabs":4,
    "meeting":4,
    "desk":4,
    "which":4,
    "names":4,
    "grinning":4,
    "passes":4,
    "asked":4,
    "able":4,
    "came":4,
    "sex":4,
    "disappears":4,
    "wrong":4,
    "blonde":4,
    "arm":4,
    "lie":4,
    "big":4,
    "feeling":4,
    "ear":4,
    "knew":4,
    "seem":4,
    "hit":4,
    "corner":4,
    "watches":4,
    "cab":4,
    "codes":4,
    "without":4,
    "those":4,
    "phones":4,
    "london":4,
    "curious":4,
    "static":4,
    "beneath":4,
    "says":4,
    "town":4,
    "leans":4,
    "forward":4,
    "each":4,
    "keeps":4,
    "lies":4,
    "button":4,
    "holding":4,
    "longer":4,
    "comes":4,
    "utterly":4,
    "sort":4,
    "stops":4,
    "water":4,
    "together":4,
    "harder":4,
    "side":4,
    "line":4,
    "reads":4,
    "panicked":4,
    "instantly":4,
    "almost":4,
    "black":4,
    "bucket":4,
    "handle":4,
    "glimpse":4,
    "understand":4,
    "detective":4,
    "group":4,
    "telling":4,
    "file":4,
    "stolen":4,
    "important":4,
    "simone":4,
    "types":4,
    "left":4,
    "jumps":4,
    "track":4,
    "police":4,
    "clearly":4,
    "envelope":4,
    "insert":4,
    "doesnt":5,
    "lost":5,
    "supposed":5,
    "worth":5,
    "stall":5,
    "will":5,
    "hell":5,
    "pretty":5,
    "once":5,
    "gets":5,
    "weeks":5,
    "laughs":5,
    "either":5,
    "enters":5,
    "himself":5,
    "rises":5,
    "gone":5,
    "list":5,
    "hall":5,
    "amused":5,
    "confused":5,
    "knows":5,
    "four":5,
    "idea":5,
    "finds":5,
    "own":5,
    "pulling":5,
    "shot":5,
    "james":5,
    "guy":5,
    "happened":5,
    "killed":5,
    "arent":5,
    "great":5,
    "ago":5,
    "ad":5,
    "table":5,
    "gaze":5,
    "three":5,
    "needs":5,
    "studies":5,
    "stay":5,
    "window":5,
    "access":5,
    "air":5,
    "expression":5,
    "peers":5,
    "may":5,
    "waiting":5,
    "waiter":5,
    "far":5,
    "thank":5,
    "front":5,
    "watch":5,
    "leave":5,
    "gazes":5,
    "closer":5,
    "hudson":5,
    "club":5,
    "tense":5,
    "wont":5,
    "slowly":5,
    "made":5,
    "white":5,
    "ice":5,
    "ms":5,
    "pomerantz":5,
    "mail":5,
    "pov":5,
    "early":6,
    "home":6,
    "later":6,
    "pick":6,
    "past":6,
    "barely":6,
    "though":6,
    "between":6,
    "ever":6,
    "rutherford":6,
    "empty":6,
    "has":6,
    "am":6,
    "lawyer":6,
    "bad":6,
    "used":6,
    "try":6,
    "hold":6,
    "would":6,
    "live":6,
    "stop":6,
    "small":6,
    "crowd":6,
    "hits":6,
    "looking":6,
    "speak":6,
    "fine":6,
    "alone":6,
    "money":6,
    "picks":6,
    "rings":6,
    "personal":6,
    "shakes":6,
    "silence":6,
    "seems":6,
    "ring":6,
    "seen":6,
    "feel":6,
    "goes":6,
    "chinese":6,
    "missing":6,
    "tomorrow":7,
    "does":7,
    "spins":7,
    "late":7,
    "friend":7,
    "both":7,
    "floor":7,
    "opens":7,
    "because":7,
    "day":7,
    "huh":7,
    "wasnt":7,
    "breath":7,
    "hesitates":7,
    "until":7,
    "canal":7,
    "street":7,
    "briefcase":7,
    "shoulder":7,
    "better":7,
    "help":7,
    "enough":7,
    "lets":7,
    "youll":7,
    "frowns":7,
    "end":7,
    "hotel":7,
    "life":7,
    "business":7,
    "doing":7,
    "answer":7,
    "across":7,
    "finally":7,
    "russo":7,
    "glances":8,
    "women":8,
    "smile":8,
    "come":8,
    "reaches":8,
    "give":8,
    "turn":8,
    "very":8,
    "much":8,
    "believe":8,
    "little":8,
    "year":8,
    "numbers":8,
    "these":8,
    "isnt":8,
    "doors":8,
    "listen":8,
    "should":8,
    "staring":8,
    "yours":8,
    "glass":8,
    "make":8,
    "or":8,
    "away":8,
    "gum":8,
    "everything":8,
    "presses":8,
    "holloway":8,
    "old":9,
    "behind":9,
    "else":9,
    "thanks":9,
    "standing":9,
    "young":9,
    "excuse":9,
    "sounds":9,
    "course":9,
    "talking":9,
    "than":9,
    "few":9,
    "told":9,
    "weve":9,
    "saw":9,
    "met":9,
    "trying":9,
    "guess":9,
    "suit":9,
    "same":9,
    "feet":9,
    "hear":9,
    "us":9,
    "nothing":9,
    "whats":9,
    "number":9,
    "girl":9,
    "let":9,
    "dead":9,
    "ask":9,
    "head":9,
    "why":10,
    "cant":10,
    "actually":10,
    "some":10,
    "really":10,
    "people":10,
    "everyone":10,
    "meet":10,
    "another":10,
    "hands":10,
    "never":10,
    "bed":10,
    "open":11,
    "theyre":11,
    "our":11,
    "bose":11,
    "still":11,
    "getz":11,
    "new":11,
    "please":11,
    "call":11,
    "tell":11,
    "tries":11,
    "working":12,
    "youve":12,
    "sound":12,
    "said":12,
    "steps":12,
    "time":12,
    "first":12,
    "must":12,
    "last":12,
    "thought":12,
    "ill":12,
    "close":12,
    "key":12,
    "man":13,
    "even":13,
    "long":13,
    "around":13,
    "hangs":13,
    "free":13,
    "thing":13,
    "night":14,
    "more":14,
    "want":14,
    "maybe":14,
    "next":14,
    "before":14,
    "sure":14,
    "nods":14,
    "theres":14,
    "two":14,
    "starts":14,
    "quickly":14,
    "hey":14,
    "tonight":14,
    "moment":14,
    "suddenly":14,
    "id":14,
    "them":15,
    "good":15,
    "work":15,
    "sorry":15,
    "someone":15,
    "other":15,
    "where":15,
    "wait":15,
    "through":15,
    "stares":15,
    "need":15,
    "think":16,
    "had":16,
    "too":16,
    "did":16,
    "hand":16,
    "yeah":17,
    "way":17,
    "any":17,
    "cell":17,
    "go":17,
    "wyatts":17,
    "going":17,
    "didnt":18,
    "hello":18,
    "okay":18,
    "could":18,
    "takes":18,
    "mean":18,
    "train":18,
    "beat":18,
    "card":18,
    "face":19,
    "their":20,
    "yes":20,
    "shes":20,
    "oh":20,
    "mr":20,
    "woman":21,
    "smiles":21,
    "ive":21,
    "off":21,
    "door":21,
    "room":21,
    "again":21,
    "eyes":22,
    "say":22,
    "look":23,
    "thats":23,
    "been":23,
    "messer":23,
    "well":25,
    "name":25,
    "down":25,
    "find":26,
    "over":26,
    "turns":26,
    "jonathans":26,
    "who":26,
    "see":26,
    "get":27,
    "only":27,
    "got":27,
    "were":27,
    "how":31,
    "my":31,
    "hes":31,
    "right":32,
    "into":32,
    "youre":33,
    "here":34,
    "phone":34,
    "one":35,
    "something":35,
    "about":37,
    "by":38,
    "your":38,
    "there":38,
    "looks":38,
    "when":39,
    "be":40,
    "now":40,
    "if":41,
    "s":41,
    "they":42,
    "can":42,
    "do":42,
    "an":43,
    "all":43,
    "dont":44,
    "are":45,
    "we":46,
    "not":51,
    "from":52,
    "what":54,
    "back":56,
    "like":57,
    "have":58,
    "out":58,
    "so":59,
    "know":59,
    "then":60,
    "no":66,
    "that":70,
    "as":73,
    "but":75,
    "its":76,
    "me":77,
    "for":79,
    "im":80,
    "with":81,
    "just":81,
    "up":82,
    "this":84,
    "was":84,
    "wyatt":84,
    "is":89,
    "at":100,
    "on":105,
    "him":106,
    "her":107,
    "she":119,
    "it":133,
    "his":145,
    "in":156,
    "he":172,
    "of":177,
    "and":190,
    "jonathan":223,
    "":293,
    "i":298,
    "you":318,
    "to":324,
    "a":340,
    "the":538
}