{
    "campers":1,
    "oatmeal":1,
    "eggs":1,
    "gingerly":1,
    "shoves":1,
    "plate":1,
    "reading":1,
    "written":1,
    "childish":1,
    "scrawl":1,
    "ace":1,
    "holds":1,
    "picture":1,
    "drawn":1,
    "crayon":1,
    "stick":1,
    "adjacent":1,
    "house":1,
    "brightly":1,
    "colored":1,
    "caption":1,
    "daddy":1,
    "pretty":1,
    "rembrandt":1,
    "priceless":1,
    "isnt":1,
    "beautiful":1,
    "laughing":1,
    "gorged":1,
    "food":1,
    "whata":1,
    "buncha":1,
    "family":1,
    "conversation":1,
    "strange":1,
    "laying":1,
    "extraduty":1,
    "pay":1,
    "rugrat":1,
    "looking":1,
    "bus":1,
    "factory":1,
    "shuffling":1,
    "also":1,
    "rise":1,
    "ya":1,
    "gonna":1,
    "bet":1,
    "meat":1,
    "thanks":1,
    "sleep":1,
    "junkie":1,
    "scrutinzing":1,
    "galley":1,
    "pops":1,
    "pills":1,
    "sing":1,
    "file":1,
    "stands":1,
    "shrugging":1,
    "woolies":1,
    "insulated":1,
    "coveralls":1,
    "nodding":1,
    "made":1,
    "decision":1,
    "rotation":1,
    "vldez":1,
    "major":1,
    "needs":1,
    "saying":1,
    "pushing":1,
    "week":1,
    "veteran":1,
    "arent":1,
    "doctor":1,
    "telling":1,
    "worried":1,
    "review":1,
    "requests":1,
    "basis":1,
    "list":1,
    "transfer":1,
    "pregnant":1,
    "course":1,
    "tiny":1,
    "thud":1,
    "dsrv":1,
    "sway":1,
    "forth":1,
    "drifts":1,
    "free":1,
    "breaks":1,
    "humming":1,
    "song":1,
    "sailed":1,
    "sun":1,
    "til":1,
    "sea":1,
    "lived":1,
    "waves":1,
    "yellow":1,
    "submarine":1,
    "join":1,
    "fivehundred":1,
    "closing":1,
    "constantly":1,
    "shifting":1,
    "hundred":1,
    "backs":1,
    "engine":1,
    "navigation":1,
    "fifty":1,
    "forty":1,
    "instruments":1,
    "maneuvers":1,
    "alongside":1,
    "thirty":1,
    "twenty":1,
    "ten":1,
    "day":1,
    "putting":1,
    "lot":1,
    "threatening":1,
    "interference":1,
    "longer":1,
    "butting":1,
    "peoples":1,
    "problems":1,
    "uh":1,
    "captainsailor":1,
    "fatherson":1,
    "nosey":1,
    "dickhead":1,
    "ahhhs":1,
    "recognition":1,
    "seems":1,
    "gal":1,
    "myself":1,
    "acting":1,
    "scowls":1,
    "everyday":1,
    "owe":1,
    "explaination":1,
    "explain":1,
    "drew":1,
    "married":1,
    "ground":1,
    "loved":1,
    "kathys":1,
    "death":1,
    "spoken":1,
    "tough":1,
    "anyway":1,
    "pressurized":1,
    "noisy":1,
    "settle":1,
    "month":1,
    "asking":1,
    "place":1,
    "experiments":1,
    "tired":1,
    "butt":1,
    "talks":1,
    "promises":1,
    "tie":1,
    "camera":1,
    "flickers":1,
    "eddie":1,
    "meal":1,
    "woman":1,
    "cure":1,
    "rid":1,
    "mary":1,
    "learn":1,
    "helps":1,
    "rolls":1,
    "fights":1,
    "temper":1,
    "promise":1,
    "music":1,
    "lover":1,
    "letting":1,
    "promised":1,
    "bother":1,
    "anymore":1,
    "many":1,
    "rakes":1,
    "lips":1,
    "screeching":1,
    "scales":1,
    "successsion":1,
    "goddammit":1,
    "son":1,
    "relieve":1,
    "show":1,
    "mute":1,
    "harms":1,
    "lose":1,
    "thinks":1,
    "istenin":1,
    "compromise":1,
    "elite":1,
    "age":1,
    "creating":1,
    "mankind":1,
    "tame":1,
    "frontier":1,
    "forefathers":1,
    "dog":1,
    "building":1,
    "anyone":1,
    "cryogenic":1,
    "frozen":1,
    "vapor":1,
    "trailing":1,
    "sign":1,
    "mistake":1,
    "important":1,
    "process":1,
    "blind":1,
    "squealing":1,
    "sa":1,
    "crashes":1,
    "aganst":1,
    "splat":1,
    "cutting":1,
    "strangely":1,
    "silent":1,
    "aimlessly":1,
    "cradles":1,
    "biocreatures":1,
    "stroking":1,
    "step":1,
    "knock":1,
    "cuts":1,
    "sodium":1,
    "pentathol":1,
    "kidding":1,
    "frustration":1,
    "terror":1,
    "s":1,
    "access":1,
    "compressed":1,
    "doesn":1,
    "crouching":1,
    "handhold":1,
    "grinds":1,
    "ever":1,
    "widening":1,
    "slit":1,
    "opened":1,
    "went":1,
    "closed":1,
    "sealed":1,
    "power":1,
    "dies":1,
    "dashes":1,
    "manual":1,
    "spins":1,
    "undogging":1,
    "wheel":1,
    "yanks":1,
    "handlight":1,
    "compromised":1,
    "procedures":1,
    "piss":1,
    "each":1,
    "shrugs":1,
    "segmented":1,
    "exoskeltoid":1,
    "roughly":1,
    "symmetrical":1,
    "flashlight":1,
    "plays":1,
    "writhing":1,
    "hurls":1,
    "shout":1,
    "fear":1,
    "staggering":1,
    "killed":1,
    "prods":1,
    "riddled":1,
    "body":1,
    "shining":1,
    "1t":1,
    "1257":1,
    "hurt":1,
    "ease":1,
    "cutout":1,
    "zzzzzzt":1,
    "cause":1,
    "battery":1,
    "giving":1,
    "view":1,
    "search":1,
    "beat":1,
    "else":1,
    "watches":1,
    "larger":1,
    "plex":1,
    "containers":1,
    "shirt":1,
    "foam":1,
    "carbon":1,
    "contamination":1,
    "later":1,
    "advise":1,
    "sterilization":1,
    "scratches":1,
    "plan":1,
    "waits":1,
    "junction":1,
    "standby":1,
    "circuts":1,
    "repair":1,
    "11whatever":1,
    "cage":1,
    "ashen":1,
    "seen":1,
    "even":1,
    "horrible":1,
    "realization":1,
    "crawls":1,
    "rotates":1,
    "resting":1,
    "anythinga":1,
    "cell":1,
    "nods":1,
    "hed":1,
    "tosses":1,
    "thumb":1,
    "highstep":1,
    "their":1,
    "swims":1,
    "surprised":1,
    "eventually":1,
    "gettins":1,
    "saddle":1,
    "further":1,
    "incentive":1,
    "rushes":1,
    "three":1,
    "forcing":1,
    "sickening":1,
    "screech":1,
    "beginning":1,
    "groans":1,
    "corners":1,
    "battering":1,
    "forget":1,
    "broken":1,
    "yourselves":1,
    "sill":1,
    "rivets":1,
    "laidlaws":1,
    "tight":1,
    "pump":1,
    "mind":1,
    "dying":1,
    "pilots":1,
    "firing":1,
    "numb":1,
    "pumps":1,
    "believe":1,
    "happened":1,
    "release":1,
    "lever":1,
    "deserved":1,
    "limp":1,
    "hasnt":1,
    "calling":1,
    "extraction":1,
    "sooner":1,
    "disgust":1,
    "signal":1,
    "beats":1,
    "fingers":1,
    "fly":1,
    "keyboard":1,
    "message":1,
    "somethings":1,
    "somewhere":1,
    "checked":1,
    "cocks":1,
    "adjusting":1,
    "volume":1,
    "leaving":1,
    "headed":1,
    "rescue":1,
    "maybe":1,
    "communications":1,
    "filled":1,
    "sound":1,
    "splash":1,
    "hissing":1,
    "fleet":1,
    "puzzled":1,
    "likely":1,
    "punch":1,
    "range":1,
    "studies":1,
    "id":1,
    "sidebar":1,
    "information":1,
    "size":1,
    "object":1,
    "blip":1,
    "metal":1,
    "cylinder":1,
    "meter":1,
    "wide":1,
    "videocom":1,
    "hull":1,
    "ignores":1,
    "pry":1,
    "seven":1,
    "blur":1,
    "shreik":1,
    "zero":1,
    "tanks":1,
    "turned":1,
    "losing":1,
    "trunk":1,
    "valve":1,
    "negative":1,
    "loop":1,
    "lines":1,
    "furiously":1,
    "dig":1,
    "cracks":1,
    "panicked":1,
    "apart":1,
    "breathe":1,
    "listen":1,
    "alarms":1,
    "eerily":1,
    "quiet":1,
    "rasping":1,
    "extinguisher":1,
    "stopped":1,
    "least":1,
    "drag":1,
    "removes":1,
    "welding":1,
    "mask":1,
    "ballgame":1,
    "folks":1,
    "ambient":1,
    "hours":1,
    "studying":1,
    "status":1,
    "indicates":1,
    "functioning":1,
    "luck":1,
    "hoists":1,
    "walk":1,
    "park":1,
    "electronic":1,
    "seal":1,
    "route":1,
    "copy":1,
    "sections":1,
    "exposing":1,
    "extensive":1,
    "labyrinth":1,
    "pipes":1,
    "wiring":1,
    "ricahrdsons":1,
    "swing":1,
    "directly":1,
    "whirrs":1,
    "lowering":1,
    "wet":1,
    "rip":1,
    "shows":1,
    "greyblack":1,
    "muddle":1,
    "recirculation":1,
    "blueprints":1,
    "enz6538":1,
    "splits":1,
    "tool":1,
    "basket":1,
    "spew":1,
    "nozzle":1,
    "pipe":1,
    "snow":1,
    "blurs":1,
    "image":1,
    "obscures":1,
    "affirmative":1,
    "fix":1,
    "adjusts":1,
    "grows":1,
    "whooosh":1,
    "flurry":1,
    "flares":1,
    "curses":1,
    "shutting":1,
    "venting":1,
    "paralyzed":1,
    "yelling":1,
    "noise":1,
    "freeze":1,
    "smiles":1,
    "massive":1,
    "swings":1,
    "floor":1,
    "faceplate":1,
    "sleeve":1,
    "buddy":1,
    "hook":1,
    "fastens":1,
    "half":1,
    "missing":1,
    "cables":1,
    "tattered":1,
    "flesh":1,
    "loosely":1,
    "underneath":1,
    "drip":1,
    "mother":1,
    "stunned":1,
    "silence":1,
    "stopping":1,
    "drawing":1,
    "daughter":1,
    "bends":1,
    "pick":1,
    "shudder":1,
    "scramble":1,
    "shatters":1,
    "spray":1,
    "edge":1,
    "thump":1,
    "staggers":1,
    "waist":1,
    "high":1,
    "youll":1,
    "releases":1,
    "grasp":1,
    "whispering":1,
    "sends":1,
    "spiraling":1,
    "chin":1,
    "crosses":1,
    "meeting":1,
    "same":1,
    "bumps":1,
    "low":1,
    "punching":1,
    "tumbles":1,
    "backwards":1,
    "leaps":1,
    "straddles":1,
    "spatters":1,
    "nose":1,
    "stares":1,
    "furious":1,
    "medical":1,
    "shots":1,
    "wearing":1,
    "ccs":1,
    "listened":1,
    "known":1,
    "stripping":1,
    "gloves":1,
    "sink":1,
    "washing":1,
    "taking":1,
    "shoulders":1,
    "shouldve":1,
    "destroyed":1,
    "afraid":1,
    "taken":1,
    "project":1,
    "grow":1,
    "glossy":1,
    "done":1,
    "whatever":1,
    "hour":1,
    "chanber":1,
    "finish":1,
    "patching":1,
    "vote":1,
    "decompressing":1,
    "wed":1,
    "ripe":1,
    "melons":1,
    "four":1,
    "theyll":1,
    "loading":1,
    "shouldnt":1,
    "bed":1,
    "familar":1,
    "loaded":1,
    "c02":1,
    "cartridge":1,
    "jab":1,
    "blows":1,
    "balloon":1,
    "teams":1,
    "hide":1,
    "sitting":1,
    "pretends":1,
    "intensely":1,
    "interested":1,
    "exit":1,
    "except":1,
    "cartridges":1,
    "expired":1,
    "date":1,
    "quit":1,
    "defective":1,
    "swells":1,
    "crotch":1,
    "thrusts":1,
    "thigh":1,
    "instantly":1,
    "vinyl":1,
    "bulge":1,
    "popping":1,
    "upholstery":1,
    "buttons":1,
    "leaking":1,
    "flooded":1,
    "nervous":1,
    "whines":1,
    "stow":1,
    "crap":1,
    "lower":1,
    "job":1,
    "adventure":1,
    "yours":1,
    "staying":1,
    "respond":1,
    "mine":1,
    "wades":1,
    "passes":1,
    "rounds":1,
    "reloads":1,
    "tentatively":1,
    "begin":1,
    "split":1,
    "near":1,
    "heart":1,
    "attacks":1,
    "bursts":1,
    "panting":1,
    "breathes":1,
    "deeply":1,
    "dives":1,
    "tada":1,
    "patched":1,
    "grisly":1,
    "shower":1,
    "ribs":1,
    "muscle":1,
    "tissue":1,
    "norr1s":1,
    "w1th":1,
    "lung":1,
    "ordering":1,
    "hangs":1,
    "short":1,
    "space":1,
    "center":1,
    "bleat":1,
    "bang":1,
    "big":1,
    "stickers":1,
    "plastered":1,
    "caution":1,
    "explosive":1,
    "bolts":1,
    "simultaneously":1,
    "tossing":1,
    "sputters":1,
    "coughing":1,
    "seawater":1,
    "lungs":1,
    "really":1,
    "snyper":1,
    "care":1,
    "faster":1,
    "twitches":1,
    "blister":1,
    "agony":1,
    "bulging":1,
    "yeins":1,
    "temples":1,
    "bursting":1,
    "spraying":1,
    "tortured":1,
    "fifteen":1,
    "single":1,
    "shines":1,
    "precious":1,
    "seconds":1,
    "tick":1,
    "swimming":1,
    "remembers":1,
    "far":1,
    "pushes":1,
    "cranks":1,
    "suck":1,
    "juice":1,
    "whine":1,
    "voltmeter":1,
    "counting":1,
    "thousands":1,
    "holding":1,
    "dumb":1,
    "ugly":1,
    "sack":1,
    "sparks":1,
    "arc":1,
    "recoils":1,
    "e":1,
    "hammers":1,
    "refuses":1,
    "stating":1,
    "flatly":1,
    "paues":1,
    "sinks":1,
    "vanishing":1,
    "peneath":1,
    "12":1,
    "13":1,
    "14":1,
    "15":1,
    "grabbed":1,
    "slammed":1,
    "bulkhead":1,
    "flies":1,
    "bellows":1,
    "rage":1,
    "pain":1,
    "frantically":1,
    "pounds":1,
    "groping":1,
    "lost":1,
    "defibrillator":1,
    "protest":1,
    "22":1,
    "dangerously":1,
    "because":1,
    "wondering":1,
    "women":1,
    "33":1,
    "34":1,
    "35":1,
    "36":1,
    "yanked":1,
    "zzzzzzzztttt":1,
    "convulses":1,
    "helplessly":1,
    "thick":1,
    "smoke":1,
    "rolling":1,
    "snap":1,
    "zzzzzzzztt":1,
    "disbelief":1,
    "delay":1,
    "understand":1,
    "question":1,
    "giggle":1,
    "escapes":1,
    "chest":1,
    "cavity":1,
    "mass":1,
    "swarming":1,
    "crabs":1,
    "feeding":1,
    "onhis":1,
    "entrail":1,
    "nearby":1,
    "waking":1,
    "realize":1,
    "shakes":1,
    "blast":1,
    "awake":1,
    "bastards":1,
    "aw":1,
    "bulkheads":1,
    "rattle":1,
    "scrabbles":1,
    "starter":1,
    "stabs":1,
    "slams":1,
    "fist":1,
    "console":1,
    "motor":1,
    "whoop":1,
    "gunning":1,
    "motors":1,
    "outta":1,
    "plows":1,
    "astern":1,
    "stuck":1,
    "swears":1,
    "old":1,
    "sudden":1,
    "gotta":1,
    "streams":1,
    "sides":1,
    "plastic":1,
    "crack":1,
    "pressed":1,
    "hideously":1,
    "treviewport":1,
    "might":1,
    "ride":1,
    "huh":1,
    "fiercely":1,
    "violent":1,
    "pitching":1,
    "showers":1,
    "arming":1,
    "pins":1,
    "reaching":1,
    "tucks":1,
    "waistband":1,
    "abandon":1,
    "ship":1,
    "hesitate":1,
    "steadies":1,
    "fuel":1,
    "dump":1,
    "nearly":1,
    "complete":1,
    "fizzling":1,
    "en":1,
    "careful":1,
    "aim":1,
    "trigger":1,
    "happens":1,
    "merry":1,
    "christmas":1,
    "dickweed":1,
    "shoots":1,
    "ball":1,
    "flame":1,
    "tears":1,
    "silently":1,
    "rockets":1,
    "groan":1,
    "burned":1,
    "places":1,
    "horizon":1,
    "row":1,
    "digs":1,
    "deepstar":2,
    "6":2,
    "morning":2,
    "julie":2,
    "trees":2,
    "flowers":2,
    "reads":2,
    "aint":2,
    "pal":2,
    "sweet":2,
    "nice":2,
    "waiting":2,
    "thousand":2,
    "keeps":2,
    "admit":2,
    "busy":2,
    "eggheads":2,
    "leaves":2,
    "leave":2,
    "em":2,
    "first":2,
    "finds":2,
    "dead":2,
    "am":2,
    "bottle":2,
    "hihe":2,
    "hiho":2,
    "scientists":2,
    "walks":2,
    "word":2,
    "itll":2,
    "minute":2,
    "sighs":2,
    "says":2,
    "verge":2,
    "breakthrough":2,
    "weeks":2,
    "rotate":2,
    "science":2,
    "men":2,
    "navy":2,
    "trapped":2,
    "ocean":2,
    "than":2,
    "break":2,
    "call":2,
    "case":2,
    "fine":2,
    "heres":2,
    "knows":2,
    "asked":2,
    "friend":2,
    "closes":2,
    "sealing":2,
    "works":2,
    "controls":2,
    "whirr":2,
    "metallic":2,
    "green":2,
    "god":2,
    "please":2,
    "contact":2,
    "concentrates":2,
    "whining":2,
    "carefully":2,
    "crazy":2,
    "ask":2,
    "didnt":2,
    "rest":2,
    "very":2,
    "chance":2,
    "quick":2,
    "locked":2,
    "t":2,
    "l":2,
    "robby":2,
    "flood":2,
    "fat":2,
    "bastard":2,
    "ago":2,
    "nobody":2,
    "play":2,
    "switches":2,
    "wall":2,
    "loose":2,
    "possible":2,
    "relax":2,
    "front":2,
    "bitch":2,
    "specimens":2,
    "coming":2,
    "speaker":2,
    "yes":2,
    "listening":2,
    "scientific":2,
    "bunch":2,
    "bullshit":2,
    "will":2,
    "our":2,
    "used":2,
    "ox":2,
    "noooo":2,
    "gestures":2,
    "large":2,
    "mistakes":2,
    "goddamnit":2,
    "ins":2,
    "heaves":2,
    "creature":2,
    "direction":2,
    "holy":2,
    "shuffles":2,
    "arms":2,
    "gently":2,
    "shotguns":2,
    "harsh":2,
    "flicker":2,
    "1":2,
    "handle":2,
    "escaping":2,
    "strains":2,
    "lift":2,
    "slowly":2,
    "while":2,
    "automatically":2,
    "wheres":2,
    "biolab":2,
    "ebs":2,
    "unit":2,
    "goddamn":2,
    "procedure":2,
    "teeth":2,
    "sharp":2,
    "freezes":2,
    "beam":2,
    "floating":2,
    "shape":2,
    "itself":2,
    "boom":2,
    "smashed":2,
    "sorry":2,
    "mess":2,
    "wiping":2,
    "mention":2,
    "ds6":2,
    "request":2,
    "escaped":2,
    "sits":2,
    "types":2,
    "pause":2,
    "effect":2,
    "reply":2,
    "full":2,
    "load":2,
    "havent":2,
    "stops":2,
    "quietly":2,
    "bit":2,
    "debris":2,
    "tank":2,
    "never":2,
    "ripple":2,
    "hatchway":2,
    "heave":2,
    "running":2,
    "push":2,
    "shut":2,
    "flying":2,
    "splashes":2,
    "drags":2,
    "slamming":2,
    "weve":2,
    "engines":2,
    "seat":2,
    "jams":2,
    "climb":2,
    "followed":2,
    "others":2,
    "gear":2,
    "together":2,
    "throws":2,
    "sending":2,
    "fucked":2,
    "headset":2,
    "distant":2,
    "past":2,
    "command":2,
    "appears":2,
    "realizes":2,
    "damage":2,
    "pill":2,
    "badly":2,
    "section":2,
    "runs":2,
    "scans":2,
    "static":2,
    "rocks":2,
    "hit":2,
    "ruptured":2,
    "claxon":2,
    "bleats":2,
    "between":2,
    "gods":2,
    "sake":2,
    "slaps":2,
    "whoosh":2,
    "torch":2,
    "last":2,
    "cast":2,
    "points":2,
    "line":2,
    "reroute":2,
    "would":2,
    "electric":2,
    "track":2,
    "ceiling":2,
    "mains":2,
    "deck":2,
    "ahead":2,
    "end":2,
    "bnc34":2,
    "fires":2,
    "bubbles":2,
    "burst":2,
    "vent":2,
    "breath":2,
    "return":2,
    "snatches":2,
    "races":2,
    "causes":2,
    "everyone":2,
    "springs":2,
    "jumps":2,
    "grabbing":2,
    "bits":2,
    "catches":2,
    "spattered":2,
    "impact":2,
    "pow":2,
    "stand":2,
    "map":2,
    "fast":2,
    "fists":2,
    "stop":2,
    "exert":2,
    "slow":2,
    "deep":2,
    "breaths":2,
    "people":2,
    "easy":2,
    "shock":2,
    "noris":2,
    "thumps":2,
    "forefinger":2,
    "injects":2,
    "drug":2,
    "affect":2,
    "immediately":2,
    "species":2,
    "crater":2,
    "characteristics":2,
    "animal":2,
    "beast":2,
    "burden":2,
    "fantastic":2,
    "growth":2,
    "rate":2,
    "strength":2,
    "hostile":2,
    "wanted":2,
    "sample":2,
    "genetic":2,
    "material":2,
    "gentler":2,
    "traits":2,
    "ordered":2,
    "organism":2,
    "intact":2,
    "wasnt":2,
    "knew":2,
    "dangerous":2,
    "forgive":2,
    "louise":2,
    "falls":2,
    "asleep":2,
    "bloody":2,
    "idiot":2,
    "exchange":2,
    "glances":2,
    "gas":2,
    "sweep":2,
    "padded":2,
    "begins":2,
    "weapon":2,
    "jammed":2,
    "ladder":2,
    "ignoring":2,
    "warning":2,
    "rocking":2,
    "lurches":2,
    "steady":2,
    "kicks":2,
    "capacitor":2,
    "3":2,
    "4":2,
    "5":2,
    "shell":2,
    "dips":2,
    "zzzt":2,
    "pulling":2,
    "pistol":2,
    "who":3,
    "fax":3,
    "letter":3,
    "check":3,
    "man":3,
    "under":3,
    "fish":3,
    "must":3,
    "gives":3,
    "after":3,
    "wouldnt":3,
    "own":3,
    "watch":3,
    "five":3,
    "arm":3,
    "stare":3,
    "exits":3,
    "asshole":3,
    "along":3,
    "few":3,
    "days":3,
    "part":3,
    "team":3,
    "said":3,
    "pierces":3,
    "blinks":3,
    "pull":3,
    "ill":3,
    "found":3,
    "beneath":3,
    "eye":3,
    "any":3,
    "die":3,
    "great":3,
    "died":3,
    "put":3,
    "piece":3,
    "advice":3,
    "enters":3,
    "intercom":3,
    "already":3,
    "ive":3,
    "working":3,
    "rob":3,
    "sick":3,
    "flips":3,
    "lamb":3,
    "jesus":3,
    "dealing":3,
    "several":3,
    "stress":3,
    "reaches":3,
    "those":3,
    "underwater":3,
    "window":3,
    "sonofabitch":3,
    "feet":3,
    "tries":3,
    "move":3,
    "clear":3,
    "heard":3,
    "scream":3,
    "hot":3,
    "box":3,
    "fire":3,
    "mean":3,
    "black":3,
    "specimen":3,
    "blank":3,
    "enough":3,
    "continues":3,
    "below":3,
    "save":3,
    "moves":3,
    "visual":3,
    "computer":3,
    "charge":3,
    "board":3,
    "closeup":3,
    "gauge":3,
    "needle":3,
    "checks":3,
    "decompress":3,
    "exchanger":3,
    "yourself":3,
    "helmet":3,
    "torn":3,
    "valdezs":3,
    "cross":3,
    "rises":3,
    "slight":3,
    "calm":3,
    "syringe":3,
    "speed":3,
    "left":3,
    "examination":3,
    "explodes":3,
    "paddles":3,
    "flare":3,
    "figure":4,
    "top":4,
    "leans":4,
    "hey":4,
    "told":4,
    "minutes":4,
    "use":4,
    "soon":4,
    "gone":4,
    "wait":4,
    "yet":4,
    "hard":4,
    "should":4,
    "whole":4,
    "bottom":4,
    "run":4,
    "ready":4,
    "meters":4,
    "display":4,
    "throttle":4,
    "hits":4,
    "lights":4,
    "john":4,
    "life":4,
    "order":4,
    "send":4,
    "make":4,
    "hang":4,
    "new":4,
    "eyes":4,
    "goes":4,
    "before":4,
    "try":4,
    "anything":4,
    "chamber":4,
    "steps":4,
    "doing":4,
    "purge":4,
    "couple":4,
    "shaking":4,
    "screams":4,
    "emergency":4,
    "moving":4,
    "hiss":4,
    "peers":4,
    "inside":4,
    "switch":4,
    "away":4,
    "almost":4,
    "find":4,
    "small":4,
    "set":4,
    "wham":4,
    "punches":4,
    "violently":4,
    "leak":4,
    "alarm":4,
    "drops":4,
    "system":4,
    "without":4,
    "himself":4,
    "diving":4,
    "cover":4,
    "fault":4,
    "wake":4,
    "2":4,
    "forward":4,
    "theyve":5,
    "times":5,
    "six":5,
    "months":5,
    "grabs":5,
    "wont":5,
    "christ":5,
    "opens":5,
    "minisub":5,
    "behind":5,
    "until":5,
    "theyre":5,
    "has":5,
    "been":5,
    "whats":5,
    "why":5,
    "shes":5,
    "so":5,
    "harmonica":5,
    "sonar":5,
    "viewport":5,
    "much":5,
    "or":5,
    "youve":5,
    "room":5,
    "gets":5,
    "stupid":5,
    "second":5,
    "sure":5,
    "little":5,
    "across":5,
    "side":5,
    "light":5,
    "air":5,
    "stay":5,
    "say":5,
    "hands":5,
    "shotgun":5,
    "directive":5,
    "712":5,
    "decompression":5,
    "trying":5,
    "bypass":5,
    "table":5,
    "shark":5,
    "dart":5,
    "paddle":5,
    "depth":6,
    "mouth":6,
    "time":6,
    "long":6,
    "keep":6,
    "better":6,
    "towards":6,
    "youre":6,
    "start":6,
    "problem":6,
    "need":6,
    "moment":6,
    "tell":6,
    "doesnt":6,
    "monitor":6,
    "way":6,
    "talk":6,
    "hear":6,
    "loud":6,
    "oh":6,
    "other":6,
    "comes":6,
    "give":6,
    "against":6,
    "still":6,
    "things":6,
    "hell":6,
    "1138":6,
    "next":6,
    "theres":6,
    "picks":6,
    "main":6,
    "blood":6,
    "pod":6,
    "thought":7,
    "around":7,
    "suit":7,
    "richardsons":7,
    "did":7,
    "two":7,
    "by":7,
    "captain":7,
    "takes":7,
    "close":7,
    "us":7,
    "pressure":7,
    "docking":7,
    "hold":7,
    "kill":7,
    "sub":7,
    "pulls":7,
    "hand":7,
    "snyders":7,
    "oxygen":7,
    "escape":7,
    "winch":7,
    "them":8,
    "had":8,
    "only":8,
    "come":8,
    "topside":8,
    "craven":8,
    "abernathy":8,
    "these":8,
    "take":8,
    "too":8,
    "does":8,
    "face":8,
    "bay":8,
    "patch":8,
    "turns":8,
    "red":8,
    "see":8,
    "panel":8,
    "quickly":8,
    "thats":9,
    "dive":9,
    "when":9,
    "if":9,
    "where":9,
    "help":9,
    "lab":9,
    "head":9,
    "more":9,
    "some":9,
    "presses":9,
    "open":9,
    "station":10,
    "good":10,
    "look":10,
    "another":10,
    "think":10,
    "nothing":10,
    "let":10,
    "something":10,
    "dr":10,
    "know":11,
    "about":11,
    "how":11,
    "fuck":11,
    "home":11,
    "door":11,
    "suddenly":11,
    "surface":11,
    "richardson":12,
    "my":12,
    "work":12,
    "starts":12,
    "they":12,
    "lets":12,
    "jerkins":12,
    "cut":12,
    "again":12,
    "button":12,
    "right":12,
    "got":13,
    "could":13,
    "your":13,
    "one":13,
    "no":13,
    "hes":13,
    "control":13,
    "fucking":14,
    "now":14,
    "cant":14,
    "were":15,
    "was":15,
    "yeah":15,
    "all":16,
    "are":16,
    "here":16,
    "shit":16,
    "dont":16,
    "okay":16,
    "water":17,
    "going":17,
    "want":17,
    "be":18,
    "not":18,
    "well":19,
    "like":19,
    "valdez":19,
    "an":20,
    "through":20,
    "at":21,
    "over":21,
    "just":21,
    "airlock":21,
    "im":21,
    "looks":22,
    "there":22,
    "do":22,
    "this":23,
    "thing":23,
    "from":24,
    "but":24,
    "can":24,
    "go":25,
    "off":25,
    "laidlaw":25,
    "him":25,
    "down":26,
    "norris":27,
    "have":28,
    "back":28,
    "me":29,
    "she":29,
    "for":30,
    "then":31,
    "what":32,
    "into":32,
    "get":33,
    "hatch":34,
    "her":36,
    "its":39,
    "snyder":40,
    "out":43,
    "with":44,
    "we":45,
    "that":51,
    "up":54,
    "his":55,
    "collins":55,
    "as":56,
    "is":66,
    "on":69,
    "he":73,
    "you":79,
    "in":81,
    "i":82,
    "pierce":91,
    "of":98,
    "it":99,
    "and":107,
    "a":148,
    "to":180,
    "":244,
    "the":438
}