{
    "wet":1,
    "whistle":1,
    "snowflake":1,
    "downs":1,
    "whoo":1,
    "percent":1,
    "stories":1,
    "instance":1,
    "physiologically":1,
    "heres":1,
    "interesting":1,
    "elfism":1,
    "jobs":1,
    "available":1,
    "sleepsbut":1,
    "rewarding":1,
    "hammering":1,
    "fat":1,
    "sleeps":1,
    "copy":1,
    "magazine":1,
    "busty":1,
    "lady":1,
    "lazy":1,
    "bastard":1,
    "couldnt":1,
    "flipflop":1,
    "exterior":1,
    "cooking":1,
    "dangerous":1,
    "oven":1,
    "oak":1,
    "during":1,
    "dry":1,
    "season":1,
    "yelp":1,
    "siren":1,
    "bursts":1,
    "scurrying":1,
    "worthwhile":1,
    "dance":1,
    "profession":1,
    "aspires":1,
    "bustling":1,
    "dolls":1,
    "figures":1,
    "squirt":1,
    "gunseverything":1,
    "row":1,
    "xboxes":1,
    "assembled":1,
    "nimble":1,
    "fingers":1,
    "active":1,
    "minds":1,
    "tried":1,
    "using":1,
    "drank":1,
    "drunk":1,
    "stein":1,
    "vomiting":1,
    "troll":1,
    "chewed":1,
    "tend":1,
    "testy":1,
    "ago":1,
    "guessed":1,
    "1968":1,
    "particularly":1,
    "monthold":1,
    "babys":1,
    "giggler":1,
    "nightnight":1,
    "drop":1,
    "chimney":1,
    "lays":1,
    "gleefully":1,
    "skitters":1,
    "fuzzy":1,
    "teddy":1,
    "bevy":1,
    "larger":1,
    "60s":1,
    "collars":1,
    "sideburns":1,
    "celebrate":1,
    "several":1,
    "chanting":1,
    "speech":1,
    "rocker":1,
    "applause":1,
    "merrily":1,
    "gestures":1,
    "alrightwell":1,
    "prancer":1,
    "bladder":1,
    "baltimore":1,
    "delaware":1,
    "horn":1,
    "laughter":1,
    "cheerfully":1,
    "pats":1,
    "vacation":1,
    "click":1,
    "elbows":1,
    "vacations":1,
    "preparations":1,
    "sam":1,
    "hill":1,
    "perplexed":1,
    "crawls":1,
    "stare":1,
    "visitor":1,
    "diapers":1,
    "snuck":1,
    "sack":1,
    "befuddled":1,
    "decision":1,
    "fortunately":1,
    "babies":1,
    "committed":1,
    "forgotten":1,
    "settle":1,
    "growing":1,
    "extratiny":1,
    "super":1,
    "8":1,
    "twoyear":1,
    "grew":1,
    "twice":1,
    "video":1,
    "7year":1,
    "riding":1,
    "tricycle":1,
    "though":1,
    "agreed":1,
    "polaroid":1,
    "photos":1,
    "12":1,
    "dunking":1,
    "basketball":1,
    "teacher":1,
    "pointing":1,
    "latest":1,
    "graphic":1,
    "chipset":1,
    "processors":1,
    "recite":1,
    "shall":1,
    "treat":1,
    "recites":1,
    "pond":1,
    "current":1,
    "announcer":1,
    "megahorn":1,
    "team":1,
    "net":1,
    "blinkywait":1,
    "rimpocorrection":1,
    "wombo":1,
    "thinkand":1,
    "brute":1,
    "force":1,
    "helpless":1,
    "finishes":1,
    "wicked":1,
    "slapshot":1,
    "scooooooooooooooooooores":1,
    "14zero":1,
    "period":1,
    "post":1,
    "congratulate":1,
    "occasionally":1,
    "slap":1,
    "sweat":1,
    "collar":1,
    "bone":1,
    "tossing":1,
    "jock":1,
    "bin":1,
    "jocks":1,
    "proportionately":1,
    "serving":1,
    "tray":1,
    "accepted":1,
    "drawbacks":1,
    "dozen":1,
    "shockingly":1,
    "painful":1,
    "owjeezyikesgollycharles":1,
    "semitall":1,
    "pointy":1,
    "slipper":1,
    "hung":1,
    "ornament":1,
    "preparing":1,
    "inevitable":1,
    "panics":1,
    "engulfing":1,
    "minifire":1,
    "extinguisher":1,
    "differences":1,
    "assembly":1,
    "hammers":1,
    "mingming":1,
    "short":1,
    "quota":1,
    "finished":1,
    "fighting":1,
    "hammer":1,
    "915":1,
    "maker":1,
    "ninnymuggins":1,
    "lots":1,
    "chime":1,
    "batteries":1,
    "alarm":1,
    "triple":1,
    "months":1,
    "baritone":1,
    "choir":1,
    "wed":1,
    "ofi":1,
    "octave":1,
    "thighs":1,
    "tagging":1,
    "storms":1,
    "surprised":1,
    "locks":1,
    "absurdly":1,
    "harry":1,
    "houdini":1,
    "gulp":1,
    "sob":1,
    "washing":1,
    "sink":1,
    "creeks":1,
    "revealing":1,
    "funny":1,
    "squeezed":1,
    "wiggling":1,
    "knee":1,
    "ye":1,
    "footstepsbut":1,
    "seeum":1,
    "beautifully":1,
    "innocent":1,
    "beheld":1,
    "glow":1,
    "emanates":1,
    "handrubbed":1,
    "redlacquered":1,
    "chassis":1,
    "illuminating":1,
    "reindeers":1,
    "unfortunately":1,
    "becoming":1,
    "limited":1,
    "resource":1,
    "rumor":1,
    "floating":1,
    "putting":1,
    "ridiculous":1,
    "suppose":1,
    "knowbut":1,
    "energy":1,
    "crisis":1,
    "instrument":1,
    "resting":1,
    "dangerously":1,
    "installed":1,
    "sixties":1,
    "button":1,
    "jet":1,
    "shudder":1,
    "highpitched":1,
    "whir":1,
    "language":1,
    "forgive":1,
    "turbojet":1,
    "358":1,
    "cubic":1,
    "meters":1,
    "displacement":1,
    "volume":1,
    "customized":1,
    "spark":1,
    "timing":1,
    "motor":1,
    "wiggle":1,
    "ol":1,
    "hunker":1,
    "marked":1,
    "conveyor":1,
    "belt":1,
    "boxes":1,
    "crank":1,
    "producing":1,
    "weasel":1,
    "puppet":1,
    "scaring":1,
    "ahh":1,
    "kitchenette":1,
    "overhearing":1,
    "cider":1,
    "wise":1,
    "believed":1,
    "flashbacks":1,
    "unlike":1,
    "painfully":1,
    "squeezing":1,
    "owjeezyikesgollycharlesdickens":1,
    "factory":1,
    "tinkering":1,
    "ken":1,
    "queasy":1,
    "knees":1,
    "weak":1,
    "concerned":1,
    "collapses":1,
    "crushing":1,
    "beneath":1,
    "weight":1,
    "wakes":1,
    "racks":1,
    "tending":1,
    "ooooooh":1,
    "nightmare":1,
    "dreamt":1,
    "freezing":1,
    "cracked":1,
    "glandular":1,
    "glands":1,
    "biological":1,
    "drawer":1,
    "couple":1,
    "proceeded":1,
    "adoption":1,
    "passed":1,
    "importantly":1,
    "uhh":1,
    "squirrel":1,
    "pick":1,
    "berries":1,
    "pipsy":1,
    "yard":1,
    "toasty":1,
    "cottage":1,
    "oooohhh":1,
    "sorrymy":1,
    "backs":1,
    "mind":1,
    "crack":1,
    "ohhh":1,
    "soooo":1,
    "imim":1,
    "sixthree":1,
    "rolled":1,
    "lucky":1,
    "scratch":1,
    "triumphant":1,
    "goodbye":1,
    "choochoo":1,
    "sunshine":1,
    "tinkle":1,
    "winkle":1,
    "puffy":1,
    "flade":1,
    "gayle":1,
    "journey":1,
    "thousands":1,
    "rays":1,
    "pizzas":1,
    "original":1,
    "eleventh":1,
    "peep":1,
    "remember":1,
    "tells":1,
    "trip":1,
    "sugarplums":1,
    "stomach":1,
    "hurts":1,
    "mixed":1,
    "embrace":1,
    "unknown":1,
    "lovable":1,
    "woodland":1,
    "flow":1,
    "drifts":1,
    "haze":1,
    "transitioning":1,
    "scenes":1,
    "struggle":1,
    "exhausted":1,
    "considers":1,
    "ounce":1,
    "strength":1,
    "storybook":1,
    "largesized":1,
    "covers":1,
    "blue":1,
    "adventures":1,
    "gang":1,
    "welloiled":1,
    "editor":1,
    "meaner":1,
    "nun":1,
    "taking":1,
    "payments":1,
    "yo":1,
    "difficult":1,
    "fundingthe":1,
    "sponsoring":1,
    "month":1,
    "expect":1,
    "places":1,
    "dunkin":1,
    "donuts":1,
    "cinnibon":1,
    "expanding":1,
    "product":1,
    "base":1,
    "desert":1,
    "items":1,
    "starbucks":1,
    "carries":1,
    "baked":1,
    "capitalism":1,
    "peters":1,
    "stand":1,
    "ran":1,
    "secretary":1,
    "pokes":1,
    "talked":1,
    "purposefully":1,
    "threeweek":1,
    "extension":1,
    "bless":1,
    "heart":1,
    "perishable":1,
    "consumer":1,
    "services":1,
    "halfway":1,
    "choppy":1,
    "muddy":1,
    "snowy":1,
    "terrain":1,
    "rusted":1,
    "propane":1,
    "tank":1,
    "crosses":1,
    "acts":1,
    "cartoon":1,
    "heyyyy":1,
    "corners":1,
    "trapping":1,
    "hisses":1,
    "undeterred":1,
    "lunges":1,
    "bites":1,
    "citylincoln":1,
    "walkway":1,
    "pressed":1,
    "roars":1,
    "stray":1,
    "dodges":1,
    "replaced":1,
    "towering":1,
    "skyline":1,
    "whoa":1,
    "rhythms":1,
    "mundane":1,
    "details":1,
    "amazement":1,
    "scaffolding":1,
    "square":1,
    "greet":1,
    "ignore":1,
    "afternoon":1,
    "salutations":1,
    "hail":1,
    "billboard":1,
    "lehman":1,
    "diner":1,
    "jaded":1,
    "bangladeshi":1,
    "staff":1,
    "blankly":1,
    "congratulations":1,
    "yumbuddy":1,
    "plays":1,
    "chews":1,
    "handing":1,
    "given":1,
    "marx":1,
    "brotherslike":1,
    "fashion":1,
    "delights":1,
    "repeats":1,
    "ri":1,
    "walker":1,
    "helpful":1,
    "compares":1,
    "skyscraper":1,
    "ecu":1,
    "reprint":1,
    "cost":1,
    "pictures":1,
    "republicanlooking":1,
    "whistling":1,
    "confusing":1,
    "passenger":1,
    "75":1,
    "plates":1,
    "solved":1,
    "debs":1,
    "rich":1,
    "thirtythousand":1,
    "dollar":1,
    "bath":1,
    "understands":1,
    "sensing":1,
    "telegram":1,
    "hugs":1,
    "jingle":1,
    "bells":1,
    "whisper":1,
    "frogwalking":1,
    "genius":1,
    "seemed":1,
    "daddy":1,
    "jingled":1,
    "dusts":1,
    "yorks":1,
    "version":1,
    "mecca":1,
    "department":1,
    "grandest":1,
    "shocking":1,
    "decked":1,
    "perfume":1,
    "passion":1,
    "mildly":1,
    "n":1,
    "binacca":1,
    "psst":1,
    "yuch":1,
    "blind":1,
    "clogging":1,
    "tons":1,
    "yanks":1,
    "splits":1,
    "jiminy":1,
    "accosts":1,
    "ginormous":1,
    "3000":1,
    "intensity":1,
    "sexy":1,
    "nighties":1,
    "hmmm":1,
    "hardass":1,
    "fartin":1,
    "ninth":1,
    "9th":1,
    "lame":1,
    "impressive":1,
    "thorough":1,
    "inspection":1,
    "unless":1,
    "moved":1,
    "tool":1,
    "shovel":1,
    "slight":1,
    "drift":1,
    "talkin":1,
    "notch":1,
    "frown":1,
    "quiver":1,
    "exact":1,
    "smiley":1,
    "sweep":1,
    "tin":1,
    "foil":1,
    "whereve":1,
    "elfing":1,
    "slomo":1,
    "20s":1,
    "petite":1,
    "beauty":1,
    "glides":1,
    "vision":1,
    "enjoying":1,
    "view":1,
    "whyre":1,
    "messin":1,
    "messing":1,
    "culture":1,
    "holidays":1,
    "someones":1,
    "kool":1,
    "aid":1,
    "carol":1,
    "yourself":1,
    "anytime":1,
    "heswell":1,
    "uncomfortable":1,
    "closing":1,
    "purchases":1,
    "relieved":1,
    "dismissed":1,
    "ya":1,
    "halfbaked":1,
    "empties":1,
    "locked":1,
    "employees":1,
    "exiting":1,
    "flickering":1,
    "commando":1,
    "sorts":1,
    "shelves":1,
    "robots":1,
    "truckhe":1,
    "logo":1,
    "taiwan":1,
    "attractive":1,
    "eastside":1,
    "10":1,
    "enthusiasm":1,
    "forehead":1,
    "offer":1,
    "hairand":1,
    "dads":1,
    "homework":1,
    "overim":1,
    "tightlipped":1,
    "infuriates":1,
    "studies":1,
    "whatre":1,
    "hides":1,
    "itd":1,
    "worried":1,
    "cynical":1,
    "thirteen":1,
    "stress":1,
    "marriot":1,
    "delicious":1,
    "salmon":1,
    "zucchini":1,
    "string":1,
    "beans":1,
    "carrots":1,
    "cherry":1,
    "asparagus":1,
    "olives":1,
    "finishing":1,
    "expensive":1,
    "merchandise":1,
    "mortar":1,
    "glitter":1,
    "perks":1,
    "training":1,
    "butterfly":1,
    "meanders":1,
    "deserted":1,
    "aisles":1,
    "angelic":1,
    "clearer":1,
    "consumed":1,
    "half":1,
    "accompanying":1,
    "silent":1,
    "twists":1,
    "towel":1,
    "kicks":1,
    "escapes":1,
    "idyllic":1,
    "curled":1,
    "faux":1,
    "lifelike":1,
    "itches":1,
    "awakens":1,
    "holy":1,
    "fudge":1,
    "yawns":1,
    "stretches":1,
    "ridiculously":1,
    "continues":1,
    "trapped":1,
    "tiger":1,
    "echoes":1,
    "muffled":1,
    "dustin":1,
    "hoffman":1,
    "graduate":1,
    "glances":1,
    "lobby":1,
    "lunge":1,
    "mebut":1,
    "transformed":1,
    "glows":1,
    "satisfaction":1,
    "visitors":1,
    "ecstatic":1,
    "complains":1,
    "dump":1,
    "housewares":1,
    "terrified":1,
    "pig":1,
    "womans":1,
    "yeswhy":1,
    "innocence":1,
    "listening":1,
    "standaroundandwearpointyassshoes":1,
    "enter":1,
    "gazebo":1,
    "crowded":1,
    "rushes":1,
    "breathless":1,
    "excitement":1,
    "brushes":1,
    "uniform":1,
    "straightens":1,
    "cap":1,
    "drops":1,
    "sang":1,
    "struts":1,
    "zippy":1,
    "smell":1,
    "aahhhh":1,
    "wrestling":1,
    "dives":1,
    "contain":1,
    "panic":1,
    "giggles":1,
    "intrigued":1,
    "accompanied":1,
    "wrapped":1,
    "because":1,
    "unwraps":1,
    "slinky":1,
    "fur":1,
    "nipples":1,
    "deeper":1,
    "girlfriend":1,
    "crayon":1,
    "peeks":1,
    "swing":1,
    "quicktheyre":1,
    "delivering":1,
    "regular":1,
    "cancel":1,
    "appointments":1,
    "cot":1,
    "ugly":1,
    "pillow":1,
    "cries":1,
    "disgust":1,
    "precinct":1,
    "marches":1,
    "closely":1,
    "burst":1,
    "station":1,
    "pterodactyl":1,
    "pal":1,
    "included":1,
    "violently":1,
    "lapels":1,
    "scared":1,
    "youand":1,
    "senses":1,
    "element":1,
    "truth":1,
    "somewhere":1,
    "coatbuddy":1,
    "smacks":1,
    "pediatricians":1,
    "examining":1,
    "prop":1,
    "del":1,
    "skull":1,
    "shelf":1,
    "bg":1,
    "jar":1,
    "nuggets":1,
    "fakes":1,
    "whether":1,
    "clean":1,
    "patient":1,
    "perform":1,
    "lamp":1,
    "skeleton":1,
    "squint":1,
    "pirate":1,
    "flag":1,
    "arrgh":1,
    "ben":1,
    "mess":1,
    "eggs":1,
    "easter":1,
    "boot":1,
    "taps":1,
    "playing":1,
    "heartbeat":1,
    "technically":1,
    "humanraised":1,
    "humans":1,
    "results":1,
    "drains":1,
    "whatm":1,
    "certifiably":1,
    "behavior":1,
    "necessarily":1,
    "unusual":1,
    "rare":1,
    "documented":1,
    "cases":1,
    "denied":1,
    "proper":1,
    "childhoood":1,
    "fully":1,
    "nurtured":1,
    "personality":1,
    "develop":1,
    "return":1,
    "position":1,
    "childlike":1,
    "dependency":1,
    "pills":1,
    "whatever":1,
    "pay":1,
    "rejection":1,
    "traumatic":1,
    "feed":1,
    "part":1,
    "locking":1,
    "bottom":1,
    "pockets":1,
    "neighborhood":1,
    "somethings":1,
    "residence":1,
    "arriving":1,
    "godthats":1,
    "itsits":1,
    "cmon":1,
    "complicated":1,
    "handle":1,
    "recycled":1,
    "wonderland":1,
    "yards":1,
    "garland":1,
    "meticulously":1,
    "strung":1,
    "construction":1,
    "murals":1,
    "walls":1,
    "impeccable":1,
    "floored":1,
    "meanwhilein":1,
    "globs":1,
    "emuree":1,
    "swallows":1,
    "arrived":1,
    "mom":1,
    "hugging":1,
    "robin":1,
    "traveled":1,
    "seven":1,
    "cane":1,
    "forest":1,
    "abominable":1,
    "swirly":1,
    "twirly":1,
    "gumdrops":1,
    "coke":1,
    "twoliter":1,
    "chugs":1,
    "maple":1,
    "disgusted":1,
    "agreement":1,
    "basic":1,
    "corns":1,
    "hadnt":1,
    "forever":1,
    "excuse":1,
    "turning":1,
    "burps":1,
    "argues":1,
    "hushed":1,
    "tones":1,
    "issues":1,
    "kick":1,
    "seriously":1,
    "lion":1,
    "roar":1,
    "chomp":1,
    "tuck":1,
    "tucked":1,
    "fights":1,
    "pissed":1,
    "lay":1,
    "scale":1,
    "aresignificant":1,
    "significant":1,
    "slams":1,
    "batch":1,
    "thanksgiving":1,
    "feast":1,
    "host":1,
    "dumps":1,
    "sprinkles":1,
    "caps":1,
    "painted":1,
    "trimmed":1,
    "entertainment":1,
    "completely":1,
    "dismantled":1,
    "provide":1,
    "sawdust":1,
    "litter":1,
    "flabbergasted":1,
    "honey":1,
    "thespaghetti":1,
    "lunches":1,
    "bags":1,
    "persons":1,
    "spoon":1,
    "lifts":1,
    "allowance":1,
    "recycling":1,
    "peels":1,
    "earlier":1,
    "etchasketch":1,
    "angels":1,
    "log":1,
    "toll":1,
    "snuggle":1,
    "rid":1,
    "neighbors":1,
    "worn":1,
    "anymore":1,
    "tightsas":1,
    "waist":1,
    "rear":1,
    "forg":1,
    "ahhhhh":1,
    "answers":1,
    "technology":1,
    "eriekkkcth":1,
    "trashed":1,
    "radiator":1,
    "everythings":1,
    "private":1,
    "dozens":1,
    "stream":1,
    "bare":1,
    "ignoring":1,
    "trails":1,
    "hiding":1,
    "confronts":1,
    "spaz":1,
    "whacks":1,
    "jackass":1,
    "wannabe":1,
    "laugh":1,
    "thump":1,
    "peanut":1,
    "brittle":1,
    "barrage":1,
    "rain":1,
    "missiles":1,
    "rip":1,
    "sculpts":1,
    "rounded":1,
    "bunker":1,
    "nolan":1,
    "ryan":1,
    "fastball":1,
    "15":1,
    "targets":1,
    "explode":1,
    "precision":1,
    "blur":1,
    "guts":1,
    "exposing":1,
    "noooo":1,
    "frozen":1,
    "releases":1,
    "fires":1,
    "incoming":1,
    "exploding":1,
    "midair":1,
    "patriot":1,
    "missile":1,
    "panting":1,
    "bunkered":1,
    "flank":1,
    "east":1,
    "charges":1,
    "descends":1,
    "launching":1,
    "flurry":1,
    "range":1,
    "bottle":1,
    "loses":1,
    "showed":1,
    "whens":1,
    "reflection":1,
    "hairs":1,
    "cutthroat":1,
    "owner":1,
    "owns":1,
    "among":1,
    "surprise":1,
    "since":1,
    "retreat":1,
    "owe":1,
    "honest":1,
    "tosses":1,
    "escaped":1,
    "clutches":1,
    "witch":1,
    "printers":1,
    "obviously":1,
    "proofs":1,
    "twentyfive":1,
    "bat":1,
    "thousand":1,
    "skeptically":1,
    "sucked":1,
    "tanking":1,
    "estimate":1,
    "posting":1,
    "fourth":1,
    "detail":1,
    "plans":1,
    "itll":1,
    "loop":1,
    "goofing":1,
    "dodge":1,
    "laughs":1,
    "skin":1,
    "suck":1,
    "summer":1,
    "awkwardly":1,
    "kidding":1,
    "cares":1,
    "anybody":1,
    "spot":1,
    "adorable":1,
    "spotted":1,
    "shy":1,
    "date":1,
    "secret":1,
    "ditched":1,
    "wondering":1,
    "restraining":1,
    "order":1,
    "weirdest":1,
    "break":1,
    "thursday":1,
    "wry":1,
    "breaks":1,
    "hoist":1,
    "fourteen":1,
    "ceiling":1,
    "wedge":1,
    "chopped":1,
    "heated":1,
    "discussion":1,
    "michaels":1,
    "lately":1,
    "allow":1,
    "elfman":1,
    "drill":1,
    "secure":1,
    "zzzzrrrrrr":1,
    "jumper":1,
    "minitrampoline":1,
    "trampoline":1,
    "target":1,
    "angle":1,
    "nearest":1,
    "sounded":1,
    "liability":1,
    "trash":1,
    "upstate":1,
    "budget":1,
    "meetings":1,
    "fired":1,
    "absolutely":1,
    "sports":1,
    "professional":1,
    "purple":1,
    "dress":1,
    "purplie":1,
    "hows":1,
    "decides":1,
    "boring":1,
    "bought":1,
    "else":1,
    "steals":1,
    "understanding":1,
    "sarcasm":1,
    "beats":1,
    "color":1,
    "sorted":1,
    "bins":1,
    "yelling":1,
    "voices":1,
    "machinery":1,
    "blaring":1,
    "hiphop":1,
    "fill":1,
    "urban":1,
    "criminal":1,
    "apparel":1,
    "unwrap":1,
    "parcels":1,
    "main":1,
    "trey":1,
    "africanamerican":1,
    "craig":1,
    "wiry":1,
    "neck":1,
    "tattoo":1,
    "sorting":1,
    "threatening":1,
    "glares":1,
    "shooter":1,
    "scan":1,
    "piece":1,
    "canister":1,
    "shove":1,
    "tube":1,
    "cannisters":1,
    "reminds":1,
    "smells":1,
    "converence":1,
    "eugene":1,
    "morris":1,
    "brain":1,
    "storming":1,
    "fantastic":1,
    "ghost":1,
    "classics":1,
    "dr":1,
    "seuss":1,
    "worth":1,
    "pitching":1,
    "writer":1,
    "angrybut":1,
    "stuffs":1,
    "efficiency":1,
    "treys":1,
    "stone":1,
    "killer":1,
    "glare":1,
    "partridge":1,
    "pear":1,
    "huddled":1,
    "yours":1,
    "gus":1,
    "pickles":1,
    "existential":1,
    "accessible":1,
    "thrill":1,
    "brilliant":1,
    "minute":1,
    "s500":1,
    "receive":1,
    "airport":1,
    "interior":1,
    "situation":1,
    "downstairs":1,
    "dramatic":1,
    "pause":1,
    "clicks":1,
    "stupid":1,
    "wild":1,
    "rendition":1,
    "circled":1,
    "cheering":1,
    "elevenpiperspiping":1,
    "tenlordsaleaping":1,
    "nineladiesdancing":1,
    "eightmaidsmilking":1,
    "sixgeesealaying":1,
    "twelfth":1,
    "lovegaveto":1,
    "finds":1,
    "brrr":1,
    "scares":1,
    "death":1,
    "confronted":1,
    "chinese":1,
    "roasted":1,
    "ducks":1,
    "sporting":1,
    "blindfolded":1,
    "counter":1,
    "tastes":1,
    "removes":1,
    "blindfold":1,
    "smirking":1,
    "grow":1,
    "pine":1,
    "decorated":1,
    "wondrous":1,
    "genuine":1,
    "rink":1,
    "accidentally":1,
    "bumping":1,
    "harder":1,
    "escalates":1,
    "abruptly":1,
    "plants":1,
    "cars":1,
    "purpose":1,
    "elvis":1,
    "wringing":1,
    "infamous":1,
    "march":1,
    "echoing":1,
    "reactions":1,
    "brought":1,
    "silenceand":1,
    "business":1,
    "fans":1,
    "spoke":1,
    "taken":1,
    "manila":1,
    "stacked":1,
    "tennis":1,
    "match":1,
    "tomato":1,
    "farms":1,
    "smalltown":1,
    "rural":1,
    "psyched":1,
    "fixated":1,
    "ticket":1,
    "gouh":1,
    "elvises":1,
    "saying":1,
    "title":1,
    "et":1,
    "measure":1,
    "standards":1,
    "whiz":1,
    "basement":1,
    "league":1,
    "weed":1,
    "week":1,
    "la":1,
    "hawaii":1,
    "vail":1,
    "paris":1,
    "plasma":1,
    "screen":1,
    "wipe":1,
    "bite":1,
    "feelin":1,
    "angry":1,
    "avoid":1,
    "surprisingly":1,
    "flipping":1,
    "nowhere":1,
    "popeye":1,
    "decks":1,
    "fist":1,
    "permission":1,
    "deliver":1,
    "punches":1,
    "victorious":1,
    "vertically":1,
    "challenged":1,
    "jacket":1,
    "pretends":1,
    "toss":1,
    "pump":1,
    "faking":1,
    "returns":1,
    "chin":1,
    "dammit":1,
    "stings":1,
    "devastated":1,
    "stressed":1,
    "rubbing":1,
    "hair":1,
    "career":1,
    "late":1,
    "wanna":1,
    "send":1,
    "rush":1,
    "journal":1,
    "notebook":1,
    "pitches":1,
    "plus":1,
    "doodlesquiggles":1,
    "gold":1,
    "o":1,
    "dunk":1,
    "agree":1,
    "fortyfive":1,
    "closet":1,
    "sad":1,
    "unfurls":1,
    "dips":1,
    "quill":1,
    "pen":1,
    "ink":1,
    "ruined":1,
    "lives":1,
    "crammed":1,
    "vcr":1,
    "sealing":1,
    "crease":1,
    "stormy":1,
    "viciously":1,
    "blowing":1,
    "carrying":1,
    "crew":1,
    "tack":1,
    "sharper":1,
    "track":1,
    "fellow":1,
    "members":1,
    "rechecks":1,
    "storyboards":1,
    "beaming":1,
    "confident":1,
    "disappointed":1,
    "figure":1,
    "torn":1,
    "chance":1,
    "hopeful":1,
    "respect":1,
    "hall":1,
    "triumphantly":1,
    "contemplating":1,
    "conclusions":1,
    "churn":1,
    "searching":1,
    "halfjogging":1,
    "tight":1,
    "tear":1,
    "streams":1,
    "eye":1,
    "distant":1,
    "glowing":1,
    "trail":1,
    "narrows":1,
    "grows":1,
    "itself":1,
    "fishtailing":1,
    "crashing":1,
    "facing":1,
    "sled":1,
    "ohmygod":1,
    "frantic":1,
    "peacefully":1,
    "graze":1,
    "rough":1,
    "dug":1,
    "fifty":1,
    "dirt":1,
    "frantically":1,
    "repair":1,
    "hidden":1,
    "clutching":1,
    "tire":1,
    "iron":1,
    "slick":1,
    "recognizes":1,
    "glad":1,
    "strain":1,
    "broke":1,
    "sleight":1,
    "fix":1,
    "taught":1,
    "ways":1,
    "drones":1,
    "features":1,
    "unable":1,
    "confirm":1,
    "entrances":1,
    "barricaded":1,
    "gather":1,
    "pans":1,
    "gathering":1,
    "held":1,
    "latino":1,
    "5year":1,
    "firsthand":1,
    "swooping":1,
    "airplane":1,
    "helicopter":1,
    "cutie":1,
    "amateur":1,
    "zoomedin":1,
    "blurry":1,
    "trips":1,
    "idiot":1,
    "ends":1,
    "freeze":1,
    "replay":1,
    "object":1,
    "approaching":1,
    "littlehow":1,
    "chemically":1,
    "imbalanced":1,
    "branch":1,
    "grounded":1,
    "nine":1,
    "grazing":1,
    "deal":1,
    "reality":1,
    "wider":1,
    "widerabout":1,
    "coverage":1,
    "according":1,
    "cleared":1,
    "remain":1,
    "belvedere":1,
    "hooves":1,
    "lined":1,
    "ridge":1,
    "mares":1,
    "breathe":1,
    "silently":1,
    "leather":1,
    "coats":1,
    "chrome":1,
    "helmets":1,
    "shrouded":1,
    "silver":1,
    "eagle":1,
    "badge":1,
    "forces":1,
    "highly":1,
    "rarely":1,
    "accused":1,
    "gung":1,
    "duty":1,
    "tactics":1,
    "simon":1,
    "garfunkel":1,
    "concert":1,
    "85":1,
    "criticized":1,
    "heading":1,
    "works":1,
    "wake":1,
    "soyourereal":1,
    "sec":1,
    "stunned":1,
    "points":1,
    "thick":1,
    "leatherbound":1,
    "huf":1,
    "145":1,
    "thunder":1,
    "52":1,
    "millimeter":1,
    "spitfire":1,
    "wheels":1,
    "bolts":1,
    "diamond":1,
    "swiss":1,
    "bearings":1,
    "shudders":1,
    "solely":1,
    "seeing":1,
    "paparazzi":1,
    "crest":1,
    "disappear":1,
    "aside":1,
    "whispers":1,
    "gallop":1,
    "darkness":1,
    "snatches":1,
    "chasing":1,
    "command":1,
    "mrs":1,
    "hurry":1,
    "clause":1,
    "prison":1,
    "complies":1,
    "dons":1,
    "oversized":1,
    "ensemble":1,
    "parklet":1,
    "comment":1,
    "cause":1,
    "nobody":1,
    "believes":1,
    "feeling":1,
    "stunt":1,
    "prove":1,
    "kessler":1,
    "powerpuff":1,
    "webber":1,
    "electric":1,
    "guitar":1,
    "groceries":1,
    "stan":1,
    "tobias":1,
    "powerpumper":1,
    "rifle":1,
    "reynolds":1,
    "pampering":1,
    "burkewilliams":1,
    "spa":1,
    "roughlooking":1,
    "35":1,
    "dave":1,
    "keckler":1,
    "pony":1,
    "tops":1,
    "fella":1,
    "tiffany":1,
    "engagement":1,
    "ring":1,
    "boyfriend":1,
    "dragging":1,
    "surge":1,
    "reigns":1,
    "lumber":1,
    "fixed":1,
    "speechless":1,
    "talks":1,
    "studio":1,
    "seem":1,
    "technical":1,
    "difficulty":1,
    "weather":1,
    "boos":1,
    "consoles":1,
    "winded":1,
    "inspired":1,
    "climbs":1,
    "carriage":1,
    "intimidated":1,
    "charging":1,
    "hovers":1,
    "herkyjerky":1,
    "decoy":1,
    "ride":1,
    "swerve":1,
    "bark":1,
    "smashing":1,
    "branches":1,
    "glimpse":1,
    "pursuit":1,
    "lighten":1,
    "barely":1,
    "above":1,
    "roof":1,
    "sweet":1,
    "pout":1,
    "arrives":1,
    "risking":1,
    "billow":1,
    "maintain":1,
    "bump":1,
    "rattles":1,
    "popping":1,
    "themselves":1,
    "blocked":1,
    "tweaks":1,
    "urge":1,
    "belly":1,
    "coach":1,
    "nails":1,
    "winged":1,
    "statue":1,
    "yanking":1,
    "yoink":1,
    "whirls":1,
    "engineless":1,
    "crashes":1,
    "toast":1,
    "join":1,
    "paved":1,
    "mall":1,
    "sending":1,
    "showering":1,
    "goodness":1,
    "sake":1,
    "although":1,
    "unclear":1,
    "led":1,
    "rally":1,
    "hundreds":1,
    "spontaneously":1,
    "broken":1,
    "broadcast":1,
    "watched":1,
    "harmony":1,
    "threw":1,
    "coworkers":1,
    "railroaded":1,
    "steering":1,
    "liftup":1,
    "headed":1,
    "collision":1,
    "peculiar":1,
    "busts":1,
    "spite":1,
    "draws":1,
    "singers":1,
    "notes":1,
    "chilly":1,
    "somehow":1,
    "trick":1,
    "dash":1,
    "blinks":1,
    "zone":1,
    "approval":1,
    "onlookers":1,
    "foiled":1,
    "zips":1,
    "hearts":1,
    "stronger":1,
    "booms":1,
    "silhouette":1,
    "ave":1,
    "moon":1,
    "managed":1,
    "save":1,
    "happily":1,
    "wrapping":1,
    "stenciling":1,
    "independent":1,
    "critically":1,
    "acclaimed":1,
    "author":1,
    "beginning":1,
    "signing":1,
    "fictional":1,
    "went":1,
    "skate":1,
    "opened":1,
    "slaps":1,
    "elfish":1,
    "applying":1,
    "jump":1,
    "complain":1,
    "rapid":1,
    "yikes":1,
    "golly":1,
    "charles":1,
    "fiddlesticks":1,
    "clothes":1,
    "pitcher":1,
    "beside":1,
    "cradles":1,
    "newborn":1,
    "pink":1,
    "susie":1,
    "also":1,
    "freezes":1,
    "becomes":1,
    "which":1,
    "magically":1,
    "bookstore":1,
    "pours":2,
    "milk":2,
    "impossible":2,
    "shoemaker":2,
    "rings":2,
    "flames":2,
    "third":2,
    "show":2,
    "tracking":2,
    "whips":2,
    "natural":2,
    "theyve":2,
    "gnomes":2,
    "trolls":2,
    "werent":2,
    "trained":2,
    "gnome":2,
    "below":2,
    "cleaning":2,
    "orphanage":2,
    "nurse":2,
    "giggling":2,
    "tucks":2,
    "exits":2,
    "angel":2,
    "boots":2,
    "shakes":2,
    "moves":2,
    "clang":2,
    "empty":2,
    "towards":2,
    "bear":2,
    "bag":2,
    "fade":2,
    "slightly":2,
    "seated":2,
    "quiet":2,
    "able":2,
    "forget":2,
    "party":2,
    "seconds":2,
    "rest":2,
    "cooing":2,
    "brand":2,
    "twin":2,
    "mustve":2,
    "older":2,
    "child":2,
    "montage":2,
    "wedged":2,
    "tough":2,
    "circles":2,
    "asked":2,
    "learn":2,
    "extreme":2,
    "lum":2,
    "feeds":2,
    "foom":2,
    "uhoh":2,
    "boards":2,
    "reach":2,
    "straps":2,
    "friends":2,
    "shots":2,
    "doorways":2,
    "beams":2,
    "cabinets":2,
    "dickens":2,
    "finale":2,
    "wiggles":2,
    "leg":2,
    "falling":2,
    "sprays":2,
    "obvious":2,
    "shop":2,
    "etchasketches":2,
    "wooden":2,
    "supervisor":2,
    "gee":2,
    "answer":2,
    "winces":2,
    "tearing":2,
    "reveals":2,
    "eightyfive":2,
    "might":2,
    "zero":2,
    "pace":2,
    "ming":2,
    "ninny":2,
    "muggins":2,
    "check":2,
    "em":2,
    "sick":2,
    "upset":2,
    "squeezes":2,
    "master":2,
    "grandpapa":2,
    "letting":2,
    "due":2,
    "amazing":2,
    "entire":2,
    "silly":2,
    "south":2,
    "low":2,
    "levels":2,
    "needle":2,
    "section":2,
    "causing":2,
    "gosh":2,
    "viper":2,
    "intake":2,
    "everyones":2,
    "important":2,
    "mounts":2,
    "pushing":2,
    "tune":2,
    "beat":2,
    "krumpet":2,
    "drinking":2,
    "hasnt":2,
    "slam":2,
    "flash":2,
    "sixth":2,
    "doll":2,
    "spins":2,
    "hurries":2,
    "instead":2,
    "warm":2,
    "focus":2,
    "terrible":2,
    "awful":2,
    "knew":2,
    "change":2,
    "dream":2,
    "wonder":2,
    "decided":2,
    "shows":2,
    "fallen":2,
    "named":2,
    "mother":2,
    "known":2,
    "sweaty":2,
    "rabbit":2,
    "snowman":2,
    "cracking":2,
    "fifteen":2,
    "guess":2,
    "hed":2,
    "swell":2,
    "music":2,
    "gum":2,
    "second":2,
    "wings":2,
    "iceskating":2,
    "landing":2,
    "feels":2,
    "hide":2,
    "miss":2,
    "wave":2,
    "field":2,
    "trudges":2,
    "massive":2,
    "deep":2,
    "wears":2,
    "uses":2,
    "childrens":2,
    "max":2,
    "cat":2,
    "etc":2,
    "whos":2,
    "sale":2,
    "solid":2,
    "cash":2,
    "alternative":2,
    "goods":2,
    "canada":2,
    "groups":2,
    "oclock":2,
    "ignores":2,
    "live":2,
    "path":2,
    "lightning":2,
    "highway":2,
    "timidly":2,
    "inch":2,
    "lincoln":2,
    "feelings":2,
    "sun":2,
    "breaking":2,
    "midtown":2,
    "caught":2,
    "noticing":2,
    "steam":2,
    "yorkers":2,
    "woman":2,
    "cab":2,
    "waves":2,
    "round":2,
    "revolving":2,
    "worlds":2,
    "excited":2,
    "flyers":2,
    "flyer":2,
    "crap":2,
    "newspaper":2,
    "offers":2,
    "67":2,
    "unsure":2,
    "presses":2,
    "buttons":2,
    "anyway":2,
    "signed":2,
    "final":2,
    "hilarious":2,
    "sent":2,
    "ship":2,
    "ahead":2,
    "adjusts":2,
    "usually":2,
    "gram":2,
    "leans":2,
    "onto":2,
    "wouldnt":2,
    "throw":2,
    "glenn":2,
    "chris":2,
    "bam":2,
    "flies":2,
    "totally":2,
    "halls":2,
    "fruit":2,
    "spray":2,
    "stumbles":2,
    "scraping":2,
    "tongue":2,
    "edge":2,
    "escalator":2,
    "afraid":2,
    "diving":2,
    "holiday":2,
    "stall":2,
    "stranger":2,
    "smart":2,
    "green":2,
    "fake":2,
    "aint":2,
    "such":2,
    "erosion":2,
    "wind":2,
    "lips":2,
    "annoyed":2,
    "davis":2,
    "balls":2,
    "shares":2,
    "affinity":2,
    "easy":2,
    "longer":2,
    "difference":2,
    "aisle":2,
    "roll":2,
    "prepared":2,
    "dinner":2,
    "upper":2,
    "plate":2,
    "detached":2,
    "ate":2,
    "once":2,
    "sleeping":2,
    "chicken":2,
    "tomatoes":2,
    "mushrooms":2,
    "7":2,
    "decorating":2,
    "used":2,
    "bricks":2,
    "faint":2,
    "ear":2,
    "following":2,
    "hypnotized":2,
    "classic":2,
    "duet":2,
    "quietly":2,
    "eventually":2,
    "belts":2,
    "chorus":2,
    "nuts":2,
    "crotch":2,
    "asleep":2,
    "drooling":2,
    "ah":2,
    "brief":2,
    "skips":2,
    "present":2,
    "reenters":2,
    "loves":2,
    "took":2,
    "naked":2,
    "early":2,
    "turned":2,
    "contagious":2,
    "heck":2,
    "lying":2,
    "attacks":2,
    "horror":2,
    "imposter":2,
    "disaster":2,
    "package":2,
    "gift":2,
    "nightie":2,
    "scrambles":2,
    "card":2,
    "drawing":2,
    "scary":2,
    "everything":2,
    "wipes":2,
    "rubs":2,
    "straight":2,
    "crying":2,
    "clear":2,
    "youd":2,
    "ginger":2,
    "bread":2,
    "cookie":2,
    "dough":2,
    "skating":2,
    "silhouettes":2,
    "reaches":2,
    "test":2,
    "spills":2,
    "tangled":2,
    "wear":2,
    "sooner":2,
    "horrible":2,
    "plums":2,
    "shoves":2,
    "ball":2,
    "paperwork":2,
    "suzietalksalot":2,
    "doctors":2,
    "god":2,
    "insane":2,
    "suggest":2,
    "names":2,
    "breast":2,
    "wonderful":2,
    "incredible":2,
    "winter":2,
    "throughout":2,
    "elaborate":2,
    "scoops":2,
    "frosting":2,
    "furious":2,
    "castle":2,
    "pass":2,
    "pouring":2,
    "share":2,
    "staying":2,
    "planned":2,
    "means":2,
    "tucking":2,
    "goodnight":2,
    "fall":2,
    "promise":2,
    "deranged":2,
    "forty":2,
    "built":2,
    "packed":2,
    "lunch":2,
    "twenty":2,
    "hugged":2,
    "hours":2,
    "wrap":2,
    "lose":2,
    "tights":2,
    "emergency":2,
    "west":2,
    "middle":2,
    "cutting":2,
    "brother":2,
    "twelve":2,
    "count":2,
    "dive":2,
    "trunk":2,
    "shooting":2,
    "gun":2,
    "butts":2,
    "raises":2,
    "launch":2,
    "surrender":2,
    "surrendered":2,
    "pleasure":2,
    "niece":2,
    "gotten":2,
    "sloppy":2,
    "seat":2,
    "numbers":2,
    "minus":2,
    "eight":2,
    "cannot":2,
    "bounce":2,
    "town":2,
    "pegs":2,
    "mosquito":2,
    "ask":2,
    "girls":2,
    "embarrassed":2,
    "enormous":2,
    "scrapes":2,
    "bedroom":2,
    "plant":2,
    "commit":2,
    "jealous":2,
    "launches":2,
    "sharp":2,
    "dings":2,
    "sarah":2,
    "scattered":2,
    "chuck":2,
    "area":2,
    "pit":2,
    "bald":2,
    "tubes":2,
    "golden":2,
    "lemme":2,
    "speed":2,
    "finchs":2,
    "car":2,
    "71":2,
    "hang":2,
    "buzzer":2,
    "miraculous":2,
    "sip":2,
    "missed":2,
    "seventy":2,
    "hallway":2,
    "monster":2,
    "envelope":2,
    "slide":2,
    "farm":2,
    "vulnerable":2,
    "snaps":2,
    "friend":2,
    "done":2,
    "losing":2,
    "page":2,
    "writes":2,
    "belong":2,
    "wrote":2,
    "finish":2,
    "reschedule":2,
    "happening":2,
    "59th":2,
    "wheres":2,
    "point":2,
    "sky":2,
    "aglow":2,
    "smoking":2,
    "dropped":2,
    "authorities":2,
    "female":2,
    "hoax":2,
    "site":2,
    "dick":2,
    "shadow":2,
    "lawn":2,
    "skateboard":2,
    "trucks":2,
    "plan":2,
    "lynn":2,
    "mark":2,
    "dirk":2,
    "lawson":2,
    "biker":2,
    "bar":2,
    "reporters":2,
    "rise":2,
    "anchorman":2,
    "earpiece":2,
    "unit":2,
    "telling":2,
    "mounted":2,
    "sparks":2,
    "howls":2,
    "saved":2,
    "glass":3,
    "must":3,
    "probably":3,
    "lie":3,
    "hot":3,
    "chest":3,
    "inside":3,
    "bake":3,
    "cookies":3,
    "horses":3,
    "action":3,
    "perfect":3,
    "case":3,
    "successful":3,
    "flickers":3,
    "changes":3,
    "arent":3,
    "merry":3,
    "gate":3,
    "offscreen":3,
    "control":3,
    "blows":3,
    "starting":3,
    "heard":3,
    "silence":3,
    "awe":3,
    "strange":3,
    "push":3,
    "raised":3,
    "birthday":3,
    "laughing":3,
    "showing":3,
    "pounds":3,
    "eleven":3,
    "locker":3,
    "butt":3,
    "slamming":3,
    "sone":3,
    "nutcracker":3,
    "star":3,
    "pan":3,
    "today":3,
    "tears":3,
    "clearly":3,
    "side":3,
    "worry":3,
    "worst":3,
    "cottonhead":3,
    "seems":3,
    "same":3,
    "changed":3,
    "3":3,
    "sound":3,
    "extraordinary":3,
    "house":3,
    "intercut":3,
    "tinker":3,
    "wood":3,
    "magic":3,
    "less":3,
    "gauge":3,
    "panel":3,
    "pushes":3,
    "amazed":3,
    "giving":3,
    "testing":3,
    "pops":3,
    "few":3,
    "talking":3,
    "bit":3,
    "hope":3,
    "shocked":3,
    "sense":3,
    "opens":3,
    "photo":3,
    "born":3,
    "passes":3,
    "animated":3,
    "animals":3,
    "thank":3,
    "sitting":3,
    "course":3,
    "far":3,
    "anyone":3,
    "catch":3,
    "bet":3,
    "understand":3,
    "free":3,
    "sea":3,
    "epic":3,
    "dead":3,
    "machine":3,
    "raise":3,
    "children":3,
    "days":3,
    "heat":3,
    "use":3,
    "tracks":3,
    "tunnel":3,
    "fear":3,
    "begins":3,
    "bumps":3,
    "nods":3,
    "loving":3,
    "crappy":3,
    "dog":3,
    "sidewalk":3,
    "missing":3,
    "christmasgram":3,
    "vest":3,
    "walked":3,
    "guards":3,
    "clerk":3,
    "curious":3,
    "canes":3,
    "display":3,
    "white":3,
    "joke":3,
    "favorite":3,
    "attention":3,
    "hangs":3,
    "serious":3,
    "louder":3,
    "especially":3,
    "pulling":3,
    "paint":3,
    "fills":3,
    "den":3,
    "stuff":3,
    "kisses":3,
    "teenagers":3,
    "word":3,
    "welcome":3,
    "shower":3,
    "outside":3,
    "curtain":3,
    "joins":3,
    "frightened":3,
    "thinks":3,
    "hears":3,
    "grab":3,
    "mad":3,
    "smash":3,
    "coworker":3,
    "hour":3,
    "closed":3,
    "slides":3,
    "shock":3,
    "mysterious":3,
    "jail":3,
    "cry":3,
    "convict":3,
    "gave":3,
    "houses":3,
    "cotton":3,
    "those":3,
    "prick":3,
    "flips":3,
    "carolyn":3,
    "costume":3,
    "blood":3,
    "saw":3,
    "read":3,
    "visit":3,
    "sort":3,
    "emilys":3,
    "swings":3,
    "dining":3,
    "stick":3,
    "dark":3,
    "shoots":3,
    "howd":3,
    "horse":3,
    "cheek":3,
    "soon":3,
    "noise":3,
    "hanging":3,
    "explodes":3,
    "winds":3,
    "both":3,
    "follows":3,
    "nose":3,
    "shes":3,
    "certain":3,
    "started":3,
    "eve":3,
    "tall":3,
    "moments":3,
    "falls":3,
    "found":3,
    "pitch":3,
    "workers":3,
    "spots":3,
    "meeting":3,
    "huskey":3,
    "catches":3,
    "speaker":3,
    "yet":3,
    "degrees":3,
    "sir":3,
    "notices":3,
    "jovies":3,
    "ideas":3,
    "others":3,
    "rockefeller":3,
    "scroll":3,
    "bridge":3,
    "crash":3,
    "smoke":3,
    "clearing":3,
    "image":3,
    "riders":3,
    "atop":3,
    "reads":3,
    "cameras":3,
    "enough":3,
    "dennon":3,
    "fountain":3,
    "shoes":4,
    "cobbler":4,
    "pile":4,
    "makes":4,
    "toilet":4,
    "diaper":4,
    "fact":4,
    "thirty":4,
    "rocking":4,
    "crib":4,
    "rises":4,
    "presents":4,
    "large":4,
    "heads":4,
    "dressed":4,
    "smiles":4,
    "giant":4,
    "movie":4,
    "fast":4,
    "footage":4,
    "against":4,
    "school":4,
    "board":4,
    "game":4,
    "step":4,
    "approaches":4,
    "said":4,
    "talents":4,
    "special":4,
    "six":4,
    "wont":4,
    "without":4,
    "struggles":4,
    "papas":4,
    "speak":4,
    "bathroom":4,
    "couch":4,
    "follow":4,
    "leads":4,
    "reindeer":4,
    "puts":4,
    "parents":4,
    "believing":4,
    "clausometer":4,
    "everywhere":4,
    "girl":4,
    "raccoon":4,
    "beard":4,
    "least":4,
    "sticks":4,
    "nervous":4,
    "anywhere":4,
    "times":4,
    "naughty":4,
    "evil":4,
    "cold":4,
    "leaving":4,
    "meanwhile":4,
    "publishing":4,
    "corner":4,
    "books":4,
    "breakfast":4,
    "crazy":4,
    "picks":4,
    "own":4,
    "printer":4,
    "pages":4,
    "notice":4,
    "happen":4,
    "doors":4,
    "continue":4,
    "friggin":4,
    "gathered":4,
    "met":4,
    "weird":4,
    "lost":4,
    "skipping":4,
    "toward":4,
    "closes":4,
    "huh":4,
    "damn":4,
    "hurt":4,
    "ha":4,
    "ladder":4,
    "meet":4,
    "eats":4,
    "gotta":4,
    "busy":4,
    "water":4,
    "cool":4,
    "note":4,
    "keep":4,
    "trench":4,
    "watches":4,
    "doctor":4,
    "begin":4,
    "youve":4,
    "hood":4,
    "pocket":4,
    "center":4,
    "calligraphy":4,
    "immediately":4,
    "trees":4,
    "upon":4,
    "checks":4,
    "end":4,
    "felonies":4,
    "francisco":4,
    "mailroom":4,
    "gone":4,
    "watching":4,
    "coat":4,
    "barricades":4,
    "strong":5,
    "exactly":5,
    "most":5,
    "having":5,
    "elfs":5,
    "job":5,
    "build":5,
    "wearing":5,
    "set":5,
    "havent":5,
    "light":5,
    "holding":5,
    "quickly":5,
    "adopted":5,
    "different":5,
    "small":5,
    "arm":5,
    "code":5,
    "spread":5,
    "hockey":5,
    "play":5,
    "line":5,
    "shoulder":5,
    "size":5,
    "attempts":5,
    "fire":5,
    "dissolve":5,
    "making":5,
    "sets":5,
    "except":5,
    "true":5,
    "youll":5,
    "knows":5,
    "sight":5,
    "touch":5,
    "magical":5,
    "sounds":5,
    "claus":5,
    "wish":5,
    "jack":5,
    "thinking":5,
    "nothing":5,
    "fine":5,
    "susan":5,
    "welles":5,
    "globe":5,
    "ones":5,
    "pull":5,
    "wall":5,
    "money":5,
    "move":5,
    "intercom":5,
    "id":5,
    "ground":5,
    "mouth":5,
    "gives":5,
    "pigeon":5,
    "faces":5,
    "happened":5,
    "song":5,
    "run":5,
    "store":5,
    "hit":5,
    "ready":5,
    "eating":5,
    "looked":5,
    "greatest":5,
    "kiss":5,
    "sings":5,
    "scene":5,
    "window":5,
    "staring":5,
    "hello":5,
    "paper":5,
    "sugar":5,
    "possible":5,
    "four":5,
    "jumps":5,
    "syrup":5,
    "tv":5,
    "hits":5,
    "quarter":5,
    "working":5,
    "woods":5,
    "power":5,
    "charlotte":5,
    "shot":6,
    "lot":6,
    "while":6,
    "cover":6,
    "cheer":6,
    "worked":6,
    "quite":6,
    "red":6,
    "weve":6,
    "year":6,
    "wasnt":6,
    "any":6,
    "bring":6,
    "actually":6,
    "written":6,
    "number":6,
    "loud":6,
    "family":6,
    "these":6,
    "gets":6,
    "finally":6,
    "many":6,
    "wide":6,
    "supposed":6,
    "ow":6,
    "high":6,
    "air":6,
    "getting":6,
    "goes":6,
    "close":6,
    "sleep":6,
    "called":6,
    "city":6,
    "empire":6,
    "state":6,
    "jim":6,
    "living":6,
    "ass":6,
    "maybe":6,
    "forward":6,
    "ice":6,
    "leaves":6,
    "someone":6,
    "traffic":6,
    "suit":6,
    "moment":6,
    "smile":6,
    "puppy":6,
    "came":6,
    "cell":6,
    "full":6,
    "seen":6,
    "shiny":6,
    "chair":6,
    "waiting":6,
    "food":6,
    "snowball":6,
    "news":6,
    "snowballs":6,
    "finch":6,
    "story":7,
    "let":7,
    "every":7,
    "toys":7,
    "camera":7,
    "years":7,
    "ten":7,
    "black":7,
    "alright":7,
    "hard":7,
    "always":7,
    "boy":7,
    "almost":7,
    "series":7,
    "tiny":7,
    "best":7,
    "cuts":7,
    "minutes":7,
    "left":7,
    "head":7,
    "cup":7,
    "pop":7,
    "enters":7,
    "feel":7,
    "tries":7,
    "young":7,
    "told":7,
    "sign":7,
    "confused":7,
    "hi":7,
    "kind":7,
    "needs":7,
    "press":7,
    "company":7,
    "picture":7,
    "mr":7,
    "lights":7,
    "grabs":7,
    "elevator":7,
    "slowly":7,
    "manager":7,
    "distance":7,
    "walking":7,
    "better":7,
    "police":7,
    "stop":7,
    "moving":7,
    "idea":7,
    "conference":7,
    "running":7,
    "reporter":7,
    "rangers":7,
    "didnt":8,
    "1":8,
    "2":8,
    "foot":8,
    "until":8,
    "five":8,
    "next":8,
    "stay":8,
    "wanted":8,
    "under":8,
    "doing":8,
    "smiling":8,
    "pom":8,
    "pulls":8,
    "than":8,
    "gonna":8,
    "box":8,
    "try":8,
    "bunch":8,
    "frame":8,
    "long":8,
    "reveal":8,
    "wow":8,
    "very":8,
    "give":8,
    "stops":8,
    "bad":8,
    "beautiful":8,
    "standing":8,
    "says":8,
    "happy":8,
    "kids":8,
    "stares":8,
    "hat":8,
    "um":8,
    "guard":8,
    "walk":8,
    "coming":8,
    "hold":8,
    "finger":8,
    "kitchen":8,
    "alone":8,
    "fulton":8,
    "fun":8,
    "writers":8,
    "remote":8,
    "quick":9,
    "call":9,
    "toy":9,
    "table":9,
    "baby":9,
    "across":9,
    "start":9,
    "desk":9,
    "top":9,
    "listen":9,
    "find":9,
    "feet":9,
    "wrong":9,
    "last":9,
    "steps":9,
    "candy":9,
    "life":9,
    "trying":9,
    "along":9,
    "takes":9,
    "holds":9,
    "kid":9,
    "hell":9,
    "tomorrow":9,
    "spaghetti":9,
    "care":9,
    "phone":9,
    "things":10,
    "three":10,
    "old":10,
    "or":10,
    "building":10,
    "our":10,
    "human":10,
    "could":10,
    "after":10,
    "watch":10,
    "nice":10,
    "put":10,
    "made":10,
    "each":10,
    "uh":10,
    "again":10,
    "starts":10,
    "talk":10,
    "fly":10,
    "thought":10,
    "together":10,
    "past":10,
    "front":10,
    "turns":10,
    "take":10,
    "problem":10,
    "hug":10,
    "manhattan":10,
    "coffee":10,
    "suddenly":10,
    "wants":10,
    "security":10,
    "isnt":10,
    "voice":10,
    "mail":10,
    "us":11,
    "cut":11,
    "even":11,
    "being":11,
    "hand":11,
    "hands":11,
    "father":11,
    "thanks":11,
    "huge":11,
    "place":11,
    "north":11,
    "help":11,
    "arms":11,
    "pretty":11,
    "deb":11,
    "already":11,
    "anything":11,
    "does":11,
    "barricade":11,
    "floor":12,
    "comes":12,
    "home":12,
    "pole":12,
    "sits":12,
    "may":12,
    "sit":12,
    "spirit":12,
    "believe":12,
    "am":12,
    "sing":12,
    "will":12,
    "street":12,
    "wait":12,
    "guys":12,
    "morning":12,
    "apartment":12,
    "himself":13,
    "only":13,
    "would":13,
    "other":13,
    "list":13,
    "looking":13,
    "great":13,
    "bye":13,
    "two":14,
    "people":14,
    "another":14,
    "crowd":14,
    "ever":14,
    "eyes":14,
    "stands":14,
    "everyone":14,
    "theyre":14,
    "land":14,
    "say":14,
    "please":14,
    "should":14,
    "engine":14,
    "doesnt":14,
    "guy":14,
    "york":14,
    "leave":14,
    "much":15,
    "lets":15,
    "first":15,
    "world":15,
    "open":15,
    "eat":15,
    "thing":15,
    "man":15,
    "walters":15,
    "make":16,
    "workshop":16,
    "when":16,
    "where":16,
    "sees":16,
    "way":16,
    "runs":16,
    "real":16,
    "ho":16,
    "central":16,
    "big":17,
    "name":17,
    "sorry":17,
    "come":17,
    "whole":17,
    "sure":17,
    "still":17,
    "never":17,
    "office":17,
    "gimbels":17,
    "hear":18,
    "too":18,
    "yes":18,
    "ill":18,
    "ive":18,
    "greenway":18,
    "away":19,
    "mean":19,
    "before":19,
    "something":19,
    "walks":19,
    "book":19,
    "tell":20,
    "theres":20,
    "them":20,
    "hey":20,
    "yeah":20,
    "their":21,
    "had":21,
    "behind":21,
    "need":21,
    "door":21,
    "got":21,
    "miles":21,
    "work":22,
    "tree":22,
    "more":22,
    "whats":22,
    "emily":22,
    "park":22,
    "little":23,
    "singing":23,
    "right":23,
    "did":24,
    "she":24,
    "who":24,
    "good":24,
    "want":24,
    "snow":24,
    "been":25,
    "why":25,
    "son":25,
    "hobbs":25,
    "oh":26,
    "how":27,
    "face":27,
    "through":27,
    "new":27,
    "know":28,
    "cant":28,
    "time":28,
    "think":28,
    "has":29,
    "look":29,
    "her":29,
    "thats":30,
    "there":30,
    "buddys":30,
    "go":30,
    "later":30,
    "elves":31,
    "love":31,
    "night":31,
    "santas":31,
    "by":31,
    "really":31,
    "sleigh":31,
    "going":32,
    "if":32,
    "jovie":32,
    "papa":33,
    "around":34,
    "room":34,
    "dad":34,
    "about":36,
    "down":36,
    "were":36,
    "day":40,
    "they":40,
    "can":41,
    "no":41,
    "one":41,
    "here":42,
    "some":42,
    "over":44,
    "was":44,
    "dont":45,
    "get":45,
    "see":45,
    "okay":46,
    "off":46,
    "all":46,
    "looks":47,
    "so":49,
    "youre":49,
    "just":49,
    "back":50,
    "from":50,
    "hes":50,
    "be":51,
    "well":52,
    "continuous":53,
    "christmas":54,
    "then":56,
    "ext":57,
    "into":57,
    "your":58,
    "have":58,
    "my":60,
    "santa":60,
    "not":61,
    "now":62,
    "an":65,
    "do":65,
    "int":68,
    "michael":69,
    "but":70,
    "as":72,
    "what":77,
    "me":79,
    "are":79,
    "like":79,
    "him":81,
    "that":82,
    "its":84,
    "out":84,
    "for":87,
    "elf":88,
    "im":91,
    "at":95,
    "up":97,
    "we":103,
    "with":106,
    "on":113,
    "this":116,
    "walter":120,
    "he":142,
    "it":162,
    "his":169,
    "":170,
    "is":174,
    "of":232,
    "in":238,
    "i":259,
    "you":310,
    "buddy":310,
    "to":355,
    "and":357,
    "a":489,
    "the":771
}