{
    "does":1,
    "close":1,
    "brownish":1,
    "eyes":1,
    "nice":1,
    "skin":1,
    "lips":1,
    "great":1,
    "smile":1,
    "said":1,
    "before":1,
    "stomach":1,
    "taller":1,
    "old":1,
    "18":1,
    "17":1,
    "still":1,
    "hello":1,
    "hangin":1,
    "try":1,
    "rap":1,
    "every":1,
    "day":1,
    "threequarters":1,
    "respects":1,
    "ova":1,
    "heard":1,
    "boy":1,
    "whatcha":1,
    "fa":1,
    "wont":1,
    "motha":1,
    "fucks":1,
    "forget":1,
    "lets":1,
    "gives":1,
    "trust":1,
    "always":1,
    "into":1,
    "trouble":1,
    "would":1,
    "on":1,
    "fire":1,
    "escape":1,
    "bunch":1,
    "straight":1,
    "natasha":1,
    "maria":1,
    "tina":1,
    "pretty":1,
    "difference":1,
    "never":1,
    "going":1,
    "people":1,
    "ar":1,
    "own":1,
    "neighborhood":1,
    "hoochie":1,
    "away":1,
    "only":1,
    "interested":1,
    "wassup":1,
    "move":1,
    "meet":1,
    "lawyers":1,
    "hell":1,
    "workin":1,
    "alaska":1,
    "dress":1,
    "warn":1,
    "aaron":1,
    "fine":1,
    "busy":1,
    "hurry":1,
    "wastin":1,
    "please":1,
    "scream":1,
    "part":1,
    "girlfriend":1,
    "should":1,
    "treated":1,
    "once":1,
    "respect":1,
    "even":1,
    "curse":1,
    "tellin":1,
    "drive":1,
    "crazy":1,
    "understand":1,
    "trippin":1,
    "kiss":1,
    "rings":1,
    "forever":1,
    "tries":1,
    "repay":1,
    "woulda":1,
    "done":1,
    "water":1,
    "likes":1,
    "eave":1,
    "share":1,
    "wealth":1,
    "bit":1,
    "ladies":1,
    "room":1,
    "bathroom":1,
    "lines":1,
    "long":1,
    "fucking":1,
    "guy":1,
    "followin":1,
    "touchin":1,
    "favor":1,
    "stand":1,
    "fantasy":1,
    "melody":1,
    "sing":1,
    "song":1,
    "called":1,
    "myself":1,
    "vocals":1,
    "arranged":1,
    "also":1,
    "may":1,
    "24th":1,
    "1998":1,
    "1020":1,
    "pm":1,
    "check":1,
    "minute":1,
    "sittin":1,
    "phat":1,
    "playin":1,
    "s":1,
    "carlosim":1,
    "natashas":1,
    "club":1,
    "twentytwo":1,
    "supposed":1,
    "lent":1,
    "pills":1,
    "moms":1,
    "em":1,
    "hooker":1,
    "off":1,
    "someone":1,
    "new":1,
    "need":1,
    "merengue":1,
    "show":1,
    "watching":1,
    "m80s":1,
    "twentyfour":1,
    "dollars":1,
    "son":1,
    "pussy":1,
    "big":1,
    "ones":1,
    "kind":1,
    "brown":1,
    "lived":1,
    "must":1,
    "misinformed":1,
    "hers":1,
    "lying":1,
    "thinking":1,
    "guys":1,
    "coming":1,
    "probably":1,
    "many":1,
    "nothing":1,
    "help":1,
    "looking":1,
    "high":1,
    "skinny":1,
    "had":1,
    "suggest":1,
    "turn":1,
    "bounce":1,
    "block":1,
    "fuckin":1,
    "m80":1,
    "shove":1,
    "cross":1,
    "hot":1,
    "change":1,
    "frustrating":1,
    "mad":1,
    "says":1,
    "hold":1,
    "whatd":1,
    "hear":1,
    "theres":1,
    "rumor":1,
    "tryin":1,
    "chu":1,
    "listening":1,
    "rumors":1,
    "true":1,
    "type":1,
    "whoevers":1,
    "sayin":1,
    "amandas":1,
    "yet":1,
    "hows":1,
    "whadda":1,
    "somethin":1,
    "really":1,
    "jus":1,
    "girlfrlend":1,
    "hectors":1,
    "huh":1,
    "ta":1,
    "matter":1,
    "thought":1,
    "home":1,
    "sista":1,
    "sister":1,
    "watcha":1,
    "today":1,
    "cleaned":1,
    "house":1,
    "cooked":1,
    "took":1,
    "care":1,
    "sisters":1,
    "sit":1,
    "wheres":1,
    "guess":1,
    "outside":1,
    "someplace":1,
    "takin":1,
    "certain":1,
    "places":1,
    "whadja":1,
    "wanted":1,
    "course":1,
    "lot":1,
    "playya":1,
    "either":1,
    "such":1,
    "bastards":1,
    "complain":1,
    "dumb":1,
    "bullshit":1,
    "single":1,
    "awhile":1,
    "wadda":1,
    "chill":1,
    "make":1,
    "stuff":1,
    "else":1,
    "flowers":1,
    "scared":1,
    "believe":1,
    "three":1,
    "well":1,
    "standin":1,
    "provinit":1,
    "prove":1,
    "dark":2,
    "nose":2,
    "bad":2,
    "than":2,
    "talk":2,
    "um":2,
    "wuzzup":2,
    "hi":2,
    "keep":2,
    "take":2,
    "retarded":2,
    "give":2,
    "ya":2,
    "untrue":2,
    "come":2,
    "let":2,
    "cut":2,
    "all":2,
    "more":2,
    "waiting":2,
    "which":2,
    "these":2,
    "10th":2,
    "street":2,
    "piss":2,
    "shit":2,
    "eddies":2,
    "cousin":2,
    "compost":2,
    "baruch":2,
    "name":2,
    "find":2,
    "an":2,
    "god":2,
    "speak":2,
    "feel":2,
    "time":2,
    "but":2,
    "treat":2,
    "some":2,
    "alone":2,
    "too":2,
    "us":2,
    "asshole":2,
    "shai":2,
    "diamond":2,
    "written":2,
    "two":2,
    "remember":2,
    "stop":2,
    "ask":2,
    "punch":2,
    "near":2,
    "boys":2,
    "yesterday":2,
    "die":2,
    "salsa":2,
    "dance":2,
    "buy":2,
    "named":2,
    "sure":2,
    "positive":2,
    "those":2,
    "came":2,
    "ma":2,
    "its":2,
    "boyfriend":2,
    "whatever":2,
    "happened":2,
    "hit":2,
    "touch":2,
    "did":2,
    "none":2,
    "play":2,
    "faithful":2,
    "umm":3,
    "boxes":3,
    "say":3,
    "ass":3,
    "betta":3,
    "when":3,
    "punished":3,
    "hair":3,
    "they":3,
    "beat":3,
    "whats":3,
    "anything":3,
    "pitt":3,
    "leave":3,
    "stay":3,
    "carlos":3,
    "talkin":3,
    "can":3,
    "now":3,
    "life":3,
    "another":3,
    "okay":3,
    "was":3,
    "kissed":3,
    "live":3,
    "lives":3,
    "real":3,
    "cause":3,
    "aint":3,
    "hey":3,
    "blah":3,
    "love":4,
    "attitude":4,
    "hector":4,
    "oh":4,
    "outta":4,
    "about":4,
    "bitch":4,
    "cant":4,
    "doin":4,
    "nothin":4,
    "anyway":4,
    "we":4,
    "back":4,
    "wit":4,
    "excuse":4,
    "have":4,
    "friend":4,
    "out":4,
    "shes":4,
    "shorty":4,
    "wussup":4,
    "nah":4,
    "alright":4,
    "somebody":4,
    "them":4,
    "his":5,
    "dat":5,
    "why":5,
    "ill":5,
    "tell":5,
    "victor":5,
    "wha":5,
    "over":5,
    "told":5,
    "way":5,
    "goin":5,
    "where":5,
    "gotta":5,
    "eddie":5,
    "thats":5,
    "by":5,
    "didnt":5,
    "hes":6,
    "think":6,
    "or":6,
    "youre":6,
    "pool":6,
    "there":6,
    "if":6,
    "amanda":6,
    "good":6,
    "then":6,
    "were":6,
    "look":7,
    "is":7,
    "little":7,
    "man":7,
    "cmon":7,
    "who":7,
    "at":7,
    "just":7,
    "this":7,
    "around":7,
    "how":8,
    "in":8,
    "your":8,
    "down":8,
    "one":8,
    "see":8,
    "wanna":8,
    "fuck":8,
    "up":9,
    "not":9,
    "she":9,
    "girls":9,
    "are":9,
    "of":9,
    "right":9,
    "from":9,
    "yeah":10,
    "go":10,
    "get":11,
    "be":11,
    "with":11,
    "he":12,
    "him":12,
    "her":12,
    "it":13,
    "gonna":14,
    "no":14,
    "girl":14,
    "like":15,
    "dont":16,
    "my":16,
    "for":16,
    "want":16,
    "so":17,
    "here":17,
    "got":18,
    "do":18,
    "that":19,
    "im":19,
    "know":20,
    "yo":22,
    "a":23,
    "and":27,
    "what":29,
    "the":30,
    "me":41,
    "to":41,
    "i":67,
    "you":112
}