{
    "enemy":1,
    "state":1,
    "opinions":1,
    "concerning":1,
    "disloyal":1,
    "loyalty":1,
    "disloyalty":1,
    "represents":1,
    "study":1,
    "claim":1,
    "tens":1,
    "prove":1,
    "convenient":1,
    "currently":1,
    "decidedly":1,
    "inconvenient":1,
    "predictions":1,
    "disaster":1,
    "public":1,
    "government":1,
    "changed":1,
    "difficulty":1,
    "validity":1,
    "theories":1,
    "contradicting":1,
    "consequence":1,
    "rendered":1,
    "speechless":1,
    "headsets":1,
    "isolated":1,
    "scheme":1,
    "development":1,
    "climax":1,
    "drama":1,
    "accelerating":1,
    "pace":1,
    "continuously":1,
    "refer":1,
    "protest":1,
    "fights":1,
    "organize":1,
    "fragments":1,
    "openly":1,
    "declare":1,
    "12000":1,
    "quadrillion":1,
    "counters":1,
    "hostility":1,
    "usual":1,
    "detachment":1,
    "dictated":1,
    "rising":1,
    "bureaucracy":1,
    "receding":1,
    "initiative":1,
    "stagnation":1,
    "commerce":1,
    "increase":1,
    "insurgencyand":1,
    "factors":1,
    "accumulated":1,
    "interstellar":1,
    "wars":1,
    "wage":1,
    "trade":1,
    "decay":1,
    "populations":1,
    "worlds":1,
    "matters":1,
    "30000":1,
    "twelve":1,
    "generations":1,
    "responses":1,
    "consult":1,
    "furiously":1,
    "full":1,
    "contains":1,
    "inertia":1,
    "onrushing":1,
    "deflected":1,
    "rebuild":1,
    "begun":1,
    "greatest":1,
    "psychohistorical":1,
    "calculation":1,
    "resulting":1,
    "safely":1,
    "guide":1,
    "entrust":1,
    "elaborate":1,
    "testimony":1,
    "damning":1,
    "transgressions":1,
    "tale":1,
    "execution":1,
    "throughout":1,
    "increasingly":1,
    "desperate":1,
    "gravitate":1,
    "teachingsartificial":1,
    "futile":1,
    "earlier":1,
    "reverts":1,
    "mysticism":1,
    "inhabitants":1,
    "dwindling":1,
    "prophet":1,
    "messiahartificial":1,
    "deliver":1,
    "kingdom":1,
    "society":1,
    "reorganize":1,
    "socioeconomic":1,
    "secularize":1,
    "civil":1,
    "governmentartificial":1,
    "concluding":1,
    "outraged":1,
    "scope":1,
    "arrogant":1,
    "presumptions":1,
    "sentenced":1,
    "rotating":1,
    "encased":1,
    "exterior":1,
    "confirm":1,
    "fears":1,
    "headset":1,
    "eldest":1,
    "intensity":1,
    "brilliant":1,
    "who\u2019s":1,
    "dangerously":1,
    "insane":1,
    "intrigued":1,
    "disintegrated":1,
    "automatic":1,
    "neatly":1,
    "sweeps":1,
    "ashes":1,
    "tiny":1,
    "floats":1,
    "nothingness":1,
    "string":1,
    "growing":1,
    "astonishing":1,
    "title":1,
    "credits":1,
    "length":1,
    "hurling":1,
    "pass":1,
    "starships":1,
    "site":1,
    "petrified":1,
    "corpses":1,
    "tumble":1,
    "endlessly":1,
    "void":1,
    "tattered":1,
    "bombed":1,
    "searching":1,
    "eat":1,
    "starved":1,
    "descend":1,
    "ridiculous":1,
    "climate":1,
    "controlledbayta":1,
    "fantasize":1,
    "atmospheric":1,
    "precipitation":1,
    "halt":1,
    "asks":1,
    "fun":1,
    "commonly":1,
    "rained":1,
    "lessons":1,
    "hot":1,
    "cold":1,
    "horrific":1,
    "drop":1,
    "pleasebayta":1,
    "downpour":1,
    "soaked":1,
    "shelter":1,
    "idiot":1,
    "girl":1,
    "rainfall":1,
    "expose":1,
    "inclement":1,
    "realizing":1,
    "minute":1,
    "conversation":1,
    "trapped":1,
    "tells":1,
    "rebuilt":1,
    "prosperity":1,
    "positive":1,
    "becomes":1,
    "social":1,
    "conflicts":1,
    "axe":1,
    "enabled":1,
    "optimize":1,
    "ushering":1,
    "progress":1,
    "quibbles":1,
    "administration":1,
    "series":1,
    "terrors":1,
    "knowbayta":1,
    "faced":1,
    "we\u2019ve":1,
    "\u201cbravery\u201d":1,
    "advanced":1,
    "fair":1,
    "kissing":1,
    "business":1,
    "deeply":1,
    "sharing":1,
    "bustling":1,
    "crowd":1,
    "suitably":1,
    "pretty":1,
    "cloud":1,
    "thesomething":1,
    "explosion":1,
    "tilts":1,
    "crazily":1,
    "pitch":1,
    "black":1,
    "square":1,
    "obscuring":1,
    "rubble":1,
    "surrendered":1,
    "hostile":1,
    "aggressor":1,
    "\u201cthe":1,
    "mule\u201d":1,
    "unconditional":1,
    "surrender":1,
    "imprisoned":1,
    "freed":1,
    "liberationsomeone":1,
    "absolutely":1,
    "delighted":1,
    "cameras":1,
    "smiling":1,
    "temple":1,
    "office":1,
    "high":1,
    "hopesand":1,
    "farewell":1,
    "homeangry":1,
    "one\u2019s":1,
    "planetary":1,
    "defenses":1,
    "march":1,
    "bar":1,
    "beat":1,
    "educated":1,
    "pertinent":1,
    "young":1,
    "preposterous":1,
    "fail":1,
    "priest":1,
    "cross":1,
    "themselves":1,
    "drunk":1,
    "glass":1,
    "youthe":1,
    "zombie":1,
    "extends":1,
    "embarrassed":1,
    "fight":1,
    "shows":1,
    "response":1,
    "chance":1,
    "mister":1,
    "chuckles":1,
    "derisively":1,
    "contacted":1,
    "hyperchannel":1,
    "blocked":1,
    "send":1,
    "via":1,
    "subspace":1,
    "takepritcher":1,
    "hans":1,
    "department":1,
    "supplemental":1,
    "report":1,
    "unrest":1,
    "seriously":1,
    "underestimated":1,
    "seized":1,
    "quantity":1,
    "code":1,
    "nature":1,
    "strategist":1,
    "abilityor":1,
    "methods":1,
    "lesser":1,
    "importance":1,
    "questions":1,
    "revolving":1,
    "finish":1,
    "prepare":1,
    "immediate":1,
    "departure":1,
    "hesitates":1,
    "\u201cno\u201d":1,
    "ill":1,
    "impacted":1,
    "nasty":1,
    "remind":1,
    "regulations":1,
    "odds":1,
    "decrease":1,
    "exponentially":1,
    "24":1,
    "occupationpritcher":1,
    "staying":1,
    "incident":1,
    "risked":1,
    "jagged":1,
    "roof":1,
    "exposing":1,
    "lobbyand":1,
    "hanging":1,
    "highest":1,
    "views":1,
    "wideeyed":1,
    "grasp":1,
    "continue":1,
    "misconception":1,
    "glorified":1,
    "custodians":1,
    "thin":1,
    "beep":1,
    "occurs":1,
    "sequence":1,
    "beforesuddenly":1,
    "transform":1,
    "frightening":1,
    "went":1,
    "berserk":1,
    "raging":1,
    "storm":1,
    "huge":1,
    "chunk":1,
    "agents":1,
    "balance":1,
    "erased":1,
    "marches":1,
    "peeking":1,
    "shattered":1,
    "gaze":1,
    "trampled":1,
    "vendor":1,
    "cart":1,
    "barely":1,
    "stocked":1,
    "offers":1,
    "bruised":1,
    "fruit":1,
    "themand":1,
    "sign":1,
    "indigenous":1,
    "touches":1,
    "horrifying":1,
    "invading":1,
    "terrorizing":1,
    "convulses":1,
    "hereshe":1,
    "detects":1,
    "movement":1,
    "deep":1,
    "recesses":1,
    "wwhat\u2019s":1,
    "continues":1,
    "gravelly":1,
    "croak":1,
    "sudden":1,
    "burst":1,
    "laughter":1,
    "mock":1,
    "track":1,
    "tortures":1,
    "torture":1,
    "frighten":1,
    "terrify":1,
    "dangerous":1,
    "edge":1,
    "remembers":1,
    "together":1,
    "unsure":1,
    "footsteps":1,
    "pursuing":1,
    "fleeing":1,
    "responds":1,
    "previously":1,
    "undiscovered":1,
    "courage":1,
    "flashing":1,
    "ignoble":1,
    "stance":1,
    "rescue":1,
    "seventy":1,
    "meters":1,
    "sink":1,
    "apprehended":1,
    "approximately":1,
    "twenty":1,
    "nearly":1,
    "shoot":1,
    "barrel":1,
    "fires":1,
    "speeds":1,
    "keyhole":1,
    "soft":1,
    "material":1,
    "splatters":1,
    "lock":1,
    "triggers":1,
    "tumblers":1,
    "clicks":1,
    "suggest":1,
    "propel":1,
    "broad":1,
    "lateral":1,
    "arc":1,
    "case":1,
    "savagely":1,
    "blow":1,
    "knocks":1,
    "soldier\u2019s":1,
    "rapidly":1,
    "thrilled":1,
    "intensely":1,
    "frightens":1,
    "twists":1,
    "belong":1,
    "hopefully":1,
    "rage":1,
    "chokes":1,
    "top":1,
    "loose":1,
    "gasps":1,
    "systems":1,
    "firing":1,
    "five":1,
    "four":1,
    "roar":1,
    "forced":1,
    "seats":1,
    "painful":1,
    "rockets":1,
    "silent":1,
    "proximity":1,
    "tumbling":1,
    "endoverend":1,
    "gradually":1,
    "shape":1,
    "horrifically":1,
    "embalmed":1,
    "pressures":1,
    "debris":1,
    "relax":1,
    "news":1,
    "finding":1,
    "red":1,
    "slices":1,
    "bow":1,
    "knife":1,
    "vessel":1,
    "shudders":1,
    "nowhere":1,
    "hull":1,
    "compromised":1,
    "activating":1,
    "containment":1,
    "cargo":1,
    "splits":1,
    "halves":1,
    "emergency":1,
    "activate":1,
    "atmosphere":1,
    "helplessly":1,
    "drifts":1,
    "bolts":1,
    "shocks":1,
    "drags":1,
    "elastic":1,
    "tether":1,
    "jumps":1,
    "miss":1,
    "mere":1,
    "injects":1,
    "contents":1,
    "syringe":1,
    "anybody":1,
    "impact":1,
    "referred":1,
    "reenters":1,
    "fucking":1,
    "review":1,
    "panel":1,
    "pictures":1,
    "foundationer":1,
    "darrel":1,
    "4":1,
    "opposition":1,
    "\u201cunderground\u201d":1,
    "weeks":1,
    "held":1,
    "questioning":1,
    "suspicion":1,
    "conspiring":1,
    "escaping":1,
    "prison":1,
    "detention":1,
    "fellow":1,
    "bars":1,
    "maintained":1,
    "platonic":1,
    "relationship":1,
    "masquerading":1,
    "married":1,
    "plops":1,
    "bombs":1,
    "started":1,
    "dropping":1,
    "talent":1,
    "attracting":1,
    "conflict":1,
    "dynamic":1,
    "vigorous":1,
    "lively":1,
    "asking":1,
    "followed":1,
    "stumble":1,
    "interesting":1,
    "spy":1,
    "collect":1,
    "source":1,
    "regarding":1,
    "developed":1,
    "attachment":1,
    "awaken":1,
    "\u201cawakened\u201d":1,
    "acts":1,
    "unless":1,
    "predicting":1,
    "grave":1,
    "danger":1,
    "intellectual":1,
    "prepped":1,
    "commemorate":1,
    "discuss":1,
    "\u201cglitch\u201d":1,
    "hasmayor":1,
    "appropriate":1,
    "brief":1,
    "technical":1,
    "problem":1,
    "somayor":1,
    "settled":1,
    "check":1,
    "lighting":1,
    "broadcast":1,
    "underwent":1,
    "representation":1,
    "constructed":1,
    "simpler":1,
    "representations":1,
    "backing":1,
    "inch":1,
    "excited":1,
    "animatedly":1,
    "catalogued":1,
    "appeared":1,
    "once":1,
    "uh":1,
    "sorry":1,
    "symbolthe":1,
    "ceiling":1,
    "paper":1,
    "pocket":1,
    "draws":1,
    "represent":1,
    "descends":1,
    "stage":1,
    "hushed":1,
    "tones":1,
    "concerns":1,
    "actions":1,
    "groups":1,
    "arisen":1,
    "whom":1,
    "adjust":1,
    "admittedly":1,
    "individualmayor":1,
    "character":1,
    "early":1,
    "times":1,
    "crisis":1,
    "lightly":1,
    "solid":1,
    "myths":1,
    "saved":1,
    "extinction":1,
    "superman":1,
    "mankind":1,
    "telling":1,
    "worrying":1,
    "enjoying":1,
    "maybebayta":1,
    "reassures":1,
    "object":1,
    "spasms":1,
    "subside":1,
    "trance":1,
    "possessed":1,
    "fearsome":1,
    "memories":1,
    "impossibly":1,
    "3":1,
    "putting":1,
    "throat":1,
    "picking":1,
    "breathe":1,
    "lifting":1,
    "recalls":1,
    "speaking":1,
    "figuratively":1,
    "laughs":1,
    "skull":1,
    "muscles":1,
    "teeth":1,
    "astounding":1,
    "horror":1,
    "constantly":1,
    "adjusting":1,
    "holes":1,
    "dismissed":1,
    "skeptically":1,
    "army":1,
    "conceals":1,
    "advantage":1,
    "leadership":1,
    "willing":1,
    "vitally":1,
    "based":1,
    "ease":1,
    "successful":1,
    "training":1,
    "experienced":1,
    "overwhelming":1,
    "distances":1,
    "terror":1,
    "despair":1,
    "fidget":1,
    "uncomfortably":1,
    "range":1,
    "access":1,
    "toplevel":1,
    "waves":1,
    "associated":1,
    "witnessed":1,
    "alter":1,
    "neurological":1,
    "patterns":1,
    "rewrite":1,
    "minds":1,
    "converted":1,
    "bloodthirsty":1,
    "\u201cturned\u201d":1,
    "assume":1,
    "population":1,
    "affected":1,
    "assimilating":1,
    "greater":1,
    "largest":1,
    "conceived":1,
    "foreseen":1,
    "hang":1,
    "blasphemy":1,
    "build":1,
    "lay":1,
    "stare":1,
    "processed":1,
    "unfit":1,
    "duty":1,
    "ordered":1,
    "he\u2019ll":1,
    "happy":1,
    "jail":1,
    "proud":1,
    "books":1,
    "diagrams":1,
    "gadgets":1,
    "secrets":1,
    "locked":1,
    "gauge":1,
    "ha":1,
    "judge":1,
    "harshly":1,
    "learn":1,
    "nearing":1,
    "musical":1,
    "upmagnifico":1,
    "certain":1,
    "attract":1,
    "visisonar":1,
    "finger":1,
    "plaintive":1,
    "note":1,
    "widen":1,
    "warmth":1,
    "songs":1,
    "strike":1,
    "notes":1,
    "ears":1,
    "directly":1,
    "ambles":1,
    "kid":1,
    "toy":1,
    "therapeutic":1,
    "value":1,
    "ofhe":1,
    "elevator":1,
    "slide":1,
    "goodbyes":1,
    "hellos":1,
    "overlycalculated":1,
    "language":1,
    "convince":1,
    "become":1,
    "criminal":1,
    "parents":1,
    "dedicated":1,
    "lives":1,
    "concern":1,
    "deaths":1,
    "calms":1,
    "pointless":1,
    "tentative":1,
    "clumsy":1,
    "require":1,
    "coordination":1,
    "skill":1,
    "freeform":1,
    "mentality":1,
    "often":1,
    "intelligence":1,
    "discussing":1,
    "avoid":1,
    "arguing":1,
    "awkward":1,
    "abandon":1,
    "lame":1,
    "blind":1,
    "pleasant":1,
    "guess":1,
    "failed":1,
    "teach":1,
    "continuing":1,
    "discussion":1,
    "named":1,
    "wordsand":1,
    "wanted":1,
    "favorite":1,
    "spot":1,
    "family":1,
    "mother":1,
    "threw":1,
    "child":1,
    "streets":1,
    "clothes":1,
    "funny":1,
    "truly":1,
    "instructs":1,
    "showing":1,
    "deviated":1,
    "weird":1,
    "wipes":1,
    "screaming":1,
    "endangering":1,
    "agreements":1,
    "finished":1,
    "damned":1,
    "anybody\u2019s":1,
    "action":1,
    "falling":1,
    "they\u2019d":1,
    "duck":1,
    "comments":1,
    "nerdy":1,
    "group":1,
    "activates":1,
    "she\u2019s":1,
    "interrupting":1,
    "compliments":1,
    "archive":1,
    "uhhuh":1,
    "hollow":1,
    "associates":1,
    "mousy":1,
    "positions":1,
    "portable":1,
    "projector":1,
    "moving":1,
    "muscle":1,
    "straight":1,
    "ahead":1,
    "microphone":1,
    "devious":1,
    "carefully":1,
    "enunciates":1,
    "mayor\u2019s":1,
    "approve":1,
    "project":1,
    "edging":1,
    "hesitantly":1,
    "ways":1,
    "resembles":1,
    "idealized":1,
    "looked":1,
    "messiah":1,
    "fuss":1,
    "younger":1,
    "guy":1,
    "existed":1,
    "freaked":1,
    "section":1,
    "chief":1,
    "reactions":1,
    "considering":1,
    "irritation":1,
    "forgotten":1,
    "cares":1,
    "creating":1,
    "god":1,
    "units":1,
    "minutes":1,
    "intending":1,
    "checking":1,
    "enjoy":1,
    "developedpritcher":1,
    "smooth":1,
    "congratulations":1,
    "staircase":1,
    "building":1,
    "shortcut":1,
    "stir":1,
    "talk":1,
    "mumble":1,
    "ineffectually":1,
    "underground":1,
    "briefcase":1,
    "sets":1,
    "upright":1,
    "stopping":1,
    "pissed":1,
    "jerk":1,
    "dirty":1,
    "job":1,
    "wasted":1,
    "spinal":1,
    "cord":1,
    "finishes":1,
    "least":1,
    "guts":1,
    "cowardlyhe":1,
    "cords":1,
    "binding":1,
    "ropes":1,
    "snaps":1,
    "proper":1,
    "interrogation":1,
    "choice":1,
    "priority":1,
    "alarm":1,
    "clicking":1,
    "both":1,
    "signal":1,
    "worldand":1,
    "quit":1,
    "lyingebling":1,
    "hall":1,
    "interpolation":1,
    "authorized":1,
    "submit":1,
    "request":1,
    "technicians":1,
    "ripples":1,
    "effects":1,
    "alteration":1,
    "security":1,
    "trace":1,
    "cracks":1,
    "grabbed":1,
    "struggle":1,
    "dragged":1,
    "struggling":1,
    "how\u2019s":1,
    "it\u2019ll":1,
    "forward":1,
    "hey":1,
    "trouble":1,
    "uneventful":1,
    "sun":1,
    "costing":1,
    "fortune":1,
    "blips":1,
    "bastard":1,
    "removed":1,
    "forgot":1,
    "set":1,
    "hurting":1,
    "memagnifico":1,
    "tight":1,
    "gifted":1,
    "playersmagnifico":1,
    "moremagnifico":1,
    "loosens":1,
    "grip":1,
    "softens":1,
    "sadebling":1,
    "shared":1,
    "chest":1,
    "fell":1,
    "pats":1,
    "celebrating":1,
    "deserved":1,
    "could\u2019ve":1,
    "helped":1,
    "morning":1,
    "ours":1,
    "showed":1,
    "lonely":1,
    "written":1,
    "occurred":1,
    "knownthey":1,
    "counted":1,
    "guest":1,
    "honor":1,
    "ten":1,
    "decaying":1,
    "paralysis":1,
    "precede":1,
    "spoke":1,
    "foresaw":1,
    "changing":1,
    "currents":1,
    "sweeping":1,
    "sacrificed":1,
    "cheers":1,
    "late":1,
    "prevent":1,
    "short":1,
    "chaos":1,
    "separate":1,
    "witness":1,
    "culmination":1,
    "dreams":1,
    "hums":1,
    "notices":1,
    "annoyed":1,
    "hum":1,
    "embraces":1,
    "civilized":1,
    "peaceful":1,
    "heavy":1,
    "internal":1,
    "healthof":1,
    "evfinally":1,
    "anything":1,
    "complete":1,
    "utter":1,
    "astonishment":1,
    "saypritcher":1,
    "standing":1,
    "authorities":1,
    "execute":1,
    "intend":1,
    "addressed":1,
    "wild":1,
    "superstition":1,
    "freethinkers":1,
    "however":1,
    "annoying":1,
    "wondered":1,
    "psychohistorians":1,
    "among":1,
    "discovered":1,
    "pauses":1,
    "path":1,
    "required":1,
    "travel":1,
    "profound":1,
    "divine":1,
    "illumination":1,
    "\u201cpsychohistory\u201d":1,
    "rests":1,
    "assumption":1,
    "basic":1,
    "design":1,
    "overlooked":1,
    "manipulate":1,
    "assumes":1,
    "fundamental":1,
    "initial":1,
    "attempts":1,
    "devise":1,
    "ended":1,
    "frustration":1,
    "realized":1,
    "efforts":1,
    "thwarted":1,
    "peeks":1,
    "combat":1,
    "boundary":1,
    "decided":1,
    "createnot":1,
    "onebut":1,
    "foundations":1,
    "openwhile":1,
    "bait":1,
    "technological":1,
    "role":1,
    "victims":1,
    "cruel":1,
    "unmoved":1,
    "assigned":1,
    "attempting":1,
    "achieve":1,
    "optimum":1,
    "decision":1,
    "sacrifice":1,
    "born":1,
    "comfort":1,
    "relies":1,
    "inherent":1,
    "predictability":1,
    "numb":1,
    "outcome":1,
    "vaultand":1,
    "swing":1,
    "expects":1,
    "kidding":1,
    "releases":1,
    "guttural":1,
    "yell":1,
    "cue":1,
    "mob":1,
    "explode":1,
    "colors":1,
    "surrounded":1,
    "sirhe":1,
    "desk":1,
    "general":1,
    "trembling":1,
    "wwhere":1,
    "raise":1,
    "rifles":1,
    "unison":1,
    "rumbles":1,
    "crack":1,
    "snakes":1,
    "rip":1,
    "cannon":1,
    "transports":1,
    "materials":1,
    "drift":1,
    "blockade":1,
    "destroyed":1,
    "refinery":1,
    "pods":1,
    "commandeer":1,
    "trip":1,
    "usually":1,
    "recognize":1,
    "cry":1,
    "kisses":1,
    "forehead":1,
    "conveyor":1,
    "stronger":1,
    "interior":1,
    "noises":1,
    "bumped":1,
    "acceleration":1,
    "thingpritcher":1,
    "pipe":1,
    "climbs":1,
    "straps":1,
    "capsule":1,
    "remake":1,
    "fields":1,
    "tear":1,
    "dig":1,
    "further":1,
    "sensed":1,
    "agonized":1,
    "ripping":1,
    "coast":1,
    "soldier":1,
    "marching":1,
    "leaving":1,
    "bloody":1,
    "joins":1,
    "program":1,
    "coordinates":1,
    "fiddles":1,
    "grabs":1,
    "afire":1,
    "cabin":1,
    "create":1,
    "guarantee":1,
    "\u201cat":1,
    "slightest":1,
    "idea":1,
    "suffered":1,
    "curiosity":1,
    "safe":1,
    "sonuvabitch":1,
    "freely":1,
    "clearer":1,
    "explain":1,
    "wish":1,
    "\u201cplan\u201d":1,
    "happening":1,
    "hatch":1,
    "himand":1,
    "something\u2019s":1,
    "fought":1,
    "badly":1,
    "somehow":1,
    "strength":1,
    "break":1,
    "wraps":1,
    "comforting":1,
    "clues":1,
    "continents":1,
    "seas":1,
    "navigation":1,
    "sinks":1,
    "expertisemagnifico":1,
    "reassure":1,
    "smartest":1,
    "changes":1,
    "able":1,
    "extrapolate":1,
    "foundebling":1,
    "holster":1,
    "holsters":1,
    "shine":1,
    "lightbayta":1,
    "flashlight":1,
    "partly":1,
    "archives":1,
    "fine":1,
    "terrible":1,
    "attend":1,
    "lumber":1,
    "determined":1,
    "packed":1,
    "varying":1,
    "positioned":1,
    "guests":1,
    "dinner":1,
    "host":1,
    "blank":1,
    "expressions":1,
    "eerie":1,
    "camebrutal":1,
    "offer":1,
    "amusement":1,
    "devoid":1,
    "blows":1,
    "descended":1,
    "essence":1,
    "observing":1,
    "beaten":1,
    "assailants":1,
    "collective":1,
    "gasp":1,
    "marionettes":1,
    "parts":1,
    "repulsed":1,
    "wouldbe":1,
    "killers":1,
    "became":1,
    "\u201cdevoted\u201d":1,
    "unanimous":1,
    "clapping":1,
    "guardians":1,
    "paid":1,
    "price":1,
    "hypocrisy":1,
    "blinded":1,
    "false":1,
    "teachings":1,
    "puppets":1,
    "contrary":1,
    "arrived":1,
    "emperor":1,
    "hail":1,
    "quick":1,
    "melancholy":1,
    "distortion":1,
    "caused":1,
    "monster":1,
    "upset":1,
    "sometimes":1,
    "mystery":1,
    "references":1,
    "indicate":1,
    "region":1,
    "interpreting":1,
    "opposite":1,
    "loved":1,
    "slip":1,
    "sickness":1,
    "insanity":1,
    "circular":1,
    "rim":1,
    "ovoid":1,
    "periphery":1,
    "curve":1,
    "double":1,
    "interpretation":1,
    "fails":1,
    "pin":1,
    "expands":1,
    "include":1,
    "colonized":1,
    "irrelevant":1,
    "solution":1,
    "sensibilities":1,
    "bitbut":1,
    "completed":1,
    "win":1,
    "defeat":1,
    "listens":1,
    "judgement":1,
    "hoping":1,
    "captured":1,
    "prematurely":1,
    "emerge":1,
    "secrecy":1,
    "upheld":1,
    "discover":1,
    "carry":1,
    "vital":1,
    "foundationthere":1,
    "ragged":1,
    "pair":1,
    "teetering":1,
    "bizarrely":1,
    "obscenely":1,
    "hurries":1,
    "shakingand":1,
    "smoking":1,
    "pulled":1,
    "expecting":1,
    "fired":1,
    "peculiar":1,
    "talents":1,
    "allow":1,
    "introduce":1,
    "aiming":1,
    "frozen":1,
    "peak":1,
    "efficiency":1,
    "purposesif":1,
    "grotesque":1,
    "joke":1,
    "features":1,
    "childlike":1,
    "quality":1,
    "strong":1,
    "having":1,
    "juggle":1,
    "neither":1,
    "repelled":1,
    "amused":1,
    "cheek":1,
    "stayed":1,
    "tamper":1,
    "mistake":1,
    "lets":1,
    "yourrevulsion":1,
    "silly":1,
    "artificial":1,
    "emotion":1,
    "sensing":1,
    "arrive":1,
    "infiltrated":1,
    "shell":1,
    "deposited":1,
    "giving":1,
    "frightened":1,
    "clown":1,
    "tiresome":1,
    "slave":1,
    "loves":1,
    "depart":1,
    "bright":1,
    "believer":1,
    "picked":1,
    "leaves":1,
    "defeated":1,
    "breath":1,
    "foolish":1,
    "mistakes":1,
    "livein":1,
    "friendship":1,
    "hardens":1,
    "bottomless":1,
    "pointing":1,
    "moved":1,
    "pathetic":1,
    "longest":1,
    "statue":1,
    "blink":1,
    "tick":1,
    "weapon":1,
    "record":2,
    "lie":2,
    "within":2,
    "three":2,
    "consider":2,
    "statement":2,
    "basis":2,
    "accurately":2,
    "hundreds":2,
    "thousands":2,
    "seeing":2,
    "trial":2,
    "suggests":2,
    "pretend":2,
    "destruction":2,
    "fate":2,
    "decline":2,
    "treason":2,
    "outrageous":2,
    "stood":2,
    "beings":2,
    "rotates":2,
    "minor":2,
    "knowledge":2,
    "forever":2,
    "touch":2,
    "lies":2,
    "humanity":2,
    "seldon\u2019s":2,
    "enormous":2,
    "massive":2,
    "millennium":2,
    "understands":2,
    "guilty":2,
    "numerous":2,
    "spread":2,
    "studying":2,
    "attempt":2,
    "predicted":2,
    "current":2,
    "sent":2,
    "darkness":2,
    "forces":2,
    "exchange":2,
    "shocked":2,
    "stunned":2,
    "magnitude":2,
    "column":2,
    "calm":2,
    "tears":2,
    "lived":2,
    "almost":2,
    "empty":2,
    "white":2,
    "larger":2,
    "appearing":2,
    "rate":2,
    "expanding":2,
    "faster":2,
    "random":2,
    "torn":2,
    "twisted":2,
    "battle":2,
    "speed":2,
    "food":2,
    "animals":2,
    "disappointed":2,
    "front":2,
    "brings":2,
    "quietly":2,
    "frustrated":2,
    "shock":2,
    "upon":2,
    "weather":2,
    "romantic":2,
    "partner":2,
    "agree":2,
    "peace":2,
    "economic":2,
    "identified":2,
    "resolved":2,
    "unparalleled":2,
    "starts":2,
    "historian":2,
    "tomorrow":2,
    "bravely":2,
    "replaced":2,
    "ask":2,
    "reacts":2,
    "honeymoon":2,
    "darling":2,
    "nice":2,
    "couple":2,
    "apart":2,
    "impressed":2,
    "fast":2,
    "ground":2,
    "thick":2,
    "smoke":2,
    "hangs":2,
    "bodies":2,
    "evening":2,
    "less":2,
    "hour":2,
    "tighter":2,
    "join":2,
    "somebody":2,
    "happily":2,
    "gun":2,
    "leave":2,
    "home":2,
    "anywhere":2,
    "yelling":2,
    "happened":2,
    "angry":2,
    "closely":2,
    "crosses":2,
    "others":2,
    "lobby":2,
    "points":2,
    "sit":2,
    "terminus":2,
    "military":2,
    "failure":2,
    "etcetera":2,
    "perhaps":2,
    "immediately":2,
    "hours":2,
    "bags":2,
    "works":2,
    "controls":2,
    "transport":2,
    "levels":2,
    "gentlemen":2,
    "stopped":2,
    "learned":2,
    "precisely":2,
    "present":2,
    "finds":2,
    "impossible":2,
    "totally":2,
    "heads":2,
    "line":2,
    "haunted":2,
    "windows":2,
    "watching":2,
    "broken":2,
    "creepy":2,
    "backs":2,
    "sense":2,
    "rush":2,
    "bayta\u2019s":2,
    "yells":2,
    "whatever":2,
    "light":2,
    "yours":2,
    "calls":2,
    "\u201cmagnifico\u201d":2,
    "burn":2,
    "start":2,
    "beside":2,
    "somewhere":2,
    "echo":2,
    "spreading":2,
    "walls":2,
    "part":2,
    "brave":2,
    "initiate":2,
    "distance":2,
    "mechanism":2,
    "beginning":2,
    "interest":2,
    "seconds":2,
    "bullet":2,
    "gate":2,
    "swings":2,
    "disappear":2,
    "pick":2,
    "picks":2,
    "helmet":2,
    "turned":2,
    "explains":2,
    "except":2,
    "uniform":2,
    "mouth":2,
    "puts":2,
    "neck":2,
    "filled":2,
    "version":2,
    "rolls":2,
    "breaks":2,
    "booster":2,
    "dissolve":2,
    "they\u2019ll":2,
    "giant":2,
    "search":2,
    "lied":2,
    "forcefields":2,
    "actually":2,
    "fingers":2,
    "inches":2,
    "arms":2,
    "buries":2,
    "flew":2,
    "shakes":2,
    "welcome":2,
    "button":2,
    "control":2,
    "surveillance":2,
    "footage":2,
    "birth":2,
    "level":2,
    "socalled":2,
    "facility":2,
    "subversive":2,
    "okay":2,
    "you\u2019d":2,
    "eventually":2,
    "needs":2,
    "mr":2,
    "declared":2,
    "recall":2,
    "mis":2,
    "glitch":2,
    "returned":2,
    "normal":2,
    "washed":2,
    "during":2,
    "appearance":2,
    "construct":2,
    "complex":2,
    "podium":2,
    "else":2,
    "excuse":2,
    "mysterious":2,
    "individual":2,
    "mike":2,
    "societies":2,
    "saying":2,
    "dear":2,
    "deal":2,
    "ornate":2,
    "address":2,
    "stories":2,
    "heart":2,
    "soul":2,
    "admire":2,
    "shoulder":2,
    "reality":2,
    "clearly":2,
    "working":2,
    "celebration":2,
    "2":2,
    "six":2,
    "feet":2,
    "happens":2,
    "memory":2,
    "portrait":2,
    "forms":2,
    "brains":2,
    "interrogators":2,
    "share":2,
    "underneath":2,
    "lips":2,
    "account":2,
    "commands":2,
    "personal":2,
    "reveal":2,
    "such":2,
    "suspect":2,
    "mutation":2,
    "highly":2,
    "despite":2,
    "panic":2,
    "trigger":2,
    "emotions":2,
    "relatively":2,
    "appears":2,
    "brain":2,
    "cause":2,
    "given":2,
    "genetic":2,
    "accident":2,
    "taken":2,
    "device":2,
    "knob":2,
    "got":2,
    "uncertain":2,
    "lone":2,
    "players":2,
    "nods":2,
    "believed":2,
    "left":2,
    "position":2,
    "damn":2,
    "you\u2019ve":2,
    "shuttle":2,
    "specific":2,
    "low":2,
    "pause":2,
    "scientist":2,
    "poor":2,
    "led":2,
    "tried":2,
    "fighting":2,
    "respond":2,
    "grow":2,
    "read":2,
    "none":2,
    "understood":2,
    "mess":2,
    "instead":2,
    "exactly":2,
    "shouldn\u2019t":2,
    "overlapping":2,
    "shot":2,
    "yeah":2,
    "schematics":2,
    "fill":2,
    "sitting":2,
    "instinctively":2,
    "sits":2,
    "crazy":2,
    "figure":2,
    "arrest":2,
    "central":2,
    "feelings":2,
    "deeper":2,
    "kicks":2,
    "lays":2,
    "realizes":2,
    "pulls":2,
    "regret":2,
    "passage":2,
    "wake":2,
    "wanders":2,
    "lying":2,
    "kalagan":2,
    "fallen":2,
    "guards":2,
    "keeps":2,
    "bill":2,
    "quiet":2,
    "orbit":2,
    "relieved":2,
    "call":2,
    "governor":2,
    "rather":2,
    "casually":2,
    "fear":2,
    "gift":2,
    "lot":2,
    "knowing":2,
    "taught":2,
    "difference":2,
    "different":2,
    "caresses":2,
    "ancient":2,
    "bearing":2,
    "chamber":2,
    "noise":2,
    "turning":2,
    "notice":2,
    "recording":2,
    "simple":2,
    "effect":2,
    "simply":2,
    "method":2,
    "visible":2,
    "hidden":2,
    "easy":2,
    "waiting":2,
    "reach":2,
    "power":2,
    "warships":2,
    "fire":2,
    "moon":2,
    "enters":2,
    "you\u2019ll":2,
    "stupid":2,
    "ghostly":2,
    "suggestion":2,
    "grins":2,
    "bring":2,
    "flat":2,
    "tunnels":2,
    "wearing":2,
    "survived":2,
    "existence":2,
    "kept":2,
    "listening":2,
    "operating":2,
    "master":2,
    "library":2,
    "area":2,
    "imperial":2,
    "killing":2,
    "town":2,
    "live":2,
    "circle":2,
    "nor":2,
    "spiral":2,
    "\u201cstar\u2019s":2,
    "process":2,
    "liked":2,
    "scientific":3,
    "beyond":3,
    "field":3,
    "predict":3,
    "psychohistorian":3,
    "intended":3,
    "destroy":3,
    "confidence":3,
    "purpose":3,
    "yourself":3,
    "event":3,
    "began":3,
    "far":3,
    "platform":3,
    "lose":3,
    "rise":3,
    "suffering":3,
    "let\u2019s":3,
    "mathematical":3,
    "already":3,
    "age":3,
    "science":3,
    "view":3,
    "religion":3,
    "order":3,
    "found":3,
    "bit":3,
    "hole":3,
    "endless":3,
    "solving":3,
    "symbols":3,
    "images":3,
    "caught":3,
    "starting":3,
    "skin":3,
    "pleased":3,
    "herself":3,
    "ages":3,
    "worried":3,
    "waits":3,
    "walking":3,
    "women":3,
    "watched":3,
    "aren\u2019t":3,
    "middle":3,
    "deafening":3,
    "screen":3,
    "thanks":3,
    "raises":3,
    "\u201cmule\u201d":3,
    "everybody":3,
    "alert":3,
    "worry":3,
    "turn":3,
    "someone":3,
    "anyone":3,
    "follows":3,
    "return":3,
    "sick":3,
    "use":3,
    "console":3,
    "quickly":3,
    "taking":3,
    "wonder":3,
    "proof":3,
    "fact":3,
    "ah":3,
    "contact":3,
    "haven\u2019t":3,
    "appear":3,
    "meet":3,
    "piece":3,
    "escaped":3,
    "prisoner":3,
    "catch":3,
    "wall":3,
    "hiding":3,
    "hurt":3,
    "sewer":3,
    "follow":3,
    "i\u2019d":3,
    "lucky":3,
    "jerks":3,
    "places":3,
    "distorted":3,
    "onto":3,
    "scared":3,
    "locking":3,
    "point":3,
    "breathing":3,
    "terrified":3,
    "toran\u2019s":3,
    "opens":3,
    "squeezes":3,
    "staring":3,
    "used":3,
    "cockpit":3,
    "stars":3,
    "ship":3,
    "floating":3,
    "hard":3,
    "cuts":3,
    "seat":3,
    "rear":3,
    "called":3,
    "member":3,
    "met":3,
    "since":3,
    "friend":3,
    "speech":3,
    "play":3,
    "important":3,
    "term":3,
    "suppose":3,
    "individuals":3,
    "possible":3,
    "unable":3,
    "extraordinary":3,
    "exist":3,
    "hasn\u2019t":3,
    "myself":3,
    "1":3,
    "physical":3,
    "closed":3,
    "give":3,
    "reason":3,
    "forget":3,
    "free":3,
    "force":3,
    "instrument":3,
    "heard":3,
    "surprise":3,
    "always":3,
    "died":3,
    "expect":3,
    "realize":3,
    "bad":3,
    "gave":3,
    "ugly":3,
    "heading":3,
    "hologram":3,
    "many":3,
    "under":3,
    "command":3,
    "anacron":3,
    "couldn\u2019t":3,
    "wasn\u2019t":3,
    "party":3,
    "secret":3,
    "hope":3,
    "center":3,
    "survive":3,
    "desire":3,
    "fleet":3,
    "seals":3,
    "screams":3,
    "end\u201d":3,
    "meaning":3,
    "phrase":3,
    "palace":3,
    "remains":3,
    "location":3,
    "followers":3,
    "writing":3,
    "doctor":4,
    "court":4,
    "trantor":4,
    "which":4,
    "smiles":4,
    "easily":4,
    "these":4,
    "talking":4,
    "listen":4,
    "system":4,
    "political":4,
    "remain":4,
    "civilization":4,
    "clear":4,
    "words":4,
    "most":4,
    "arm":4,
    "history":4,
    "sky":4,
    "afraid":4,
    "knew":4,
    "sounds":4,
    "felt":4,
    "war":4,
    "known":4,
    "unknown":4,
    "falls":4,
    "hits":4,
    "president":4,
    "each":4,
    "means":4,
    "isn\u2019t":4,
    "speaks":4,
    "woman":4,
    "what\u2019s":4,
    "message":4,
    "information":4,
    "computer":4,
    "attack":4,
    "big":4,
    "gets":4,
    "gestures":4,
    "begins":4,
    "1000":4,
    "running":4,
    "common":4,
    "days":4,
    "change":4,
    "boy":4,
    "past":4,
    "along":4,
    "shadows":4,
    "smile":4,
    "place":4,
    "dead":4,
    "hello":4,
    "kill":4,
    "alone":4,
    "gently":4,
    "jump":4,
    "magnifico\u2019s":4,
    "runs":4,
    "walk":4,
    "happen":4,
    "against":4,
    "seem":4,
    "longer":4,
    "professor":4,
    "side":4,
    "faith":4,
    "came":4,
    "door":4,
    "chair":4,
    "tall":4,
    "image":4,
    "makes":4,
    "playing":4,
    "living":4,
    "best":4,
    "care":4,
    "show":4,
    "saw":4,
    "doing":4,
    "legs":4,
    "corner":4,
    "die":4,
    "played":4,
    "dome":4,
    "put":4,
    "blaster":4,
    "ruins":5,
    "mathematics":5,
    "psychohistory":5,
    "events":5,
    "sound":5,
    "watch":5,
    "question":5,
    "judges":5,
    "galactic":5,
    "glad":5,
    "hundred":5,
    "between":5,
    "comes":5,
    "please":5,
    "today":5,
    "year":5,
    "might":5,
    "gives":5,
    "we\u2019ll":5,
    "disappears":5,
    "survivors":5,
    "street":5,
    "rain":5,
    "trying":5,
    "close":5,
    "following":5,
    "wait":5,
    "made":5,
    "dark":5,
    "wrong":5,
    "thinks":5,
    "supposed":5,
    "love":5,
    "pull":5,
    "air":5,
    "hold":5,
    "soon":5,
    "entire":5,
    "whole":5,
    "own":5,
    "praise":5,
    "several":5,
    "shut":5,
    "those":5,
    "captain":5,
    "name":5,
    "yet":5,
    "window":5,
    "feeling":5,
    "getting":5,
    "answer":5,
    "above":5,
    "symbol":5,
    "abruptly":5,
    "keep":5,
    "day":5,
    "reaches":5,
    "closer":5,
    "step":5,
    "pain":5,
    "won\u2019t":5,
    "anymore":5,
    "tunnel":5,
    "beam":5,
    "ready":5,
    "few":5,
    "remember":5,
    "doubt":5,
    "word":5,
    "true":5,
    "music":5,
    "doors":5,
    "city":5,
    "speak":5,
    "floor":5,
    "star\u2019s":5,
    "pod":5,
    "expression":5,
    "stand":6,
    "said":6,
    "centuries":6,
    "begin":6,
    "slowly":6,
    "gone":6,
    "lost":6,
    "final":6,
    "toward":6,
    "quite":6,
    "thought":6,
    "rest":6,
    "either":6,
    "wouldn\u2019t":6,
    "run":6,
    "there\u2019s":6,
    "universe":6,
    "hands":6,
    "seems":6,
    "thank":6,
    "haven":6,
    "stay":6,
    "understand":6,
    "help":6,
    "himself":6,
    "try":6,
    "matter":6,
    "surprised":6,
    "odd":6,
    "azi":6,
    "every":6,
    "they\u2019re":6,
    "i\u2019ve":6,
    "need":6,
    "while":6,
    "behind":6,
    "large":6,
    "ebling\u2019s":6,
    "interrogator":6,
    "council":6,
    "truth":7,
    "work":7,
    "coming":7,
    "ago":7,
    "same":7,
    "holds":7,
    "next":7,
    "its":7,
    "voice":7,
    "until":7,
    "energy":7,
    "across":7,
    "numbers":7,
    "mean":7,
    "kiss":7,
    "really":7,
    "than":7,
    "men":7,
    "goes":7,
    "maybe":7,
    "hell":7,
    "takes":7,
    "faces":7,
    "creature":7,
    "i\u2019ll":7,
    "done":7,
    "real":7,
    "holding":7,
    "took":7,
    "things":7,
    "new":8,
    "race":8,
    "ever":8,
    "small":8,
    "strange":8,
    "steps":8,
    "moves":8,
    "oh":8,
    "without":8,
    "everything":8,
    "wants":8,
    "knows":8,
    "walks":8,
    "long":8,
    "after":8,
    "looking":8,
    "tries":8,
    "body":8,
    "hide":8,
    "had":8,
    "told":8,
    "feel":8,
    "life":9,
    "great":9,
    "save":9,
    "itself":9,
    "enough":9,
    "finally":9,
    "make":9,
    "toran":9,
    "world":9,
    "sure":9,
    "everyone":9,
    "hate":9,
    "stands":9,
    "two":9,
    "better":9,
    "kind":9,
    "indbar":9,
    "old":9,
    "must":9,
    "fall":10,
    "any":10,
    "still":10,
    "he\u2019s":10,
    "who":10,
    "mind":10,
    "hear":10,
    "mayor":10,
    "didn\u2019t":10,
    "before":11,
    "empire":11,
    "single":11,
    "death":11,
    "last":11,
    "we\u2019re":11,
    "because":11,
    "that\u2019s":11,
    "much":11,
    "stares":11,
    "room":11,
    "seen":11,
    "space":11,
    "hand":11,
    "move":11,
    "open":11,
    "people":12,
    "again":12,
    "let":12,
    "thing":12,
    "come":12,
    "were":12,
    "more":12,
    "well":12,
    "could":12,
    "soldiers":12,
    "other":13,
    "second":13,
    "right":13,
    "course":13,
    "plan":13,
    "suddenly":13,
    "nothing":13,
    "should":13,
    "head":13,
    "vault":13,
    "our":14,
    "even":14,
    "find":14,
    "stops":14,
    "moment":14,
    "may":14,
    "inside":14,
    "sees":14,
    "being":14,
    "take":14,
    "where":14,
    "doesn\u2019t":14,
    "ext":14,
    "only":15,
    "stop":15,
    "galaxy":15,
    "thousand":15,
    "eyes":15,
    "some":15,
    "something":15,
    "am":16,
    "little":16,
    "believe":16,
    "too":16,
    "way":16,
    "get":16,
    "over":16,
    "watches":16,
    "first":17,
    "human":17,
    "end":18,
    "when":18,
    "want":18,
    "cut":18,
    "can\u2019t":18,
    "":18,
    "tell":18,
    "another":19,
    "very":19,
    "off":19,
    "good":19,
    "face":19,
    "years":20,
    "how":20,
    "or":20,
    "never":20,
    "yes":20,
    "back":20,
    "turns":20,
    "planet":21,
    "sir":21,
    "future":22,
    "say":22,
    "i\u2019m":22,
    "away":22,
    "hari":23,
    "about":23,
    "been":23,
    "does":23,
    "into":24,
    "think":24,
    "going":24,
    "their":25,
    "go":25,
    "why":25,
    "look":25,
    "you\u2019re":25,
    "around":26,
    "down":26,
    "did":26,
    "all":27,
    "by":27,
    "through":28,
    "here":28,
    "it\u2019s":28,
    "man":29,
    "then":32,
    "time":33,
    "would":34,
    "up":34,
    "so":36,
    "us":36,
    "your":38,
    "from":38,
    "know":38,
    "mule":38,
    "foundation":39,
    "don\u2019t":39,
    "ebling":39,
    "now":40,
    "an":41,
    "has":41,
    "was":41,
    "just":41,
    "equation":43,
    "them":43,
    "int":43,
    "out":44,
    "there":45,
    "can":46,
    "if":46,
    "looks":46,
    "see":46,
    "she":46,
    "one":47,
    "pritcher":47,
    "my":49,
    "magnifico":49,
    "do":50,
    "her":51,
    "seldon":54,
    "as":54,
    "like":55,
    "on":57,
    "no":57,
    "with":58,
    "will":60,
    "have":62,
    "they":62,
    "be":63,
    "him":64,
    "this":65,
    "are":65,
    "but":66,
    "me":66,
    "at":72,
    "for":74,
    "what":76,
    "bayta":79,
    "not":82,
    "his":83,
    "we":92,
    "that":115,
    "in":119,
    "it":146,
    "he":147,
    "is":193,
    "i":218,
    "of":241,
    "and":257,
    "you":260,
    "a":270,
    "to":326,
    "the":706
}