{
    "sap":1,
    "nightshift":1,
    "ring":1,
    "bell":1,
    "heroes":1,
    "line":1,
    "men":1,
    "questions":1,
    "answered":1,
    "rin":1,
    "sakes":1,
    "taught":1,
    "shirley":1,
    "temple":1,
    "rollerskate":1,
    "fatty":1,
    "arbuckle":1,
    "regurgitate":1,
    "sandwiches":1,
    "spot":1,
    "marilyn":1,
    "doze":1,
    "fans":1,
    "spinning":1,
    "errol":1,
    "flynn":1,
    "alibi":1,
    "stories":1,
    "pulls":1,
    "pants":1,
    "crap":1,
    "camacho":1,
    "cuban":1,
    "wrapped":1,
    "miami":1,
    "chairman":1,
    "board":1,
    "sends":1,
    "frankly":1,
    "philip":1,
    "morris":1,
    "wore":1,
    "clerks":1,
    "hookers":1,
    "marital":1,
    "disputes":1,
    "advice":1,
    "concierge":1,
    "goddam":1,
    "owner":1,
    "forward":1,
    "cigars":1,
    "aufwiedersehen":1,
    "alcoholic":1,
    "retires":1,
    "correct":1,
    "filling":1,
    "mighty":1,
    "shoes":1,
    "bellhops":1,
    "wits":1,
    "smight":1,
    "roommate":1,
    "german":1,
    "nights":1,
    "whichll":1,
    "normal":1,
    "sell":1,
    "turkeys":1,
    "slow":1,
    "calming":1,
    "cooling":1,
    "nutshell":1,
    "fort":1,
    "guests":1,
    "giving":1,
    "nod":1,
    "staggering":1,
    "nobodys":1,
    "gettogethers":1,
    "entourage":1,
    "checked":1,
    "reason":1,
    "refer":1,
    "tellin":1,
    "shirking":1,
    "duties":1,
    "horst":1,
    "totally":1,
    "position":1,
    "pussy":1,
    "buildings":1,
    "burning":1,
    "usually":1,
    "tipper":1,
    "cab":1,
    "driver":1,
    "read":1,
    "auras":1,
    "color":1,
    "seein":1,
    "hows":1,
    "lookin":1,
    "purple":1,
    "z":1,
    "booked":1,
    "luggage":1,
    "sunrise":1,
    "paying":1,
    "gold":1,
    "bag":1,
    "nuclear":1,
    "weapons":1,
    "cliffs":1,
    "dover":1,
    "restore":1,
    "flesh":1,
    "pond":1,
    "cleansing":1,
    "setting":1,
    "supplies":1,
    "boring":1,
    "whatre":1,
    "gibraltar":1,
    "whatd":1,
    "smoking":1,
    "addicted":1,
    "weeks":1,
    "edition":1,
    "hypocrite":1,
    "award":1,
    "whyre":1,
    "sleeping":1,
    "bringing":1,
    "cat":1,
    "noise":1,
    "interfere":1,
    "negligee":1,
    "probation":1,
    "cannot":1,
    "stays":1,
    "along":1,
    "salem":1,
    "nose":1,
    "stinker":1,
    "muffin":1,
    "hidee":1,
    "toodleloo":1,
    "herself":1,
    "lil":1,
    "fool":1,
    "annual":1,
    "sanctioned":1,
    "presence":1,
    "behaves":1,
    "attract":1,
    "juvenile":1,
    "hall":1,
    "relationship":1,
    "material":1,
    "referring":1,
    "thata":1,
    "hallway":1,
    "neednt":1,
    "fantastic":1,
    "strange":1,
    "coping":1,
    "patience":1,
    "wreck":1,
    "cats":1,
    "ruin":1,
    "pour":1,
    "paint":1,
    "throw":1,
    "wherere":1,
    "hero":1,
    "gosh":1,
    "attending":1,
    "mortal":1,
    "precious":1,
    "jist":1,
    "karate":1,
    "mamas":1,
    "belly":1,
    "hospitals":1,
    "causes":1,
    "hemorrhages":1,
    "bowl":1,
    "comfrey":1,
    "fertilizer":1,
    "plant":1,
    "tree":1,
    "tonature":1,
    "theyd":1,
    "mammals":1,
    "native":1,
    "cultures":1,
    "dry":1,
    "grind":1,
    "leather":1,
    "pouch":1,
    "wears":1,
    "ward":1,
    "burying":1,
    "ecological":1,
    "oxygen":1,
    "carries":1,
    "detaches":1,
    "uterine":1,
    "wall":1,
    "uh":1,
    "mostly":1,
    "kosher":1,
    "spring":1,
    "italian":1,
    "ginger":1,
    "trout":1,
    "raw":1,
    "liver":1,
    "dumb":1,
    "jerks":1,
    "bummed":1,
    "bored":1,
    "dressup":1,
    "pretend":1,
    "egg":1,
    "whites":1,
    "kilt":1,
    "week":1,
    "aw":1,
    "child":1,
    "abuse":1,
    "running":1,
    "parole":1,
    "officer":1,
    "eastlake":1,
    "melodrama":1,
    "communing":1,
    "ago":1,
    "today":1,
    "offerings":1,
    "deprived":1,
    "seed":1,
    "lover":1,
    "virginal":1,
    "form":1,
    "symbolic":1,
    "upon":1,
    "ancient":1,
    "bride":1,
    "thee":1,
    "divine":1,
    "innocent":1,
    "whom":1,
    "seized":1,
    "virgins":1,
    "lust":1,
    "awful":1,
    "sweat":1,
    "mens":1,
    "thighs":1,
    "undone":1,
    "hope":1,
    "appear":1,
    "collected":1,
    "fail":1,
    "erect":1,
    "semen":1,
    "alas":1,
    "ayeyiyi":1,
    "shows":1,
    "lack":1,
    "control":1,
    "hands":1,
    "sperms":1,
    "prove":1,
    "uhh":1,
    "fiftydollar":1,
    "goop":1,
    "thatll":1,
    "candy":1,
    "shaky":1,
    "sugars":1,
    "low":1,
    "honestly":1,
    "turnin":1,
    "collect":1,
    "earth":1,
    "gather":1,
    "damp":1,
    "moss":1,
    "earn":1,
    "yknow":1,
    "spent":1,
    "gee":1,
    "discovered":1,
    "potion":1,
    "entertainer":1,
    "trade":1,
    "sorceress":1,
    "design":1,
    "wedding":1,
    "jealous":1,
    "rival":1,
    "placed":1,
    "young":1,
    "found":1,
    "circles":1,
    "dear":1,
    "doubt":1,
    "lovers":1,
    "saved":1,
    "marriage":1,
    "example":1,
    "marry":1,
    "rare":1,
    "resurrected":1,
    "sec":1,
    "seeing":1,
    "fluid":1,
    "conversations":1,
    "chance":1,
    "whoa":1,
    "witchy":1,
    "poo":1,
    "ahh":1,
    "nope":1,
    "besides":1,
    "policy":1,
    "warned":1,
    "jokes":1,
    "sacred":1,
    "ground":1,
    "horns":1,
    "albino":1,
    "goats":1,
    "attended":1,
    "births":1,
    "prevent":1,
    "vaginal":1,
    "surprises":1,
    "joined":1,
    "attain":1,
    "greater":1,
    "understanding":1,
    "feminine":1,
    "become":1,
    "gaining":1,
    "insight":1,
    "powers":1,
    "bettys":1,
    "girlfriend":1,
    "topanga":1,
    "symbolizing":1,
    "eternal":1,
    "bark":1,
    "assists":1,
    "astral":1,
    "cauldron":1,
    "ooohhh":1,
    "sore":1,
    "tomorra":1,
    "strips":1,
    "lubrication":1,
    "learn":1,
    "penetration":1,
    "virtually":1,
    "cervical":1,
    "cancer":1,
    "education":1,
    "101":1,
    "goddammit":1,
    "jism":1,
    "wooed":1,
    "such":1,
    "bliss":1,
    "laid":1,
    "pulled":1,
    "wearing":1,
    "actress":1,
    "fake":1,
    "save":1,
    "needed":1,
    "male":1,
    "dawn":1,
    "checkout":1,
    "sad":1,
    "warm":1,
    "hissy":1,
    "fit":1,
    "sworn":1,
    "fifth":1,
    "momentarily":1,
    "chickens":1,
    "dark":1,
    "expect":1,
    "getups":1,
    "suits":1,
    "touch":1,
    "puss":1,
    "psychic":1,
    "belabor":1,
    "timing":1,
    "beau":1,
    "broke":1,
    "mitt":1,
    "wasnt":1,
    "h":1,
    "r":1,
    "chase":1,
    "annoy":1,
    "working":1,
    "needs":1,
    "abcs":1,
    "teds":1,
    "cheats":1,
    "intimate":1,
    "cozy":1,
    "considering":1,
    "possible":1,
    "response":1,
    "pray":1,
    "church":1,
    "kneeling":1,
    "altar":1,
    "hears":1,
    "following":1,
    "humbly":1,
    "sincerely":1,
    "satisfied":1,
    "accept":1,
    "sits":1,
    "waiting":1,
    "hoops":1,
    "cakes":1,
    "indeed":1,
    "further":1,
    "condescending":1,
    "idiot":1,
    "superior":1,
    "notice":1,
    "naturally":1,
    "communication":1,
    "drag":1,
    "charades":1,
    "appreciate":1,
    "nutcase":1,
    "middle":1,
    "wish":1,
    "complete":1,
    "starts":1,
    "stopped":1,
    "consider":1,
    "underwear":1,
    "lifetime":1,
    "ignoramus":1,
    "suitcase":1,
    "accessory":1,
    "grip":1,
    "jolly":1,
    "england":1,
    "eatin":1,
    "crumpets":1,
    "sipping":1,
    "plate":1,
    "whys":1,
    "tied":1,
    "werewolf":1,
    "attractive":1,
    "self":1,
    "assured":1,
    "nine":1,
    "twentytwo":1,
    "estimation":1,
    "silly":1,
    "breathe":1,
    "nibbling":1,
    "ear":1,
    "razzes":1,
    "picture":1,
    "sneakypoo":1,
    "voodoo":1,
    "nibble":1,
    "whiz":1,
    "cramping":1,
    "style":1,
    "game":1,
    "anymore":1,
    "almost":1,
    "naming":1,
    "clue":1,
    "school":1,
    "jail":1,
    "crimes":1,
    "grand":1,
    "larceny":1,
    "aggravated":1,
    "assault":1,
    "burglary":1,
    "matching":1,
    "outfits":1,
    "blue":1,
    "bow":1,
    "becomes":1,
    "gets":1,
    "packs":1,
    "thousands":1,
    "miles":1,
    "bloody":1,
    "yah":1,
    "meet":1,
    "impressive":1,
    "ouch":1,
    "cabinet":1,
    "leak":1,
    "wheres":1,
    "cop":1,
    "knot":1,
    "felt":1,
    "bastard":1,
    "mad":1,
    "test":1,
    "deeply":1,
    "bloated":1,
    "ourselves":1,
    "genuine":1,
    "voice":1,
    "denied":1,
    "dialogue":1,
    "resolving":1,
    "misunderstanding":1,
    "surprised":1,
    "succumbing":1,
    "mans":1,
    "least":1,
    "guts":1,
    "stand":1,
    "convictions":1,
    "promising":1,
    "puke":1,
    "unfortunately":1,
    "balls":1,
    "actions":1,
    "gumby":1,
    "bone":1,
    "nob":1,
    "bishop":1,
    "wang":1,
    "thang":1,
    "hotrod":1,
    "hump":1,
    "mobile":1,
    "oscar":1,
    "dong":1,
    "dagger":1,
    "banana":1,
    "cucumber":1,
    "salami":1,
    "sausage":1,
    "kielbasa":1,
    "schlong":1,
    "dink":1,
    "tool":1,
    "ben":1,
    "prick":1,
    "disk":1,
    "pecker":1,
    "peepee":1,
    "weewee":1,
    "weiner":1,
    "pisser":1,
    "pistol":1,
    "joint":1,
    "hose":1,
    "horn":1,
    "middleleg":1,
    "third":1,
    "joystick":1,
    "dipstick":1,
    "junior":1,
    "rumple":1,
    "foreskin":1,
    "tootsie":1,
    "snake":1,
    "monster":1,
    "shaft":1,
    "whistle":1,
    "skin":1,
    "flute":1,
    "muscle":1,
    "rotorooter":1,
    "instrument":1,
    "banger":1,
    "rammer":1,
    "ramrod":1,
    "cherrypicker":1,
    "log":1,
    "pole":1,
    "vulnerable":1,
    "father":1,
    "sink":1,
    "teeth":1,
    "perspective":1,
    "longer":1,
    "disappear":1,
    "rip":1,
    "apart":1,
    "gone":1,
    "die":1,
    "blows":1,
    "jealousy":1,
    "desire":1,
    "blow":1,
    "truce":1,
    "kiddo":1,
    "fault":1,
    "loose":1,
    "imagine":1,
    "living":1,
    "seek":1,
    "professional":1,
    "black":1,
    "rolled":1,
    "sometimes":1,
    "small":1,
    "spark":1,
    "blackness":1,
    "boat":1,
    "distant":1,
    "island":1,
    "shining":1,
    "diamonds":1,
    "cutting":1,
    "killed":1,
    "buddy":1,
    "somewhere":1,
    "moet":1,
    "et":1,
    "chandon":1,
    "mom":1,
    "likes":1,
    "comb":1,
    "themselves":1,
    "television":1,
    "theyll":1,
    "twelve":1,
    "werent":1,
    "escaping":1,
    "stinks":1,
    "behave":1,
    "papa":1,
    "ordered":1,
    "plenty":1,
    "bomb":1,
    "waste":1,
    "threes":1,
    "staying":1,
    "thirty":1,
    "hire":1,
    "safer":1,
    "pedophile":1,
    "moon":1,
    "distinctly":1,
    "liar":1,
    "jerk":1,
    "mightve":1,
    "pendejo":1,
    "somebody":1,
    "callin":1,
    "dial":1,
    "0":1,
    "wake":1,
    "countdown":1,
    "necks":1,
    "except":1,
    "joking":1,
    "limit":1,
    "calls":1,
    "emergencies":1,
    "necessary":1,
    "bye":1,
    "sitter":1,
    "nudie":1,
    "naked":1,
    "dancing":1,
    "channel":1,
    "stinky":1,
    "opener":1,
    "cleaning":1,
    "leftover":1,
    "exploded":1,
    "card":1,
    "numbers":1,
    "wondering":1,
    "bulls":1,
    "100":1,
    "10":1,
    "20":1,
    "arent":1,
    "saltines":1,
    "complain":1,
    "stale":1,
    "dip":1,
    "soft":1,
    "crackers":1,
    "sleepy":1,
    "wandering":1,
    "restroom":1,
    "pajamas":1,
    "earthquake":1,
    "dontcha":1,
    "clothes":1,
    "mentholatum":1,
    "covers":1,
    "close":1,
    "blame":1,
    "hated":1,
    "nighttime":1,
    "act":1,
    "tempted":1,
    "vapor":1,
    "rub":1,
    "dab":1,
    "eyelid":1,
    "burrrn":1,
    "helps":1,
    "clear":1,
    "sinuses":1,
    "double":1,
    "duty":1,
    "wear":1,
    "yep":1,
    "wash":1,
    "impossible":1,
    "godammit":1,
    "agree":1,
    "smarter":1,
    "smells":1,
    "worse":1,
    "lay":1,
    "sis":1,
    "responsibility":1,
    "christ":1,
    "bedsprings":1,
    "speak":1,
    "partys":1,
    "tall":1,
    "curly":1,
    "works":1,
    "major":1,
    "gotcha":1,
    "happiest":1,
    "hasnt":1,
    "badly":1,
    "awww":1,
    "chick":1,
    "whose":1,
    "house":1,
    "leaves":1,
    "bat":1,
    "oven":1,
    "circus":1,
    "clowns":1,
    "itty":1,
    "bitty":1,
    "particular":1,
    "hag":1,
    "mole":1,
    "growing":1,
    "nonono":1,
    "admittedly":1,
    "unnerving":1,
    "sounds":1,
    "skipping":1,
    "sucking":1,
    "maniac":1,
    "forces":1,
    "psychosexual":1,
    "drama":1,
    "psycho":1,
    "held":1,
    "gunpoint":1,
    "dirty":1,
    "harrys":1,
    "short":1,
    "between":1,
    "357":1,
    "392":1,
    "pointed":1,
    "whatcha":1,
    "screamin":1,
    "recently":1,
    "716":1,
    "mexican":1,
    "gangster":1,
    "pokin":1,
    "chest":1,
    "hooligan":1,
    "snapping":1,
    "putrid":1,
    "rotting":1,
    "corpse":1,
    "springs":1,
    "rooms":1,
    "blazing":1,
    "afire":1,
    "needle":1,
    "infecting":1,
    "finally":1,
    "walking":1,
    "buenas":1,
    "noches":1,
    "freaked":1,
    "stressed":1,
    "hadarealbadnight":1,
    "sprinkler":1,
    "system":1,
    "charm":1,
    "understandable":1,
    "haven":1,
    "thirties":1,
    "forties":1,
    "half":1,
    "fifties":1,
    "nightbynight":1,
    "basis":1,
    "stayed":1,
    "eighties":1,
    "official":1,
    "cannon":1,
    "pictures":1,
    "strong":1,
    "nineties":1,
    "comeback":1,
    "magnitude":1,
    "begging":1,
    "pronto":1,
    "delay":1,
    "worry":1,
    "purposes":1,
    "promptness":1,
    "thoroughness":1,
    "chinchin":1,
    "tasty":1,
    "shall":1,
    "bippy":1,
    "piss":1,
    "uneasy":1,
    "wit":1,
    "insult":1,
    "ignorant":1,
    "bellman":1,
    "bellperson":1,
    "changed":1,
    "friendliness":1,
    "jerrys":1,
    "film":1,
    "silent":1,
    "performance":1,
    "actors":1,
    "pull":1,
    "france":1,
    "jerry":1,
    "lewis":1,
    "dies":1,
    "paper":1,
    "country":1,
    "write":1,
    "articles":1,
    "genius":1,
    "surprise":1,
    "rarely":1,
    "clock":1,
    "everybody":1,
    "seem":1,
    "acquainted":1,
    "newfound":1,
    "somethin":1,
    "jim":1,
    "bean":1,
    "humor":1,
    "sociable":1,
    "son":1,
    "telephone":1,
    "person":1,
    "ellen":1,
    "punctuality":1,
    "pleased":1,
    "meetcha":1,
    "invented":1,
    "bottles":1,
    "cristals":1,
    "final":1,
    "domestic":1,
    "champ":1,
    "foreign":1,
    "paytv":1,
    "asses":1,
    "seats":1,
    "projected":1,
    "stroll":1,
    "goodies":1,
    "asking":1,
    "frog":1,
    "interested":1,
    "damn":1,
    "skippy":1,
    "wood":1,
    "definitely":1,
    "bucket":1,
    "donut":1,
    "devil":1,
    "bullshit":1,
    "married":1,
    "flyin":1,
    "machiavellian":1,
    "return":1,
    "progress":1,
    "noooo":1,
    "bullshittin":1,
    "talkin":1,
    "radical":1,
    "yet":1,
    "seat":1,
    "comfortable":1,
    "festivities":1,
    "evening":1,
    "constitutes":1,
    "concerned":1,
    "breaking":1,
    "news":1,
    "gently":1,
    "scarin":1,
    "poor":1,
    "homosexual":1,
    "sexual":1,
    "pee":1,
    "suck":1,
    "assure":1,
    "farther":1,
    "theodores":1,
    "fifteen":1,
    "talked":1,
    "court":1,
    "intentions":1,
    "alfred":1,
    "hitchcock":1,
    "episode":1,
    "wins":1,
    "lorres":1,
    "loses":1,
    "mint":1,
    "zippo":1,
    "sold":1,
    "civic":1,
    "hollywoods":1,
    "americas":1,
    "standing":1,
    "niggerred":1,
    "ragtop":1,
    "hips":1,
    "lips":1,
    "fingertips":1,
    "sittin":1,
    "celebrating":1,
    "gettin":1,
    "drinking":1,
    "watchin":1,
    "rockin":1,
    "sudden":1,
    "flip":1,
    "bein":1,
    "badass":1,
    "funny":1,
    "chevelle":1,
    "replies":1,
    "chicken":1,
    "fuckedup":1,
    "zippos":1,
    "thrill":1,
    "near":1,
    "guarantee":1,
    "friends":1,
    "mutilate":1,
    "exciting":1,
    "puttin":1,
    "dick":1,
    "regret":1,
    "theoretically":1,
    "onions":1,
    "tomorrow":1,
    "granddaddy":1,
    "declarative":1,
    "statements":1,
    "apt":1,
    "foolish":1,
    "retrospect":1,
    "inherent":1,
    "obstacles":1,
    "undertaking":1,
    "sick":1,
    "travelin":1,
    "countryside":1,
    "collecting":1,
    "buddies":1,
    "nobody":1,
    "fate":1,
    "ol":1,
    "hospital":1,
    "likelihood":1,
    "sew":1,
    "hopefully":1,
    "eighty":1,
    "percent":1,
    "protected":1,
    "emotionally":1,
    "attached":1,
    "physically":1,
    "machinery":1,
    "however":1,
    "lights":1,
    "emotional":1,
    "keys":1,
    "whatsoever":1,
    "inconceivable":1,
    "wield":1,
    "circle":1,
    "sober":1,
    "cleareyed":1,
    "diceman":1,
    "helluva":1,
    "sixty":1,
    "richer":1,
    "askin":1,
    "indulge":1,
    "willin":1,
    "convince":1,
    "timekeeper":1,
    "begins":1,
    "ends":1,
    "gentlemen":1,
    "engines":1,
    "piles":1,
    "aware":1,
    "holds":1,
    "street":1,
    "soup":1,
    "shhhh":1,
    "closer":1,
    "lost":1,
    "average":1,
    "seven":1,
    "persons":1,
    "zillion":1,
    "meaning":1,
    "insignificant":1,
    "natural":1,
    "barring":1,
    "alzheimers":1,
    "proposing":1,
    "unusual":1,
    "outside":1,
    "norm":1,
    "remembering":1,
    "decide":1,
    "memory":1,
    "decade":1,
    "refused":1,
    "okeydoke":1,
    "days":2,
    "hop":2,
    "center":2,
    "none":2,
    "personal":2,
    "met":2,
    "kidding":2,
    "tin":2,
    "cheese":2,
    "sitting":2,
    "liked":2,
    "pick":2,
    "beats":2,
    "goodbye":2,
    "uhhh":2,
    "boss":2,
    "sister":2,
    "inspiration":2,
    "legend":2,
    "starting":2,
    "ran":2,
    "amazing":2,
    "clerk":2,
    "together":2,
    "since":2,
    "practice":2,
    "cake":2,
    "easy":2,
    "busy":2,
    "during":2,
    "butterflies":2,
    "handle":2,
    "hostility":2,
    "hold":2,
    "four":2,
    "parties":2,
    "variable":2,
    "wacky":2,
    "detective":2,
    "nazi":2,
    "advantage":2,
    "completely":2,
    "careful":2,
    "green":2,
    "white":2,
    "forgot":2,
    "jacuzzi":2,
    "huh":2,
    "swimming":2,
    "reservation":2,
    "gawd":2,
    "carrying":2,
    "smoke":2,
    "welcome":2,
    "literally":2,
    "cares":2,
    "mommy":2,
    "offering":2,
    "priestess":2,
    "loves":2,
    "darlin":2,
    "serious":2,
    "miss":2,
    "ohhh":2,
    "seems":2,
    "past":2,
    "carpet":2,
    "travel":2,
    "birth":2,
    "being":2,
    "yank":2,
    "umbilical":2,
    "cord":2,
    "chop":2,
    "afterbirth":2,
    "perfectly":2,
    "couple":2,
    "lovely":2,
    "wow":2,
    "american":2,
    "also":2,
    "rosemary":2,
    "listening":2,
    "bit":2,
    "sea":2,
    "french":2,
    "fries":2,
    "exactly":2,
    "demand":2,
    "shell":2,
    "stone":2,
    "bodies":2,
    "mothers":2,
    "titty":2,
    "reverse":2,
    "until":2,
    "tears":2,
    "follow":2,
    "hot":2,
    "teach":2,
    "cry":2,
    "heres":2,
    "ta":2,
    "raven":2,
    "birch":2,
    "branch":2,
    "failed":2,
    "pink":2,
    "hate":2,
    "kinda":2,
    "against":2,
    "cmon":2,
    "step":2,
    "anyway":2,
    "midwife":2,
    "truly":2,
    "whos":2,
    "number":2,
    "woman":2,
    "movies":2,
    "guess":2,
    "kinds":2,
    "world":2,
    "knock":2,
    "sword":2,
    "adult":2,
    "permission":2,
    "tells":2,
    "both":2,
    "assistant":2,
    "monkey":2,
    "obviously":2,
    "sense":2,
    "couldnt":2,
    "introduce":2,
    "insensitive":2,
    "d":2,
    "beginning":2,
    "apology":2,
    "move":2,
    "forgiveness":2,
    "unfaithful":2,
    "feeling":2,
    "gives":2,
    "spit":2,
    "womans":2,
    "asshole":2,
    "untie":2,
    "quick":2,
    "strangers":2,
    "counts":2,
    "murder":2,
    "sides":2,
    "rabbit":2,
    "looked":2,
    "angelas":2,
    "playing":2,
    "lives":2,
    "dressed":2,
    "tie":2,
    "mess":2,
    "nitro":2,
    "dying":2,
    "forever":2,
    "wonder":2,
    "anger":2,
    "boy":2,
    "inside":2,
    "leg":2,
    "oneeyed":2,
    "personally":2,
    "guns":2,
    "promise":2,
    "secrets":2,
    "beat":2,
    "clean":2,
    "ocean":2,
    "scary":2,
    "lucky":2,
    "mile":2,
    "409":2,
    "therell":2,
    "watching":2,
    "babysitters":2,
    "accidentally":2,
    "expensive":2,
    "paid":2,
    "sarah":2,
    "shake":2,
    "died":2,
    "bum":2,
    "brother":2,
    "toothbrushes":2,
    "free":2,
    "ones":2,
    "story":2,
    "once":2,
    "itll":2,
    "burn":2,
    "washed":2,
    "looks":2,
    "eddy":2,
    "particularly":2,
    "japanese":2,
    "full":2,
    "skip":2,
    "sticks":2,
    "barrel":2,
    "difference":2,
    "44":2,
    "magnum":2,
    "dude":2,
    "fingers":2,
    "therere":2,
    "guest":2,
    "hollywood":2,
    "wants":2,
    "entire":2,
    "beverage":2,
    "attention":2,
    "quadrophenia":2,
    "thinks":2,
    "america":2,
    "chair":2,
    "drank":2,
    "flat":2,
    "block":2,
    "nails":2,
    "twine":2,
    "hatchet":2,
    "sharp":2,
    "judge":2,
    "drive":2,
    "rio":2,
    "thinkin":2,
    "nomination":2,
    "cigarette":2,
    "normans":2,
    "putting":2,
    "convertible":2,
    "1964":2,
    "chevy":2,
    "corvelle":2,
    "motherfuckin":2,
    "honda":2,
    "sayin":2,
    "hottest":2,
    "moren":2,
    "wed":2,
    "bout":2,
    "choppin":2,
    "wager":2,
    "able":2,
    "interests":2,
    "ax":2,
    "hundreddollar":2,
    "feelings":2,
    "experiences":2,
    "rest":2,
    "staff":3,
    "left":3,
    "comes":3,
    "job":3,
    "took":3,
    "kitchen":3,
    "few":3,
    "does":3,
    "bathroom":3,
    "takes":3,
    "cigar":3,
    "box":3,
    "christmas":3,
    "shut":3,
    "tough":3,
    "clientele":3,
    "tip":3,
    "went":3,
    "own":3,
    "buy":3,
    "kill":3,
    "himself":3,
    "same":3,
    "worked":3,
    "run":3,
    "day":3,
    "calm":3,
    "goddamn":3,
    "most":3,
    "checking":3,
    "penthouse":3,
    "twenty":3,
    "bother":3,
    "pleeze":3,
    "till":3,
    "dis":3,
    "pool":3,
    "sun":3,
    "happen":3,
    "respect":3,
    "eye":3,
    "deal":3,
    "making":3,
    "wanted":3,
    "weve":3,
    "lemme":3,
    "hour":3,
    "placenta":3,
    "jezebel":3,
    "fed":3,
    "tea":3,
    "their":3,
    "ladies":3,
    "fresh":3,
    "salt":3,
    "fish":3,
    "piece":3,
    "meat":3,
    "outta":3,
    "forty":3,
    "undo":3,
    "wicked":3,
    "spell":3,
    "blood":3,
    "power":3,
    "o":3,
    "offer":3,
    "curse":3,
    "bill":3,
    "understand":3,
    "though":3,
    "mr":3,
    "smile":3,
    "minutes":3,
    "getting":3,
    "tried":3,
    "while":3,
    "matter":3,
    "hear":3,
    "dust":3,
    "case":3,
    "station":3,
    "cute":3,
    "mistake":3,
    "named":3,
    "t":3,
    "e":3,
    "second":3,
    "absolutely":3,
    "gag":3,
    "secret":3,
    "whether":3,
    "everyone":3,
    "end":3,
    "hurry":3,
    "behind":3,
    "shoot":3,
    "tut":3,
    "fast":3,
    "thousand":3,
    "bunny":3,
    "knows":3,
    "names":3,
    "theo":3,
    "thumper":3,
    "begin":3,
    "glad":3,
    "moment":3,
    "heard":3,
    "swear":3,
    "huge":3,
    "roll":3,
    "told":3,
    "darkness":3,
    "far":3,
    "path":3,
    "fire":3,
    "shed":3,
    "fun":3,
    "asleep":3,
    "misbehave":3,
    "children":3,
    "rules":3,
    "stink":3,
    "points":3,
    "ointment":3,
    "crazy":3,
    "closed":3,
    "mattress":3,
    "stuffed":3,
    "margaret":3,
    "quite":3,
    "bitch":3,
    "brings":3,
    "video":3,
    "721":3,
    "million":3,
    "dog":3,
    "catcher":3,
    "continue":3,
    "lighter":3,
    "pinky":3,
    "chesters":3,
    "seconds":3,
    "money":3,
    "count":3,
    "six":3,
    "bellhop":4,
    "course":4,
    "simple":4,
    "christs":4,
    "saw":4,
    "sound":4,
    "star":4,
    "word":4,
    "believe":4,
    "always":4,
    "service":4,
    "red":4,
    "having":4,
    "less":4,
    "unless":4,
    "morning":4,
    "pay":4,
    "idea":4,
    "bad":4,
    "athena":4,
    "suite":4,
    "send":4,
    "many":4,
    "under":4,
    "may":4,
    "must":4,
    "rock":4,
    "flea":4,
    "forget":4,
    "high":4,
    "side":4,
    "whatever":4,
    "mama":4,
    "looking":4,
    "straight":4,
    "furniture":4,
    "bellboys":4,
    "thanks":4,
    "hand":4,
    "carry":4,
    "important":4,
    "use":4,
    "eat":4,
    "evil":4,
    "water":4,
    "play":4,
    "ahead":4,
    "turned":4,
    "whore":4,
    "worth":4,
    "sperm":4,
    "witch":4,
    "trying":4,
    "whole":4,
    "each":4,
    "stuff":4,
    "walk":4,
    "feel":4,
    "jesus":4,
    "machine":4,
    "sake":4,
    "lie":4,
    "truth":4,
    "jump":4,
    "stuck":4,
    "police":4,
    "stick":4,
    "head":4,
    "probably":4,
    "motherfucker":4,
    "feet":4,
    "downstairs":4,
    "midnight":4,
    "dad":4,
    "smell":4,
    "entrez":4,
    "whadya":4,
    "drunk":4,
    "steve":4,
    "mcqueen":4,
    "row":4,
    "pile":4,
    "front":5,
    "asked":5,
    "try":5,
    "these":5,
    "yours":5,
    "goes":5,
    "mouth":5,
    "mon":5,
    "signor":5,
    "start":5,
    "drink":5,
    "taking":5,
    "actually":5,
    "cool":5,
    "talk":5,
    "problems":5,
    "situation":5,
    "emergency":5,
    "face":5,
    "honeymoon":5,
    "soon":5,
    "powder":5,
    "sweet":5,
    "done":5,
    "find":5,
    "knew":5,
    "bags":5,
    "late":5,
    "eva":5,
    "apologize":5,
    "brought":5,
    "later":5,
    "live":5,
    "swallowed":5,
    "mister":5,
    "ten":5,
    "bar":5,
    "husband":5,
    "already":5,
    "lot":5,
    "wrong":5,
    "someone":5,
    "upset":5,
    "sit":5,
    "angela":5,
    "loaded":5,
    "needles":5,
    "through":5,
    "makes":5,
    "explain":5,
    "change":5,
    "still":5,
    "happens":5,
    "even":5,
    "youd":5,
    "lying":5,
    "pain":5,
    "cock":5,
    "happy":5,
    "check":5,
    "hair":5,
    "win":5,
    "bet":5,
    "lorre":5,
    "drinkin":5,
    "lose":5,
    "remember":6,
    "business":6,
    "stay":6,
    "ready":6,
    "shift":6,
    "supposed":6,
    "talking":6,
    "movie":6,
    "price":6,
    "doin":6,
    "perfect":6,
    "fact":6,
    "lady":6,
    "others":6,
    "coming":6,
    "hello":6,
    "enough":6,
    "mother":6,
    "friend":6,
    "home":6,
    "elspeth":6,
    "else":6,
    "baby":6,
    "girls":6,
    "babysitter":6,
    "honey":6,
    "best":6,
    "might":6,
    "cause":6,
    "next":6,
    "beautiful":6,
    "ha":6,
    "nice":6,
    "phone":6,
    "wouldnt":6,
    "either":6,
    "floor":6,
    "404":6,
    "cut":6,
    "isnt":6,
    "seen":6,
    "hard":6,
    "says":6,
    "trust":6,
    "made":6,
    "em":6,
    "dollars":6,
    "leo":6,
    "hell":7,
    "stars":7,
    "yourself":7,
    "every":7,
    "away":7,
    "sex":7,
    "sam":7,
    "gotta":7,
    "wont":7,
    "after":7,
    "desk":7,
    "party":7,
    "am":7,
    "havent":7,
    "thought":7,
    "rush":7,
    "theyre":7,
    "two":7,
    "real":7,
    "ass":7,
    "ritual":7,
    "girl":7,
    "shes":7,
    "much":7,
    "thank":7,
    "bottle":7,
    "witches":7,
    "into":7,
    "everything":7,
    "youve":7,
    "again":7,
    "door":7,
    "ask":7,
    "anybody":7,
    "listen":7,
    "mind":7,
    "peter":7,
    "break":7,
    "part":7,
    "cristal":7,
    "used":8,
    "stupid":8,
    "keep":8,
    "kids":8,
    "aint":8,
    "virgin":8,
    "year":8,
    "kind":8,
    "has":8,
    "things":8,
    "stop":8,
    "doesnt":8,
    "cookies":8,
    "parents":8,
    "calling":8,
    "sigfried":8,
    "body":8,
    "open":8,
    "car":8,
    "finger":8,
    "place":9,
    "those":9,
    "old":9,
    "around":9,
    "hi":9,
    "big":9,
    "work":9,
    "eve":9,
    "nothing":9,
    "chester":9,
    "bucks":9,
    "god":9,
    "show":9,
    "turn":9,
    "because":9,
    "watch":9,
    "fine":9,
    "without":9,
    "ive":9,
    "coven":9,
    "times":9,
    "fucked":9,
    "sleep":9,
    "should":9,
    "wife":9,
    "kid":10,
    "wait":10,
    "light":10,
    "bellboy":10,
    "hotel":10,
    "tonight":10,
    "myself":10,
    "ya":10,
    "than":10,
    "people":10,
    "last":10,
    "fair":10,
    "better":10,
    "kiva":10,
    "didnt":10,
    "more":10,
    "eyes":10,
    "first":10,
    "guys":10,
    "pretty":10,
    "champagne":10,
    "any":11,
    "guy":11,
    "alone":11,
    "hes":11,
    "five":11,
    "diana":11,
    "then":11,
    "please":11,
    "maybe":11,
    "give":11,
    "sorry":11,
    "anything":11,
    "milk":11,
    "care":11,
    "id":11,
    "sir":11,
    "ice":11,
    "another":11,
    "too":12,
    "shit":12,
    "mean":12,
    "minute":12,
    "teddy":12,
    "wanna":12,
    "bring":12,
    "leave":12,
    "long":12,
    "problem":12,
    "which":12,
    "saying":12,
    "fifty":13,
    "where":13,
    "doing":13,
    "put":13,
    "hey":13,
    "help":13,
    "why":13,
    "had":13,
    "ever":13,
    "goddess":13,
    "tv":13,
    "really":13,
    "bed":13,
    "gun":13,
    "youll":14,
    "never":14,
    "dead":14,
    "very":14,
    "only":15,
    "name":15,
    "three":15,
    "them":15,
    "betty":15,
    "life":15,
    "would":15,
    "could":15,
    "fuck":15,
    "norman":15,
    "sure":16,
    "other":16,
    "let":16,
    "by":16,
    "great":16,
    "something":16,
    "need":16,
    "thing":17,
    "been":17,
    "lets":17,
    "tell":17,
    "love":17,
    "whats":17,
    "down":19,
    "make":19,
    "said":19,
    "come":20,
    "before":20,
    "him":20,
    "us":21,
    "over":21,
    "hundred":21,
    "back":22,
    "time":22,
    "yes":22,
    "they":23,
    "how":23,
    "did":23,
    "take":23,
    "who":23,
    "going":23,
    "see":23,
    "our":23,
    "call":24,
    "years":24,
    "will":24,
    "new":24,
    "theres":24,
    "little":25,
    "fucking":25,
    "good":26,
    "look":26,
    "man":26,
    "or":26,
    "room":26,
    "there":27,
    "off":27,
    "ill":27,
    "night":28,
    "think":28,
    "he":28,
    "way":28,
    "got":28,
    "some":28,
    "fuckin":28,
    "at":29,
    "she":29,
    "from":30,
    "when":30,
    "as":30,
    "gonna":31,
    "an":32,
    "go":32,
    "her":32,
    "cant":33,
    "were":34,
    "about":34,
    "his":35,
    "up":36,
    "theodore":36,
    "right":37,
    "out":38,
    "okay":38,
    "thats":39,
    "say":39,
    "can":39,
    "yeah":43,
    "oh":44,
    "well":45,
    "so":46,
    "like":48,
    "get":48,
    "one":49,
    "want":49,
    "know":54,
    "are":54,
    "was":55,
    "with":55,
    "youre":59,
    "all":61,
    "just":62,
    "if":62,
    "now":63,
    "but":64,
    "have":66,
    "we":68,
    "be":73,
    "its":75,
    "my":75,
    "here":75,
    "no":77,
    "im":79,
    "do":79,
    "on":83,
    "not":84,
    "for":84,
    "dont":87,
    "your":89,
    "ted":93,
    "this":100,
    "is":102,
    "what":104,
    "":109,
    "me":124,
    "that":124,
    "it":137,
    "in":141,
    "of":145,
    "and":194,
    "to":272,
    "a":281,
    "i":324,
    "the":384,
    "you":452
}