{
    "wellhow":1,
    "ask":1,
    "totally":1,
    "free":1,
    "feels":1,
    "throw":1,
    "somethings":1,
    "bothering":1,
    "camp":1,
    "lakeif":1,
    "drop":1,
    "named":1,
    "hhhhelpmeim":1,
    "mmmmmmommy":1,
    "bunch":1,
    "forgot":1,
    "mother":1,
    "blamed":1,
    "tried":1,
    "head":1,
    "chopped":1,
    "stopped":1,
    "legend":1,
    "avenge":1,
    "mothers":1,
    "vowing":1,
    "teenager":1,
    "area":1,
    "lakeview":1,
    "closed":1,
    "reason":1,
    "because":1,
    "aroundright":1,
    "except":1,
    "matters":1,
    "serious":1,
    "screwing":1,
    "gotcha":1,
    "baby":1,
    "cakes":1,
    "forgive":1,
    "jjjjjjjjason":1,
    "uhhuh":1,
    "ohmygod":1,
    "tournament":1,
    "six":1,
    "pm":1,
    "sharp":1,
    "nonattendance":1,
    "restrict":1,
    "port":1,
    "pool":1,
    "meter":1,
    "plus":1,
    "disco":1,
    "gym":1,
    "blow":1,
    "itinerary":1,
    "carefully":1,
    "planned":1,
    "executed":1,
    "coursewouldnt":1,
    "enjoying":1,
    "trip":1,
    "rennies":1,
    "seemr":1,
    "oneeleven":1,
    "twotwentyfive":1,
    "early":1,
    "glad":1,
    "great":1,
    "decision":1,
    "notsogreat":1,
    "chill":1,
    "giving":1,
    "teaching":1,
    "closing":1,
    "write":1,
    "novel":1,
    "threatening":1,
    "deusenwhats":1,
    "manhattan":1,
    "laced":1,
    "romance":1,
    "adventure":1,
    "murder":1,
    "gothic":1,
    "cook":1,
    "book":1,
    "stephen":1,
    "king":1,
    "supposedly":1,
    "student":1,
    "hadyou":1,
    "pen":1,
    "mrs":1,
    "kidding":1,
    "mom":1,
    "terrific":1,
    "stupid":1,
    "members":1,
    "cute":1,
    "their":1,
    "twenties":1,
    "usespecially":1,
    "cost":1,
    "thousand":1,
    "bucks":1,
    "bought":1,
    "part":1,
    "college":1,
    "fund":1,
    "seniors":1,
    "allowed":1,
    "turned":1,
    "diploma":1,
    "rescinded":1,
    "39":1,
    "average":1,
    "fiftyfive":1,
    "car":1,
    "yesterday":1,
    "missed":1,
    "appointment":1,
    "deal":1,
    "bruised":1,
    "arm":1,
    "today":1,
    "suitcase":1,
    "saw":1,
    "pack":1,
    "mysteriously":1,
    "disappears":1,
    "en":1,
    "route":1,
    "perfectly":1,
    "prick":1,
    "improvise":1,
    "checked":1,
    "miller":1,
    "donaldson":1,
    "showed":1,
    "concerned":1,
    "probably":1,
    "explore":1,
    "rather":1,
    "someone":1,
    "neither":1,
    "decide":1,
    "stable":1,
    "legal":1,
    "guardian":1,
    "discussion":1,
    "beginning":1,
    "dizzy":1,
    "brow":1,
    "gangway":1,
    "single":1,
    "lines":1,
    "beauty":1,
    "retired":1,
    "navy":1,
    "generous":1,
    "twenty":1,
    "need":1,
    "skeleton":1,
    "pleasure":1,
    "sail":1,
    "winning":1,
    "intramural":1,
    "diving":1,
    "championships":1,
    "proud":1,
    "actually":1,
    "honors":1,
    "relinquishing":1,
    "command":1,
    "helm":1,
    "sextant":1,
    "goddamn":1,
    "computers":1,
    "work":1,
    "plan":1,
    "forward":1,
    "180":1,
    "forgetting":1,
    "foggy":1,
    "send":1,
    "maritime":1,
    "signal":1,
    "vessel":1,
    "backing":1,
    "security":1,
    "broadcast":1,
    "warning":1,
    "doomed":1,
    "werent":1,
    "present":1,
    "dumb":1,
    "seanits":1,
    "hike":1,
    "father":1,
    "looking":1,
    "tonight":1,
    "making":1,
    "put":1,
    "land":1,
    "knew":1,
    "yourself":1,
    "found":1,
    "facing":1,
    "fear":1,
    "always":1,
    "conquer":1,
    "awesome":1,
    "through":1,
    "below":1,
    "supreme":1,
    "concert":1,
    "hall":1,
    "echo":1,
    "basement":1,
    "surebut":1,
    "shockumentary":1,
    "footage":1,
    "scam":1,
    "long":1,
    "known":1,
    "dweeb":1,
    "interested":1,
    "user":1,
    "sexy":1,
    "guitar":1,
    "catch":1,
    "aching":1,
    "video":1,
    "thinktime":1,
    "agree":1,
    "muscular":1,
    "bod":1,
    "undefeated":1,
    "consider":1,
    "black":1,
    "minded":1,
    "sort":1,
    "stepmom":1,
    "couldnt":1,
    "fit":1,
    "gorgeous":1,
    "guy":1,
    "oclock":1,
    "sensual":1,
    "recreational":1,
    "activity":1,
    "girl":1,
    "sounds":1,
    "court":1,
    "kinds":1,
    "joking":1,
    "motivating":1,
    "downstairs":1,
    "predictions":1,
    "hasnt":1,
    "futures":1,
    "lightweightthis":1,
    "dollar":1,
    "toot":1,
    "lose":1,
    "science":1,
    "scholarship":1,
    "prom":1,
    "queen":1,
    "realize":1,
    "many":1,
    "sitting":1,
    "grad":1,
    "whole":1,
    "uptight":1,
    "unbelievable":1,
    "scared":1,
    "space":1,
    "cadet":1,
    "wonder":1,
    "shell":1,
    "narc":1,
    "creative":1,
    "writing":1,
    "fairly":1,
    "related":1,
    "using":1,
    "exploring":1,
    "i11":1,
    "exactly":1,
    "fifteen":1,
    "phoning":1,
    "town":1,
    "remain":1,
    "classmates":1,
    "sights":1,
    "covered":1,
    "narcing":1,
    "different":1,
    "matter":1,
    "rumor":1,
    "teensy":1,
    "bit":1,
    "poetry":1,
    "motion":1,
    "halftwist":1,
    "short":1,
    "hone":1,
    "dive":1,
    "tobys":1,
    "having":1,
    "fun":1,
    "yeaha":1,
    "detect":1,
    "hint":1,
    "ingenuousness":1,
    "tone":1,
    "words":1,
    "level":1,
    "wow":1,
    "earth":1,
    "swear":1,
    "happened":1,
    "truly":1,
    "waiters":1,
    "pass":1,
    "butwait":1,
    "bring":1,
    "towel":1,
    "gathered":1,
    "skiing":1,
    "broke":1,
    "left":1,
    "leg":1,
    "winters":1,
    "snow":1,
    "againbut":1,
    "solution":1,
    "kept":1,
    "eluding":1,
    "bone":1,
    "simple":1,
    "whenever":1,
    "tries":1,
    "four":1,
    "agoat":1,
    "spent":1,
    "few":1,
    "summers":1,
    "inbetween":1,
    "boarding":1,
    "passed":1,
    "normal":1,
    "figure":1,
    "born":1,
    "name":1,
    "easy":1,
    "job":1,
    "supervising":1,
    "herboth":1,
    "justleave":1,
    "mood":1,
    "stall":1,
    "tactics":1,
    "wouldnt":1,
    "glass":1,
    "champagne":1,
    "alcohol":1,
    "packed":1,
    "return":1,
    "closer":1,
    "labeled":1,
    "organs":1,
    "correctly":1,
    "spend":1,
    "next":1,
    "classroom":1,
    "attending":1,
    "film":1,
    "both":1,
    "sound":1,
    "supremely":1,
    "lamebut":1,
    "hots":1,
    "sophomore":1,
    "chat":1,
    "pressed":1,
    "okey":1,
    "doke":1,
    "camerawork":1,
    "pleaseplease":1,
    "kick":1,
    "stablilizers":1,
    "seas":1,
    "quarter":1,
    "activating":1,
    "comfort":1,
    "mode":1,
    "olds":1,
    "nineteen":1,
    "months":1,
    "tremendous":1,
    "advice":1,
    "salty":1,
    "hard":1,
    "approaching":1,
    "suggests":1,
    "secure":1,
    "main":1,
    "doublecheck":1,
    "stations":1,
    "completing":1,
    "against":1,
    "stands":1,
    "convince":1,
    "expectations":1,
    "anywayso":1,
    "jesusdad":1,
    "heshes":1,
    "ronnie":1,
    "feeling":1,
    "appreciate":1,
    "jamming":1,
    "repeat":1,
    "meet":1,
    "fuck":1,
    "walk":1,
    "wish":1,
    "joke":1,
    "knowweve":1,
    "alls":1,
    "guiding":1,
    "lower":1,
    "drift":1,
    "further":1,
    "bowfront":1,
    "hoist":1,
    "side":1,
    "lowers":1,
    "pleasecan":1,
    "working":1,
    "channel":1,
    "16the":1,
    "distress":1,
    "frequency":1,
    "maydaythis":1,
    "dallas":1,
    "nature":1,
    "chief":1,
    "engineer":1,
    "theyve":1,
    "beentheyre":1,
    "location":1,
    "equipped":1,
    "omega":1,
    "satellite":1,
    "navigation":1,
    "digital":1,
    "printout":1,
    "latitude":1,
    "longitude":1,
    "coordinates":1,
    "numbers":1,
    "sec":1,
    "demand":1,
    "wheres":1,
    "itsdead":1,
    "ones":1,
    "thirty":1,
    "killer":1,
    "whos":1,
    "lunatic":1,
    "spouting":1,
    "boarded":1,
    "coincidence":1,
    "prove":1,
    "corpses":1,
    "bodies":1,
    "regroup":1,
    "finds":1,
    "nosuch":1,
    "watch":1,
    "mouth":1,
    "charge":1,
    "schools":1,
    "christwheres":1,
    "shesshes":1,
    "easier":1,
    "murderer":1,
    "loose":1,
    "pa":1,
    "system":1,
    "captains":1,
    "murdered":1,
    "buzz":1,
    "jasonvoorhees":1,
    "losing":1,
    "sleep":1,
    "asking":1,
    "dude":1,
    "wise":1,
    "whered":1,
    "worried":1,
    "should":1,
    "listening":1,
    "middle":1,
    "makes":1,
    "whatsoever":1,
    "managed":1,
    "scrounge":1,
    "hallways":1,
    "grab":1,
    "taking":1,
    "possibility":1,
    "gun":1,
    "refuse":1,
    "discuss":1,
    "notion":1,
    "ghoul":1,
    "terrorizing":1,
    "seeing":1,
    "beenimagining":1,
    "request":1,
    "happens":1,
    "control":1,
    "reef":1,
    "collide":1,
    "shipwe":1,
    "weeks":1,
    "spotted":1,
    "locked":1,
    "chrissakes":1,
    "hed":1,
    "operate":1,
    "workedwere":1,
    "shut":1,
    "possibly":1,
    "person":1,
    "doubt":1,
    "much":1,
    "exists":1,
    "common":1,
    "causes":1,
    "panicthe":1,
    "same":1,
    "kind":1,
    "caused":1,
    "suggesting":1,
    "fires":1,
    "upper":1,
    "window":1,
    "assess":1,
    "damage":1,
    "act":1,
    "sink":1,
    "lights":1,
    "kicked":1,
    "lifeboats":1,
    "gotten":1,
    "hurryplease":1,
    "set":1,
    "word":1,
    "woman":1,
    "jasonhe":1,
    "hoists":1,
    "sweetheart":1,
    "pleasefor":1,
    "onfaster":1,
    "rowing":1,
    "shore":1,
    "wake":1,
    "ladder":1,
    "choice":1,
    "places":1,
    "aint":1,
    "gangbangers":1,
    "split":1,
    "cover":1,
    "ground":1,
    "idea":1,
    "nieces":1,
    "hangs":1,
    "balance":1,
    "second":1,
    "counts":1,
    "casbah":1,
    "combos":1,
    "feet":1,
    "light":1,
    "shot":1,
    "renniewhatd":1,
    "freeze":1,
    "apologies":1,
    "units":1,
    "lass":1,
    "isjason":1,
    "corpse":1,
    "phantasm":1,
    "believing":1,
    "tale":1,
    "honest":1,
    "folks":1,
    "inclined":1,
    "pop":1,
    "backup":1,
    "handles":1,
    "gods":1,
    "sake":1,
    "slow":1,
    "day":1,
    "perfect":1,
    "lady":1,
    "promise":1,
    "swimming":1,
    "lesson":1,
    "falls":1,
    "am":1,
    "drags":1,
    "pushed":1,
    "teach":1,
    "pulled":1,
    "saved":1,
    "youarenot":1,
    "bad":1,
    "news":1,
    "killed":1,
    "auto":1,
    "seems":1,
    "ends":1,
    "pal":1,
    "godplease":1,
    "meat":1,
    "slime":1,
    "bag":1,
    "hurry":1,
    "maniac":1,
    "toxic":1,
    "sewer":1,
    "floods":1,
    "stuff":1,
    "13th":1,
    "month":1,
    "midnight":1,
    "follow":1,
    "run":1,
    "mmmmmmmmmommydont":1,
    "drown":1,
    "mommy":1,
    "feel":2,
    "five":2,
    "graduation":2,
    "being":2,
    "whatever":2,
    "excellent":2,
    "anchor":2,
    "jimmy":2,
    "those":2,
    "place":2,
    "mind":2,
    "guys":2,
    "somewhere":2,
    "bottom":2,
    "believe":2,
    "drowned":2,
    "crystal":2,
    "counselors":2,
    "went":2,
    "people":2,
    "theyre":2,
    "graduating":2,
    "class":2,
    "doors":2,
    "ass":2,
    "must":2,
    "remember":2,
    "girls":2,
    "shuffleboard":2,
    "understood":2,
    "game":2,
    "lot":2,
    "gonna":2,
    "such":2,
    "wolfe":2,
    "mistake":2,
    "accordingly":2,
    "which":2,
    "cabin":2,
    "changed":2,
    "into":2,
    "protocol":2,
    "after":2,
    "personal":2,
    "experiences":2,
    "fuel":2,
    "writers":2,
    "made":2,
    "felt":2,
    "used":2,
    "say":2,
    "gift":2,
    "hi":2,
    "watanabe":2,
    "anything":2,
    "crew":2,
    "getting":2,
    "party":2,
    "daddy":2,
    "final":2,
    "congratulations":2,
    "brought":2,
    "along":2,
    "truth":2,
    "sent":2,
    "dock":2,
    "everyone":2,
    "than":2,
    "running":2,
    "late":2,
    "wants":2,
    "needs":2,
    "live":2,
    "end":2,
    "meim":2,
    "sir":2,
    "admiral":2,
    "shouldve":2,
    "ago":2,
    "speak":2,
    "leave":2,
    "age":2,
    "engines":2,
    "degrees":2,
    "weather":2,
    "international":2,
    "followed":2,
    "ships":2,
    "voyage":2,
    "beautiful":2,
    "top":2,
    "statue":2,
    "22":2,
    "guess":2,
    "predicted":2,
    "push":2,
    "axe":2,
    "lie":2,
    "shoot":2,
    "tape":2,
    "sos":2,
    "asshole":2,
    "calm":2,
    "wasnt":2,
    "shit":2,
    "pay":2,
    "niece":2,
    "shown":2,
    "true":2,
    "night":2,
    "caught":2,
    "eva":2,
    "jesus":2,
    "dog":2,
    "hit":2,
    "nice":2,
    "nobody":2,
    "youd":2,
    "while":2,
    "relax":2,
    "bitch":2,
    "certainly":2,
    "seem":2,
    "finally":2,
    "lessons":2,
    "broken":2,
    "near":2,
    "pull":2,
    "able":2,
    "setting":2,
    "foot":2,
    "until":2,
    "sweet":2,
    "try":2,
    "together":2,
    "okayyoure":2,
    "carlson":2,
    "bridge":2,
    "lifeboat":2,
    "cutter":2,
    "question":2,
    "quick":2,
    "possible":2,
    "happening":2,
    "gone":2,
    "anymore":2,
    "anchors":2,
    "christ":2,
    "somebody":2,
    "loran":2,
    "insane":2,
    "walks":2,
    "walking":2,
    "motherfucker":2,
    "dropping":2,
    "trouble":2,
    "hip":2,
    "said":2,
    "sense":2,
    "nothin":2,
    "least":2,
    "ridiculous":2,
    "another":2,
    "alarm":2,
    "damn":2,
    "panic":2,
    "rule":2,
    "wait":2,
    "jasons":2,
    "soon":2,
    "phone":2,
    "hurt":2,
    "welcome":2,
    "keep":2,
    "thank":2,
    "learned":2,
    "waste":2,
    "gotta":3,
    "cmon":3,
    "summer":3,
    "took":3,
    "worry":3,
    "suzy":3,
    "none":3,
    "started":3,
    "death":3,
    "forget":3,
    "wont":3,
    "check":3,
    "jim":3,
    "stop":3,
    "three":3,
    "risk":3,
    "stateroom":3,
    "already":3,
    "departure":3,
    "let":3,
    "minds":3,
    "wonderful":3,
    "senior":3,
    "open":3,
    "ever":3,
    "less":3,
    "biology":3,
    "done":3,
    "two":3,
    "minute":3,
    "each":3,
    "else":3,
    "alone":3,
    "ten":3,
    "give":3,
    "ruby":3,
    "these":3,
    "arent":3,
    "didnt":3,
    "maybe":3,
    "supposed":3,
    "tall":3,
    "staying":3,
    "deusen":3,
    "power":3,
    "still":3,
    "trying":3,
    "attention":3,
    "deck":3,
    "anywhere":3,
    "case":3,
    "ready":3,
    "drugs":3,
    "better":3,
    "water":3,
    "yet":3,
    "told":3,
    "friend":3,
    "dear":3,
    "kids":3,
    "fault":3,
    "die":3,
    "year":3,
    "coast":3,
    "guard":3,
    "answer":3,
    "ii":3,
    "indeed":3,
    "fire":3,
    "understand":3,
    "others":3,
    "climb":3,
    "police":3,
    "tell":4,
    "heard":4,
    "then":4,
    "again":4,
    "last":4,
    "high":4,
    "anyway":4,
    "major":4,
    "telling":4,
    "boat":4,
    "more":4,
    "everything":4,
    "since":4,
    "van":4,
    "cruise":4,
    "use":4,
    "hello":4,
    "love":4,
    "mason":4,
    "big":4,
    "course":4,
    "other":4,
    "doesnt":4,
    "life":4,
    "either":4,
    "hhhhelp":4,
    "fine":4,
    "miles":4,
    "son":4,
    "princess":4,
    "captain":4,
    "later":4,
    "storm":4,
    "afraid":4,
    "cool":4,
    "jj":4,
    "julius":4,
    "might":4,
    "thanks":4,
    "sorry":4,
    "talk":4,
    "young":4,
    "call":4,
    "emergency":4,
    "help":4,
    "radio":4,
    "enough":4,
    "safe":4,
    "hhhhelpme":4,
    "wrong":5,
    "nothing":5,
    "old":5,
    "murders":5,
    "stories":5,
    "who":5,
    "years":5,
    "kill":5,
    "them":5,
    "came":5,
    "every":5,
    "start":5,
    "good":5,
    "isnt":5,
    "youll":5,
    "board":5,
    "york":5,
    "stay":5,
    "make":5,
    "dad":5,
    "decided":5,
    "uncle":5,
    "little":5,
    "havent":5,
    "best":5,
    "anybody":5,
    "yes":5,
    "problem":5,
    "project":5,
    "had":5,
    "accident":5,
    "our":5,
    "home":5,
    "id":5,
    "could":5,
    "why":5,
    "parents":5,
    "first":5,
    "seen":5,
    "swim":5,
    "god":5,
    "very":5,
    "as":5,
    "mayday":5,
    "please":5,
    "minutes":6,
    "talking":6,
    "lake":6,
    "drowning":6,
    "they":6,
    "his":6,
    "will":6,
    "coming":6,
    "robertson":6,
    "too":6,
    "youve":6,
    "way":6,
    "before":6,
    "something":6,
    "yeah":6,
    "like":6,
    "wayne":6,
    "care":6,
    "would":6,
    "away":6,
    "around":7,
    "dead":7,
    "boy":7,
    "when":7,
    "mean":7,
    "new":7,
    "school":7,
    "well":7,
    "look":7,
    "hey":7,
    "toby":7,
    "whats":8,
    "where":8,
    "him":8,
    "by":8,
    "thought":8,
    "any":8,
    "real":8,
    "hear":8,
    "really":8,
    "room":8,
    "hell":8,
    "how":8,
    "doing":8,
    "oh":8,
    "over":9,
    "at":9,
    "voorhees":9,
    "mcculloch":9,
    "ive":9,
    "miss":9,
    "go":9,
    "tamara":9,
    "see":9,
    "even":9,
    "lets":10,
    "from":10,
    "sean":10,
    "or":10,
    "only":10,
    "cant":10,
    "find":10,
    "did":11,
    "time":11,
    "mr":11,
    "take":11,
    "man":11,
    "hes":11,
    "got":12,
    "off":12,
    "one":12,
    "an":12,
    "thing":12,
    "charles":12,
    "shes":12,
    "down":12,
    "thats":13,
    "has":13,
    "back":13,
    "been":13,
    "sure":13,
    "if":13,
    "want":14,
    "all":14,
    "never":14,
    "there":14,
    "she":14,
    "ill":14,
    "now":15,
    "were":15,
    "know":15,
    "everybody":15,
    "some":15,
    "come":15,
    "theres":16,
    "okay":16,
    "was":16,
    "jason":16,
    "so":16,
    "us":16,
    "ship":16,
    "up":17,
    "out":17,
    "he":17,
    "her":18,
    "think":18,
    "here":19,
    "":20,
    "going":20,
    "with":21,
    "my":21,
    "just":22,
    "youre":22,
    "can":22,
    "get":23,
    "right":24,
    "about":27,
    "not":27,
    "rennie":28,
    "are":28,
    "no":29,
    "be":29,
    "but":31,
    "your":32,
    "we":33,
    "dont":33,
    "do":34,
    "for":34,
    "have":34,
    "on":35,
    "me":37,
    "im":37,
    "its":40,
    "of":44,
    "that":47,
    "what":49,
    "this":51,
    "is":51,
    "in":55,
    "and":58,
    "it":59,
    "a":91,
    "to":109,
    "i":115,
    "the":135,
    "you":143
}