{
    "break":1,
    "pours":1,
    "hot":1,
    "styrofoam":1,
    "coworker":1,
    "new":1,
    "york":1,
    "dehydrated":1,
    "japanese":1,
    "fluorescent":1,
    "lights":1,
    "question":1,
    "perfect":1,
    "problem":1,
    "date":1,
    "saturday":1,
    "expression":1,
    "rachels":1,
    "eating":1,
    "chinese":1,
    "food":1,
    "recounting":1,
    "earlier":1,
    "event":1,
    "enjoy":1,
    "ramen":1,
    "after":1,
    "but":1,
    "spent":1,
    "phoebes":1,
    "birthday":1,
    "breasts":1,
    "figured":1,
    "huh":1,
    "either":1,
    "fascinating":1,
    "dunno":1,
    "smart":1,
    "funny":1,
    "hello":1,
    "beeped":1,
    "corridor":1,
    "seating":1,
    "outside":1,
    "parents":1,
    "sitting":1,
    "sister":1,
    "hurry":1,
    "doctor":1,
    "says":1,
    "matter":1,
    "hours":1,
    "different":1,
    "nothing":1,
    "unbelievable":1,
    "relax":1,
    "moment":1,
    "gross":1,
    "ohh":1,
    "always":1,
    "them":1,
    "least":1,
    "poppop":1,
    "phyllis":1,
    "goodbye":1,
    "bye":1,
    "leans":1,
    "stirs":1,
    "jump":1,
    "sticks":1,
    "sn":1,
    "hurries":1,
    "said":1,
    "had":1,
    "quite":1,
    "yjfflf\u2122":1,
    "hanging":1,
    "working":1,
    "others":1,
    "fed":1,
    "sucks":1,
    "cause":1,
    "debbie":1,
    "best":1,
    "friend":1,
    "junior":1,
    "high":1,
    "got":1,
    "struck":1,
    "by":1,
    "lightning":1,
    "miniature":1,
    "golf":1,
    "course":1,
    "pheebs":1,
    "thanks":1,
    "sharpened":1,
    "believe":1,
    "any":1,
    "when":1,
    "thought":1,
    "closed":1,
    "casket":1,
    "doesnt":1,
    "cant":1,
    "open":1,
    "walkin":1,
    "surveys":1,
    "task":1,
    "hoists":1,
    "himself":1,
    "over":1,
    "lands":1,
    "crash":1,
    "inside":1,
    "heres":1,
    "retainer":1,
    "jrn":1,
    "buried":1,
    "sea":1,
    "define":1,
    "flk":1,
    "boat":1,
    "pack":1,
    "throw":1,
    "body":1,
    "probably":1,
    "theyll":1,
    "nods":1,
    "fridge":1,
    "sorry":1,
    "yesterday":1,
    "shame":1,
    "brian":1,
    "brians":1,
    "excuse":1,
    "still":1,
    "several":1,
    "dresses":1,
    "spread":1,
    "choice":1,
    "digests":1,
    "shoe":1,
    "everyone":1,
    "else11":1,
    "dressier":1,
    "could":1,
    "something":1,
    "slimmer":1,
    "heel":1,
    "everything":1,
    "dressed":1,
    "occasion":1,
    "finish":1,
    "ready":1,
    "wears":1,
    "suit":1,
    "already":1,
    "called":1,
    "remind":1,
    "wear":1,
    "hair":1,
    "some":1,
    "days":1,
    "enter":1,
    "ext":1,
    "cemetery":1,
    "close":1,
    "walk":1,
    "gingerly":1,
    "mud":1,
    "pull":1,
    "reveal":1,
    "grave":1,
    "comes":1,
    "service":1,
    "tears":1,
    "their":1,
    "sweetheart":1,
    "gives":1,
    "hug":1,
    "wipes":1,
    "tear":1,
    "eye":1,
    "start":1,
    "using":1,
    "cream":1,
    "moves":1,
    "leaving":1,
    "stunned":1,
    "meanwhile":1,
    "together":1,
    "puts":1,
    "coat":1,
    "fiddles":1,
    "sound":1,
    "stops":1,
    "stares":1,
    "football":1,
    "man":1,
    "lets":1,
    "\u00abp=n":1,
    "living":1,
    "postfuneral":1,
    "reception":1,
    "underway":1,
    "mingling":1,
    "pan":1,
    "floor":1,
    "laid":1,
    "pillow":1,
    "taken":1,
    "charge":1,
    "lower":1,
    "fgm":1,
    "ow":1,
    "sweetie":1,
    "moved":1,
    "buffet":1,
    "tongs":1,
    "does":1,
    "extremely":1,
    "young":1,
    "first":1,
    "fifis":1,
    "across":1,
    "tucked":1,
    "near":1,
    "large":1,
    "plant":1,
    "earphone":1,
    "ear":1,
    "surreptitiously":1,
    "glances":1,
    "jacket":1,
    "approaches":1,
    "hides":1,
    "tv":1,
    "jfr":1,
    "disability":1,
    "score":1,
    "seventeen":1,
    "fourteen":1,
    "three":1,
    "minutes":1,
    "go":1,
    "third":1,
    "men":1,
    "joeys":1,
    "intent":1,
    "rooting":1,
    "dwindled":1,
    "many":1,
    "guests":1,
    "left":1,
    "grandmother":1,
    "hated":1,
    "sure":1,
    "being":1,
    "didnt":1,
    "honey":1,
    "glazed":1,
    "whatits":1,
    "grow":1,
    "someone":1,
    "critical":1,
    "single":1,
    "imagine":1,
    "telling":1,
    "turned":1,
    "positive":1,
    "lifeaffirming":1,
    "person":1,
    "drove":1,
    "crazy":1,
    "picking":1,
    "detail":1,
    "ifv":1,
    "things":1,
    "wouldve":1,
    "been":1,
    "better":1,
    "if":1,
    "youd":1,
    "told":1,
    "truth":1,
    "theres":1,
    "beat":1,
    "considers":1,
    "clearly":1,
    "aware":1,
    "finally":1,
    "lovely":1,
    "actually":1,
    "women":1,
    "smile":1,
    "depressed":1,
    "turns":1,
    "even":1,
    "than":1,
    "box":1,
    "photographs":1,
    "holds":1,
    "shows":1,
    "hye":1,
    "people":1,
    "middle":1,
    "1939":1,
    "twentyfour":1,
    "twentyfive":1,
    "gang":1,
    "stare":1,
    "photograph":1,
    "other":1,
    "pause":1,
    "sofa":1,
    "lowell":1,
    "financial":1,
    "services":1,
    "mardi":1,
    "gras":1,
    "without":1,
    "papier":1,
    "mache":1,
    "bout":1,
    "tell":1,
    "pretty":1,
    "much":1,
    "yup":1,
    "end":1,
    "show":1,
    "water":2,
    "into":2,
    "cup":2,
    "shelly":2,
    "attractive":2,
    "gorgeous":2,
    "noodles":2,
    "ah":2,
    "might":2,
    "want":2,
    "please":2,
    "apartment":2,
    "um":2,
    "entire":2,
    "party":2,
    "maybe":2,
    "quality":2,
    "dad":2,
    "make":2,
    "quick":2,
    "hospital":2,
    "small":2,
    "area":2,
    "lillian":2,
    "ad":2,
    "lib":2,
    "hellos":2,
    "hugs":2,
    "hows":2,
    "doing":2,
    "mom":2,
    "stealing":2,
    "restaurants":2,
    "woman":2,
    "bed":2,
    "heads":2,
    "head":2,
    "ill":2,
    "off":2,
    "may":2,
    "died":2,
    "looking":2,
    "coffee":2,
    "house":2,
    "urn":2,
    "twice":2,
    "guys":2,
    "gone":2,
    "dead":2,
    "bedroom":2,
    "mother":2,
    "mean":2,
    "nice":2,
    "furniture":2,
    "why":2,
    "cut":2,
    "come":2,
    "youll":2,
    "lunch":2,
    "say":2,
    "id":2,
    "getting":2,
    "worry":2,
    "league":2,
    "fine":2,
    "wait":2,
    "where":2,
    "dear":2,
    "earrings":2,
    "shoes":2,
    "mourners":2,
    "through":2,
    "walking":2,
    "away":2,
    "beautiful":2,
    "both":2,
    "eyes":2,
    "hands":2,
    "pocket":2,
    "watching":2,
    "frightening":2,
    "cry":2,
    "down":2,
    "friends":2,
    "around":2,
    "reaches":2,
    "ham":2,
    "an":2,
    "whos":2,
    "wow":2,
    "two":2,
    "watchman":2,
    "hearing":2,
    "giants":2,
    "would":2,
    "who":2,
    "every":2,
    "thing":2,
    "wonder":2,
    "wine":2,
    "long":2,
    "more":2,
    "those":2,
    "naked":2,
    "guy":2,
    "good":2,
    "snack":3,
    "chandlers":3,
    "office":3,
    "enters":3,
    "under":3,
    "yes":3,
    "gathered":3,
    "did":3,
    "talking":3,
    "god":3,
    "rome":3,
    "monicas":3,
    "jack":3,
    "aunt":3,
    "judys":3,
    "whats":3,
    "sudden":3,
    "nurse":3,
    "uh":3,
    "passed":3,
    "were":3,
    "phoebe":3,
    "hi":3,
    "morning":3,
    "nanas":3,
    "time":3,
    "closet":3,
    "next":3,
    "one":3,
    "funeral":3,
    "for":3,
    "quickly":3,
    "game":3,
    "great":3,
    "has":3,
    "fun":4,
    "hey":4,
    "okay":4,
    "f":4,
    "\u2014":4,
    "right":4,
    "looks":4,
    "here":4,
    "youre":4,
    "same":4,
    "they":4,
    "him":4,
    "see":5,
    "do":5,
    "night":5,
    "group":5,
    "can":5,
    "from":5,
    "as":5,
    "its":5,
    "was":5,
    "now":5,
    "nana":5,
    "back":5,
    "get":5,
    "going":5,
    "rachel":5,
    "thats":5,
    "look":5,
    "we":5,
    "little":5,
    "fade":6,
    "then":6,
    "my":6,
    "well":6,
    "your":6,
    "later":6,
    "judy":6,
    "dissolve":6,
    "joey":6,
    "up":6,
    "like":6,
    "im":6,
    "about":6,
    "how":7,
    "me":7,
    "just":7,
    "there":7,
    "really":7,
    "think":7,
    "room":8,
    "day":8,
    "he":8,
    "be":8,
    "yeah":8,
    "so":8,
    "no":8,
    "shes":8,
    "her":8,
    "with":8,
    "all":8,
    "have":8,
    "his":8,
    "at":10,
    "this":10,
    "know":10,
    "dont":10,
    "chandler":11,
    "on":11,
    "out":11,
    "what":11,
    "ross":11,
    "not":12,
    "it":12,
    "int":13,
    "she":14,
    "monica":15,
    "oh":15,
    "are":15,
    "that":16,
    "of":18,
    "":19,
    "in":22,
    "to":24,
    "i":24,
    "you":25,
    "is":27,
    "and":28,
    "a":44,
    "the":58
}