{
    "gunnery":1,
    "hartman":1,
    "speak":1,
    "spoken":1,
    "filthy":1,
    "sewers":1,
    "survive":1,
    "recruit":1,
    "training":1,
    "minister":1,
    "praying":1,
    "lowest":1,
    "form":1,
    "earth":1,
    "unorganized":1,
    "grabasstic":1,
    "pieces":1,
    "amphibian":1,
    "scroungy":1,
    "worm":1,
    "admire":1,
    "honesty":1,
    "house":1,
    "laugh":1,
    "cry":1,
    "numbers":1,
    "unfuck":1,
    "unscrew":1,
    "neck":1,
    "convince":1,
    "aaaaaaaaaaaaaaaaagh":1,
    "scare":1,
    "work":1,
    "asking":1,
    "questions":1,
    "shook":1,
    "stacked":1,
    "squeeze":1,
    "inch":1,
    "somewhere":1,
    "ran":1,
    "crack":1,
    "mamas":1,
    "ended":1,
    "stain":1,
    "mattress":1,
    "cheated":1,
    "dogshit":1,
    "steers":1,
    "queers":1,
    "peterpuffer":1,
    "person":1,
    "common":1,
    "courtesy":1,
    "reach":1,
    "parents":1,
    "lived":1,
    "regret":1,
    "modern":1,
    "art":1,
    "masterpiece":1,
    "arabia":1,
    "sounds":1,
    "dicks":1,
    "golf":1,
    "garden":1,
    "hose":1,
    "faggots":1,
    "sailors":1,
    "called":1,
    "cute":1,
    "funny":1,
    "sweetheart":1,
    "secondsexcactly":1,
    "secondsto":1,
    "stupidlooking":1,
    "gouge":1,
    "eyeballs":1,
    "skullfuck":1,
    "knees":1,
    "lean":1,
    "forward":1,
    "offlike":1,
    "blueballs":1,
    "crabs":1,
    "sevenyear":1,
    "itch":1,
    "momentarily":1,
    "places":1,
    "immediately":1,
    "corrects":1,
    "dumb":1,
    "expect":1,
    "purpose":1,
    "different":1,
    "tonight":1,
    "girls":1,
    "fingerbanging":1,
    "pray":1,
    "friend":1,
    "daddys":1,
    "shotgun":1,
    "negotiate":1,
    "swinging":1,
    "dick":1,
    "pla":1,
    "toons":1,
    "graduate":1,
    "lines":1,
    "turn":1,
    "hurry":1,
    "aaaaaaaaaaaaagh":1,
    "effort":1,
    "miracled":1,
    "anyway":1,
    "couldnt":1,
    "pounds":1,
    "chewed":1,
    "bubble":1,
    "gum":1,
    "guess":1,
    "theirs":1,
    "single":1,
    "worthless":1,
    "climb":1,
    "obstacles":1,
    "slow":1,
    "fall":1,
    "break":1,
    "quitting":1,
    "walruslooking":1,
    "rip":1,
    "contaminate":1,
    "motivate":1,
    "pickem":1,
    "setem":1,
    "elbows":1,
    "drop":1,
    "cocks":1,
    "grab":1,
    "socks":1,
    "sunday":1,
    "divine":1,
    "worship":1,
    "zeroeighthundred":1,
    "uniforms":1,
    "police":1,
    "commence":1,
    "minutes":1,
    "soon":1,
    "finish":1,
    "turds":1,
    "sanitary":1,
    "squared":1,
    "herself":1,
    "proud":1,
    "dump":1,
    "correctly":1,
    "communist":1,
    "heathen":1,
    "stomp":1,
    "offend":1,
    "believes":1,
    "gives":1,
    "harder":1,
    "reverses":1,
    "bunk":1,
    "pee":1,
    "silly":1,
    "ignorant":1,
    "patiently":1,
    "explains":1,
    "disassembly":1,
    "goes":1,
    "receiver":1,
    "handle":1,
    "guide":1,
    "leg":1,
    "breathes":1,
    "heavily":1,
    "scared":1,
    "manages":1,
    "congratulations":1,
    "fold":1,
    "blanket":1,
    "sheet":1,
    "uncertainly":1,
    "works":1,
    "manual":1,
    "arms":1,
    "deadliest":1,
    "ma":1,
    "rine":1,
    "instinct":1,
    "uncle":1,
    "sam":1,
    "united":1,
    "states":1,
    "trim":1,
    "toejam":1,
    "h":1,
    "christ":1,
    "wasnt":1,
    "dickheads":1,
    "thievery":1,
    "mess":1,
    "hall":1,
    "allowed":1,
    "doughnuts":1,
    "heavy":1,
    "hide":1,
    "mouth":1,
    "paying":1,
    "exercise":1,
    "nobody":1,
    "making":1,
    "mistakes":1,
    "trouble":1,
    "tuck":1,
    "shirt":1,
    "turo":1,
    "nineteen":1,
    "twentyone":1,
    "twentytwo":1,
    "twentythree":1,
    "twentyfour":1,
    "twntysix":1,
    "twentyseven":1,
    "twentyeight":1,
    "helpless":1,
    "dream":1,
    "makes":1,
    "grow":1,
    "living":1,
    "none":1,
    "dumbasses":1,
    "austin":1,
    "affirmative":1,
    "whitman":1,
    "twentyeightstorey":1,
    "observation":1,
    "university":1,
    "distances":1,
    "yards":1,
    "lee":1,
    "harvey":1,
    "oswald":1,
    "kennedy":1,
    "book":1,
    "suppository":1,
    "building":1,
    "knock":1,
    "magic":1,
    "zeroninethirty":1,
    "chaplain":1,
    "swabbed":1,
    "wiped":1,
    "beautiful":1,
    "slides":1,
    "perfectly":1,
    "nice":1,
    "cleaned":1,
    "oiled":1,
    "talks":1,
    "anymore":1,
    "leonards":1,
    "section":1,
    "eight":1,
    "surprise":1,
    "slip":1,
    "tubesteak":1,
    "whatll":1,
    "weve":1,
    "finally":1,
    "found":1,
    "receive":1,
    "pass":1,
    "sentry":1,
    "relieves":1,
    "instructed":1,
    "movement":1,
    "executed":1,
    "idea":1,
    "chamber":1,
    "guarantee":1,
    "giving":1,
    "inspecting":1,
    "post":1,
    "properly":1,
    "relieved":1,
    "charlene":1,
    "may":1,
    "allow":1,
    "serve":1,
    "rifleman":1,
    "graduation":1,
    "recruits":1,
    "thirtyninetytwo":1,
    "salty":1,
    "own":1,
    "longer":1,
    "brotherhood":1,
    "wherever":1,
    "brother":1,
    "adams":1,
    "eighteenhundred":1,
    "engineers":1,
    "mines":1,
    "taylor":1,
    "fortytwotwelve":1,
    "military":1,
    "journalism":1,
    "spillane":1,
    "writer":1,
    "othree":1,
    "perkins":1,
    "draw":1,
    "watch":1,
    "live":1,
    "rounds":1,
    "sevensixtwo":1,
    "millimeter":1,
    "metal":1,
    "jacket":1,
    "duty":1,
    "inform":1,
    "pyie":1,
    "magazine":1,
    "locked":1,
    "andyou":1,
    "deck":1,
    "step":1,
    "major":1,
    "malfunction":1,
    "mommy":1,
    "daddy":1,
    "attention":1,
    "child":1,
    "girlfriend":1,
    "both":1,
    "dollar":1,
    "suckeesuckee":1,
    "allows":1,
    "spend":1,
    "buddy":1,
    "spending":1,
    "hardearned":1,
    "money":1,
    "whores":1,
    "serving":1,
    "viet":1,
    "cong":1,
    "tb":1,
    "cough":1,
    "sucker":1,
    "pisses":1,
    "helping":1,
    "them":1,
    "chance":1,
    "almost":1,
    "months":1,
    "handshake":1,
    "itd":1,
    "fault":1,
    "rotate":1,
    "shell":1,
    "rumor":1,
    "ceasefire":1,
    "cancelled":1,
    "try":1,
    "holiday":1,
    "same":1,
    "lose":1,
    "holidays":1,
    "fourth":1,
    "july":1,
    "rolled":1,
    "lowangle":1,
    "obvious":1,
    "fur":1,
    "early":1,
    "note":1,
    "soldier":1,
    "deserts":1,
    "pamphlets":1,
    "young":1,
    "army":1,
    "fix":1,
    "welk":1,
    "shows":1,
    "dave":1,
    "aftvll":1,
    "background":1,
    "eatingnva":1,
    "mission":1,
    "interrupted":1,
    "eating":1,
    "chow":1,
    "directive":1,
    "maf":1,
    "future":1,
    "ofsearch":1,
    "substitute":1,
    "phrase":1,
    "sweep":1,
    "catchy":1,
    "weenie":1,
    "mustve":1,
    "stories":1,
    "pay":1,
    "buy":1,
    "raining":1,
    "law":1,
    "probability":1,
    "rewrite":1,
    "endingsay":1,
    "sapper":1,
    "which":1,
    "whichever":1,
    "read":1,
    "paper":1,
    "case":1,
    "liked":1,
    "lots":1,
    "bugs":1,
    "dangerous":1,
    "happens":1,
    "present":1,
    "duties":1,
    "rear":1,
    "monkey":1,
    "lunar":1,
    "years":1,
    "eve":1,
    "dogpatch":1,
    "fireworks":1,
    "celebrate":1,
    "bored":1,
    "anger":1,
    "tough":1,
    "hed":1,
    "boogers":1,
    "mans":1,
    "nose":1,
    "bush":1,
    "mamasans":1,
    "legs":1,
    "talk":1,
    "aw":1,
    "operation":1,
    "spanish":1,
    "american":1,
    "poge":1,
    "paybacks":1,
    "shitcause":1,
    "thousandyard":1,
    "beyond":1,
    "black":1,
    "dudes":1,
    "raping":1,
    "chick":1,
    "stork":1,
    "throwem":1,
    "basketball":1,
    "loads":1,
    "hunches":1,
    "main":1,
    "perimeter":1,
    "hope":1,
    "amen":1,
    "troops":1,
    "truck":1,
    "annmargrets":1,
    "straight":1,
    "phu":1,
    "bai":1,
    "captain":1,
    "january":1,
    "damn":1,
    "hows":1,
    "wearing":1,
    "granted":1,
    "vanish":1,
    "rickytick":1,
    "responsible":1,
    "neither":1,
    "fiftyseven":1,
    "water":1,
    "buffaloes":1,
    "themre":1,
    "certified":1,
    "lead":1,
    "thanks":1,
    "named":1,
    "oneone":1,
    "commander":1,
    "mind":1,
    "tag":1,
    "problem":1,
    "aboard":1,
    "walter":1,
    "j":1,
    "mister":1,
    "touchdown":1,
    "played":1,
    "ha":1,
    "happen":1,
    "story":1,
    "lucky":1,
    "condition":1,
    "red":1,
    "expecting":1,
    "rain":1,
    "taking":1,
    "care":1,
    "dug":1,
    "deep":1,
    "companys":1,
    "scuttlebutt":1,
    "heres":1,
    "canal":1,
    "large":1,
    "grave":1,
    "row":1,
    "limecovered":1,
    "corpses":1,
    "official":1,
    "outfit":1,
    "photographers":1,
    "pictures":1,
    "happened":1,
    "seems":1,
    "list":1,
    "government":1,
    "officials":1,
    "armor":1,
    "symbol":1,
    "whered":1,
    "written":1,
    "write":1,
    "wear":1,
    "sick":1,
    "wired":1,
    "together":1,
    "giant":1,
    "standing":1,
    "suggest":1,
    "jungian":1,
    "whose":1,
    "program":1,
    "asked":1,
    "lone":1,
    "ranger":1,
    "happenin":1,
    "hoped":1,
    "id":1,
    "land":1,
    "px":1,
    "sameysame":1,
    "though":1,
    "moms":1,
    "theyll":1,
    "lifetakers":1,
    "heartbreakers":1,
    "correspondent":1,
    "tear":1,
    "pilgrim":1,
    "peanuts":1,
    "under":1,
    "finest":1,
    "needs":1,
    "somebody":1,
    "grenades":1,
    "jungle":1,
    "bunny":1,
    "sickle":1,
    "cell":1,
    "picture":1,
    "guest":1,
    "honor":1,
    "birthday":1,
    "fought":1,
    "million":1,
    "crawls":1,
    "picks":1,
    "roads":1,
    "third":1,
    "team":1,
    "opens":1,
    "windows":1,
    "shots":1,
    "start":1,
    "cameras":1,
    "annmargret":1,
    "rabid":1,
    "buffalo":1,
    "custer":1,
    "wholl":1,
    "play":1,
    "bros":1,
    "least":1,
    "died":1,
    "flush":1,
    "slaughter":1,
    "blown":1,
    "poontang":1,
    "jerkin":1,
    "week":1,
    "navy":1,
    "shrinker":1,
    "crazy":1,
    "fucker":1,
    "jerking":1,
    "room":1,
    "rolling":1,
    "air":1,
    "cav":1,
    "hits":1,
    "fan":1,
    "green":1,
    "killing":1,
    "america":1,
    "belongs":1,
    "um":1,
    "quote":1,
    "lbj":1,
    "personally":1,
    "involved":1,
    "sort":1,
    "gave":1,
    "gookers":1,
    "rather":1,
    "fighting":1,
    "keen":1,
    "fellows":1,
    "meetingem":1,
    "appreciate":1,
    "depends":1,
    "imim":1,
    "photos":1,
    "thick":1,
    "whole":1,
    "send":1,
    "bomb":1,
    "exotic":1,
    "jewel":1,
    "tenhut":1,
    "schoolgirl":1,
    "schoolboy":1,
    "cigarette":1,
    "glad":1,
    "arvn":1,
    "dropped":1,
    "once":1,
    "mounted":1,
    "chrome":1,
    "trailer":1,
    "maam":1,
    "yellow":1,
    "magnificent":1,
    "emjee":1,
    "boogie":1,
    "batting":1,
    "bread":1,
    "dog":1,
    "slaps":1,
    "wrist":1,
    "naughty":1,
    "pushes":1,
    "girl":1,
    "theater":1,
    "wont":1,
    "skip":1,
    "foreplay":1,
    "pulled":1,
    "positions":1,
    "perfume":1,
    "patrol":1,
    "report":1,
    "earl":1,
    "stops":1,
    "childs":1,
    "stuffed":1,
    "toy":1,
    "outboard":1,
    "craze":1,
    "booby":1,
    "trap":1,
    "nco":1,
    "punches":1,
    "reassuringly":1,
    "arm":1,
    "anywhere":1,
    "mistake":1,
    "studies":1,
    "map":1,
    "doesnt":1,
    "either":1,
    "heading":1,
    "eightballs":1,
    "dance":1,
    "nigger":1,
    "behind":1,
    "trigger":1,
    "position":1,
    "klick":1,
    "pos":1,
    "sible":1,
    "strong":1,
    "force":1,
    "occupying":1,
    "buildings":1,
    "request":1,
    "immediate":1,
    "support":1,
    "comes":1,
    "snipers":1,
    "alone":1,
    "bring":1,
    "jumps":1,
    "wall":1,
    "ducking":1,
    "low":1,
    "zig":1,
    "zags":1,
    "ground":1,
    "drags":1,
    "toward":1,
    "save":1,
    "ammo":1,
    "numbnut":1,
    "bastards":1,
    "afford":1,
    "nobodys":1,
    "calling":1,
    "plays":1,
    "shitty":1,
    "refuse":1,
    "accept":1,
    "bringem":1,
    "stand":1,
    "direct":1,
    "aaagh":1,
    "whooo":1,
    "else":1,
    "ohhhh":1,
    "favorite":1,
    "turd":1,
    "ii":1,
    "leaves":1,
    "continue":1,
    "scuttles":1,
    "corner":1,
    "group":1,
    "rockthat":1,
    "trembling":1,
    "against":1,
    "shattered":1,
    "column":1,
    "yo":1,
    "saved":1,
    "blew":1,
    "lifetaker":1,
    "breaker":1,
    "shes":1,
    "outta":1,
    "rot":1,
    "fresh":1,
    "friends":1,
    "running":1,
    "motherlovin":1,
    "rats":1,
    "congressional":1,
    "medal":1,
    "sing":1,
    "song":1,
    "jamboree":1,
    "marching":1,
    "sea":1,
    "thoughts":1,
    "drift":1,
    "erect":1,
    "nipple":1,
    "wet":1,
    "dreams":1,
    "great":1,
    "homecoming":1,
    "fantasy":1,
    "afraid":1,
    "club":1,
    "words":2,
    "maggots":2,
    "pair":2,
    "death":2,
    "pukes":2,
    "life":2,
    "human":2,
    "beings":2,
    "brown":2,
    "comedian":2,
    "learn":2,
    "join":2,
    "aaaaaaaagh":2,
    "charge":2,
    "nervous":2,
    "tall":2,
    "foot":2,
    "nine":2,
    "part":2,
    "goddam":2,
    "watching":2,
    "ugly":2,
    "fatbody":2,
    "royalty":2,
    "ball":2,
    "wipe":2,
    "disgusting":2,
    "grin":2,
    "help":2,
    "numbnuts":2,
    "choke":2,
    "enough":2,
    "mama":2,
    "papa":2,
    "laying":2,
    "pt":2,
    "rising":2,
    "sun":2,
    "till":2,
    "runnings":2,
    "chi":2,
    "minh":2,
    "himself":2,
    "pick":2,
    "sleep":2,
    "rifles":2,
    "days":2,
    "jane":2,
    "rottencrotch":2,
    "mine":2,
    "inches":2,
    "wanted":2,
    "matter":2,
    "pullup":2,
    "shitting":2,
    "cannot":2,
    "fatboy":2,
    "ever":2,
    "heart":2,
    "quit":2,
    "balls":2,
    "rest":2,
    "short":2,
    "assholes":2,
    "clean":2,
    "guts":2,
    "answer":2,
    "beat":2,
    "whos":2,
    "reporting":2,
    "ordered":2,
    "bolt":2,
    "operating":2,
    "rod":2,
    "thata":2,
    "set":2,
    "working":2,
    "eskimo":2,
    "cold":2,
    "feels":2,
    "tastes":2,
    "jesus":2,
    "footlocker":2,
    "unlocked":2,
    "took":2,
    "hungry":2,
    "everybody":2,
    "hates":2,
    "twentyfive":2,
    "remember":2,
    "semper":2,
    "fi":2,
    "grass":2,
    "charles":2,
    "tower":2,
    "christmas":2,
    "charlie":2,
    "hack":2,
    "trade":2,
    "obey":2,
    "orders":2,
    "does":2,
    "counts":2,
    "officer":2,
    "loaded":2,
    "fifth":2,
    "weapons":2,
    "definitely":2,
    "teenage":2,
    "queen":2,
    "zone":2,
    "box":2,
    "ship":2,
    "pin":2,
    "medals":2,
    "upon":2,
    "few":2,
    "most":2,
    "othreehundred":2,
    "basic":2,
    "gomer":2,
    "forget":2,
    "night":2,
    "full":2,
    "place":2,
    "baby":2,
    "feel":2,
    "officers":2,
    "ones":2,
    "moves":2,
    "business":2,
    "da":2,
    "nang":2,
    "intelligence":2,
    "says":2,
    "during":2,
    "stuff":2,
    "reading":2,
    "vietnamese":2,
    "tv":2,
    "weeks":2,
    "search":2,
    "clear":2,
    "passed":2,
    "happy":2,
    "maybe":2,
    "youd":2,
    "belong":2,
    "gear":2,
    "jokers":2,
    "shiiit":2,
    "between":2,
    "hastings":2,
    "werent":2,
    "sometimes":2,
    "ti":2,
    "gets":2,
    "stop":2,
    "incoming":2,
    "outgoing":2,
    "gate":2,
    "follow":2,
    "women":2,
    "reporters":2,
    "area":2,
    "along":2,
    "welcome":2,
    "names":2,
    "schinoski":2,
    "notre":2,
    "dame":2,
    "famous":2,
    "river":2,
    "stands":2,
    "count":2,
    "men":2,
    "peace":2,
    "helmet":2,
    "question":2,
    "before":2,
    "duality":2,
    "son":2,
    "motherfucker":2,
    "lusthog":2,
    "photographer":2,
    "city":2,
    "delta":2,
    "six":2,
    "receiving":2,
    "ville":2,
    "front":2,
    "wayne":2,
    "movie":2,
    "rock":2,
    "indians":2,
    "times":2,
    "sent":2,
    "thought":2,
    "theyd":2,
    "boys":2,
    "situation":2,
    "number":2,
    "suckee":2,
    "smoke":2,
    "soul":2,
    "brotha":2,
    "babysan":2,
    "meat":2,
    "actual":2,
    "checkpoint":2,
    "change":2,
    "changing":2,
    "shut":2,
    "put":2,
    "cool":2,
    "leaving":2,
    "pulling":2,
    "donlon":2,
    "firing":2,
    "hang":2,
    "saying":2,
    "core":2,
    "hi":2,
    "forever":2,
    "banner":2,
    "coast":2,
    "sergeant":3,
    "drill":3,
    "instructor":3,
    "understand":3,
    "island":3,
    "weapon":3,
    "until":3,
    "huh":3,
    "said":3,
    "by":3,
    "teach":3,
    "yourself":3,
    "thank":3,
    "very":3,
    "while":3,
    "asshole":3,
    "holy":3,
    "kind":3,
    "children":3,
    "bed":3,
    "sure":3,
    "again":3,
    "pretty":3,
    "many":3,
    "chest":3,
    "more":3,
    "their":3,
    "fat":3,
    "god":3,
    "slimy":3,
    "reveille":3,
    "bunks":3,
    "heard":3,
    "fired":3,
    "m14":3,
    "throw":3,
    "other":3,
    "free":3,
    "told":3,
    "hate":3,
    "anything":3,
    "doughnut":3,
    "open":3,
    "keep":3,
    "need":3,
    "twenty":3,
    "gung":3,
    "blood":3,
    "knows":3,
    "shot":3,
    "those":3,
    "anybody":3,
    "far":3,
    "show":3,
    "sixth":3,
    "ask":3,
    "infantry":3,
    "find":3,
    "minute":3,
    "party":3,
    "gook":3,
    "wasted":3,
    "big":3,
    "year":3,
    "north":3,
    "destroy":3,
    "wheres":3,
    "guys":3,
    "where":3,
    "shooting":3,
    "thinks":3,
    "payback":3,
    "john":3,
    "stare":3,
    "seen":3,
    "youll":3,
    "white":3,
    "m60":3,
    "machine":3,
    "coming":3,
    "button":3,
    "permission":3,
    "cause":3,
    "road":3,
    "lieutenant":3,
    "starts":3,
    "joke":3,
    "better":3,
    "animal":3,
    "hue":3,
    "radio":3,
    "check":3,
    "horse":3,
    "freedom":3,
    "waste":3,
    "enemy":3,
    "alive":3,
    "chief":3,
    "fuckee":3,
    "boomboom":3,
    "across":3,
    "murph":3,
    "wait":3,
    "senior":4,
    "sound":4,
    "ladies":4,
    "look":4,
    "beloved":4,
    "killer":4,
    "texas":4,
    "guy":4,
    "could":4,
    "suck":4,
    "hand":4,
    "still":4,
    "ah":4,
    "mmm":4,
    "run":4,
    "sonofabitch":4,
    "wrong":4,
    "cover":4,
    "ayeaye":4,
    "should":4,
    "than":4,
    "waiting":4,
    "next":4,
    "top":4,
    "wouldnt":4,
    "fifty":4,
    "born":4,
    "made":4,
    "virgin":4,
    "negative":4,
    "leader":4,
    "boy":4,
    "mighty":4,
    "thing":4,
    "jelly":4,
    "getting":4,
    "outstanding":4,
    "has":4,
    "combat":4,
    "every":4,
    "horny":4,
    "fifteen":4,
    "dollars":4,
    "each":4,
    "half":4,
    "supposed":4,
    "field":4,
    "country":4,
    "after":4,
    "tet":4,
    "grunts":4,
    "hit":4,
    "shoot":4,
    "twofive":4,
    "stars":4,
    "stripes":4,
    "cowboys":4,
    "came":4,
    "body":4,
    "word":4,
    "murphy":4,
    "tank":4,
    "roger":4,
    "direction":4,
    "jay":4,
    "last":5,
    "leave":5,
    "nothing":5,
    "bet":5,
    "sister":5,
    "feet":5,
    "had":5,
    "youve":5,
    "excuse":5,
    "looks":5,
    "through":5,
    "gimme":5,
    "morning":5,
    "port":5,
    "because":5,
    "pussy":5,
    "old":5,
    "gun":5,
    "seconds":5,
    "tell":5,
    "ready":5,
    "em":5,
    "theyre":5,
    "die":5,
    "killed":5,
    "into":5,
    "something":5,
    "general":5,
    "looking":5,
    "mom":5,
    "might":5,
    "these":5,
    "bro":5,
    "nva":5,
    "dead":5,
    "gooks":5,
    "hotel":5,
    "way":5,
    "first":6,
    "snowball":6,
    "hell":6,
    "why":6,
    "didnt":6,
    "real":6,
    "much":6,
    "call":6,
    "an":6,
    "trying":6,
    "would":6,
    "leonard":6,
    "lawrence":6,
    "time":6,
    "gotta":6,
    "done":6,
    "shoulder":6,
    "believe":6,
    "mary":6,
    "obstacle":6,
    "aint":6,
    "today":6,
    "home":6,
    "eat":6,
    "bad":6,
    "hard":6,
    "platoon":6,
    "long":6,
    "never":6,
    "easy":6,
    "even":7,
    "scumbag":7,
    "piece":7,
    "come":7,
    "best":7,
    "let":7,
    "five":7,
    "around":7,
    "then":7,
    "goddamn":7,
    "ho":7,
    "side":7,
    "order":7,
    "ten":7,
    "oh":7,
    "hundred":7,
    "away":7,
    "new":7,
    "really":7,
    "marines":7,
    "vietnam":7,
    "mickey":7,
    "dolla":7,
    "boocoo":7,
    "uh":7,
    "she":7,
    "eightball":7,
    "hold":7,
    "doc":7,
    "mouse":7,
    "when":8,
    "hear":8,
    "head":8,
    "did":8,
    "pull":8,
    "four":8,
    "quickly":8,
    "privates":8,
    "world":8,
    "everything":8,
    "theres":8,
    "say":8,
    "day":9,
    "or":9,
    "make":9,
    "high":9,
    "going":9,
    "squad":9,
    "who":9,
    "marine":9,
    "rafterman":9,
    "war":10,
    "name":10,
    "little":10,
    "face":10,
    "listen":10,
    "us":10,
    "cease":10,
    "have":11,
    "ass":11,
    "thats":11,
    "as":11,
    "been":11,
    "hut":11,
    "his":11,
    "her":11,
    "mean":11,
    "love":11,
    "hes":11,
    "sniper":11,
    "am":12,
    "only":12,
    "how":12,
    "give":12,
    "people":12,
    "its":12,
    "bullshit":13,
    "ive":13,
    "kill":13,
    "him":13,
    "any":13,
    "lets":13,
    "our":13,
    "man":13,
    "mother":13,
    "whats":14,
    "so":14,
    "gonna":14,
    "at":14,
    "back":14,
    "see":15,
    "rifle":15,
    "take":15,
    "but":16,
    "ill":16,
    "about":16,
    "yeah":16,
    "okay":16,
    "can":17,
    "corps":17,
    "go":17,
    "cant":18,
    "off":18,
    "three":18,
    "fire":18,
    "down":19,
    "too":19,
    "was":20,
    "think":20,
    "cowboy":20,
    "with":20,
    "from":21,
    "if":21,
    "fuck":21,
    "move":21,
    "hey":21,
    "not":22,
    "they":22,
    "left":22,
    "he":22,
    "just":22,
    "youre":23,
    "here":23,
    "know":23,
    "all":24,
    "now":25,
    "got":25,
    "over":25,
    "some":25,
    "want":25,
    "two":26,
    "like":27,
    "will":28,
    "fucking":28,
    "right":28,
    "im":29,
    "out":30,
    "we":30,
    "good":30,
    "shit":32,
    "well":32,
    "were":32,
    "no":33,
    "dont":35,
    "joker":36,
    "be":37,
    "what":37,
    "are":40,
    "pyle":40,
    "there":40,
    "one":41,
    "do":43,
    "for":43,
    "yes":47,
    "on":48,
    "private":53,
    "this":54,
    "up":55,
    "my":56,
    "get":60,
    "that":62,
    "me":66,
    "in":71,
    "of":72,
    "your":79,
    "is":82,
    "it":96,
    "to":98,
    "a":110,
    "and":113,
    "i":129,
    "":132,
    "sir":210,
    "you":234,
    "the":236
}