{
    "sandra":1,
    "putcher":1,
    "dick":1,
    "didnt":1,
    "try":1,
    "suckage":1,
    "counting":1,
    "cunt":1,
    "hair":1,
    "threeasian":1,
    "war":1,
    "respect":1,
    "cares":1,
    "orientals":1,
    "may":1,
    "ok":1,
    "clocked":1,
    "exactly":1,
    "media":1,
    "appearance":1,
    "date":1,
    "walters":1,
    "died":1,
    "menstruating":1,
    "chili":1,
    "fry":1,
    "complainin":1,
    "months":1,
    "unveiled":1,
    "simulation":1,
    "heights":1,
    "thrilling":1,
    "excess":1,
    "controversy":1,
    "volunteer":1,
    "murdered":1,
    "bona":1,
    "fide":1,
    "inmate":1,
    "offered":1,
    "chance":1,
    "participate":1,
    "alternative":1,
    "alive":1,
    "damned":1,
    "deal":1,
    "actually":1,
    "survived":1,
    "enough":1,
    "remind":1,
    "audience":1,
    "cooperation":1,
    "approval":1,
    "united":1,
    "states":1,
    "government":1,
    "revenue":1,
    "produces":1,
    "responsible":1,
    "funding":1,
    "entire":1,
    "keeping":1,
    "bars":1,
    "prop":1,
    "voted":1,
    "cock":1,
    "solid":1,
    "68":1,
    "american":1,
    "public":1,
    "election":1,
    "tainted":1,
    "suspected":1,
    "digital":1,
    "fraud":1,
    "genericons":1,
    "lot":1,
    "shouldnt":1,
    "opportunity":1,
    "dice":1,
    "ticket":1,
    "besides":1,
    "survive":1,
    "simple":1,
    "promised":1,
    "demonstration":1,
    "recall":1,
    "cute":1,
    "beg":1,
    "charts":1,
    "buy":1,
    "network":1,
    "scary":1,
    "undergoes":1,
    "procedure":1,
    "distinct":1,
    "notebook":1,
    "computer":1,
    "mobile":1,
    "device":1,
    "similar":1,
    "yep":1,
    "strictly":1,
    "localized":1,
    "parameters":1,
    "environments":1,
    "relief":1,
    "suspect":1,
    "many":1,
    "folks":1,
    "wouldnt":1,
    "itty":1,
    "making":1,
    "decisions":1,
    "responsibilities":1,
    "tough":1,
    "choices":1,
    "pleasure":1,
    "arms":1,
    "awful":1,
    "safer":1,
    "liar":1,
    "slavery":1,
    "dog":1,
    "evolution":1,
    "continue":1,
    "shush":1,
    "bypass":1,
    "orbital":1,
    "reroute":1,
    "backup":1,
    "servers":1,
    "christ":1,
    "sake":1,
    "dirty":1,
    "apes":1,
    "hard":1,
    "broadcast":1,
    "impossible":1,
    "virus":1,
    "sneaks":1,
    "oughta":1,
    "firewall":1,
    "steam":1,
    "knew":1,
    "inevitably":1,
    "em":1,
    "twenty":1,
    "seven":1,
    "done":1,
    "ten":1,
    "gettin":1,
    "brains":1,
    "mission":1,
    "nothin":1,
    "business":1,
    "spooked":1,
    "spooky":1,
    "puppets":1,
    "twisting":1,
    "smashing":1,
    "dreams":1,
    "david":1,
    "fan":1,
    "prays":1,
    "anyone":1,
    "seen":1,
    "wul":1,
    "hello":1,
    "thar":1,
    "swarmers":1,
    "latest":1,
    "innovation":1,
    "browning":1,
    "self":1,
    "detonating":1,
    "cartridge":1,
    "offers":1,
    "widest":1,
    "deadliest":1,
    "spray":1,
    "available":1,
    "tracking":1,
    "cornering":1,
    "ordnance":1,
    "fangirl":1,
    "hacking":1,
    "unmuted":1,
    "unmute":1,
    "boyfriend":1,
    "jail":1,
    "fill":1,
    "seed":1,
    "aaaa":1,
    "loser":1,
    "sissy":1,
    "mom":1,
    "college":1,
    "retard":1,
    "pathetic":1,
    "smell":1,
    "jeffrey":1,
    "dahmer":1,
    "wish":1,
    "simian":1,
    "tits":1,
    "question":1,
    "money":1,
    "discussed":1,
    "sale":1,
    "damage":1,
    "hanging":1,
    "meet":1,
    "dale":1,
    "fur":1,
    "prank":1,
    "subversive":1,
    "group":1,
    "caused":1,
    "nationwide":1,
    "stir":1,
    "contact":1,
    "city":1,
    "estimated":1,
    "quarter":1,
    "million":1,
    "players":1,
    "techs":1,
    "remove":1,
    "described":1,
    "satellite":1,
    "infection":1,
    "cry":1,
    "cover":1,
    "under":1,
    "couch":1,
    "cushions":1,
    "personal":1,
    "note":1,
    "literally":1,
    "pissed":1,
    "myself":1,
    "sounds":1,
    "fun":1,
    "serious":1,
    "cocksuckers":1,
    "moving":1,
    "international":1,
    "headlines":1,
    "escaped":1,
    "jazzercise":1,
    "hackman":1,
    "walk":1,
    "motherfucka":1,
    "aiming":1,
    "handeye":1,
    "coordination":1,
    "eye":1,
    "tripped":1,
    "sometimes":1,
    "completely":1,
    "doesnt":1,
    "parts":1,
    "delay":1,
    "takes":1,
    "respond":1,
    "command":1,
    "eight":1,
    "slice":1,
    "difference":1,
    "dying":1,
    "trigger":1,
    "pulls":1,
    "interested":1,
    "straight":1,
    "delete":1,
    "sunday":1,
    "probably":1,
    "meant":1,
    "visit":1,
    "perfect":1,
    "kills":1,
    "hero":1,
    "front":1,
    "eyeballs":1,
    "vivid":1,
    "wet":1,
    "flesh":1,
    "view":1,
    "nature":1,
    "seduced":1,
    "violence":1,
    "dominance":1,
    "bigger":1,
    "than":1,
    "wouldve":1,
    "imagined":1,
    "dozen":1,
    "icon":1,
    "lack":1,
    "flair":1,
    "marketing":1,
    "accept":1,
    "gladiators":1,
    "dummy":1,
    "gamers":1,
    "cons":1,
    "pay":1,
    "attention":1,
    "minute":1,
    "twelve":1,
    "nineteen":1,
    "am":1,
    "yet":1,
    "badass":1,
    "`em":1,
    "freeks":1,
    "scatter":1,
    "burn":1,
    "joint":1,
    "gibs":1,
    "giblets":1,
    "kibbles":1,
    "bits":1,
    "chunks":1,
    "pieces":1,
    "humans":1,
    "fucker":1,
    "psychos":1,
    "coming":1,
    "psycho":1,
    "epic":1,
    "end":1,
    "kidding":1,
    "nothing":1,
    "tehran":1,
    "sucking":1,
    "mommys":1,
    "nipple":1,
    "thanks":1,
    "visual":1,
    "restricted":1,
    "beyond":1,
    "borders":1,
    "couldnt":1,
    "tried":1,
    "bye":1,
    "kids":1,
    "theyre":1,
    "beat":1,
    "order":1,
    "spouse":1,
    "incarcerated":1,
    "possibility":1,
    "parole":1,
    "use":1,
    "maiden":1,
    "entirely":1,
    "regarding":1,
    "fact":1,
    "due":1,
    "released":1,
    "soon":1,
    "charged":1,
    "degree":1,
    "hardly":1,
    "consider":1,
    "occur":1,
    "positive":1,
    "acting":1,
    "job":1,
    "child":1,
    "exceedingly":1,
    "placed":1,
    "family":1,
    "wealthy":1,
    "shell":1,
    "understand":1,
    "girl":1,
    "shed":1,
    "mother":1,
    "application":1,
    "consideration":1,
    "merits":1,
    "walkie":1,
    "talkie":1,
    "playa":1,
    "guy":1,
    "tv":1,
    "refer":1,
    "freedom":1,
    "kick":1,
    "listening":1,
    "knows":1,
    "afraid":1,
    "quiet":1,
    "battle":1,
    "handle":1,
    "bidness":1,
    "hearing":1,
    "eyes":1,
    "rich":1,
    "honky":1,
    "pussy":1,
    "heavy":1,
    "play":1,
    "mm":1,
    "intend":1,
    "cutcho":1,
    "puppetmassa":1,
    "cheating":1,
    "guidance":1,
    "hacked":1,
    "track":1,
    "motherfuckers":1,
    "corners":1,
    "uhhh":1,
    "mutate":1,
    "evolve":1,
    "talked":1,
    "guard":1,
    "simons":1,
    "whether":1,
    "save":1,
    "wont":1,
    "unwinnable":1,
    "youll":1,
    "drunk":1,
    "turning":1,
    "great":1,
    "jackass":1,
    "wanted":1,
    "matter":1,
    "dammit":1,
    "ya":1,
    "cheerleader":1,
    "fuuuuck":1,
    "screwing":1,
    "ughh":1,
    "recap":1,
    "initial":1,
    "reports":1,
    "most":1,
    "recognizable":1,
    "face":1,
    "phenomenon":1,
    "officially":1,
    "listed":1,
    "fragged":1,
    "netcast":1,
    "plagued":1,
    "technical":1,
    "difficulties":1,
    "spots":1,
    "report":1,
    "confirmed":1,
    "however":1,
    "born":1,
    "john":1,
    "albany":1,
    "york":1,
    "removed":1,
    "rosters":1,
    "upcoming":1,
    "events":1,
    "listings":1,
    "home":1,
    "voice":1,
    "novelty":1,
    "toy":1,
    "hang":1,
    "fool":1,
    "rail":1,
    "deception":1,
    "cuz":1,
    "holy":1,
    "broke":1,
    "freed":1,
    "followed":1,
    "questions":1,
    "few":1,
    "modifies":1,
    "actual":1,
    "structure":1,
    "because":1,
    "scared":1,
    "more":1,
    "steppin":1,
    "forward":1,
    "throwing":1,
    "means":1,
    "desperate":1,
    "convicts":1,
    "addicts":1,
    "fell":1,
    "cracks":1,
    "choice":1,
    "beginning":1,
    "growing":1,
    "bankrupt":1,
    "usa":1,
    "rides":1,
    "white":1,
    "horse":1,
    "bail":1,
    "everyone":1,
    "fall":1,
    "health":1,
    "collapsing":1,
    "comes":1,
    "rescue":1,
    "pushin":1,
    "genetic":1,
    "disease":1,
    "birth":1,
    "defects":1,
    "exchange":1,
    "promise":1,
    "fatter":1,
    "wallet":1,
    "refuse":1,
    "standing":1,
    "babies":1,
    "slaves":1,
    "bring":1,
    "times":1,
    "dudes":1,
    "sandwich":1,
    "peanut":1,
    "almond":1,
    "walnut":1,
    "pecan":1,
    "nut":1,
    "welchs":1,
    "grape":1,
    "usual":1,
    "rick":1,
    "rape":1,
    "month":1,
    "urkk":1,
    "someplace":1,
    "anybody":1,
    "works":1,
    "proof":1,
    "dna":1,
    "soup":1,
    "light":1,
    "extract":1,
    "feed":1,
    "sequence":1,
    "code":1,
    "antispyware":1,
    "basically":1,
    "quarantine":1,
    "foreign":1,
    "per":1,
    "se":1,
    "disable":1,
    "ability":1,
    "cutting":1,
    "sleep":1,
    "sedated":1,
    "until":1,
    "otherwise":1,
    "broadcasting":1,
    "sees":1,
    "hears":1,
    "minutes":1,
    "billion":1,
    "designing":1,
    "virtual":1,
    "reality":1,
    "simulators":1,
    "military":1,
    "six":1,
    "breakthrough":1,
    "profound":1,
    "divided":1,
    "came":1,
    "replace":1,
    "gradual":1,
    "tissue":1,
    "deteriorate":1,
    "era":1,
    "longevity":1,
    "told":1,
    "favor":1,
    "later":1,
    "serving":1,
    "maximum":1,
    "wasnt":1,
    "loss":1,
    "resurfaced":1,
    "within":1,
    "year":1,
    "called":1,
    "lesson":1,
    "dig":1,
    "buried":1,
    "ready":1,
    "hooz":1,
    "support":1,
    "memories":1,
    "translated":1,
    "raw":1,
    "audiovisual":1,
    "data":1,
    "read":1,
    "decade":1,
    "current":1,
    "exponential":1,
    "rate":1,
    "growth":1,
    "piece":1,
    "thought":1,
    "glad":1,
    "ugly":1,
    "grille":1,
    "place":1,
    "sucks":1,
    "hooked":1,
    "computers":1,
    "feeding":1,
    "vitamins":1,
    "giving":1,
    "shots":1,
    "wiping":1,
    "butt":1,
    "male":1,
    "add":1,
    "dressed":1,
    "semihuman":1,
    "fine":1,
    "looked":1,
    "happening":1,
    "commercial":1,
    "test":1,
    "missed":1,
    "needed":1,
    "insurance":1,
    "policy":1,
    "story":1,
    "silverton":1,
    "looks":1,
    "chain":1,
    "decided":1,
    "threat":1,
    "eh":1,
    "ive":1,
    "leading":1,
    "zuzz":1,
    "mines":1,
    "built":1,
    "send":1,
    "whereas":1,
    "other":1,
    "including":1,
    "designed":1,
    "youve":1,
    "army":1,
    "psychotics":1,
    "deviants":1,
    "dance":1,
    "thinking":1,
    "shouldve":1,
    "mightve":1,
    "missing":1,
    "which":1,
    "makes":1,
    "figure":1,
    "neglected":1,
    "mention":1,
    "smart":1,
    "reversed":1,
    "hack":1,
    "those":1,
    "fellas":1,
    "breezy":1,
    "access":1,
    "drives":1,
    "boogie":1,
    "woogie":1,
    "ummm":1,
    "baddest":1,
    "2":1,
    "networks":1,
    "accessing":1,
    "sending":1,
    "commands":1,
    "jam":1,
    "signal":1,
    "retards":1,
    "working":1,
    "knife":1,
    "sticking":1,
    "gut":1,
    "oops":1,
    "dat":1,
    "mommy":1,
    "hurt":1,
    "dumb":1,
    "hope":1,
    "sweetheart":1,
    "eat":2,
    "battles":2,
    "left":2,
    "til":2,
    "four":2,
    "two":2,
    "interview":2,
    "nobody":2,
    "realize":2,
    "burger":2,
    "gaming":2,
    "isnt":2,
    "saw":2,
    "death":2,
    "row":2,
    "each":2,
    "sentence":2,
    "stay":2,
    "thirty":2,
    "sessions":2,
    "men":2,
    "women":2,
    "together":2,
    "federal":2,
    "guys":2,
    "behind":2,
    "whatd":2,
    "socalled":2,
    "roll":2,
    "session":2,
    "does":2,
    "seem":2,
    "fuckin":2,
    "ip":2,
    "address":2,
    "maybe":2,
    "unbelievable":2,
    "wants":2,
    "believe":2,
    "living":2,
    "better":2,
    "allow":2,
    "boys":2,
    "always":2,
    "holes":2,
    "start":2,
    "crack":2,
    "everyday":2,
    "die":2,
    "niggaz":2,
    "without":2,
    "shot":2,
    "plan":2,
    "already":2,
    "best":2,
    "friend":2,
    "pulling":2,
    "talking":2,
    "sign":2,
    "son":2,
    "biggest":2,
    "picture":2,
    "super":2,
    "hm":2,
    "hot":2,
    "says":2,
    "nice":2,
    "weve":2,
    "looking":2,
    "lucky":2,
    "met":2,
    "nika":2,
    "video":2,
    "hours":2,
    "while":2,
    "worked":2,
    "change":2,
    "freaky":2,
    "getting":2,
    "whole":2,
    "mess":2,
    "aims":2,
    "hand":2,
    "robot":2,
    "show":2,
    "fight":2,
    "millisecond":2,
    "call":2,
    "second":2,
    "head":2,
    "reach":2,
    "power":2,
    "brought":2,
    "mod":2,
    "cool":2,
    "cause":2,
    "goes":2,
    "area":2,
    "through":2,
    "house":2,
    "still":2,
    "supposed":2,
    "gunning":2,
    "find":2,
    "husband":2,
    "convicted":2,
    "release":2,
    "very":2,
    "anything":2,
    "love":2,
    "yes":2,
    "software":2,
    "past":2,
    "happen":2,
    "poor":2,
    "weeks":2,
    "after":2,
    "asked":2,
    "doing":2,
    "being":2,
    "once":2,
    "nanex":2,
    "part":2,
    "total":2,
    "cells":2,
    "longer":2,
    "remember":2,
    "pistachio":2,
    "awesome":2,
    "program":2,
    "into":2,
    "transmit":2,
    "receive":2,
    "history":2,
    "project":2,
    "technology":2,
    "thank":2,
    "imagine":2,
    "nurses":2,
    "ksoft":2,
    "small":2,
    "easy":2,
    "names":3,
    "five":3,
    "close":3,
    "blow":3,
    "bob":3,
    "gina":3,
    "nine":3,
    "years":3,
    "ill":3,
    "freak":3,
    "murder":3,
    "when":3,
    "sure":3,
    "free":3,
    "any":3,
    "id":3,
    "full":3,
    "prison":3,
    "work":3,
    "geek":3,
    "bitch":3,
    "pardon":3,
    "motherfucker":3,
    "true":3,
    "bit":3,
    "idea":3,
    "line":3,
    "live":3,
    "might":3,
    "sittin":3,
    "lookin":3,
    "today":3,
    "another":3,
    "even":3,
    "games":3,
    "master":3,
    "strings":3,
    "whos":3,
    "playing":3,
    "suck":3,
    "move":3,
    "sick":3,
    "here":3,
    "real":3,
    "humanz":3,
    "between":3,
    "should":3,
    "girls":3,
    "kind":3,
    "day":3,
    "himself":3,
    "inside":3,
    "player":3,
    "ping":3,
    "outside":3,
    "pretty":3,
    "feel":3,
    "trust":3,
    "theyll":3,
    "point":3,
    "again":3,
    "bullshit":3,
    "had":3,
    "guess":3,
    "kid":3,
    "controlling":3,
    "loose":3,
    "win":3,
    "miss":3,
    "roth":3,
    "life":3,
    "brotha":3,
    "rock":3,
    "stand":3,
    "brain":3,
    "thing":3,
    "help":3,
    "where":3,
    "link":3,
    "scotch":3,
    "tech":3,
    "away":4,
    "some":4,
    "only":4,
    "dead":4,
    "hear":4,
    "she":4,
    "fucking":4,
    "society":4,
    "time":4,
    "every":4,
    "set":4,
    "put":4,
    "system":4,
    "theres":4,
    "cut":4,
    "same":4,
    "mr":4,
    "did":4,
    "shes":4,
    "mind":4,
    "um":4,
    "world":4,
    "huh":4,
    "at":4,
    "tillmans":4,
    "said":4,
    "break":4,
    "snap":4,
    "somewhere":4,
    "killed":4,
    "gay":4,
    "daddy":4,
    "over":4,
    "run":4,
    "slayer":4,
    "much":4,
    "whatever":4,
    "boy":4,
    "gotta":4,
    "different":4,
    "listen":4,
    "delia":4,
    "ass":4,
    "alright":4,
    "things":4,
    "castles":4,
    "made":4,
    "cell":4,
    "shut":5,
    "care":5,
    "ken":5,
    "has":5,
    "ago":5,
    "stop":5,
    "tell":5,
    "first":5,
    "aint":5,
    "these":5,
    "long":5,
    "lets":5,
    "name":5,
    "little":5,
    "else":5,
    "next":5,
    "been":5,
    "well":5,
    "keep":5,
    "man":5,
    "back":5,
    "turn":5,
    "around":5,
    "make":5,
    "really":5,
    "hi":5,
    "happened":5,
    "kill":5,
    "too":5,
    "baby":5,
    "everything":5,
    "ones":5,
    "three":6,
    "before":6,
    "take":6,
    "someone":6,
    "our":6,
    "bad":6,
    "god":6,
    "ever":6,
    "talk":6,
    "could":6,
    "human":6,
    "wait":6,
    "hes":6,
    "sorry":6,
    "simon":6,
    "hey":6,
    "give":6,
    "butter":6,
    "fuck":7,
    "off":7,
    "from":7,
    "last":7,
    "need":7,
    "how":7,
    "her":7,
    "if":7,
    "uh":7,
    "look":7,
    "go":7,
    "way":7,
    "them":7,
    "whats":7,
    "then":7,
    "would":8,
    "why":8,
    "an":8,
    "their":8,
    "right":8,
    "hell":8,
    "come":8,
    "control":8,
    "now":8,
    "wanna":8,
    "let":8,
    "please":9,
    "say":9,
    "down":9,
    "damn":9,
    "or":9,
    "were":9,
    "oh":9,
    "dude":9,
    "people":9,
    "something":9,
    "him":9,
    "slayers":10,
    "as":10,
    "with":10,
    "going":10,
    "new":11,
    "see":11,
    "good":11,
    "will":11,
    "think":11,
    "gonna":11,
    "want":11,
    "who":11,
    "there":12,
    "us":12,
    "game":12,
    "have":13,
    "thats":13,
    "his":13,
    "up":14,
    "cant":14,
    "by":14,
    "never":14,
    "about":15,
    "so":15,
    "all":16,
    "one":16,
    "yeah":16,
    "got":18,
    "im":18,
    "this":18,
    "dont":19,
    "be":19,
    "but":19,
    "are":19,
    "tillman":20,
    "just":20,
    "on":21,
    "get":22,
    "not":22,
    "no":22,
    "can":22,
    "youre":22,
    "my":23,
    "was":23,
    "out":24,
    "do":24,
    "know":24,
    "castle":25,
    "like":25,
    "its":25,
    "in":26,
    "shit":27,
    "your":28,
    "they":29,
    "he":30,
    "kable":30,
    "we":31,
    "for":31,
    "what":33,
    "is":35,
    "and":41,
    "me":43,
    "of":46,
    "it":54,
    "":62,
    "that":63,
    "i":71,
    "a":81,
    "to":98,
    "the":131,
    "you":160
}