{
    "carol":1,
    "museum":1,
    "shes":1,
    "sending":1,
    "architects":1,
    "sketches":1,
    "wing":1,
    "reporter":1,
    "nicely":1,
    "somebody":1,
    "identified":1,
    "pp":1,
    "willy":1,
    "appointments":1,
    "haight":1,
    "noon":1,
    "maria":1,
    "menu":1,
    "iced":1,
    "tea":1,
    "peepee":1,
    "tired":1,
    "mom":1,
    "died":1,
    "five":1,
    "hows":1,
    "congrat":1,
    "pediatrician":1,
    "sausalito":1,
    "divorced":1,
    "stopped":1,
    "drinking":1,
    "13th":1,
    "redecorated":1,
    "nowhere":1,
    "particular":1,
    "gumshoes":1,
    "informed":1,
    "movement":1,
    "kicked":1,
    "heroin":1,
    "ashram":1,
    "windsurfing":1,
    "central":1,
    "america":1,
    "gorgeous":1,
    "gone":1,
    "fund":1,
    "brought":1,
    "bake":1,
    "mad":1,
    "hash":1,
    "brownies":1,
    "bomb":1,
    "thatd":1,
    "ruin":1,
    "promise":1,
    "simple":1,
    "entertain":1,
    "escort":1,
    "cheesebur":1,
    "howd":1,
    "old":1,
    "connection":1,
    "sweet":1,
    "awfully":1,
    "midst":1,
    "blast":1,
    "seeing":1,
    "shrink":1,
    "pill":1,
    "normal":1,
    "thirty":1,
    "seconds":1,
    "hate":1,
    "surprises":1,
    "eleven":1,
    "forty":1,
    "circus":1,
    "clowns":1,
    "naked":1,
    "lady":1,
    "year":1,
    "closer":1,
    "death":1,
    "38":1,
    "hadnt":1,
    "truth":1,
    "reminder":1,
    "honestly":1,
    "pace":1,
    "attorneys":1,
    "hospice":1,
    "regards":1,
    "dr":1,
    "mel":1,
    "baby":1,
    "official":1,
    "nuclear":1,
    "deserved":1,
    "same":1,
    "improvement":1,
    "cult":1,
    "fleeced":1,
    "bye":1,
    "residents":1,
    "crescent":1,
    "heights":1,
    "project":1,
    "truly":1,
    "tragic":1,
    "latest":1,
    "sports":1,
    "cnn":1,
    "names":1,
    "gentlemen":1,
    "v":1,
    "p":1,
    "engineering":1,
    "analysis":1,
    "chaos":1,
    "moving":1,
    "follow":1,
    "someplace":1,
    "ate":1,
    "restaurant":1,
    "mmpi":1,
    "tat":1,
    "statement":1,
    "tung":1,
    "hoy":1,
    "chinatown":1,
    "serve":1,
    "threefold":1,
    "purpose":1,
    "limited":1,
    "slots":1,
    "b":1,
    "abilities":1,
    "limitations":1,
    "turns":1,
    "numero":1,
    "tres":1,
    "insurance":1,
    "requires":1,
    "recharges":1,
    "batteries":1,
    "treadmill":1,
    "vacation":1,
    "everywhere":1,
    "sound":1,
    "amusing":1,
    "frankly":1,
    "powerful":1,
    "top":1,
    "fu":1,
    "ultimate":1,
    "vague":1,
    "intriguing":1,
    "pitch":1,
    "manhoods":1,
    "motivational":1,
    "roleplaying":1,
    "nonsense":1,
    "waste":1,
    "hardtoget":1,
    "silly":1,
    "ms":1,
    "nelson":1,
    "run":1,
    "catch":1,
    "physical":1,
    "suck":1,
    "clients":1,
    "exploded":1,
    "dressed":1,
    "promising":1,
    "test":1,
    "decent":1,
    "shape":1,
    "tax":1,
    "bracket":1,
    "resistance":1,
    "general":1,
    "design":1,
    "schedule":1,
    "quits":1,
    "billing":1,
    "department":1,
    "price":1,
    "varies":1,
    "comes":1,
    "satisfied":1,
    "unsatisfied":1,
    "customer":1,
    "dissatisfied":1,
    "brain":1,
    "fetishist":1,
    "costs":1,
    "leap":1,
    "faith":1,
    "stage":1,
    "commitment":1,
    "qualify":1,
    "ride":1,
    "lose":1,
    "blood":1,
    "pen":1,
    "expect":1,
    "spaced":1,
    "tuesday":1,
    "seattle":1,
    "fuckin":1,
    "wildfire":1,
    "frisco":1,
    "york":1,
    "john":1,
    "likely":1,
    "members":1,
    "rounds":1,
    "pebble":1,
    "pick":1,
    "golf":1,
    "takes":1,
    "uhoh":1,
    "piss":1,
    "couldnt":1,
    "overhearing":1,
    "tested":1,
    "kudos":1,
    "whether":1,
    "gee":1,
    "dunno":1,
    "certain":1,
    "meant":1,
    "wife":1,
    "cares":1,
    "reality":1,
    "pete":1,
    "postponing":1,
    "baergrace":1,
    "washington":1,
    "tomorrow":1,
    "morning":1,
    "seven":1,
    "contract":1,
    "side":1,
    "agreement":1,
    "complete":1,
    "simply":1,
    "option":1,
    "fail":1,
    "recognize":1,
    "law":1,
    "firms":1,
    "yellow":1,
    "pages":1,
    "absurd":1,
    "news":1,
    "bob":1,
    "assume":1,
    "control":1,
    "wonderful":1,
    "fuckers":1,
    "town":1,
    "expecting":1,
    "documents":1,
    "arrive":1,
    "ay":1,
    "sometin":1,
    "fo":1,
    "dere":1,
    "paths":1,
    "enlightenment":1,
    "choose":1,
    "surely":1,
    "darkness":1,
    "chances":1,
    "jah":1,
    "alan":1,
    "giving":1,
    "overview":1,
    "operation":1,
    "breed":1,
    "high":1,
    "yield":1,
    "saplings":1,
    "flight":1,
    "planning":1,
    "months":1,
    "sandbagging":1,
    "scrap":1,
    "bg":1,
    "lumber":1,
    "profitable":1,
    "duty":1,
    "salvage":1,
    "papers":1,
    "minutes":1,
    "present":1,
    "sale":1,
    "terms":1,
    "elect":1,
    "team":1,
    "grow":1,
    "balls":1,
    "earlier":1,
    "draft":1,
    "screen":1,
    "deal":1,
    "involved":1,
    "unforgivable":1,
    "interrupt":1,
    "fax":1,
    "resent":1,
    "material":1,
    "pilot":1,
    "chopper":1,
    "disregard":1,
    "underway":1,
    "shall":1,
    "oughta":1,
    "needin":1,
    "cretin":1,
    "quitting":1,
    "whas":1,
    "didna":1,
    "realize":1,
    "employers":1,
    "bullshit":1,
    "interfering":1,
    "breaking":1,
    "concentration":1,
    "allow":1,
    "briefcase":1,
    "don":1,
    "rose":1,
    "colored":1,
    "wondering":1,
    "fraid":1,
    "accident":1,
    "giant":1,
    "banana":1,
    "peel":1,
    "nuts":1,
    "chrissy":1,
    "dickhead":1,
    "walked":1,
    "drop":1,
    "act":1,
    "moment":1,
    "fired":1,
    "subtle":1,
    "asshole":1,
    "send":1,
    "drycleaning":1,
    "uhhuh":1,
    "gag":1,
    "mace":1,
    "weird":1,
    "near":1,
    "muni":1,
    "5th":1,
    "market":1,
    "neither":1,
    "siddown":1,
    "keeps":1,
    "revolves":1,
    "fact":1,
    "challenge":1,
    "puzzle":1,
    "puzzled":1,
    "signal":1,
    "lightswitch":1,
    "obvious":1,
    "backfires":1,
    "match":1,
    "bright":1,
    "grab":1,
    "arm":1,
    "path":1,
    "aaggh":1,
    "bugs":1,
    "rubber":1,
    "ha":1,
    "favorite":1,
    "color":1,
    "wow":1,
    "cool":1,
    "leading":1,
    "hippies":1,
    "far":1,
    "duck":1,
    "masochist":1,
    "dragged":1,
    "yesterday":1,
    "showed":1,
    "offered":1,
    "250":1,
    "bucks":1,
    "spill":1,
    "ah":1,
    "practical":1,
    "500":1,
    "hated":1,
    "cpr":1,
    "routine":1,
    "lifeguard":1,
    "pointless":1,
    "middle":1,
    "louise":1,
    "picked":1,
    "samaritan":1,
    "drag":1,
    "less":1,
    "risk":1,
    "fix":1,
    "dumpster":1,
    "imagine":1,
    "garage":1,
    "blocks":1,
    "turn":1,
    "conditioner":1,
    "apologies":1,
    "yourself":1,
    "fridge":1,
    "forward":1,
    "exactly":1,
    "manage":1,
    "investments":1,
    "venture":1,
    "board":1,
    "publicly":1,
    "traded":1,
    "companies":1,
    "basically":1,
    "beats":1,
    "tie":1,
    "hope":1,
    "stake":1,
    "restaurants":1,
    "todays":1,
    "turnon":1,
    "graveyard":1,
    "hanging":1,
    "most":1,
    "tats":1,
    "downstairs":1,
    "limos":1,
    "obviously":1,
    "jackll":1,
    "wherever":1,
    "ballroom":1,
    "dancing":1,
    "brand":1,
    "sweatshirt":1,
    "cleaners":1,
    "clean":1,
    "sweatshirts":1,
    "hours":1,
    "calm":1,
    "windshield":1,
    "shooting":1,
    "flat":1,
    "phones":1,
    "hurry":1,
    "pop":1,
    "sonofabitch":1,
    "perfect":1,
    "boredom":1,
    "weirdo":1,
    "win":1,
    "dial":1,
    "heading":1,
    "mister":1,
    "grateful":1,
    "swim":1,
    "bay":1,
    "hepatitis":1,
    "freezing":1,
    "below":1,
    "uh":1,
    "fit":1,
    "perfectly":1,
    "ow":1,
    "hurting":1,
    "girls":1,
    "wild":1,
    "doncha":1,
    "thingie":1,
    "hatchet":1,
    "promptness":1,
    "officers":1,
    "attorney":1,
    "seventh":1,
    "rented":1,
    "secretary":1,
    "state":1,
    "county":1,
    "recorder":1,
    "listing":1,
    "research":1,
    "divers":1,
    "cabs":1,
    "vehicle":1,
    "junked":1,
    "month":1,
    "numbers":1,
    "disconnected":1,
    "impound":1,
    "confused":1,
    "motive":1,
    "sent":1,
    "unstable":1,
    "using":1,
    "alias":1,
    "likes":1,
    "chinese":1,
    "jokers":1,
    "clearly":1,
    "civil":1,
    "case":1,
    "locate":1,
    "defendant":1,
    "quiet":1,
    "fragile":1,
    "dealing":1,
    "credit":1,
    "maid":1,
    "event":1,
    "future":1,
    "consider":1,
    "choosing":1,
    "hotel":1,
    "woman":1,
    "mmm":1,
    "beulah":1,
    "offa":1,
    "oakdale":1,
    "black":1,
    "500se":1,
    "assumed":1,
    "white":1,
    "tree":1,
    "front":1,
    "swings":1,
    "triple":1,
    "blowout":1,
    "curious":1,
    "mess":1,
    "dog":1,
    "drove":1,
    "vet":1,
    "golden":1,
    "retriever":1,
    "animal":1,
    "early":1,
    "daughter":1,
    "named":1,
    "afraid":1,
    "daddy":1,
    "carburetor":1,
    "dropped":1,
    "eh":1,
    "kidnapped":1,
    "tortured":1,
    "pictures":1,
    "tattoo":1,
    "shoulder":1,
    "ssh":1,
    "ransom":1,
    "evidence":1,
    "east":1,
    "worried":1,
    "dinner":1,
    "slob":1,
    "chez":1,
    "panisse":1,
    "eat":1,
    "mmhmm":1,
    "communion":1,
    "green":1,
    "gills":1,
    "four":1,
    "blown":1,
    "suppose":1,
    "holy":1,
    "wake":1,
    "watch":1,
    "coulda":1,
    "handed":1,
    "outstanding":1,
    "warrant":1,
    "mail":1,
    "fraud":1,
    "nailed":1,
    "prove":1,
    "swindle":1,
    "spare":1,
    "snide":1,
    "secondhand":1,
    "problems":1,
    "screwed":1,
    "davids":1,
    "victim":1,
    "honey":1,
    "bank":1,
    "downloaded":1,
    "computer":1,
    "shower":1,
    "stuck":1,
    "codebreaking":1,
    "program":1,
    "glve":1,
    "remote":1,
    "group":1,
    "given":1,
    "handwriting":1,
    "voice":1,
    "samples":1,
    "generate":1,
    "break":1,
    "networks":1,
    "holdings":1,
    "dummy":1,
    "signed":1,
    "original":1,
    "hackers":1,
    "fiveyear":1,
    "stretch":1,
    "zapping":1,
    "citibank":1,
    "dweeb":1,
    "flunkie":1,
    "runs":1,
    "suckers":1,
    "bet":1,
    "taking":1,
    "sui":1,
    "confiscate":1,
    "cash":1,
    "speak":1,
    "nearly":1,
    "crushed":1,
    "skull":1,
    "whatd":1,
    "hundred":1,
    "gs":1,
    "chump":1,
    "chalk":1,
    "billion":1,
    "dollars":1,
    "bil":1,
    "lifestyle":1,
    "raided":1,
    "pension":1,
    "plans":1,
    "charitable":1,
    "foundations":1,
    "payrolls":1,
    "jerkoff":1,
    "leagues":1,
    "helped":1,
    "sabotage":1,
    "small":1,
    "portion":1,
    "national":1,
    "economy":1,
    "destroy":1,
    "lives":1,
    "tits":1,
    "built":1,
    "spent":1,
    "rotten":1,
    "carpenter":1,
    "private":1,
    "corporation":1,
    "living":1,
    "hiding":1,
    "cabin":1,
    "hide":1,
    "plus":1,
    "helluva":1,
    "gullible":1,
    "true":1,
    "action":1,
    "gotten":1,
    "hands":1,
    "banks":1,
    "cellular":1,
    "intercepted":1,
    "rerouted":1,
    "switzerland":1,
    "chase":1,
    "manhattan":1,
    "missing":1,
    "pieces":1,
    "codes":1,
    "stuff":1,
    "plyrnpton":1,
    "gibberish":1,
    "fathers":1,
    "united":1,
    "states":1,
    "embassy":1,
    "reward":1,
    "identification":1,
    "temporary":1,
    "visa":1,
    "nearest":1,
    "pawn":1,
    "shop":1,
    "ticket":1,
    "passport":1,
    "close":1,
    "helping":1,
    "institution":1,
    "funds":1,
    "entirely":1,
    "exhausted":1,
    "unless":1,
    "prepared":1,
    "responsibility":1,
    "eating":1,
    "victims":1,
    "stolen":1,
    "beat":1,
    "bastards":1,
    "self":1,
    "aggrandizing":1,
    "delusion":1,
    "seriously":1,
    "exist":1,
    "institutionalized":1,
    "history":1,
    "mental":1,
    "illness":1,
    "scuse":1,
    "whatcha":1,
    "reading":1,
    "spoke":1,
    "thinks":1,
    "nervous":1,
    "breakdown":1,
    "till":1,
    "line":1,
    "gimme":1,
    "c":1,
    "bag":1,
    "suicide":1,
    "freeze":1,
    "knife":1,
    "attacked":1,
    "bothering":1,
    "genuinely":1,
    "person":1,
    "deserve":1,
    "sometimes":1,
    "punished":1,
    "sins":1,
    "devices":1,
    "assassin":1,
    "communicate":1,
    "each":1,
    "radio":1,
    "channel":1,
    "notebook":1,
    "press":1,
    "fbi":1,
    "assuming":1,
    "coffee":1,
    "safe":1,
    "reach":1,
    "strong":1,
    "excellent":1,
    "commercial":1,
    "drugs":1,
    "friend":1,
    "iii":1,
    "alright":1,
    "restroom":1,
    "tv":1,
    "commercials":1,
    "ordered":1,
    "delivered":1,
    "customers":1,
    "admire":1,
    "twenty":1,
    "snack":1,
    "standup":1,
    "resume":1,
    "foot":1,
    "soldiers":1,
    "whoevers":1,
    "jason":1,
    "tommy":1,
    "goddammit":1,
    "abandoned":1,
    "worked":1,
    "inside":1,
    "uhuh":1,
    "whistle":1,
    "dangerous":1,
    "twelfth":1,
    "everythings":1,
    "touched":1,
    "stole":1,
    "impossible":1,
    "seemed":1,
    "stunt":1,
    "vampire":1,
    "everybody":1,
    "store":1,
    "searched":1,
    "fucked":1,
    "situation":1,
    "fake":1,
    "tricks":1,
    "mouth":1,
    "lie":1,
    "elevator":1,
    "murder":1,
    "squibs":1,
    "hightech":1,
    "special":1,
    "effects":1,
    "none":1,
    "cab":1,
    "diver":1,
    "cop":1,
    "safety":1,
    "net":1,
    "tried":1,
    "kept":1,
    "ends":1,
    "fishers":1,
    "qh":1,
    "noooo":1,
    "doin":1,
    "admit":1,
    "wanting":1,
    "theyd":1,
    "loaded":1,
    "lying":1,
    "metal":1,
    "detector":1,
    "packed":1,
    "waitll":1,
    "level":1,
    "face":1,
    "awesome":1,
    "jumped":1,
    "compadre":1,
    "otherwise":1,
    "strictly":1,
    "legal":1,
    "cigar":1,
    "monte":1,
    "cristo":1,
    "straight":1,
    "havana":1,
    "shook":1,
    "method":1,
    "actress":1,
    "waters":1,
    "puff":1,
    "late":1,
    "borrow":1,
    "liz":1,
    "alive":1,
    "weirder":1,
    "itemized":1,
    "opening":1,
    "rest":1,
    "crank":2,
    "swore":2,
    "lunch":2,
    "cancel":2,
    "afternoon":2,
    "leos":2,
    "order":2,
    "ya":2,
    "usual":2,
    "married":2,
    "interesting":2,
    "rid":2,
    "step":2,
    "pain":2,
    "sometime":2,
    "trouble":2,
    "cake":2,
    "bro":2,
    "surprise":2,
    "guarantee":2,
    "delicate":2,
    "liquidation":2,
    "making":2,
    "feel":2,
    "bother":2,
    "medication":2,
    "information":2,
    "able":2,
    "explain":2,
    "whatever":2,
    "party":2,
    "congratulations":2,
    "speaking":2,
    "brothers":2,
    "saw":2,
    "today":2,
    "asked":2,
    "kick":2,
    "check":2,
    "calling":2,
    "luck":2,
    "drink":2,
    "watching":2,
    "appointment":2,
    "problem":2,
    "data":2,
    "process":2,
    "application":2,
    "financial":2,
    "familiar":2,
    "selling":2,
    "experience":2,
    "impressive":2,
    "coming":2,
    "question":2,
    "because":2,
    "decided":2,
    "cut":2,
    "after":2,
    "done":2,
    "looks":2,
    "psych":2,
    "questions":2,
    "pay":2,
    "advance":2,
    "ask":2,
    "word":2,
    "rules":2,
    "object":2,
    "hear":2,
    "club":2,
    "soon":2,
    "swear":2,
    "checked":2,
    "opened":2,
    "public":2,
    "games":2,
    "usually":2,
    "bring":2,
    "recently":2,
    "worth":2,
    "save":2,
    "hit":2,
    "changed":2,
    "pal":2,
    "plane":2,
    "package":2,
    "ten":2,
    "may":2,
    "started":2,
    "many":2,
    "love":2,
    "dats":2,
    "shareholders":2,
    "management":2,
    "watched":2,
    "couldve":2,
    "blow":2,
    "following":2,
    "yours":2,
    "comments":2,
    "attention":2,
    "quit":2,
    "bit":2,
    "message":2,
    "world":2,
    "looking":2,
    "cute":2,
    "apologize":2,
    "wheres":2,
    "goddamn":2,
    "slow":2,
    "carry":2,
    "insane":2,
    "heart":2,
    "attack":2,
    "station":2,
    "7315723":2,
    "minute":2,
    "chill":2,
    "outta":2,
    "hard":2,
    "son":2,
    "blue":2,
    "blind":2,
    "kaminsky":2,
    "until":2,
    "serious":2,
    "picture":2,
    "scared":2,
    "offices":2,
    "cleaned":2,
    "taken":2,
    "capital":2,
    "couple":2,
    "concord":2,
    "tattoos":2,
    "wed":2,
    "smoke":2,
    "figure":2,
    "bed":2,
    "clothes":2,
    "dry":2,
    "anywhere":2,
    "bar":2,
    "breath":2,
    "finished":2,
    "grip":2,
    "trunk":2,
    "sense":2,
    "six":2,
    "three":2,
    "mission":2,
    "boat":2,
    "relax":2,
    "robert":2,
    "plympton":2,
    "address":2,
    "fault":2,
    "followed":2,
    "beautiful":2,
    "her":2,
    "frame":2,
    "pretend":2,
    "pals":2,
    "armed":2,
    "assholes":2,
    "con":2,
    "cops":2,
    "accounts":2,
    "files":2,
    "access":2,
    "passwords":2,
    "transfer":2,
    "past":2,
    "days":2,
    "dad":2,
    "paying":2,
    "hon":2,
    "lotta":2,
    "running":2,
    "went":2,
    "lawyer":2,
    "piece":2,
    "theyve":2,
    "calls":2,
    "american":2,
    "honduras":2,
    "become":2,
    "christ":2,
    "knows":2,
    "throw":2,
    "both":2,
    "train":2,
    "psycho":2,
    "pulled":2,
    "happens":2,
    "subway":2,
    "glad":2,
    "own":2,
    "fisher":2,
    "buddy":2,
    "improvise":2,
    "authorized":2,
    "taste":2,
    "blanks":2,
    "blew":2,
    "shot":2,
    "himself":3,
    "figured":3,
    "hed":3,
    "yo":3,
    "since":3,
    "years":3,
    "girl":3,
    "actually":3,
    "ago":3,
    "somewhere":3,
    "should":3,
    "services":3,
    "bored":3,
    "heard":3,
    "once":3,
    "important":3,
    "forget":3,
    "away":3,
    "happened":3,
    "almost":3,
    "hm":3,
    "family":3,
    "things":3,
    "care":3,
    "jim":3,
    "gets":3,
    "sort":3,
    "whos":3,
    "ortons":3,
    "type":3,
    "player":3,
    "by":3,
    "being":3,
    "everyone":3,
    "wish":3,
    "different":3,
    "yet":3,
    "free":3,
    "head":3,
    "weve":3,
    "sign":3,
    "initials":3,
    "kidding":3,
    "played":3,
    "closing":3,
    "other":3,
    "under":3,
    "stay":3,
    "wrong":3,
    "hasnt":3,
    "mind":3,
    "keys":3,
    "ass":3,
    "funny":3,
    "found":3,
    "seems":3,
    "happen":3,
    "worry":3,
    "glasses":3,
    "shut":3,
    "home":3,
    "use":3,
    "ambulance":3,
    "heres":3,
    "bitch":3,
    "hold":3,
    "onto":3,
    "kinda":3,
    "folks":3,
    "shouldnt":3,
    "food":3,
    "knew":3,
    "reason":3,
    "along":3,
    "hired":3,
    "few":3,
    "rich":3,
    "put":3,
    "waitress":3,
    "danger":3,
    "live":3,
    "jesus":3,
    "paid":3,
    "gave":3,
    "tire":3,
    "myself":3,
    "makes":3,
    "planted":3,
    "behind":3,
    "set":3,
    "hang":3,
    "police":3,
    "building":3,
    "card":3,
    "might":3,
    "hurt":3,
    "hi":3,
    "while":3,
    "needed":3,
    "lot":3,
    "end":3,
    "tegucigalpa":3,
    "werent":3,
    "crisis":3,
    "susan":3,
    "business":4,
    "told":4,
    "seen":4,
    "birthday":4,
    "long":4,
    "elizabeth":4,
    "kids":4,
    "mine":4,
    "two":4,
    "through":4,
    "gift":4,
    "consumer":4,
    "recreation":4,
    "youll":4,
    "used":4,
    "busy":4,
    "together":4,
    "without":4,
    "guys":4,
    "best":4,
    "anymore":4,
    "than":4,
    "else":4,
    "wouldnt":4,
    "working":4,
    "must":4,
    "seem":4,
    "says":4,
    "feingold":4,
    "charge":4,
    "remember":4,
    "unfortunately":4,
    "lets":4,
    "arent":4,
    "doesnt":4,
    "handle":4,
    "idiot":4,
    "fantasy":4,
    "waiting":4,
    "when":4,
    "touch":4,
    "buy":4,
    "talk":4,
    "sick":4,
    "excuse":4,
    "meeting":4,
    "job":4,
    "pretty":4,
    "friends":4,
    "father":4,
    "having":4,
    "try":4,
    "does":4,
    "understand":4,
    "matter":4,
    "christine":4,
    "anyway":4,
    "came":4,
    "probably":4,
    "those":4,
    "part":4,
    "let":4,
    "show":4,
    "least":4,
    "took":4,
    "jack":4,
    "anyone":4,
    "kill":4,
    "gun":4,
    "door":4,
    "called":5,
    "week":5,
    "number":5,
    "bad":5,
    "getting":5,
    "left":5,
    "down":5,
    "trust":5,
    "change":5,
    "open":5,
    "place":5,
    "ever":5,
    "big":5,
    "great":5,
    "personal":5,
    "huh":5,
    "office":5,
    "tests":5,
    "idea":5,
    "already":5,
    "wanna":5,
    "point":5,
    "hey":5,
    "maybe":5,
    "cmon":5,
    "bastard":5,
    "say":5,
    "phone":5,
    "bill":5,
    "playing":5,
    "joke":5,
    "actor":5,
    "enough":5,
    "night":5,
    "man":5,
    "nobody":5,
    "um":6,
    "meet":6,
    "havent":6,
    "she":6,
    "guess":6,
    "house":6,
    "every":6,
    "em":6,
    "wont":6,
    "life":6,
    "fun":6,
    "talking":6,
    "better":6,
    "another":6,
    "nice":6,
    "someone":6,
    "new":6,
    "mm":6,
    "day":6,
    "has":6,
    "first":6,
    "company":6,
    "then":6,
    "id":6,
    "dead":6,
    "name":6,
    "die":6,
    "car":6,
    "gotta":6,
    "these":6,
    "play":6,
    "floor":6,
    "crazy":6,
    "stupid":6,
    "their":6,
    "damn":6,
    "leave":7,
    "happy":7,
    "thanks":7,
    "keep":7,
    "even":7,
    "still":7,
    "much":7,
    "service":7,
    "would":7,
    "fine":7,
    "thank":7,
    "sure":7,
    "next":7,
    "around":7,
    "work":7,
    "kind":7,
    "sir":7,
    "will":7,
    "believe":7,
    "only":7,
    "yes":7,
    "hello":7,
    "into":7,
    "trying":7,
    "move":7,
    "money":7,
    "before":7,
    "drive":7,
    "his":7,
    "always":7,
    "whole":8,
    "alone":8,
    "over":8,
    "make":8,
    "wasnt":8,
    "last":8,
    "course":8,
    "hell":8,
    "yknow":8,
    "everything":8,
    "mon":8,
    "lost":8,
    "again":9,
    "youd":9,
    "wanted":9,
    "yeah":9,
    "too":9,
    "youve":9,
    "isnt":9,
    "our":9,
    "brother":9,
    "more":9,
    "mr":9,
    "crs":9,
    "am":9,
    "come":9,
    "stop":9,
    "anything":10,
    "very":10,
    "give":10,
    "nothing":10,
    "find":10,
    "schuyler":10,
    "key":10,
    "people":10,
    "him":11,
    "as":11,
    "any":11,
    "call":11,
    "one":11,
    "want":11,
    "ive":11,
    "mean":11,
    "theres":11,
    "guy":11,
    "wait":11,
    "had":12,
    "said":12,
    "never":12,
    "off":12,
    "need":12,
    "real":12,
    "thought":12,
    "something":12,
    "listen":12,
    "going":12,
    "tell":13,
    "see":13,
    "theyre":13,
    "thing":13,
    "gonna":13,
    "way":13,
    "little":14,
    "where":14,
    "help":14,
    "doing":14,
    "supposed":14,
    "think":14,
    "didnt":15,
    "hes":15,
    "some":15,
    "good":15,
    "back":15,
    "could":15,
    "or":15,
    "who":16,
    "orton":16,
    "us":16,
    "david":17,
    "go":17,
    "why":17,
    "if":17,
    "fuck":18,
    "thats":18,
    "take":18,
    "god":18,
    "whats":18,
    "now":18,
    "sky":19,
    "time":19,
    "them":19,
    "cant":19,
    "from":20,
    "please":20,
    "really":20,
    "van":20,
    "sorry":21,
    "look":21,
    "ill":21,
    "right":22,
    "how":22,
    "fucking":22,
    "were":22,
    "at":23,
    "oh":23,
    "he":24,
    "there":24,
    "ok":24,
    "got":24,
    "well":25,
    "been":25,
    "did":26,
    "shit":27,
    "all":28,
    "about":29,
    "out":29,
    "can":30,
    "an":30,
    "so":31,
    "like":31,
    "up":33,
    "with":33,
    "game":34,
    "be":36,
    "but":37,
    "on":37,
    "have":38,
    "do":40,
    "not":44,
    "and":45,
    "we":46,
    "no":47,
    "youre":48,
    "get":49,
    "my":49,
    "was":50,
    "know":50,
    "here":50,
    "are":51,
    "that":53,
    "its":53,
    "dont":54,
    "for":57,
    "they":58,
    "im":65,
    "is":66,
    "your":70,
    "just":71,
    "me":72,
    "what":79,
    "this":79,
    "in":85,
    "of":96,
    "it":136,
    "to":168,
    "a":189,
    "the":231,
    "i":246,
    "you":324
}