{
    "station":1,
    "godliness":1,
    "reviewed":1,
    "error":1,
    "hundred":1,
    "keystrokes":1,
    "phenomenal":1,
    "jeromenever":1,
    "shy":1,
    "pisses":1,
    "command":1,
    "cocks":1,
    "experience":1,
    "example":1,
    "folks":1,
    "excited":1,
    "unremarkable":1,
    "events":1,
    "class":1,
    "oneyear":1,
    "manned":1,
    "951":1,
    "outer":1,
    "asteroid":1,
    "unique":1,
    "embarked":1,
    "selection":1,
    "virtually":1,
    "blessed":1,
    "intellectual":1,
    "required":1,
    "arduous":1,
    "undertaking":1,
    "quotient":1,
    "remarkable":1,
    "progress":1,
    "except":1,
    "french":1,
    "detroit":1,
    "variety":1,
    "love":1,
    "greater":1,
    "happiness":1,
    "government":1,
    "pays":1,
    "doctor":1,
    "mistake":1,
    "read":1,
    "carry":1,
    "hereditary":1,
    "factors":1,
    "daysdays":1,
    "priest":1,
    "persuade":1,
    "hands":1,
    "local":1,
    "geneticist":1,
    "normal":1,
    "baby":1,
    "fingers":1,
    "toes":1,
    "immediate":1,
    "wellbeing":1,
    "sole":1,
    "concern":1,
    "destiny":1,
    "mapped":1,
    "flaws":1,
    "susceptibilities":1,
    "untreatable":1,
    "cause":1,
    "certificate":1,
    "oh":1,
    "vincenti":1,
    "sight":1,
    "chronically":1,
    "skinned":1,
    "knee":1,
    "runny":1,
    "treated":1,
    "lifethreatening":1,
    "soon":1,
    "realized":1,
    "wherever":1,
    "prophecy":1,
    "preceded":1,
    "afford":1,
    "gamble":1,
    "bring":1,
    "selling":1,
    "beloved":1,
    "buick":1,
    "price":1,
    "dish":1,
    "extracted":1,
    "eggs":1,
    "fertilized":1,
    "antonios":1,
    "sperm":1,
    "performed":1,
    "analysis":1,
    "resulting":1,
    "preembryos":1,
    "screening":1,
    "boys":1,
    "girls":1,
    "remains":1,
    "select":1,
    "compatible":1,
    "candidate":1,
    "decide":1,
    "gender":1,
    "given":1,
    "specified":1,
    "blue":1,
    "dark":1,
    "fair":1,
    "liberty":1,
    "eradicating":1,
    "potentially":1,
    "prejudicial":1,
    "conditions":1,
    "premature":1,
    "baldness":1,
    "alcoholism":1,
    "addictive":1,
    "susceptibility":1,
    "wantdiseases":1,
    "wondering":1,
    "imperfection":1,
    "builtin":1,
    "additional":1,
    "burdens":1,
    "simply":1,
    "conceive":1,
    "result":1,
    "lefthanded":1,
    "creativity":1,
    "sports":1,
    "baseball":1,
    "advantage":1,
    "football":1,
    "warn":1,
    "taller":1,
    "prepare":1,
    "crick":1,
    "sixteen":1,
    "himwe":1,
    "hoping":1,
    "married":1,
    "wed":1,
    "grandchildren":1,
    "appreciate":1,
    "raw":1,
    "material":1,
    "disposal":1,
    "extrai":1,
    "attempt":1,
    "insert":1,
    "sequences":1,
    "enhanced":1,
    "musical":1,
    "ability":1,
    "choir":1,
    "caution":1,
    "foolproof":1,
    "multigene":1,
    "traits":1,
    "guarantees":1,
    "singing":1,
    "womb":1,
    "implant":1,
    "successful":1,
    "preembryo":1,
    "afternoon":1,
    "happen":1,
    "babies":1,
    "merely":1,
    "possibilities":1,
    "smaller":1,
    "grain":1,
    "sand":1,
    "worthy":1,
    "brothers":1,
    "understood":1,
    "different":1,
    "flowing":1,
    "veins":1,
    "awful":1,
    "drop":1,
    "game":1,
    "chicken":1,
    "watching":1,
    "flags":1,
    "dared":1,
    "swimmer":1,
    "scarlet":1,
    "letter":1,
    "continued":1,
    "follow":1,
    "prone":1,
    "disabilities":1,
    "sometimes":1,
    "disappoint":1,
    "astronauts":1,
    "standing":1,
    "venus":1,
    "popular":1,
    "longterm":1,
    "proposition":1,
    "themselves":1,
    "coaxing":1,
    "information":1,
    "prospective":1,
    "husband":1,
    "qualify":1,
    "mortgage":1,
    "insurance":1,
    "decent":1,
    "realistic":1,
    "pacemakers":1,
    "ship":1,
    "cleaning":1,
    "lied":1,
    "resum\ufffd":1,
    "cv":1,
    "invest":1,
    "money":1,
    "train":1,
    "applicants":1,
    "cleaner":1,
    "discriminate":1,
    "genoism":1,
    "laws":1,
    "seriously":1,
    "refuse":1,
    "disclose":1,
    "doorhandle":1,
    "handshake":1,
    "application":1,
    "form":1,
    "fails":1,
    "legal":1,
    "peek":1,
    "company":1,
    "free":1,
    "ride":1,
    "winning":1,
    "lottery":1,
    "swam":1,
    "sea":1,
    "stroke":1,
    "towards":1,
    "horizon":1,
    "unspoken":1,
    "fool":1,
    "killed":1,
    "ridiculous":1,
    "thick":1,
    "headyou":1,
    "compete":1,
    "try":1,
    "minds":1,
    "younger":1,
    "slipped":1,
    "decided":1,
    "grant":1,
    "situation":1,
    "moved":1,
    "cleaned":1,
    "half":1,
    "toilets":1,
    "state":1,
    "itll":1,
    "earl":1,
    "fell":1,
    "floor":1,
    "score":1,
    "provided":1,
    "terms":1,
    "photo":1,
    "vincentvincent":1,
    "genetically":1,
    "superior":1,
    "attain":1,
    "gene":1,
    "fate":1,
    "falls":1,
    "becomes":1,
    "valued":1,
    "commodity":1,
    "unscrupulous":1,
    "loss":1,
    "gain":1,
    "ox":1,
    "wallif":1,
    "college":1,
    "swimming":1,
    "hope":1,
    "dropped":1,
    "honor":1,
    "student":1,
    "majors":1,
    "square":1,
    "australasia":1,
    "checked":1,
    "yesterday":1,
    "complications":1,
    "broke":1,
    "anybodys":1,
    "walking":1,
    "fullyproductive":1,
    "pipe":1,
    "fill":1,
    "smiling":1,
    "confidently":1,
    "which":1,
    "mirror":1,
    "bleach":1,
    "inventing":1,
    "couple":1,
    "goddam":1,
    "clones":1,
    "double":1,
    "fee":1,
    "confess":1,
    "wondered":1,
    "rescued":1,
    "dancing":1,
    "choose":1,
    "menu":1,
    "ungrateful":1,
    "brokerwhat":1,
    "con":1,
    "believing":1,
    "doorbut":1,
    "sincere":1,
    "groomed":1,
    "ishow":1,
    "expect":1,
    "pull":1,
    "middle":1,
    "nameeugeneif":1,
    "asks":1,
    "truth":1,
    "disowns":1,
    "disappointment":1,
    "silver":1,
    "easy":1,
    "righthander":1,
    "noone":1,
    "orders":1,
    "southpaws":1,
    "anymore":1,
    "giveaway":1,
    "earliest":1,
    "justifiable":1,
    "qualityoflife":1,
    "impaired":1,
    "vision":1,
    "suffering":1,
    "deficiencies":1,
    "nonadvantaged":1,
    "edge":1,
    "cane":1,
    "planet":1,
    "atom":1,
    "hairin":1,
    "bodieswas":1,
    "bag":1,
    "pay":1,
    "rent":1,
    "congratulations":1,
    "interview":1,
    "majority":1,
    "began":1,
    "design":1,
    "offspringthe":1,
    "blurred":1,
    "brighter":1,
    "voice":1,
    "purer":1,
    "sharper":1,
    "seeks":1,
    "skilled":1,
    "geneticists":1,
    "accessible":1,
    "priveleged":1,
    "dna":1,
    "proudly":1,
    "referred":1,
    "dan":1,
    "selfmade":1,
    "woman":1,
    "manchild":1,
    "moral":1,
    "economic":1,
    "reasons":1,
    "refrain":1,
    "tampering":1,
    "offsprings":1,
    "makeup":1,
    "abort":1,
    "deprived":1,
    "fetus":1,
    "condemn":1,
    "routine":1,
    "discrimination":1,
    "officially":1,
    "godchildren":1,
    "menofgod":1,
    "blackjack":1,
    "defectives":1,
    "genojunk":1,
    "gegnomes":1,
    "fuckedup":1,
    "preconditions":1,
    "reversed":1,
    "treat":1,
    "cheated":1,
    "doors":1,
    "otherwise":1,
    "closed":1,
    "guise":1,
    "morror":1,
    "risen":1,
    "ranks":1,
    "close":1,
    "discovering":1,
    "true":1,
    "strange":1,
    "exposing":1,
    "ahead":1,
    "weeks":1,
    "tragic":1,
    "event":1,
    "hasnt":1,
    "planets":1,
    "turning":1,
    "authoritiesnaturally":1,
    "cooperating":1,
    "tolerate":1,
    "disruption":1,
    "cooperation":1,
    "return":1,
    "stations":1,
    "asked":1,
    "compile":1,
    "investigatorsthey":1,
    "everyones":1,
    "whereabouts":1,
    "looks":1,
    "questions":1,
    "flatfoot":1,
    "shall":1,
    "spent":1,
    "forget":1,
    "truffles":1,
    "office":1,
    "morning":1,
    "beaten":1,
    "nametag":1,
    "benevolencea":1,
    "service":1,
    "community":1,
    "ignition":1,
    "warm":1,
    "calls":1,
    "celebration":1,
    "crawling":1,
    "hey":1,
    "j":1,
    "edgars":1,
    "jurisdiction":1,
    "earn":1,
    "supper":1,
    "kissed":1,
    "94very":1,
    "nice":1,
    "table":1,
    "stroganoff":1,
    "chefs":1,
    "reallife":1,
    "spaceman":1,
    "atmosphere":1,
    "drive":1,
    "idiot":1,
    "ruin":1,
    "stunt":1,
    "piss":1,
    "showering":1,
    "drinking":1,
    "evian":1,
    "filtered":1,
    "1115":1,
    "port":1,
    "crew":1,
    "sending":1,
    "beltyou":1,
    "peoplenever":1,
    "discover":1,
    "heights":1,
    "male":1,
    "mature":1,
    "blonse":1,
    "brown":1,
    "light":1,
    "complexion":1,
    "511":1,
    "61":1,
    "pronounced":1,
    "caucasian":1,
    "thin":1,
    "lips":1,
    "weak":1,
    "chin":1,
    "lobeless":1,
    "ears":1,
    "prematurely":1,
    "balding":1,
    "bowlegged":1,
    "broad":1,
    "barrel":1,
    "chest":1,
    "cuts":1,
    "mindful":1,
    "drunki":1,
    "knew":1,
    "cargo":1,
    "sleep":1,
    "sober":1,
    "proud":1,
    "dragged":1,
    "timea":1,
    "nonothing":1,
    "checking":1,
    "entry":1,
    "alibis":1,
    "dry":1,
    "universally":1,
    "loved":1,
    "leading":1,
    "cutbacks":1,
    "room":1,
    "full":1,
    "motives":1,
    "sirit":1,
    "according":1,
    "congenital":1,
    "80":1,
    "owner":1,
    "himself":1,
    "causes":1,
    "20":1,
    "bludgeon":1,
    "along":1,
    "lines":1,
    "robbery":1,
    "soura":1,
    "thief":1,
    "disturbed":1,
    "jibe":1,
    "killing":1,
    "indicates":1,
    "proclivity":1,
    "crossover":1,
    "associate":1,
    "connections":1,
    "relative":1,
    "pity":1,
    "simple":1,
    "locate":1,
    "minus":1,
    "solve":1,
    "itself":1,
    "napoleon":1,
    "napoleons":1,
    "helping":1,
    "excused":1,
    "resume":1,
    "duties":1,
    "beating":1,
    "metronome":1,
    "piano":1,
    "heartbeat":1,
    "josef":1,
    "lead":1,
    "surely":1,
    "boat":1,
    "swear":1,
    "lunch":1,
    "prepared":1,
    "available":1,
    "mercykilling":1,
    "ought":1,
    "dawn":1,
    "sent":1,
    "summer":1,
    "wheat":1,
    "particular":1,
    "offed":1,
    "makes":1,
    "onwere":1,
    "connection":1,
    "cut":1,
    "losses":1,
    "acting":1,
    "guilty":1,
    "marry":1,
    "navigators":1,
    "suckered":1,
    "sign":1,
    "confession":1,
    "stick":1,
    "minor":1,
    "inconvenience":1,
    "heat":1,
    "jesus":1,
    "belly":1,
    "fucking":1,
    "gasp":1,
    "bothered":1,
    "quit":1,
    "rented":1,
    "spine":1,
    "wheel":1,
    "finish":1,
    "pad":1,
    "18":1,
    "lashes":1,
    "lids":1,
    "belong":1,
    "careless":1,
    "crying":1,
    "tears":1,
    "borrow":1,
    "tie":1,
    "whove":1,
    "rattled":1,
    "ear":1,
    "stripe":1,
    "virgin":1,
    "feel":1,
    "plucking":1,
    "bald":1,
    "havent":1,
    "overhaul":1,
    "backup":1,
    "generator":1,
    "youyou":1,
    "vacation":1,
    "deserve":1,
    "fish":1,
    "sometihng":1,
    "stuck":1,
    "net":1,
    "working":1,
    "requested":1,
    "kept":1,
    "wider":1,
    "usual":1,
    "location":1,
    "word":1,
    "odds":1,
    "slave":1,
    "probability":1,
    "successfully":1,
    "eluded":1,
    "authorities":1,
    "fifteen":1,
    "yearsa":1,
    "brutal":1,
    "killeris":1,
    "lamb":1,
    "sheet":1,
    "underground":1,
    "felonies":1,
    "innocent":1,
    "specimens":1,
    "crime":1,
    "scenes":1,
    "widen":1,
    "west":1,
    "draw":1,
    "mile":1,
    "radius":1,
    "classier":1,
    "establishments":1,
    "random":1,
    "complaints":1,
    "frivolous":1,
    "search":1,
    "public":1,
    "happy":1,
    "cooperate":1,
    "yesyes":1,
    "shit":1,
    "alright":1,
    "sonja":1,
    "hunt":1,
    "fuck":1,
    "happier":1,
    "whores":1,
    "godchild":1,
    "lovely":1,
    "keeps":1,
    "coming":1,
    "wonder":1,
    "paying":1,
    "contaminated":1,
    "specimenif":1,
    "meaning":1,
    "thanks":1,
    "swabs":1,
    "envy":1,
    "satellite":1,
    "carefulweekly":1,
    "checkups":1,
    "thinners":1,
    "diet":1,
    "experiencing":1,
    "symptoms":1,
    "latefifties":1,
    "67":1,
    "complicated":1,
    "apologizing":1,
    "catch":1,
    "doubt":1,
    "lower":1,
    "standard":1,
    "offspring":1,
    "breed":1,
    "preparing":1,
    "die":1,
    "telling":1,
    "eventually":1,
    "flake":1,
    "restaurant":1,
    "employees":1,
    "accounted":1,
    "customer":1,
    "cater":1,
    "misfits":1,
    "borrowed":1,
    "ladders":1,
    "consider":1,
    "possibility":1,
    "elses":1,
    "degeneerate":1,
    "near":1,
    "washroom":1,
    "during":1,
    "janitor":1,
    "delivery":1,
    "manit":1,
    "blown":1,
    "exposed":1,
    "workers":1,
    "ignore":1,
    "expiration":1,
    "stamina":1,
    "pass":1,
    "physicals":1,
    "underestimate":1,
    "imposters":1,
    "photos":1,
    "facebut":1,
    "employee":1,
    "gave":1,
    "intravenous":1,
    "workforce":1,
    "twothirds":1,
    "fall":1,
    "category":1,
    "closing":1,
    "operation":1,
    "fingertip":1,
    "urine":1,
    "vein":1,
    "sonofabitch":1,
    "somewhere":1,
    "dust":1,
    "beginning":1,
    "bookthe":1,
    "became":1,
    "building":1,
    "blocks":1,
    "godding":1,
    "advanced":1,
    "model":1,
    "hopes":1,
    "commander":1,
    "investigators":1,
    "begun":1,
    "exception":1,
    "apologize":1,
    "yor":1,
    "fault":1,
    "predecessor":1,
    "plungers":1,
    "opening":1,
    "law":1,
    "enforcement":1,
    "methods":1,
    "compromised":1,
    "jesusim":1,
    "practise":1,
    "shoes":1,
    "somethings":1,
    "alley":1,
    "missed":1,
    "manpower":1,
    "budget":1,
    "pension":1,
    "authority":1,
    "lookin":1,
    "telescope":1,
    "possibly":1,
    "allow":1,
    "disrupt":1,
    "operations":1,
    "unconcerned":1,
    "midst":1,
    "presence":1,
    "creating":1,
    "threat":1,
    "concept":1,
    "herehow":1,
    "meticulous":1,
    "preparations":1,
    "send":1,
    "140":1,
    "blackness":1,
    "rendezvous":1,
    "object":1,
    "size":1,
    "coal":1,
    "direction":1,
    "amongst":1,
    "bodies":1,
    "littering":1,
    "conducting":1,
    "trace":1,
    "bed":1,
    "meantime":1,
    "recheck":1,
    "haunt":1,
    "prefer":1,
    "microscope":1,
    "plans":1,
    "nothings":1,
    "invite":1,
    "pin":1,
    "cushion":1,
    "forward":1,
    "conversation":1,
    "phone":1,
    "fortyfive":1,
    "reply":1,
    "tastes":1,
    "lenses":1,
    "hairpieces":1,
    "checks":1,
    "shouldnt":1,
    "brought":1,
    "medication":1,
    "establishment":1,
    "inspector":1,
    "hit":1,
    "fist":1,
    "hammer":1,
    "swallow":1,
    "quick":1,
    "teeth":1,
    "waiting":1,
    "vacuum":1,
    "flush":1,
    "99":1,
    "chrysler":1,
    "lebaron":1,
    "exact":1,
    "height":1,
    "fender":1,
    "looked":1,
    "smart":1,
    "knowif":1,
    "willing":1,
    "ovum":1,
    "fact":1,
    "use":1,
    "hypocrite":1,
    "arewhat":1,
    "satisfaction":1,
    "ripe":1,
    "precisely":1,
    "scaresmethat":1,
    "courageous":1,
    "anythingworth":1,
    "wife":1,
    "iwere":1,
    "starting":1,
    "personality":1,
    "reading":1,
    "cost":1,
    "thing":1,
    "violent":1,
    "spiteful":1,
    "theyd":1,
    "sit":1,
    "stand":1,
    "improving":1,
    "positive":1,
    "cup":1,
    "definitely":1,
    "choices":1,
    "drink":1,
    "water":1,
    "desperate":1,
    "lose":1,
    "nightperhaps":1,
    "profiles":1,
    "upcoming":1,
    "supervise":1,
    "personally":1,
    "forgot":1,
    "somethingsomething":1,
    "absentee":1,
    "nausea":1,
    "contagious":1,
    "permit":1,
    "eve":1,
    "counting":1,
    "backwards":1,
    "spoil":1,
    "surprise":1,
    "sweatheart":1,
    "kiss":1,
    "friends":1,
    "forgive":1,
    "closet":1,
    "whole":1,
    "kitchen":1,
    "yesyesyes":1,
    "faking":1,
    "signed":1,
    "confessionsupplied":1,
    "wore":1,
    "accomplice":1,
    "welcome":1,
    "debut":1,
    "missionif":1,
    "map":1,
    "heavens":1,
    "gratified":1,
    "cloud":1,
    "hanging":1,
    "tomorrows":1,
    "unpleasantness":1,
    "behind":1,
    "concentrate":1,
    "task":1,
    "isthe":1,
    "asking":1,
    "gasprahow":1,
    "secrets":1,
    "enjoy":1,
    "families":1,
    "older":1,
    "fingerprint":1,
    "nostalgia":1,
    "share":1,
    "characteristics":1,
    "appears":1,
    "brotherof":1,
    "kind":1,
    "sense":1,
    "keeping":1,
    "slow":1,
    "learner":1,
    "tidy":1,
    "trash":1,
    "locker":1,
    "running":1,
    "ask":1,
    "almost":1,
    "sound":1,
    "succeed":1,
    "hadnt":1,
    "noticed":1,
    "rescuing":1,
    "answers":1,
    "convince":1,
    "prove":1,
    "nowtonight":1,
    "succeeded":1,
    "deceived":1,
    "clothes":1,
    "hisis":1,
    "beats":1,
    "overdue":1,
    "engineer":1,
    "vincents":1,
    "closer":1,
    "drown":1,
    "wanted":1,
    "saved":1,
    "longjust":1,
    "lifetimes":1,
    "travelling":1,
    "deal":1,
    "bodyyou":1,
    "dream":1,
    "policy":1,
    "nervous":1,
    "fan":1,
    "apply":1,
    "wiser":1,
    "unfortunately":1,
    "sons":1,
    "promised":1,
    "reference":1,
    "righthanded":1,
    "men":1,
    "stars":1,
    "beyond":1,
    "eight":1,
    "dying":1,
    "epileptic":1,
    "arthritic":1,
    "amyotrophic":1,
    "lateral":1,
    "sclerosis":1,
    "alzheimers":1,
    "deaf":1,
    "lou":1,
    "gerhigs":1,
    "asthmatic":1,
    "chronic":1,
    "flight":2,
    "plan":2,
    "substance":2,
    "cock":2,
    "order":2,
    "while":2,
    "bit":2,
    "navigator":2,
    "days":2,
    "citizens":2,
    "guaranteed":2,
    "physical":2,
    "gifts":2,
    "second":2,
    "none":2,
    "truly":2,
    "riviera":2,
    "made":2,
    "own":2,
    "early":2,
    "faith":2,
    "considered":2,
    "perfectly":2,
    "matter":2,
    "predispositions":2,
    "date":2,
    "born":2,
    "natural":2,
    "meant":2,
    "hed":2,
    "naturally":2,
    "critical":2,
    "major":2,
    "inheritable":2,
    "diseases":2,
    "skin":2,
    "propensity":2,
    "violence":2,
    "obesity":2,
    "times":2,
    "er":2,
    "associated":2,
    "neck":2,
    "mathematical":2,
    "extra":2,
    "probably":2,
    "son":2,
    "playing":2,
    "anywhere":2,
    "favorite":2,
    "outside":2,
    "scared":2,
    "stronger":2,
    "school":2,
    "bet":2,
    "easily":2,
    "certainly":2,
    "condition":2,
    "risk":2,
    "perhaps":2,
    "sake":2,
    "inside":2,
    "real":2,
    "cells":2,
    "illegal":2,
    "called":2,
    "takes":2,
    "saliva":2,
    "part":2,
    "drug":2,
    "future":2,
    "knowing":2,
    "shore":2,
    "contest":2,
    "save":2,
    "confirmed":2,
    "glass":2,
    "might":2,
    "ideas":2,
    "door":2,
    "success":2,
    "member":2,
    "hard":2,
    "identity":2,
    "big":2,
    "star":2,
    "happened":2,
    "record":2,
    "talking":2,
    "society":2,
    "ones":2,
    "yeah":2,
    "problems":2,
    "foot":2,
    "wear":2,
    "lifts":2,
    "suit":2,
    "without":2,
    "hell":2,
    "honest":2,
    "living":2,
    "needs":2,
    "corrections":2,
    "certain":2,
    "serious":2,
    "relief":2,
    "stuff":2,
    "madetoorder":2,
    "rid":2,
    "line":2,
    "health":2,
    "anyone":2,
    "product":2,
    "invalids":2,
    "deficients":2,
    "cured":2,
    "sick":2,
    "donor":2,
    "system":2,
    "quickly":2,
    "directors":2,
    "planned":2,
    "launch":2,
    "window":2,
    "though":2,
    "immediately":2,
    "bother":2,
    "log":2,
    "verified":2,
    "answer":2,
    "convincing":2,
    "died":2,
    "check":2,
    "kill":2,
    "slightly":2,
    "final":2,
    "gentlemen":2,
    "ready":2,
    "upstairs":2,
    "hurt":2,
    "gotta":2,
    "worth":2,
    "maintenance":2,
    "stay":2,
    "origin":2,
    "instead":2,
    "shoulders":2,
    "walked":2,
    "hardly":2,
    "wasting":2,
    "grudges":2,
    "program":2,
    "respect":2,
    "unaccountable":2,
    "suggests":2,
    "percent":2,
    "alive":2,
    "whos":2,
    "today":2,
    "often":2,
    "south":2,
    "wing":2,
    "corridor":2,
    "security":2,
    "interested":2,
    "wind":2,
    "friend":2,
    "celebrate":2,
    "ordered":2,
    "worse":2,
    "choice":2,
    "mine":2,
    "offers":2,
    "investigation":2,
    "thirsty":2,
    "parameters":2,
    "traces":2,
    "shown":2,
    "scene":2,
    "unlucky":2,
    "stops":2,
    "streets":2,
    "face":2,
    "talk":2,
    "show":2,
    "trip":2,
    "sun":2,
    "waste":2,
    "past":2,
    "worried":2,
    "wants":2,
    "hand":2,
    "works":2,
    "leak":2,
    "seen":2,
    "match":2,
    "within":2,
    "ugly":2,
    "key":2,
    "original":2,
    "inconvenient":2,
    "bank":2,
    "killer":2,
    "twelve":2,
    "house":2,
    "doubts":2,
    "able":2,
    "important":2,
    "safe":2,
    "touch":2,
    "spit":2,
    "egg":2,
    "moment":2,
    "same":2,
    "finally":2,
    "lent":2,
    "isnt":3,
    "taking":3,
    "speak":3,
    "goes":3,
    "please":3,
    "end":3,
    "gaspra":3,
    "space":3,
    "birth":3,
    "such":3,
    "conceived":3,
    "gods":3,
    "rather":3,
    "ago":3,
    "ten":3,
    "minutes":3,
    "death":3,
    "known":3,
    "others":3,
    "nose":3,
    "went":3,
    "having":3,
    "become":3,
    "accident":3,
    "maria":3,
    "play":3,
    "myopia":3,
    "yes":3,
    "leave":3,
    "things":3,
    "possible":3,
    "reason":3,
    "although":3,
    "evidence":3,
    "also":3,
    "mr":3,
    "head":3,
    "tomorrow":3,
    "human":3,
    "very":3,
    "werent":3,
    "swim":3,
    "turn":3,
    "fail":3,
    "learning":3,
    "anyway":3,
    "blame":3,
    "down":3,
    "concerned":3,
    "new":3,
    "theyre":3,
    "sample":3,
    "else":3,
    "each":3,
    "damn":3,
    "everyone":3,
    "mean":3,
    "wheres":3,
    "lucky":3,
    "unless":3,
    "meet":3,
    "means":3,
    "another":3,
    "elite":3,
    "goddamn":3,
    "actually":3,
    "body":3,
    "color":3,
    "four":3,
    "six":3,
    "tonight":3,
    "listen":3,
    "both":3,
    "trouble":3,
    "point":3,
    "really":3,
    "god":3,
    "million":3,
    "leaving":3,
    "arent":3,
    "eugene":3,
    "longer":3,
    "altered":3,
    "births":3,
    "gattaca":3,
    "stopped":3,
    "either":3,
    "foolish":3,
    "hoovers":3,
    "drunk":3,
    "tongue":3,
    "knows":3,
    "thinking":3,
    "gone":3,
    "hugo":3,
    "lost":3,
    "miles":3,
    "investigator":3,
    "caught":3,
    "invalid":3,
    "eye":3,
    "less":3,
    "theyll":3,
    "hoover":3,
    "change":3,
    "said":3,
    "samples":3,
    "feeling":3,
    "sweep":3,
    "disease":3,
    "quite":3,
    "couldnt":3,
    "she":3,
    "everybody":3,
    "michaels":3,
    "nobody":3,
    "afraid":3,
    "done":3,
    "testing":3,
    "beat":3,
    "further":3,
    "trying":3,
    "common":3,
    "belt":4,
    "yours":4,
    "everything":4,
    "first":4,
    "year":4,
    "walk":4,
    "besides":4,
    "am":4,
    "honey":4,
    "father":4,
    "thank":4,
    "healthy":4,
    "old":4,
    "antonio":4,
    "luca":4,
    "age":4,
    "thought":4,
    "parents":4,
    "until":4,
    "car":4,
    "brother":4,
    "start":4,
    "forgotten":4,
    "five":4,
    "worry":4,
    "wasnt":4,
    "problem":4,
    "hold":4,
    "job":4,
    "perfect":4,
    "open":4,
    "wish":4,
    "must":4,
    "front":4,
    "mans":4,
    "family":4,
    "tall":4,
    "once":4,
    "being":4,
    "exactly":4,
    "home":4,
    "late":4,
    "people":4,
    "between":4,
    "enhancement":4,
    "forever":4,
    "alone":4,
    "evening":4,
    "act":4,
    "lets":4,
    "stop":4,
    "case":4,
    "detective":4,
    "murder":4,
    "later":4,
    "suspect":4,
    "recognize":4,
    "live":4,
    "guess":4,
    "question":4,
    "remember":4,
    "hello":4,
    "next":5,
    "told":5,
    "away":5,
    "over":5,
    "genetic":5,
    "taken":5,
    "put":5,
    "name":5,
    "hair":5,
    "best":5,
    "youd":5,
    "little":5,
    "excuse":5,
    "easier":5,
    "together":5,
    "few":5,
    "side":5,
    "german":5,
    "yourself":5,
    "likely":5,
    "yet":5,
    "since":5,
    "bad":5,
    "weve":5,
    "angry":5,
    "does":5,
    "then":5,
    "lamar":5,
    "work":6,
    "thousand":6,
    "beautiful":6,
    "every":6,
    "morrow":6,
    "care":6,
    "give":6,
    "children":6,
    "look":6,
    "world":6,
    "left":6,
    "eyes":6,
    "mind":6,
    "blood":6,
    "heart":6,
    "make":6,
    "okay":6,
    "run":6,
    "dead":6,
    "call":6,
    "maybe":6,
    "somebody":6,
    "wouldnt":6,
    "night":6,
    "specimen":6,
    "miss":6,
    "looking":6,
    "again":6,
    "shes":6,
    "keep":7,
    "clean":7,
    "someone":7,
    "lot":7,
    "week":7,
    "least":7,
    "nothing":7,
    "used":7,
    "chance":7,
    "profile":7,
    "before":7,
    "let":7,
    "into":7,
    "two":7,
    "years":7,
    "anything":7,
    "through":7,
    "anybody":7,
    "find":7,
    "sir":7,
    "these":7,
    "test":8,
    "youve":8,
    "ever":8,
    "tell":8,
    "most":8,
    "understand":8,
    "enough":8,
    "day":8,
    "myself":8,
    "off":8,
    "after":8,
    "should":8,
    "anton":8,
    "far":8,
    "always":8,
    "getting":8,
    "place":8,
    "blind":8,
    "her":8,
    "mission":9,
    "child":9,
    "doesnt":9,
    "wont":9,
    "came":9,
    "good":9,
    "believe":9,
    "many":9,
    "even":9,
    "better":9,
    "director":9,
    "eyelash":9,
    "some":10,
    "doing":10,
    "around":10,
    "those":10,
    "whats":10,
    "long":10,
    "our":10,
    "them":10,
    "sure":10,
    "irene":10,
    "wrong":11,
    "":11,
    "way":11,
    "much":11,
    "youll":11,
    "too":11,
    "say":12,
    "other":12,
    "has":12,
    "than":12,
    "course":12,
    "had":12,
    "need":12,
    "theres":12,
    "sorry":12,
    "by":12,
    "life":13,
    "already":13,
    "never":13,
    "thats":13,
    "found":13,
    "man":13,
    "us":14,
    "didnt":14,
    "will":14,
    "when":14,
    "may":14,
    "id":14,
    "only":15,
    "time":15,
    "last":15,
    "their":15,
    "come":15,
    "go":16,
    "ill":16,
    "ive":16,
    "been":16,
    "now":16,
    "hes":16,
    "got":17,
    "or":17,
    "cant":17,
    "back":17,
    "take":17,
    "something":18,
    "still":18,
    "think":18,
    "up":18,
    "just":18,
    "him":18,
    "did":18,
    "where":19,
    "why":20,
    "more":20,
    "right":21,
    "any":21,
    "would":21,
    "well":21,
    "his":21,
    "from":22,
    "here":23,
    "see":23,
    "who":23,
    "out":24,
    "an":25,
    "about":26,
    "vincent":26,
    "at":27,
    "all":27,
    "want":27,
    "but":28,
    "going":28,
    "jerome":29,
    "there":30,
    "one":31,
    "on":31,
    "can":32,
    "were":32,
    "as":32,
    "like":33,
    "no":33,
    "get":34,
    "how":35,
    "im":36,
    "he":37,
    "if":38,
    "youre":38,
    "its":39,
    "could":39,
    "so":41,
    "do":44,
    "know":45,
    "they":46,
    "are":48,
    "my":49,
    "with":49,
    "was":50,
    "and":55,
    "me":56,
    "your":58,
    "dont":58,
    "for":60,
    "this":60,
    "what":64,
    "not":64,
    "that":68,
    "in":68,
    "is":71,
    "be":72,
    "we":72,
    "have":87,
    "it":102,
    "of":122,
    "a":164,
    "i":190,
    "to":207,
    "the":262,
    "you":283
}