{
    "eugene":1,
    "stewart":1,
    "representing":1,
    "watching":1,
    "offense":1,
    "assault":1,
    "deadly":1,
    "weapon":1,
    "waved":1,
    "jurisdiction":1,
    "chairman":1,
    "seek":1,
    "connection":1,
    "correct":1,
    "served":1,
    "record":1,
    "applied":1,
    "september":1,
    "5th":1,
    "remarks":1,
    "committees":1,
    "behavior":1,
    "notice":1,
    "closed":1,
    "reached":1,
    "decision":1,
    "regarding":1,
    "face":1,
    "taut":1,
    "denied":1,
    "reapply":1,
    "calendar":1,
    "lowers":1,
    "avoids":1,
    "docs":1,
    "glance":1,
    "shuffles":1,
    "papers":1,
    "front":1,
    "begins":1,
    "stuffing":1,
    "briefcase":1,
    "next":1,
    "john":1,
    "embezzlement":1,
    "corporate":1,
    "funds":1,
    "raining":1,
    "regular":1,
    "mcgovern":1,
    "rides":1,
    "winning":1,
    "easy":1,
    "sit":1,
    "asked":1,
    "1230":1,
    "hi":1,
    "license":1,
    "expired":1,
    "late":1,
    "hair":1,
    "slow":1,
    "town":1,
    "homework":1,
    "stretch":1,
    "developed":1,
    "assumed":1,
    "name":1,
    "houston":1,
    "dinner":1,
    "whisky":1,
    "peach":1,
    "taste":1,
    "pretty":1,
    "oregon":1,
    "saw":1,
    "chance":1,
    "travel":1,
    "estelle":1,
    "fatter":1,
    "nothings":1,
    "since":1,
    "found":1,
    "question":1,
    "fix":1,
    "asleep":1,
    "250000":1,
    "top":1,
    "straight":1,
    "laughing":1,
    "believe":1,
    "loving":1,
    "hurt":1,
    "cried":1,
    "cry":1,
    "gotta":1,
    "kidding":1,
    "pleasant":1,
    "lunch":1,
    "civilian":1,
    "judge":1,
    "almost":1,
    "reverses":1,
    "decisions":1,
    "model":1,
    "public":1,
    "professionals":1,
    "show":1,
    "weeks":1,
    "mine":1,
    "moustache":1,
    "butler":1,
    "frank":1,
    "miller":1,
    "touch":1,
    "cops":1,
    "blew":1,
    "chicago":1,
    "backup":1,
    "payroll":1,
    "liquor":1,
    "stores":1,
    "passports":1,
    "visas":1,
    "application":1,
    "account":1,
    "president":1,
    "tellers":1,
    "usually":1,
    "careful":1,
    "panic":1,
    "local":1,
    "rover":1,
    "shouldnt":1,
    "vicinity":1,
    "answering":1,
    "emergency":1,
    "cop":1,
    "shows":1,
    "automatic":1,
    "weapons":1,
    "shotgun":1,
    "braced":1,
    "dashboard":1,
    "tight":1,
    "spot":1,
    "range":1,
    "forty":1,
    "street":1,
    "light":1,
    "traffic":1,
    "carries":1,
    "38":1,
    "m2":1,
    "shot":1,
    "worked":1,
    "without":1,
    "vault":1,
    "reilly":1,
    "opens":1,
    "20":1,
    "wire":1,
    "oneinch":1,
    "threenumber":1,
    "combination":1,
    "handling":1,
    "lost":1,
    "gollie":1,
    "hang":1,
    "gollie\ufffds":1,
    "questions":1,
    "walkin":1,
    "alone":1,
    "drop":1,
    "clear":1,
    "understands":1,
    "everybody":1,
    "minds":1,
    "guessing":1,
    "games":1,
    "promise":1,
    "school":1,
    "bad":1,
    "promised":1,
    "such":1,
    "relief":1,
    "waitings":1,
    "actually":1,
    "gotten":1,
    "tired":1,
    "worn":1,
    "difference":1,
    "bullshit":1,
    "todays":1,
    "happily":1,
    "behind":1,
    "van":1,
    "wears":1,
    "jacket":1,
    "cap":1,
    "squatted":1,
    "quickly":1,
    "activating":1,
    "timing":1,
    "mechanism":1,
    "clockface":1,
    "wristwatch":1,
    "dexterous":1,
    "movement":1,
    "places":1,
    "large":1,
    "burying":1,
    "explosives":1,
    "within":1,
    "each":1,
    "sack":1,
    "covers":1,
    "bombs":1,
    "crumpled":1,
    "wastepaper":1,
    "gently":1,
    "shoved":1,
    "resting":1,
    "wheel":1,
    "truck":1,
    "superior":1,
    "technology":1,
    "19":1,
    "seconds":1,
    "hand":1,
    "nears":1,
    "alleyway":1,
    "panicked":1,
    "nailed":1,
    "checked":1,
    "beynotr":1,
    "dead":1,
    "chop":1,
    "office":1,
    "percentages":1,
    "send":1,
    "burn":1,
    "keeping":1,
    "wrap":1,
    "persons":1,
    "ambitious":1,
    "c":1,
    "ut":1,
    "north":1,
    "hired":1,
    "share":1,
    "feelings":1,
    "hurry":1,
    "picture":1,
    "smart":1,
    "operator":1,
    "applause":1,
    "examine":1,
    "situation":1,
    "extremely":1,
    "attractive":1,
    "womans":1,
    "skillful":1,
    "robber":1,
    "political":1,
    "influence":1,
    "easily":1,
    "convict":1,
    "simple":1,
    "rob":1,
    "knew":1,
    "8":1,
    "radios":1,
    "rappin":1,
    "750000":1,
    "brothers":1,
    "director":1,
    "pressing":1,
    "debts":1,
    "crackerbox":1,
    "interested":1,
    "strings":1,
    "pulled":1,
    "eight3":1,
    "badly":1,
    "jail":1,
    "healthy":1,
    "young":1,
    "stupid":1,
    "mary":1,
    "tyler":1,
    "moore":1,
    "whos":1,
    "shes":1,
    "tv":1,
    "telling":1,
    "truth":1,
    "checks":1,
    "momentarily":1,
    "prowls":1,
    "wagon":1,
    "rows":1,
    "automobiles":1,
    "coach":1,
    "thirtyfour":1,
    "fiftysix":1,
    "tax":1,
    "leaves":1,
    "fortyfive":1,
    "tricky":1,
    "thank":1,
    "damage":1,
    "collar":1,
    "broken":1,
    "yet":1,
    "bandages":1,
    "changed":1,
    "nurse":1,
    "glucose":1,
    "traveling":1,
    "clinton":1,
    "gas":1,
    "check":1,
    "oil":1,
    "tires":1,
    "problems":1,
    "fixed":1,
    "says":1,
    "phone":1,
    "calls":1,
    "vet":1,
    "animals":1,
    "starting":1,
    "slipups":1,
    "looked":1,
    "easier":1,
    "beer":1,
    "catch":1,
    "pinkcheeked":1,
    "frecklefaced":1,
    "shave":1,
    "twentyone":1,
    "goodlooking":1,
    "hustler":1,
    "wats":1,
    "twentyfour":1,
    "furlough":1,
    "goin":1,
    "utah":1,
    "beehive":1,
    "orem":1,
    "near":1,
    "mormon":1,
    "neither":1,
    "mormons":1,
    "certainly":1,
    "special":1,
    "afraid":1,
    "luck":1,
    "stands":1,
    "pauses":1,
    "moment":1,
    "helped":1,
    "switched":1,
    "keys":1,
    "boyfriend":1,
    "hed":1,
    "probably":1,
    "guy":1,
    "bastard":1,
    "matters":1,
    "sound":1,
    "rid":1,
    "polish":1,
    "along":1,
    "known":1,
    "ticket":1,
    "paint":1,
    "fingers":1,
    "glancing":1,
    "parked":1,
    "passenger":1,
    "walking":1,
    "cautiously":1,
    "ahead":1,
    "continues":1,
    "slowly":1,
    "disappears":1,
    "view":1,
    "pop":1,
    "mark":1,
    "line":1,
    "ought":1,
    "theyve":1,
    "switch":1,
    "put":1,
    "word":1,
    "throw":1,
    "mothers":1,
    "nearby":1,
    "land":1,
    "huntsville":1,
    "screw":1,
    "official":1,
    "youd":1,
    "caught":1,
    "split":1,
    "paper":1,
    "bag":1,
    "eat":1,
    "answers":1,
    "body":1,
    "couple":1,
    "hunting":1,
    "party":1,
    "nothing":1,
    "loredo":1,
    "talked":1,
    "boys":1,
    "full":1,
    "ifs":1,
    "liked":1,
    "gift":1,
    "learn3":1,
    "chair":1,
    "friend":1,
    "court":1,
    "under":1,
    "arrest":1,
    "positively":1,
    "identified":1,
    "recently":1,
    "paroled":1,
    "penitentiary":1,
    "believed":1,
    "means":1,
    "today":1,
    "faster":1,
    "junior":1,
    "congratulations":1,
    "came":1,
    "rooms":1,
    "workl":1,
    "words":1,
    "bill":1,
    "left":1,
    "wrecked":1,
    "blouse":1,
    "portable":1,
    "transistor":1,
    "15":1,
    "55":1,
    "invicta":1,
    "12gauge":1,
    "pump":1,
    "twentyinch":1,
    "barrel":1,
    "shells":1,
    "boxes":1,
    "doubleought":1,
    "buck":1,
    "knock":1,
    "wall":1,
    "sign":1,
    "eightyfive":1,
    "obliged":1,
    "slide":1,
    "eight":1,
    "hungry":1,
    "honey":1,
    "cheeseburgers":1,
    "coffees":1,
    "milkshake":1,
    "fries":1,
    "roll":1,
    "part":1,
    "mercury":1,
    "deep":1,
    "scratch":1,
    "rub":1,
    "bother":1,
    "yesterday":1,
    "worth":1,
    "together":1,
    "thought":1,
    "jails":1,
    "tough":1,
    "forget":1,
    "chose":1,
    "sounds":1,
    "worse":1,
    "composition":1,
    "pimlico":1,
    "consistently":1,
    "holds":1,
    "form":1,
    "dumb":1,
    "damn":1,
    "trainers":1,
    "rate":1,
    "breaks":1,
    "heart":1,
    "sweetpea":1,
    "choices":1,
    "die":1,
    "otherwise":1,
    "six":1,
    "months":1,
    "rudys":1,
    "arrived":1,
    "jimmy":1,
    "departure":1,
    "arrival":1,
    "everything":1,
    "except":1,
    "500":1,
    "mama":1,
    "growing":1,
    "ones":1,
    "floor":1,
    "lady11":1,
    "desk":1,
    "grunt":1,
    "hours":1,
    "across":1,
    "jeep":1,
    "bed":1,
    "east":1,
    "mexican":1,
    "drops":1,
    "airfield":1,
    "9":1,
    "oclock":1,
    "flight":1,
    "wrong":1,
    "upi":1,
    "carols":1,
    "snap":1,
    "moving":1,
    "family":1,
    "around":1,
    "stand":1,
    "stays":1,
    "juice":1,
    "horses":1,
    "crazy":1,
    "butt":1,
    "rest":1,
    "brought":1,
    "stall":1,
    "door":1,
    "dressed":1,
    "maam":1,
    "boy":1,
    "went":1,
    "hold":1,
    "husbands":1,
    "number":1,
    "420":1,
    "jump":1,
    "in1":1,
    "description":1,
    "plane":1,
    "aint":1,
    "kinda":1,
    "doubt":1,
    "cooperate":1,
    "law":1,
    "myself":1,
    "dynamited":1,
    "reservoir":1,
    "cost":1,
    "even":1,
    "crossing":1,
    "buenas":1,
    "tardes":1,
    "destination":1,
    "sightseeing":1,
    "which":1,
    "juarez":1,
    "city":1,
    "grand":1,
    "serious":1,
    "report":1,
    "cab":1,
    "afford":1,
    "paid":1,
    "price":1,
    "gods":1,
    "sake":1,
    "wish":1,
    "slim":1,
    "canfields":1,
    "lips":1,
    "though":1,
    "robbed":1,
    "gave":1,
    "music":1,
    "hey":1,
    "begin":2,
    "legal":2,
    "counsel":2,
    "present":2,
    "taking":2,
    "ohio":2,
    "case":2,
    "satisfactory":2,
    "attention":2,
    "taken":2,
    "board":2,
    "met":2,
    "chambers":2,
    "eyes":2,
    "looks":2,
    "lawyer":2,
    "doty":2,
    "jack":2,
    "jesus":2,
    "ainsley":2,
    "same":2,
    "took":2,
    "talk":2,
    "husband":2,
    "river":2,
    "done":2,
    "girl":2,
    "small":2,
    "big":2,
    "looking":2,
    "mistake":2,
    "arm":2,
    "remembered":2,
    "quick":2,
    "trip":2,
    "brother":2,
    "kids":2,
    "unless":2,
    "boring":2,
    "couldnt":2,
    "while":2,
    "wait":2,
    "nervous":2,
    "let":2,
    "breakfast":2,
    "new":2,
    "waited":2,
    "happy":2,
    "thinking":2,
    "wasnt":2,
    "happen":2,
    "meet":2,
    "business":2,
    "heard":2,
    "care":2,
    "checking":2,
    "somebody":2,
    "police":2,
    "remember":2,
    "yards":2,
    "guns":2,
    "exits":2,
    "main":2,
    "stop":2,
    "someone":2,
    "lock":2,
    "start":2,
    "stuff":2,
    "anybody":2,
    "getting":2,
    "nogales":2,
    "hot":2,
    "till":2,
    "arent":2,
    "mind":2,
    "dillinger":2,
    "mistakes":2,
    "until":2,
    "funny":2,
    "night":2,
    "learn":2,
    "least":2,
    "outside":2,
    "watch":2,
    "bomb":2,
    "against":2,
    "grocery":2,
    "bags":2,
    "feet":2,
    "ass":2,
    "gun":2,
    "men":2,
    "problem":2,
    "our":2,
    "deal":2,
    "cross":2,
    "fast":2,
    "told":2,
    "matter":2,
    "fact":2,
    "woman":2,
    "reason":2,
    "life":2,
    "add":2,
    "cover":2,
    "promises":2,
    "bet":2,
    "explain":2,
    "tickets":2,
    "bone":2,
    "infection":2,
    "twice":2,
    "possible":2,
    "road":2,
    "clock":2,
    "married":2,
    "home":2,
    "salt":2,
    "lake":2,
    "nice":2,
    "yours":2,
    "fifteen":2,
    "station":2,
    "boarding":2,
    "loosen":2,
    "country":2,
    "dry":2,
    "second":2,
    "buy":2,
    "bang":2,
    "baby":2,
    "hadnt":2,
    "travelling":2,
    "sleep":2,
    "hear":2,
    "sir":2,
    "place":2,
    "else":2,
    "cmon":2,
    "far":2,
    "dollars":2,
    "thirty":2,
    "twenty":2,
    "scars":2,
    "game":2,
    "miles":2,
    "happens":2,
    "mexico":2,
    "track":2,
    "speed":2,
    "horse":2,
    "laughlins":2,
    "318":2,
    "sandwiches":2,
    "coming":2,
    "shower":2,
    "quiet":2,
    "airport":2,
    "fish":2,
    "border":2,
    "mister":2,
    "bout":2,
    "chihuahua":2,
    "thousand":2,
    "mouth":2,
    "sealed":2,
    "carter":3,
    "sentence":3,
    "armed":3,
    "robbery":3,
    "texas":3,
    "wanted":3,
    "longer":3,
    "prison":3,
    "year":3,
    "prisoner":3,
    "week":3,
    "serving":3,
    "twelve":3,
    "hello":3,
    "sorry":3,
    "days":3,
    "mrs":3,
    "class":3,
    "lady":3,
    "carol":3,
    "please":3,
    "ago":3,
    "fine":3,
    "set":3,
    "those":3,
    "doing":3,
    "am":3,
    "million":3,
    "beynons":3,
    "figured":3,
    "hows":3,
    "change":3,
    "handle":3,
    "christ":3,
    "give":3,
    "bought":3,
    "stick":3,
    "suit":3,
    "m":3,
    "glad":3,
    "sometimes":3,
    "other":3,
    "takes":3,
    "their":3,
    "stay":3,
    "work":3,
    "hit":3,
    "working":3,
    "guys":3,
    "fifty":3,
    "guard":3,
    "nail":3,
    "shoot":3,
    "gets":3,
    "many":3,
    "pull":3,
    "ranch":3,
    "different":3,
    "ever":3,
    "wheres":3,
    "cut":3,
    "might":3,
    "figure":3,
    "said":3,
    "who":3,
    "obvious":3,
    "both":3,
    "must":3,
    "close":3,
    "sent":3,
    "gate":3,
    "ford":3,
    "away":3,
    "makes":3,
    "train":3,
    "say":3,
    "move":3,
    "cars":3,
    "tonight":3,
    "em":3,
    "kid":3,
    "grab":3,
    "hundred":3,
    "pay":3,
    "request":4,
    "very":4,
    "again":4,
    "call":4,
    "into":4,
    "few":4,
    "doctor":4,
    "shut":4,
    "ready":4,
    "comes":4,
    "hes":4,
    "hour":4,
    "every":4,
    "times":4,
    "forward":4,
    "does":4,
    "minute":4,
    "yourself":4,
    "thanks":4,
    "enough":4,
    "clothes":4,
    "own":4,
    "people":4,
    "run":4,
    "job":4,
    "theyre":4,
    "clean":4,
    "jackson":4,
    "id":4,
    "side":4,
    "ten":4,
    "need":4,
    "laughlin":4,
    "understand":4,
    "waiting":4,
    "live":4,
    "suitcase":4,
    "between":4,
    "great":4,
    "flyer":4,
    "isnt":4,
    "friends":4,
    "or":4,
    "open":4,
    "worry":4,
    "something":4,
    "room":4,
    "yes":5,
    "has":5,
    "four":5,
    "mccoys":5,
    "last":5,
    "help":5,
    "tomorrow":5,
    "walk":5,
    "drive":5,
    "mean":5,
    "youve":5,
    "whats":5,
    "hope":5,
    "made":5,
    "half":5,
    "still":5,
    "oh":5,
    "really":5,
    "laugh":5,
    "these":5,
    "because":5,
    "end":5,
    "could":5,
    "whatever":5,
    "little":5,
    "killed":5,
    "either":5,
    "anything":5,
    "gonna":5,
    "food":5,
    "god":5,
    "five":6,
    "state":6,
    "by":6,
    "may":6,
    "old":6,
    "than":6,
    "doesnt":6,
    "look":6,
    "weve":6,
    "had":6,
    "rudy":6,
    "should":6,
    "minutes":6,
    "before":6,
    "wont":6,
    "pick":6,
    "hell":6,
    "news":6,
    "wife":6,
    "theres":6,
    "trouble":6,
    "cant":6,
    "first":7,
    "would":7,
    "her":7,
    "she":7,
    "down":7,
    "after":7,
    "better":7,
    "never":7,
    "another":7,
    "kind":7,
    "listen":7,
    "too":7,
    "find":7,
    "man":7,
    "youll":7,
    "keep":7,
    "leave":7,
    "wouldnt":7,
    "maybe":7,
    "parole":8,
    "them":8,
    "see":8,
    "lets":8,
    "hard":8,
    "el":8,
    "paso":8,
    "more":8,
    "always":8,
    "trust":8,
    "thing":8,
    "years":9,
    "as":9,
    "from":9,
    "try":9,
    "so":9,
    "day":9,
    "off":9,
    "feel":9,
    "money":9,
    "long":9,
    "things":9,
    "guess":9,
    "back":9,
    "car":9,
    "harold":9,
    "think":10,
    "will":10,
    "an":10,
    "bank":10,
    "did":10,
    "much":10,
    "didnt":10,
    "three":10,
    "mr":11,
    "only":11,
    "then":11,
    "over":11,
    "well":12,
    "this":12,
    "been":12,
    "ive":12,
    "why":12,
    "take":12,
    "but":12,
    "any":12,
    "beynon":13,
    "come":13,
    "time":13,
    "us":13,
    "mccoy":14,
    "like":14,
    "yeah":14,
    "where":14,
    "there":14,
    "know":14,
    "when":14,
    "lot":15,
    "make":15,
    "some":15,
    "thats":15,
    "two":15,
    "go":16,
    "sure":16,
    "his":17,
    "good":17,
    "okay":17,
    "ill":17,
    "were":17,
    "youre":17,
    "they":18,
    "way":18,
    "if":20,
    "tell":20,
    "doc":21,
    "no":21,
    "at":21,
    "him":21,
    "":21,
    "was":21,
    "your":21,
    "its":22,
    "one":23,
    "with":23,
    "right":23,
    "can":24,
    "all":24,
    "my":24,
    "here":24,
    "are":25,
    "im":26,
    "on":27,
    "he":27,
    "out":27,
    "how":27,
    "now":28,
    "want":28,
    "not":28,
    "is":30,
    "going":31,
    "about":32,
    "just":32,
    "up":33,
    "for":34,
    "what":34,
    "me":36,
    "do":38,
    "dont":38,
    "be":39,
    "in":41,
    "have":42,
    "that":43,
    "get":43,
    "got":44,
    "we":50,
    "and":56,
    "of":64,
    "it":92,
    "a":127,
    "to":129,
    "i":145,
    "the":152,
    "you":184
}