{
    "johnjohnjohn":1,
    "sending":1,
    "throwingwait":1,
    "mindset":1,
    "thisall":1,
    "await":1,
    "proven":1,
    "outand":1,
    "secondand":1,
    "volumesyou":1,
    "stead":1,
    "fiveyou":1,
    "blew":1,
    "didwill":1,
    "marriedhe":1,
    "invalidated":1,
    "misses":1,
    "court":1,
    "records":1,
    "outi":1,
    "youmoss":1,
    "romalook":1,
    "sheetslook":1,
    "eightyoneeightytwosix":1,
    "eightytwowhos":1,
    "april":1,
    "september":1,
    "1981":1,
    "due":1,
    "respect":1,
    "order":1,
    "taker":1,
    "game":1,
    "orgtalk":1,
    "peterson":1,
    "seville":1,
    "burning":1,
    "leadyou":1,
    "bullshitover":1,
    "miss":1,
    "leadsmarshal":1,
    "bus":1,
    "antagonize":1,
    "bounced":1,
    "meare":1,
    "imwait":1,
    "givenhold":1,
    "given":1,
    "policy":1,
    "falls":1,
    "below":1,
    "permitted":1,
    "above":1,
    "dreck":1,
    "nonsense":1,
    "explain":1,
    "generated":1,
    "revenue":1,
    "sufficient":1,
    "ninetysix":1,
    "mitchlook":1,
    "contestyou":1,
    "fortune":1,
    "ground":1,
    "laughable":1,
    "manbut":1,
    "theshelly":1,
    "during":1,
    "beats":1,
    "percentage":1,
    "gross":1,
    "either":1,
    "toilet":1,
    "paper":1,
    "seen":1,
    "pitched":1,
    "cocksuckers":1,
    "sixtynine":1,
    "toaster":1,
    "sock":1,
    "kick":1,
    "imdont":1,
    "getz":1,
    "ami":1,
    "picked":1,
    "flush":1,
    "himselfthose":1,
    "itand":1,
    "benefited":1,
    "charity":1,
    "pity":1,
    "hotter":1,
    "randomly":1,
    "assign":1,
    "apart":1,
    "youll":1,
    "joke":1,
    "promise":1,
    "defeatist":1,
    "itget":1,
    "side":1,
    "permit":1,
    "older":1,
    "acquires":1,
    "otherwisei":1,
    "meokay":1,
    "wellokay":1,
    "wellalright":1,
    "later":1,
    "stiff":1,
    "itsix":1,
    "teneight":1,
    "eleven":1,
    "yeswhen":1,
    "gasi":1,
    "thirty":1,
    "chrissake":1,
    "asking":1,
    "favor":1,
    "mur":1,
    "burns":1,
    "bermuda":1,
    "best":1,
    "least":1,
    "entitled":1,
    "harshly":1,
    "stands":1,
    "wallet":1,
    "cheer":1,
    "missed":1,
    "mistake":1,
    "shouna":1,
    "goana":1,
    "selln":1,
    "names":1,
    "lonely":1,
    "superior":1,
    "brother":1,
    "grapevine":1,
    "indians":1,
    "supercilious":1,
    "race":1,
    "cat":1,
    "thingthe":1,
    "pressures":1,
    "abyoure":1,
    "absolutheyre":1,
    "important":1,
    "fucker":1,
    "platthuh":1,
    "bunch":1,
    "killed":1,
    "customers":1,
    "gotwhat":1,
    "cars":1,
    "blind":1,
    "argentina":1,
    "kill":1,
    "illand":1,
    "cower":1,
    "shoes":1,
    "steak":1,
    "knives":1,
    "pro":1,
    "promotion":1,
    "medieval":1,
    "responsible":1,
    "clean":1,
    "nursessee":1,
    "commwhy":1,
    "perfor":1,
    "jerk":1,
    "pays":1,
    "hesthats":1,
    "steady":1,
    "nobodys":1,
    "touched":1,
    "grandif":1,
    "hatfour":1,
    "wild":1,
    "thingshes":1,
    "brook":1,
    "clearing":1,
    "fourteen":1,
    "paying":1,
    "overhead":1,
    "telephones":1,
    "lots":1,
    "telephone":1,
    "broad":1,
    "nothingnothing":1,
    "starting":1,
    "difthe":1,
    "between":1,
    "isyou":1,
    "thrall":1,
    "toastertoto":1,
    "rules":1,
    "gods":1,
    "depressed":1,
    "age":1,
    "ps":1,
    "ax":1,
    "children":1,
    "fend":1,
    "themselves":1,
    "stand":1,
    "strike":1,
    "trash":1,
    "looks":1,
    "filesgo":1,
    "throwbucka":1,
    "knowhey":1,
    "knows":1,
    "toldmust":1,
    "many":1,
    "glengarrythe":1,
    "however":1,
    "apiece":1,
    "decision":1,
    "moving":1,
    "spoken":1,
    "et":1,
    "cetera":1,
    "theyll":1,
    "movies":1,
    "break":1,
    "moviesif":1,
    "innif":1,
    "accomplices":1,
    "ridiculous":1,
    "accessory":1,
    "tough":1,
    "criminal":1,
    "abstract":1,
    "making":1,
    "thewhat":1,
    "lied":1,
    "ends":1,
    "consequences":1,
    "listened":1,
    "compartments":1,
    "vaguely":1,
    "worst":1,
    "confess":1,
    "die":1,
    "regret":1,
    "befuddled":1,
    "middleclass":1,
    "cheated":1,
    "girls":1,
    "absolute":1,
    "exists":1,
    "earth":1,
    "dump":1,
    "slept":1,
    "hours":1,
    "piss":1,
    "fades":1,
    "reflection":1,
    "gains":1,
    "keeps":1,
    "fucks":1,
    "mmmm":1,
    "orgasm":1,
    "forearms":1,
    "neck":1,
    "eyes":1,
    "sound":1,
    "madeor":1,
    "bed":1,
    "caf\u00e9":1,
    "au":1,
    "lait":1,
    "gives":1,
    "forward":1,
    "afraid":1,
    "loss":1,
    "sick":1,
    "died":1,
    "stock":1,
    "market":1,
    "collapsedthe":1,
    "house":1,
    "burnt":1,
    "downwhat":1,
    "anyway":1,
    "amassing":1,
    "wealth":1,
    "sickness":1,
    "trap":1,
    "greed":1,
    "onein":1,
    "amillion":1,
    "happenfuck":1,
    "oneinsoand":1,
    "happengod":1,
    "protect":1,
    "powerless":1,
    "within":1,
    "powers":1,
    "concern":1,
    "trust":1,
    "myself":1,
    "arrives":1,
    "odds":1,
    "strength":1,
    "acting":1,
    "each":1,
    "without":1,
    "fear":1,
    "dictates":1,
    "stocks":1,
    "bonds":1,
    "objects":1,
    "art":1,
    "real":1,
    "estate":1,
    "indulge":1,
    "event":1,
    "brochure":1,
    "therere":1,
    "properties":1,
    "signifies":1,
    "comfort":1,
    "poor":1,
    "newly":1,
    "busboy":1,
    "lottery":1,
    "carnival":1,
    "specialwhat":1,
    "hmmm":1,
    "drinking":1,
    "gimlet":1,
    "youand":1,
    "piece":1,
    "numbers":1,
    "such":1,
    "magnitude":1,
    "multiplying":1,
    "williamsonwilliamson":1,
    "sir":1,
    "theyexcuse":1,
    "fuckingwilliamson":1,
    "wh":1,
    "youveawho":1,
    "boardup":1,
    "windowmoss":1,
    "mosswho":1,
    "whattalk":1,
    "con":1,
    "contractslingk":1,
    "puts":1,
    "maymaybe":1,
    "inyou":1,
    "ins":1,
    "ups":1,
    "dontyes":1,
    "howi":1,
    "cantmy":1,
    "places":1,
    "ancient":1,
    "meadows":1,
    "shits":1,
    "iyou":1,
    "notfuck":1,
    "weve":1,
    "andah":1,
    "schmuck":1,
    "hat":1,
    "sap":1,
    "self":1,
    "confi":1,
    "outfit":1,
    "wherewhere":1,
    "criminals":1,
    "theyrechrist":1,
    "restaurawhat":1,
    "nostalgia":1,
    "file":1,
    "theys":1,
    "brwhat":1,
    "another":1,
    "sweat":1,
    "hide":1,
    "nervous":1,
    "thieves":1,
    "inured":1,
    "easiest":1,
    "ravidam":1,
    "thses":1,
    "wogs":1,
    "morgue":1,
    "drift":1,
    "argue":1,
    "heads":1,
    "busting":1,
    "dirt":1,
    "mattress":1,
    "manage":1,
    "againwhat":1,
    "signature":1,
    "town":1,
    "gimme":1,
    "shiva":1,
    "million":1,
    "vishnu":1,
    "bargain":1,
    "cousin":1,
    "figure":1,
    "youill":1,
    "chalkget":1,
    "hawaii":1,
    "bet":1,
    "buying":1,
    "commission":1,
    "subscription":1,
    "read":1,
    "thank":1,
    "aaronow":1,
    "typewriters":1,
    "cash":1,
    "whwhwha":1,
    "rubber":1,
    "bat":1,
    "map":1,
    "nothings":1,
    "accomplished":1,
    "hereanyone":1,
    "war":1,
    "stories":1,
    "youlookalright":1,
    "na":1,
    "harrietfuck":1,
    "casethis":1,
    "soandso":1,
    "opportunities":1,
    "ya":1,
    "use":1,
    "opportunityyou":1,
    "rickythat":1,
    "push":1,
    "stolen":1,
    "forth":1,
    "babbling":1,
    "volume":1,
    "courtesy":1,
    "class":1,
    "rickare":1,
    "ruler":1,
    "decide":1,
    "dealt":1,
    "jagoff":1,
    "accused":1,
    "ofi":1,
    "thrown":1,
    "geniune":1,
    "godim":1,
    "everythings":1,
    "peachfuzz":1,
    "spare":1,
    "bustout":1,
    "humanitarian":1,
    "stinks":1,
    "farts":1,
    "ingested":1,
    "pack":1,
    "gum":1,
    "chew":1,
    "bile":1,
    "bishop":1,
    "sheean":1,
    "slick":1,
    "workingman":1,
    "memory":1,
    "fly":1,
    "liked":1,
    "speech":1,
    "troops":1,
    "wisconsin":1,
    "spread":1,
    "shirt":1,
    "sleeves":1,
    "snap":1,
    "store":1,
    "admit":1,
    "ourself":1,
    "opportunityand":1,
    "ways":1,
    "waysconvert":1,
    "motherfuckersell":1,
    "himsell":1,
    "thebruce":1,
    "harrietthe":1,
    "government":1,
    "bondsi":1,
    "route":1,
    "plat":1,
    "dreaming":1,
    "suitcase":1,
    "bag":1,
    "brucei":1,
    "round":1,
    "pussyfoot":1,
    "interim":1,
    "position":1,
    "arrangement":1,
    "accept":1,
    "yourselves":1,
    "walked":1,
    "coffeeyoud":1,
    "downand":1,
    "disappoint":1,
    "unit":1,
    "become":1,
    "scared":1,
    "possibility":1,
    "held":1,
    "motion":1,
    "arms":1,
    "tired":1,
    "doi":1,
    "youreno":1,
    "raw":1,
    "locked":1,
    "thoughts":1,
    "holding":1,
    "signed":1,
    "wilted":1,
    "gesturenothing":1,
    "imperceptibly":1,
    "slumped":1,
    "reaches":1,
    "passes":1,
    "solemn":1,
    "shake":1,
    "bruceharriet":1,
    "beaming":1,
    "nodding":1,
    "brings":1,
    "glasses":1,
    "pattern":1,
    "toast":1,
    "silence":1,
    "hour":1,
    "bit":1,
    "mornings":1,
    "telill":1,
    "sticks":1,
    "miracle":1,
    "beenyou":1,
    "cust":1,
    "calm":1,
    "gonna":1,
    "impossible":1,
    "eightythousand":1,
    "noon":1,
    "road":1,
    "history":1,
    "row":1,
    "purloined":1,
    "talent":1,
    "walk":1,
    "soft":1,
    "itbefore":1,
    "sheandcold":1,
    "secretary":1,
    "message":1,
    "worthwhile":1,
    "blame":1,
    "client":1,
    "waterfront":1,
    "rub":1,
    "head":1,
    "cue":1,
    "kenilw":1,
    "mother":1,
    "plats":1,
    "a3":1,
    "a14":1,
    "26":1,
    "30":1,
    "investments":1,
    "d":1,
    "black":1,
    "creekare":1,
    "acquainted":1,
    "noblack":1,
    "creek":1,
    "weekend":1,
    "rolling":1,
    "mortons":1,
    "director":1,
    "european":1,
    "services":1,
    "tastedi":1,
    "lingks":1,
    "lastas":1,
    "service":1,
    "feature":1,
    "cookingwhat":1,
    "itit":1,
    "tag":1,
    "phrase":1,
    "cooking":1,
    "monthly":1,
    "interview":1,
    "ab":1,
    "february":1,
    "isssure":1,
    "companys":1,
    "mens":1,
    "francethe":1,
    "french":1,
    "twelvefifteen":1,
    "godive":1,
    "o":1,
    "scoot":1,
    "ohare":1,
    "hustle":1,
    "pittsburgh":1,
    "oclock":1,
    "youchrist":1,
    "inim":1,
    "ohareyou":1,
    "illno":1,
    "meeting":1,
    "phonedill":1,
    "godoh":1,
    "meray":1,
    "senior":1,
    "vice":1,
    "32":1,
    "perover":1,
    "past":1,
    "himi":1,
    "amount":1,
    "promised":1,
    "wifes":1,
    "birthday":1,
    "party":1,
    "funny":1,
    "picture":1,
    "corporationtype":1,
    "businessthis":1,
    "sometime":1,
    "lamondayill":1,
    "tonightim":1,
    "cancel":1,
    "common":1,
    "reasons":1,
    "prudence":1,
    "sizable":1,
    "thinks":1,
    "twiceits":1,
    "women":1,
    "size":1,
    "invite":1,
    "woman":1,
    "cook":1,
    "acreage":1,
    "shouldnt":1,
    "fortytwo":1,
    "phoned":1,
    "already":1,
    "offer":1,
    "raywhat":1,
    "inmonday":1,
    "consumerthe":1,
    "genthey":1,
    "gen":1,
    "thesome":1,
    "consumer":1,
    "toyou":1,
    "minds":1,
    "course":1,
    "booki":1,
    "ba":1,
    "businessi":1,
    "limit":1,
    "saturday":1,
    "include":1,
    "saturdayin":1,
    "counting":1,
    "mon":1,
    "write":1,
    "yest":1,
    "tuesday":1,
    "earliest":1,
    "points":1,
    "agreement":1,
    "aone":1,
    "statute":1,
    "protection":1,
    "complaints":1,
    "drafted":1,
    "opposite":1,
    "meshugaas":1,
    "flag":1,
    "didntwhy":1,
    "iwhere":1,
    "advise":1,
    "herei":1,
    "mistreated":1,
    "ini":1,
    "tac":1,
    "tacticsi":1,
    "tacticsthats":1,
    "tocall":1,
    "guilt":1,
    "susco":1,
    "cooperate":1,
    "notas":1,
    "restaurant":1,
    "apologize":1,
    "ivelook":1,
    "frits":1,
    "ripped":1,
    "methis":1,
    "fix":1,
    "goddamned":1,
    "sometimes":1,
    "itsno":1,
    "downnow":1,
    "regotiate":1,
    "words":1,
    "herelets":1,
    "letsno":1,
    "corner":1,
    "att":1,
    "dealyou":1,
    "deals":1,
    "jointly":1,
    "bond":1,
    "thereand":1,
    "ashamed":1,
    "untrueor":1,
    "abandon":1,
    "obviously":1,
    "andand":1,
    "whilei":1,
    "slight":1,
    "burglary":1,
    "nothingi":1,
    "assuring":1,
    "afternoon":1,
    "completely":1,
    "knowledge":1,
    "follow":1,
    "meoh":1,
    "forforgivefori":1,
    "forgive":1,
    "williamsonim":1,
    "shitheadyou":1,
    "goin":1,
    "trade":1,
    "idiot":1,
    "whoever":1,
    "murrray":1,
    "lemkin":1,
    "nephew":1,
    "sucking":1,
    "lives":1,
    "wits":1,
    "usdoes":1,
    "upto":1,
    "earn":1,
    "fairy":1,
    "manill":1,
    "hope":1,
    "knocked":1,
    "rule":1,
    "spent":1,
    "lifeyou":1,
    "feet":1,
    "streets":1,
    "romas":1,
    "belong":1,
    "someday":1,
    "partnera":1,
    "himor":1,
    "exist":1,
    "bonus":1,
    "enough":1,
    "scum":1,
    "white":1,
    "bread":1,
    "unless":1,
    "customer":1,
    "mewhat":1,
    "usually":1,
    "year":1,
    "elsebecause":1,
    "line":1,
    "whatd":1,
    "dig":1,
    "somethingyou":1,
    "walking":1,
    "dooryou":1,
    "seconds":1,
    "iim":1,
    "share":1,
    "ilook":1,
    "ai":1,
    "anythlast":1,
    "ready":1,
    "dutch":1,
    "halfway":1,
    "hoping":1,
    "salesman":1,
    "backand":1,
    "advantage":1,
    "bigger":1,
    "johnyou":1,
    "thathold":1,
    "onhold":1,
    "waitwaitwait":1,
    "waituh":1,
    "twen":1,
    "itstake":1,
    "iwhat":1,
    "imim":1,
    "officeim":1,
    "number":1,
    "onehey":1,
    "beginninglistlist":1,
    "listheres":1,
    "whatheres":1,
    "firm":1,
    "grandare":1,
    "fuckinim":1,
    "backim":1,
    "abso":1,
    "memos":1,
    "webb":1,
    "arizonatheyre":1,
    "nutsdid":1,
    "delude":1,
    "frame":1,
    "worthless":1,
    "pull":1,
    "memo":1,
    "busy":1,
    "insane":1,
    "johnmy":1,
    "couch":1,
    "roomah":1,
    "dayi":1,
    "coffeejagoff":1,
    "opens":1,
    "blows":1,
    "swearits":1,
    "watchers":1,
    "bureaucrats":1,
    "officeholderswhat":1,
    "fuckedup":1,
    "worldtheres":1,
    "adventure":1,
    "members":1,
    "thatsthatsthats":1,
    "slinging":1,
    "gooditit":1,
    "admirableit":1,
    "mm":1,
    "swing":1,
    "stay":1,
    "smoke":1,
    "resta":1,
    "inlisten":1,
    "usual":1,
    "action":1,
    "ours":1,
    "commissions":1,
    "hate":1,
    "highlands":2,
    "throwing":2,
    "wasting":2,
    "set":2,
    "reputation":2,
    "closer":2,
    "start":2,
    "blow":2,
    "pray":2,
    "runs":2,
    "kicks":2,
    "sheets":2,
    "eighty":2,
    "under":2,
    "kiss":2,
    "paid":2,
    "sixtyfive":2,
    "ross":2,
    "stats":2,
    "skill":2,
    "marshal":2,
    "marshaling":2,
    "garbage":2,
    "anybody":2,
    "mark":2,
    "sennynine":2,
    "assigned":2,
    "according":2,
    "per":2,
    "homestead":2,
    "western":2,
    "lived":2,
    "book":2,
    "test":2,
    "street":2,
    "beat":2,
    "des":2,
    "plaines":2,
    "wish":2,
    "rest":2,
    "daughter":2,
    "pick":2,
    "trip":2,
    "b":2,
    "hold":2,
    "happens":2,
    "polack":2,
    "indian":2,
    "salesmen":2,
    "sitting":2,
    "tea":2,
    "speaking":2,
    "restaurants":2,
    "face":2,
    "broads":2,
    "goose":2,
    "stuck":2,
    "everyone":2,
    "nobody":2,
    "worked":2,
    "boots":2,
    "lose":2,
    "wrong":2,
    "ninety":2,
    "buys":2,
    "oaks":2,
    "difference":2,
    "enslave":2,
    "ourselves":2,
    "wins":2,
    "force":2,
    "treat":2,
    "knock":2,
    "throwi":2,
    "worth":2,
    "also":2,
    "nights":2,
    "reward":2,
    "como":2,
    "inn":2,
    "prove":2,
    "alibi":2,
    "probably":2,
    "caught":2,
    "answer":2,
    "law":2,
    "dinner":2,
    "concrete":2,
    "end":2,
    "train":2,
    "smell":2,
    "queer":2,
    "thief":2,
    "morality":2,
    "meal":2,
    "everything":2,
    "food":2,
    "cigarette":2,
    "closes":2,
    "plane":2,
    "beyond":2,
    "correct":2,
    "draws":2,
    "must":2,
    "seem":2,
    "security":2,
    "concerns":2,
    "every":2,
    "reserve":2,
    "true":2,
    "opportunity":2,
    "matter":2,
    "different":2,
    "married":2,
    "cab":2,
    "same":2,
    "richard":2,
    "anymore":2,
    "maybe":2,
    "open":2,
    "hit":2,
    "hand":2,
    "anyones":2,
    "wheres":2,
    "werent":2,
    "always":2,
    "weeks":2,
    "word":2,
    "alone":2,
    "president":2,
    "count":2,
    "handed":2,
    "being":2,
    "magazine":2,
    "happened":2,
    "dick":2,
    "supposed":2,
    "coffee":2,
    "uhhuh":2,
    "harbor":2,
    "humiliated":2,
    "sittin":2,
    "farewell":2,
    "met":2,
    "subject":2,
    "evening":2,
    "twentytwo":2,
    "takes":2,
    "signs":2,
    "grasp":2,
    "sideboard":2,
    "sense":2,
    "remarkable":2,
    "mans":2,
    "selling":2,
    "property":2,
    "owns":2,
    "morton":2,
    "beautiful":2,
    "jinny":2,
    "ahead":2,
    "taking":2,
    "family":2,
    "quite":2,
    "member":2,
    "reaction":2,
    "really":2,
    "wednesday":2,
    "thursday":2,
    "friday":2,
    "elapsed":2,
    "lev":2,
    "outside":2,
    "jimmy":2,
    "problem":2,
    "neednt":2,
    "knew":2,
    "cunt":2,
    "shithead":2,
    "child":2,
    "precisely":2,
    "hadnt":2,
    "jail":2,
    "kept":2,
    "easy":2,
    "cut":2,
    "whatever":2,
    "beginning":2,
    "checks":2,
    "dying":2,
    "breed":2,
    "chinks":2,
    "glengarry":3,
    "certain":3,
    "more":3,
    "closing":3,
    "kicked":3,
    "cocksucker":3,
    "ex":3,
    "judge":3,
    "nineteen":3,
    "calling":3,
    "glen":3,
    "gone":3,
    "school":3,
    "getting":3,
    "listening":3,
    "hired":3,
    "cost":3,
    "lying":3,
    "tight":3,
    "rio":3,
    "rancho":3,
    "polacks":3,
    "brought":3,
    "phone":3,
    "next":3,
    "both":3,
    "hundred":3,
    "hotel":3,
    "kid":3,
    "once":3,
    "split":3,
    "still":3,
    "spoke":3,
    "deadbeat":3,
    "first":3,
    "try":3,
    "ii":3,
    "fifteen":3,
    "fire":3,
    "doesnt":3,
    "goes":3,
    "couple":3,
    "heard":3,
    "running":3,
    "river":3,
    "week":3,
    "simple":3,
    "part":3,
    "own":3,
    "leave":3,
    "hurt":3,
    "kind":3,
    "joint":3,
    "buck":3,
    "talked":3,
    "um":3,
    "crime":3,
    "company":3,
    "robbed":3,
    "looking":3,
    "none":3,
    "sat":3,
    "may":3,
    "worry":3,
    "secure":3,
    "measure":3,
    "comes":3,
    "send":3,
    "land":3,
    "youyou":3,
    "swell":3,
    "clear":3,
    "ones":3,
    "mine":3,
    "whose":3,
    "wants":3,
    "bruce":3,
    "harriett":3,
    "nyborg":3,
    "cop":3,
    "states":3,
    "harriet":3,
    "crumb":3,
    "cake":3,
    "pen":3,
    "full":3,
    "investment":3,
    "turned":3,
    "minutes":3,
    "clock":3,
    "says":3,
    "nod":3,
    "room":3,
    "drink":3,
    "stick":3,
    "change":3,
    "wanted":3,
    "speak":3,
    "express":3,
    "until":3,
    "desk":3,
    "gestapo":3,
    "power":3,
    "negotiate":3,
    "depends":3,
    "watch":4,
    "streaks":4,
    "months":4,
    "talks":4,
    "build":4,
    "bought":4,
    "farms":4,
    "throw":4,
    "after":4,
    "swear":4,
    "stupid":4,
    "couldnt":4,
    "pal":4,
    "sits":4,
    "chance":4,
    "these":4,
    "yet":4,
    "six":4,
    "bring":4,
    "ago":4,
    "guess":4,
    "left":4,
    "cup":4,
    "dead":4,
    "win":4,
    "remember":4,
    "thought":4,
    "absolutely":4,
    "has":4,
    "thinking":4,
    "nurses":4,
    "morning":4,
    "live":4,
    "robbery":4,
    "hed":4,
    "idea":4,
    "safe":4,
    "twentyfive":4,
    "much":4,
    "better":4,
    "anything":4,
    "little":4,
    "twelve":4,
    "balls":4,
    "happen":4,
    "perhaps":4,
    "yours":4,
    "glad":4,
    "show":4,
    "florida":4,
    "owe":4,
    "yesterday":4,
    "reclose":4,
    "phones":4,
    "catch":4,
    "uh":4,
    "police":4,
    "point":4,
    "sign":4,
    "chalk":4,
    "sold":4,
    "eightytwo":4,
    "hands":4,
    "believe":4,
    "means":4,
    "while":4,
    "nuts":4,
    "taught":4,
    "god":4,
    "american":4,
    "till":4,
    "done":4,
    "partner":4,
    "than":5,
    "dollar":5,
    "lately":5,
    "car":5,
    "years":5,
    "period":5,
    "wasnt":5,
    "thirtieth":5,
    "friend":5,
    "premium":5,
    "waste":5,
    "used":5,
    "went":5,
    "saw":5,
    "wouldnt":5,
    "broke":5,
    "deadbeats":5,
    "shot":5,
    "telling":5,
    "bucks":5,
    "new":5,
    "working":5,
    "moment":5,
    "arent":5,
    "patel":5,
    "keep":5,
    "christ":5,
    "whole":5,
    "hard":5,
    "goddamn":5,
    "rob":5,
    "yourself":5,
    "act":5,
    "truth":5,
    "case":5,
    "eating":5,
    "fact":5,
    "people":5,
    "hell":5,
    "through":5,
    "james":5,
    "insured":5,
    "upset":5,
    "cops":5,
    "living":5,
    "kitchen":5,
    "world":5,
    "together":5,
    "called":5,
    "kenilworth":5,
    "monday":5,
    "attorney":5,
    "forget":5,
    "away":6,
    "life":6,
    "four":6,
    "whos":6,
    "contest":6,
    "aint":6,
    "hot":6,
    "anyone":6,
    "run":6,
    "guys":6,
    "shel":6,
    "asshole":6,
    "pay":6,
    "fella":6,
    "before":6,
    "list":6,
    "feel":6,
    "mountain":6,
    "view":6,
    "door":6,
    "himself":6,
    "somebody":6,
    "steal":6,
    "mind":6,
    "shut":6,
    "wont":6,
    "bank":6,
    "name":6,
    "meet":6,
    "might":6,
    "filed":6,
    "stuff":6,
    "fifty":7,
    "downtown":7,
    "came":7,
    "cold":7,
    "giving":7,
    "buy":7,
    "dollars":7,
    "ah":7,
    "men":7,
    "ten":7,
    "been":7,
    "tomorrow":7,
    "very":7,
    "place":7,
    "great":7,
    "hear":7,
    "lot":7,
    "care":7,
    "into":7,
    "old":7,
    "night":7,
    "rick":7,
    "trying":7,
    "cashed":7,
    "gets":8,
    "theres":8,
    "second":8,
    "twenty":8,
    "bad":8,
    "luck":8,
    "find":8,
    "other":8,
    "moss":8,
    "learn":8,
    "jerry":8,
    "streak":8,
    "turn":8,
    "again":8,
    "youve":8,
    "else":8,
    "cadillac":8,
    "grand":8,
    "dave":8,
    "half":8,
    "understand":8,
    "whats":8,
    "contract":8,
    "units":8,
    "never":9,
    "eh":9,
    "eat":9,
    "isnt":9,
    "off":9,
    "their":9,
    "ask":9,
    "lead":9,
    "around":9,
    "help":9,
    "top":9,
    "tonight":9,
    "havent":9,
    "coming":9,
    "mmm":9,
    "over":9,
    "huh":9,
    "mouth":9,
    "by":9,
    "eight":9,
    "ray":9,
    "roma":10,
    "williamson":10,
    "even":10,
    "levene":10,
    "long":10,
    "id":10,
    "actually":10,
    "stole":10,
    "day":10,
    "lingk":10,
    "contracts":10,
    "any":10,
    "machine":10,
    "days":10,
    "bullshit":11,
    "ass":11,
    "nothing":11,
    "our":11,
    "let":11,
    "sit":11,
    "ever":11,
    "too":11,
    "could":11,
    "which":11,
    "us":11,
    "work":11,
    "sale":11,
    "okay":12,
    "things":12,
    "last":12,
    "only":12,
    "mitch":12,
    "those":12,
    "made":12,
    "thousand":12,
    "percent":12,
    "took":12,
    "blah":12,
    "someone":12,
    "excuse":12,
    "ricky":12,
    "does":13,
    "doing":13,
    "sorry":13,
    "sales":13,
    "check":13,
    "from":13,
    "month":13,
    "yeah":13,
    "wife":13,
    "her":13,
    "mr":13,
    "guy":14,
    "put":14,
    "call":14,
    "sell":14,
    "fucked":14,
    "way":14,
    "sure":14,
    "but":14,
    "home":14,
    "fine":15,
    "wait":15,
    "please":15,
    "need":15,
    "lunch":15,
    "big":15,
    "should":15,
    "make":15,
    "lets":16,
    "closed":16,
    "youd":16,
    "down":16,
    "time":16,
    "money":16,
    "thing":16,
    "oh":16,
    "good":17,
    "job":17,
    "close":17,
    "listen":17,
    "or":17,
    "ive":17,
    "alright":17,
    "office":17,
    "five":17,
    "take":17,
    "would":17,
    "today":17,
    "shelly":18,
    "because":18,
    "graff":18,
    "business":18,
    "hey":18,
    "george":18,
    "fuckin":18,
    "three":18,
    "she":18,
    "see":19,
    "give":19,
    "cause":19,
    "mean":19,
    "jim":19,
    "didnt":20,
    "had":20,
    "murray":20,
    "am":20,
    "man":21,
    "think":21,
    "two":22,
    "then":22,
    "him":23,
    "as":23,
    "hes":24,
    "an":24,
    "em":24,
    "where":24,
    "board":25,
    "talking":25,
    "told":25,
    "some":25,
    "look":26,
    "his":26,
    "deal":26,
    "there":26,
    "when":26,
    "back":27,
    "theyre":27,
    "like":27,
    "here":28,
    "will":28,
    "saying":29,
    "shit":29,
    "can":29,
    "about":30,
    "ill":31,
    "at":32,
    "just":32,
    "say":33,
    "one":34,
    "if":34,
    "come":34,
    "said":34,
    "cant":35,
    "who":36,
    "how":37,
    "up":37,
    "so":37,
    "well":37,
    "now":38,
    "something":39,
    "be":40,
    "right":41,
    "he":42,
    "john":44,
    "was":47,
    "fucking":49,
    "talk":49,
    "why":49,
    "all":52,
    "were":55,
    "with":56,
    "not":57,
    "yes":58,
    "out":59,
    "tell":59,
    "got":59,
    "fuck":59,
    "did":60,
    "your":62,
    "its":62,
    "go":62,
    "for":63,
    "them":64,
    "youre":66,
    "want":67,
    "no":68,
    "leads":72,
    "we":73,
    "get":76,
    "are":77,
    "my":82,
    "do":90,
    "on":90,
    "have":92,
    "thats":94,
    "they":96,
    "of":96,
    "dont":100,
    "this":101,
    "know":103,
    "going":104,
    "in":113,
    "is":125,
    "me":151,
    "im":153,
    "and":160,
    "that":164,
    "it":195,
    "what":212,
    "a":243,
    "to":429,
    "the":438,
    "i":439,
    "you":627
}