{
    "ourselves":1,
    "important":1,
    "demanding":1,
    "sacrifices":1,
    "past":1,
    "struggle":1,
    "fierce":1,
    "competition":1,
    "uncom":1,
    "promising":1,
    "ambition":1,
    "ingless":1,
    "pledge":1,
    "endeavor":1,
    "forever":1,
    "graduates":1,
    "heard":1,
    "gear":1,
    "locking":1,
    "weather":1,
    "temperature":1,
    "72":1,
    "traffic":1,
    "delay":1,
    "eighteen":1,
    "smack":1,
    "nose":1,
    "enjoyed":1,
    "board":1,
    "near":1,
    "fasten":1,
    "seat":1,
    "belts":1,
    "preparation":1,
    "observe":1,
    "smoking":1,
    "land":1,
    "notice":1,
    "increase":1,
    "level":1,
    "thrust":1,
    "engines":1,
    "reversed":1,
    "reduce":1,
    "speed":1,
    "american":1,
    "airlines":1,
    "4":1,
    "21":1,
    "club":1,
    "nonstop":1,
    "york":1,
    "gate":1,
    "40":1,
    "aboard":1,
    "guests":1,
    "waiting":1,
    "explain":1,
    "practically":1,
    "born":1,
    "different":1,
    "carlsons":1,
    "tarzana":1,
    "devoted":1,
    "winning":1,
    "carlson":1,
    "red":1,
    "wop":1,
    "job":1,
    "graduation":1,
    "picking":1,
    "chicks":1,
    "boppers":1,
    "beyond":1,
    "bopper":1,
    "stage":1,
    "maam":1,
    "check":1,
    "loomis":1,
    "won":1,
    "hopperman":1,
    "mcquire":1,
    "listening":1,
    "deal":1,
    "ashtray":1,
    "forgot":1,
    "smoke":1,
    "disturbed":1,
    "general":1,
    "foreign":1,
    "shift":1,
    "needs":1,
    "passes":1,
    "walking":1,
    "sun":1,
    "porch":1,
    "lock":1,
    "doors":1,
    "nuerotic":1,
    "nearly":1,
    "formed":1,
    "opinion":1,
    "strange":1,
    "gone":1,
    "several":1,
    "music":1,
    "opening":1,
    "hadnt":1,
    "flattered":1,
    "worst":1,
    "mixed":1,
    "last":1,
    "christmas":1,
    "brown":1,
    "eyes":1,
    "reach":1,
    "running":1,
    "anybody":1,
    "slip":1,
    "walked":1,
    "trusts":1,
    "twice":1,
    "difficult":1,
    "imagining":1,
    "chair":1,
    "railing":1,
    "suspicion":1,
    "simple":1,
    "favor":1,
    "top":1,
    "step":1,
    "christ":1,
    "available":1,
    "arrangement":1,
    "front":1,
    "standing":1,
    "guard":1,
    "castle":1,
    "looks":1,
    "refill":1,
    "shaken":1,
    "nightcap":1,
    "twentyone":1,
    "week":1,
    "partners":1,
    "watched":1,
    "grow":1,
    "ways":1,
    "though":1,
    "own":1,
    "giving":1,
    "friendly":1,
    "piece":1,
    "forth":1,
    "flings":1,
    "summer":1,
    "bet":1,
    "saturday":1,
    "noons":1,
    "speak":1,
    "paying":1,
    "astounding":1,
    "events":1,
    "particular":1,
    "backyard":1,
    "round":1,
    "applause":1,
    "amend":1,
    "twentyoneyears":1,
    "hang":1,
    "twentyoneyearsold":1,
    "accomplishing":1,
    "extraordinary":1,
    "nations":1,
    "leading":1,
    "seats":1,
    "learning":1,
    "hold":1,
    "longer":1,
    "discuss":1,
    "continue":1,
    "education":1,
    "frank":1,
    "halping":1,
    "ham":1,
    "seconds":1,
    "practical":1,
    "demonstration":1,
    "bucks":1,
    "folks":1,
    "remarkable":1,
    "spectacular":1,
    "amazing":1,
    "feats":1,
    "daring":1,
    "feet":1,
    "deep":1,
    "buy":1,
    "uh":1,
    "main":1,
    "ballroom":1,
    "porters":1,
    "sister":1,
    "jeffrey":1,
    "name":1,
    "table":1,
    "angela":1,
    "waiter":1,
    "martini":1,
    "suave":1,
    "double":1,
    "register":1,
    "mister":1,
    "bringing":1,
    "manage":1,
    "glass":1,
    "desk":1,
    "clerk":1,
    "seemed":1,
    "suspicious":1,
    "policy":1,
    "512":1,
    "later":1,
    "undressed":1,
    "wire":1,
    "both":1,
    "undesirable":1,
    "movie":1,
    "admit":1,
    "ashamed":1,
    "drifting":1,
    "pool":1,
    "comfortable":1,
    "drift":1,
    "chance":1,
    "relax":1,
    "lie":1,
    "beer":1,
    "weeks":1,
    "stock":1,
    "ass":1,
    "days":1,
    "easy":1,
    "hit":1,
    "midnight":1,
    "pry":1,
    "affairs":1,
    "freeway":1,
    "scares":1,
    "shoe":1,
    "dead":1,
    "throw":1,
    "leap":1,
    "liven":1,
    "experiences":1,
    "modern":1,
    "classical":1,
    "neither":1,
    "spice":1,
    "originality":1,
    "ate":1,
    "breakfast":1,
    "shopping":1,
    "fixed":1,
    "supper":1,
    "involved":1,
    "asleep":1,
    "follow":1,
    "oclock":1,
    "noise":1,
    "calm":1,
    "undress":1,
    "prying":1,
    "slept":1,
    "geats":1,
    "eve":1,
    "sometimes":1,
    "unhook":1,
    "blouse":1,
    "bad":1,
    "worse":1,
    "hated":1,
    "least":1,
    "once":1,
    "assume":1,
    "knew":1,
    "pregnant":1,
    "shocked":1,
    "circumstances":1,
    "law":1,
    "also":1,
    "lost":1,
    "interest":1,
    "goddamnit":1,
    "started":1,
    "taboo":1,
    "sudden":1,
    "drop":1,
    "dropping":1,
    "dirty":1,
    "fit":1,
    "slimy":1,
    "straight":1,
    "spend":1,
    "besides":1,
    "pure":1,
    "boredom":1,
    "sickest":1,
    "perverted":1,
    "goddamn":1,
    "werent":1,
    "obvious":1,
    "sickening":1,
    "occured":1,
    "absurd":1,
    "christs":1,
    "gesture":1,
    "asked":1,
    "prettiest":1,
    "embarrassing":1,
    "ackward":1,
    "strained":1,
    "calling":1,
    "high":1,
    "evenings":1,
    "valuable":1,
    "busy":1,
    "knows":1,
    "refuses":1,
    "simply":1,
    "thursday":1,
    "lady":1,
    "short":1,
    "definitely":1,
    "daddy":1,
    "fix":1,
    "clasp":1,
    "families":1,
    "afriad":1,
    "handle":1,
    "chat":1,
    "precious":1,
    "extremely":1,
    "wits":1,
    "tonight":1,
    "tricks":1,
    "picked":1,
    "east":1,
    "menu":1,
    "eating":1,
    "hungry":1,
    "changed":1,
    "dislike":1,
    "missing":1,
    "effect":1,
    "forced":1,
    "crying":1,
    "graduated":1,
    "compulsion":1,
    "playing":1,
    "game":1,
    "rules":1,
    "sense":1,
    "themselves":1,
    "request":1,
    "turn":1,
    "coffee":1,
    "inside":1,
    "early":1,
    "veranda":1,
    "liked":1,
    "waste":1,
    "block":1,
    "carefully":1,
    "orders":1,
    "unpleasant":1,
    "order":1,
    "prepared":1,
    "believing":1,
    "fence":1,
    "corner":1,
    "hurry":1,
    "shoes":1,
    "older":1,
    "somebody":1,
    "celebrate":1,
    "decide":1,
    "sounds":1,
    "halfbaked":1,
    "completely":1,
    "baked":1,
    "decision":1,
    "wants":1,
    "honest":1,
    "growing":1,
    "somewhat":1,
    "weary":1,
    "meaning":1,
    "pay":1,
    "respects":1,
    "entirely":1,
    "certain":1,
    "incident":1,
    "involving":1,
    "mistake":1,
    "part":1,
    "g":1,
    "l":1,
    "pleasure":1,
    "announcing":1,
    "honey":1,
    "sweetheart":1,
    "kids":1,
    "spending":1,
    "mothers":1,
    "teaching":1,
    "mom":1,
    "wondered":1,
    "written":1,
    "postal":1,
    "sytem":1,
    "greenland":1,
    "efficient":1,
    "among":1,
    "natives":1,
    "motherinlaw":1,
    "cherish":1,
    "marriage":1,
    "often":1,
    "nights":1,
    "peeved":1,
    "live":1,
    "traveling":1,
    "ahhh":1,
    "surprise":1,
    "remembered":1,
    "coincidence":1,
    "headed":1,
    "ah":1,
    "berkelely":1,
    "classes":1,
    "enrolled":1,
    "theyve":1,
    "congenial":1,
    "incredible":1,
    "comes":1,
    "walker":1,
    "rode":1,
    "parking":1,
    "raped":1,
    "starts":1,
    "suddenly":1,
    "without":1,
    "naked":1,
    "visitor":1,
    "between":1,
    "packing":1,
    "marble":1,
    "definite":1,
    "kiss":1,
    "pushy":1,
    "result":1,
    "birth":1,
    "certificates":1,
    "mine":1,
    "yours":1,
    "shhhh":1,
    "special":1,
    "grudge":1,
    "against":1,
    "strong":1,
    "resentment":1,
    "caused":1,
    "contempt":1,
    "despise":1,
    "civilized":1,
    "human":1,
    "beings":1,
    "necessary":1,
    "threaten":1,
    "threatening":1,
    "unclench":1,
    "fists":1,
    "feelings":1,
    "resent":1,
    "respect":1,
    "consequences":1,
    "divorce":1,
    "difference":1,
    "statement":1,
    "shout":1,
    "quickly":1,
    "huh":1,
    "prosecute":1,
    "behind":1,
    "steps":1,
    "insure":1,
    "mince":1,
    "concerned":1,
    "filthy":1,
    "ro":1,
    "shake":1,
    "filth":1,
    "scum":1,
    "change":1,
    "dollars":1,
    "dime":1,
    "write":1,
    "letter":1,
    "send":1,
    "glenview":1,
    "road":1,
    "burgler":1,
    "armed":1,
    "under":1,
    "control":1,
    "quick":1,
    "able":1,
    "arrangements":1,
    "rushed":1,
    "darned":1,
    "karl":1,
    "teaches":1,
    "history":1,
    "advertising":1,
    "junior":1,
    "lives":1,
    "gamma":1,
    "delta":1,
    "tau":1,
    "santa":1,
    "barbara":1,
    "mans":1,
    "bride":1,
    "message":1,
    "act":1,
    "surprised":1,
    "6572036":1,
    "answering":1,
    "sons":1,
    "checking":1,
    "brother":1,
    "reverend":1,
    "ceremony":1,
    "portland":1,
    "forgotten":1,
    "church":1,
    "presbyterian":1,
    "gas":1,
    "priest":1,
    "minister":1,
    "care":1,
    "faint":1,
    "moving":1,
    "carry":2,
    "fellow":2,
    "landing":2,
    "los":2,
    "angeles":2,
    "pleasant":2,
    "flight":2,
    "plan":2,
    "sign":2,
    "service":2,
    "leaving":2,
    "downstairs":2,
    "worried":2,
    "came":2,
    "scholar":2,
    "bens":2,
    "present":2,
    "trouble":2,
    "teeny":2,
    "gotten":2,
    "heres":2,
    "himself":2,
    "helpingham":2,
    "plastics":2,
    "end":2,
    "rude":2,
    "sort":2,
    "ride":2,
    "lights":2,
    "safe":2,
    "ahead":2,
    "light":2,
    "bourbon":2,
    "gets":2,
    "alcoholic":2,
    "pardon":2,
    "personal":2,
    "finish":2,
    "sick":2,
    "unzip":2,
    "dress":2,
    "scared":2,
    "apologize":2,
    "hand":2,
    "tired":2,
    "putting":2,
    "jesus":2,
    "swell":2,
    "appreciate":2,
    "twenty":2,
    "age":2,
    "son":2,
    "advice":2,
    "easier":2,
    "than":2,
    "sow":2,
    "wild":2,
    "oats":2,
    "yourself":2,
    "fight":2,
    "big":2,
    "boy":2,
    "spent":2,
    "disappointing":2,
    "exciting":2,
    "birthday":2,
    "hundred":2,
    "perform":2,
    "water":2,
    "six":2,
    "thinking":2,
    "affair":2,
    "ahh":2,
    "dewitte":2,
    "braniff":2,
    "friend":2,
    "porter":2,
    "self":2,
    "through":2,
    "their":2,
    "minutes":2,
    "welcome":2,
    "watch":2,
    "hanger":2,
    "wood":2,
    "ha":2,
    "move":2,
    "graduate":2,
    "enjoy":2,
    "situation":2,
    "hi":2,
    "noon":2,
    "business":2,
    "dishonest":2,
    "twelve":2,
    "usually":2,
    "bars":2,
    "best":2,
    "another":2,
    "went":2,
    "during":2,
    "read":2,
    "novel":2,
    "waited":2,
    "risk":2,
    "walk":2,
    "interesting":2,
    "wake":2,
    "takes":2,
    "sleeping":2,
    "pills":2,
    "three":2,
    "driveways":2,
    "side":2,
    "same":2,
    "year":2,
    "loved":2,
    "unless":2,
    "people":2,
    "particularly":2,
    "major":2,
    "curious":2,
    "wed":2,
    "shouldnt":2,
    "reasons":2,
    "associate":2,
    "even":2,
    "degenerate":2,
    "broken":2,
    "disgusting":2,
    "hurt":2,
    "impression":2,
    "told":2,
    "true":2,
    "stay":2,
    "suggests":2,
    "along":2,
    "invite":2,
    "fathers":2,
    "america":2,
    "couldnt":2,
    "living":2,
    "feeling":2,
    "wonder":2,
    "somewhere":2,
    "bar":2,
    "family":2,
    "wreck":2,
    "dressed":2,
    "cry":2,
    "says":2,
    "morning":2,
    "visiting":2,
    "monkey":2,
    "carter":2,
    "bus":2,
    "rape":2,
    "lot":2,
    "screamed":2,
    "belt":2,
    "grandmother":2,
    "anywhere":2,
    "afternoon":2,
    "wheres":2,
    "drag":2,
    "medical":2,
    "knees":2,
    "shaking":2,
    "use":2,
    "father":2,
    "police":2,
    "c":2,
    "k":2,
    "fellows":2,
    "king":2,
    "dr":2,
    "doctor":2,
    "allan":2,
    "blocks":2,
    "run":2,
    "question":3,
    "place":3,
    "expect":3,
    "four":3,
    "gentlemen":3,
    "help":3,
    "new":3,
    "theyre":3,
    "alone":3,
    "many":3,
    "award":3,
    "girls":3,
    "track":3,
    "star":3,
    "word":3,
    "bathroom":3,
    "hall":3,
    "whatever":3,
    "took":3,
    "till":3,
    "funny":3,
    "dark":3,
    "being":3,
    "conversation":3,
    "hours":3,
    "gods":3,
    "forgive":3,
    "forget":3,
    "portrait":3,
    "still":3,
    "wish":3,
    "confused":3,
    "purse":3,
    "acting":3,
    "door":3,
    "next":3,
    "ought":3,
    "second":3,
    "ten":3,
    "wondering":3,
    "taft":3,
    "singleman":3,
    "moment":3,
    "single":3,
    "luggage":3,
    "toothbrush":3,
    "five":3,
    "goodbye":3,
    "absolutely":3,
    "terribly":3,
    "parents":3,
    "possibly":3,
    "laugh":3,
    "kidding":3,
    "inadequate":3,
    "point":3,
    "damn":3,
    "topic":3,
    "subject":3,
    "interested":3,
    "more":3,
    "sometime":3,
    "every":3,
    "times":3,
    "weve":3,
    "talked":3,
    "student":3,
    "asking":3,
    "date":3,
    "intention":3,
    "ago":3,
    "evening":3,
    "voice":3,
    "perfectly":3,
    "seems":3,
    "far":3,
    "such":3,
    "dear":3,
    "serious":3,
    "meeting":3,
    "zoo":3,
    "street":3,
    "cops":3,
    "blood":3,
    "tests":3,
    "team":3,
    "wife":3,
    "hands":3,
    "smiths":3,
    "supposed":3,
    "today":4,
    "must":4,
    "friends":4,
    "sound":4,
    "clear":4,
    "hour":4,
    "forward":4,
    "seeing":4,
    "future":4,
    "ladies":4,
    "attention":4,
    "number":4,
    "matter":4,
    "since":4,
    "upstairs":4,
    "okay":4,
    "until":4,
    "glad":4,
    "nice":4,
    "saying":4,
    "sake":4,
    "seduce":4,
    "makes":4,
    "had":4,
    "attractive":4,
    "away":4,
    "real":4,
    "nervous":4,
    "sleep":4,
    "wanted":4,
    "seem":4,
    "telling":4,
    "feature":4,
    "attraction":4,
    "ready":4,
    "words":4,
    "looking":4,
    "bit":4,
    "gladstone":4,
    "stand":4,
    "either":4,
    "college":4,
    "robinsons":4,
    "night":4,
    "someone":4,
    "drunk":4,
    "leave":4,
    "talking":4,
    "promise":4,
    "dinner":4,
    "whole":4,
    "mccleery":4,
    "phone":4,
    "these":5,
    "remember":5,
    "shall":5,
    "wonderful":5,
    "proud":5,
    "excuse":5,
    "fine":5,
    "hard":5,
    "girl":5,
    "drove":5,
    "may":5,
    "put":5,
    "arent":5,
    "seen":5,
    "done":5,
    "keep":5,
    "before":5,
    "stop":5,
    "need":5,
    "youll":5,
    "guy":5,
    "soon":5,
    "show":5,
    "better":5,
    "hotel":5,
    "actually":5,
    "miss":5,
    "yet":5,
    "day":5,
    "mother":5,
    "clothes":5,
    "try":5,
    "hate":5,
    "ford":5,
    "wasnt":5,
    "most":6,
    "made":6,
    "those":6,
    "reason":6,
    "while":6,
    "known":6,
    "has":6,
    "hear":6,
    "exactly":6,
    "great":6,
    "coming":6,
    "person":6,
    "late":6,
    "anyone":6,
    "elaines":6,
    "certainly":6,
    "goodnight":6,
    "does":6,
    "idea":6,
    "old":6,
    "hope":6,
    "hell":6,
    "young":6,
    "man":6,
    "else":6,
    "school":6,
    "hes":6,
    "meet":6,
    "happening":6,
    "woman":6,
    "wedding":6,
    "smith":6,
    "us":7,
    "always":7,
    "into":7,
    "having":7,
    "dad":7,
    "theres":7,
    "upset":7,
    "party":7,
    "afraid":7,
    "bed":7,
    "youve":7,
    "start":7,
    "trying":7,
    "rather":7,
    "youd":7,
    "by":7,
    "let":7,
    "call":7,
    "taking":7,
    "berkeley":7,
    "doing":7,
    "daughter":7,
    "work":8,
    "love":8,
    "again":8,
    "way":8,
    "havent":8,
    "doesnt":8,
    "things":8,
    "back":8,
    "life":8,
    "sit":8,
    "long":8,
    "each":8,
    "two":8,
    "myself":8,
    "maybe":8,
    "happen":8,
    "around":8,
    "believe":8,
    "too":8,
    "art":8,
    "everything":8,
    "happened":8,
    "should":9,
    "purpose":9,
    "years":9,
    "our":9,
    "an":9,
    "guess":9,
    "husband":9,
    "mind":9,
    "house":9,
    "understand":9,
    "sure":9,
    "give":9,
    "together":9,
    "find":9,
    "few":9,
    "listen":9,
    "braddock":9,
    "marry":9,
    "tomorrow":9,
    "ask":10,
    "hey":10,
    "thought":10,
    "didnt":10,
    "pretty":10,
    "shes":10,
    "other":10,
    "married":10,
    "course":11,
    "wrong":11,
    "enough":11,
    "cant":11,
    "god":11,
    "never":11,
    "his":11,
    "nothing":11,
    "carl":11,
    "who":12,
    "them":12,
    "anything":12,
    "when":12,
    "wouldnt":12,
    "been":12,
    "make":13,
    "after":13,
    "thing":13,
    "little":13,
    "drive":13,
    "getting":13,
    "quite":13,
    "really":13,
    "might":13,
    "talk":13,
    "any":14,
    "from":14,
    "whats":14,
    "car":14,
    "bring":14,
    "kind":14,
    "over":14,
    "off":14,
    "wont":15,
    "feel":15,
    "ever":15,
    "come":16,
    "much":16,
    "id":16,
    "isnt":16,
    "first":16,
    "drink":17,
    "sorry":17,
    "they":18,
    "very":18,
    "mr":18,
    "down":18,
    "take":18,
    "hello":18,
    "as":19,
    "wait":19,
    "room":19,
    "something":20,
    "am":20,
    "said":20,
    "some":20,
    "or":20,
    "were":21,
    "one":22,
    "minute":22,
    "lets":22,
    "ive":23,
    "see":25,
    "at":25,
    "she":25,
    "got":25,
    "him":25,
    "would":26,
    "so":26,
    "thank":26,
    "sir":26,
    "home":26,
    "because":26,
    "where":26,
    "time":26,
    "then":28,
    "going":29,
    "there":30,
    "look":30,
    "could":30,
    "good":30,
    "please":31,
    "thats":31,
    "can":33,
    "did":33,
    "her":33,
    "mean":34,
    "youre":34,
    "tell":35,
    "like":36,
    "out":37,
    "ben":38,
    "mrs":38,
    "say":38,
    "ill":39,
    "why":40,
    "will":41,
    "was":41,
    "if":41,
    "with":42,
    "up":42,
    "go":42,
    "he":42,
    "its":43,
    "how":44,
    "right":46,
    "here":46,
    "be":47,
    "on":47,
    "your":47,
    "oh":47,
    "get":48,
    "robinson":50,
    "we":51,
    "my":51,
    "about":51,
    "all":53,
    "elaine":53,
    "are":58,
    "yes":59,
    "now":60,
    "but":64,
    "want":64,
    "just":66,
    "know":66,
    "not":67,
    "for":69,
    "in":72,
    "think":75,
    "benjamin":77,
    "this":82,
    "have":83,
    "well":88,
    "and":91,
    "no":91,
    "of":92,
    "that":98,
    "im":101,
    "is":107,
    "me":120,
    "do":121,
    "what":124,
    "dont":131,
    "it":155,
    "a":194,
    "the":198,
    "to":263,
    "":398,
    "i":431,
    "you":500
}