{
    "hooked":1,
    "individual":1,
    "slices":1,
    "dignity":1,
    "confidence":1,
    "selflove":1,
    "justice":1,
    "harmony":1,
    "eat":1,
    "everyday":1,
    "pizzas":1,
    "opened":1,
    "doors":1,
    "heaven":1,
    "fishes":1,
    "laminated":1,
    "power":1,
    "tosses":1,
    "onto":1,
    "visible":1,
    "distance":1,
    "driveway":1,
    "pulls":1,
    "effective":1,
    "truth":1,
    "lost":1,
    "passion":1,
    "driver":1,
    "feet":1,
    "survive":1,
    "thinker":1,
    "hours":1,
    "ranting":1,
    "raving":1,
    "garage":1,
    "aint":1,
    "nowhere":1,
    "psychology":1,
    "adjust":1,
    "arent":1,
    "syndicate":1,
    "network":1,
    "minds":1,
    "connected":1,
    "hundreds":1,
    "thousands":1,
    "miles":1,
    "sleeping":1,
    "woman":1,
    "surprising":1,
    "proceed":1,
    "answer":1,
    "3649367":1,
    "965463873947825":1,
    "sanchez":1,
    "duckman":1,
    "673594638io":1,
    "98":1,
    "playoffs":1,
    "offering":1,
    "thousand":1,
    "seat":1,
    "courtside":1,
    "tickets":1,
    "knicks":1,
    "cyclist":1,
    "marcella":1,
    "grocer":1,
    "patch":1,
    "setting":1,
    "concern":1,
    "enable":1,
    "rarefied":1,
    "profession":1,
    "consolidate":1,
    "efforts":1,
    "less":1,
    "killing":1,
    "floor":1,
    "figure":1,
    "freemarket":1,
    "evolution":1,
    "cmon":1,
    "used":1,
    "rookie":1,
    "everybodys":1,
    "paw":1,
    "dirty":1,
    "guild":1,
    "dear":1,
    "alumni":1,
    "guiding":1,
    "outward":1,
    "bound":1,
    "canoe":1,
    "brook":1,
    "stinson":1,
    "perhaps":1,
    "charge":1,
    "appearances":1,
    "leslie":1,
    "gunther":1,
    "chip":1,
    "longfellow":1,
    "traderelations":1,
    "tank":1,
    "washington":1,
    "sandy":1,
    "glasser":1,
    "owns":1,
    "cheese":1,
    "yearbooks":1,
    "evokes":1,
    "memories":1,
    "freeze":1,
    "graduate":1,
    "1984":1,
    "whenever":1,
    "filters":1,
    "excited":1,
    "accomplishments":1,
    "prepared":1,
    "impact":1,
    "learned":1,
    "oak":1,
    "tree":1,
    "acorns":1,
    "committee":1,
    "tease":1,
    "po":1,
    "boxes":1,
    "tedious":1,
    "authorize":1,
    "mail":1,
    "friend":1,
    "attack":1,
    "die":1,
    "sleep":1,
    "compromise":1,
    "upset":1,
    "position":1,
    "inflexible":1,
    "intractable":1,
    "mirror":1,
    "blackcat":1,
    "fridaythe":1,
    "thirteenth":1,
    "liquidated":1,
    "zurich":1,
    "split":1,
    "estonia":1,
    "greenpeace":1,
    "boat":1,
    "scruples":1,
    "paperwork":1,
    "comprehensive":1,
    "identity":1,
    "honestly":1,
    "common":1,
    "weve":1,
    "spent":1,
    "discussing":1,
    "bodily":1,
    "associated":1,
    "experience":1,
    "feared":1,
    "thus":1,
    "dog":1,
    "distinctly":1,
    "imagining":1,
    "bite":1,
    "notes":1,
    "vision":1,
    "depressing":1,
    "husbands":1,
    "wives":1,
    "children":1,
    "houses":1,
    "dogs":1,
    "themselves":1,
    "paraguay":1,
    "fork":1,
    "neednt":1,
    "turn":1,
    "doctorpatient":1,
    "privilege":1,
    "withholding":1,
    "professionals":1,
    "domesticity":1,
    "belong":1,
    "western":1,
    "culture":1,
    "centuries":1,
    "king":1,
    "phillip":1,
    "11th":1,
    "12th":1,
    "century":1,
    "dreary":1,
    "wouldnt":1,
    "fought":1,
    "saracens":1,
    "amazed":1,
    "million":1,
    "fight":1,
    "distant":1,
    "lands":1,
    "terrible":1,
    "families":1,
    "ulysses":1,
    "queen":1,
    "backeverything":1,
    "lie":1,
    "lately":1,
    "uneasy":1,
    "dispassionate":1,
    "starting":1,
    "younger":1,
    "church":1,
    "purging":1,
    "itself":1,
    "pedophile":1,
    "bull":1,
    "market":1,
    "prodigy":1,
    "discomfort":1,
    "guilt":1,
    "remorse":1,
    "innocent":1,
    "chances":1,
    "bring":1,
    "morality":1,
    "discover":1,
    "anybody":1,
    "antsy":1,
    "animals":1,
    "progress":1,
    "food":1,
    "liver":1,
    "seventeen":1,
    "posting":1,
    "walk":1,
    "hasnt":1,
    "90":1,
    "talked":1,
    "bonn":1,
    "highs":1,
    "upper":1,
    "seventies":1,
    "stocks":1,
    "street":1,
    "scandal":1,
    "continues":1,
    "rock":1,
    "joint":1,
    "usjapanese":1,
    "tech":1,
    "unknown":1,
    "whistleblower":1,
    "leaked":1,
    "critical":1,
    "flaws":1,
    "safety":1,
    "designs":1,
    "models":1,
    "authorities":1,
    "millions":1,
    "recalls":1,
    "hero":1,
    "wfrn":1,
    "cold":1,
    "summer":1,
    "gooangry":1,
    "talking":1,
    "moments":1,
    "words":1,
    "nonsense":1,
    "relished":1,
    "wisest":1,
    "band":1,
    "aired":1,
    "due":1,
    "created":1,
    "language":1,
    "sing":1,
    "freedom":1,
    "rhyme":1,
    "shift":1,
    "please":1,
    "unfortunate":1,
    "mary":1,
    "sons":1,
    "rug":1,
    "revival":1,
    "tent":1,
    "religious":1,
    "marlin":1,
    "perkins":1,
    "assistant":1,
    "acted":1,
    "marlins":1,
    "bet":1,
    "faggots":1,
    "gay":1,
    "wild":1,
    "kingdom":1,
    "curious":1,
    "spoke":1,
    "imagine":1,
    "difficult":1,
    "nature":1,
    "broke":1,
    "mold":1,
    "lithium":1,
    "headaches":1,
    "return":1,
    "borrow":1,
    "mine":1,
    "rentacar":1,
    "appropriate":1,
    "given":1,
    "goodbye":1,
    "keeper":1,
    "leader":1,
    "meet":1,
    "castro":1,
    "foreign":1,
    "exchange":1,
    "missed":1,
    "separate":1,
    "wheat":1,
    "chaff":1,
    "candle":1,
    "cat":1,
    "known":1,
    "sudden":1,
    "lives":1,
    "allows":1,
    "miracles":1,
    "breathe":1,
    "ya":1,
    "shotgun":1,
    "doooooc":1,
    "handsome":1,
    "devil":1,
    "pop":1,
    "moms":1,
    "pharmacological":1,
    "punching":1,
    "bag":1,
    "murder":1,
    "cash":1,
    "pries":1,
    "slides":1,
    "case":1,
    "replaces":1,
    "cowboys":1,
    "thuuunder":1,
    "moves":1,
    "playing":1,
    "songs":1,
    "collection":1,
    "stood":1,
    "vanished":1,
    "tore":1,
    "orwell":1,
    "monument":1,
    "bust":1,
    "michael":1,
    "main":1,
    "streets":1,
    "fourlaner":1,
    "turns":1,
    "four":1,
    "officially":1,
    "sister":1,
    "city":1,
    "lower":1,
    "hutt":1,
    "zealand":1,
    "fiberoptic":1,
    "meetings":1,
    "headlines":1,
    "fm":1,
    "pearl":1,
    "jam":1,
    "california":1,
    "traveling":1,
    "dental":1,
    "pain":1,
    "says":1,
    "peculiar":1,
    "abruptly":1,
    "flooding":1,
    "felt":1,
    "apparition":1,
    "cheap":1,
    "gruesome":1,
    "rod":1,
    "serling":1,
    "warp":1,
    "thrust":1,
    "warning":1,
    "strangeness":1,
    "spooked":1,
    "disappeared":1,
    "whos":1,
    "walking":1,
    "frysals":1,
    "deejay":1,
    "cairo":1,
    "announce":1,
    "bogus":1,
    "press":1,
    "conference":1,
    "nooo":1,
    "munich":1,
    "olympics":1,
    "72":1,
    "local":1,
    "broadcasting":1,
    "massacre":1,
    "minutes":1,
    "strictly":1,
    "b\u00e0adermeinhof":1,
    "plo":1,
    "mystery":1,
    "answers":1,
    "recap":1,
    "spring":1,
    "84":1,
    "frightening":1,
    "chemistry":1,
    "sits":1,
    "sevenhundred":1,
    "dollar":1,
    "dress":1,
    "romantic":1,
    "shows":1,
    "exactly":1,
    "venture":1,
    "sound":1,
    "rationalization":1,
    "torn":1,
    "convenience":1,
    "equation":1,
    "therapists":1,
    "shrink":1,
    "ohhh":1,
    "therapy":1,
    "decade":1,
    "deeply":1,
    "thoughts":1,
    "listening":1,
    "audience":1,
    "poll":1,
    "folks":1,
    "radioland":1,
    "brokenhearted":1,
    "avoided":1,
    "completely":1,
    "discussed":1,
    "nor":1,
    "therefore":1,
    "discloses":1,
    "intentions":1,
    "totally":1,
    "gas":1,
    "clear":1,
    "set":1,
    "dammit":1,
    "instincts":1,
    "wouldve":1,
    "voted":1,
    "stuck":1,
    "wanna":1,
    "break":1,
    "final":1,
    "walkthrough":1,
    "em":1,
    "grab":1,
    "quality":1,
    "goddamn":1,
    "cult":1,
    "halfexpected":1,
    "fennel":1,
    "wreath":1,
    "paper":1,
    "pants":1,
    "stopped":1,
    "poutin":1,
    "sidelines":1,
    "team":1,
    "slick":1,
    "asshole":1,
    "valet":1,
    "horse":1,
    "buddy":1,
    "fair":1,
    "god":1,
    "enforce":1,
    "law":1,
    "policy":1,
    "homeowners":1,
    "authorized":1,
    "deadly":1,
    "force":1,
    "taxes":1,
    "provide":1,
    "basic":1,
    "whatnot":1,
    "doesnt":1,
    "peace":1,
    "officer":1,
    "meaningful":1,
    "symbol":1,
    "suspicious":1,
    "heightened":1,
    "circumstances":1,
    "authority":1,
    "correct":1,
    "hiring":1,
    "raising":1,
    "family":1,
    "safe":1,
    "habit":1,
    "pimping":1,
    "prime":1,
    "land":1,
    "must":1,
    "crept":1,
    "drove":1,
    "eerie":1,
    "freaked":1,
    "worked":1,
    "hmo":1,
    "sells":1,
    "sold":1,
    "hardearned":1,
    "bully":1,
    "gave":1,
    "dealer":1,
    "leftaboycameback":1,
    "amanmadegood":1,
    "party":1,
    "ball":1,
    "suit":1,
    "watch":1,
    "happiness":1,
    "character":1,
    "view":1,
    "yep":1,
    "wondering":1,
    "possible":1,
    "worthwhile":1,
    "watched":1,
    "pathetic":1,
    "shockabuku":1,
    "swift":1,
    "spiritual":1,
    "alters":1,
    "reality":1,
    "forever":1,
    "straight":1,
    "asking":1,
    "unbelievable":1,
    "baby":1,
    "eight":1,
    "monty":1,
    "howd":1,
    "usual":1,
    "remarkable":1,
    "client":1,
    "exploded":1,
    "booked":1,
    "rush":1,
    "judgement":1,
    "facts":1,
    "wish":1,
    "hed":1,
    "already":1,
    "unless":1,
    "coldblooded":1,
    "yup":1,
    "moving":1,
    "diner":1,
    "tiger":1,
    "bi":1,
    "mccaffertys":1,
    "melanie":1,
    "server":1,
    "alfalfa":1,
    "feature":1,
    "gatsbys":1,
    "west":1,
    "san":1,
    "franchezie":1,
    "eggs":1,
    "poached":1,
    "hash":1,
    "brown":1,
    "welldone":1,
    "english":1,
    "muffin":1,
    "bread":1,
    "wholegrain":1,
    "pancakes":1,
    "white":1,
    "incident":1,
    "yesterday":1,
    "harm":1,
    "foul":1,
    "misunderstanding":1,
    "among":1,
    "gunman":1,
    "cop":1,
    "oneonone":1,
    "guns":1,
    "damn":1,
    "scabs":1,
    "everythings":1,
    "regulated":1,
    "forehead":1,
    "bullethole":1,
    "sugarmouth":1,
    "pet":1,
    "psychiatrist":1,
    "couch":1,
    "testmarket":1,
    "positive":1,
    "mens":1,
    "specialize":1,
    "ritual":1,
    "killings":1,
    "oooh":1,
    "ooh":1,
    "blow":1,
    "brains":1,
    "howve":1,
    "issues":1,
    "shamed":1,
    "blahblahblahblah":1,
    "flowers":1,
    "rubbing":1,
    "alcohol":1,
    "coat":1,
    "cocktail":1,
    "abandoned":1,
    "grown":1,
    "visualized":1,
    "haze":1,
    "slackster":1,
    "flannelwearing":1,
    "coffeehousemisanthropes":1,
    "newsweek":1,
    "selfreflective":1,
    "lion":1,
    "leadpipe":1,
    "cruelty":1,
    "goes":1,
    "light":1,
    "milkyeyes":1,
    "isolation":1,
    "sports":1,
    "sex":1,
    "relationships":1,
    "sellout":1,
    "babyboomer":1,
    "exploiting":1,
    "oppressed":1,
    "shot":1,
    "kent":1,
    "state":1,
    "booze":1,
    "middle":1,
    "definitely":1,
    "except":1,
    "sent":1,
    "repeat":1,
    "rooted":1,
    "adventure":1,
    "deep":1,
    "breath":1,
    "realize":1,
    "breathing":1,
    "breating":1,
    "falling":1,
    "using":1,
    "cannot":1,
    "shoulda":1,
    "brought":1,
    "gun":1,
    "arlene":1,
    "oslott":1,
    "joseph":1,
    "changed":1,
    "cute":1,
    "attorney":1,
    "moss":1,
    "brice":1,
    "fromeyer":1,
    "pretty":1,
    "injury":1,
    "tragedy":1,
    "thirsty":1,
    "topshelf":1,
    "clients":1,
    "crazy":1,
    "memorializing":1,
    "acting":1,
    "lifechanging":1,
    "national":1,
    "society":1,
    "tags":1,
    "blue":1,
    "starts":1,
    "matters":1,
    "nauseous":1,
    "sentimental":1,
    "bullshit":1,
    "sick":1,
    "terry":1,
    "couple":1,
    "typing":1,
    "drafting":1,
    "appreciate":1,
    "helping":1,
    "mention":1,
    "koretzky":1,
    "computer":1,
    "dads":1,
    "dealership":1,
    "software":1,
    "grandstands":1,
    "fans":1,
    "responsible":1,
    "putting":1,
    "mediocre":1,
    "product":1,
    "ballpark":1,
    "sixth":1,
    "inning":1,
    "fun":1,
    "tigers":1,
    "stadium":1,
    "hells":1,
    "lloyd":1,
    "wright":1,
    "pine":1,
    "avenue":1,
    "social":1,
    "worker":1,
    "mow":1,
    "claims":1,
    "aetna":1,
    "proactive":1,
    "international":1,
    "specialized":1,
    "investment":1,
    "opportunities":1,
    "cleanup":1,
    "emphasis":1,
    "personnel":1,
    "necessarily":1,
    "reflects":1,
    "refrain":1,
    "blackandwhite":1,
    "lexiconyou":1,
    "wrongive":1,
    "interested":1,
    "gray":1,
    "areas":1,
    "leap":1,
    "faith":1,
    "complicated":1,
    "direction":1,
    "compromised":1,
    "inexcusable":1,
    "cynicism":1,
    "biggest":1,
    "copout":1,
    "kentucky":1,
    "fried":1,
    "chicken":1,
    "corporate":1,
    "offices":1,
    "horsey":1,
    "biscuit":1,
    "packets":1,
    "move":1,
    "mcdonalds":1,
    "barbecue":1,
    "coaching":1,
    "darius":1,
    "attention":1,
    "football":1,
    "agree":1,
    "owners":1,
    "franchise":1,
    "qb":1,
    "league":1,
    "theyve":1,
    "positions":1,
    "relegated":1,
    "warren":1,
    "moon":1,
    "helm":1,
    "cunningham":1,
    "shell":1,
    "minnesota":1,
    "green":1,
    "doug":1,
    "williams":1,
    "prove":1,
    "superbowl":1,
    "sunday":1,
    "teaching":1,
    "cedar":1,
    "junior":1,
    "louis":1,
    "farrakhan":1,
    "issue":1,
    "de":1,
    "klerk":1,
    "finest":1,
    "walked":1,
    "halls":1,
    "shame":1,
    "bentley":1,
    "paramedic":1,
    "skokie":1,
    "illinois":1,
    "hoping":1,
    "bookstore":1,
    "sees":1,
    "redemption":1,
    "failure":1,
    "sexually":1,
    "fourbynine":1,
    "cell":1,
    "former":1,
    "herbert":1,
    "walker":1,
    "bush":1,
    "dressed":1,
    "supermodel":1,
    "month":1,
    "crank":1,
    "soft":1,
    "junkie":1,
    "beast":1,
    "scratch":1,
    "claw":1,
    "corpse":1,
    "phyllis":1,
    "wear":1,
    "hot":1,
    "pork":1,
    "vest":1,
    "across":1,
    "desert":1,
    "digested":1,
    "crab":1,
    "mouth":1,
    "expected":1,
    "meant":1,
    "shy":1,
    "kaja":1,
    "stacey":1,
    "while":1,
    "thinks":1,
    "private":1,
    "memory":1,
    "blood":1,
    "heroin":1,
    "junkykitschy":1,
    "accept":1,
    "keeps":1,
    "ahhh":1,
    "fucked":1,
    "adds":1,
    "sense":1,
    "twentyseven":1,
    "couldve":1,
    "contender":1,
    "foot":1,
    "stored":1,
    "conflict":1,
    "needs":1,
    "resolution":1,
    "exist":1,
    "actor":1,
    "express":1,
    "honest":1,
    "nope":1,
    "pen":1,
    "catching":1,
    "chase":1,
    "works":1,
    "dumb":1,
    "luck":1,
    "professionally":1,
    "outta":1,
    "seriously":1,
    "exam":1,
    "psych":1,
    "results":1,
    "fit":1,
    "profile":1,
    "flexibility":1,
    "loaned":1,
    "cia":1,
    "sponsored":1,
    "program":1,
    "called":1,
    "mechanical":1,
    "operations":1,
    "spook":1,
    "irrelevant":1,
    "governments":1,
    "nations":1,
    "mostly":1,
    "theory":1,
    "enjoyed":1,
    "christ":1,
    "losing":1,
    "taste":1,
    "usually":1,
    "means":1,
    "entirely":1,
    "sneaking":1,
    "dark":1,
    "suspicion":1,
    "organic":1,
    "connection":1,
    "along":1,
    "staying":1,
    "hide":1,
    "mate":1,
    "office":1,
    "worry":1,
    "desk":1,
    "hired":1,
    "newfound":1,
    "punk":1,
    "build":1,
    "paying":1,
    "costcutting":1,
    "effort":1,
    "afford":1,
    "recall":1,
    "design":1,
    "flaw":1,
    "reported":1,
    "woods":1,
    "wearing":1,
    "rented":1,
    "tuxedo":1,
    "corsage":1,
    "hand":1,
    "bottle":1,
    "champagne":1,
    "flashed":1,
    "eyes":1,
    "struck":1,
    "bullet":1,
    "finally":1,
    "somebody":1,
    "anymore":1,
    "lock":1,
    "environment":1,
    "excuse":1,
    "empty":1,
    "fill":1,
    "begins":1,
    "open":1,
    "revealing":1,
    "per":1,
    "se":1,
    "worth":1,
    "breaking":1,
    "tears":1,
    "trouble":1,
    "rounds":1,
    "hundred":1,
    "grand":1,
    "excellent":1,
    "marry":1,
    "cause":1,
    "format":1,
    "designed":1,
    "pull":1,
    "reel":1,
    "dreamed":1,
    "weird":1,
    "commercial":1,
    "season":1,
    "bilkin":1,
    "community":1,
    "musical":1,
    "ages":1,
    "starring":1,
    "carol":1,
    "plummer":1,
    "thomas":1,
    "canchola":1,
    "lee":1,
    "ordman":1,
    "rfn":1,
    "finish":1,
    "fantasy":1,
    "hour":1,
    "nonstop":1,
    "nevermind":1,
    "illusions":1,
    "future":1,
    "sum":1,
    "total":1,
    "hope":2,
    "read":2,
    "pan":2,
    "card":2,
    "looks":2,
    "ground":2,
    "gets":2,
    "alone":2,
    "handle":2,
    "sit":2,
    "front":2,
    "bother":2,
    "leave":2,
    "looking":2,
    "decided":2,
    "share":2,
    "problem":2,
    "brain":2,
    "driving":2,
    "somewhere":2,
    "elses":2,
    "small":2,
    "control":2,
    "waiting":2,
    "tonight":2,
    "full":2,
    "transfer":2,
    "ask":2,
    "problems":2,
    "dollars":2,
    "union":2,
    "working":2,
    "willing":2,
    "father":2,
    "wake":2,
    "kid":2,
    "run":2,
    "trip":2,
    "nfl":2,
    "shop":2,
    "pictures":2,
    "makes":2,
    "signed":2,
    "throw":2,
    "cost":2,
    "pay":2,
    "suppose":2,
    "blame":2,
    "detroit":2,
    "impossible":2,
    "normal":2,
    "describe":2,
    "also":2,
    "broken":2,
    "itd":2,
    "dossier":2,
    "michigan":2,
    "lot":2,
    "hurt":2,
    "shouldnt":2,
    "itll":2,
    "theyll":2,
    "made":2,
    "president":2,
    "frank":2,
    "trust":2,
    "couldnt":2,
    "greatest":2,
    "wife":2,
    "road":2,
    "word":2,
    "stay":2,
    "saying":2,
    "everything":2,
    "came":2,
    "hard":2,
    "mood":2,
    "seems":2,
    "tuna":2,
    "telling":2,
    "met":2,
    "lisbon":2,
    "portugal":2,
    "fact":2,
    "related":2,
    "wall":2,
    "center":2,
    "mein":2,
    "ready":2,
    "angry":2,
    "cocteau":2,
    "twins":2,
    "music":2,
    "nineties":2,
    "best":2,
    "dead":2,
    "double":2,
    "bought":2,
    "wonderful":2,
    "place":2,
    "jim":2,
    "wasnt":2,
    "least":2,
    "laugh":2,
    "follow":2,
    "ride":2,
    "matter":2,
    "chance":2,
    "cookin":2,
    "lookin":2,
    "psycho":2,
    "youd":2,
    "vent":2,
    "ah":2,
    "specials":2,
    "another":2,
    "nice":2,
    "miss":2,
    "every":2,
    "behind":2,
    "leaves":2,
    "loved":2,
    "station":2,
    "radio":2,
    "fathers":2,
    "allow":2,
    "phone":2,
    "fully":2,
    "feelings":2,
    "caller":2,
    "hear":2,
    "loud":2,
    "free":2,
    "apple":2,
    "sauce":2,
    "leaving":2,
    "hanging":2,
    "wont":2,
    "afraid":2,
    "execute":2,
    "service":2,
    "customers":2,
    "under":2,
    "wow":2,
    "piece":2,
    "debis":2,
    "army":2,
    "government":2,
    "huh":2,
    "bmws":2,
    "glad":2,
    "seem":2,
    "wants":2,
    "catch":2,
    "experiences":2,
    "television":2,
    "jesus":2,
    "kick":2,
    "late":2,
    "step":2,
    "kills":2,
    "hi":2,
    "welcome":2,
    "egg":2,
    "coffee":2,
    "associates":2,
    "fresh":2,
    "join":2,
    "loner":2,
    "become":2,
    "better":2,
    "insurance":2,
    "kids":2,
    "funny":2,
    "hows":2,
    "bit":2,
    "wrong":2,
    "took":2,
    "beer":2,
    "probably":2,
    "tried":2,
    "alright":2,
    "face":2,
    "knows":2,
    "ken":2,
    "divorce":2,
    "mainly":2,
    "times":2,
    "honor":2,
    "dan":2,
    "public":2,
    "mike":2,
    "having":2,
    "seen":2,
    "relations":2,
    "economic":2,
    "boring":2,
    "biscuits":2,
    "southland":2,
    "gravy":2,
    "coach":2,
    "kept":2,
    "physical":2,
    "game":2,
    "jenny":2,
    "slater":2,
    "twentyeight":2,
    "which":2,
    "commit":2,
    "otter":2,
    "clearly":2,
    "goo":2,
    "substance":2,
    "deeper":2,
    "shit":2,
    "soul":2,
    "certain":2,
    "realized":2,
    "meaning":2,
    "sociopath":2,
    "monster":2,
    "human":2,
    "speak":2,
    "either":2,
    "respect":2,
    "leaky":2,
    "sunroof":2,
    "sitting":2,
    "raised":2,
    "loving":2,
    "coming":2,
    "brigadoon":2,
    "choices":2,
    "police":3,
    "cars":3,
    "club":3,
    "fuckin":3,
    "oclock":3,
    "evening":3,
    "big":3,
    "deal":3,
    "far":3,
    "natural":3,
    "bored":3,
    "group":3,
    "even":3,
    "running":3,
    "world":3,
    "hands":3,
    "number":3,
    "access":3,
    "file":3,
    "paid":3,
    "tomorrow":3,
    "making":3,
    "money":3,
    "important":3,
    "against":3,
    "real":3,
    "believe":3,
    "many":3,
    "interesting":3,
    "class":3,
    "news":3,
    "proud":3,
    "lead":3,
    "stop":3,
    "living":3,
    "theyre":3,
    "weekend":3,
    "anything":3,
    "mmm":3,
    "forget":3,
    "went":3,
    "taking":3,
    "killed":3,
    "both":3,
    "getting":3,
    "use":3,
    "happen":3,
    "door":3,
    "stuff":3,
    "try":3,
    "few":3,
    "feel":3,
    "meow":3,
    "months":3,
    "close":3,
    "vinyl":3,
    "oldies":3,
    "eighties":3,
    "tunes":3,
    "own":3,
    "pick":3,
    "gone":3,
    "711":3,
    "son":3,
    "lovers":3,
    "ass":3,
    "thatd":3,
    "told":3,
    "she":3,
    "wrfn":3,
    "prom":3,
    "george":3,
    "married":3,
    "divorced":3,
    "most":3,
    "past":3,
    "bringing":3,
    "air":3,
    "started":3,
    "girl":3,
    "boy":3,
    "question":3,
    "seeing":3,
    "friends":3,
    "uh":3,
    "hell":3,
    "paul":3,
    "find":3,
    "property":3,
    "badge":3,
    "beautiful":3,
    "still":3,
    "myself":3,
    "looked":3,
    "trying":3,
    "hello":3,
    "relationship":3,
    "goddamned":3,
    "hungry":3,
    "stand":3,
    "daughter":3,
    "destephano":3,
    "listen":3,
    "dennis":3,
    "moral":3,
    "change":3,
    "black":3,
    "candied":3,
    "diller":3,
    "smart":3,
    "between":3,
    "found":3,
    "wind":4,
    "sir":4,
    "morning":4,
    "understand":4,
    "thinking":4,
    "five":4,
    "each":4,
    "whatever":4,
    "tom":4,
    "town":4,
    "different":4,
    "than":4,
    "second":4,
    "account":4,
    "any":4,
    "sorry":4,
    "sort":4,
    "special":4,
    "havent":4,
    "show":4,
    "heart":4,
    "need":4,
    "feeling":4,
    "ones":4,
    "enough":4,
    "next":4,
    "should":4,
    "dr":4,
    "said":4,
    "fear":4,
    "without":4,
    "men":4,
    "hit":4,
    "wanted":4,
    "minute":4,
    "soon":4,
    "ago":4,
    "saw":4,
    "heres":4,
    "off":4,
    "play":4,
    "mom":4,
    "course":4,
    "doc":4,
    "name":4,
    "comes":4,
    "":4,
    "idea":4,
    "being":4,
    "reason":4,
    "joined":4,
    "park":4,
    "company":4,
    "shoot":4,
    "isnt":4,
    "point":4,
    "figured":4,
    "thanks":4,
    "drink":4,
    "actually":4,
    "personal":5,
    "car":5,
    "seven":5,
    "very":5,
    "part":5,
    "through":5,
    "same":5,
    "else":5,
    "care":5,
    "hold":5,
    "gotta":5,
    "wait":5,
    "thank":5,
    "together":5,
    "youll":5,
    "grosse":5,
    "pointe":5,
    "kind":5,
    "again":5,
    "happy":5,
    "week":5,
    "oatman":5,
    "by":5,
    "home":5,
    "rather":5,
    "around":5,
    "maybe":5,
    "mean":5,
    "days":5,
    "head":5,
    "help":5,
    "sure":5,
    "yourself":5,
    "young":5,
    "much":5,
    "until":5,
    "hes":5,
    "sounds":5,
    "art":5,
    "fine":5,
    "omelette":5,
    "after":5,
    "newberry":5,
    "long":6,
    "today":6,
    "lets":6,
    "sometimes":6,
    "only":6,
    "mind":6,
    "last":6,
    "mr":6,
    "us":6,
    "easy":6,
    "ever":6,
    "their":6,
    "live":6,
    "anyway":6,
    "though":6,
    "has":6,
    "later":6,
    "give":6,
    "headache":6,
    "had":6,
    "shes":6,
    "killer":6,
    "id":6,
    "before":6,
    "marty":6,
    "first":6,
    "sell":6,
    "oh":7,
    "these":7,
    "night":7,
    "guys":7,
    "call":7,
    "anyone":7,
    "school":7,
    "high":7,
    "remember":7,
    "doing":7,
    "reunion":7,
    "nothing":7,
    "done":7,
    "way":7,
    "too":7,
    "will":7,
    "guess":7,
    "professional":7,
    "heh":7,
    "away":8,
    "day":8,
    "over":8,
    "thought":8,
    "someone":8,
    "down":8,
    "ten":8,
    "old":8,
    "new":8,
    "business":8,
    "did":8,
    "since":8,
    "everybody":8,
    "happened":8,
    "does":8,
    "got":9,
    "am":9,
    "whole":9,
    "fuck":9,
    "thing":9,
    "talk":9,
    "great":9,
    "put":9,
    "youve":9,
    "fucking":9,
    "always":10,
    "those":10,
    "didnt":10,
    "blank":10,
    "left":10,
    "into":11,
    "cant":11,
    "where":11,
    "gonna":11,
    "other":11,
    "who":11,
    "him":11,
    "make":11,
    "more":11,
    "as":11,
    "life":11,
    "theres":11,
    "yeah":11,
    "hey":11,
    "ive":12,
    "house":12,
    "when":12,
    "from":12,
    "bob":12,
    "his":13,
    "two":13,
    "things":13,
    "because":13,
    "an":13,
    "let":13,
    "would":13,
    "could":13,
    "years":13,
    "guy":13,
    "debi":13,
    "her":13,
    "going":14,
    "say":14,
    "take":14,
    "bad":14,
    "love":14,
    "yes":14,
    "never":15,
    "little":15,
    "come":15,
    "then":16,
    "them":16,
    "right":16,
    "something":16,
    "were":16,
    "really":16,
    "work":17,
    "okay":17,
    "one":17,
    "tell":18,
    "martin":18,
    "some":18,
    "man":18,
    "our":19,
    "whats":20,
    "job":20,
    "or":20,
    "how":21,
    "been":21,
    "look":21,
    "ill":21,
    "can":22,
    "go":22,
    "back":22,
    "people":23,
    "think":23,
    "want":23,
    "kill":23,
    "out":24,
    "why":24,
    "well":25,
    "time":25,
    "there":26,
    "here":26,
    "they":26,
    "about":27,
    "thats":27,
    "he":29,
    "now":29,
    "no":29,
    "if":29,
    "get":30,
    "know":30,
    "good":32,
    "youre":32,
    "just":32,
    "see":33,
    "all":33,
    "like":34,
    "be":35,
    "are":36,
    "up":38,
    "not":39,
    "but":40,
    "so":41,
    "was":41,
    "on":41,
    "we":41,
    "at":42,
    "this":45,
    "is":45,
    "your":46,
    "with":46,
    "my":48,
    "have":53,
    "for":54,
    "dont":59,
    "do":60,
    "what":62,
    "its":68,
    "im":69,
    "me":70,
    "that":78,
    "of":85,
    "it":89,
    "in":105,
    "and":137,
    "to":174,
    "a":196,
    "i":235,
    "the":243,
    "you":275
}