{
    "mary":1,
    "shh":1,
    "mommys":1,
    "bed":1,
    "monters":1,
    "ghouls":1,
    "jerks":1,
    "grandma":1,
    "grandpas":1,
    "deal":1,
    "haunted":1,
    "start":1,
    "tv":1,
    "grandpa":1,
    "ignore":1,
    "slide":1,
    "goodnight":1,
    "write":1,
    "week":1,
    "straight":1,
    "debi":1,
    "saying":1,
    "sexually":1,
    "aroused":1,
    "offspring":1,
    "deep":1,
    "nations":1,
    "notorious":1,
    "serial":1,
    "killers":1,
    "belongs":1,
    "est":1,
    "seminar":1,
    "planet":1,
    "claims":1,
    "actually":1,
    "whacko":1,
    "caller":1,
    "yearsold":1,
    "saw":1,
    "lucky":1,
    "survived":1,
    "candidate":1,
    "electroshock":1,
    "feeble":1,
    "excuse":1,
    "excited":1,
    "paying":1,
    "tomorrow":1,
    "point":1,
    "practicing":1,
    "wrist":1,
    "exercises":1,
    "90s":1,
    "gays":1,
    "military":1,
    "cut":1,
    "husbands":1,
    "jigger":1,
    "become":1,
    "national":1,
    "hero":1,
    "goddamnit":1,
    "putting":1,
    "water":1,
    "christ":1,
    "whole":1,
    "idea":1,
    "thrive":1,
    "seclusion":1,
    "reviled":1,
    "rasputin":1,
    "grown":1,
    "complacent":1,
    "golden":1,
    "buy":1,
    "single":1,
    "calls":1,
    "especially":1,
    "unlike":1,
    "learned":1,
    "secondguess":1,
    "motives":1,
    "fellow":1,
    "case":1,
    "hope":1,
    "quote":1,
    "keen":1,
    "perception":1,
    "astound":1,
    "thirtytwo":1,
    "named":1,
    "groves":1,
    "surely":1,
    "retiring":1,
    "congratulations":1,
    "suited":1,
    "position":1,
    "course":1,
    "bring":1,
    "pardon":1,
    "expression":1,
    "program":1,
    "wise":1,
    "pranks":1,
    "job":1,
    "havent":1,
    "recruiting":1,
    "team":1,
    "colleagues":1,
    "difference":1,
    "practically":1,
    "retire":1,
    "ghosts":1,
    "buried":1,
    "earth":1,
    "dig":1,
    "lurking":1,
    "reached":1,
    "services":1,
    "severe":1,
    "weather":1,
    "conditions":1,
    "circuits":1,
    "momentarily":1,
    "busy":1,
    "dial":1,
    "gives":1,
    "flying":1,
    "circus":1,
    "loins":1,
    "shot":1,
    "18008787274":1,
    "1800urtrash":1,
    "hacks":1,
    "young":1,
    "stinkin":1,
    "seconds":1,
    "hard":1,
    "harping":1,
    "apple":1,
    "annual":1,
    "harvest":1,
    "faire":1,
    "broom":1,
    "closets":1,
    "fielders":1,
    "bogey":1,
    "practical":1,
    "joke":1,
    "well":1,
    "died":1,
    "explosion":1,
    "watched":1,
    "sitting":1,
    "walls":1,
    "growing":1,
    "stronger":1,
    "colleague":1,
    "alone":1,
    "cancel":1,
    "appointments":1,
    "anything":1,
    "files":1,
    "tests":1,
    "records":1,
    "treatment":1,
    "administered":1,
    "former":1,
    "patient":1,
    "ours":1,
    "chance":1,
    "notify":1,
    "haddonfields":1,
    "alert":1,
    "code":1,
    "lockdown":1,
    "twentyfour":1,
    "plan":1,
    "bro":1,
    "lived":1,
    "city":1,
    "arranged":1,
    "hook":1,
    "peace":1,
    "shitheads":1,
    "defacing":1,
    "ruining":1,
    "everywhere":1,
    "respect":1,
    "talkin":1,
    "pass":1,
    "exam":1,
    "empty":1,
    "stomach":1,
    "cognitive":1,
    "emotional":1,
    "disorders":1,
    "teaching":1,
    "days":1,
    "art":1,
    "psychology":1,
    "face":1,
    "expects":1,
    "roll":1,
    "carpet":1,
    "mistakes":1,
    "lay":1,
    "sit":1,
    "slipping":1,
    "cash":1,
    "money":1,
    "raise":1,
    "hand":1,
    "hardin":1,
    "county":1,
    "express":1,
    "list":1,
    "episode":1,
    "daddy":1,
    "pig":1,
    "hot":1,
    "lips":1,
    "organnize":1,
    "friggin":1,
    "o":1,
    "political":1,
    "corncobs":1,
    "their":1,
    "ass":1,
    "set":1,
    "example":1,
    "inheriting":1,
    "fathers":1,
    "dillweed":1,
    "1995":1,
    "interested":1,
    "seeing":1,
    "weirdness":1,
    "scale":1,
    "eleven":1,
    "supposedly":1,
    "scary":1,
    "messed":1,
    "harmless":1,
    "though":1,
    "probably":1,
    "lonely":1,
    "horny":1,
    "such":1,
    "dump":1,
    "chill":1,
    "sis":1,
    "doggin":1,
    "speed":1,
    "kills":1,
    "pepper":1,
    "spray":1,
    "happy":1,
    "scare":1,
    "611":1,
    "arriving":1,
    "arrived":1,
    "seven":1,
    "lookin":1,
    "chopper":1,
    "visual":1,
    "approximately":1,
    "east":1,
    "step":1,
    "official":1,
    "holdt":1,
    "fact":1,
    "infamous":1,
    "introduce":1,
    "suggest":1,
    "fly":1,
    "crackpot":1,
    "asylum":1,
    "spouting":1,
    "stories":1,
    "suppose":1,
    "station":1,
    "maybe":1,
    "lying":1,
    "dear":1,
    "theyve":1,
    "lining":1,
    "lose":1,
    "term":1,
    "copy":1,
    "elses":1,
    "works":1,
    "primo":1,
    "victory":1,
    "penetrating":1,
    "abdominal":1,
    "trauma":1,
    "massive":1,
    "loss":1,
    "onegative":1,
    "stat":1,
    "dextran":1,
    "bp":1,
    "sixty":1,
    "pulse":1,
    "onetwenty":1,
    "type":1,
    "crossmatch":1,
    "ct":1,
    "scan":1,
    "problem":1,
    "iits":1,
    "fighting":1,
    "line":1,
    "dies":1,
    "cousins":1,
    "gotta":1,
    "knocking":1,
    "suits":1,
    "worse":1,
    "sixyearsold":1,
    "1963":1,
    "fifteen":1,
    "became":1,
    "obsessed":1,
    "lifts":1,
    "failure":1,
    "fear":1,
    "unleashed":1,
    "victim":1,
    "crept":1,
    "stairs":1,
    "sisters":1,
    "began":1,
    "makes":1,
    "sacred":1,
    "source":1,
    "memories":1,
    "beg":1,
    "suffer":1,
    "fast":1,
    "field":1,
    "double":1,
    "sits":1,
    "drives":1,
    "keeps":1,
    "powerful":1,
    "possibly":1,
    "imagine":1,
    "embodiment":1,
    "doors":1,
    "husband":1,
    "possible":1,
    "true":1,
    "wont":1,
    "destroyed":1,
    "yesss":1,
    "together":1,
    "realty":1,
    "psychiatrist":1,
    "letting":1,
    "strangers":1,
    "sound":1,
    "gods":1,
    "talk":1,
    "shows":1,
    "dealing":1,
    "trickortreat":1,
    "almost":1,
    "rhymes":1,
    "count":1,
    "witching":1,
    "iim":1,
    "downstairs":1,
    "tommys":1,
    "playing":1,
    "til":1,
    "dinosaurs":1,
    "fight":1,
    "carefully":1,
    "hurt":1,
    "chose":1,
    "seventhirty":1,
    "costume":1,
    "pageant":1,
    "carving":1,
    "jackolanterns":1,
    "photos":1,
    "lights":1,
    "thirty":1,
    "forgetting":1,
    "everythings":1,
    "cool":1,
    "worries":1,
    "hellllo":1,
    "eastbound":1,
    "reservoir":1,
    "past":1,
    "elementary":1,
    "location":1,
    "checked":1,
    "aroundtheclock":1,
    "surveillance":1,
    "warning":1,
    "free":1,
    "reign":1,
    "ben":1,
    "meeker":1,
    "soul":1,
    "sadistic":1,
    "witch":1,
    "hunt":1,
    "hospital":1,
    "huh":1,
    "b":1,
    "expect":1,
    "looking":1,
    "miss":1,
    "fun":1,
    "stuff":1,
    "takes":1,
    "mothers":1,
    "touch":1,
    "kyles":1,
    "afraid":1,
    "looks":1,
    "letter":1,
    "number":1,
    "rune":1,
    "failed":1,
    "yourself":1,
    "during":1,
    "discovered":1,
    "uterus":1,
    "hemorrhaging":1,
    "placental":1,
    "fluid":1,
    "heaven":1,
    "estimate":1,
    "gave":1,
    "attack":1,
    "alphabet":1,
    "originated":1,
    "northern":1,
    "europe":1,
    "thousands":1,
    "symbols":1,
    "carved":1,
    "stone":1,
    "pieces":1,
    "wood":1,
    "negative":1,
    "influence":1,
    "cults":1,
    "rituals":1,
    "portend":1,
    "future":1,
    "invoke":1,
    "black":1,
    "ancient":1,
    "believed":1,
    "cause":1,
    "sickness":1,
    "famine":1,
    "translated":1,
    "demon":1,
    "spirit":1,
    "human":1,
    "sacrifices":1,
    "celtic":1,
    "applied":1,
    "person":1,
    "upon":1,
    "confusion":1,
    "destruction":1,
    "whoevers":1,
    "flies":1,
    "arms":1,
    "walk":1,
    "walking":1,
    "break":1,
    "half":1,
    "supper":1,
    "game":1,
    "wanna":1,
    "ahead":1,
    "brat":1,
    "hands":1,
    "wish":1,
    "born":1,
    "organizers":1,
    "event":1,
    "knowing":1,
    "dope":1,
    "totally":1,
    "raw":1,
    "juice":1,
    "wife":1,
    "tells":1,
    "climax":1,
    "means":1,
    "taken":1,
    "firm":1,
    "against":1,
    "censorship":1,
    "nation":1,
    "generation":1,
    "powersthatbe":1,
    "control":1,
    "minds":1,
    "dictate":1,
    "clothes":1,
    "wear":1,
    "music":1,
    "holidays":1,
    "considered":1,
    "public":1,
    "office":1,
    "important":1,
    "spoke":1,
    "throw":1,
    "gettin":1,
    "busted":1,
    "psycho":1,
    "spying":1,
    "wed":1,
    "minutes":1,
    "mikey":1,
    "grandfather":1,
    "eighteenninetyfive":1,
    "hundred":1,
    "hallows":1,
    "murdered":1,
    "townspeople":1,
    "burned":1,
    "near":1,
    "placed":1,
    "custody":1,
    "pull":1,
    "uncuff":1,
    "explanation":1,
    "shut":1,
    "mouth":1,
    "went":1,
    "parents":1,
    "arent":1,
    "soap":1,
    "rope":1,
    "worried":1,
    "guys":1,
    "bathroom":1,
    "hurry":1,
    "evening":1,
    "appointment":1,
    "remove":1,
    "fail":1,
    "amaze":1,
    "yesterday":1,
    "happily":1,
    "today":1,
    "thick":1,
    "gathering":1,
    "difficult":1,
    "upbringing":1,
    "integrity":1,
    "felt":1,
    "dark":1,
    "wanted":1,
    "choice":1,
    "mans":1,
    "greatness":1,
    "blinded":1,
    "convenient":1,
    "ways":1,
    "loyal":1,
    "dog":1,
    "hed":1,
    "although":1,
    "nasty":1,
    "jail":1,
    "cell":1,
    "gift":1,
    "veins":1,
    "incubated":1,
    "prepared":1,
    "served":1,
    "purpose":1,
    "soon":1,
    "progeny":1,
    "curse":1,
    "handed":1,
    "countless":1,
    "generations":1,
    "ageless":1,
    "deliverer":1,
    "card":1,
    "follow":1,
    "protect":1,
    "guardian":1,
    "questions":1,
    "silent":1,
    "yet":1,
    "impulses":1,
    "feels":1,
    "rise":1,
    "pain":1,
    "created":1,
    "monster":1,
    "amazing":1,
    "taught":1,
    "generous":1,
    "contributors":1,
    "church":1,
    "amazed":1,
    "reaches":1,
    "holy":1,
    "disciples":1,
    "final":1,
    "heretic":1,
    "unto":1,
    "feast":1,
    "sun":1,
    "foreseen":1,
    "spirits":1,
    "flame":1,
    "attend":1,
    "witness":1,
    "ritual":1,
    "gifts":1,
    "path":1,
    "transform":1,
    "eyes":1,
    "chosen":1,
    "whom":1,
    "strong":1,
    "fierce":1,
    "thundered":1,
    "hammer":1,
    "summon":1,
    "thee":1,
    "descend":1,
    "lord":1,
    "forever":1,
    "real":1,
    "leave":1,
    "goodbye":1,
    "minute":1,
    "working":1,
    "ten":2,
    "tried":2,
    "wants":2,
    "daughter":2,
    "gets":2,
    "sleep":2,
    "rules":2,
    "said":2,
    "since":2,
    "listening":2,
    "watching":2,
    "says":2,
    "sounds":2,
    "bear":2,
    "needs":2,
    "most":2,
    "lady":2,
    "names":2,
    "eight":2,
    "therapy":2,
    "michaels":2,
    "finished":2,
    "comes":2,
    "ready":2,
    "save":2,
    "move":2,
    "say":2,
    "visit":2,
    "retired":2,
    "devil":2,
    "five":2,
    "miles":2,
    "road":2,
    "second":2,
    "known":2,
    "hour":2,
    "freud":2,
    "drink":2,
    "storm":2,
    "powers":2,
    "celebrate":2,
    "psychiatric":2,
    "administrator":2,
    "chief":2,
    "rogers":2,
    "play":2,
    "stroke":2,
    "hold":2,
    "gun":2,
    "head":2,
    "seems":2,
    "closet":2,
    "emergency":2,
    "due":2,
    "directly":2,
    "simms":2,
    "believers":2,
    "gone":2,
    "terence":2,
    "also":2,
    "happens":2,
    "rosemary":2,
    "sweetheart":2,
    "somebody":2,
    "enough":2,
    "three":2,
    "property":2,
    "tonights":2,
    "place":2,
    "first":2,
    "radio":2,
    "calling":2,
    "sure":2,
    "day":2,
    "evil":2,
    "lives":2,
    "staring":2,
    "entire":2,
    "red":2,
    "worry":2,
    "showed":2,
    "relax":2,
    "called":2,
    "driving":2,
    "dad":2,
    "bastard":2,
    "supposed":2,
    "events":2,
    "knows":2,
    "times":2,
    "being":2,
    "thought":2,
    "moving":2,
    "damned":2,
    "turn":2,
    "women":2,
    "reality":2,
    "hall":2,
    "window":2,
    "yeah":2,
    "asshole":2,
    "fuckin":2,
    "someones":2,
    "bus":2,
    "russellville":2,
    "sir":2,
    "jesus":2,
    "must":2,
    "am":2,
    "quiet":2,
    "thing":2,
    "shes":2,
    "paper":2,
    "given":2,
    "units":2,
    "pulled":2,
    "surgery":2,
    "care":2,
    "accident":2,
    "heard":2,
    "doyle":2,
    "babysitting":2,
    "truth":2,
    "strodes":2,
    "shhh":2,
    "stabbed":2,
    "sister":2,
    "finding":2,
    "ultimate":2,
    "force":2,
    "rage":2,
    "outside":2,
    "freak":2,
    "deadly":2,
    "lock":2,
    "far":2,
    "until":2,
    "without":2,
    "getting":2,
    "children":2,
    "insane":2,
    "kiddies":2,
    "neighbor":2,
    "son":2,
    "wasnt":2,
    "done":2,
    "nine":2,
    "word":2,
    "myself":2,
    "may":2,
    "rest":2,
    "charge":2,
    "stand":2,
    "wrong":2,
    "meet":2,
    "waiting":2,
    "birth":2,
    "few":2,
    "early":2,
    "magic":2,
    "literally":2,
    "delivered":2,
    "celebration":2,
    "samhain":2,
    "controlling":2,
    "moves":2,
    "hears":2,
    "other":2,
    "upstairs":2,
    "pretty":2,
    "fine":2,
    "running":2,
    "own":2,
    "eve":2,
    "promise":2,
    "friends":2,
    "madness":2,
    "darkness":2,
    "offer":2,
    "sacrifice":2,
    "thy":2,
    "laurie":3,
    "damn":3,
    "while":3,
    "college":3,
    "bad":3,
    "seen":3,
    "mean":3,
    "sometimes":3,
    "once":3,
    "hear":3,
    "love":3,
    "talking":3,
    "believe":3,
    "matter":3,
    "dwayne":3,
    "show":3,
    "changed":3,
    "any":3,
    "bringing":3,
    "drive":3,
    "really":3,
    "sign":3,
    "country":3,
    "grove":3,
    "guess":3,
    "staff":3,
    "life":3,
    "change":3,
    "finally":3,
    "light":3,
    "bogeyman":3,
    "already":3,
    "made":3,
    "ya":3,
    "lloyd":3,
    "came":3,
    "whatever":3,
    "brought":3,
    "those":3,
    "might":3,
    "hours":3,
    "goddamn":3,
    "yo":3,
    "telling":3,
    "check":3,
    "act":3,
    "having":3,
    "thank":3,
    "find":3,
    "somehow":3,
    "into":3,
    "doctor":3,
    "jamies":3,
    "kyle":3,
    "than":3,
    "room":3,
    "morning":3,
    "which":3,
    "call":3,
    "terrible":3,
    "woman":3,
    "hello":3,
    "tree":3,
    "die":3,
    "runes":3,
    "answer":3,
    "run":3,
    "girl":4,
    "anyone":4,
    "least":4,
    "crazy":4,
    "every":4,
    "child":4,
    "does":4,
    "understand":4,
    "mind":4,
    "best":4,
    "youll":4,
    "hey":4,
    "smiths":4,
    "cigar":4,
    "left":4,
    "would":4,
    "two":4,
    "big":4,
    "could":4,
    "feel":4,
    "behind":4,
    "friend":4,
    "good":4,
    "everything":4,
    "fuck":4,
    "lets":4,
    "sorry":4,
    "debra":4,
    "business":4,
    "death":4,
    "nothing":4,
    "yes":4,
    "doing":4,
    "great":4,
    "door":4,
    "where":4,
    "found":4,
    "watch":4,
    "innocent":4,
    "scared":4,
    "else":5,
    "ones":5,
    "kid":5,
    "remember":5,
    "school":5,
    "youve":5,
    "much":5,
    "keep":5,
    "even":5,
    "guy":5,
    "before":5,
    "next":5,
    "id":5,
    "sense":5,
    "living":5,
    "these":5,
    "old":5,
    "ghost":5,
    "youd":5,
    "over":5,
    "try":5,
    "trying":5,
    "inside":5,
    "through":5,
    "ever":5,
    "sheriff":5,
    "then":5,
    "another":5,
    "blankenship":5,
    "across":5,
    "open":5,
    "look":5,
    "street":5,
    "will":5,
    "ago":6,
    "give":6,
    "around":6,
    "mommy":6,
    "new":6,
    "used":6,
    "live":6,
    "too":6,
    "off":6,
    "kind":6,
    "dead":6,
    "six":6,
    "isnt":6,
    "shit":6,
    "town":6,
    "should":6,
    "people":6,
    "wynn":6,
    "many":6,
    "didnt":6,
    "always":6,
    "need":6,
    "fair":6,
    "happened":6,
    "last":6,
    "something":6,
    "by":6,
    "strode":7,
    "better":7,
    "kids":7,
    "okay":7,
    "weve":7,
    "still":7,
    "work":7,
    "very":7,
    "blood":7,
    "theyre":7,
    "whos":7,
    "told":7,
    "wait":7,
    "tim":7,
    "boy":7,
    "mother":8,
    "some":8,
    "whats":8,
    "take":8,
    "name":8,
    "haddonfield":8,
    "ill":8,
    "halloween":8,
    "never":8,
    "why":8,
    "going":8,
    "wheres":8,
    "beth":8,
    "stay":9,
    "ive":9,
    "tonight":9,
    "after":9,
    "alive":9,
    "again":9,
    "listen":9,
    "cant":9,
    "same":9,
    "knew":9,
    "john":9,
    "gonna":9,
    "family":9,
    "mrs":9,
    "oh":10,
    "little":10,
    "hell":10,
    "man":10,
    "away":10,
    "harry":10,
    "think":10,
    "down":10,
    "someone":10,
    "thats":10,
    "sam":10,
    "had":10,
    "them":10,
    "help":10,
    "an":10,
    "more":10,
    "thorn":10,
    "way":11,
    "mom":11,
    "time":11,
    "make":12,
    "stop":12,
    "let":12,
    "they":12,
    "did":12,
    "things":12,
    "only":12,
    "has":12,
    "got":12,
    "up":12,
    "how":12,
    "or":12,
    "see":12,
    "theres":12,
    "voice":13,
    "hes":13,
    "like":13,
    "if":13,
    "she":13,
    "kara":14,
    "home":14,
    "tommy":14,
    "were":14,
    "years":15,
    "back":15,
    "from":15,
    "our":15,
    "one":15,
    "tell":15,
    "jamie":15,
    "so":15,
    "dr":15,
    "when":16,
    "loomis":16,
    "can":17,
    "about":17,
    "coming":18,
    "at":18,
    "want":18,
    "night":18,
    "god":19,
    "myers":19,
    "who":19,
    "baby":19,
    "with":19,
    "right":19,
    "been":19,
    "not":19,
    "go":20,
    "kill":21,
    "but":21,
    "youre":21,
    "dont":21,
    "please":22,
    "house":22,
    "as":22,
    "know":23,
    "us":24,
    "do":24,
    "his":25,
    "there":25,
    "out":25,
    "no":26,
    "get":26,
    "was":26,
    "be":26,
    "her":27,
    "now":28,
    "are":28,
    "he":29,
    "michael":29,
    "have":29,
    "come":29,
    "its":33,
    "here":33,
    "we":33,
    "im":34,
    "just":35,
    "all":36,
    "on":36,
    "my":39,
    "danny":40,
    "your":42,
    "for":49,
    "it":50,
    "that":56,
    "him":56,
    "me":57,
    "what":59,
    "a":61,
    "is":62,
    "in":64,
    "and":66,
    "this":71,
    "of":75,
    "i":106,
    "to":161,
    "the":171,
    "you":176,
    "":178
}