{
    "heaven":1,
    "mindthis":1,
    "toward":1,
    "motionless":1,
    "catatonic":1,
    "pupils":1,
    "fill":1,
    "um":1,
    "says":1,
    "zyprexa":1,
    "dear":1,
    "five":1,
    "doctor":1,
    "fien":1,
    "curly":1,
    "decimal":1,
    "zero":1,
    "patient":1,
    "lock":1,
    "innocently":1,
    "serial":1,
    "gossip":1,
    "concentrate":1,
    "brother":1,
    "guns":1,
    "drawn":1,
    "lying":1,
    "breathing":1,
    "secure":1,
    "brother\u2019s":1,
    "granted":1,
    "severed":1,
    "bushy":1,
    "mustache":1,
    "officer":1,
    "policeman":1,
    "crushed":1,
    "larynx":1,
    "ms":1,
    "hasn\u2019t":1,
    "spoken":1,
    "extreme":1,
    "dissociative":1,
    "straightbacked":1,
    "rocking":1,
    "clings":1,
    "tattered":1,
    "cup":1,
    "passively":1,
    "accepts":1,
    "sip":1,
    "doctors":1,
    "suicide":1,
    "threat":1,
    "guilt":1,
    "cart":1,
    "spits":1,
    "doll\u2019s":1,
    "dumps":1,
    "stuffing":1,
    "beanbag":1,
    "grass":1,
    "murk":1,
    "steel":1,
    "woods":1,
    "bordering":1,
    "property":1,
    "twig":1,
    "nervously":1,
    "cigarette":1,
    "lighter":1,
    "things":1,
    "fumbles":1,
    "raised":1,
    "jesus":1,
    "christ":1,
    "heart":1,
    "attack":1,
    "awkwardly":1,
    "flapping":1,
    "redandwhite":1,
    "sweet":1,
    "faced":1,
    "manchild":1,
    "john":1,
    "wayne":1,
    "gacy":1,
    "chicago":1,
    "march":1,
    "17":1,
    "1942":1,
    "thirtythree":1,
    "executed":1,
    "14":1,
    "1994":1,
    "sanitarium":1,
    "hearty":1,
    "guffaw":1,
    "criticize":1,
    "skipped":1,
    "gurgling":1,
    "pipes":1,
    "snake":1,
    "floors":1,
    "damp":1,
    "machinery":1,
    "bins":1,
    "gotten":1,
    "hesitate":1,
    "spin":1,
    "banging":1,
    "tennis":1,
    "shoe":1,
    "heavier":1,
    "thumping":1,
    "frankie":1,
    "stain":1,
    "shaking":1,
    "circular":1,
    "tentatively":1,
    "digging":1,
    "bloodstained":1,
    "linen":1,
    "uncovers":1,
    "sheets":1,
    "revulsion":1,
    "stumbles":1,
    "trips":1,
    "ted":1,
    "bundy":1,
    "november":1,
    "24":1,
    "observation":1,
    "hollering":1,
    "cacophony":1,
    "\u201croof":1,
    "access\u201d":1,
    "regains":1,
    "footing":1,
    "resolute":1,
    "taunting":1,
    "failed":1,
    "anymore":1,
    "passes":1,
    "pulley":1,
    "snap":1,
    "arches":1,
    "spine":1,
    "fall":1,
    "gripping":1,
    "partner":1,
    "lover":1,
    "abyss":1,
    "inches":1,
    "apart":1,
    "serene":1,
    "triumphant":1,
    "childish":1,
    "eerily":1,
    "similar":1,
    "wore":1,
    "murdered":1,
    "fascination":1,
    "lowers":1,
    "clutches":1,
    "collector\u2019s":1,
    "holy":1,
    "grail":1,
    "oct":1,
    "1957":1,
    "3":1,
    "1978":1,
    "becoming":1,
    "subterranean":1,
    "returning":1,
    "jung":1,
    "psyche":1,
    "contains":1,
    "ourselves":1,
    "conscious":1,
    "mind":1,
    "denies":1,
    "violent":1,
    "unpleasant":1,
    "glad":1,
    "awake":1,
    "tops":1,
    "early":1,
    "campus":1,
    "deserted":1,
    "short":1,
    "scooter":1,
    "buildings":1,
    "booo":1,
    "curdling":1,
    "shriek":1,
    "unnaturally":1,
    "wake":1,
    "ouch":1,
    "classic":1,
    "genuinely":1,
    "upset":1,
    "mortified":1,
    "hate":1,
    "hugs":1,
    "deep":1,
    "toughen":1,
    "drags":1,
    "distract":1,
    "chops":1,
    "vegetables":1,
    "lightning":1,
    "speed":1,
    "blares":1,
    "checked":1,
    "juggles":1,
    "twirls":1,
    "drummer":1,
    "darting":1,
    "new":1,
    "investor":1,
    "cheers":1,
    "scoring":1,
    "touchdown":1,
    "jokes":1,
    "unacceptable":1,
    "unexceptable":1,
    "haven\u2019t":1,
    "decided":1,
    "urges":1,
    "surreptitious":1,
    "nod":1,
    "innerchambersofthehumanmind":1,
    "sense":1,
    "turkey":1,
    "tetrazinni":1,
    "guy":1,
    "\u201creal":1,
    "world\u201d":1,
    "\u201csurvivor\u201d":1,
    "regret":1,
    "die":1,
    "boredom":1,
    "guest":1,
    "entrepreneur":1,
    "latest":1,
    "venture":1,
    "captured":1,
    "imagination":1,
    "net":1,
    "surfers":1,
    "entertainment":1,
    "today\u2019s":1,
    "tired":1,
    "plots":1,
    "production":1,
    "values":1,
    "ohsoearnest":1,
    "agreement":1,
    "\u201creality\u201d":1,
    "future":1,
    "pulse":1,
    "remote":1,
    "mouse":1,
    "glances":1,
    "winston":1,
    "reassuring":1,
    "thumbsup":1,
    "lithe":1,
    "amazonian":1,
    "razor":1,
    "sharp":1,
    "university":1,
    "submissions":1,
    "during":1,
    "broadcasts":1,
    "\u201cinfamous":1,
    "locales\u201d":1,
    "sites":1,
    "ritual":1,
    "cult":1,
    "suicides":1,
    "mysterious":1,
    "disappearances":1,
    "unexplained":1,
    "images":1,
    "environments":1,
    "button":1,
    "caller":1,
    "discover":1,
    "since":1,
    "geraldo":1,
    "entered":1,
    "awkward":1,
    "pause":1,
    "places":1,
    "bound":1,
    "guarantee":1,
    "host":1,
    "cuts":1,
    "mid":1,
    "sentence":1,
    "planned":1,
    "seemingly":1,
    "suburban":1,
    "infamous":1,
    "studio":1,
    "applauds":1,
    "moyer":1,
    "putting":1,
    "searching":1,
    "crime":1,
    "semester":1,
    "fumes":1,
    "exposure":1,
    "priceless":1,
    "wandered":1,
    "shoulders":1,
    "knock":1,
    "circus":1,
    "started":1,
    "walked":1,
    "hallways":1,
    "hid":1,
    "closets":1,
    "bedrooms":1,
    "helped":1,
    "mother":1,
    "watched":1,
    "dad":1,
    "played":1,
    "sisters":1,
    "picked":1,
    "mysteriously":1,
    "came":1,
    "exits":1,
    "pay":1,
    "attention":1,
    "need":1,
    "typing":1,
    "nosy":1,
    "screenname":1,
    "junior":1,
    "dating":1,
    "yahoo":1,
    "rooms":1,
    "count":1,
    "gimmie":1,
    "weblink":1,
    "waits":1,
    "page":1,
    "download":1,
    "bored":1,
    "explode":1,
    "confused":1,
    "9":1,
    "stoned":1,
    "logging":1,
    "barrels":1,
    "juggernaut":1,
    "theme":1,
    "plods":1,
    "logs":1,
    "determined":1,
    "hellbent":1,
    "clearing":1,
    "upon":1,
    "slightly":1,
    "fully":1,
    "finished":1,
    "crosses":1,
    "dice":1,
    "listens":1,
    "trudge":1,
    "campsite":1,
    "mutter":1,
    "rustle":1,
    "gingerly":1,
    "pine":1,
    "needles":1,
    "interminable":1,
    "toilet":1,
    "nothing\u2019s":1,
    "speechless":1,
    "coronary":1,
    "vaarroom":1,
    "roars":1,
    "headlights":1,
    "illuminating":1,
    "shorter":1,
    "times":1,
    "longer":1,
    "vision":1,
    "miss":1,
    "lighting":1,
    "workmen":1,
    "tripods":1,
    "sweetheart":1,
    "tinted":1,
    "muffler":1,
    "rides":1,
    "blissfully":1,
    "unaware":1,
    "following":1,
    "why\u2019d":1,
    "driver":1,
    "wide":1,
    "yards":1,
    "ripping":1,
    "unnerved":1,
    "west":1,
    "andrews":1,
    "search":1,
    "worst":1,
    "nightmare":1,
    "nation":1,
    "birthplace":1,
    "brutal":1,
    "band":1,
    "lupos":1,
    "thursday":1,
    "nights":1,
    "morgan":1,
    "\u201clizard":1,
    "king\u201d":1,
    "\u201cpuff":1,
    "daddy\u201d":1,
    "majors":1,
    "minors":1,
    "womanizing":1,
    "course":1,
    "backstage":1,
    "labor":1,
    "concert":1,
    "tequila":1,
    "alice":1,
    "met":1,
    "caused":1,
    "\u201ccauses\u201d":1,
    "embodies":1,
    "violence":1,
    "embedded":1,
    "popmythology":1,
    "shrugs":1,
    "cares":1,
    "totally":1,
    "neopagan":1,
    "symbolism":1,
    "candy":1,
    "corn":1,
    "yale":1,
    "year":1,
    "woodlake":1,
    "player":1,
    "silk":1,
    "tie":1,
    "suit":1,
    "working":1,
    "dry":1,
    "cruel":1,
    "wit":1,
    "often":1,
    "smirking":1,
    "girlgirl":1,
    "\u201cexperimentation\u201d":1,
    "rommates":1,
    "messing":1,
    "suzy":1,
    "hope":1,
    "network":1,
    "broadcasting":1,
    "seriously":1,
    "journalism":1,
    "younger":1,
    "diane":1,
    "sawyer":1,
    "saying":1,
    "question":1,
    "arrogant":1,
    "politically":1,
    "woman":1,
    "gender":1,
    "easier":1,
    "proven":1,
    "guilty":1,
    "\u201calleged":1,
    "killer\u201d":1,
    "lacking":1,
    "dna":1,
    "reasonable":1,
    "doubt":1,
    "bewildered":1,
    "pale":1,
    "famished":1,
    "combo":1,
    "ingredients":1,
    "pannini":1,
    "bread":1,
    "chews":1,
    "rapture":1,
    "underestimate":1,
    "zinc":1,
    "bathtub":1,
    "diners":1,
    "jimbo":1,
    "media":1,
    "nahhh":1,
    "antagonize":1,
    "press":1,
    "\u201coasis\u201d":1,
    "heavily":1,
    "ask":1,
    "probing":1,
    "questions":1,
    "barking":1,
    "tree":1,
    "fido":1,
    "reptilian":1,
    "brain":1,
    "strangle":1,
    "lady":1,
    "shark":1,
    "round":1,
    "sarcastic":1,
    "applause":1,
    "bow":1,
    "striking":1,
    "promoting":1,
    "restaurants":1,
    "bands":1,
    "americans":1,
    "sniff":1,
    "agenda":1,
    "mile":1,
    "extremely":1,
    "uncomfortable":1,
    "makeup":1,
    "uhm":1,
    "upbringing":1,
    "2k":1,
    "sends":1,
    "giant":1,
    "startles":1,
    "screeeeeeeam":1,
    "rips":1,
    "earphones":1,
    "sing":1,
    "rehearsal":1,
    "perfect":1,
    "dropping":1,
    "freaked":1,
    "slow":1,
    "ass":1,
    "wise":1,
    "cracking":1,
    "posers":1,
    "american":1,
    "buying":1,
    "signed":1,
    "contract":1,
    "personally":1,
    "counting":1,
    "hard":1,
    "exciting":1,
    "motivates":1,
    "throw":1,
    "trust":1,
    "unconvinced":1,
    "anyway":1,
    "bother":1,
    "favor":1,
    "approach":1,
    "surround":1,
    "catch":1,
    "languishes":1,
    "stream":1,
    "steam":1,
    "clouds":1,
    "ruins":1,
    "delicious":1,
    "switching":1,
    "breathes":1,
    "sigh":1,
    "pillow":1,
    "wanting":1,
    "laughs":1,
    "hysterically":1,
    "upside":1,
    "baguette":1,
    "cheese":1,
    "dripping":1,
    "exhibiting":1,
    "arrested":1,
    "social":1,
    "development":1,
    "giggles":1,
    "boys":1,
    "compromise":1,
    "virtue":1,
    "brought":1,
    "revs":1,
    "dances":1,
    "flygirl":1,
    "drink":1,
    "embarrassed":1,
    "revelry":1,
    "lingers":1,
    "rolls":1,
    "boot":1,
    "sidewalk":1,
    "fallen":1,
    "disrepair":1,
    "graffiti":1,
    "scratched":1,
    "gnarled":1,
    "vines":1,
    "decades":1,
    "overgrown":1,
    "prodigal":1,
    "son":1,
    "thinking":1,
    "subletting":1,
    "dressing":1,
    "lace":1,
    "camisole":1,
    "enthusiasm":1,
    "radiant":1,
    "devastating":1,
    "metamorphosis":1,
    "fantastic":1,
    "shadowy":1,
    "squeals":1,
    "rabbit":1,
    "sciophobia":1,
    "spare":1,
    "psych":1,
    "101":1,
    "site":1,
    "growling":1,
    "level":1,
    "vocabulary":1,
    "hottie":1,
    "appreciation":1,
    "relate":1,
    "disbelief":1,
    "pussy":1,
    "whipped":1,
    "worse":1,
    "cyberwhipped":1,
    "were\u2019s":1,
    "promised":1,
    "nervous":1,
    "scott\u2019s":1,
    "micki":1,
    "stern\u2019s":1,
    "freshmen":1,
    "tatoo":1,
    "barton":1,
    "sit":1,
    "magical":1,
    "believe":1,
    "myle\u2019s":1,
    "conflicted":1,
    "romance":1,
    "shhh":1,
    "fat":1,
    "toupee":1,
    "collects":1,
    "outfits":1,
    "equipment":1,
    "pep":1,
    "pen":1,
    "clipped":1,
    "hat":1,
    "collar":1,
    "glasses":1,
    "phallic":1,
    "depends":1,
    "phones":1,
    "pagers":1,
    "fills":1,
    "ohhh":1,
    "cavity":1,
    "depending":1,
    "surreptitiously":1,
    "extends":1,
    "blouse":1,
    "objects":1,
    "larger":1,
    "appear":1,
    "squints":1,
    "cleavage":1,
    "recognizes":1,
    "elbows":1,
    "stomach":1,
    "eruptions":1,
    "show\u2019s":1,
    "aaaaaaahhh":1,
    "meeting":1,
    "dissolving":1,
    "chaos":1,
    "horse":1,
    "focus":1,
    "blurry":1,
    "blob":1,
    "pants":1,
    "howl":1,
    "orson":1,
    "demonstrate":1,
    "medium":1,
    "booooring":1,
    "schedule":1,
    "fool":1,
    "unfinished":1,
    "masterpiece":1,
    "shooting":1,
    "weddings":1,
    "bar":1,
    "mitzvahs":1,
    "film":1,
    "beach":1,
    "state":1,
    "same":1,
    "speilburg":1,
    "helping":1,
    "nevermind":1,
    "jerk":1,
    "ignored":1,
    "parked":1,
    "establishing":1,
    "walkie":1,
    "espresso":1,
    "machine":1,
    "person":1,
    "whoa":1,
    "lifted":1,
    "funny":1,
    "plunges":1,
    "charlie\u2019s":1,
    "called":1,
    "sergeant":1,
    "causing":1,
    "false":1,
    "calls":1,
    "smoothed":1,
    "product":1,
    "\u201cinvestigate\u201d":1,
    "couldn\u2019t":1,
    "pepsi":1,
    "sporting":1,
    "gap":1,
    "italian":1,
    "spices":1,
    "indonesian":1,
    "special":1,
    "sauce":1,
    "someday":1,
    "there\u2019ll":1,
    "\u201crudy\u2019s\u201d":1,
    "millionaire":1,
    "undermine":1,
    "socioeconomic":1,
    "boundaries":1,
    "dissertation":1,
    "taste":1,
    "tend":1,
    "eroticize":1,
    "language":1,
    "orally":1,
    "fixated":1,
    "bon":1,
    "appetit":1,
    "fired":1,
    "potentially":1,
    "millions":1,
    "chills":1,
    "neighborhood":1,
    "grows":1,
    "derelict":1,
    "street":1,
    "trickortreater":1,
    "happygolucky":1,
    "fade":1,
    "climb":1,
    "ten":1,
    "riddle":1,
    "enigma":1,
    "contents":1,
    "disturbed":1,
    "cocaine":1,
    "party\u2019ll":1,
    "rubs":1,
    "temple":1,
    "ride":1,
    "embarrass":1,
    "bank":1,
    "pov\u2019s":1,
    "according":1,
    "owner":1,
    "clip":1,
    "adjust":1,
    "lead":1,
    "horn":1,
    "begin":1,
    "interior":1,
    "exterior":1,
    "quietly":1,
    "church":1,
    "track":1,
    "student\u2019s":1,
    "entrance":1,
    "become":1,
    "hazy":1,
    "reception":1,
    "terrible":1,
    "frustrated":1,
    "outstretched":1,
    "nora\u2019s":1,
    "strokes":1,
    "hmmm":1,
    "alright":1,
    "caress":1,
    "lifts":1,
    "glinting":1,
    "having":1,
    "trouble":1,
    "awol":1,
    "scares":1,
    "sent":1,
    "homebase":1,
    "handle":1,
    "console":1,
    "autopilot":1,
    "myself":1,
    "executive":1,
    "producer":1,
    "director":1,
    "folks":1,
    "seal":1,
    "\u201cnational":1,
    "geographic\u201d":1,
    "\u201creader\u2019s":1,
    "digests\u201d":1,
    "coffee":1,
    "eager":1,
    "area":1,
    "split":1,
    "\u201cdo\u201d":1,
    "technically":1,
    "except":1,
    "stay":1,
    "chases":1,
    "aren\u2019t":1,
    "wander":1,
    "owe":1,
    "least":1,
    "fan":1,
    "voted":1,
    "island":1,
    "force":1,
    "habit":1,
    "murky":1,
    "scan":1,
    "pots":1,
    "jars":1,
    "mixing":1,
    "bowls":1,
    "vintage":1,
    "appliances":1,
    "plaster":1,
    "mother\u2019s":1,
    "\u201cdream":1,
    "kitchen\u201d":1,
    "stove":1,
    "liked":1,
    "cook":1,
    "tasted":1,
    "40yearold":1,
    "fennel":1,
    "examines":1,
    "spice":1,
    "jar":1,
    "weird":1,
    "smells":1,
    "fresh":1,
    "marveling":1,
    "coasters":1,
    "porcelain":1,
    "figurines":1,
    "opportunity":1,
    "fans":1,
    "overcome":1,
    "problems":1,
    "reaching":1,
    "orgasm":1,
    "women":1,
    "issue":1,
    "jennifer":1,
    "danzig":1,
    "interviews":1,
    "world\u2019s":1,
    "smallest":1,
    "penis":1,
    "stairway":1,
    "2nd":1,
    "glimpses":1,
    "slot":1,
    "would\u2019ve":1,
    "locker":1,
    "wooden":1,
    "infant\u2019s":1,
    "feeding":1,
    "admit":1,
    "hover":1,
    "\u201cleave":1,
    "beaver\u201d":1,
    "family":1,
    "medieval":1,
    "chastity":1,
    "poke":1,
    "springs":1,
    "pan":1,
    "reveals":1,
    "men":1,
    "\u201cpulp":1,
    "fiction\u201d":1,
    "everyone":1,
    "pounding":1,
    "frenetic":1,
    "drunken":1,
    "fights":1,
    "bumped":1,
    "jostled":1,
    "cool":1,
    "deadeye":1,
    "gangsta":1,
    "ridiculous":1,
    "giggle":1,
    "football":1,
    "players":1,
    "cavemen":1,
    "careful":1,
    "swats":1,
    "bud":1,
    "bottom":1,
    "\u201cdutch":1,
    "tilted\u201d":1,
    "records":1,
    "office":1,
    "dangertainmentcom":1,
    "icons":1,
    "choice":1,
    "flight":1,
    "lanie\u2019s":1,
    "oldest":1,
    "sixyearsold":1,
    "hairbrush":1,
    "selfsatisfied":1,
    "smile":1,
    "pokes":1,
    "lanie":1,
    "brushing":1,
    "young":1,
    "helpless":1,
    "thousand":1,
    "launch":1,
    "career":1,
    "vampish":1,
    "hovers":1,
    "impulse":1,
    "theory":1,
    "fits":1,
    "acting":1,
    "klepto":1,
    "stealing":1,
    "silverware":1,
    "teenaged":1,
    "impulses":1,
    "continuously":1,
    "continually":1,
    "\u201ccontinuous\u201d":1,
    "uninterrupted":1,
    "\u201ccontinual\u201d":1,
    "recurring":1,
    "periodically":1,
    "chicks":1,
    "department":1,
    "art":1,
    "sometimes":1,
    "poly":1,
    "sci":1,
    "critical":1,
    "whachya":1,
    "ya\u2019":1,
    "nerd":1,
    "exploring":1,
    "intrigued":1,
    "telling":1,
    "trial":1,
    "ate":1,
    "twinkies":1,
    "upstairs":1,
    "ohmygod":1,
    "heeeeelp":1,
    "turned":1,
    "whimpering":1,
    "loose":1,
    "bloodcurdling":1,
    "arriving":1,
    "peal":1,
    "bitch":1,
    "slut":1,
    "laughing":1,
    "emerging":1,
    "corners":1,
    "twoway":1,
    "grabbing":1,
    "kicks":1,
    "bugging":1,
    "struggling":1,
    "aghast":1,
    "raked":1,
    "horrible":1,
    "thrusts":1,
    "sink":1,
    "idiot":1,
    "pretty":1,
    "entertaining":1,
    "conceived":1,
    "walkin":1,
    "cobwebs":1,
    "tailor\u2019s":1,
    "mannequin":1,
    "cheap":1,
    "wig":1,
    "tumbles":1,
    "harmlessly":1,
    "pacing":1,
    "angry":1,
    "overreact":1,
    "album":1,
    "\u201cour":1,
    "son\u201d":1,
    "written":1,
    "gold":1,
    "letters":1,
    "pictures":1,
    "straight":1,
    "sides":1,
    "further":1,
    "disturbing":1,
    "strapped":1,
    "captain":1,
    "crunch":1,
    "monsters":1,
    "mad":1,
    "clipon":1,
    "traces":1,
    "stumped":1,
    "keyhole":1,
    "bumps":1,
    "balance":1,
    "bounces":1,
    "lothario":1,
    "noses":1,
    "touching":1,
    "uhhh":1,
    "kiss":1,
    "actually":1,
    "bulb":1,
    "scans":1,
    "nursery":1,
    "furnishings":1,
    "come\u2019ere":1,
    "bobbing":1,
    "opposite":1,
    "appearing":1,
    "normal":1,
    "shrine":1,
    "childsize":1,
    "card":1,
    "collection":1,
    "finance":1,
    "restaurant":1,
    "drawer":1,
    "checking":1,
    "nancy":1,
    "drew":1,
    "gets":1,
    "ancient":1,
    "lid":1,
    "jackinthebox":1,
    "painted":1,
    "gazing":1,
    "muffling":1,
    "blast":1,
    "playboys":1,
    "insert":1,
    "obvious":1,
    "subjected":1,
    "emotional":1,
    "physical":1,
    "abuse":1,
    "stuff":1,
    "loud":1,
    "footstep":1,
    "strides":1,
    "cavalier":1,
    "smirk":1,
    "moaning":1,
    "quiet":1,
    "clues":1,
    "explain":1,
    "wazzup":1,
    "keeping":1,
    "curious":1,
    "\u201ckey\u201d":1,
    "clever":1,
    "roughhewn":1,
    "patterns":1,
    "scratches":1,
    "symbols":1,
    "sort":1,
    "runic":1,
    "marks":1,
    "hieroglyphics":1,
    "worshiped":1,
    "unclips":1,
    "passionate":1,
    "kissing":1,
    "furiously":1,
    "slurps":1,
    "existence":1,
    "precedes":1,
    "essence":1,
    "signifier":1,
    "signified":1,
    "sexy":1,
    "rumbling":1,
    "cloud":1,
    "dust":1,
    "weakened":1,
    "earth":1,
    "decomposed":1,
    "parched":1,
    "sunken":1,
    "eyeholes":1,
    "bony":1,
    "fingers":1,
    "claw":1,
    "mummified":1,
    "scramble":1,
    "themselves":1,
    "flashlights":1,
    "casting":1,
    "lurid":1,
    "chamber":1,
    "documentary":1,
    "\u201cblair":1,
    "witch":1,
    "project\u201d":1,
    "worked":1,
    "perfectly":1,
    "fun":1,
    "victims":1,
    "grave":1,
    "inspection":1,
    "plastic":1,
    "\u201crotting":1,
    "limb\u201d":1,
    "price":1,
    "tag":1,
    "taiwan":1,
    "stalking":1,
    "adjusts":1,
    "curiously":1,
    "job":1,
    "it\u2019ll":1,
    "cleaned":1,
    "notices":1,
    "faint":1,
    "yellow":1,
    "shines":1,
    "swallowed":1,
    "pushing":1,
    "planks":1,
    "enormous":1,
    "concrete":1,
    "foundation":1,
    "tunnels":1,
    "rubble":1,
    "figures":1,
    "lurking":1,
    "rusty":1,
    "squeaking":1,
    "program":1,
    "yellowed":1,
    "photographs":1,
    "inch":1,
    "anybody":1,
    "makeshift":1,
    "tin":1,
    "cans":1,
    "trash":1,
    "lids":1,
    "act":1,
    "cups":1,
    "plates":1,
    "bones":1,
    "recent":1,
    "meal":1,
    "chicken":1,
    "prop":1,
    "\u201cfake\u201d":1,
    "halfeaten":1,
    "rat":1,
    "squeeeks":1,
    "recoils":1,
    "disgust":1,
    "noose":1,
    "violently":1,
    "hoisting":1,
    "thrash":1,
    "draft":1,
    "blows":1,
    "candles":1,
    "scrape":1,
    "\u201cdoor\u201d":1,
    "uneasy":1,
    "backtracks":1,
    "cramped":1,
    "blind":1,
    "panic":1,
    "passing":1,
    "shapes":1,
    "brick":1,
    "tear":1,
    "roams":1,
    "strange":1,
    "welded":1,
    "\u201ct\u201d":1,
    "lumbering":1,
    "flees":1,
    "slamming":1,
    "latching":1,
    "locking":1,
    "spike":1,
    "blades":1,
    "dims":1,
    "bogus":1,
    "horrified":1,
    "gullible":1,
    "crackles":1,
    "image":1,
    "fuzzy":1,
    "works":1,
    "stoners":1,
    "magazines":1,
    "sensing":1,
    "shining":1,
    "reverse":1,
    "glassy":1,
    "eyed":1,
    "freaking":1,
    "shape":1,
    "nowhere":1,
    "sprawling":1,
    "backward":1,
    "beneath":1,
    "chill":1,
    "america":1,
    "loves":1,
    "giving":1,
    "none":1,
    "furniture":1,
    "photos":1,
    "fucked":1,
    "toys":1,
    "club":1,
    "hides":1,
    "bong":1,
    "pipe":1,
    "bubbles":1,
    "chick":1,
    "workable":1,
    "garbled":1,
    "spiced":1,
    "grow":1,
    "thrill":1,
    "razzle":1,
    "dazzle":1,
    "givin":1,
    "blow":1,
    "grins":1,
    "quit":1,
    "splattering":1,
    "emmy":1,
    "shirt":1,
    "speak":1,
    "unimpressed":1,
    "cleanly":1,
    "realizes":1,
    "instant":1,
    "downstairs":1,
    "how\u2019d":1,
    "digital":1,
    "effects":1,
    "enters":1,
    "wham":1,
    "bat":1,
    "pieces":1,
    "grab":1,
    "boy\u2019s":1,
    "bulge":1,
    "crushing":1,
    "sickening":1,
    "fractured":1,
    "bone":1,
    "flee":1,
    "directions":1,
    "quivering":1,
    "dying":1,
    "piece":1,
    "phone":1,
    "emergency":1,
    "webcast":1,
    "less":1,
    "aggression":1,
    "clatters":1,
    "powerfully":1,
    "fleshy":1,
    "talented":1,
    "clicking":1,
    "browser":1,
    "accessing":1,
    "youre":1,
    "nailed":1,
    "outer":1,
    "clawing":1,
    "twists":1,
    "shimmies":1,
    "drainpipe":1,
    "hoists":1,
    "crouches":1,
    "listening":1,
    "pitch":1,
    "agony":1,
    "intake":1,
    "now\u2019s":1,
    "chance":1,
    "drunk":1,
    "everybody\u2019s":1,
    "dont":1,
    "wild":1,
    "arcs":1,
    "bobs":1,
    "weaves":1,
    "lands":1,
    "fists":1,
    "jaw":1,
    "spinning":1,
    "crashing":1,
    "underneath":1,
    "swear":1,
    "soul":1,
    "shows":1,
    "apprehensively":1,
    "edges":1,
    "broke":1,
    "doorknob":1,
    "unsure":1,
    "crouch":1,
    "reply":1,
    "hours":1,
    "knees":1,
    "crumples":1,
    "hung":1,
    "flesh":1,
    "voodoo":1,
    "agape":1,
    "fright":1,
    "climbs":1,
    "hustling":1,
    "rungs":1,
    "strength":1,
    "slide":1,
    "electronics":1,
    "overturns":1,
    "gasoline":1,
    "dribbles":1,
    "tank":1,
    "slip":1,
    "sliding":1,
    "stunned":1,
    "land":1,
    "cheek":1,
    "gutted":1,
    "viewpoints":1,
    "impaled":1,
    "touches":1,
    "surface":1,
    "gently":1,
    "stroke":1,
    "overwhelmed":1,
    "grief":1,
    "hysteria":1,
    "melts":1,
    "dashes":1,
    "garden":1,
    "tools":1,
    "weapon":1,
    "cutters":1,
    "riffles":1,
    "spots":1,
    "bursts":1,
    "patiently":1,
    "searches":1,
    "buzzes":1,
    "gritting":1,
    "fearsome":1,
    "yells":1,
    "roar":1,
    "avoid":1,
    "losing":1,
    "butcher":1,
    "narrowly":1,
    "misses":1,
    "advancing":1,
    "gash":1,
    "left":1,
    "splatters":1,
    "raising":1,
    "aim":1,
    "sputters":1,
    "gas":1,
    "lies":1,
    "choking":1,
    "disoriented":1,
    "groggy":1,
    "relentlessly":1,
    "web":1,
    "scythe":1,
    "weak":1,
    "wounded":1,
    "rushes":1,
    "bell":1,
    "trick":1,
    "treat":1,
    "motherfucker":1,
    "snapping":1,
    "monster":1,
    "sparking":1,
    "hitting":1,
    "pool":1,
    "stiffens":1,
    "voltage":1,
    "courses":1,
    "electrical":1,
    "hiss":1,
    "slumps":1,
    "electricity":1,
    "shorts":1,
    "explosion":1,
    "sparks":1,
    "held":1,
    "tableau":1,
    "messiah":1,
    "rush":1,
    "continuous":1,
    "escape":1,
    "billows":1,
    "stumble":1,
    "final":1,
    "spasm":1,
    "itself":1,
    "leaping":1,
    "sky":1,
    "whether":1,
    "manhunt":1,
    "survived":1,
    "inferno":1,
    "burned":1,
    "crisp":1,
    "copy":1,
    "cat":1,
    "cent":1,
    "fault":1,
    "pure":1,
    "freddy\u2019s":1,
    "engines":1,
    "message":1,
    "teens":1,
    "slap":1,
    "group":1,
    "news":1,
    "cameramen":1,
    "speaking":1,
    "excuse":1,
    "microphones":1,
    "swoop":1,
    "poles":1,
    "ambulance":1,
    "crowd":1,
    "abruptly":1,
    "statement":1,
    "pushed":1,
    "spinoff":1,
    "tiein":1,
    "celebrity":1,
    "scandal":1,
    "y\u2019all":1,
    "feeling":1,
    "peers":1,
    "lucky":1,
    "orderlies":1,
    "exit":1,
    "coroner":1,
    "overalls":1,
    "singed":1,
    "peel":1,
    "tugging":1,
    "credits":1,
    "firemen":1,
    "sarah":1,
    "stab":1,
    "burn":1,
    "crusty":1,
    "reacts":1,
    "deadpan":1,
    "kid":1,
    "lump":1,
    "charcoal":1,
    "bravely":1,
    "lean":1,
    "charredblack":1,
    "emt":1,
    "personnel":1,
    "struggles":1,
    "helplessly":1,
    "hilt":1,
    "gurney":1,
    "cement":1,
    "grits":1,
    "axe":1,
    "sticking":1,
    "dragon":1,
    "sooner":2,
    "later":2,
    "dissolves":2,
    "corridor":2,
    "dissolve":2,
    "dr":2,
    "howard":2,
    "fifty":2,
    "milligrams":2,
    "twice":2,
    "wrote":2,
    "shakes":2,
    "soon":2,
    "man\u2019s":2,
    "ago":2,
    "20":2,
    "murders":2,
    "scene":2,
    "cautiously":2,
    "reveal":2,
    "nose":2,
    "dinner":2,
    "word":2,
    "disorder":2,
    "tilting":2,
    "raggedy":2,
    "anne":2,
    "filled":2,
    "meds":2,
    "blankly":2,
    "shuts":2,
    "peels":2,
    "fabric":2,
    "pills":2,
    "hundreds":2,
    "branches":2,
    "undulate":2,
    "crunches":2,
    "fence":2,
    "closes":2,
    "pack":2,
    "halflight":2,
    "patients":2,
    "clown":2,
    "avoids":2,
    "contact":2,
    "today":2,
    "illinois":2,
    "buried":2,
    "may":2,
    "leads":2,
    "basement":2,
    "hurry":2,
    "grimy":2,
    "growls":2,
    "laundry":2,
    "facing":2,
    "respond":2,
    "stops":2,
    "spread":2,
    "poking":2,
    "19":2,
    "gruesome":2,
    "past":2,
    "desperately":2,
    "desperate":2,
    "babbling":2,
    "rises":2,
    "labeled":2,
    "calm":2,
    "knew":2,
    "took":2,
    "answer":2,
    "silent":2,
    "cutting":2,
    "hesitates":2,
    "starts":2,
    "twisting":2,
    "pain":2,
    "tumble":2,
    "edge":2,
    "imbedded":2,
    "dance":2,
    "hang":2,
    "oddly":2,
    "wears":2,
    "bloody":2,
    "october":2,
    "31":2,
    "1963":2,
    "school":2,
    "lumbers":2,
    "human":2,
    "bogeyman":2,
    "peer":2,
    "hedge":2,
    "distinctive":2,
    "ears":2,
    "sneak":2,
    "kidding":2,
    "sign":2,
    "boom":2,
    "knives":2,
    "eight":2,
    "instead":2,
    "they\u2019ve":2,
    "true":2,
    "yet":2,
    "mystery":2,
    "where\u2019s":2,
    "adventure":2,
    "thanks":2,
    "pumpkin":2,
    "whose":2,
    "throughout":2,
    "slick":2,
    "america\u2019s":2,
    "dream":2,
    "viewers":2,
    "familiar":2,
    "selected":2,
    "presses":2,
    "exactly":2,
    "uncover":2,
    "they\u2019ll":2,
    "al":2,
    "capone\u2019s":2,
    "personal":2,
    "\u201creal\u201d":2,
    "episode":2,
    "picture":2,
    "ordinary":2,
    "college":2,
    "childhood":2,
    "hidden":2,
    "shower":2,
    "investigative":2,
    "use":2,
    "running":2,
    "besides":2,
    "thousands":2,
    "student":2,
    "freak":2,
    "dreamed":2,
    "reads":2,
    "graduate":2,
    "chat":2,
    "girl\u2019s":2,
    "tacos":2,
    "dollar":2,
    "movies":2,
    "because":2,
    "website":2,
    "underbrush":2,
    "tearing":2,
    "unstoppable":2,
    "emerges":2,
    "tilts":2,
    "sight":2,
    "understand":2,
    "tent":2,
    "happy":2,
    "bustle":2,
    "silence":2,
    "naked":2,
    "swing":2,
    "momentarily":2,
    "low":2,
    "pass":2,
    "covered":2,
    "miles":2,
    "response":2,
    "studies":2,
    "narrow":2,
    "twenty":2,
    "follows":2,
    "shocked":2,
    "plays":2,
    "wannabe":2,
    "rock":2,
    "bottle":2,
    "interested":2,
    "politics":2,
    "also":2,
    "love":2,
    "whole":2,
    "law":2,
    "angle":2,
    "worry":2,
    "great":2,
    "ha":2,
    "friends":2,
    "sexier":2,
    "we\u2019ll":2,
    "offensive":2,
    "cute":2,
    "court":2,
    "evidence":2,
    "bite":2,
    "odd":2,
    "stuffed":2,
    "entire":2,
    "effect":2,
    "diet":2,
    "protein":2,
    "much":2,
    "attorney":2,
    "advise":2,
    "drinking":2,
    "rolling":2,
    "hiding":2,
    "base":2,
    "whispers":2,
    "counter":2,
    "unconscious":2,
    "eats":2,
    "phony":2,
    "wear":2,
    "murder":2,
    "topples":2,
    "ear":2,
    "rudy\u2019s":2,
    "shatters":2,
    "sleep":2,
    "smart":2,
    "famous":2,
    "words":2,
    "surprise":2,
    "yourself":2,
    "hotel":2,
    "bathroom":2,
    "creeping":2,
    "disappears":2,
    "relief":2,
    "packs":2,
    "gourmet":2,
    "wrapped":2,
    "towel":2,
    "definitely":2,
    "signs":2,
    "letting":2,
    "outside":2,
    "jenna":2,
    "cheer":2,
    "intimidated":2,
    "lost":2,
    "wind":2,
    "massive":2,
    "boarded":2,
    "gotta":2,
    "someplace":2,
    "reflection":2,
    "impressed":2,
    "storefront":2,
    "rounding":2,
    "guess":2,
    "forgot":2,
    "invited":2,
    "mom":2,
    "computer":2,
    "world":2,
    "learn":2,
    "rigged":2,
    "cell":2,
    "van":2,
    "atmosphere":2,
    "switch":2,
    "interesting":2,
    "trying":2,
    "dropped":2,
    "placement":2,
    "scary":2,
    "remaking":2,
    "\u201ctouch":2,
    "evil\u201d":2,
    "overrated":2,
    "went":2,
    "rig":2,
    "sister\u2019s":2,
    "nobody":2,
    "shot":2,
    "breaks":2,
    "leaving":2,
    "scream":2,
    "911":2,
    "billionaire":2,
    "fast":2,
    "eat":2,
    "seeing":2,
    "pulling":2,
    "doors":2,
    "minutes":2,
    "actors":2,
    "starting":2,
    "screens":2,
    "porch":2,
    "belt":2,
    "ready":2,
    "air":2,
    "foyer":2,
    "clearly":2,
    "realize":2,
    "\u201cmichael":2,
    "myers\u201d":2,
    "credit":2,
    "table":2,
    "break":2,
    "devil":2,
    "done":2,
    "brave":2,
    "hears":2,
    "ringing":2,
    "pulled":2,
    "suppose":2,
    "slides":2,
    "dining":2,
    "becomes":2,
    "smash":2,
    "dressed":2,
    "play":2,
    "crashes":2,
    "leans":2,
    "expense":2,
    "small":2,
    "dresser":2,
    "finger":2,
    "else":2,
    "huh":2,
    "boxes":2,
    "drawers":2,
    "animal":2,
    "rage":2,
    "slashes":2,
    "caught":2,
    "wanna":2,
    "bolt":2,
    "dragging":2,
    "slaps":2,
    "thrashes":2,
    "alone":2,
    "try":2,
    "speaks":2,
    "changes":2,
    "puzzled":2,
    "cradle":2,
    "baseball":2,
    "kneels":2,
    "taped":2,
    "eerie":2,
    "coloring":2,
    "book":2,
    "easy":2,
    "creak":2,
    "sticks":2,
    "hatcam":2,
    "tosses":2,
    "sudden":2,
    "turtleneck":2,
    "creaking":2,
    "dirt":2,
    "collapses":2,
    "corpses":2,
    "actor":2,
    "clear":2,
    "fucking":2,
    "paying":2,
    "serious":2,
    "scraps":2,
    "nails":2,
    "set":2,
    "rafters":2,
    "legs":2,
    "heavy":2,
    "rods":2,
    "races":2,
    "bars":2,
    "bolts":2,
    "frantically":2,
    "calmly":2,
    "chin":2,
    "corpse":2,
    "boring":2,
    "though":2,
    "reality":2,
    "feet":2,
    "slicing":2,
    "leading":2,
    "smashes":2,
    "pin":2,
    "michaels":2,
    "pins":2,
    "third":2,
    "happening":2,
    "killing":2,
    "pounds":2,
    "boards":2,
    "squeeze":2,
    "attic":2,
    "hallway":2,
    "footsteps":2,
    "marches":2,
    "swinging":2,
    "torso":2,
    "beeps":2,
    "panel":2,
    "cheeks":2,
    "drawstring":2,
    "motor":2,
    "chain":2,
    "teeth":2,
    "wielding":2,
    "sword":2,
    "backing":2,
    "smoke":2,
    "power":2,
    "burning":2,
    "crackle":2,
    "arching":2,
    "surrounded":2,
    "fire":2,
    "clamor":2,
    "oppressive":2,
    "freddie\u2019s":2,
    "farther":2,
    "unzips":2,
    "charred":2,
    "melted":2,
    "fireman":2,
    "you\u2019ve":3,
    "heard":3,
    "waiting":3,
    "either":3,
    "point":3,
    "killer":3,
    "lets":3,
    "after":3,
    "finally":3,
    "found":3,
    "notice":3,
    "nearby":3,
    "listen":3,
    "death":3,
    "pull":3,
    "big":3,
    "police":3,
    "hello":3,
    "paper":3,
    "laurie\u2019s":3,
    "lips":3,
    "water":3,
    "while":3,
    "roof":3,
    "push":3,
    "stare":3,
    "knows":3,
    "already":3,
    "wet":3,
    "many":3,
    "ground":3,
    "almost":3,
    "give":3,
    "born":3,
    "put":3,
    "seconds":3,
    "touch":3,
    "bends":3,
    "horror":3,
    "scrambles":3,
    "i\u2019ve":3,
    "you\u2019d":3,
    "afraid":3,
    "reach":3,
    "rope":3,
    "begins":3,
    "tugs":3,
    "spins":3,
    "buries":3,
    "snaps":3,
    "last":3,
    "meet":3,
    "wonder":3,
    "pointed":3,
    "tells":3,
    "kind":3,
    "part":3,
    "thank":3,
    "follow":3,
    "trees":3,
    "continue":3,
    "piercing":3,
    "damn":3,
    "expression":3,
    "breath":3,
    "\u2018cause":3,
    "star":3,
    "box":3,
    "send":3,
    "showing":3,
    "might":3,
    "bigger":3,
    "nods":3,
    "happens":3,
    "pick":3,
    "gives":3,
    "wants":3,
    "haddonfield":3,
    "flash":3,
    "mr":3,
    "sending":3,
    "answers":3,
    "various":3,
    "voice":3,
    "dan":3,
    "safe":3,
    "murderer":3,
    "reporters":3,
    "creepy":3,
    "bedroom":3,
    "thinks":3,
    "hide":3,
    "seen":3,
    "types":3,
    "hot":3,
    "different":3,
    "sean":3,
    "roll":3,
    "nearly":3,
    "car":3,
    "engine":3,
    "surprised":3,
    "drives":3,
    "pair":3,
    "cables":3,
    "road":3,
    "path":3,
    "wow":3,
    "anyone":3,
    "tomorrow":3,
    "evil":3,
    "most":3,
    "history":3,
    "we\u2019ve":3,
    "kill":3,
    "such":3,
    "talking":3,
    "lot":3,
    "sandwich":3,
    "best":3,
    "poor":3,
    "thing":3,
    "bodies":3,
    "own":3,
    "line":3,
    "i\u2019d":3,
    "skull":3,
    "honey":3,
    "am":3,
    "relax":3,
    "shhhh":3,
    "yes":3,
    "feel":3,
    "glimpse":3,
    "startled":3,
    "foot":3,
    "rotten":3,
    "used":3,
    "gone":3,
    "dude":3,
    "rack":3,
    "costume":3,
    "playing":3,
    "probably":3,
    "skin":3,
    "technician":3,
    "tiny":3,
    "size":3,
    "ruin":3,
    "shock":3,
    "angles":3,
    "ominous":3,
    "max":3,
    "tow":3,
    "truck":3,
    "tripod":3,
    "directly":3,
    "worried":3,
    "ext":3,
    "wires":3,
    "continues":3,
    "mood":3,
    "dusk":3,
    "pov":3,
    "kept":3,
    "key":3,
    "heads":3,
    "dancing":3,
    "above":3,
    "against":3,
    "avoiding":3,
    "switches":3,
    "scanning":3,
    "erupts":3,
    "empty":3,
    "shunk":3,
    "chest":3,
    "aside":3,
    "falling":3,
    "parents":3,
    "knocking":3,
    "glow":3,
    "masked":3,
    "trunk":3,
    "fake":3,
    "piles":3,
    "twisted":3,
    "rats":3,
    "cord":3,
    "kick":3,
    "spikes":3,
    "\u2018em":3,
    "step":3,
    "raises":3,
    "thunk":3,
    "below":3,
    "palm":3,
    "mower":3,
    "lifeless":3,
    "cable":3,
    "flames":3,
    "far":4,
    "beyond":4,
    "strode":4,
    "sitting":4,
    "staring":4,
    "day":4,
    "nurse":4,
    "you\u2019ll":4,
    "enough":4,
    "hes":4,
    "wrong":4,
    "say":4,
    "forth":4,
    "doll":4,
    "who\u2019s":4,
    "bushes":4,
    "hold":4,
    "picks":4,
    "lights":4,
    "jumps":4,
    "falls":4,
    "walking":4,
    "supposed":4,
    "older":4,
    "work":4,
    "harold\u2019s":4,
    "along":4,
    "walls":4,
    "makes":4,
    "turning":4,
    "doorway":4,
    "stares":4,
    "locked":4,
    "slips":4,
    "long":4,
    "sure":4,
    "both":4,
    "onto":4,
    "bed":4,
    "frame":4,
    "opening":4,
    "space":4,
    "should":4,
    "friend":4,
    "music":4,
    "those":4,
    "always":4,
    "without":4,
    "harris":4,
    "audience":4,
    "faces":4,
    "video":4,
    "explore":4,
    "happen":4,
    "call":4,
    "pilot":4,
    "pops":4,
    "next":4,
    "money":4,
    "kitchen":4,
    "living":4,
    "clicks":4,
    "told":4,
    "shut":4,
    "girls":4,
    "somewhere":4,
    "watches":4,
    "stepping":4,
    "tears":4,
    "remember":4,
    "watching":4,
    "wasn\u2019t":4,
    "shoot":4,
    "crash":4,
    "others":4,
    "shit":4,
    "beer":4,
    "shadows":4,
    "donna\u2019s":4,
    "wouldn\u2019t":4,
    "means":4,
    "happened":4,
    "herself":4,
    "charley":4,
    "leg":4,
    "afternoon":4,
    "monitors":4,
    "throat":4,
    "made":4,
    "hanging":4,
    "crumbling":4,
    "catching":4,
    "closet":4,
    "hit":4,
    "plasma":4,
    "keeps":4,
    "direction":4,
    "jump":4,
    "hits":4,
    "black":4,
    "smack":4,
    "fuck":4,
    "barely":4,
    "shoots":4,
    "lawn":4,
    "shovel":4,
    "won\u2019t":4,
    "end":5,
    "keep":5,
    "moving":5,
    "sister":5,
    "hear":5,
    "thought":5,
    "puts":5,
    "pointing":5,
    "whips":5,
    "crack":5,
    "gloom":5,
    "spooked":5,
    "eye":5,
    "scare":5,
    "franklin":5,
    "monitor":5,
    "let\u2019s":5,
    "near":5,
    "clothes":5,
    "across":5,
    "ghastly":5,
    "red":5,
    "between":5,
    "backs":5,
    "walk":5,
    "finds":5,
    "runs":5,
    "forward":5,
    "seems":5,
    "himself":5,
    "girl":5,
    "email":5,
    "food":5,
    "talk":5,
    "bob":5,
    "six":5,
    "everything":5,
    "these":5,
    "kids":5,
    "mass":5,
    "standing":5,
    "very":5,
    "any":5,
    "quick":5,
    "quickly":5,
    "second":5,
    "place":5,
    "half":5,
    "couple":5,
    "scared":5,
    "windows":5,
    "camaro":5,
    "start":5,
    "taking":5,
    "make":5,
    "alive":5,
    "nice":5,
    "someone":5,
    "idea":5,
    "mirror":5,
    "laughter":5,
    "jagged":5,
    "isn\u2019t":5,
    "run":5,
    "bag":5,
    "pages":5,
    "jim\u2019s":5,
    "there\u2019s":6,
    "side":6,
    "welles":6,
    "must":6,
    "years":6,
    "dead":6,
    "once":6,
    "hulking":6,
    "what\u2019s":6,
    "approaches":6,
    "turn":6,
    "dryer":6,
    "flips":6,
    "until":6,
    "holds":6,
    "steps":6,
    "arm":6,
    "moment":6,
    "i\u2019ll":6,
    "high":6,
    "home":6,
    "blood":6,
    "better":6,
    "every":6,
    "let":6,
    "live":6,
    "dangertainment":6,
    "will":6,
    "our":6,
    "they\u2019re":6,
    "aron":6,
    "check":6,
    "sorry":6,
    "leave":6,
    "life":6,
    "bad":6,
    "fear":6,
    "before":6,
    "party":6,
    "each":6,
    "tonight":6,
    "metal":6,
    "charlie":6,
    "neck":6,
    "goes":6,
    "garage":6,
    "views":6,
    "pushes":6,
    "bill\u2019s":6,
    "seem":6,
    "cover":6,
    "hall":6,
    "hell":7,
    "move":7,
    "hair":7,
    "halloween":7,
    "take":7,
    "killed":7,
    "were":7,
    "maybe":7,
    "does":7,
    "gate":7,
    "late":7,
    "wearing":7,
    "revealing":7,
    "under":7,
    "stands":7,
    "glass":7,
    "away":7,
    "sound":7,
    "catches":7,
    "holding":7,
    "close":7,
    "tip":7,
    "shadow":7,
    "somebody":7,
    "screams":7,
    "baby":7,
    "internet":7,
    "show":7,
    "smiles":7,
    "comes":7,
    "several":7,
    "jen\u2019s":7,
    "would":7,
    "gasps":7,
    "control":7,
    "please":7,
    "int":7,
    "free":7,
    "aaron":7,
    "tunnel":8,
    "chair":8,
    "didn\u2019t":8,
    "enter":8,
    "had":8,
    "arms":8,
    "more":8,
    "sees":8,
    "points":8,
    "doing":8,
    "shoulder":8,
    "only":8,
    "getting":8,
    "saw":8,
    "hands":8,
    "find":8,
    "stop":8,
    "boy":8,
    "good":8,
    "appears":8,
    "swings":8,
    "laurie":9,
    "tell":9,
    "when":9,
    "mean":9,
    "sits":9,
    "than":9,
    "walks":9,
    "tries":9,
    "beam":9,
    "corner":9,
    "opens":9,
    "been":9,
    "ever":9,
    "night":9,
    "deckard":9,
    "real":9,
    "bit":9,
    "help":9,
    "hole":9,
    "cut":10,
    "three":10,
    "slowly":10,
    "body":10,
    "god":10,
    "white":10,
    "front":10,
    "moves":10,
    "drops":10,
    "top":10,
    "harold":10,
    "view":10,
    "wall":10,
    "doesn\u2019t":10,
    "inside":10,
    "blade":10,
    "sara\u2019s":10,
    "tv":10,
    "nora":10,
    "yeah":10,
    "never":10,
    "coming":10,
    "nothing":11,
    "wait":11,
    "takes":11,
    "mouth":11,
    "light":11,
    "willie":11,
    "too":11,
    "people":11,
    "time":11,
    "dark":11,
    "michael\u2019s":11,
    "anything":11,
    "got":11,
    "really":11,
    "scott":11,
    "darkness":11,
    "stairs":11,
    "why":12,
    "well":12,
    "first":12,
    "man":12,
    "reaches":12,
    "way":12,
    "its":12,
    "watch":12,
    "could":12,
    "floor":13,
    "how":13,
    "she\u2019s":13,
    "did":13,
    "two":13,
    "old":13,
    "even":13,
    "students":13,
    "us":13,
    "okay":13,
    "gonna":13,
    "can\u2019t":14,
    "them":14,
    "another":14,
    "who":14,
    "where":14,
    "beat":14,
    "going":14,
    "myles":14,
    "some":14,
    "open":15,
    "again":15,
    "cameras":15,
    "or":16,
    "screen":16,
    "still":16,
    "come":16,
    "little":16,
    "suddenly":16,
    "closer":17,
    "eyes":17,
    "their":17,
    "turns":18,
    "want":18,
    "here":18,
    "we\u2019re":18,
    "that\u2019s":18,
    "towards":19,
    "looking":19,
    "other":20,
    "has":20,
    "if":20,
    "oh":20,
    "hand":20,
    "think":20,
    "flashlight":20,
    "pulls":20,
    "knife":20,
    "about":21,
    "now":21,
    "behind":21,
    "get":21,
    "go":22,
    "my":22,
    "window":22,
    "something":22,
    "grabs":22,
    "by":22,
    "hey":24,
    "he\u2019s":24,
    "can":25,
    "head":25,
    "figure":25,
    "jim":25,
    "around":26,
    "donna":26,
    "look":26,
    "bill":26,
    "so":27,
    "right":27,
    "was":27,
    "mask":27,
    "know":27,
    "an":28,
    "you\u2019re":29,
    "one":30,
    "all":30,
    "house":30,
    "face":30,
    "your":31,
    "have":32,
    "i\u2019m":32,
    "rudy":32,
    "then":33,
    "door":34,
    "be":34,
    "off":36,
    "do":36,
    "myers":37,
    "jen":37,
    "camera":37,
    "looks":38,
    "into":39,
    "room":40,
    "don\u2019t":40,
    "no":42,
    "there":42,
    "me":43,
    "from":43,
    "down":44,
    "over":44,
    "him":44,
    "not":44,
    "see":45,
    "through":47,
    "freddie":51,
    "for":52,
    "like":52,
    "it\u2019s":54,
    "just":54,
    "they":55,
    "back":56,
    "":59,
    "we":60,
    "are":60,
    "this":62,
    "with":62,
    "what":62,
    "but":63,
    "that":70,
    "michael":71,
    "sara":79,
    "at":81,
    "as":83,
    "out":85,
    "up":89,
    "his":91,
    "i":103,
    "on":118,
    "it":120,
    "he":121,
    "she":123,
    "her":133,
    "is":144,
    "in":173,
    "you":174,
    "of":195,
    "to":225,
    "and":286,
    "a":297,
    "the":749
}