{
    "4000":1,
    "warner":1,
    "boulevard":1,
    "burbank":1,
    "california":1,
    "91522":1,
    "reserved":1,
    "thunder":1,
    "distance":1,
    "boom":1,
    "blank":1,
    "glasses":1,
    "plummet":1,
    "expanding":1,
    "stretching":1,
    "sides":1,
    "sweep":1,
    "charing":1,
    "cross":1,
    "swoop":1,
    "trusted":1,
    "mistaken":1,
    "rain":1,
    "cheeks":1,
    "dunghill":1,
    "nowhere":1,
    "bella":1,
    "ours":1,
    "curio":1,
    "aware":1,
    "situation":1,
    "doubts":1,
    "understandable":1,
    "played":1,
    "deceived":1,
    "wizards":1,
    "fool":1,
    "honored":1,
    "change":1,
    "keenly":1,
    "effort":1,
    "slither":1,
    "hole":1,
    "lowers":1,
    "rivulet":1,
    "linked":1,
    "fulfill":1,
    "wishes":1,
    "ability":1,
    "harm":1,
    "necessary":1,
    "deed":1,
    "ordered":1,
    "perform":1,
    "twitches":1,
    "narcissa\u2019s":1,
    "waits":1,
    "\u201cmalfoy":1,
    "yours":1,
    "couple":1,
    "nights":1,
    "eleven":1,
    "tosser":1,
    "coat":1,
    "fumbles":1,
    "s\u2019mints":1,
    "container":1,
    "liverpool":1,
    "spun":1,
    "resist":1,
    "reckless":1,
    "riding":1,
    "trains":1,
    "ash":1,
    "unpleasant":1,
    "tale":1,
    "thrilling":1,
    "freckled":1,
    "waitress":1,
    "appear":1,
    "rush":1,
    "fury":1,
    "pitched":1,
    "headlong":1,
    "tornado":1,
    "apparated":1,
    "successfully":1,
    "add":1,
    "steep":1,
    "street":1,
    "lined":1,
    "darkened":1,
    "houses":1,
    "charming":1,
    "budleigh":1,
    "babberton":1,
    "assume":1,
    "stone":1,
    "lumos":1,
    "blazes":1,
    "calls":1,
    "motes":1,
    "dust":1,
    "dance":1,
    "wandlight":1,
    "mutates":1,
    "inbetween":1,
    "grumbling":1,
    "seamsplitting":1,
    "popping":1,
    "cushion":1,
    "button":1,
    "fat":1,
    "wellworn":1,
    "lilac":1,
    "pajamas":1,
    "disfigure":1,
    "convincing":1,
    "upholstery":1,
    "stuffing":1,
    "naturally":1,
    "dragon\u2019s":1,
    "wizard\u2019s":1,
    "oho":1,
    "colleague":1,
    "hypnotized":1,
    "theatrics":1,
    "expecting":1,
    "ssomeone":1,
    "eyebrow":1,
    "recruit":1,
    "miserably":1,
    "canary":1,
    "islands":1,
    "unequivocally":1,
    "respond":1,
    "palpable":1,
    "beat":1,
    "bright":1,
    "impressive":1,
    "prejudiced":1,
    "absolute":1,
    "favorites":1,
    "dresser":1,
    "crowded":1,
    "exstudents":1,
    "recognize":1,
    "barnubas":1,
    "cuffe":1,
    "editor":1,
    "register":1,
    "opinion":1,
    "ambrosius":1,
    "flume":1,
    "honeydukes":1,
    "hamper":1,
    "chocolate":1,
    "birthday":1,
    "gwenog":1,
    "jones":1,
    "holyhead":1,
    "harpies":1,
    "tickets":1,
    "whenever":1,
    "shame":1,
    "liked":1,
    "set":1,
    "knitting":1,
    "patterns":1,
    "clutching":1,
    "regrettable":1,
    "triumph":1,
    "consented":1,
    "merrythought\u2019s":1,
    "closet":1,
    "formerly":1,
    "raise":1,
    "famous":1,
    "values":1,
    "crowning":1,
    "jewel":1,
    "returning":1,
    "crucial":1,
    "intrigued":1,
    "statement":1,
    "pursue":1,
    "ruefully":1,
    "truthfully":1,
    "pretty":1,
    "tomorrow":1,
    "whinging":1,
    "kidnapped":1,
    "dimpleton":1,
    "trunk\u2019s":1,
    "screeches":1,
    "os":1,
    "itoldyouso":1,
    "\u2018course":1,
    "wandering":1,
    "spins":1,
    "ronhermionemrs":1,
    "stray":1,
    "lace":1,
    "when\u2019d":1,
    "happening":1,
    "stepped":1,
    "barmy":1,
    "took":1,
    "exchange":1,
    "chatter":1,
    "lately":1,
    "hundred":1,
    "fifty":1,
    "fainting":1,
    "nosebleed":1,
    "nougats":1,
    "puking":1,
    "pastilles":1,
    "chewing":1,
    "literally":1,
    "launch":1,
    "counter":1,
    "begin":1,
    "steer":1,
    "store":1,
    "what\u2019d":1,
    "amazing":1,
    "pay":1,
    "screaming":1,
    "blanches":1,
    "phony":1,
    "unnerving":1,
    "urchins":1,
    "orange":1,
    "peruvian":1,
    "money":1,
    "spinner":1,
    "handy":1,
    "escape":1,
    "peruse":1,
    "\u201cwonder":1,
    "witch":1,
    "potions\u201d":1,
    "sis":1,
    "meaning":1,
    "none":1,
    "adorable":1,
    "cage":1,
    "fluff":1,
    "puffs":1,
    "breed":1,
    "fast":1,
    "measure":1,
    "receives":1,
    "wooden":1,
    "gallows":1,
    "rides":1,
    "rolling":1,
    "ladder":1,
    "frame":1,
    "alley\u2019s":1,
    "closed":1,
    "reckons":1,
    "poster":1,
    "mocking":1,
    "halfsmile":1,
    "wands":1,
    "ollivander":1,
    "speaking":1,
    "streets":1,
    "darker":1,
    "leap":1,
    "alleys":1,
    "turned":1,
    "article":1,
    "month":1,
    "loitering":1,
    "ignore":1,
    "including":1,
    "purple":1,
    "puff":1,
    "perched":1,
    "sing":1,
    "boxing":1,
    "wrackspurt":1,
    "invisible":1,
    "float":1,
    "brain":1,
    "fuzzy":1,
    "ceremony":1,
    "initiation":1,
    "youknowwho":1,
    "sod":1,
    "browsing":1,
    "furniture":1,
    "creepy":1,
    "shop":1,
    "bloke":1,
    "teeters":1,
    "relax":1,
    "lights":1,
    "pathetic":1,
    "astronomy":1,
    "tower":1,
    "gently":1,
    "twisting":1,
    "locks":1,
    "supposed":1,
    "wasting":1,
    "charms":1,
    "derisively":1,
    "smiling":1,
    "shifts":1,
    "check":1,
    "manners":1,
    "eavesdrop":1,
    "petrificus":1,
    "totalus":1,
    "thump":1,
    "paralyzed":1,
    "wipe":1,
    "drool":1,
    "boot":1,
    "snap":1,
    "squirts":1,
    "pitches":1,
    "ride":1,
    "head\u2019s":1,
    "carriages":1,
    "names":1,
    "exceptions":1,
    "eerily":1,
    "cane":1,
    "cretin":1,
    "amidst":1,
    "mountain":1,
    "trunks":1,
    "cages":1,
    "detector":1,
    "separates":1,
    "warily":1,
    "wrap":1,
    "lay":1,
    "vouch":1,
    "trailed":1,
    "fix":1,
    "devilmaycare":1,
    "confidence":1,
    "episkey":1,
    "poises":1,
    "tap":1,
    "vibrates":1,
    "ordinary":1,
    "\u2018long":1,
    "\u2018nuff":1,
    "missing":1,
    "oi":1,
    "lunatic":1,
    "where\u2019ve":1,
    "missed":1,
    "sorting":1,
    "urged":1,
    "wankers":1,
    "napkin":1,
    "evenings":1,
    "welcoming":1,
    "newest":1,
    "mild":1,
    "applause":1,
    "ensues":1,
    "claps":1,
    "perfunctorily":1,
    "entrance":1,
    "station":1,
    "themselves":1,
    "resume":1,
    "master":1,
    "meanwhile":1,
    "assumed":1,
    "greeted":1,
    "generate":1,
    "clapping":1,
    "slytherins":1,
    "dimwitted":1,
    "searched":1,
    "arrival":1,
    "sat":1,
    "walked":1,
    "castle\u2019s":1,
    "corridors":1,
    "slept":1,
    "reminded":1,
    "sobering":1,
    "penetrate":1,
    "weapon":1,
    "slouched":1,
    "lazily":1,
    "levitating":1,
    "unworthy":1,
    "attention":1,
    "cheerful":1,
    "\u201cupstream\u201d":1,
    "ourself":1,
    "period":1,
    "noticed":1,
    "ambition":1,
    "become":1,
    "auror":1,
    "outstanding":1,
    "teaching":1,
    "however":1,
    "accept":1,
    "newt":1,
    "\u2018exceeds":1,
    "expectations\u2019":1,
    "straight":1,
    "beginning":1,
    "awful":1,
    "books":1,
    "nor\u2019s":1,
    "gesturing":1,
    "prepared":1,
    "concoctions":1,
    "ideas":1,
    "veritaserum":1,
    "polyjuice":1,
    "textbooks":1,
    "shabby":1,
    "snatch":1,
    "marked":1,
    "\u201cbezoars\u201d":1,
    "wrests":1,
    "rumored":1,
    "differently":1,
    "according":1,
    "attracts":1,
    "freshly":1,
    "mown":1,
    "parchment":1,
    "spearmint":1,
    "settling":1,
    "confirmation":1,
    "impossible":1,
    "infatuation":1,
    "obsession":1,
    "reason":1,
    "sea":1,
    "dreamy":1,
    "leaning":1,
    "vapors":1,
    "clangs":1,
    "cover":1,
    "gentlemen":1,
    "commonly":1,
    "referred":1,
    "desperately":1,
    "disastrous":1,
    "brewed":1,
    "correctly":1,
    "remarkable":1,
    "endeavors":1,
    "succeed":1,
    "effects":1,
    "excess":1,
    "causes":1,
    "giddiness":1,
    "recklessness":1,
    "overconfidence":1,
    "twice":1,
    "twentyfour":1,
    "fiftyseven":1,
    "tablespoons":1,
    "breakfast":1,
    "adrift":1,
    "manages":1,
    "acceptable":1,
    "draught":1,
    "living":1,
    "recipe":1,
    "excitement":1,
    "seizes":1,
    "tenure":1,
    "sufficient":1,
    "claim":1,
    "prize":1,
    "shimmers":1,
    "shaft":1,
    "sunlight":1,
    "margins":1,
    "scribblings":1,
    "owner":1,
    "crush":1,
    "instructions":1,
    "specifically":1,
    "struggle":1,
    "wends":1,
    "sympathy":1,
    "fiascos":1,
    "disbelief":1,
    "pearly":1,
    "daresay":1,
    "classes":1,
    "impressed":1,
    "overestimates":1,
    "abilities":1,
    "definitely":1,
    "activities":1,
    "classroom":1,
    "satisfaction":1,
    "notice":1,
    "spend":1,
    "deal":1,
    "wonder":1,
    "summoned":1,
    "swings":1,
    "vials":1,
    "glimmering":1,
    "soldiers":1,
    "memories":1,
    "pertaining":1,
    "individual":1,
    "stoppered":1,
    "dusty":1,
    "veined":1,
    "age":1,
    "contains":1,
    "gingerly":1,
    "cork":1,
    "contents":1,
    "breaking":1,
    "confusion":1,
    "receiving":1,
    "letter":1,
    "tom\u2019s":1,
    "frankly":1,
    "existence":1,
    "birth":1,
    "incidents":1,
    "nasty":1,
    "follow":1,
    "framed":1,
    "yellowing":1,
    "depicting":1,
    "seaside":1,
    "outcropping":1,
    "hold":1,
    "cole\u2019s":1,
    "yourselves":1,
    "tour":1,
    "placed":1,
    "souvenirs":1,
    "stones":1,
    "containing":1,
    "matches":1,
    "moving":1,
    "tracing":1,
    "wood\u2019s":1,
    "\u201cseeing\u201d":1,
    "strewn":1,
    "drawings":1,
    "seaswept":1,
    "level":1,
    "doctor":1,
    "eversoslightly":1,
    "intensely":1,
    "unblinking":1,
    "animals":1,
    "training":1,
    "web":1,
    "terrified":1,
    "burning":1,
    "throws":1,
    "topmost":1,
    "rail":1,
    "threadbare":1,
    "clothes":1,
    "violently":1,
    "trifle":1,
    "fearfully":1,
    "spills":1,
    "silver":1,
    "thimble":1,
    "tarnished":1,
    "organ":1,
    "profile":1,
    "pondering":1,
    "thievery":1,
    "tolerated":1,
    "control":1,
    "snakes":1,
    "normal":1,
    "unusual":1,
    "unheard":1,
    "fragmented":1,
    "floats":1,
    "grew":1,
    "dearly":1,
    "easily":1,
    "vanquishing":1,
    "queue":1,
    "putting":1,
    "drills":1,
    "assess":1,
    "strengths":1,
    "guarantee":1,
    "unnerved":1,
    "sweating":1,
    "attracted":1,
    "pesky":1,
    "wheezes":1,
    "strapping":1,
    "guy":1,
    "beater\u2019s":1,
    "build":1,
    "needs":1,
    "agile":1,
    "nabs":1,
    "kills":1,
    "buzz":1,
    "chances":1,
    "basis":1,
    "lewd":1,
    "saunters":1,
    "swiftly":1,
    "handling":1,
    "shaky":1,
    "defenders":1,
    "beautifully":1,
    "jets":1,
    "bludger":1,
    "rocketing":1,
    "scatters":1,
    "group":1,
    "onlookers":1,
    "neville":1,
    "delicately":1,
    "leg":1,
    "third":1,
    "caroms":1,
    "tail":1,
    "survivors":1,
    "press":1,
    "packs":1,
    "tape":1,
    "twisted":1,
    "west":1,
    "goal":1,
    "east":1,
    "remain":1,
    "spectrespecs":1,
    "sweaty":1,
    "swarming":1,
    "decide":1,
    "shootout":1,
    "hang":1,
    "piss":1,
    "line":1,
    "rocket":1,
    "weaves":1,
    "hovers":1,
    "sneer":1,
    "hunkers":1,
    "arrow":1,
    "slide":1,
    "blasts":1,
    "streaming":1,
    "recklessly":1,
    "inexplicably":1,
    "sails":1,
    "zigzagging":1,
    "crazily":1,
    "falls":1,
    "panic":1,
    "forehead":1,
    "partisan":1,
    "cheers":1,
    "erupt":1,
    "restrain":1,
    "balefully":1,
    "eyeing":1,
    "incredulously":1,
    "vile":1,
    "shred":1,
    "selfrespect":1,
    "likely":1,
    "top":1,
    "better":1,
    "genius":1,
    "casts":1,
    "withering":1,
    "\u2018this":1,
    "property":1,
    "prince\u2019":1,
    "practically":1,
    "chat":1,
    "glare":1,
    "reference":1,
    "settles":1,
    "burn":1,
    "whiskers":1,
    "\u2018ere":1,
    "drippin\u2019":1,
    "sick":1,
    "spider":1,
    "hopin\u2019":1,
    "nurse":1,
    "crosses":1,
    "grin":1,
    "raving":1,
    "arachnid":1,
    "heading":1,
    "towards":1,
    "passing":1,
    "weary":1,
    "filius":1,
    "emergency":1,
    "choir":1,
    "practice":1,
    "what\u2019ll":1,
    "butterbeers":1,
    "splash":1,
    "kid":1,
    "rag":1,
    "leaps":1,
    "lock":1,
    "aw":1,
    "glowering":1,
    "lit":1,
    "ronald":1,
    "serious":1,
    "speechless":1,
    "booms":1,
    "jumps":1,
    "action":1,
    "grossly":1,
    "character":1,
    "wonderful":1,
    "broomstick":1,
    "guffaws":1,
    "heartily":1,
    "belly":1,
    "cheek":1,
    "waving":1,
    "sloshes":1,
    "spattering":1,
    "deck":1,
    "listen":1,
    "throw":1,
    "occasional":1,
    "supper":1,
    "invite":1,
    "select":1,
    "consider":1,
    "honor":1,
    "midst":1,
    "emptying":1,
    "slams":1,
    "\u201cmustache\u201d":1,
    "delighted":1,
    "wallenby":1,
    "slam":1,
    "emptied":1,
    "flicks":1,
    "pub":1,
    "arguing":1,
    "slender":1,
    "bumping":1,
    "drapes":1,
    "warned":1,
    "swallowing":1,
    "o\u2019":1,
    "touchin\u2019":1,
    "wrappin\u2019s":1,
    "unnerstan\u2019":1,
    "kneels":1,
    "poking":1,
    "ornate":1,
    "opal":1,
    "scarf":1,
    "enfolds":1,
    "lumber":1,
    "cradled":1,
    "swallowed":1,
    "roar":1,
    "deliver":1,
    "trio":1,
    "alive":1,
    "levelly":1,
    "evidence":1,
    "astonish":1,
    "mere":1,
    "mortals":1,
    "dream":1,
    "possessing":1,
    "grand":1,
    "git":1,
    "hate":1,
    "principle":1,
    "smart":1,
    "dean\u2019s":1,
    "contributing":1,
    "factor":1,
    "toast":1,
    "hogwarts\u2019":1,
    "brightest":1,
    "tiberius":1,
    "hunting":1,
    "marcus\u2019":1,
    "invented":1,
    "wolfsbane":1,
    "dentists":1,
    "tend":1,
    "people\u2019s":1,
    "teeth":1,
    "fascinating":1,
    "profession":1,
    "named":1,
    "robbie":1,
    "fenwick":1,
    "bite":1,
    "stitches":1,
    "groans":1,
    "ordinarily":1,
    "late":1,
    "uncharacteristically":1,
    "flustered":1,
    "amusement":1,
    "lamp":1,
    "wobbling":1,
    "catching":1,
    "admiring":1,
    "intriguing":1,
    "accordance":1,
    "slow":1,
    "unlikely":1,
    "makeshift":1,
    "bar":1,
    "construct":1,
    "earlier":1,
    "ranged":1,
    "menagerie":1,
    "atop":1,
    "bookcase":1,
    "aspires":1,
    "modest":1,
    "genially":1,
    "stiffens":1,
    "teachers":1,
    "natural":1,
    "disappoint":1,
    "albeit":1,
    "committed":1,
    "becoming":1,
    "firstrate":1,
    "monster":1,
    "existed":1,
    "nary":1,
    "trickles":1,
    "shortly":1,
    "counting":1,
    "gryffindor":1,
    "peels":1,
    "cuts":1,
    "juts":1,
    "snigger":1,
    "disdain":1,
    "frowning":1,
    "pushes":1,
    "pokes":1,
    "glumly":1,
    "dinner":1,
    "boring":1,
    "sluggy\u2019s":1,
    "distaste":1,
    "brown":1,
    "feebly":1,
    "daggers":1,
    "resigning":1,
    "today\u2019s":1,
    "indicate":1,
    "mental":1,
    "state":1,
    "juice":1,
    "callousness":1,
    "dreadful":1,
    "cup":1,
    "frozen":1,
    "midsip":1,
    "gulps":1,
    "expelled":1,
    "pockets":1,
    "winks":1,
    "win":1,
    "circling":1,
    "streaks":1,
    "yep":1,
    "could\u2019ve":1,
    "confundus":1,
    "tryouts":1,
    "dangles":1,
    "unbroken":1,
    "playfully":1,
    "catcalls":1,
    "smack":1,
    "practicing":1,
    "pulling":1,
    "giggling":1,
    "inventory":1,
    "room\u2019s":1,
    "reply":1,
    "oppugno":1,
    "bullets":1,
    "flees":1,
    "slamming":1,
    "knickers":1,
    "lav":1,
    "stopping":1,
    "chemical":1,
    "point":1,
    "liberty":1,
    "kiss":1,
    "whomever":1,
    "attending":1,
    "arrangements":1,
    "surprise":1,
    "rumor":1,
    "exasperated":1,
    "kidding":1,
    "awake":1,
    "sleepwalk":1,
    "sight":1,
    "adrian":1,
    "\u201878":1,
    "hoped":1,
    "focus":1,
    "greet":1,
    "transportation":1,
    "\u201867":1,
    "beeline":1,
    "handing":1,
    "towels":1,
    "lovegood":1,
    "encountered":1,
    "unbalanced":1,
    "signing":1,
    "claimed":1,
    "yelps":1,
    "pulls":1,
    "slightly":1,
    "askew":1,
    "lipstick":1,
    "blurry":1,
    "escaped":1,
    "mistletoe":1,
    "tentacles":1,
    "snarfalump":1,
    "plant":1,
    "tartar":1,
    "bay":1,
    "guest":1,
    "blob":1,
    "tray":1,
    "slippery":1,
    "minx":1,
    "spews":1,
    "raw":1,
    "surveys":1,
    "damage":1,
    "bought":1,
    "month\u2019s":1,
    "dashes":1,
    "rejoin":1,
    "date":1,
    "survive":1,
    "absence":1,
    "convey":1,
    "filthy":1,
    "squib":1,
    "frown":1,
    "overtakes":1,
    "emerges":1,
    "filch\u2019s":1,
    "rough":1,
    "grip":1,
    "lurking":1,
    "upstairs":1,
    "claims":1,
    "gatecrashing":1,
    "escort":1,
    "regard":1,
    "certainly":1,
    "hex":1,
    "silhouettes":1,
    "slumped":1,
    "insolence":1,
    "swore":1,
    "obvious":1,
    "assist":1,
    "train":1,
    "positive":1,
    "worked":1,
    "funnily":1,
    "compartment":1,
    "fogging":1,
    "etches":1,
    "\u201cron":1,
    "+":1,
    "lav\u201d":1,
    "encircles":1,
    "mimes":1,
    "\u201ci":1,
    "you\u201d":1,
    "pout":1,
    "snog":1,
    "chapped":1,
    "breaks":1,
    "stride":1,
    "spots":1,
    "handiwork":1,
    "silently":1,
    "haggard":1,
    "plotting":1,
    "offering":1,
    "occurred":1,
    "pretending":1,
    "sounded":1,
    "judgement":1,
    "therefore":1,
    "mistakes":1,
    "blinded":1,
    "hatred":1,
    "disappearing":1,
    "handful":1,
    "start":1,
    "doomed":1,
    "furtive":1,
    "\u201cleave":1,
    "it\u201d":1,
    "obliges":1,
    "tart":1,
    "toll":1,
    "fades":1,
    "replied":1,
    "sent":1,
    "describe":1,
    "rose":1,
    "power":1,
    "appeal":1,
    "calling":1,
    "contraptions":1,
    "require":1,
    "tremendous":1,
    "amount":1,
    "eventually":1,
    "fell":1,
    "tear":1,
    "speed":1,
    "delicious":1,
    "cycle":1,
    "worst":1,
    "vaguely":1,
    "wash":1,
    "silly":1,
    "prickling":1,
    "sweetheart":1,
    "torches":1,
    "blaze":1,
    "hesitation":1,
    "fan":1,
    "fullout":1,
    "kicking":1,
    "sparks":1,
    "splinter":1,
    "chasing":1,
    "copper":1,
    "dashing":1,
    "halt":1,
    "smoking":1,
    "marsh":1,
    "quivers":1,
    "racing":1,
    "noise":1,
    "signal":1,
    "edges":1,
    "revealing":1,
    "trap":1,
    "bolt":1,
    "blue":1,
    "greyback\u2019s":1,
    "yards":1,
    "chase":1,
    "beast":1,
    "breaths":1,
    "shortening":1,
    "difference":1,
    "sitting":1,
    "laughs":1,
    "wave":1,
    "knowledgeable":1,
    "file":1,
    "busies":1,
    "papers":1,
    "crystal":1,
    "dense":1,
    "engulfs":1,
    "twists":1,
    "shriek":1,
    "catch":1,
    "mentioning":1,
    "grows":1,
    "thicker":1,
    "collected":1,
    "also":1,
    "lie":1,
    "tampered":1,
    "tamper":1,
    "suspect":1,
    "ashamed":1,
    "decent":1,
    "proper":1,
    "sins":1,
    "lifts":1,
    "fate":1,
    "choice":1,
    "enveloping":1,
    "chapter":1,
    "antidotes":1,
    "poisoning":1,
    "rattails":1,
    "alys":1,
    "ones":1,
    "scurry":1,
    "enters":1,
    "hums":1,
    "unaware":1,
    "owe":1,
    "pleasure":1,
    "wondered":1,
    "stumbled":1,
    "recall":1,
    "kinds":1,
    "posed":1,
    "eyetoeye":1,
    "strived":1,
    "suggest":1,
    "gathers":1,
    "sluggy":1,
    "deepest":1,
    "darkest":1,
    "call":1,
    "harder":1,
    "divine":1,
    "latenight":1,
    "snack":1,
    "twenty":1,
    "starting":1,
    "exist":1,
    "months":1,
    "joke":1,
    "chocolates":1,
    "devastatingly":1,
    "raps":1,
    "busy":1,
    "bother":1,
    "precisely":1,
    "wenby":1,
    "ear":1,
    "whip":1,
    "remedy":1,
    "expert":1,
    "potioneer":1,
    "figured":1,
    "practiced":1,
    "darling":1,
    "misunderstanding":1,
    "bridge":1,
    "correct":1,
    "tired":1,
    "mixing":1,
    "cheery":1,
    "increases":1,
    "sensible":1,
    "due":1,
    "respect":1,
    "forgets":1,
    "possess":1,
    "risk":1,
    "offending":1,
    "lived":1,
    "bottoms":1,
    "nerves":1,
    "pickmeup\u2019s":1,
    "dazzling":1,
    "oakmatured":1,
    "intentions":1,
    "stout":1,
    "sips":1,
    "crumples":1,
    "knees":1,
    "rug":1,
    "spasming":1,
    "foam":1,
    "oozing":1,
    "ddon\u2019t":1,
    "choking":1,
    "prat":1,
    "agape":1,
    "useless":1,
    "hiccupping":1,
    "swimmer":1,
    "drowned":1,
    "gonna":1,
    "bezoar":1,
    "remarkably":1,
    "subtle":1,
    "hints":1,
    "licorice":1,
    "cherry":1,
    "polluted":1,
    "headmaster":1,
    "girlfriend":1,
    "spoken":1,
    "poisoned":1,
    "daft":1,
    "dimbo":1,
    "record":1,
    "embarrassed":1,
    "stirring":1,
    "senses":1,
    "presence":1,
    "nee":1,
    "love\u2019s":1,
    "sting":1,
    "tended":1,
    "indicates":1,
    "hopelessly":1,
    "smitten":1,
    "paused":1,
    "cherished":1,
    "enfolded":1,
    "broke":1,
    "exchanges":1,
    "talked":1,
    "thrilled":1,
    "shot":1,
    "rewarded":1,
    "lethal":1,
    "squint":1,
    "completely":1,
    "katie\u2019s":1,
    "retreating":1,
    "fleeing":1,
    "cruciharry":1,
    "spurts":1,
    "shirt":1,
    "slushes":1,
    "staggers":1,
    "howls":1,
    "horror":1,
    "flash":1,
    "pushing":1,
    "wet":1,
    "fabric":1,
    "shirtsleeve":1,
    "injuries":1,
    "kneeling":1,
    "wounds":1,
    "murmuring":1,
    "eerie":1,
    "incantation":1,
    "knit":1,
    "ancient":1,
    "chant":1,
    "ringing":1,
    "crimson":1,
    "flowers":1,
    "backing":1,
    "rid":1,
    "wanted":1,
    "showed":1,
    "hid":1,
    "drifts":1,
    "scuffling":1,
    "tempted":1,
    "sorts":1,
    "blinking":1,
    "bird":1,
    "flutter":1,
    "cold":1,
    "space":1,
    "excellent":1,
    "usually":1,
    "eats":1,
    "early":1,
    "short":1,
    "plan":1,
    "feeling":1,
    "announced":1,
    "cleared":1,
    "coughed":1,
    "feared":1,
    "sprout":1,
    "general":1,
    "behavior":1,
    "sneaking":1,
    "jumping":1,
    "tentacula":1,
    "leaf":1,
    "buyer":1,
    "familiar":1,
    "transactions":1,
    "rumors":1,
    "interests":1,
    "plants":1,
    "freaked":1,
    "shiver":1,
    "shoulders":1,
    "paying":1,
    "nightfall":1,
    "allow":1,
    "roam":1,
    "grounds":1,
    "insist":1,
    "counterproductive":1,
    "disconsolately":1,
    "stump":1,
    "aragog\u2019s":1,
    "legs":1,
    "approach":1,
    "sullen":1,
    "\u2018orace":1,
    "god":1,
    "manage":1,
    "oldest":1,
    "helplessly":1,
    "yerself":1,
    "misunderstood":1,
    "spiders":1,
    "unnerve":1,
    "mention":1,
    "pincers":1,
    "claw":1,
    "motion":1,
    "outta":1,
    "anyways":1,
    "indelicate":1,
    "venom":1,
    "uncommonly":1,
    "extracting":1,
    "pursuits":1,
    "izzit":1,
    "thoughts":1,
    "spare":1,
    "ampoules":1,
    "occasions":1,
    "master\u2019s":1,
    "habit":1,
    "coulda":1,
    "\u2018is":1,
    "prime":1,
    "jus\u2019":1,
    "handkerchief":1,
    "empathy":1,
    "king":1,
    "arachnids":1,
    "spirit":1,
    "lingers":1,
    "webspun":1,
    "forest":1,
    "manyeyed":1,
    "descendents":1,
    "flourish":1,
    "solace":1,
    "loss":1,
    "sustained":1,
    "walks":1,
    "lovingly":1,
    "big":1,
    "beast\u2019s":1,
    "tumbling":1,
    "freshlydug":1,
    "grave":1,
    "sickening":1,
    "odo":1,
    "hero":1,
    "bore":1,
    "lad":1,
    "laid":1,
    "snapped":1,
    "sad":1,
    "men":1,
    "chuckle":1,
    "tops":1,
    "everyone\u2019s":1,
    "lap":1,
    "slyly":1,
    "pours":1,
    "bucket":1,
    "egg":1,
    "hatched":1,
    "bigger\u2019n":1,
    "pekinese":1,
    "sweet":1,
    "vanished":1,
    "nod":1,
    "soberly":1,
    "ceiling":1,
    "unicorn":1,
    "reels":1,
    "chap":1,
    "shaggy":1,
    "snoring":1,
    "deeply":1,
    "shimmies":1,
    "windowpanes":1,
    "rattle":1,
    "inches":1,
    "flower":1,
    "watched":1,
    "sank":1,
    "touched":1,
    "bottom":1,
    "transformed":1,
    "wee":1,
    "\u201clily\u201d":1,
    "etching":1,
    "ruin":1,
    "survived":1,
    "sacrificed":1,
    "refused":1,
    "woken":1,
    "middle":1,
    "waited":1,
    "doorstep":1,
    "gazes":1,
    "guessed":1,
    "tears":1,
    "tremble":1,
    "disgrace":1,
    "forever":1,
    "badly":1,
    "fishes":1,
    "temple":1,
    "knowledgable":1,
    "intuition":1,
    "weak":1,
    "altogether":1,
    "stuff":1,
    "disrespect":1,
    "clearly":1,
    "disturbed":1,
    "quietly":1,
    "concealed":1,
    "works":1,
    "hides":1,
    "attacked":1,
    "destroyed":1,
    "hint":1,
    "murder":1,
    "rips":1,
    "violation":1,
    "instance":1,
    "rip":1,
    "pieces":1,
    "hypothetical":1,
    "pinches":1,
    "flame":1,
    "dissolve":1,
    "imagined":1,
    "unimaginably":1,
    "horrific":1,
    "intently":1,
    "headmasters":1,
    "frames":1,
    "tentatively":1,
    "commonplace":1,
    "objects":1,
    "slides":1,
    "drawer":1,
    "battered":1,
    "four":1,
    "saved":1,
    "chamber":1,
    "secrets":1,
    "destroys":1,
    "especially":1,
    "clenched":1,
    "spasms":1,
    "releases":1,
    "skitters":1,
    "bewilderment":1,
    "spin":1,
    "lightly":1,
    "\u201csee\u201d":1,
    "trepidation":1,
    "flicker":1,
    "postcard":1,
    "studying":1,
    "unplottable":1,
    "explain":1,
    "disappeared":1,
    "explains":1,
    "telling":1,
    "cabinets":1,
    "mate":1,
    "able":1,
    "heir":1,
    "concern":1,
    "reassuringly":1,
    "granted":1,
    "anymore":1,
    "hasn\u2019t":1,
    "irrelevant":1,
    "negotiate":1,
    "discuss":1,
    "dying":1,
    "sun":1,
    "react":1,
    "descending":1,
    "fade":1,
    "shave":1,
    "grown":1,
    "mawkishness":1,
    "unfailingly":1,
    "trait":1,
    "undervalue":1,
    "journey":1,
    "obey":1,
    "command":1,
    "abandon":1,
    "debates":1,
    "internally":1,
    "privileges":1,
    "gusts":1,
    "billows":1,
    "tossed":1,
    "poor":1,
    "orphan":1,
    "penchant":1,
    "cruelty":1,
    "arc":1,
    "registers":1,
    "detecting":1,
    "unpleasantry":1,
    "trace":1,
    "wintry":1,
    "lured":1,
    "younger":1,
    "unclear":1,
    "murmur":1,
    "dagger":1,
    "robes":1,
    "blade":1,
    "forearm":1,
    "speckling":1,
    "scarlet":1,
    "beads":1,
    "sizzles":1,
    "acid":1,
    "crumble":1,
    "forming":1,
    "opening":1,
    "gain":1,
    "weaken":1,
    "intruder":1,
    "precious":1,
    "summoning":1,
    "motions":1,
    "accio":1,
    "explosion":1,
    "erupts":1,
    "sheds":1,
    "calmly":1,
    "grasps":1,
    "chain":1,
    "pull":1,
    "pierces":1,
    "algae":1,
    "recreationally":1,
    "creates":1,
    "skim":1,
    "bodies":1,
    "glow":1,
    "filled":1,
    "phosphorescent":1,
    "blackened":1,
    "drunk":1,
    "paralyze":1,
    "beg":1,
    "relief":1,
    "indulge":1,
    "requests":1,
    "job":1,
    "force":1,
    "cleverer":1,
    "health":1,
    "steels":1,
    "nooooooo":1,
    "fault":1,
    "jaw":1,
    "clinched":1,
    "soft":1,
    "lapping":1,
    "ghostly":1,
    "shapes":1,
    "gliding":1,
    "deciding":1,
    "churn":1,
    "haunted":1,
    "quiver":1,
    "roiling":1,
    "probes":1,
    "water\u2019s":1,
    "edge":1,
    "plunges":1,
    "slimy":1,
    "snags":1,
    "wrist":1,
    "pulled":1,
    "bobs":1,
    "lick":1,
    "wood":1,
    "pomfrey":1,
    "wake":1,
    "praying":1,
    "pray":1,
    "listening":1,
    "wincing":1,
    "straightens":1,
    "mask":1,
    "infirmity":1,
    "show":1,
    "permission":1,
    "latticework":1,
    "darting":1,
    "often":1,
    "talk":1,
    "extraordinarily":1,
    "useful":1,
    "sane":1,
    "seem":1,
    "unease":1,
    "assassin":1,
    "shock":1,
    "cursing":1,
    "bear":1,
    "replacing":1,
    "laced":1,
    "intent":1,
    "warn":1,
    "broken":1,
    "mending":1,
    "ingenious":1,
    "twin":1,
    "choices":1,
    "echo":1,
    "wandless":1,
    "cornered":1,
    "schedule":1,
    "aiming":1,
    "grid":1,
    "splinters":1,
    "columns":1,
    "shhh":1,
    "stomach":1,
    "boy\u2019s":1,
    "vein":1,
    "pulsates":1,
    "slaughter":1,
    "dart":1,
    "frantically":1,
    "avada":1,
    "kedavra":1,
    "squarely":1,
    "hangs":1,
    "suspended":1,
    "swallows":1,
    "screams":1,
    "sky":1,
    "deafening":1,
    "blast":1,
    "masking":1,
    "cry":1,
    "clouds":1,
    "explode":1,
    "grim":1,
    "mutating":1,
    "flee":1,
    "scruff":1,
    "neck":1,
    "scrambles":1,
    "bathed":1,
    "agony":1,
    "wrecks":1,
    "steady":1,
    "leering":1,
    "132a":1,
    "they\u2019ll":1,
    "132h":1,
    "vengeance":1,
    "stolidly":1,
    "raging":1,
    "fire":1,
    "fires":1,
    "streak":1,
    "aim":1,
    "cruciatus":1,
    "parries":1,
    "incacerata":1,
    "impedimenta":1,
    "flick":1,
    "defeated":1,
    "frustration":1,
    "associate":1,
    "knee":1,
    "crashing":1,
    "belongs":1,
    "sectumsempra":1,
    "bang":1,
    "stars":1,
    "wheel":1,
    "spells":1,
    "kicks":1,
    "joining":1,
    "flaming":1,
    "ruins":1,
    "treeline":1,
    "pounds":1,
    "fist":1,
    "ground":1,
    "hinges":1,
    "stumbles":1,
    "more\u2019n":1,
    "\u2018ouse":1,
    "tho\u2019":1,
    "anybody":1,
    "righ\u2019":1,
    "wha\u2019":1,
    "throng":1,
    "assembled":1,
    "an\u2019":1,
    "wha\u2019s":1,
    "wi\u2019":1,
    "mar\u2019":1,
    "\u2018arry":1,
    "mute":1,
    "would\u2019ve":1,
    "lowering":1,
    "piece":1,
    "fake":1,
    "\u2018to":1,
    "intend":1,
    "mortal":1,
    "rab\u2019":1,
    "rab":1,
    "whoever":1,
    "waste":1,
    "started":1,
    "lead":1,
    "konw":1,
    "admired":1,
    "courage":1,
    "thick":1,
    "horcruxes":1,
    "perceptive":1,
    "rights":2,
    "london":2,
    "madly":2,
    "cissy":2,
    "shocked":2,
    "herself":2,
    "lives":2,
    "wormtail":2,
    "faintly":2,
    "forbidden":2,
    "sets":2,
    "greatest":2,
    "lord\u2019s":2,
    "possible":2,
    "provide":2,
    "protection":2,
    "swear":2,
    "matters":2,
    "coward":2,
    "freezes":2,
    "trembling":2,
    "watch":2,
    "prove":2,
    "pictures":2,
    "twist":2,
    "silk":2,
    "behold":2,
    "platform":2,
    "vomit":2,
    "welcome":2,
    "darkening":2,
    "hallway":2,
    "armchair":2,
    "human":2,
    "form":2,
    "gets":2,
    "introductions":2,
    "week":2,
    "muggles":2,
    "absolutely":2,
    "awkward":2,
    "mother\u2019s":2,
    "exceedingly":2,
    "considers":2,
    "photographs":2,
    "prophet":2,
    "captain":2,
    "older":2,
    "brother":2,
    "sirius":2,
    "taught":2,
    "whole":2,
    "talented":2,
    "magazine":2,
    "personal":2,
    "wanting":2,
    "live":2,
    "collect":2,
    "stolen":2,
    "wondrous":2,
    "hedwig":2,
    "trunk":2,
    "waiting":2,
    "mystified":2,
    "worse":2,
    "kitchen":2,
    "toothpaste":2,
    "business":2,
    "anyway":2,
    "safer":2,
    "fancy":2,
    "handsome":2,
    "toes":2,
    "drop":2,
    "either":2,
    "pocket":2,
    "working":2,
    "yoyo":2,
    "reveal":2,
    "bolts":2,
    "display":2,
    "lumps":2,
    "instant":2,
    "powder":2,
    "ladies":2,
    "work":2,
    "currently":2,
    "dating":2,
    "thomas":2,
    "balls":2,
    "pygmy":2,
    "noticing":2,
    "faint":2,
    "ascends":2,
    "laugh":2,
    "mummy":2,
    "followed":2,
    "closer":2,
    "alley":2,
    "dusk":2,
    "holding":2,
    "shadow":2,
    "flickers":2,
    "overhead":2,
    "roof":2,
    "perfectly":2,
    "hears":2,
    "race":2,
    "wrackspurts":2,
    "they\u2019ve":2,
    "creatures":2,
    "ears":2,
    "impression":2,
    "burke\u2019s":2,
    "sense":2,
    "tumbles":2,
    "luggage":2,
    "continue":2,
    "pansy":2,
    "confused":2,
    "snorts":2,
    "amused":2,
    "play":2,
    "invisibility":2,
    "reveals":2,
    "enjoyed":2,
    "flitwick":2,
    "ghosts":2,
    "security":2,
    "watching":2,
    "felt":2,
    "personally":2,
    "fixed":2,
    "several":2,
    "fill":2,
    "nevertheless":2,
    "wildly":2,
    "snaps":2,
    "exceptionally":2,
    "eating":2,
    "covered":2,
    "what\u2019ve":2,
    "strong":2,
    "damp":2,
    "feels":2,
    "thanks":2,
    "join":2,
    "member":2,
    "agreed":2,
    "post":2,
    "defense":2,
    "arts":2,
    "minute":2,
    "attempt":2,
    "fork":2,
    "pip":2,
    "you\u2019d":2,
    "trails":2,
    "menace":2,
    "nonsense":2,
    "yet":2,
    "resumes":2,
    "cauldrons":2,
    "bubbling":2,
    "soiled":2,
    "grab":2,
    "grinning":2,
    "amortentia":2,
    "grass":2,
    "seat":2,
    "create":2,
    "bringing":2,
    "dreamily":2,
    "tricky":2,
    "powers":2,
    "sip":2,
    "offer":2,
    "brew":2,
    "previous":2,
    "quality":2,
    "event":2,
    "tight":2,
    "amongst":2,
    "sheen":2,
    "promised":2,
    "glittering":2,
    "sit":2,
    "dozens":2,
    "case":2,
    "damaged":2,
    "particular":2,
    "leans":2,
    "iridescent":2,
    "confess":2,
    "visitor":2,
    "since":2,
    "photograph":2,
    "scene":2,
    "corridor":2,
    "closing":2,
    "grouping":2,
    "grain":2,
    "braille":2,
    "anguished":2,
    "reach":2,
    "gaze":2,
    "looked":2,
    "touching":2,
    "hurt":2,
    "collapses":2,
    "wardrobe":2,
    "belonged":2,
    "understood":2,
    "expression":2,
    "teach":2,
    "possesses":2,
    "desire":2,
    "divulge":2,
    "team":2,
    "spot":2,
    "weasley\u2019s":2,
    "sidles":2,
    "feelings":2,
    "getting":2,
    "ease":2,
    "collide":2,
    "midair":2,
    "splits":2,
    "slick":2,
    "blind":2,
    "high":2,
    "lets":2,
    "nervously":2,
    "hovering":2,
    "cool":2,
    "confident":2,
    "toss":2,
    "floater":2,
    "\u2018bout":2,
    "flying":2,
    "sweeping":2,
    "ginger":2,
    "flames":2,
    "buried":2,
    "mutters":2,
    "deflects":2,
    "admit":2,
    "cormac\u2019s":2,
    "spell":2,
    "whose":2,
    "fragile":2,
    "binding":2,
    "holds":2,
    "plucks":2,
    "stinksap":2,
    "trees":2,
    "fer":2,
    "six":2,
    "tha\u2019s":2,
    "ill":2,
    "ter":2,
    "crossed":2,
    "disappears":2,
    "tried":2,
    "spies":2,
    "hoping":2,
    "broomsticks":2,
    "whistles":2,
    "guttering":2,
    "utterly":2,
    "loudly":2,
    "waddles":2,
    "immediately":2,
    "regards":2,
    "care":2,
    "joins":2,
    "oops":2,
    "used":2,
    "game":2,
    "draw":2,
    "lip":2,
    "clean":2,
    "worried":2,
    "ha":2,
    "arms":2,
    "massive":2,
    "lurches":2,
    "darkly":2,
    "necklace":2,
    "whom":2,
    "quidditch":2,
    "gifts":2,
    "attractive":2,
    "soup":2,
    "meant":2,
    "minister":2,
    "holiday":2,
    "worth":2,
    "stiff":2,
    "needed":2,
    "dessert":2,
    "whispers":2,
    "fighting":2,
    "stimulating":2,
    "sands":2,
    "classmates":2,
    "hopes":2,
    "already":2,
    "using":2,
    "tongs":2,
    "unlike":2,
    "eh":2,
    "slytherin":2,
    "averts":2,
    "opposite":2,
    "ol\u2019":2,
    "slug":2,
    "club":2,
    "hearing":2,
    "shaking":2,
    "tonic":2,
    "glints":2,
    "palm":2,
    "shouldn\u2019t":2,
    "charm":2,
    "commotion":2,
    "center":2,
    "rushes":2,
    "birds":2,
    "angry":2,
    "agent":2,
    "likes":2,
    "less":2,
    "neither":2,
    "we\u2019d":2,
    "pick":2,
    "vane":2,
    "slip":2,
    "shoes":2,
    "mingle":2,
    "twins":2,
    "left":2,
    "invited":2,
    "horribly":2,
    "breath":2,
    "surely":2,
    "term":2,
    "source":2,
    "lazy":2,
    "revealed":2,
    "adjacent":2,
    "break":2,
    "lavender\u2019s":2,
    "task":2,
    "mission":2,
    "whether":2,
    "ourselves":2,
    "tries":2,
    "molly":2,
    "favor":2,
    "apart":2,
    "throughout":2,
    "gleaming":2,
    "heaving":2,
    "veil":2,
    "clicking":2,
    "pelts":2,
    "faster":2,
    "realize":2,
    "feeble":2,
    "merrythought":2,
    "retiring":2,
    "wags":2,
    "sugarencrusted":2,
    "information":2,
    "pineapple":2,
    "favorite":2,
    "gracious":2,
    "dippett":2,
    "lestrange":2,
    "avery":2,
    "essays":2,
    "ping":2,
    "shortcut":2,
    "professors":2,
    "illuminate":2,
    "fog":2,
    "persuade":2,
    "chance":2,
    "decay":2,
    "meet":2,
    "briefcase":2,
    "allowed":2,
    "recognition":2,
    "questions":2,
    "dim":2,
    "reckoned":2,
    "who\u2019re":2,
    "crash":2,
    "squints":2,
    "mirror":2,
    "stare":2,
    "drinks":2,
    "wine":2,
    "mead":2,
    "limply":2,
    "cough":2,
    "breathing":2,
    "proud":2,
    "gift":2,
    "poison":2,
    "intended":2,
    "interesting":2,
    "er":2,
    "keen":2,
    "visit":2,
    "hospital":2,
    "boggled":2,
    "follows":2,
    "glares":2,
    "dare":2,
    "transfixed":2,
    "nature":2,
    "traces":2,
    "floating":2,
    "nearby":2,
    "returns":2,
    "should\u2019ve":2,
    "throat":2,
    "madam":2,
    "valuable":2,
    "purely":2,
    "oddly":2,
    "doors":2,
    "means":2,
    "acromantula":2,
    "\u2018e":2,
    "doin\u2019":2,
    "magnificent":2,
    "farewell":2,
    "home":2,
    "thunk":2,
    "he\u2019d":2,
    "fish":2,
    "francis":2,
    "downstairs":2,
    "spring":2,
    "afternoon":2,
    "aside":2,
    "fully":2,
    "one\u2019s":2,
    "protected":2,
    "split":2,
    "powerfully":2,
    "number":2,
    "distant":2,
    "succeeded":2,
    "voldemort\u2019s":2,
    "difficult":2,
    "stairs":2,
    "tier":2,
    "apparate":2,
    "payment":2,
    "prow":2,
    "boat":2,
    "basin":2,
    "drinking":2,
    "dips":2,
    "silent":2,
    "lower":2,
    "wait":2,
    "aloud":2,
    "ghost":2,
    "ramparts":2,
    "skull":2,
    "curse":2,
    "fight":2,
    "hut":2,
    "minimum":2,
    "sounds":3,
    "mustn\u2019t":3,
    "trusts":3,
    "glowers":3,
    "ought":3,
    "doubt":3,
    "words":3,
    "runs":3,
    "moments":3,
    "places":3,
    "tip":3,
    "attempts":3,
    "protect":3,
    "carry":3,
    "page":3,
    "accompany":3,
    "paper":3,
    "move":3,
    "gone":3,
    "summer":3,
    "hesitates":3,
    "eye":3,
    "leads":3,
    "village":3,
    "sort":3,
    "roll":3,
    "mildly":3,
    "pauses":3,
    "beyond":3,
    "caught":3,
    "albus":3,
    "anywhere":3,
    "loo":3,
    "except":3,
    "muggleborn":3,
    "waves":3,
    "every":3,
    "daily":3,
    "news":3,
    "free":3,
    "regulus":3,
    "weeks":3,
    "lost":3,
    "cause":3,
    "considered":3,
    "return":3,
    "office":3,
    "everything":3,
    "moon":3,
    "cloak":3,
    "mum":3,
    "ministry":3,
    "how\u2019d":3,
    "guess":3,
    "seriously":3,
    "wipes":3,
    "parents":3,
    "lot":3,
    "gotten":3,
    "rubbish":3,
    "step":3,
    "pale":3,
    "cauldron":3,
    "sloshing":3,
    "heads":3,
    "wink":3,
    "real":3,
    "fine":3,
    "enough":3,
    "half":3,
    "what\u2019re":3,
    "playing":3,
    "peering":3,
    "figure":3,
    "passage":3,
    "whispering":3,
    "interested":3,
    "eater":3,
    "barking":3,
    "father\u2019s":3,
    "rack":3,
    "laughing":3,
    "window":3,
    "upper":3,
    "slips":3,
    "snatches":3,
    "enjoy":3,
    "walk":3,
    "drift":3,
    "walking":3,
    "pass":3,
    "puts":3,
    "disappear":3,
    "soon":3,
    "hat":3,
    "brave":3,
    "troubled":3,
    "dab":3,
    "drifting":3,
    "hall":3,
    "beneath":3,
    "knows":3,
    "hour":3,
    "forces":3,
    "remains":3,
    "low":3,
    "enjoying":3,
    "longer":3,
    "textbook":3,
    "example":3,
    "curiously":3,
    "actual":3,
    "onto":3,
    "wear":3,
    "nodding":3,
    "message":3,
    "lies":3,
    "children":3,
    "cole":3,
    "wall":3,
    "sharp":3,
    "tall":3,
    "closes":3,
    "having":3,
    "exit":3,
    "keeper":3,
    "between":3,
    "introduce":3,
    "flies":3,
    "second":3,
    "nervous":3,
    "ginny\u2019s":3,
    "ice":3,
    "demelza":3,
    "wide":3,
    "taking":3,
    "thinks":3,
    "says":3,
    "chuckles":3,
    "yer":3,
    "eat":3,
    "butterbeer":3,
    "catches":3,
    "curiosity":3,
    "trembles":3,
    "important":3,
    "tongue":3,
    "ahead":3,
    "leanne":3,
    "snow":3,
    "white":3,
    "wind":3,
    "asking":3,
    "lucky":3,
    "cursed":3,
    "knowingly":3,
    "called":3,
    "hours":3,
    "uncle":3,
    "plate":3,
    "matter":3,
    "leaves":3,
    "hourglass":3,
    "killed":3,
    "christmas":3,
    "surprised":3,
    "pops":3,
    "rise":3,
    "shut":3,
    "given":3,
    "circumstances":3,
    "alcove":3,
    "magical":3,
    "annoy":3,
    "it\u2019ll":3,
    "yak":3,
    "detention":3,
    "discovered":3,
    "conceal":3,
    "wants":3,
    "tonks":3,
    "remus":3,
    "condition":3,
    "arthur":3,
    "rage":3,
    "peers":3,
    "smoke":3,
    "evaporates":3,
    "wonwon":3,
    "finger":3,
    "misunderstand":3,
    "restricted":3,
    "section":3,
    "beautiful":3,
    "fierce":3,
    "fills":3,
    "breathe":3,
    "making":3,
    "withdraws":3,
    "backs":3,
    "diary":3,
    "hidden":3,
    "stood":3,
    "academic":3,
    "bowl":3,
    "petal":3,
    "pain":3,
    "vanish":3,
    "poised":3,
    "upward":3,
    "strange":3,
    "lake":3,
    "jet":3,
    "itself":4,
    "joking":4,
    "wizard":4,
    "corner":4,
    "seems":4,
    "fail":4,
    "draco\u2019s":4,
    "hey":4,
    "quickly":4,
    "notices":4,
    "indeed":4,
    "quite":4,
    "imagine":4,
    "narrow":4,
    "brought":4,
    "doorway":4,
    "view":4,
    "pair":4,
    "apparently":4,
    "weren\u2019t":4,
    "eaters":4,
    "many":4,
    "order":4,
    "answer":4,
    "lily":4,
    "lovely":4,
    "match":4,
    "died":4,
    "kind":4,
    "expect":4,
    "coming":4,
    "chin":4,
    "dad":4,
    "we\u2019ve":4,
    "green":4,
    "quick":4,
    "hello":4,
    "inside":4,
    "aren\u2019t":4,
    "huge":4,
    "full":4,
    "five":4,
    "ten":4,
    "reckon":4,
    "air":4,
    "blaise":4,
    "bag":4,
    "wheels":4,
    "boys":4,
    "pitch":4,
    "seeing":4,
    "hits":4,
    "hard":4,
    "nose":4,
    "aurors":4,
    "long":4,
    "hell":4,
    "easy":4,
    "seemed":4,
    "happy":4,
    "stunned":4,
    "today":4,
    "morning":4,
    "um":4,
    "cupboard":4,
    "saying":4,
    "smell":4,
    "felicis":4,
    "least":4,
    "perfect":4,
    "found":4,
    "desk":4,
    "removes":4,
    "met":4,
    "ashen":4,
    "mrs":4,
    "cave":4,
    "somehow":4,
    "wish":4,
    "rest":4,
    "cocks":4,
    "read":4,
    "whisper":4,
    "teacher":4,
    "simply":4,
    "fly":4,
    "races":4,
    "below":4,
    "seamus":4,
    "broom":4,
    "won\u2019t":4,
    "quiet":4,
    "forth":4,
    "rolls":4,
    "hope":4,
    "shall":4,
    "sleep":4,
    "library":4,
    "continues":4,
    "candle":4,
    "voice":4,
    "otherwise":4,
    "package":4,
    "hm":4,
    "belby":4,
    "speaks":4,
    "thank":4,
    "object":4,
    "conversation":4,
    "glass":4,
    "deep":4,
    "almost":4,
    "party":4,
    "bursts":4,
    "maybe":4,
    "romilda":4,
    "hanging":4,
    "dragon":4,
    "past":4,
    "traveling":4,
    "die":4,
    "burkes":4,
    "greyback":4,
    "dear":4,
    "map":4,
    "girls":4,
    "requirement":4,
    "hide":4,
    "body":4,
    "finish":4,
    "poof":4,
    "cannot":4,
    "killing":4,
    "footsteps":4,
    "draws":4,
    "muggle":5,
    "running":5,
    "believe":5,
    "happens":5,
    "great":5,
    "he\u2019ll":5,
    "faces":5,
    "snape\u2019s":5,
    "within":5,
    "wondering":5,
    "girl":5,
    "rather":5,
    "sound":5,
    "points":5,
    "starts":5,
    "merlin\u2019s":5,
    "appears":5,
    "gave":5,
    "trying":5,
    "gestures":5,
    "silence":5,
    "front":5,
    "family":5,
    "mad":5,
    "fear":5,
    "opens":5,
    "heard":5,
    "hermione\u2019s":5,
    "being":5,
    "school":5,
    "fact":5,
    "hear":5,
    "passes":5,
    "smile":5,
    "moves":5,
    "c\u2019mon":5,
    "where\u2019s":5,
    "quibbler":5,
    "students":5,
    "under":5,
    "besides":5,
    "went":5,
    "class":5,
    "probably":5,
    "grins":5,
    "those":5,
    "stick":5,
    "filch":5,
    "don\u2019":5,
    "stand":5,
    "box":5,
    "person":5,
    "shift":5,
    "curious":5,
    "felix":5,
    "cut":5,
    "bottle":5,
    "evening":5,
    "steps":5,
    "forward":5,
    "pensieve":5,
    "forgive":5,
    "merely":5,
    "happen":5,
    "rock":5,
    "anything":5,
    "close":5,
    "promise":5,
    "clear":5,
    "mclaggen":5,
    "nearly":5,
    "halfblood":5,
    "prince":5,
    "reading":5,
    "aragog":5,
    "feet":5,
    "\u2018im":5,
    "honestly":5,
    "asked":5,
    "tha\u2019":5,
    "such":5,
    "idea":5,
    "heart":5,
    "chest":5,
    "rare":5,
    "sometimes":5,
    "thinking":5,
    "life":5,
    "destroy":5,
    "darkness":6,
    "leaving":6,
    "trust":6,
    "shoulder":6,
    "along":6,
    "lips":6,
    "touch":6,
    "sister":6,
    "question":6,
    "try":6,
    "unbreakable":6,
    "mouth":6,
    "funny":6,
    "saw":6,
    "round":6,
    "hair":6,
    "seconds":6,
    "house":6,
    "beard":6,
    "though":6,
    "stay":6,
    "father":6,
    "friends":6,
    "sends":6,
    "haven\u2019t":6,
    "standing":6,
    "powerful":6,
    "excuse":6,
    "both":6,
    "seen":6,
    "wasn\u2019t":6,
    "glance":6,
    "alone":6,
    "bad":6,
    "side":6,
    "galleons":6,
    "drops":6,
    "next":6,
    "everyone":6,
    "young":6,
    "dunno":6,
    "borgin":6,
    "we\u2019ll":6,
    "floor":6,
    "different":6,
    "worry":6,
    "suddenly":6,
    "staff":6,
    "student":6,
    "actually":6,
    "liquid":6,
    "until":6,
    "taken":6,
    "save":6,
    "shelf":6,
    "above":6,
    "falters":6,
    "bell":6,
    "true":6,
    "yeh":6,
    "sits":6,
    "anyone":6,
    "lupin":6,
    "vanishing":6,
    "reeds":6,
    "forget":6,
    "finally":6,
    "hagrid\u2019s":6,
    "ring":6,
    "narcissa":7,
    "extends":7,
    "brings":7,
    "told":7,
    "part":7,
    "please":7,
    "vow":7,
    "empty":7,
    "red":7,
    "later":7,
    "who\u2019s":7,
    "table":7,
    "goes":7,
    "wrong":7,
    "shadows":7,
    "its":7,
    "briefly":7,
    "use":7,
    "mine":7,
    "may":7,
    "raises":7,
    "year":7,
    "times":7,
    "even":7,
    "blinks":7,
    "dangerous":7,
    "talking":7,
    "tips":7,
    "let\u2019s":7,
    "malfoy\u2019s":7,
    "nice":7,
    "looking":7,
    "staring":7,
    "done":7,
    "against":7,
    "keep":7,
    "mcgonagall":7,
    "granger":7,
    "lavender":7,
    "bring":7,
    "exits":7,
    "while":7,
    "quaffle":7,
    "moment":7,
    "thing":7,
    "snogging":7,
    "mug":7,
    "suppose":7,
    "skin":7,
    "ron\u2019s":7,
    "okay":7,
    "understand":7,
    "secret":7,
    "behind":8,
    "world":8,
    "run":8,
    "speak":8,
    "feel":8,
    "angle":8,
    "yourself":8,
    "ago":8,
    "light":8,
    "across":8,
    "comes":8,
    "man":8,
    "doesn\u2019t":8,
    "yeah":8,
    "last":8,
    "alright":8,
    "tonight":8,
    "fred":8,
    "george":8,
    "gives":8,
    "odd":8,
    "we\u2019re":8,
    "dead":8,
    "made":8,
    "luna":8,
    "carefully":8,
    "outside":8,
    "bed":8,
    "drink":8,
    "memory":8,
    "riddle\u2019s":8,
    "word":8,
    "soul":8,
    "days":9,
    "else":9,
    "severus":9,
    "goblet":9,
    "put":9,
    "help":9,
    "bloody":9,
    "reaches":9,
    "knew":9,
    "black":9,
    "myself":9,
    "arm":9,
    "glances":9,
    "small":9,
    "blood":9,
    "couldn\u2019t":9,
    "ah":9,
    "stares":9,
    "were":9,
    "death":9,
    "mother":9,
    "owl":9,
    "mr":9,
    "exactly":9,
    "weasley":9,
    "together":9,
    "tiny":9,
    "doing":9,
    "around":9,
    "known":9,
    "stop":9,
    "miss":9,
    "luck":9,
    "voldemort":9,
    "rises":9,
    "leave":9,
    "seven":9,
    "let":9,
    "three":9,
    "lord":10,
    "instantly":10,
    "first":10,
    "after":10,
    "nothing":10,
    "toward":10,
    "chosen":10,
    "each":10,
    "came":10,
    "love":10,
    "you\u2019ll":10,
    "little":10,
    "wouldn\u2019t":10,
    "said":10,
    "dean":10,
    "potions":10,
    "name":10,
    "m\u2019boy":10,
    "because":10,
    "cabinet":10,
    "same":10,
    "katie":10,
    "remember":10,
    "horcrux":10,
    "hands":11,
    "himself":11,
    "mind":11,
    "give":11,
    "afraid":11,
    "slowly":11,
    "stands":11,
    "end":11,
    "never":11,
    "still":11,
    "our":11,
    "few":11,
    "finds":11,
    "night":11,
    "shakes":11,
    "sorry":11,
    "does":11,
    "frowns":11,
    "book":11,
    "surface":11,
    "others":11,
    "smiles":12,
    "place":12,
    "room":12,
    "old":12,
    "than":12,
    "she\u2019s":12,
    "always":12,
    "day":12,
    "water":12,
    "happened":12,
    "without":12,
    "what\u2019s":12,
    "begins":12,
    "upon":12,
    "any":12,
    "castle":12,
    "potion":12,
    "vial":12,
    "kill":12,
    "studies":12,
    "turn":13,
    "isn\u2019t":13,
    "some":13,
    "am":13,
    "horace":13,
    "there\u2019s":13,
    "someone":13,
    "hogwarts":13,
    "they\u2019re":13,
    "which":13,
    "brilliant":13,
    "ask":13,
    "bellatrix":14,
    "might":14,
    "new":14,
    "potter":14,
    "takes":14,
    "dumbledore\u2019s":14,
    "people":14,
    "sure":14,
    "course":14,
    "another":14,
    "slughorn\u2019s":14,
    "magic":14,
    "must":15,
    "mean":15,
    "best":15,
    "their":15,
    "makes":15,
    "didn\u2019t":15,
    "open":15,
    "need":15,
    "come":15,
    "perhaps":15,
    "find":15,
    "you\u2019ve":16,
    "things":16,
    "fingers":16,
    "too":16,
    "ever":16,
    "own":17,
    "boy":17,
    "most":17,
    "sees":17,
    "friend":17,
    "stops":17,
    "us":17,
    "head":17,
    "should":18,
    "take":18,
    "bit":18,
    "i\u2019d":18,
    "that\u2019s":18,
    "watches":18,
    "much":18,
    "nods":18,
    "years":19,
    "thought":19,
    "before":19,
    "through":19,
    "other":19,
    "these":20,
    "tell":20,
    "very":20,
    "good":20,
    "where":20,
    "oh":21,
    "really":21,
    "them":21,
    "i\u2019ll":21,
    "door":21,
    "way":21,
    "cormac":21,
    "can\u2019t":23,
    "away":23,
    "going":23,
    "harry\u2019s":23,
    "hagrid":23,
    "could":24,
    "want":24,
    "riddle":24,
    "get":25,
    "had":25,
    "again":25,
    "or":26,
    "down":26,
    "make":26,
    "look":26,
    "two":26,
    "i\u2019ve":27,
    "time":27,
    "malfoy":27,
    "why":27,
    "more":28,
    "dark":28,
    "has":28,
    "now":28,
    "got":28,
    "did":28,
    "only":29,
    "face":29,
    "about":29,
    "been":29,
    "something":30,
    "would":30,
    "wand":30,
    "will":30,
    "once":30,
    "go":31,
    "say":31,
    "right":31,
    "there":31,
    "how":32,
    "turns":33,
    "tom":33,
    "he\u2019s":34,
    "from":34,
    "ginny":34,
    "here":35,
    "you\u2019re":35,
    "by":36,
    "yes":36,
    "we":37,
    "draco":37,
    "snape":38,
    "see":38,
    "off":38,
    "over":39,
    "looks":39,
    "professor":39,
    "so":40,
    "an":40,
    "hand":41,
    "who":42,
    "they":43,
    "can":46,
    "back":46,
    "when":49,
    "think":49,
    "well":50,
    "into":53,
    "have":55,
    "hermione":55,
    "out":56,
    "up":57,
    "like":59,
    "if":60,
    "i\u2019m":60,
    "are":62,
    "all":63,
    "it\u2019s":64,
    "no":64,
    "do":66,
    "sir":66,
    "she":67,
    "him":69,
    "her":69,
    "just":69,
    "don\u2019t":71,
    "my":72,
    "slughorn":73,
    "on":74,
    "eyes":74,
    "ron":77,
    "know":78,
    "not":78,
    "be":83,
    "dumbledore":83,
    "at":85,
    "one":86,
    "what":86,
    "your":86,
    "for":86,
    "this":87,
    "then":92,
    "with":97,
    "me":99,
    "but":99,
    "was":99,
    "as":108,
    "that":112,
    "he":122,
    "":123,
    "is":146,
    "in":175,
    "his":182,
    "of":234,
    "it":239,
    "harry":249,
    "and":263,
    "a":374,
    "to":381,
    "i":397,
    "you":419,
    "the":642
}