{
    "fun":1,
    "importance":1,
    "highsmith":1,
    "honor":1,
    "wish":1,
    "heartfelt":1,
    "chanookuh":1,
    "important":1,
    "lesson":1,
    "usjust":1,
    "appear":1,
    "strange":1,
    "furry":1,
    "hats":1,
    "beady":1,
    "eyes":1,
    "sideburnsnot":1,
    "customs":1,
    "unnecessarily":1,
    "guttural":1,
    "funny":1,
    "sounding":1,
    "namesjust":1,
    "worlds":1,
    "money":1,
    "cheap":1,
    "tops":1,
    "equals":1,
    "chanoojuahkah":1,
    "miriam":1,
    "grown":1,
    "invite":1,
    "kleinman":1,
    "ds":1,
    "dig":1,
    "baaddest":1,
    "tel":1,
    "aviv":1,
    "yarmulke":1,
    "throw":1,
    "frisbee":1,
    "wewe":1,
    "swear":1,
    "vain":1,
    "itits":1,
    "sometimes":1,
    "wonder":1,
    "bother":1,
    "proud":1,
    "bold":1,
    "bignosed":1,
    "biblical":1,
    "tikva":1,
    "shakin":1,
    "yenta":1,
    "stahters":1,
    "relate":1,
    "following":1,
    "130":1,
    "300":1,
    "sunday":1,
    "yeast":1,
    "infection":1,
    "gynecologist":1,
    "open":1,
    "sundays":1,
    "thanking":1,
    "pulling":1,
    "yourselves":1,
    "meeting":1,
    "busiest":1,
    "brief":1,
    "nasty":1,
    "tyrannical":1,
    "obsessed":1,
    "anyone":1,
    "death":1,
    "prided":1,
    "ensuring":1,
    "season":1,
    "between":1,
    "races":1,
    "religions":1,
    "belief":1,
    "deserve":1,
    "lights":1,
    "career":1,
    "ensure":1,
    "jews":1,
    "christians":1,
    "americans":1,
    "observe":1,
    "respective":1,
    "harmony":1,
    "pushing":1,
    "ordinance":1,
    "signage":1,
    "replaced":1,
    "transrelgious":1,
    "inoffensive":1,
    "phrase":1,
    "nearly":1,
    "decade":1,
    "conjunction":1,
    "american":1,
    "communities":1,
    "supported":1,
    "bill":1,
    "mandated":1,
    "dreaming":1,
    "bright":1,
    "taught":1,
    "sung":1,
    "elementary":1,
    "standards":1,
    "frosty":1,
    "snowman":1,
    "deck":1,
    "halls":1,
    "upon":1,
    "examination":1,
    "annual":1,
    "naughty":1,
    "list":1,
    "shocked":1,
    "discover":1,
    "heir":1,
    "ludicrous":1,
    "wipe":1,
    "reaction":1,
    "disgust":1,
    "sadness":1,
    "disappointment":1,
    "disappointed":1,
    "failed":1,
    "teach":1,
    "tu":1,
    "blitzen":1,
    "destroy":1,
    "predict":1,
    "massacre":1,
    "hanukkahchristmas":1,
    "relations":1,
    "hundred":1,
    "meshuggena":1,
    "jeopardy":1,
    "motion":1,
    "towards":1,
    "chairman":1,
    "crank":1,
    "award":1,
    "winning":1,
    "documentaries":1,
    "holocaust":1,
    "possibly":1,
    "movies":1,
    "frankly":1,
    "putz":1,
    "defame":1,
    "focus":1,
    "assign":1,
    "track":1,
    "activities":1,
    "force":1,
    "calls":1,
    "toughest":1,
    "someone":1,
    "wheelchair":1,
    "crying":1,
    "joe":1,
    "missing":1,
    "lawyer":1,
    "heros":1,
    "david":1,
    "copperfield":1,
    "disappear":1,
    "hittin":1,
    "handled":1,
    "extreme":1,
    "ranks":1,
    "sweetheart":1,
    "orders":1,
    "selfcontrol":1,
    "daddy":1,
    "perhaps":1,
    "strolled":1,
    "carried":1,
    "herself":1,
    "traffic":1,
    "pisher":1,
    "circling":1,
    "half":1,
    "parking":1,
    "listening":1,
    "client":1,
    "notes":1,
    "desperately":1,
    "shtooping":1,
    "marital":1,
    "infidelity":1,
    "shtoops":1,
    "exclusively":1,
    "whoops":1,
    "rubbed":1,
    "mans":1,
    "demon":1,
    "anti":1,
    "psycho":1,
    "capable":1,
    "hire":1,
    "husband":1,
    "danger":1,
    "shiksa":1,
    "mike":1,
    "hall":1,
    "longer":1,
    "affiliate":1,
    "organization":1,
    "politics":1,
    "brutal":1,
    "load":1,
    "thatsuhthats":1,
    "electronically":1,
    "short":1,
    "sun":1,
    "goes":1,
    "officially":1,
    "part":1,
    "ways":1,
    "leaving":1,
    "agree":1,
    "warn":1,
    "mothers":1,
    "tonight":1,
    "till":1,
    "noticed":1,
    "door":1,
    "asked":1,
    "credentials":1,
    "mama":1,
    "purim":1,
    "acquainted":1,
    "latke":1,
    "ready":1,
    "starving":1,
    "china":1,
    "finishes":1,
    "recruit":1,
    "doesnt":1,
    "himself":1,
    "convince":1,
    "dan":1,
    "heshes":1,
    "shmanukkah":1,
    "concerns":1,
    "boychick":1,
    "thirty":1,
    "blowjob":1,
    "plunger":1,
    "sink":1,
    "tampons":1,
    "ladies":1,
    "discuss":1,
    "used":1,
    "started":1,
    "charcoal":1,
    "pills":1,
    "cleared":1,
    "thatsgood":1,
    "play":1,
    "bridge":1,
    "pictures":1,
    "lawyers":1,
    "doctors":1,
    "rabbis":1,
    "maureen":1,
    "retirement":1,
    "raton":1,
    "instead":1,
    "schleping":1,
    "school":1,
    "mba":1,
    "saying":1,
    "spite":1,
    "opening":1,
    "gifts":1,
    "wouldnt":1,
    "changing":1,
    "breathe":1,
    "spent":1,
    "fourth":1,
    "grade":1,
    "bed":1,
    "recovering":1,
    "hypoglycemia":1,
    "hungry":1,
    "desert":1,
    "confirmation":1,
    "baruch":1,
    "netanyahoo":1,
    "six":1,
    "dishes":1,
    "found":1,
    "seder":1,
    "plate":1,
    "alphabetical":1,
    "beitzah":1,
    "charoset":1,
    "chazeret":1,
    "karpas":1,
    "maror":1,
    "zeroa":1,
    "demonstrate":1,
    "musical":1,
    "aptitude":1,
    "remove":1,
    "undergarments":1,
    "oooh":1,
    "circumcision":1,
    "confirmed":1,
    "final":1,
    "machine":1,
    "broken":1,
    "ridiculous":1,
    "shlep":1,
    "middle":1,
    "nowhere":1,
    "lord":1,
    "knows":1,
    "purpose":1,
    "unhappy":1,
    "changed":1,
    "subjected":1,
    "strict":1,
    "physical":1,
    "training":1,
    "regiment":1,
    "minion":1,
    "practicing":1,
    "jewdo":1,
    "deadly":1,
    "fighting":1,
    "relaxed":1,
    "centuries":1,
    "admissions":1,
    "criteria":1,
    "leagues":1,
    "close":1,
    "personal":1,
    "mine":1,
    "keeping":1,
    "attend":1,
    "keeps":1,
    "purrin":1,
    "repeat":1,
    "incident":1,
    "settlement":1,
    "demolished":1,
    "smashed":1,
    "army":1,
    "jeeps":1,
    "arabs":1,
    "d":1,
    "above":1,
    "commandments":1,
    "heroics":1,
    "mitzvah":1,
    "readin":1,
    "torah":1,
    "portion":1,
    "nonchalant":1,
    "chalant":1,
    "stand":1,
    "arguing":1,
    "crack":1,
    "pay":1,
    "visit":1,
    "theyve":1,
    "411":1,
    "careful":1,
    "squarely":1,
    "shoulders":1,
    "seriously":1,
    "human":1,
    "shvitzing":1,
    "allowed":1,
    "mistakes":1,
    "justjust":1,
    "visitor":1,
    "pimped":1,
    "dude":1,
    "caddy":1,
    "youyou":1,
    "nigger":1,
    "brings":1,
    "self":1,
    "crazy":1,
    "definitely":1,
    "mode":1,
    "street":1,
    "papas":1,
    "brand":1,
    "bag":1,
    "velvety":1,
    "overnight":1,
    "fedexed":1,
    "ii":1,
    "sup":1,
    "trippin":1,
    "kills":1,
    "pops":1,
    "cap":1,
    "racist":1,
    "kick":1,
    "arthritis":1,
    "joints":1,
    "caps":1,
    "hangouts":1,
    "packin":1,
    "overheard":1,
    "pahtnah":1,
    "hed":1,
    "joint":1,
    "dukes":1,
    "round":1,
    "oclock":1,
    "serves":1,
    "phone":1,
    "jetted":1,
    "scoped":1,
    "jewelry":1,
    "cash":1,
    "whatevers":1,
    "severance":1,
    "package":1,
    "duckets":1,
    "snatch":1,
    "fool":1,
    "shining":1,
    "shoes":1,
    "train":1,
    "station":1,
    "afro":1,
    "tossed":1,
    "velcro":1,
    "redneck":1,
    "finally":1,
    "gots":1,
    "belong":1,
    "smoking":1,
    "blunts":1,
    "pimpin":1,
    "bitches":1,
    "understands":1,
    "deliver":1,
    "goods":1,
    "counting":1,
    "fail":1,
    "tense":1,
    "salam":1,
    "excellent":1,
    "confusing":1,
    "pronounce":1,
    "pfff":1,
    "official":1,
    "elf":1,
    "guy":1,
    "presence":1,
    "disruption":1,
    "created":1,
    "rights":1,
    "violation":1,
    "union":1,
    "regulations":1,
    "strike":1,
    "arent":1,
    "arrangements":1,
    "taiwanese":1,
    "shipped":1,
    "add":1,
    "peanuts":1,
    "attack":1,
    "negotiating":1,
    "solution":1,
    "labor":1,
    "problems":1,
    "came":1,
    "factory":1,
    "illegally":1,
    "manufactures":1,
    "addictive":1,
    "pride":1,
    "weakening":1,
    "substance":1,
    "planet":1,
    "bought":1,
    "plant":1,
    "target":1,
    "person":1,
    "neighborhoods":1,
    "city":1,
    "country":1,
    "flood":1,
    "streets":1,
    "beauty":1,
    "samples":1,
    "boxes":1,
    "heroin":1,
    "cocaine":1,
    "worse":1,
    "frank":1,
    "capra":1,
    "classic":1,
    "straight":1,
    "usually":1,
    "serve":1,
    "balls":1,
    "walk":1,
    "pour":1,
    "lynch":1,
    "figure":1,
    "bottle":1,
    "trip":1,
    "fistful":1,
    "5733":1,
    "motherfuckers":1,
    "dad":1,
    "bush":1,
    "shlomo":1,
    "huh":1,
    "sixty":1,
    "percent":1,
    "pure":1,
    "watching":1,
    "soon":1,
    "possible":1,
    "5555555555555":1,
    "5":1,
    "carefully":1,
    "mass":1,
    "produce":1,
    "video":1,
    "hollywood":1,
    "featuring":1,
    "positive":1,
    "protagonist":1,
    "yentl":1,
    "fiddler":1,
    "roof":1,
    "thatll":1,
    "stat":1,
    "epidemic":1,
    "howd":1,
    "trap":1,
    "square":1,
    "mall":1,
    "america":1,
    "sending":1,
    "disguise":1,
    "pass":1,
    "undetected":1,
    "thinks":1,
    "homentashen":1,
    "bye":1,
    "partridge":1,
    "pear":1,
    "tree":1,
    "turtle":1,
    "doves":1,
    "status":1,
    "stirring":1,
    "shall":1,
    "muff":1,
    "t":1,
    "fair":1,
    "turn":1,
    "punk":1,
    "curtain":1,
    "calm":1,
    "trick":1,
    "blend":1,
    "act":1,
    "interest":1,
    "sample":1,
    "bacon":1,
    "cheeseburger":1,
    "generous":1,
    "offer":1,
    "deliciously":1,
    "unkosher":1,
    "snack":1,
    "sadly":1,
    "decline":1,
    "meat":1,
    "milk":1,
    "prior":1,
    "lunch":1,
    "engagement":1,
    "everyones":1,
    "fifteen":1,
    "minutes":1,
    "those":1,
    "shitty":1,
    "barbies":1,
    "heads":1,
    "screwed":1,
    "backwards":1,
    "remote":1,
    "cars":1,
    "without":1,
    "batteries":1,
    "included":1,
    "fast":1,
    "pal":1,
    "parents":1,
    "ahead":1,
    "paul":1,
    "wellumm":1,
    "during":1,
    "worship":1,
    "devil":1,
    "sacrifice":1,
    "small":1,
    "sadistic":1,
    "rituals":1,
    "run":1,
    "jimmy":1,
    "folks":1,
    "couples":1,
    "mouth":1,
    "shut":1,
    "goy":1,
    "stole":1,
    "alive":1,
    "shpiel":1,
    "family":1,
    "unpleasantness":1,
    "admit":1,
    "went":1,
    "overboard":1,
    "offering":1,
    "bambi":1,
    "tawni":1,
    "renown":1,
    "super":1,
    "declare":1,
    "sensitive":1,
    "read":1,
    "women":1,
    "unleavened":1,
    "bunch":1,
    "clean":1,
    "scene":1,
    "moment":1,
    "calming":1,
    "kiddies":1,
    "peaceful":1,
    "adult":1,
    "hows":1,
    "hangin":1,
    "informed":1,
    "plans":1,
    "cancelling":1,
    "makes":1,
    "whered":1,
    "saw":1,
    "hallway":1,
    "doomed":1,
    "psst":1,
    "lives":1,
    "repay":1,
    "harriet":1,
    "tubbelman":1,
    "moses":1,
    "payment":1,
    "river":1,
    "conclusion":1,
    "arms":1,
    "legs":1,
    "water":1,
    "craft":1,
    "enjoy":1,
    "ride":1,
    "annoying":1,
    "fairly":1,
    "quickly":1,
    "tickets":1,
    "riding":1,
    "returning":1,
    "stamped":1,
    "alley":1,
    "rug":1,
    "joshua":1,
    "mister":1,
    "mutual":1,
    "names":1,
    "uhhh":1,
    "ihave":1,
    "ouch":1,
    "disco":1,
    "funky":1,
    "chickeoh":1,
    "dirty":1,
    "lots":1,
    "island":1,
    "someplace":1,
    "schmancy":1,
    "private":1,
    "music":1,
    "lessons":1,
    "abraham":1,
    "stanford":1,
    "college":1,
    "batya":1,
    "ivy":1,
    "vassar":1,
    "afterwards":1,
    "theyll":1,
    "decision":1,
    "whether":1,
    "theyd":1,
    "continue":1,
    "religious":1,
    "studies":1,
    "practiced":1,
    "effective":1,
    "assertive":1,
    "style":1,
    "child":1,
    "rearing":1,
    "sprinkled":1,
    "healthy":1,
    "dose":1,
    "liberalism":1,
    "daily":1,
    "basis":1,
    "live":1,
    "kiss":1,
    "hmm":1,
    "poking":1,
    "investigate":1,
    "wow":1,
    "amazing":1,
    "snort":1,
    "antihistamine":1,
    "allergies":1,
    "capsules":1,
    "gassy":1,
    "dearest":1,
    "cares":1,
    "awhile":1,
    "needed":1,
    "incentive":1,
    "sleep":1,
    "become":1,
    "pimp":1,
    "whoring":1,
    "bitchson":1,
    "highest":1,
    "bidder":1,
    "neurotic":1,
    "playing":1,
    "meddling":1,
    "typical":1,
    "romantically":1,
    "anymore":1,
    "loving":1,
    "reveal":1,
    "nature":1,
    "diabolical":1,
    "located":1,
    "outskirts":1,
    "keeper":1,
    "powered":1,
    "element":1,
    "rare":1,
    "exists":1,
    "extract":1,
    "cease":1,
    "exist":1,
    "forever":1,
    "eradicating":1,
    "approximately":1,
    "borrow":1,
    "pen":1,
    "notepad":1,
    "three":1,
    "quarters":1,
    "lunar":1,
    "cycle":1,
    "christian":1,
    "fond":1,
    "bless":1,
    "end":1,
    "chilling":1,
    "points":1,
    "talked":1,
    "perfect":1,
    "level":1,
    "picked":1,
    "kc":1,
    "band":1,
    "record":1,
    "recommended":1,
    "camera":1,
    "filming":1,
    "plane":1,
    "catch":1,
    "backup":1,
    "dangerous":1,
    "hooking":1,
    "bitch":1,
    "miss":1,
    "explain":1,
    "ben":1,
    "gurion":1,
    "airport":1,
    "ground":1,
    "transportation":1,
    "proceed":1,
    "terminal":1,
    "18":1,
    "english":1,
    "rent":1,
    "biggest":1,
    "cadillac":1,
    "preferably":1,
    "lowered":1,
    "tires":1,
    "rented":1,
    "chadillac":1,
    "ch":1,
    "israeli":1,
    "robbie":1,
    "kneivel":1,
    "rid":1,
    "someones":1,
    "jump":1,
    "motorcycle":1,
    "airsick":1,
    "asshole":1,
    "reindeer":1,
    "fly":1,
    "whos":1,
    "leader":1,
    "operation":1,
    "malfunction":1,
    "dumbfuck":1,
    "harnesses":1,
    "guide":1,
    "puking":1,
    "chimneys":1,
    "eve":1,
    "hide":1,
    "eyeballin":1,
    "second":1,
    "hora":1,
    "freaking":1,
    "yesterday":1,
    "cripple":1,
    "ropes":1,
    "feeling":1,
    "tired":1,
    "whyd":1,
    "ammo":1,
    "kinda":1,
    "corner":1,
    "friday":1,
    "sundown":1,
    "weakness":1,
    "extracting":1,
    "introduce":1,
    "spirit":1,
    "apparent":1,
    "whatsoever":1,
    "clothing":1,
    "never":1,
    "wear":1,
    "pretend":1,
    "horrible":1,
    "dipshit":1,
    "victory":1,
    "stocking":1,
    "stuffer":1,
    "clocks":1,
    "beginning":1,
    "snappy":1,
    "liners":1,
    "ticking":1,
    "wife":1,
    "rescue":1,
    "asalam":1,
    "requires":1,
    "judaisms":1,
    "daughter":1,
    "working":1,
    "identity":1,
    "issues":1,
    "entrance":1,
    "bet":1,
    "pinpoint":1,
    "exact":1,
    "gain":1,
    "5734":1,
    "58th":1,
    "century":1,
    "supplies":1,
    "device":1,
    "laptop":1,
    "computator":1,
    "technical":1,
    "sophisticated":1,
    "connection":1,
    "computators":1,
    "internet":1,
    "access":1,
    "maps":1,
    "villian":1,
    "biographical":1,
    "sports":1,
    "scores":1,
    "simple":1,
    "keystrokes":1,
    "electronic":1,
    "typewriter":1,
    "far":1,
    "jets":1,
    "won":1,
    "swift":1,
    "clicks":1,
    "handcomputer":1,
    "interface":1,
    "commonly":1,
    "mouse":1,
    "download":1,
    "illicit":1,
    "pornographic":1,
    "material":1,
    "via":1,
    "known":1,
    "email":1,
    "tellin":1,
    "heres":1,
    "sister":1,
    "german":1,
    "shepard":1,
    "notorious":1,
    "supremacist":1,
    "button":1,
    "message":1,
    "remember":1,
    "rudolph":1,
    "egg":1,
    "nog":1,
    "payin":1,
    "visits":1,
    "south":1,
    "maam":1,
    "sugar":1,
    "hold":1,
    "waist":1,
    "tied":1,
    "knew":1,
    "enter":1,
    "research":1,
    "determined":1,
    "compound":1,
    "wired":1,
    "xp":1,
    "2000":1,
    "bypass":1,
    "trigger":1,
    "detects":1,
    "nonwasp":1,
    "tendencies":1,
    "dribble":1,
    "dawgthat":1,
    "spelled":1,
    "aw":1,
    "opposed":1,
    "letter":1,
    "owithin":1,
    "confines":1,
    "taste":1,
    "player":1,
    "outdated":1,
    "dropped":1,
    "offscreen":1,
    "gunfire":1,
    "budget":1,
    "woman":1,
    "bowl":1,
    "ball":1,
    "soup":1,
    "earlier":1,
    "noooo":1,
    "point":1,
    "pretty":1,
    "warning":1,
    "tables":1,
    "turned":1,
    "goodbye":1,
    "sad":1,
    "regards":1,
    "choice":1,
    "option":1,
    "arsenal":1,
    "shlepped":1,
    "nosh":1,
    "arch":1,
    "nemesis":1,
    "hah":1,
    "guilt":1,
    "strong":1,
    "sort":1,
    "host":1,
    "company":1,
    "clearly":1,
    "uncomfortable":1,
    "shvitizing":1,
    "running":1,
    "shooting":1,
    "feet":1,
    "flooring":1,
    "anyway":1,
    "arches":1,
    "killing":1,
    "courtesy":1,
    "proper":1,
    "entered":1,
    "treated":1,
    "disrespect":1,
    "gun":1,
    "shoot":1,
    "everythings":1,
    "joseph":1,
    "temple":1,
    "sight":1,
    "closure":1,
    "messed":1,
    "underestimated":1,
    "thatsthats":1,
    "question":1,
    "withdreidels":1,
    "miracle":1,
    "oil":1,
    "lasted":1,
    "eight":1,
    "shouldve":1,
    "gladly":1,
    "detest":1,
    "gore":1,
    "washington":1,
    "blessings":1,
    "fiancee":1,
    "opportunity":1,
    "sisters":1,
    "bubba":1,
    "shaina":1,
    "shabos":1,
    "newspapers":1,
    "given":1,
    "pope":1,
    "dreidels":1,
    "knowl":1,
    "honest":1,
    "yom":1,
    "kipur":1,
    "brag":1,
    "maureens":1,
    "merger":1,
    "enoughim":1,
    "finished":1,
    "airing":1,
    "poop":1,
    "loves":1,
    "pooping":1,
    "somehow":1,
    "planning":1,
    "wedding":1,
    "starters":1,
    "honeymoon":1,
    "mortys":1,
    "consultant":1,
    "happier":1,
    "both":1,
    "busy":1,
    "forgot":1,
    "whod":1,
    "living":1,
    "religionally":1,
    "insane":1,
    "blood":1,
    "heirs":1,
    "liberation":1,
    "process":1,
    "vote":1,
    "pleased":1,
    "elect":1,
    "niggas":1,
    "spinning":2,
    "tolerance":2,
    "understanding":2,
    "special":2,
    "7":2,
    "hope":2,
    "learned":2,
    "different":2,
    "mention":2,
    "bizarre":2,
    "control":2,
    "buy":2,
    "respect":2,
    "maccabee":2,
    "marry":2,
    "g":2,
    "dash":2,
    "hebe":2,
    "side":2,
    "teddy":2,
    "gods":2,
    "praying":2,
    "feelin":2,
    "aveenooh":2,
    "alechem":2,
    "stay":2,
    "tomorrow":2,
    "wanted":2,
    "terrible":2,
    "understand":2,
    "away":2,
    "emergency":2,
    "referred":2,
    "st":2,
    "nick":2,
    "making":2,
    "holiday":2,
    "celebrate":2,
    "same":2,
    "mission":2,
    "african":2,
    "responsible":2,
    "ago":2,
    "schools":2,
    "filled":2,
    "scheme":2,
    "et":2,
    "midgets":2,
    "gentleman":2,
    "sheket":2,
    "bvakasha":2,
    "action":2,
    "least":2,
    "create":2,
    "goodwill":2,
    "worldwide":2,
    "media":2,
    "conspiracy":2,
    "couple":2,
    "another":2,
    "trying":2,
    "against":2,
    "suggestions":2,
    "tough":2,
    "loud":2,
    "lieberman":2,
    "west":2,
    "bank":2,
    "world":2,
    "kicked":2,
    "persuade":2,
    "shed":2,
    "block":2,
    "times":2,
    "late":2,
    "telling":2,
    "hammers":2,
    "seem":2,
    "being":2,
    "difficult":2,
    "boobola":2,
    "sign":2,
    "brought":2,
    "label":2,
    "story":2,
    "sit":2,
    "oy":2,
    "vey":2,
    "stuffed":2,
    "paid":2,
    "nonsense":2,
    "mun":2,
    "chi":2,
    "works":2,
    "sent":2,
    "solely":2,
    "almost":2,
    "forbid":2,
    "under":2,
    "gas":2,
    "taking":2,
    "ate":2,
    "itself":2,
    "everyone":2,
    "talk":2,
    "sons":2,
    "investment":2,
    "banker":2,
    "entire":2,
    "mench":2,
    "send":2,
    "sudden":2,
    "argue":2,
    "peace":2,
    "face":2,
    "must":2,
    "tuchus":2,
    "misery":2,
    "bout":2,
    "lead":2,
    "test":2,
    "initiated":2,
    "kidding":2,
    "passover":2,
    "forward":2,
    "necessary":2,
    "agents":2,
    "art":2,
    "davis":2,
    "heard":2,
    "babe":2,
    "cats":2,
    "completely":2,
    "ten":2,
    "bar":2,
    "location":2,
    "check":2,
    "stuff":2,
    "mohammed":2,
    "ali":2,
    "paula":2,
    "abdul":2,
    "rahim":2,
    "took":2,
    "dat":2,
    "jerusalem":2,
    "fuck":2,
    "told":2,
    "aight":2,
    "santy":2,
    "talkin":2,
    "bustin":2,
    "colored":2,
    "elves":2,
    "left":2,
    "five":2,
    "memory":2,
    "thang":2,
    "somewhere":2,
    "alekem":2,
    "planned":2,
    "utopian":2,
    "model":2,
    "efficiency":2,
    "sweatshop":2,
    "taiwan":2,
    "across":2,
    "major":2,
    "product":2,
    "these":2,
    "free":2,
    "bootleg":2,
    "shekels":2,
    "israel":2,
    "papa":2,
    "menorah":2,
    "potoks":2,
    "chosen":2,
    "beat":2,
    "appearance":2,
    "thinking":2,
    "piece":2,
    "spin":2,
    "sunshine":2,
    "fact":2,
    "buddy":2,
    "gettin":2,
    "waiting":2,
    "moving":2,
    "behind":2,
    "undercover":2,
    "ah":2,
    "kids":2,
    "line":2,
    "whoa":2,
    "treat":2,
    "stud":2,
    "matzah":2,
    "hurry":2,
    "em":2,
    "worry":2,
    "conversation":2,
    "personally":2,
    "shh":2,
    "underground":2,
    "railroad":2,
    "kosher":2,
    "though":2,
    "wanna":2,
    "feygele":2,
    "dancing":2,
    "talking":2,
    "paying":2,
    "stable":2,
    "fancy":2,
    "highly":2,
    "democratic":2,
    "glad":2,
    "received":2,
    "transmission":2,
    "less":2,
    "twenty":2,
    "hours":2,
    "whatever":2,
    "chello":2,
    "building":2,
    "sled":2,
    "forgive":2,
    "finish":2,
    "matter":2,
    "resting":2,
    "girlfriend":2,
    "fight":2,
    "agreed":2,
    "using":2,
    "powerful":2,
    "weapon":2,
    "surveillance":2,
    "cyber":2,
    "postal":2,
    "route":2,
    "porno":2,
    "example":2,
    "tawanda":2,
    "wheres":2,
    "forget":2,
    "stereo":2,
    "type":2,
    "basketball":2,
    "watermelon":2,
    "jewdar":2,
    "crutches":2,
    "head":2,
    "shot":2,
    "eating":2,
    "boo":2,
    "class":3,
    "mordechais":3,
    "top":3,
    "mrs":3,
    "yet":3,
    "better":3,
    "presents":3,
    "willing":3,
    "settle":3,
    "having":3,
    "dinner":3,
    "often":3,
    "myself":3,
    "which":3,
    "dreidel":3,
    "own":3,
    "damian":3,
    "red":3,
    "suit":3,
    "hate":3,
    "fucking":3,
    "years":3,
    "power":3,
    "order":3,
    "plan":3,
    "adam":3,
    "sandler":3,
    "movie":3,
    "agent":3,
    "step":3,
    "case":3,
    "anybody":3,
    "reason":3,
    "wants":3,
    "few":3,
    "past":3,
    "bloomenbergensteinenthal":3,
    "defense":3,
    "league":3,
    "needs":3,
    "actually":3,
    "semitic":3,
    "tail":3,
    "besides":3,
    "until":3,
    "certified":3,
    "circumcised":3,
    "dick":3,
    "mind":3,
    "main":3,
    "young":3,
    "everything":3,
    "bathroom":3,
    "rests":3,
    "high":3,
    "gone":3,
    "real":3,
    "girls":3,
    "boca":3,
    "saving":3,
    "television":3,
    "diaper":3,
    "rest":3,
    "theyre":3,
    "state":3,
    "cold":3,
    "am":3,
    "feel":3,
    "welcome":3,
    "sammy":3,
    "alone":3,
    "dead":3,
    "pressure":3,
    "best":3,
    "kike":3,
    "alert":3,
    "means":3,
    "somebody":3,
    "motherfucker":3,
    "blam":3,
    "big":3,
    "getting":3,
    "wall":3,
    "place":3,
    "watch":3,
    "charge":3,
    "boys":3,
    "copies":3,
    "drink":3,
    "hurt":3,
    "chaim":3,
    "home":3,
    "relax":3,
    "attention":3,
    "couldnt":3,
    "through":3,
    "ran":3,
    "youd":3,
    "bit":3,
    "saved":3,
    "nah":3,
    "week":3,
    "dance":3,
    "easy":3,
    "shes":3,
    "atomic":3,
    "calendar":3,
    "judeum":3,
    "clear":3,
    "freaky":3,
    "happened":3,
    "latkes":3,
    "childrens":3,
    "learn":4,
    "bad":4,
    "brother":4,
    "remind":4,
    "bring":4,
    "manischewitz":4,
    "information":4,
    "office":4,
    "thought":4,
    "start":4,
    "father":4,
    "along":4,
    "meaning":4,
    "looking":4,
    "into":4,
    "community":4,
    "use":4,
    "situation":4,
    "jew":4,
    "old":4,
    "hard":4,
    "jefferson":4,
    "problem":4,
    "hour":4,
    "things":4,
    "speak":4,
    "cut":4,
    "guest":4,
    "black":4,
    "front":4,
    "save":4,
    "again":4,
    "excuse":4,
    "fate":4,
    "deal":4,
    "such":4,
    "cat":4,
    "hello":4,
    "jr":4,
    "beautiful":4,
    "uh":4,
    "four":4,
    "damn":4,
    "find":4,
    "whole":4,
    "move":4,
    "guys":4,
    "lot":4,
    "ourselves":4,
    "each":4,
    "white":4,
    "most":4,
    "sayin":4,
    "jamal":4,
    "room":4,
    "wasnt":4,
    "mo":4,
    "men":4,
    "bell":4,
    "ringing":4,
    "angel":4,
    "wings":4,
    "light":4,
    "news":4,
    "hell":4,
    "ask":4,
    "safe":4,
    "inside":4,
    "north":4,
    "looks":4,
    "able":4,
    "alarm":4,
    "system":4,
    "youve":5,
    "today":5,
    "guess":5,
    "also":5,
    "else":5,
    "workshop":5,
    "try":5,
    "always":5,
    "course":5,
    "holidays":5,
    "yourself":5,
    "business":5,
    "mr":5,
    "wrong":5,
    "care":5,
    "carver":5,
    "after":5,
    "follow":5,
    "done":5,
    "nothing":5,
    "hands":5,
    "days":5,
    "kill":5,
    "full":5,
    "says":5,
    "everybody":5,
    "youll":5,
    "much":5,
    "picture":5,
    "gotta":5,
    "klf":5,
    "believe":5,
    "yo":5,
    "brothers":5,
    "tiny":5,
    "tim":5,
    "wonderful":5,
    "last":5,
    "sound":5,
    "gets":5,
    "pole":5,
    "cant":6,
    "name":6,
    "little":6,
    "called":6,
    "friends":6,
    "son":6,
    "ho":6,
    "chief":6,
    "jdl":6,
    "ever":6,
    "call":6,
    "girl":6,
    "has":6,
    "life":6,
    "listen":6,
    "already":6,
    "sabbath":6,
    "weve":6,
    "hanukkahs":6,
    "while":6,
    "off":6,
    "show":6,
    "boy":6,
    "sure":6,
    "word":6,
    "nigga":6,
    "aint":6,
    "really":6,
    "kind":6,
    "gentile":6,
    "sir":6,
    "boojee":6,
    "isnt":7,
    "morty":7,
    "merry":7,
    "because":7,
    "might":7,
    "long":7,
    "anything":7,
    "than":7,
    "them":7,
    "happy":7,
    "alright":7,
    "said":7,
    "kwanzaa":7,
    "made":7,
    "true":7,
    "say":7,
    "job":7,
    "had":7,
    "wait":7,
    "meet":7,
    "enough":7,
    "two":7,
    "let":7,
    "didnt":7,
    "cool":7,
    "ass":7,
    "thank":7,
    "mommy":7,
    "yes":8,
    "they":8,
    "does":8,
    "mean":8,
    "give":8,
    "leave":8,
    "who":8,
    "since":8,
    "every":8,
    "where":8,
    "keep":8,
    "wont":8,
    "mazel":8,
    "tov":8,
    "other":8,
    "day":9,
    "eat":9,
    "man":9,
    "claus":9,
    "first":9,
    "santas":9,
    "around":9,
    "would":9,
    "still":9,
    "once":9,
    "thing":9,
    "stop":9,
    "any":9,
    "clock":9,
    "very":10,
    "children":10,
    "love":10,
    "shabat":10,
    "mother":10,
    "new":10,
    "theres":10,
    "hear":10,
    "doing":10,
    "or":10,
    "look":10,
    "shit":10,
    "only":11,
    "shalom":11,
    "cmon":11,
    "year":11,
    "over":11,
    "put":11,
    "next":11,
    "friend":11,
    "then":11,
    "maybe":11,
    "something":11,
    "id":12,
    "people":12,
    "too":12,
    "thanks":12,
    "should":12,
    "okay":12,
    "before":12,
    "tell":12,
    "their":13,
    "god":13,
    "yeah":13,
    "her":13,
    "ive":13,
    "nice":13,
    "sorry":13,
    "lets":14,
    "even":14,
    "she":14,
    "ill":14,
    "could":14,
    "been":14,
    "will":14,
    "hes":14,
    "hebrew":14,
    "mom":14,
    "by":15,
    "going":15,
    "time":15,
    "christmas":15,
    "more":15,
    "way":15,
    "how":15,
    "some":15,
    "down":16,
    "thats":16,
    "see":16,
    "when":16,
    "at":16,
    "work":16,
    "help":16,
    "us":17,
    "why":17,
    "up":17,
    "did":17,
    "there":17,
    "an":18,
    "right":19,
    "from":19,
    "our":19,
    "make":20,
    "esther":20,
    "need":21,
    "one":21,
    "take":21,
    "whats":21,
    "please":21,
    "go":21,
    "as":22,
    "gonna":22,
    "come":23,
    "hey":23,
    "think":23,
    "back":24,
    "his":24,
    "him":25,
    "are":26,
    "not":27,
    "like":28,
    "youre":28,
    "want":28,
    "he":28,
    "but":29,
    "can":29,
    "oh":29,
    "good":30,
    "were":30,
    "well":30,
    "was":30,
    "now":31,
    "hanukkah":31,
    "dont":31,
    "about":31,
    "jewish":31,
    "out":31,
    "here":31,
    "santa":32,
    "got":32,
    "if":33,
    "hammer":34,
    "know":34,
    "mordechai":36,
    "get":37,
    "its":38,
    "so":41,
    "no":41,
    "all":46,
    "just":46,
    "be":49,
    "on":50,
    "have":51,
    "your":52,
    "im":52,
    "we":55,
    "do":55,
    "this":60,
    "is":63,
    "with":64,
    "it":69,
    "what":69,
    "in":75,
    "me":79,
    "my":83,
    "for":85,
    "that":108,
    "and":109,
    "of":118,
    "a":162,
    "i":202,
    "to":243,
    "you":271,
    "the":285
}