{
    "deal":1,
    "where":1,
    "institute":1,
    "psychiatric":1,
    "judged":1,
    "nearest":1,
    "boyfriend":1,
    "sent":1,
    "hours":1,
    "ago":1,
    "jeez":1,
    "kid":1,
    "smack":1,
    "angel":1,
    "dust":1,
    "acids":1,
    "fashion":1,
    "excuse":1,
    "homicide":1,
    "districts":1,
    "slash":1,
    "dash":1,
    "made":1,
    "career":1,
    "nasty":1,
    "ones":1,
    "dads":1,
    "mess":1,
    "missing":1,
    "people":1,
    "corpses":1,
    "pardon":1,
    "obviously":1,
    "convey":1,
    "hesitation":1,
    "facevalue":1,
    "favor":1,
    "crap":1,
    "heresir":1,
    "found":1,
    "another":1,
    "suffered":1,
    "er":1,
    "accidental":1,
    "damage":1,
    "discovery":1,
    "portable":1,
    "evidence":1,
    "apart":1,
    "remains":1,
    "looks":1,
    "messed":1,
    "downtown":1,
    "asking":1,
    "tag":1,
    "properly":1,
    "scientific":1,
    "orthodoxy":1,
    "dictates":1,
    "enemy":1,
    "greatest":1,
    "ally":1,
    "solving":1,
    "massages":1,
    "pinpoints":1,
    "corrects":1,
    "obvious":1,
    "example":1,
    "optical":1,
    "motor":1,
    "nerve":1,
    "control":1,
    "centers":1,
    "case":1,
    "deeplyburied":1,
    "severe":1,
    "produce":1,
    "frighteningly":1,
    "frequent":1,
    "hysteria":1,
    "aggression":1,
    "incurable":1,
    "others":1,
    "exposes":1,
    "medication":1,
    "controls":1,
    "rebuild":1,
    "care":1,
    "knowledge":1,
    "our":1,
    "training":1,
    "given":1,
    "arrival":1,
    "appears":1,
    "distressed":1,
    "may":1,
    "tidy":1,
    "happened":1,
    "ithim":1,
    "away":1,
    "took":1,
    "came":1,
    "cenobites":1,
    "fixed":1,
    "assistant":1,
    "read":1,
    "boys":1,
    "statement":1,
    "adventure":1,
    "mmmm":1,
    "frankly":1,
    "territory":1,
    "mine":1,
    "after":1,
    "maybe":1,
    "destroy":1,
    "haunted":1,
    "uhexcuse":1,
    "able":1,
    "assistance":1,
    "soyoure":1,
    "hi":1,
    "cop":1,
    "suspect":1,
    "necessarily":1,
    "does":1,
    "however":1,
    "lying":1,
    "sleep":1,
    "shall":1,
    "sad":1,
    "six":1,
    "months":1,
    "names":1,
    "withdrawal":1,
    "word":1,
    "jigsaws":1,
    "says":1,
    "helping":1,
    "concentrate":1,
    "wanna":1,
    "suck":1,
    "joke":1,
    "mentally":1,
    "heres":1,
    "pills":1,
    "red":1,
    "face":1,
    "bye":1,
    "glad":1,
    "paying":1,
    "better":1,
    "105":1,
    "ii":1,
    "visitor":1,
    "explain":1,
    "wheres":1,
    "hed":1,
    "promised":1,
    "fetch":1,
    "ticket":1,
    "officer":1,
    "spoken":1,
    "meet":1,
    "by":1,
    "side":1,
    "entrance":1,
    "clear":1,
    "forever":1,
    "started":1,
    "jeesuskerrist":1,
    "mr":1,
    "browning":1,
    "lie":1,
    "embarrassed":1,
    "getting":1,
    "habit":1,
    "kind":1,
    "shocktherapy":1,
    "cold":1,
    "surreal":1,
    "strange":1,
    "nightmarish":1,
    "wine":1,
    "close":1,
    "beautiful":1,
    "dress":1,
    "skin":1,
    "0":1,
    "k":1,
    "dreams":1,
    "slept":1,
    "bed":1,
    "nails":1,
    "sofa":1,
    "used":1,
    "sleeping":1,
    "lot":1,
    "robe":1,
    "expect":1,
    "wish":1,
    "sucks":1,
    "pity":1,
    "nail":1,
    "month":1,
    "idiot":1,
    "sssh":1,
    "thethe":1,
    "cry":1,
    "any":1,
    "normal":1,
    "person":1,
    "awful":1,
    "boy":1,
    "drop":1,
    "surprisingly":1,
    "taste":1,
    "men":1,
    "kill":1,
    "whore":1,
    "vicious":1,
    "streak":1,
    "did":1,
    "afraid":1,
    "theyve":1,
    "changed":1,
    "rules":1,
    "fairy":1,
    "tale":1,
    "longer":1,
    "wicked":1,
    "stepmother":1,
    "evil":1,
    "queen":1,
    "best":1,
    "shot":1,
    "snow":1,
    "white":1,
    "view":1,
    "beyond":1,
    "buti":1,
    "has":1,
    "coming":1,
    "desire":1,
    "next":1,
    "careful":1,
    "mommy":1,
    "nooooo":1,
    "wed":1,
    "lost":1,
    "already":1,
    "mei":1,
    "last":1,
    "keep":1,
    "finding":1,
    "each":1,
    "eager":1,
    "reluctant":1,
    "admit":1,
    "unreachable":1,
    "yours":1,
    "different":1,
    "surprises":1,
    "explore":1,
    "eternity":1,
    "sights":1,
    "caught":1,
    "earth":1,
    "makes":1,
    "trips":1,
    "forward":1,
    "soon":1,
    "screen":1,
    "wouldnt":1,
    "filth":1,
    "gone":1,
    "heaven":1,
    "eh":1,
    "bull":1,
    "learn":1,
    "shouldnt":1,
    "fraid":1,
    "same":1,
    "brothers":1,
    "equal":1,
    "opposite":1,
    "appetite":1,
    "banality":1,
    "cotton":1,
    "dad":1,
    "hehe":1,
    "waste":1,
    "tears":1,
    "betrayed":1,
    "recently":1,
    "pretty":1,
    "upset":1,
    "naughty":1,
    "punish":1,
    "first":1,
    "daughter":1,
    "heart":1,
    "leviathan":1,
    "souls":1,
    "brought":1,
    "both":1,
    "happy":1,
    "goodbye":1,
    "convenient":1,
    "together":1,
    "remembers":1,
    "kiss":1,
    "reunion":1,
    "gods":1,
    "sake":1,
    "killed":1,
    "forgiven":1,
    "ask":1,
    "small":1,
    "inconvenience":1,
    "following":1,
    "nothing":1,
    "solve":1,
    "hesitated":1,
    "enjoy":1,
    "pleasures":1,
    "endure":1,
    "horse":1,
    "rode":1,
    "larry":1,
    "hold":1,
    "anything":1,
    "long":1,
    "noooooooooo":1,
    "theres":1,
    "arguments":1,
    "run":1,
    "flowers":1,
    "yesterday":1,
    "pass":1,
    "pillow":1,
    "coronary":1,
    "arrest":1,
    "quick":1,
    "ors":1,
    "standby":1,
    "theyll":1,
    "wh":1,
    "beat":1,
    "elevator":1,
    "upstairs":1,
    "short":1,
    "cut":1,
    "anymore":1,
    "recommend":1,
    "amputation":1,
    "delays":1,
    "experience":1,
    "skill":1,
    "bargaining":1,
    "strings":1,
    "suffering":1,
    "legendary":1,
    "else":1,
    "escape":1,
    "nonsense":1,
    "confusions":1,
    "iremember":1,
    "leave":1,
    "asshole":1,
    "ohgood":1,
    "fight":1,
    "egotrip":1,
    "job":1,
    "gross":1,
    "scared":1,
    "lives":1,
    "todays":1,
    "agenda":1,
    "evisceration":1,
    "missed":1,
    "keeps":1,
    "whatre":1,
    "gamesshop":1,
    "somewhere":1,
    "sell":1,
    "jigsaw":1,
    "gbye":1,
    "whose":1,
    "awake":2,
    "make":2,
    "steve":2,
    "worry":2,
    "expert":2,
    "full":2,
    "talked":2,
    "none":2,
    "kucich":2,
    "one":2,
    "send":2,
    "move":2,
    "ladies":2,
    "gentlemen":2,
    "knife":2,
    "far":2,
    "psychosis":2,
    "isolates":2,
    "surgery":2,
    "part":2,
    "over":2,
    "whatever":2,
    "solved":2,
    "door":2,
    "detective":2,
    "macrae":2,
    "id":2,
    "alone":2,
    "shame":2,
    "tomorrow":2,
    "died":2,
    "moment":2,
    "nearly":2,
    "call":2,
    "yet":2,
    "truth":2,
    "escaped":2,
    "speak":2,
    "anyone":2,
    "matter":2,
    "almost":2,
    "complete":2,
    "hasnt":2,
    "said":2,
    "today":2,
    "name":2,
    "understand":2,
    "noone":2,
    "fine":2,
    "thank":2,
    "friend":2,
    "allowed":2,
    "isnt":2,
    "woman":2,
    "attitude":2,
    "because":2,
    "seconds":2,
    "thing":2,
    "would":2,
    "poor":2,
    "mother":2,
    "nice":2,
    "try":2,
    "bitch":2,
    "certainly":2,
    "hands":2,
    "room":2,
    "really":2,
    "sweet":2,
    "wasnt":2,
    "perhaps":2,
    "free":2,
    "flesh":2,
    "such":2,
    "show":2,
    "puzzle":2,
    "day":2,
    "behind":2,
    "known":2,
    "shouldve":2,
    "daddys":2,
    "trick":2,
    "belongs":2,
    "pure":2,
    "even":2,
    "when":2,
    "family":2,
    "promises":2,
    "charge":2,
    "havent":2,
    "babe":2,
    "personal":2,
    "world":2,
    "mind":2,
    "fuck":2,
    "before":2,
    "0k":2,
    "cmon":2,
    "faster":2,
    "deals":2,
    "girls":2,
    "finish":2,
    "am":3,
    "hospital":3,
    "feel":3,
    "place":3,
    "bring":3,
    "hes":3,
    "home":3,
    "story":3,
    "talking":3,
    "thought":3,
    "demons":3,
    "though":3,
    "anyway":3,
    "from":3,
    "someone":3,
    "up":3,
    "often":3,
    "analysis":3,
    "course":3,
    "some":3,
    "say":3,
    "years":3,
    "dr":3,
    "new":3,
    "easy":3,
    "quite":3,
    "malahides":3,
    "doesnt":3,
    "wrong":3,
    "if":3,
    "should":3,
    "whats":3,
    "these":3,
    "feeling":3,
    "save":3,
    "other":3,
    "listen":3,
    "or":3,
    "uncle":3,
    "much":3,
    "own":3,
    "stop":3,
    "boxes":3,
    "told":3,
    "minute":3,
    "fucking":3,
    "father":3,
    "done":3,
    "trust":3,
    "child":3,
    "play":3,
    "teasing":3,
    "an":3,
    "stay":3,
    "bastard":3,
    "whole":3,
    "itll":3,
    "information":3,
    "hey":4,
    "remember":4,
    "ronson":4,
    "two":4,
    "take":4,
    "his":4,
    "huh":4,
    "true":4,
    "little":4,
    "weve":4,
    "human":4,
    "mattress":4,
    "real":4,
    "bad":4,
    "than":4,
    "puzzles":4,
    "doing":4,
    "things":4,
    "very":4,
    "saw":4,
    "must":4,
    "girl":4,
    "too":4,
    "again":4,
    "something":4,
    "lets":4,
    "sure":4,
    "crazy":4,
    "let":4,
    "down":4,
    "as":4,
    "time":4,
    "knew":4,
    "love":4,
    "baby":4,
    "never":4,
    "ah":5,
    "good":5,
    "then":5,
    "had":5,
    "only":5,
    "need":5,
    "will":5,
    "terrible":5,
    "still":5,
    "off":5,
    "cant":5,
    "right":5,
    "please":5,
    "way":5,
    "youd":5,
    "open":5,
    "tell":6,
    "who":6,
    "thats":6,
    "why":6,
    "talk":6,
    "youve":6,
    "enough":6,
    "ive":6,
    "could":6,
    "always":6,
    "christ":6,
    "wanted":6,
    "loved":6,
    "him":7,
    "house":7,
    "them":7,
    "box":7,
    "they":7,
    "believe":7,
    "shes":7,
    "she":7,
    "want":7,
    "there":7,
    "julia":7,
    "ill":8,
    "malahide":8,
    "about":8,
    "look":8,
    "see":8,
    "god":8,
    "at":9,
    "with":9,
    "mean":9,
    "been":9,
    "hell":10,
    "sorry":10,
    "think":10,
    "frank":10,
    "how":10,
    "were":10,
    "yeah":11,
    "her":11,
    "going":11,
    "got":12,
    "like":12,
    "more":12,
    "us":12,
    "doctor":12,
    "out":12,
    "shit":13,
    "didnt":13,
    "all":13,
    "so":13,
    "wait":13,
    "well":14,
    "ok":14,
    "was":14,
    "now":14,
    "that":14,
    "help":14,
    "daddy":15,
    "youre":15,
    "back":15,
    "jesus":15,
    "not":15,
    "kyle":15,
    "on":16,
    "can":16,
    "yes":16,
    "get":17,
    "tiffany":17,
    "my":18,
    "for":18,
    "be":18,
    "just":19,
    "your":19,
    "are":19,
    "go":19,
    "kirsty":20,
    "but":20,
    "he":22,
    "know":23,
    "in":23,
    "have":23,
    "we":24,
    "this":25,
    "oh":26,
    "come":27,
    "dont":27,
    "here":28,
    "is":28,
    "im":29,
    "of":29,
    "do":30,
    "what":36,
    "its":38,
    "no":39,
    "a":41,
    "me":41,
    "and":41,
    "":42,
    "it":56,
    "the":69,
    "i":81,
    "to":84,
    "you":132
}