{
    "truck":1,
    "unhooking":1,
    "bring":1,
    "says":1,
    "beg":1,
    "pardon":1,
    "brought":1,
    "sold":1,
    "deal":1,
    "tony":1,
    "bought":1,
    "pink":1,
    "slip":1,
    "dustin":1,
    "ow":1,
    "window":1,
    "himself":1,
    "loose":1,
    "plenty":1,
    "everyday":1,
    "neither":1,
    "patient":1,
    "buy":1,
    "cerisola":1,
    "cimino":1,
    "cody":1,
    "cooper":1,
    "early":1,
    "edgerton":1,
    "fletcher":1,
    "forneys":1,
    "folks":1,
    "fullwood":1,
    "greenberg":1,
    "herriman":1,
    "kelman":1,
    "mcdonald":1,
    "mohajer":1,
    "nanden":1,
    "paonessa":1,
    "saunders":1,
    "sumner":1,
    "sup":1,
    "punk":1,
    "pull":1,
    "readjust":1,
    "tolerate":1,
    "behavior":1,
    "willing":1,
    "benefit":1,
    "fights":1,
    "react":1,
    "punched":1,
    "kicked":1,
    "slack":1,
    "halfway":1,
    "suspending":1,
    "promise":1,
    "effort":1,
    "noticing":1,
    "pumpkin":1,
    "darkness":1,
    "glasses":1,
    "mine":1,
    "whose":1,
    "geez":1,
    "eyes":1,
    "poor":1,
    "gotten":1,
    "far":1,
    "worrying":1,
    "knocked":1,
    "happen":1,
    "heres":1,
    "whistle":1,
    "six":1,
    "oclock":1,
    "lay":1,
    "question":1,
    "answer":1,
    "albert":1,
    "einstein":1,
    "interviewed":1,
    "tasting":1,
    "liked":1,
    "whoa":1,
    "eight":1,
    "sock":1,
    "wrist":1,
    "discomfort":1,
    "strange":1,
    "normal":1,
    "spose":1,
    "write":1,
    "note":1,
    "consider":1,
    "serve":1,
    "narrative":1,
    "fiction":1,
    "suggest":1,
    "serving":1,
    "forward":1,
    "collect":1,
    "class":1,
    "protagonist":1,
    "premonitions":1,
    "desires":1,
    "nightmares":1,
    "perhaps":1,
    "creams":1,
    "melting":1,
    "hero":1,
    "spend":1,
    "fact":1,
    "news":1,
    "being":1,
    "beat":1,
    "parking":1,
    "selfish":1,
    "whoaaa":1,
    "perfect":1,
    "super":1,
    "recently":1,
    "acquired":1,
    "taste":1,
    "secretly":1,
    "loved":1,
    "glad":1,
    "hypocrite":1,
    "dumping":1,
    "supermarket":1,
    "everything":1,
    "dadll":1,
    "tear":1,
    "crisco":1,
    "busy":1,
    "names":1,
    "smoking":1,
    "channels":1,
    "nope":1,
    "motherfucker":1,
    "dinner":1,
    "hungry":1,
    "practice":1,
    "guitar":1,
    "music":1,
    "grandfather":1,
    "played":1,
    "harmonica":1,
    "glass":1,
    "orange":1,
    "juice":1,
    "cook":1,
    "eggs":1,
    "sale":1,
    "taxes":1,
    "registration":1,
    "adm":1,
    "dealers":1,
    "fees":1,
    "drivers":1,
    "license":1,
    "valid":1,
    "street":1,
    "legal":1,
    "reasons":1,
    "enthusiasm":1,
    "goin":1,
    "replacement":1,
    "cream":1,
    "sweet":1,
    "imitation":1,
    "brand":1,
    "stuck":1,
    "roof":1,
    "swallow":1,
    "herself":1,
    "13":1,
    "google":1,
    "granny":1,
    "killer":1,
    "strangling":1,
    "panties":1,
    "necessarily":1,
    "dudes":1,
    "asks":1,
    "rape":1,
    "uh":1,
    "pissing":1,
    "putting":1,
    "prick":1,
    "birthday":1,
    "everyone":1,
    "transformational":1,
    "grief":1,
    "meryl":1,
    "circle":1,
    "introducing":1,
    "ourselves":1,
    "briefly":1,
    "explaining":1,
    "bolder":1,
    "husband":1,
    "daughter":1,
    "cynthia":1,
    "murdered":1,
    "victim":1,
    "violent":1,
    "attack":1,
    "unfair":1,
    "baby":1,
    "broken":1,
    "answers":1,
    "terms":1,
    "guidance":1,
    "nicholas":1,
    "special":1,
    "stick":1,
    "stand":1,
    "watch":1,
    "clothes":1,
    "stereo":1,
    "insane":1,
    "locked":1,
    "ditched":1,
    "somethings":1,
    "thomas":1,
    "questions":1,
    "meantime":1,
    "warning":1,
    "regardless":1,
    "evidence":1,
    "hearing":1,
    "crimes":1,
    "presented":1,
    "burned":1,
    "manslaughter":1,
    "possibly":1,
    "detectives":1,
    "homicide":1,
    "felony":1,
    "jailtime":1,
    "howdy":1,
    "pigs":1,
    "cavity":1,
    "search":1,
    "butthole":1,
    "took":1,
    "prints":1,
    "lightly":1,
    "considered":1,
    "badass":1,
    "best":1,
    "chinese":1,
    "thingies":1,
    "bald":1,
    "strip":1,
    "70s":1,
    "jungle":1,
    "half":1,
    "closer":1,
    "ashamed":1,
    "humans":1,
    "poking":1,
    "vagina":1,
    "hundreds":1,
    "longer":1,
    "pussy":1,
    "5":1,
    "15":1,
    "silly":1,
    "pool":1,
    "control":1,
    "foolish":1,
    "irresponsible":1,
    "gay":1,
    "shush":1,
    "whoops":1,
    "messed":1,
    "stupid":1,
    "idiot":1,
    "stopped":1,
    "reversed":1,
    "reverse":1,
    "retarded":1,
    "cocksucker":1,
    "sexy":1,
    "girlfriends":1,
    "suddenly":1,
    "discover":1,
    "ways":1,
    "drunk":1,
    "tit":1,
    "foot":1,
    "rubbing":1,
    "cum":1,
    "forgetting":1,
    "tongues":1,
    "hurting":1,
    "tired":1,
    "working":1,
    "fingering":1,
    "jerk":1,
    "everyones":1,
    "winner":1,
    "perverted":1,
    "metaphor":1,
    "step":1,
    "themselves":1,
    "dirt":1,
    "uncles":1,
    "r2":1,
    "fucken":1,
    "renting":1,
    "realize":1,
    "equivalent":1,
    "flicking":1,
    "ant":1,
    "giant":1,
    "ball":1,
    "100":1,
    "miles":1,
    "thrown":1,
    "christ":1,
    "jump":1,
    "bitches":1,
    "doctors":1,
    "appointment":1,
    "burns":1,
    "urinate":1,
    "shoes":1,
    "squishy":1,
    "mad":1,
    "freaking":1,
    "fix":1,
    "joke":1,
    "giving":1,
    "checkout":1,
    "rent":1,
    "selling":1,
    "bucks":1,
    "sad":1,
    "use":1,
    "ticket":1,
    "done":1,
    "deserve":1,
    "chain":1,
    "reaction":1,
    "died":1,
    "mainly":1,
    "steer":1,
    "push":1,
    "counselling":1,
    "330":1,
    "forgot":1,
    "waited":1,
    "45":1,
    "beanbag":1,
    "losers":1,
    "punishing":1,
    "lack":1,
    "responsibility":1,
    "escort":1,
    "police":1,
    "dragged":1,
    "underpants":1,
    "dumb":1,
    "knew":1,
    "somewhere":1,
    "smile":1,
    "delicious":1,
    "worm":1,
    "lie":1,
    "favor":1,
    "tin":1,
    "cabinet":1,
    "kermit":1,
    "frogs":1,
    "piggy":1,
    "woah":1,
    "medical":1,
    "cigarettes":1,
    "nausea":1,
    "match":1,
    "bong":1,
    "water":1,
    "filters":1,
    "weed":1,
    "thumb":1,
    "once":1,
    "chamber":1,
    "fills":1,
    "umm":1,
    "lift":1,
    "wow":1,
    "seem":1,
    "older":1,
    "limit":1,
    "items":1,
    "available":1,
    "abundance":1,
    "become":1,
    "prey":1,
    "depending":1,
    "growth":1,
    "diet":1,
    "shape":1,
    "tried":1,
    "smack":1,
    "curled":1,
    "crying":1,
    "corner":1,
    "ruled":1,
    "weeks":1,
    "tiny":1,
    "sit":1,
    "miniature":1,
    "lawn":1,
    "chair":1,
    "scratching":1,
    "shelling":1,
    "peanuts":1,
    "feed":1,
    "brave":1,
    "starved":1,
    "block":1,
    "ohh":1,
    "caauuse":1,
    "iii":1,
    "send":1,
    "scott":1,
    "none":1,
    "business":1,
    "kidding":1,
    "already":1,
    "makes":1,
    "waking":1,
    "nicole":1,
    "message":1,
    "bug":1,
    "drop":1,
    "hitting":1,
    "whore":1,
    "chill":1,
    "smash":1,
    "ugly":1,
    "complimentary":1,
    "upgrade":1,
    "soda":1,
    "sandwiches":1,
    "arrange":1,
    "typically":1,
    "bite":1,
    "gods":1,
    "m":1,
    "motherfuckers":1,
    "toes":1,
    "bridge":1,
    "else":1,
    "visiting":1,
    "saved":1,
    "against":1,
    "pizza":1,
    "grab":1,
    "holy":1,
    "crap":1,
    "slight":1,
    "keep":1,
    "idea":1,
    "gift":1,
    "bottle":1,
    "scotch":1,
    "flowers":1,
    "radio":1,
    "goodies":1,
    "crushed":1,
    "ten":1,
    "fair":1,
    "case":1,
    "apologize":1,
    "consideration":1,
    "round":1,
    "broke":1,
    "lamp":1,
    "couple":1,
    "discuss":1,
    "discussed":1,
    "preferences":1,
    "aspects":1,
    "choice":1,
    "cedar":1,
    "covered":1,
    "chosen":1,
    "extra":1,
    "charge":1,
    "proceed":1,
    "sign":1,
    "bottom":1,
    "following":1,
    "rushed":1,
    "pump":1,
    "heads":1,
    "ear":1,
    "gathered":1,
    "mourn":1,
    "loss":1,
    "commemorate":1,
    "frances":1,
    "seats":1,
    "thatd":1,
    "beloved":1,
    "mrs":1,
    "rosowski":1,
    "neighbor":1,
    "quick":1,
    "moment":1,
    "neighborhood":1,
    "treated":1,
    "arms":1,
    "welcomed":1,
    "kindly":1,
    "own":1,
    "such":1,
    "shared":1,
    "enjoyed":1,
    "talks":1,
    "shelter":1,
    "place":1,
    "love":1,
    "conclude":1,
    "moments":1,
    "add":1,
    "speech":1,
    "box":1,
    "farewell":1,
    "shithole":1,
    "break":1,
    "pulled":1,
    "chevy":1,
    "blow":1,
    "millions":1,
    "bits":1,
    "metal":1,
    "fly":1,
    "direction":1,
    "almost":1,
    "woke":1,
    "hospital":1,
    "cunt":1,
    "blew":1,
    "shrapnel":1,
    "scrotal":1,
    "ripped":1,
    "furry":1,
    "sucker":1,
    "assaulted":1,
    "nurse":1,
    "arrested":1,
    "sent":1,
    "sleep":1,
    "busted":1,
    "looked":1,
    "staring":1,
    "flabby":1,
    "piece":1,
    "noticed":1,
    "happy":1,
    "along":1,
    "realized":1,
    "devil":1,
    "whoever":1,
    "lose":1,
    "nuts":1,
    "promised":1,
    "chance":1,
    "pig":1,
    "recognize":1,
    "bill":2,
    "wasnt":2,
    "yesterday":2,
    "telling":2,
    "applesauce":2,
    "stay":2,
    "front":2,
    "anymore":2,
    "conversation":2,
    "couch":2,
    "healthy":2,
    "pills":2,
    "lunch":2,
    "hope":2,
    "seconds":2,
    "bullshit":2,
    "tough":2,
    "heard":2,
    "bitch":2,
    "doubt":2,
    "starting":2,
    "pushed":2,
    "office":2,
    "real":2,
    "listening":2,
    "damage":2,
    "read":2,
    "reading":2,
    "learn":2,
    "sleeping":2,
    "course":2,
    "milk":2,
    "salt":2,
    "food":2,
    "week":2,
    "pain":2,
    "weird":2,
    "days":2,
    "lookin":2,
    "hows":2,
    "probably":2,
    "metaphoric":2,
    "function":2,
    "bleeding":2,
    "believe":2,
    "ice":2,
    "basically":2,
    "rest":2,
    "gas":2,
    "landing":2,
    "stuff":2,
    "ones":2,
    "hoping":2,
    "em":2,
    "appreciate":2,
    "bike":2,
    "dunno":2,
    "dads":2,
    "skull":2,
    "invited":2,
    "impression":2,
    "asked":2,
    "play":2,
    "till":2,
    "afterwards":2,
    "product":2,
    "four":2,
    "garage":2,
    "figured":2,
    "including":2,
    "top":2,
    "guessing":2,
    "million":2,
    "mind":2,
    "lucky":2,
    "paid":2,
    "silence":2,
    "itd":2,
    "fresh":2,
    "goes":2,
    "walking":2,
    "ass":2,
    "hella":2,
    "penetrated":2,
    "sick":2,
    "fucks":2,
    "itll":2,
    "late":2,
    "family":2,
    "coleen":2,
    "year":2,
    "tjs":2,
    "than":2,
    "months":2,
    "ago":2,
    "introduce":2,
    "words":2,
    "toilet":2,
    "bath":2,
    "seriously":2,
    "door":2,
    "cops":2,
    "weve":2,
    "offences":2,
    "dumpling":2,
    "stalking":2,
    "saying":2,
    "bro":2,
    "wanting":2,
    "minutes":2,
    "rip":2,
    "dick":2,
    "pay":2,
    "driving":2,
    "saw":2,
    "liar":2,
    "ridiculous":2,
    "worse":2,
    "chicks":2,
    "twat":2,
    "asshole":2,
    "girl":2,
    "others":2,
    "eventually":2,
    "stepped":2,
    "eating":2,
    "compactors":2,
    "detention":2,
    "level":2,
    "hit":2,
    "next":2,
    "ants":2,
    "behind":2,
    "afford":2,
    "hours":2,
    "cover":2,
    "die":2,
    "outside":2,
    "difference":2,
    "big":2,
    "full":2,
    "word":2,
    "angry":2,
    "plate":2,
    "wish":2,
    "nauseated":2,
    "figure":2,
    "hang":2,
    "most":2,
    "hole":2,
    "hanging":2,
    "might":2,
    "fed":2,
    "dropped":2,
    "wouldnt":2,
    "cage":2,
    "balls":2,
    "scared":2,
    "another":2,
    "hide":2,
    "phone":2,
    "present":2,
    "rain":2,
    "lemonade":2,
    "wreckers":2,
    "sunrise":2,
    "pizzas":2,
    "microwave":2,
    "presents":2,
    "oldies":2,
    "ricky":2,
    "kill":2,
    "track":2,
    "heshers":2,
    "feelings":2,
    "excuse":2,
    "mr":2,
    "todays":2,
    "casket":2,
    "company":2,
    "unfortunately":2,
    "mahogany":2,
    "under":2,
    "yours":2,
    "agnes":2,
    "heart":2,
    "walks":2,
    "goodbye":2,
    "cause":2,
    "sack":2,
    "juvie":2,
    "missing":2,
    "plan":2,
    "huh":3,
    "order":3,
    "supposed":3,
    "anywhere":3,
    "needs":3,
    "afternoon":3,
    "wants":3,
    "outta":3,
    "ya":3,
    "works":3,
    "boys":3,
    "matter":3,
    "taking":3,
    "nothing":3,
    "five":3,
    "fucked":3,
    "hell":3,
    "moved":3,
    "while":3,
    "whatd":3,
    "isnt":3,
    "important":3,
    "part":3,
    "language":3,
    "meet":3,
    "youll":3,
    "looking":3,
    "sucked":3,
    "better":3,
    "jesus":3,
    "mother":3,
    "ready":3,
    "either":3,
    "pass":3,
    "job":3,
    "feels":3,
    "few":3,
    "yourself":3,
    "dreams":3,
    "dead":3,
    "finished":3,
    "called":3,
    "least":3,
    "death":3,
    "station":3,
    "black":3,
    "sour":3,
    "making":3,
    "ladies":3,
    "sort":3,
    "ride":3,
    "head":3,
    "wonderful":3,
    "doctor":3,
    "theyd":3,
    "earlier":3,
    "instead":3,
    "later":3,
    "only":3,
    "hello":3,
    "years":3,
    "clear":3,
    "though":3,
    "eighteen":3,
    "insurance":3,
    "served":3,
    "hardly":3,
    "air":3,
    "bed":3,
    "hour":3,
    "raped":3,
    "ever":3,
    "fire":3,
    "whole":3,
    "jack":3,
    "trying":3,
    "touch":3,
    "wed":3,
    "may":3,
    "calling":3,
    "attention":3,
    "murder":3,
    "`not":3,
    "trouble":3,
    "show":3,
    "totally":3,
    "poke":3,
    "clam":3,
    "away":3,
    "trash":3,
    "long":3,
    "wonder":3,
    "care":3,
    "smashed":3,
    "green":3,
    "slimy":3,
    "smells":3,
    "bacon":3,
    "hold":3,
    "possible":3,
    "minute":3,
    "whatever":3,
    "tank":3,
    "every":3,
    "bye":3,
    "wake":3,
    "um":3,
    "prostitute":3,
    "both":3,
    "assholes":3,
    "hands":3,
    "lying":3,
    "friends":3,
    "quickly":3,
    "has":4,
    "mistake":4,
    "youve":4,
    "open":4,
    "having":4,
    "first":4,
    "tomorrow":4,
    "try":4,
    "mom":4,
    "nose":4,
    "anyone":4,
    "whos":4,
    "welcome":4,
    "through":4,
    "sweetheart":4,
    "turn":4,
    "light":4,
    "end":4,
    "bit":4,
    "alright":4,
    "ask":4,
    "life":4,
    "after":4,
    "arent":4,
    "happened":4,
    "those":4,
    "way":4,
    "laundry":4,
    "mouth":4,
    "wait":4,
    "cherry":4,
    "story":4,
    "fluffo":4,
    "gotta":4,
    "cars":4,
    "hundred":4,
    "dollars":4,
    "over":4,
    "grandmas":4,
    "killed":4,
    "fingers":4,
    "second":4,
    "group":4,
    "hurt":4,
    "shes":4,
    "chick":4,
    "night":4,
    "girls":4,
    "each":4,
    "wrecking":4,
    "yard":4,
    "guys":4,
    "notice":4,
    "times":4,
    "grandmother":4,
    "near":4,
    "went":4,
    "thinking":4,
    "left":4,
    "kid":5,
    "problem":5,
    "paul":5,
    "means":5,
    "cmon":5,
    "serious":5,
    "doesnt":5,
    "last":5,
    "getting":5,
    "fight":5,
    "lot":5,
    "anything":5,
    "understand":5,
    "listen":5,
    "wont":5,
    "pretty":5,
    "people":5,
    "wet":5,
    "anyway":5,
    "home":5,
    "feeling":5,
    "red":5,
    "crazy":5,
    "cuz":5,
    "around":5,
    "two":5,
    "swear":5,
    "remember":5,
    "hesher":5,
    "call":5,
    "friend":5,
    "thought":5,
    "coming":5,
    "hand":5,
    "thank":5,
    "find":5,
    "finger":5,
    "shut":5,
    "theyre":5,
    "myself":5,
    "snakes":5,
    "mice":5,
    "who":6,
    "dad":6,
    "sell":6,
    "son":6,
    "id":6,
    "money":6,
    "nice":6,
    "fine":6,
    "point":6,
    "cock":6,
    "bad":6,
    "sitting":6,
    "new":6,
    "yet":6,
    "sometimes":6,
    "things":6,
    "their":6,
    "dirty":6,
    "kinda":6,
    "soon":6,
    "help":6,
    "hate":6,
    "fat":6,
    "wheres":6,
    "face":6,
    "make":6,
    "wanted":6,
    "never":6,
    "hes":6,
    "many":6,
    "morning":6,
    "van":6,
    "man":6,
    "someone":6,
    "service":6,
    "madeleine":6,
    "work":7,
    "made":7,
    "forney":7,
    "teej":7,
    "kind":7,
    "start":7,
    "which":7,
    "much":7,
    "does":7,
    "great":7,
    "mean":7,
    "smoke":7,
    "wife":7,
    "walk":7,
    "youd":7,
    "sir":7,
    "very":7,
    "enough":7,
    "us":7,
    "miss":7,
    "lost":7,
    "wrong":7,
    "talking":8,
    "stop":8,
    "guy":8,
    "name":8,
    "down":8,
    "before":8,
    "thing":8,
    "cut":8,
    "alone":8,
    "give":8,
    "hear":8,
    "actually":8,
    "am":8,
    "feel":8,
    "any":8,
    "lady":8,
    "yes":8,
    "because":8,
    "let":8,
    "into":8,
    "them":9,
    "today":9,
    "school":9,
    "suck":9,
    "maybe":9,
    "these":9,
    "always":9,
    "an":9,
    "god":9,
    "cake":9,
    "too":9,
    "by":10,
    "house":10,
    "wanna":10,
    "day":10,
    "our":10,
    "room":10,
    "snake":10,
    "came":11,
    "put":11,
    "told":11,
    "thanks":11,
    "couldnt":11,
    "guess":11,
    "leave":11,
    "ive":11,
    "honey":11,
    "talk":12,
    "lets":12,
    "dude":12,
    "little":12,
    "more":12,
    "please":12,
    "used":12,
    "could":12,
    "gone":12,
    "she":12,
    "theres":13,
    "still":13,
    "take":13,
    "dear":13,
    "hi":13,
    "even":13,
    "something":13,
    "old":13,
    "ill":13,
    "from":14,
    "look":14,
    "when":14,
    "tell":14,
    "grandma":14,
    "good":14,
    "sure":14,
    "other":14,
    "mouse":14,
    "nut":14,
    "will":15,
    "need":15,
    "him":16,
    "as":16,
    "eat":16,
    "again":17,
    "see":17,
    "right":17,
    "been":18,
    "whats":18,
    "then":18,
    "say":18,
    "should":18,
    "said":18,
    "up":19,
    "had":19,
    "shit":19,
    "her":19,
    "where":20,
    "got":20,
    "ah":20,
    "his":20,
    "how":20,
    "they":20,
    "some":21,
    "cant":21,
    "did":21,
    "well":22,
    "all":22,
    "sorry":22,
    "there":23,
    "why":23,
    "at":23,
    "one":23,
    "would":23,
    "fucking":23,
    "come":24,
    "fuckin":24,
    "off":24,
    "were":24,
    "gonna":25,
    "going":25,
    "oh":25,
    "youre":26,
    "now":26,
    "car":27,
    "time":27,
    "or":27,
    "no":27,
    "hey":28,
    "can":28,
    "thats":29,
    "doing":30,
    "tj":30,
    "didnt":30,
    "really":30,
    "":31,
    "think":32,
    "if":34,
    "yeah":34,
    "be":34,
    "go":35,
    "back":35,
    "he":35,
    "out":35,
    "we":36,
    "want":36,
    "with":41,
    "its":42,
    "about":43,
    "get":43,
    "is":44,
    "fuck":45,
    "on":46,
    "but":48,
    "have":48,
    "like":48,
    "was":49,
    "not":50,
    "so":52,
    "ok":55,
    "here":56,
    "for":56,
    "this":57,
    "do":57,
    "are":62,
    "your":64,
    "in":71,
    "my":72,
    "just":73,
    "of":78,
    "that":81,
    "know":81,
    "me":85,
    "im":88,
    "dont":90,
    "what":115,
    "it":134,
    "and":142,
    "a":143,
    "to":192,
    "the":202,
    "you":362,
    "i":378
}