{
    "wildest":1,
    "bang":1,
    "fiancee":1,
    "playful":1,
    "teenagers":1,
    "20somethings":1,
    "married":1,
    "partying":1,
    "gear":1,
    "stuffing":1,
    "faces":1,
    "beers":1,
    "pub":1,
    "six":1,
    "ignore":1,
    "packing":1,
    "leafs":1,
    "changes":1,
    "smoking":1,
    "ambushed":1,
    "instructor":1,
    "17":1,
    "boobs":1,
    "sweetie":1,
    "cardboard":1,
    "empties":1,
    "onto":1,
    "fifty":1,
    "porno":1,
    "magazines":1,
    "spill":1,
    "ranging":1,
    "tits":1,
    "monthly":1,
    "hid":1,
    "treasure":1,
    "carefully":1,
    "wanting":1,
    "touch":1,
    "explain":1,
    "pov":1,
    "featuring":1,
    "occasionally":1,
    "reminisce":1,
    "okeefe":1,
    "gross":1,
    "mother":1,
    "possibility":1,
    "total":1,
    "strangers":1,
    "accident":1,
    "lady":1,
    "fooled":1,
    "kidding":1,
    "suggesting":1,
    "hall":1,
    "character":1,
    "removes":1,
    "sexy":1,
    "building":1,
    "cheerleading":1,
    "camp":1,
    "ended":1,
    "sweaty":1,
    "clothes":1,
    "unbuttons":1,
    "jeans":1,
    "mmmm":1,
    "tight":1,
    "firm":1,
    "continue":1,
    "role":1,
    "play":1,
    "saunters":1,
    "bedroom":1,
    "riled":1,
    "front":1,
    "donut":1,
    "spills":1,
    "rug":1,
    "ow":1,
    "clean":1,
    "mailman":1,
    "delivery":1,
    "drips":1,
    "blindly":1,
    "steps":1,
    "marry":1,
    "drums":1,
    "whatevers":1,
    "radio":1,
    "twist":1,
    "ankle":1,
    "expecting":1,
    "reaction":1,
    "pockets":1,
    "anxiety":1,
    "women":1,
    "trepidatious":1,
    "cute":1,
    "leans":1,
    "nuzzle":1,
    "noses":1,
    "display":1,
    "affection":1,
    "iphone":1,
    "shits":1,
    "send":1,
    "window":1,
    "psyched":1,
    "ditto":1,
    "responsible":1,
    "member":1,
    "society":1,
    "career":1,
    "sufficiency":1,
    "bowling":1,
    "builtin":1,
    "sensitive":1,
    "buying":1,
    "snacks":1,
    "sale":1,
    "bought":1,
    "wi":1,
    "click":1,
    "chain":1,
    "bald":1,
    "miserablelooking":1,
    "30s":1,
    "carrying":1,
    "shopping":1,
    "transient":1,
    "motel":1,
    "purple":1,
    "elephant":1,
    "whatd":1,
    "belongings":1,
    "bum":1,
    "cuckold":1,
    "husband":1,
    "offensive":1,
    "oversensitive":1,
    "garbage":1,
    "shut":1,
    "attorney":1,
    "giving":1,
    "referral":1,
    "likes":1,
    "slaughter":1,
    "boo":1,
    "drive":1,
    "dirty":1,
    "fancy":1,
    "soaps":1,
    "metrosexual":1,
    "trains":1,
    "lifes":1,
    "potential":1,
    "homeless":1,
    "distractedly":1,
    "texts":1,
    "aspen":1,
    "vermonts":1,
    "lifeblood":1,
    "drained":1,
    "ugly":1,
    "dying":1,
    "exotic":1,
    "disease":1,
    "causes":1,
    "bleed":1,
    "crapper":1,
    "albany":1,
    "aids":1,
    "monkey":1,
    "toilets":1,
    "sandwiches":1,
    "lauries":1,
    "forever":1,
    "sacrifice":1,
    "agreeing":1,
    "sexual":1,
    "history":1,
    "fourth":1,
    "fifth":1,
    "averaging":1,
    "eight":1,
    "assuming":1,
    "distasteful":1,
    "growing":1,
    "responsibility":1,
    "boooooring":1,
    "confusing":1,
    "excited":1,
    "trail":1,
    "tail":1,
    "ohhhh":1,
    "gotcha":1,
    "winking":1,
    "coolest":1,
    "tgi":1,
    "fridays":1,
    "advertising":1,
    "hannah":1,
    "montana":1,
    "3d":1,
    "utterly":1,
    "goodbye":1,
    "climbs":1,
    "twisty":1,
    "paradise":1,
    "strip":1,
    "rounds":1,
    "reads":1,
    "climb":1,
    "pinkberry":1,
    "games":1,
    "grandma":1,
    "skews":1,
    "captain":1,
    "america":1,
    "tipped":1,
    "lies":1,
    "continuation":1,
    "far":1,
    "smells":1,
    "mold":1,
    "foxwoods":1,
    "appreciating":1,
    "optimism":1,
    "stephen":1,
    "king":1,
    "novel":1,
    "slopes":1,
    "change":1,
    "shame":1,
    "whens":1,
    "buys":1,
    "round":1,
    "dunno":1,
    "representative":1,
    "calling":1,
    "uncle":1,
    "tom":1,
    "grassy":1,
    "amex":1,
    "organizing":1,
    "fr":1,
    "collect":1,
    "spice":1,
    "chili":1,
    "sauce":1,
    "waiter":1,
    "propose":1,
    "speaking":1,
    "wifes":1,
    "mouths":1,
    "promise":1,
    "try":1,
    "backhanded":1,
    "graciousness":1,
    "halfheartedly":1,
    "hug":1,
    "appears":1,
    "clears":1,
    "throat":1,
    "roasts":1,
    "suggest":1,
    "peking":1,
    "duck":1,
    "spicy":1,
    "noisy":1,
    "guests":1,
    "food":1,
    "chewing":1,
    "kung":1,
    "pau":1,
    "pairs":1,
    "nicely":1,
    "97":1,
    "cab":1,
    "impressive":1,
    "forks":1,
    "cathartically":1,
    "intentions":1,
    "due":1,
    "snaps":1,
    "fingers":1,
    "lightbulb":1,
    "napkin":1,
    "bother":1,
    "togo":1,
    "boxes":1,
    "appeal":1,
    "glorified":1,
    "trashed":1,
    "lure":1,
    "fashioned":1,
    "cracks":1,
    "pats":1,
    "skip":1,
    "amazing":1,
    "energized":1,
    "splashing":1,
    "consideration":1,
    "strips":1,
    "submerges":1,
    "loosen":1,
    "convinced":1,
    "cranks":1,
    "knob":1,
    "begin":1,
    "montage":1,
    "reel":1,
    "reals":1,
    "vitamin":1,
    "choices":1,
    "inspects":1,
    "claw":1,
    "marks":1,
    "bear":1,
    "showed":1,
    "laughed":1,
    "woods":1,
    "sneakers":1,
    "halfeaten":1,
    "puked":1,
    "starving":1,
    "gaze":1,
    "peak":1,
    "layer":1,
    "conditions":1,
    "miss":1,
    "billboards":1,
    "spacedout":1,
    "mel":1,
    "brooks":1,
    "film":1,
    "surfing":1,
    "max":1,
    "headroom":1,
    "tag":1,
    "terrier":1,
    "named":1,
    "spuds":1,
    "mckenzie":1,
    "babes":1,
    "bud":1,
    "improved":1,
    "headband":1,
    "easier":1,
    "watching":1,
    "cable":1,
    "package":1,
    "usual":1,
    "comforted":1,
    "wield":1,
    "familys":1,
    "wealth":1,
    "hangmans":1,
    "noose":1,
    "wistfully":1,
    "occasional":1,
    "decision":1,
    "lawn":1,
    "steak":1,
    "juice":1,
    "distance":1,
    "presently":1,
    "goggles":1,
    "scarface":1,
    "crockett":1,
    "obviously":1,
    "chill":1,
    "ridden":1,
    "heroin":1,
    "fidgeting":1,
    "poles":1,
    "push":1,
    "top":1,
    "flying":1,
    "slow":1,
    "safety":1,
    "zips":1,
    "changing":1,
    "slowing":1,
    "barely":1,
    "misses":1,
    "believing":1,
    "seeing":1,
    "loopy":1,
    "tooblond":1,
    "mirrorsunglasswearing":1,
    "feathered":1,
    "stripedjumpsuited":1,
    "serve":1,
    "knuckle":1,
    "airhead":1,
    "tickets":1,
    "revoked":1,
    "diplomatic":1,
    "immunity":1,
    "ripping":1,
    "jacket":1,
    "collar":1,
    "clenches":1,
    "fist":1,
    "meat":1,
    "snow":1,
    "snowboards":1,
    "triple":1,
    "venti":1,
    "nonfat":1,
    "lattes":1,
    "enamored":1,
    "wheels":1,
    "genius":1,
    "fag":1,
    "digging":1,
    "threads":1,
    "equally":1,
    "compliment":1,
    "deserves":1,
    "north":1,
    "ems":1,
    "works":1,
    "boner":1,
    "permanently":1,
    "breath":1,
    "mine":1,
    "ushers":1,
    "shoulders":1,
    "elated":1,
    "lovely":1,
    "roller":1,
    "skating":1,
    "ziplock":1,
    "dips":1,
    "gums":1,
    "weird":1,
    "nod":1,
    "volume":1,
    "airs":1,
    "dow":1,
    "jones":1,
    "industrial":1,
    "average":1,
    "closed":1,
    "2000":1,
    "today":1,
    "ruined":1,
    "tower":1,
    "commission":1,
    "rebuked":1,
    "president":1,
    "reagan":1,
    "controlling":1,
    "national":1,
    "security":1,
    "staff":1,
    "armsfor":1,
    "hostages":1,
    "iran":1,
    "1971":1,
    "commercial":1,
    "64":1,
    "computer":1,
    "jingle":1,
    "sings":1,
    "cause":1,
    "commodores":1,
    "calmly":1,
    "relax":1,
    "discussing":1,
    "words":1,
    "hang":1,
    "gel":1,
    "channel":1,
    "universe":1,
    "reverse":1,
    "itself":1,
    "satisfied":1,
    "knowitallness":1,
    "holes":1,
    "invisible":1,
    "upset":1,
    "ignoring":1,
    "ridiculousness":1,
    "absorbs":1,
    "dukakis":1,
    "affable":1,
    "suit":1,
    "coat":1,
    "sir":1,
    "ridiculous":1,
    "oclock":1,
    "confirm":1,
    "bellhop":1,
    "warn":1,
    "stage":1,
    "compete":1,
    "decide":1,
    "option":1,
    "bless":1,
    "country":1,
    "difference":1,
    "subdue":1,
    "bighaired":1,
    "brings":1,
    "buds":1,
    "bartles":1,
    "james":1,
    "stare":1,
    "museum":1,
    "artifact":1,
    "lipstick":1,
    "teeth":1,
    "sips":1,
    "available":1,
    "ordering":1,
    "realizing":1,
    "credit":1,
    "fake":1,
    "spots":1,
    "aged":1,
    "remarkably":1,
    "apologize":1,
    "inappropriate":1,
    "lurks":1,
    "creep":1,
    "keeps":1,
    "stealing":1,
    "glances":1,
    "control":1,
    "class":1,
    "recover":1,
    "suspect":1,
    "discretely":1,
    "writes":1,
    "address":1,
    "boss":1,
    "howd":1,
    "invited":1,
    "slams":1,
    "bam":1,
    "millionaires":1,
    "thousand":1,
    "couldve":1,
    "gotten":1,
    "progress":1,
    "lest":1,
    "lessons":1,
    "learned":1,
    "fair":1,
    "everyones":1,
    "wide":1,
    "simultaneously":1,
    "chimps":1,
    "2001":1,
    "fiddling":1,
    "knobs":1,
    "pushing":1,
    "magic":1,
    "angle":1,
    "widens":1,
    "reveal":1,
    "stoners":1,
    "joint":1,
    "chills":1,
    "ideas":1,
    "downs":1,
    "eye":1,
    "rental":1,
    "agency":1,
    "flux":1,
    "capacitor":1,
    "straps":1,
    "drivers":1,
    "passenger":1,
    "clutch":1,
    "deposit":1,
    "pigs":1,
    "88":1,
    "disappear":1,
    "thin":1,
    "speedometer":1,
    "75":1,
    "80":1,
    "85":1,
    "90":1,
    "95":1,
    "violently":1,
    "wonder":1,
    "court":1,
    "appearance":1,
    "four":1,
    "happily":1,
    "startled":1,
    "dweebs":1,
    "decks":1,
    "pummels":1,
    "floor":1,
    "tolerance":1,
    "intruders":1,
    "registered":1,
    "watch":1,
    "rolling":1,
    "845":1,
    "watches":1,
    "surprised":1,
    "wiped":1,
    "paces":1,
    "patton":1,
    "addressing":1,
    "troops":1,
    "worthless":1,
    "hertz":1,
    "nissan":1,
    "nixons":1,
    "moon":1,
    "school":1,
    "addresses":1,
    "directly":1,
    "somehow":1,
    "listening":1,
    "logic":1,
    "facing":1,
    "intently":1,
    "speech":1,
    "passionate":1,
    "climax":1,
    "freshman":1,
    "spends":1,
    "semester":1,
    "hiding":1,
    "dorm":1,
    "spring":1,
    "sweater":1,
    "jerkof":1,
    "f":1,
    "wanders":1,
    "leering":1,
    "groping":1,
    "feelings":1,
    "bodacious":1,
    "incredibly":1,
    "chic":1,
    "product":1,
    "blowing":1,
    "europe":1,
    "prague":1,
    "conscientious":1,
    "objector":1,
    "sharp":1,
    "mixes":1,
    "eager":1,
    "partygoers":1,
    "liquid":1,
    "tray":1,
    "cups":1,
    "attractive":1,
    "vodka":1,
    "hmm":1,
    "while":1,
    "delicious":1,
    "gelatin":1,
    "invented":1,
    "dreamily":1,
    "appreciate":1,
    "plays":1,
    "electric":1,
    "keyboard":1,
    "1520":1,
    "performing":1,
    "bases":1,
    "singing":1,
    "passionately":1,
    "aims":1,
    "drugs":1,
    "rant":1,
    "resents":1,
    "bands":1,
    "90s":1,
    "borrow":1,
    "tads":1,
    "document":1,
    "performance":1,
    "band":1,
    "infringement":1,
    "behaving":1,
    "cocks":1,
    "popular":1,
    "shower":1,
    "compliments":1,
    "gathers":1,
    "removed":1,
    "zen":1,
    "master":1,
    "blade":1,
    "stopping":1,
    "injury":1,
    "homemade":1,
    "bong":1,
    "rooting":1,
    "finishes":1,
    "couch":1,
    "confers":1,
    "answering":1,
    "bitch":1,
    "played":1,
    "nevertheless":1,
    "contorts":1,
    "uncomfortably":1,
    "verge":1,
    "currently":1,
    "consoles":1,
    "confer":1,
    "darkest":1,
    "crosses":1,
    "scary":1,
    "movies":1,
    "18":1,
    "ran":1,
    "theater":1,
    "poor":1,
    "strokes":1,
    "gently":1,
    "jerkoff":1,
    "gesture":1,
    "train":1,
    "baltimore":1,
    "summer":1,
    "businessman":1,
    "seventyfive":1,
    "suck":1,
    "storytelling":1,
    "piece":1,
    "mirror":1,
    "cut":1,
    "artery":1,
    "theheck":1,
    "neck":1,
    "pointing":1,
    "bled":1,
    "afterwards":1,
    "fortyseven":1,
    "giggles":1,
    "chair":1,
    "secluded":1,
    "kitchen":1,
    "popcorn":1,
    "mouth":1,
    "earning":1,
    "accolades":1,
    "devolves":1,
    "pierces":1,
    "pain":1,
    "gold":1,
    "straight":1,
    "browsing":1,
    "hosts":1,
    "cassette":1,
    "tape":1,
    "collection":1,
    "gulps":1,
    "guard":1,
    "tool":1,
    "instinctively":1,
    "liked":1,
    "known":1,
    "indicating":1,
    "came":1,
    "oneliners":1,
    "built":1,
    "break":1,
    "punch":1,
    "fights":1,
    "struggles":1,
    "accidentally":1,
    "releases":1,
    "screw":1,
    "yanks":1,
    "storms":1,
    "delightful":1,
    "lots":1,
    "fantastic":1,
    "undesirable":1,
    "prostitute":1,
    "sleeping":1,
    "hairy":1,
    "pointless":1,
    "condom":1,
    "neither":1,
    "condoms":1,
    "heaven":1,
    "pocket":1,
    "madman":1,
    "slaps":1,
    "roll":1,
    "calls":1,
    "oooh":1,
    "atlantic":1,
    "avenue":1,
    "cost":1,
    "token":1,
    "squares":1,
    "upgrade":1,
    "marvin":1,
    "gardens":1,
    "suite":1,
    "excellent":1,
    "buffet":1,
    "pool":1,
    "hanging":1,
    "called":1,
    "spazzy":1,
    "drop":1,
    "visit":1,
    "lived":1,
    "thrown":1,
    "nervously":1,
    "such":1,
    "cheek":1,
    "tab":1,
    "lingerie":1,
    "revealing":1,
    "heaving":1,
    "pushes":1,
    "doorway":1,
    "angry":1,
    "covered":1,
    "tissues":1,
    "lotion":1,
    "wakes":1,
    "among":1,
    "prettiest":1,
    "vaginaaaaaa":1,
    "domineering":1,
    "emotional":1,
    "shots":1,
    "everybody":1,
    "60k":1,
    "year":1,
    "cries":1,
    "princess":1,
    "registering":1,
    "receiver":1,
    "rabbit":1,
    "bodies":1,
    "passion":1,
    "courtneys":1,
    "picked":1,
    "repopped":1,
    "cherry":1,
    "celebratory":1,
    "manner":1,
    "whose":1,
    "catches":1,
    "closes":1,
    "lock":1,
    "converts":1,
    "sleeper":1,
    "grabbing":1,
    "crawl":1,
    "refuse":1,
    "accept":1,
    "stuck":1,
    "loving":1,
    "insane":1,
    "bigger":1,
    "joe":1,
    "becomes":1,
    "hero":1,
    "dig":1,
    "motivation":1,
    "courage":1,
    "necessary":1,
    "edge":1,
    "groundhog":1,
    "meaning":1,
    "licking":1,
    "puddle":1,
    "jumps":1,
    "vanishes":1,
    "low":1,
    "explode":1,
    "vanished":1,
    "um":1,
    "plugged":1,
    "clearly":1,
    "kittens":1,
    "split":1,
    "count":1,
    "browns":1,
    "3":1,
    "overtime":1,
    "touchdown":1,
    "interesting":1,
    "blowjob":1,
    "classy":1,
    "job":1,
    "feigning":1,
    "disinterest":1,
    "gun":1,
    "torch":1,
    "sword":1,
    "exonerating":1,
    "serious":1,
    "license":1,
    "gamble":1,
    "flinch":1,
    "toy":1,
    "meeting":1,
    "associates":1,
    "co":1,
    "financing":1,
    "boston":1,
    "franchise":1,
    "gelmans":1,
    "companies":1,
    "pajamas":1,
    "douchebag":1,
    "arrives":1,
    "handshake":1,
    "jewish":1,
    "exceeds":1,
    "geoffreys":1,
    "pharmacist":1,
    "slip":1,
    "rounding":1,
    "clinical":1,
    "voluntarily":1,
    "figured":1,
    "fluke":1,
    "smelling":1,
    "handjob":1,
    "telling":1,
    "equals":1,
    "human":1,
    "distribution":1,
    "scientific":1,
    "method":1,
    "lick":1,
    "jizz":1,
    "worked":1,
    "bummed":1,
    "encouraged":1,
    "group":1,
    "teens":1,
    "bug":1,
    "return":1,
    "lesson":1,
    "punches":1,
    "notice":1,
    "arguing":1,
    "herschel":1,
    "evelyn":1,
    "losers":1,
    "minoxidil":1,
    "propecia":1,
    "market":1,
    "jerked":1,
    "playgirl":1,
    "justify":1,
    "funeral":1,
    "warehouse":1,
    "lawrence":1,
    "luck":1,
    "runs":1,
    "friendlier":1,
    "disposition":1,
    "patrol":1,
    "turned":1,
    "rapists":1,
    "determination":1,
    "duh":1,
    "lair":1,
    "speak":1,
    "maturely":1,
    "jealous":1,
    "steal":1,
    "crates":1,
    "whattya":1,
    "obsession":1,
    "scumbuckets":1,
    "children":1,
    "handed":1,
    "hustle":1,
    "posers":1,
    "hadnt":1,
    "woman":1,
    "safes":1,
    "timer":1,
    "itll":1,
    "dawn":1,
    "girlfriend":1,
    "slurping":1,
    "fumes":1,
    "stick":1,
    "shouldve":1,
    "sega":1,
    "host":1,
    "issues":1,
    "family":1,
    "guilt":1,
    "inevitable":1,
    "roofie":1,
    "ring":1,
    "approach":1,
    "below":1,
    "taste":1,
    "sweeter":1,
    "peach":1,
    "snapple":1,
    "rattled":1,
    "lined":1,
    "action":1,
    "terrible":1,
    "terribles":1,
    "middle":1,
    "weaving":1,
    "stays":1,
    "crouch":1,
    "picking":1,
    "obstacles":1,
    "bears":1,
    "travels":1,
    "lightning":1,
    "finds":1,
    "alter":1,
    "style":1,
    "force":1,
    "bends":1,
    "narrowly":1,
    "rocks":1,
    "finish":1,
    "sights":1,
    "dice":1,
    "often":1,
    "snagged":1,
    "tumbles":1,
    "frame":1,
    "slices":1,
    "phils":1,
    "blood":1,
    "splatter":1,
    "ahhhh":1,
    "fell":1,
    "fall":1,
    "unwrapping":1,
    "favorite":1,
    "knew":1,
    "walked":1,
    "blamed":1,
    "deli":1,
    "eaten":1,
    "foie":1,
    "gras":1,
    "pino":1,
    "noir":1,
    "italian":1,
    "diarrhea":1,
    "bucket":1,
    "puke":1,
    "reminder":1,
    "reason":1,
    "prep":1,
    "stories":1,
    "rumor":1,
    "changed":1,
    "embarrassed":1,
    "terrific":1,
    "joy":1,
    "given":1,
    "vulnerable":1,
    "talks":1,
    "longer":1,
    "knowing":1,
    "consequences":1,
    "patio":1,
    "disheveled":1,
    "funny":1,
    "desperate":1,
    "nooooo":1,
    "pulse":1,
    "bulls":1,
    "nah":1,
    "rain":1,
    "barbecues":1,
    "swimming":1,
    "pools":1,
    "reminds":1,
    "thrilled":1,
    "reduced":1,
    "rehab":1,
    "drags":1,
    "tailormade":1,
    "value":1,
    "banging":1,
    "friendships":1,
    "combined":1,
    "squeezes":1,
    "lifts":1,
    "limp":1,
    "whenever":1,
    "small":1,
    "step":1,
    "giant":1,
    "puking":1,
    "heimlich":1,
    "maneuver":1,
    "thrusts":1,
    "splash":1,
    "vomit":1,
    "consumes":1,
    "screen":1,
    "dies":1,
    "dammit":1,
    "deck":1,
    "furnitures":1,
    "schedule":1,
    "plugs":1,
    "jewelry":1,
    "plastic":1,
    "surgery":1,
    "ahhh":1,
    "react":1,
    "pay":1,
    "groundspeople":1,
    "loaded":1,
    "fill":1,
    "blanks":1,
    "version":1,
    "essence":1,
    "arrived":1,
    "secondly":1,
    "sports":1,
    "bets":1,
    "sued":1,
    "v":1,
    "ermont":1,
    "reimagining":1,
    "state":1,
    "playground":1,
    "michael":1,
    "jackson":1,
    "hotties":1,
    "24":1,
    "10":1,
    "jersey":1,
    "helicopter":1,
    "private":1,
    "jet":1,
    "airfield":1,
    "silly":1,
    "assist":1,
    "finding":1,
    "wetter":1,
    "log":1,
    "flume":1,
    "ask":1,
    "paradox":1,
    "19":1,
    "skulls":1,
    "lingering":1,
    "memories":1,
    "direction":1,
    "realized":1,
    "existential":1,
    "homicide":1,
    "suicide":1,
    "easy":1,
    "dealing":1,
    "timecop":1,
    "occupy":1,
    "poof":1,
    "especially":1,
    "suffer":1,
    "strangulation":1,
    "horrified":1,
    "families":1,
    "although":1,
    "huge":1,
    "crutches":1,
    "entirely":1,
    "madam":1,
    "abuzz":1,
    "regal":1,
    "entrance":1,
    "tuxedo":1,
    "blustein":1,
    "applauds":1,
    "partaking":1,
    "adventure":1,
    "mistakenly":1,
    "fiances":1,
    "path":1,
    "leg":1,
    "humble":1,
    "apologies":1,
    "scrapes":1,
    "bows":1,
    "regally":1,
    "lilys":1,
    "flattered":1,
    "whispers":1,
    "shoulda":1,
    "invite":1,
    "honeymoon":1,
    "dance":1,
    "retire":1,
    "tough":1,
    "competing":1,
    "chains":1,
    "store":1,
    "orders":1,
    "instant":1,
    "ahh":1,
    "sold":1,
    "purpose":1,
    "apparently":1,
    "cornered":1,
    "technology":1,
    "sector":1,
    "dealt":1,
    "american":1,
    "businesses":1,
    "irreparable":1,
    "personally":1,
    "phones":1,
    "ipods":1,
    "clicks":1,
    "disappears":1,
    "unfinished":1,
    "boooring":1,
    "nurse":1,
    "snake":1,
    "bride":1,
    "crashing":1,
    "secrets":1,
    "safe":1,
    "freezes":1,
    "blinks":1,
    "smiling":2,
    "sorts":2,
    "kiss":2,
    "stud":2,
    "eating":2,
    "pizza":2,
    "papa":2,
    "enzos":2,
    "drinking":2,
    "snatches":2,
    "stops":2,
    "expression":2,
    "bunny":2,
    "nobody":2,
    "picture":2,
    "bothered":2,
    "closet":2,
    "pile":2,
    "holding":2,
    "cover":2,
    "caught":2,
    "hours":2,
    "basket":2,
    "case":2,
    "worried":2,
    "crush":2,
    "stranger":2,
    "curious":2,
    "admit":2,
    "incredible":2,
    "excitedly":2,
    "leaves":2,
    "shirt":2,
    "fantasy":2,
    "alone":2,
    "house":2,
    "slides":2,
    "body":2,
    "kicking":2,
    "feels":2,
    "screams":2,
    "hat":2,
    "crazy":2,
    "babe":2,
    "trouble":2,
    "different":2,
    "wants":2,
    "update":2,
    "lameo":2,
    "disgusting":2,
    "button":2,
    "says":2,
    "sending":2,
    "months":2,
    "buddy":2,
    "self":2,
    "trip":2,
    "represents":2,
    "dream":2,
    "rings":2,
    "answers":2,
    "bluetooth":2,
    "voice":2,
    "goddamn":2,
    "pretzels":2,
    "road":2,
    "uncomfortable":2,
    "mostly":2,
    "murder":2,
    "late":2,
    "exits":2,
    "seat":2,
    "living":2,
    "bring":2,
    "sorta":2,
    "system":2,
    "whore":2,
    "offended":2,
    "stupid":2,
    "since":2,
    "died":2,
    "advantage":2,
    "information":2,
    "shake":2,
    "spending":2,
    "finally":2,
    "falls":2,
    "remember":2,
    "hospital":2,
    "filthy":2,
    "concern":2,
    "laid":2,
    "zero":2,
    "cold":2,
    "dad":2,
    "past":2,
    "vermont":2,
    "yourself":2,
    "ruin":2,
    "bone":2,
    "trust":2,
    "uh":2,
    "welcome":2,
    "disgusted":2,
    "heart":2,
    "pink":2,
    "club":2,
    "beginning":2,
    "playing":2,
    "older":2,
    "inside":2,
    "sucked":2,
    "furniture":2,
    "chance":2,
    "plenty":2,
    "loser":2,
    "premium":2,
    "bottom":2,
    "15":2,
    "hits":2,
    "patch":2,
    "pleats":2,
    "fat":2,
    "handle":2,
    "throw":2,
    "socks":2,
    "raises":2,
    "glass":2,
    "toast":2,
    "definitely":2,
    "including":2,
    "chatter":2,
    "manager":2,
    "world":2,
    "enjoy":2,
    "bite":2,
    "choice":2,
    "worst":2,
    "fed":2,
    "agree":2,
    "victory":2,
    "throws":2,
    "hungry":2,
    "men":2,
    "freaked":2,
    "water":2,
    "bath":2,
    "son":2,
    "ladies":2,
    "towns":2,
    "outside":2,
    "already":2,
    "starting":2,
    "2":2,
    "taking":2,
    "fresca":2,
    "showing":2,
    "bored":2,
    "wandered":2,
    "powder":2,
    "shitty":2,
    "completely":2,
    "wave":2,
    "parking":2,
    "shitload":2,
    "passes":2,
    "settle":2,
    "wake":2,
    "morning":2,
    "concerned":2,
    "stares":2,
    "lost":2,
    "offers":2,
    "pass":2,
    "riding":2,
    "animal":2,
    "uses":2,
    "slope":2,
    "along":2,
    "rush":2,
    "laughs":2,
    "rips":2,
    "ticket":2,
    "ends":2,
    "scumbag":2,
    "flies":2,
    "short":2,
    "skateboard":2,
    "bro":2,
    "annoyed":2,
    "deep":2,
    "shoves":2,
    "angrily":2,
    "strolls":2,
    "introduce":2,
    "wedding":2,
    "everywhere":2,
    "rubs":2,
    "noticed":2,
    "news":2,
    "sit":2,
    "stunned":2,
    "commodore":2,
    "keeping":2,
    "losing":2,
    "seems":2,
    "science":2,
    "sometimes":2,
    "eventually":2,
    "glitch":2,
    "traveled":2,
    "question":2,
    "real":2,
    "waiting":2,
    "bullshit":2,
    "nothings":2,
    "five":2,
    "87":2,
    "wettest":2,
    "tshirt":2,
    "waitress":2,
    "wine":2,
    "cooler":2,
    "others":2,
    "second":2,
    "wallet":2,
    "cards":2,
    "businessmen":2,
    "bar":2,
    "certainly":2,
    "kid":2,
    "convention":2,
    "palm":2,
    "sweet":2,
    "bucks":2,
    "japanese":2,
    "ipod":2,
    "forward":2,
    "bill":2,
    "ted":2,
    "lights":2,
    "worth":2,
    "topless":2,
    "pours":2,
    "tried":2,
    "2010":2,
    "forth":2,
    "jail":2,
    "immediately":2,
    "checks":2,
    "gas":2,
    "free":2,
    "fault":2,
    "closely":2,
    "owe":2,
    "ourselves":2,
    "realize":2,
    "leads":2,
    "bowl":2,
    "follows":2,
    "jello":2,
    "mmm":2,
    "snack":2,
    "camera":2,
    "sue":2,
    "fan":2,
    "celebrates":2,
    "twizzler":2,
    "tears":2,
    "turn":2,
    "personal":2,
    "afraid":2,
    "chest":2,
    "wed":2,
    "half":2,
    "shocked":2,
    "matter":2,
    "broke":2,
    "used":2,
    "fans":2,
    "ahead":2,
    "lied":2,
    "beam":2,
    "spaceship":2,
    "wondering":2,
    "spaz":2,
    "chokes":2,
    "partner":2,
    "harder":2,
    "elbows":2,
    "hooker":2,
    "either":2,
    "conversation":2,
    "snorts":2,
    "rock":2,
    "moves":2,
    "plus":2,
    "names":2,
    "instead":2,
    "necessarily":2,
    "standing":2,
    "long":2,
    "loved":2,
    "brought":2,
    "weight":2,
    "hello":2,
    "become":2,
    "tomorrow":2,
    "learn":2,
    "bright":2,
    "elways":2,
    "37":2,
    "candace":2,
    "less":2,
    "knife":2,
    "rick":2,
    "pop":2,
    "third":2,
    "pill":2,
    "bottle":2,
    "excuse":2,
    "rohypnol":2,
    "father":2,
    "roofies":2,
    "20":2,
    "follow":2,
    "younger":2,
    "nose":2,
    "scalp":2,
    "date":2,
    "blown":2,
    "blow":2,
    "youd":2,
    "naughty":2,
    "goons":2,
    "helps":2,
    "winner":2,
    "sound":2,
    "plan":2,
    "speaks":2,
    "genuinely":2,
    "reckless":2,
    "recklessly":2,
    "bolt":2,
    "born":2,
    "wouldve":2,
    "soda":2,
    "pukes":2,
    "chips":2,
    "deserve":2,
    "youve":2,
    "shouldnt":2,
    "hugs":2,
    "eh":2,
    "winning":2,
    "versions":2,
    "committing":2,
    "broken":2,
    "weve":2,
    "answer":3,
    "honey":3,
    "bunch":3,
    "80s":3,
    "embrace":3,
    "later":3,
    "brochure":3,
    "corner":3,
    "creepy":3,
    "supermarket":3,
    "kinda":3,
    "heads":3,
    "rules":3,
    "panties":3,
    "against":3,
    "naked":3,
    "continues":3,
    "hope":3,
    "coffee":3,
    "stain":3,
    "though":3,
    "special":3,
    "christ":3,
    "wow":3,
    "almost":3,
    "worry":3,
    "charge":3,
    "kisses":3,
    "call":3,
    "ten":3,
    "rehearsal":3,
    "flash":3,
    "willing":3,
    "facebook":3,
    "times":3,
    "missed":3,
    "putting":3,
    "above":3,
    "hi":3,
    "point":3,
    "damn":3,
    "guts":3,
    "horrible":3,
    "dick":3,
    "sleep":3,
    "closer":3,
    "smell":3,
    "lame":3,
    "penis":3,
    "isnt":3,
    "feet":3,
    "normal":3,
    "college":3,
    "working":3,
    "havenhurst":3,
    "wont":3,
    "biggest":3,
    "pf":3,
    "changs":3,
    "part":3,
    "view":3,
    "lives":3,
    "drops":3,
    "opens":3,
    "tubbin":3,
    "idiot":3,
    "catch":3,
    "fellas":3,
    "knock":3,
    "id":3,
    "throwing":3,
    "side":3,
    "laugh":3,
    "clink":3,
    "glasses":3,
    "brother":3,
    "table":3,
    "roast":3,
    "aiden":3,
    "quiet":3,
    "blaming":3,
    "lodge":3,
    "beer":3,
    "dead":3,
    "bubbles":3,
    "street":3,
    "soon":3,
    "light":3,
    "days":3,
    "tv":3,
    "extends":3,
    "horse":3,
    "moving":3,
    "pull":3,
    "trees":3,
    "ground":3,
    "close":3,
    "arms":3,
    "kill":3,
    "plans":3,
    "hole":3,
    "suddenly":3,
    "space":3,
    "wheres":3,
    "white":3,
    "holy":3,
    "seriously":3,
    "feeling":3,
    "always":3,
    "wanted":3,
    "new":3,
    "near":3,
    "tries":3,
    "power":3,
    "walk":3,
    "drunk":3,
    "begins":3,
    "running":3,
    "run":3,
    "bathroom":3,
    "towel":3,
    "havent":3,
    "met":3,
    "ah":3,
    "ace":3,
    "video":3,
    "base":3,
    "sees":3,
    "rich":3,
    "crowd":3,
    "secret":3,
    "lori":3,
    "catching":3,
    "herself":3,
    "astronaut":3,
    "behind":3,
    "killed":3,
    "blew":3,
    "open":3,
    "sad":3,
    "foot":3,
    "kitten":3,
    "cats":3,
    "pal":3,
    "seconds":3,
    "hank":3,
    "wish":3,
    "important":3,
    "business":3,
    "geoffrey":3,
    "sounds":3,
    "nearly":3,
    "kids":3,
    "issue":3,
    "knives":3,
    "gave":3,
    "speed":3,
    "missing":3,
    "parm":3,
    "nights":3,
    "opportunity":3,
    "photos":4,
    "resort":4,
    "believe":4,
    "full":4,
    "brew":4,
    "haus":4,
    "photo":4,
    "box":4,
    "bed":4,
    "ass":4,
    "ago":4,
    "thinking":4,
    "mom":4,
    "saying":4,
    "each":4,
    "slowly":4,
    "whoa":4,
    "covers":4,
    "air":4,
    "lift":4,
    "despite":4,
    "minutes":4,
    "happens":4,
    "least":4,
    "together":4,
    "earlier":4,
    "night":4,
    "nicks":4,
    "bags":4,
    "silence":4,
    "people":4,
    "hate":4,
    "huh":4,
    "douche":4,
    "please":4,
    "experience":4,
    "until":4,
    "myself":4,
    "move":4,
    "shrugs":4,
    "mistake":4,
    "figure":4,
    "without":4,
    "sign":4,
    "bet":4,
    "except":4,
    "once":4,
    "does":4,
    "skis":4,
    "means":4,
    "cash":4,
    "quite":4,
    "chicken":4,
    "thinks":4,
    "beat":4,
    "reaches":4,
    "fresh":4,
    "glad":4,
    "stayed":4,
    "talk":4,
    "courtney":4,
    "fact":4,
    "machine":4,
    "cocaine":4,
    "spazzes":4,
    "snowboard":4,
    "sandy":4,
    "rolls":4,
    "done":4,
    "stay":4,
    "find":4,
    "walking":4,
    "hour":4,
    "present":4,
    "23":4,
    "meet":4,
    "mind":4,
    "spend":4,
    "dollars":4,
    "exactly":4,
    "shoulder":4,
    "win":4,
    "couldnt":4,
    "chicks":5,
    "shows":5,
    "large":5,
    "hold":5,
    "supposed":5,
    "baby":5,
    "minute":5,
    "keep":5,
    "hands":5,
    "leave":5,
    "wearing":5,
    "else":5,
    "eat":5,
    "getting":5,
    "backpack":5,
    "those":5,
    "forget":5,
    "friend":5,
    "drink":5,
    "live":5,
    "anyone":5,
    "said":5,
    "parents":5,
    "own":5,
    "die":5,
    "fucked":5,
    "tonight":5,
    "brothers":5,
    "bad":5,
    "dudes":5,
    "gotta":5,
    "someone":5,
    "doing":5,
    "lous":5,
    "sucks":5,
    "town":5,
    "anyway":5,
    "deal":5,
    "first":5,
    "may":5,
    "seen":5,
    "many":5,
    "show":5,
    "blaines":5,
    "pulls":5,
    "shakes":5,
    "gone":5,
    "problem":5,
    "tools":5,
    "regular":5,
    "shot":5,
    "lose":5,
    "end":5,
    "listen":5,
    "enough":5,
    "made":5,
    "dare":5,
    "care":5,
    "took":5,
    "heard":5,
    "ear":5,
    "musselman":5,
    "ready":6,
    "bachelor":6,
    "gives":6,
    "fun":6,
    "check":6,
    "last":6,
    "yet":6,
    "whos":6,
    "another":6,
    "hard":6,
    "course":6,
    "picks":6,
    "jesus":6,
    "pants":6,
    "totally":6,
    "toward":6,
    "hit":6,
    "thanks":6,
    "whatever":6,
    "dinner":6,
    "happy":6,
    "nice":6,
    "sense":6,
    "wife":6,
    "offense":6,
    "jacobs":6,
    "gay":6,
    "ones":6,
    "travel":6,
    "rest":6,
    "wrong":6,
    "himself":6,
    "wasnt":6,
    "left":6,
    "having":6,
    "things":6,
    "phil":6,
    "feel":6,
    "went":6,
    "skiing":6,
    "race":6,
    "ya":6,
    "chick":6,
    "also":6,
    "great":6,
    "perfect":6,
    "after":6,
    "anything":6,
    "line":6,
    "couple":6,
    "hair":6,
    "grabs":6,
    "chaz":6,
    "guess":6,
    "work":6,
    "sits":6,
    "scientist":6,
    "am":6,
    "both":6,
    "drinks":6,
    "money":6,
    "thought":6,
    "theyre":6,
    "truth":6,
    "game":6,
    "wouldnt":6,
    "beautiful":7,
    "found":7,
    "most":7,
    "girls":7,
    "happened":7,
    "talking":7,
    "need":7,
    "probably":7,
    "asshole":7,
    "doesnt":7,
    "any":7,
    "every":7,
    "help":7,
    "being":7,
    "dude":7,
    "arent":7,
    "coming":7,
    "moments":7,
    "nods":7,
    "fine":7,
    "making":7,
    "notices":7,
    "saw":7,
    "approaches":7,
    "day":7,
    "old":7,
    "across":7,
    "head":7,
    "breathe":7,
    "future":7,
    "home":7,
    "through":8,
    "pretty":8,
    "place":8,
    "eyes":8,
    "again":8,
    "smiles":8,
    "holds":8,
    "idea":8,
    "three":8,
    "gentlemen":8,
    "next":8,
    "vagina":8,
    "might":8,
    "same":8,
    "cool":8,
    "better":8,
    "start":8,
    "starts":8,
    "name":8,
    "michelle":8,
    "1987":8,
    "points":8,
    "weekend":9,
    "mountain":9,
    "comes":9,
    "which":9,
    "kind":9,
    "love":9,
    "everything":9,
    "best":9,
    "whole":9,
    "sex":9,
    "hear":9,
    "put":9,
    "youll":9,
    "bull":9,
    "tad":9,
    "stands":9,
    "arm":10,
    "let":10,
    "could":10,
    "wait":10,
    "big":10,
    "been":10,
    "thank":10,
    "why":10,
    "very":10,
    "trying":10,
    "few":10,
    "wanna":10,
    "maybe":10,
    "god":10,
    "actually":10,
    "us":10,
    "hand":10,
    "young":11,
    "friends":11,
    "girl":11,
    "never":11,
    "other":11,
    "these":11,
    "should":11,
    "turns":11,
    "car":11,
    "something":11,
    "bag":11,
    "puts":11,
    "confused":11,
    "bit":11,
    "hell":11,
    "will":11,
    "lot":11,
    "years":11,
    "or":11,
    "give":11,
    "only":11,
    "thing":11,
    "red":11,
    "hey":11,
    "makes":11,
    "ever":12,
    "awesome":12,
    "face":12,
    "adams":12,
    "sandwich":12,
    "told":12,
    "because":12,
    "stop":12,
    "whats":12,
    "coke":12,
    "looking":13,
    "shes":13,
    "where":13,
    "phone":13,
    "now":13,
    "would":13,
    "door":13,
    "mean":13,
    "everyone":13,
    "over":13,
    "walks":14,
    "nothing":14,
    "sure":14,
    "take":14,
    "than":14,
    "theres":14,
    "them":14,
    "say":14,
    "our":14,
    "life":14,
    "their":15,
    "black":15,
    "two":15,
    "way":15,
    "before":15,
    "sorry":16,
    "fucking":16,
    "away":16,
    "much":16,
    "hes":17,
    "had":17,
    "think":17,
    "moment":17,
    "tell":17,
    "come":17,
    "too":17,
    "want":17,
    "has":17,
    "ive":17,
    "party":18,
    "goes":18,
    "still":18,
    "little":18,
    "ill":18,
    "lets":18,
    "even":18,
    "make":18,
    "shit":18,
    "who":19,
    "cant":19,
    "got":19,
    "they":19,
    "ski":20,
    "didnt":20,
    "really":20,
    "around":20,
    "see":20,
    "yes":20,
    "man":20,
    "takes":20,
    "room":21,
    "by":21,
    "when":21,
    "there":21,
    "did":22,
    "going":22,
    "hot":23,
    "can":23,
    "more":23,
    "oh":23,
    "gets":23,
    "good":23,
    "guy":23,
    "into":24,
    "down":26,
    "thats":27,
    "well":27,
    "how":28,
    "if":28,
    "lily":29,
    "tub":29,
    "fuck":30,
    "from":31,
    "go":31,
    "right":31,
    "time":32,
    "jennie":32,
    "yeah":32,
    "off":32,
    "then":32,
    "some":33,
    "ok":33,
    "one":34,
    "back":34,
    "an":35,
    "about":38,
    "here":38,
    "be":42,
    "blaine":43,
    "were":44,
    "look":45,
    "all":46,
    "no":46,
    "know":47,
    "":47,
    "do":47,
    "dont":48,
    "are":49,
    "gonna":50,
    "jacob":50,
    "she":53,
    "get":53,
    "him":55,
    "her":55,
    "your":55,
    "nick":55,
    "guys":55,
    "looks":56,
    "was":57,
    "so":57,
    "youre":57,
    "just":57,
    "but":59,
    "have":59,
    "not":62,
    "like":62,
    "at":64,
    "out":64,
    "my":67,
    "its":68,
    "as":70,
    "up":71,
    "what":72,
    "on":87,
    "me":88,
    "we":88,
    "lou":88,
    "his":90,
    "im":92,
    "with":92,
    "he":92,
    "this":94,
    "is":94,
    "that":97,
    "for":101,
    "in":120,
    "adam":138,
    "it":154,
    "of":162,
    "to":245,
    "i":254,
    "and":267,
    "you":299,
    "a":334,
    "the":465
}