{
    "rough":1,
    "ends":1,
    "saturday":1,
    "warriors":1,
    "lazy":1,
    "cocky":1,
    "pansyass":1,
    "players":1,
    "crowd":1,
    "roars":1,
    "coach":1,
    "torch":1,
    "towering":1,
    "wooden":1,
    "painted":1,
    "makebelieve":1,
    "jersey":1,
    "bursts":1,
    "marching":1,
    "band":1,
    "launches":1,
    "song":1,
    "speeds":1,
    "pushing":1,
    "gothic":1,
    "buildings":1,
    "ivycovered":1,
    "arches":1,
    "beautiful":1,
    "waited":1,
    "stuck":1,
    "aiden":1,
    "normal":1,
    "circumstances":1,
    "sophisticated":1,
    "hyperarticulate":1,
    "shitting":1,
    "meltdown":1,
    "barely":1,
    "sentence":1,
    "situation":1,
    "hysterical":1,
    "bring":1,
    "gallivan":1,
    "pennsylvania":1,
    "gottlieb":1,
    "cases":1,
    "plain":1,
    "sight":1,
    "stays":1,
    "caught":1,
    "panicked":1,
    "straightmichaela":1,
    "straightlaurel":1,
    "suggest":1,
    "involve":1,
    "carrying":1,
    "busiest":1,
    "unseen":1,
    "frozenlaurel":1,
    "dig":1,
    "louderhey":1,
    "dumber":1,
    "agreeing":1,
    "everyones":1,
    "except":1,
    "keeps":1,
    "interrupt":1,
    "deluding":1,
    "thisand":1,
    "sniff":1,
    "everywhere":1,
    "tonightyou":1,
    "dnaguyslistenheyshut":1,
    "leader":1,
    "outspoken":1,
    "dumbest":1,
    "freaking":1,
    "adults":1,
    "figure":1,
    "fight":1,
    "commit":1,
    "tails":1,
    "tosses":1,
    "air":1,
    "freezing":1,
    "tight":1,
    "threw":1,
    "worried":1,
    "ballbuster":1,
    "spent":1,
    "summer":1,
    "interning":1,
    "justice":1,
    "roberts":1,
    "handle":1,
    "personality":1,
    "dershowitz":1,
    "upper":1,
    "academic":1,
    "usually":1,
    "promised":1,
    "hide":1,
    "dayim":1,
    "engaged":1,
    "attractive":1,
    "butmichaela":1,
    "meticulously":1,
    "highlighting":1,
    "tabbed":1,
    "mortified":1,
    "hurries":1,
    "passingpatrick":1,
    "player":1,
    "patricks":1,
    "suave":1,
    "dapper":1,
    "tie":1,
    "hair":1,
    "duck":1,
    "shooter":1,
    "hope":1,
    "brilliant":1,
    "passionate":1,
    "charismatic":1,
    "elegant":1,
    "glamorous":1,
    "dangerous":1,
    "wasted":1,
    "shark":1,
    "moves":1,
    "karmas":1,
    "balance":1,
    "criminal":1,
    "100":1,
    "prefer":1,
    "marker":1,
    "writes":1,
    "twisting":1,
    "necks":1,
    "finishes":1,
    "reads":1,
    "aloud":1,
    "amused":1,
    "thrilled":1,
    "beyond":1,
    "written":1,
    "title":1,
    "card":1,
    "brought":1,
    "bother":1,
    "tested":1,
    "material":1,
    "lecture":1,
    "colleagues":1,
    "teaching":1,
    "theorize":1,
    "practice":1,
    "mine":1,
    "assassin":1,
    "facts":1,
    "seating":1,
    "shifting":1,
    "nervously":1,
    "effortless":1,
    "worked":1,
    "ceo":1,
    "changes":1,
    "popping":1,
    "note":1,
    "slides":1,
    "appear":1,
    "introduce":1,
    "information":1,
    "photos":1,
    "discussing":1,
    "etc":1,
    "27":1,
    "discovered":1,
    "asher":1,
    "transferred":1,
    "allegedly":1,
    "swapped":1,
    "occurred":1,
    "ingested":1,
    "anaphylactic":1,
    "shock":1,
    "throat":1,
    "swelled":1,
    "brain":1,
    "deprived":1,
    "oxygen":1,
    "7":1,
    "minutes":1,
    "bitches":1,
    "sweating":1,
    "established":1,
    "wesley":1,
    "winces":1,
    "unprepared":1,
    "prepare":1,
    "emailed":1,
    "most":1,
    "liars":1,
    "harder":1,
    "pull":1,
    "notits":1,
    "whereas":1,
    "sadowskis":1,
    "utter":1,
    "horrifying":1,
    "embarrassment":1,
    "individual":1,
    "spoke":1,
    "repeat":1,
    "abyss":1,
    "hidden":1,
    "unnoticed":1,
    "rises":1,
    "meek":1,
    "tentative":1,
    "shydifferent":1,
    "decisive":1,
    "argumentative":1,
    "referred":1,
    "intent":1,
    "degree":1,
    "switch":1,
    "flipped":1,
    "zero":1,
    "pissedannalise":1,
    "learning":1,
    "opportunity":1,
    "ouch":1,
    "packets":1,
    "faces":1,
    "keyboard":1,
    "hed":1,
    "remember":1,
    "gathered":1,
    "packed":1,
    "living":1,
    "pushed":1,
    "overflowing":1,
    "foyer":1,
    "edge":1,
    "early":1,
    "horror":1,
    "fire":1,
    "busta":1,
    "hurtsyourbelly":1,
    "andwell":1,
    "exec":1,
    "jerk":1,
    "kissed":1,
    "andyeah":1,
    "embarrassed":1,
    "whispers":1,
    "tells":1,
    "glares":1,
    "offended":1,
    "bimbo":1,
    "firing":1,
    "ambulance":1,
    "building":1,
    "tears":1,
    "clue":1,
    "yourselves":1,
    "dean":1,
    "university":1,
    "space":1,
    "private":1,
    "best":1,
    "strategy":1,
    "serious":1,
    "checked":1,
    "timing":1,
    "acceptance":1,
    "unenviable":1,
    "since":1,
    "resources":1,
    "associates":1,
    "delgado":1,
    "winterbottom":1,
    "macho":1,
    "takesnoshit":1,
    "local":1,
    "philly":1,
    "boy":1,
    "counterpoint":1,
    "mama":1,
    "bear":1,
    "warm":1,
    "smiley":1,
    "names":1,
    "teacher":1,
    "em":1,
    "lovely":1,
    "colleague":1,
    "gathering":1,
    "choose":1,
    "4":1,
    "bookshelf":1,
    "recognize":1,
    "consider":1,
    "immunity":1,
    "idol":1,
    "whoever":1,
    "wins":1,
    "exam":1,
    "jump":1,
    "action8":1,
    "forensics":1,
    "residue":1,
    "allergy":1,
    "arguethat":1,
    "collapses":1,
    "bed":1,
    "ideas":1,
    "squints":1,
    "peering":1,
    "series":1,
    "scratchmarks":1,
    "etched":1,
    "scratch":1,
    "marks":1,
    "fingernails":1,
    "creepy":1,
    "blares":1,
    "hip":1,
    "hop":1,
    "lots":1,
    "bass":1,
    "anger":1,
    "vibrating":1,
    "doorare":1,
    "crying":1,
    "puffy":1,
    "short":1,
    "impatient":1,
    "normally":1,
    "lived":1,
    "rabbit":1,
    "louder":1,
    "persons":1,
    "taken":1,
    "daughter":1,
    "demands":1,
    "sisters":1,
    "loganbonnie":1,
    "arrested":1,
    "testosterone":1,
    "steroids":1,
    "hopes":1,
    "dreams":1,
    "season":1,
    "arresting":1,
    "trunk":1,
    "opening":1,
    "startle":1,
    "stern":1,
    "coffee":1,
    "burying":1,
    "precedents":1,
    "appeal":1,
    "jurys":1,
    "emotions":1,
    "brains":1,
    "36":1,
    "hours":1,
    "staying":1,
    "schoolchildren":1,
    "dials":1,
    "philosophy":1,
    "major":1,
    "gymnast":1,
    "lacey":1,
    "reschedule":1,
    "knocks":1,
    "chinese":1,
    "container":1,
    "food":1,
    "spilling":1,
    "freakshow":1,
    "realizes":1,
    "aside":1,
    "finish":1,
    "rolling":1,
    "shiny":1,
    "ziplock":1,
    "wiped":1,
    "sink":1,
    "bleach":1,
    "washed":1,
    "rugwhich":1,
    "fucking":1,
    "yours":1,
    "sir":1,
    "double":1,
    "ticket":1,
    "hoping":1,
    "town":1,
    "sounds":1,
    "digs":1,
    "glaring":1,
    "fuck":1,
    "officer":1,
    "burgling":1,
    "mothers":1,
    "asleep":1,
    "hopefully":1,
    "college":1,
    "carries":1,
    "reindeer":1,
    "lawn":1,
    "ornament":1,
    "thisll":1,
    "dammit":1,
    "safe":1,
    "ton":1,
    "crazies":1,
    "cop":1,
    "regulate":1,
    "impressed":1,
    "straining":1,
    "determined":1,
    "13":1,
    "offer":1,
    "suspect":1,
    "altogether":1,
    "access":1,
    "pin":1,
    "proud":1,
    "egg":1,
    "timer":1,
    "piece":1,
    "ran":1,
    "presents":1,
    "graph":1,
    "statistical":1,
    "pool":1,
    "shows":1,
    "80":1,
    "socioeconomic":1,
    "die":1,
    "scare":1,
    "assure":1,
    "uh":1,
    "inequality":1,
    "advantage":1,
    "struggle":1,
    "issues":1,
    "extensive":1,
    "research":1,
    "recommendation":1,
    "record":1,
    "therefore":1,
    "bogus":1,
    "inaccurate":1,
    "charge":1,
    "ng":1,
    "underappreciated":1,
    "represents":1,
    "wealthy":1,
    "fate":1,
    "iswell":1,
    "plea":1,
    "crime":1,
    "suffering":1,
    "fromstockholm":1,
    "syndrome":1,
    "quite":1,
    "demanding":1,
    "bosses":1,
    "brainwashing":1,
    "fall":1,
    "disqualified":1,
    "9":1,
    "propertyannalise":1,
    "drop":1,
    "competition":1,
    "toannalise":1,
    "whining":1,
    "struts":1,
    "following":1,
    "bitchslapped":1,
    "gleefully":1,
    "pumping":1,
    "chest":1,
    "cpr":1,
    "skinwell":1,
    "whom":1,
    "wheelchair":1,
    "mental":1,
    "faculties":1,
    "nurse":1,
    "monitors":1,
    "machine":1,
    "20":1,
    "mutters":1,
    "incompetent":1,
    "trailer":1,
    "sympathetically":1,
    "important":1,
    "stressful":1,
    "tempers":1,
    "flare":1,
    "attack":1,
    "loudly":1,
    "distracted":1,
    "girlfriend":1,
    "itd":1,
    "interest":1,
    "90":1,
    "stalling":1,
    "similar":1,
    "shrinks":1,
    "similarly":1,
    "shaped":1,
    "anxiety":1,
    "stress":1,
    "endured":1,
    "used":1,
    "poison":1,
    "antianxiety":1,
    "candor":1,
    "victorious":1,
    "excellent":1,
    "facebook":1,
    "profile":1,
    "glasses":1,
    "eyesight":1,
    "optometrist":1,
    "covered":1,
    "insurance":1,
    "hers":1,
    "pretended":1,
    "claims":1,
    "provider":1,
    "receptionist":1,
    "condition":1,
    "achromatopsia":1,
    "causes":1,
    "blindness":1,
    "beaming":1,
    "michaelas":1,
    "wide":1,
    "rose":1,
    "bachelor":1,
    "game":1,
    "challenge":1,
    "luck":1,
    "spots":1,
    "left":1,
    "winning":1,
    "review":1,
    "order":1,
    "coif":1,
    "supreme":1,
    "court":1,
    "appointment":1,
    "mentor":1,
    "split":1,
    "style":1,
    "lsat":1,
    "score":1,
    "waitlister":1,
    "170":1,
    "165":1,
    "gotta":1,
    "moron":1,
    "3rd":1,
    "wheel":1,
    "shed":1,
    "support":1,
    "loves":1,
    "chokes":1,
    "teammates":1,
    "patting":1,
    "escorting":1,
    "sorority":1,
    "mic":1,
    "sing":1,
    "overwrought":1,
    "funny":1,
    "demi":1,
    "lovatos":1,
    "skyscraper":1,
    "sway":1,
    "finding":1,
    "excuse":1,
    "racing":1,
    "barged":1,
    "lock":1,
    "hangs":1,
    "speak":1,
    "commonwealth":1,
    "mcginnis":1,
    "faster":1,
    "prosecutions":1,
    "insufficientannalise":1,
    "suggesting":1,
    "denied":1,
    "discredited":1,
    "telling":1,
    "seth":1,
    "middle":1,
    "winter":1,
    "riding":1,
    "windows":1,
    "smell":1,
    "genius":1,
    "yup":1,
    "beer":1,
    "joke":1,
    "silent":1,
    "traumatized":1,
    "jokes":1,
    "driving":1,
    "parking":1,
    "makers":1,
    "manhattan":1,
    "cherries":1,
    "otherwise":1,
    "refuse":1,
    "drink":1,
    "seem":1,
    "olivers":1,
    "businesscasualclad":1,
    "stealing":1,
    "glances":1,
    "ignore":1,
    "bars":1,
    "often":1,
    "leaving":1,
    "bank":1,
    "ding":1,
    "dorky":1,
    "dorks":1,
    "ahold":1,
    "bit":1,
    "promise":1,
    "oblivious":1,
    "falling":1,
    "trap":1,
    "aboutman":1,
    "glass":1,
    "shattering":1,
    "wanting":1,
    "baseball":1,
    "cap":1,
    "almost":1,
    "snaps":1,
    "confidence":1,
    "intrigued":1,
    "confession":1,
    "dissolve":1,
    "crossexamining":1,
    "wellcoifed":1,
    "coceos":1,
    "weekly":1,
    "discussion":1,
    "avoid":1,
    "harassment":1,
    "lawsuit":1,
    "printed":1,
    "specify":1,
    "handed":1,
    "apologies":1,
    "hears":1,
    "muttering":1,
    "dear":1,
    "officially":1,
    "requesting":1,
    "coceo":1,
    "relations":1,
    "refusal":1,
    "stopprosecutor":1,
    "true":1,
    "familiar":1,
    "paperwork":1,
    "missing":1,
    "assumed":1,
    "obtained":1,
    "illegally":1,
    "ridiculous":1,
    "assumption":1,
    "pertains":1,
    "admitted":1,
    "contents":1,
    "irrelevant":1,
    "fruit":1,
    "poisonous":1,
    "tree":1,
    "write":1,
    "admissible":1,
    "stated":1,
    "employee":1,
    "swap":1,
    "nodding":1,
    "buzzes":1,
    "masterful":1,
    "due":1,
    "donahues":1,
    "grins":1,
    "feud":1,
    "deans":1,
    "cocktail":1,
    "tow":1,
    "restroom":1,
    "depressing":1,
    "enters29":1,
    "worst":1,
    "psychology":1,
    "evaluating":1,
    "reading":1,
    "witnesses":1,
    "wifes":1,
    "hows":1,
    "terrorist":1,
    "sorrywhos":1,
    "literally":1,
    "hero":1,
    "hillary":1,
    "arrives":1,
    "drinks":1,
    "ears":1,
    "burning":1,
    "spill":1,
    "laugh":1,
    "gives":1,
    "tender":1,
    "cheek":1,
    "jen":1,
    "zippers":1,
    "panicking":1,
    "whena":1,
    "ringtone":1,
    "plays":1,
    "silence":1,
    "phones":1,
    "screen":1,
    "couple":1,
    "fast":1,
    "once":1,
    "breathes":1,
    "sigh":1,
    "relief":1,
    "untilmichaela":1,
    "hells":1,
    "shouldnt":1,
    "courthouse":1,
    "imagining":1,
    "mouth":1,
    "ooohff":1,
    "ugly":1,
    "tall":1,
    "tale":1,
    "tired":1,
    "enlists":1,
    "tag":1,
    "definitely":1,
    "noobviously":1,
    "defending":1,
    "moral":1,
    "repercussions":1,
    "pissed":1,
    "smith":1,
    "berkeley":1,
    "bastion":1,
    "liberalism":1,
    "turned":1,
    "feeling":1,
    "application":1,
    "idealistic":1,
    "less":1,
    "fortunate":1,
    "graduation":1,
    "quit":1,
    "pregnant":1,
    "theyd":1,
    "child":1,
    "misogynistic":1,
    "storms":1,
    "live":1,
    "meet":1,
    "slightest":1,
    "reveal":1,
    "loneliness":1,
    "underneath":1,
    "toughguy":1,
    "expected":1,
    "sopatrick":1,
    "sociopath":1,
    "sand":1,
    "cray":1,
    "faultannalise":1,
    "apologize":1,
    "unprofessional":1,
    "embarrassing":1,
    "voice":1,
    "cracking":1,
    "welling":1,
    "excuses":1,
    "butits":1,
    "worse":1,
    "forgive":1,
    "places":1,
    "wess":1,
    "hit":1,
    "keeping":1,
    "between":1,
    "problem":1,
    "justleave":1,
    "harvard":1,
    "offered":1,
    "preliminary":1,
    "talks":1,
    "anywhere":1,
    "besides":1,
    "kicking":1,
    "jinx":1,
    "repeating":1,
    "missed":1,
    "uncomfortable":1,
    "apart":1,
    "background":1,
    "checks":1,
    "mostly":1,
    "duis":1,
    "pot":1,
    "possession":1,
    "annoying":1,
    "dad":1,
    "circuit":1,
    "filephoto":1,
    "flips":1,
    "helpful":1,
    "reject":1,
    "bonnies":1,
    "advice":1,
    "pretty":1,
    "strength":1,
    "flies":1,
    "radar":1,
    "ax":1,
    "changed":1,
    "stole":1,
    "bar":1,
    "listen":1,
    "shy":1,
    "charmed":1,
    "unlock":1,
    "postit":1,
    "attached":1,
    "welcome":1,
    "neighborhood":1,
    "burst":1,
    "courage":1,
    "drinking":1,
    "trick":1,
    "hasnt":1,
    "informed":1,
    "bench":1,
    "debates":1,
    "moments":1,
    "approximately":1,
    "7pm":1,
    "tuesday":1,
    "lira":1,
    "original":1,
    "copy":1,
    "defendants":1,
    "picture":1,
    "news":1,
    "remembered":1,
    "seemed":1,
    "presses":1,
    "remote":1,
    "playing":1,
    "screens":1,
    "audio":1,
    "date":1,
    "stamped":1,
    "shown":1,
    "buying":1,
    "register":1,
    "attempt":1,
    "bought":1,
    "item":1,
    "liras":1,
    "zoom":1,
    "brand":1,
    "recess":1,
    "breaks":1,
    "aaaand":1,
    "screwed":1,
    "bodies":1,
    "texts":1,
    "calls":1,
    "shoddy":1,
    "headache":1,
    "flees":1,
    "wrong":1,
    "buy":1,
    "slutty":1,
    "undergrad":1,
    "pulled":1,
    "forget":1,
    "grilled":1,
    "chose":1,
    "guiltyannalise":1,
    "mix":1,
    "disgust":1,
    "cower":1,
    "migraine":1,
    "relevance":1,
    "sudden":1,
    "addition":1,
    "list":1,
    "result":1,
    "conveniently":1,
    "springing":1,
    "assume":1,
    "return":1,
    "tables":1,
    "share":1,
    "ideabut":1,
    "aisle":1,
    "angrily":1,
    "discretely":1,
    "giving":1,
    "audience":1,
    "lighter":1,
    "fluid":1,
    "711":1,
    "tireless":1,
    "supervision":1,
    "appears":1,
    "played":1,
    "establish":1,
    "timeline":1,
    "inches":1,
    "eye":1,
    "eerily":1,
    "bombannalise":1,
    "acquired":1,
    "tape":1,
    "precinct":1,
    "gills":1,
    "supervisor":1,
    "equally":1,
    "recently":1,
    "diagnosed":1,
    "cancer":1,
    "threatening":1,
    "iwas":1,
    "scheduled":1,
    "chain":1,
    "8pm":1,
    "logs":1,
    "209am":1,
    "gap":1,
    "odd":1,
    "computer":1,
    "busy":1,
    "extra":1,
    "doctor":1,
    "incriminate":1,
    "line":1,
    "12":1,
    "philadelphia":1,
    "instance":1,
    "altered":1,
    "conviction":1,
    "digitally":1,
    "adding":1,
    "label":1,
    "vitamins":1,
    "experience":1,
    "personally":1,
    "aware":1,
    "instances":1,
    "pro":1,
    "bono":1,
    "scapegoated":1,
    "desperate":1,
    "overworked":1,
    "das":1,
    "bottom":1,
    "absolute":1,
    "awe":1,
    "pastor":1,
    "embezzling":1,
    "church":1,
    "helping":1,
    "standout":1,
    "mission":1,
    "rising":1,
    "rightful":1,
    "crown":1,
    "collects":1,
    "shooting":1,
    "glance":1,
    "enraged":1,
    "joining":1,
    "beasher":1,
    "sinks":1,
    "defeated":1,
    "workload":1,
    "hire":1,
    "iswes":1,
    "unapologetic":1,
    "being":1,
    "videos":1,
    "revealing":1,
    "initiative":1,
    "showed":1,
    "argument":1,
    "proved":1,
    "qualities":1,
    "exposed":1,
    "yourself":1,
    "deserve":1,
    "jobwes":1,
    "iannalise":1,
    "partner":1,
    "discrediting":1,
    "eyewitness":1,
    "1l":1,
    "soft":1,
    "uneducated":1,
    "reconsider":1,
    "carefully":1,
    "determine":1,
    "career":1,
    "sad":1,
    "drafting":1,
    "chubby":1,
    "paralegals":1,
    "putting":1,
    "gun":1,
    "mouthor":1,
    "repulsed":1,
    "attracted":1,
    "terrified":1,
    "dead":1,
    "crack":1,
    "whore":1,
    "lucky":1,
    "jc":1,
    "woulda":1,
    "doorbell":1,
    "worker":1,
    "toolbox":1,
    "entrenched":1,
    "meanies":1,
    "riveting":1,
    "contemplates":1,
    "sketchball":1,
    "thingys":1,
    "pausing":1,
    "glimpses":1,
    "porn":1,
    "20yearold":1,
    "boobs":1,
    "butts":1,
    "dance":1,
    "routine":1,
    "miley":1,
    "licks":1,
    "lips":1,
    "stairs":1,
    "passing":1,
    "wrapped":1,
    "towel":1,
    "laughing":1,
    "bedand":1,
    "attic":1,
    "roof":1,
    "6":1,
    "foot":1,
    "high":1,
    "lid":1,
    "deeper":1,
    "struggling":1,
    "object":1,
    "blocking":1,
    "pipe":1,
    "yanks":1,
    "bloated":1,
    "screaming":1,
    "threaten":1,
    "con":1,
    "picking":1,
    "eventually":1,
    "dramatic":1,
    "charges":1,
    "digging":1,
    "shoulders":1,
    "desperation":1,
    "sell":1,
    "collect":1,
    "spit":1,
    "ruined":1,
    "process":1,
    "fund":1,
    "fury":1,
    "speaks":1,
    "calmly":1,
    "coolly":1,
    "debating":1,
    "flirty":1,
    "push":1,
    "hungrily":1,
    "tear":1,
    "clothes":1,
    "gasping":1,
    "grinding":1,
    "engaging":1,
    "public":1,
    "messy":1,
    "animal":1,
    "dare":1,
    "confirming":1,
    "womans":1,
    "kappa":1,
    "alpha":1,
    "theta":1,
    "middletons":1,
    "thatll":1,
    "42":1,
    "bucks":1,
    "star":1,
    "oreilly":1,
    "remains":1,
    "seen":1,
    "backroom":1,
    "currently":1,
    "cars":1,
    "stuart":1,
    "miranda":1,
    "owners":1,
    "billion":1,
    "dollar":1,
    "tech":1,
    "industries":1,
    "flush":1,
    "sort":1,
    "seems":1,
    "shaken":1,
    "justher":1,
    "poor":1,
    "bet":1,
    "heavier":1,
    "itsuddenly":1,
    "rips":1,
    "thud":1,
    "someones":1,
    "stopped":1,
    "celebrate":1,
    "scotch":1,
    "plastic":1,
    "cups":1,
    "grabs":1,
    "pour":1,
    "shots":1,
    "wants":1,
    "findings":1,
    "8am":1,
    "shell":1,
    "signed":1,
    "cheers":1,
    "chance":1,
    "cover":1,
    "smoke":1,
    "wreck":1,
    "lights":1,
    "light":1,
    "exposes":1,
    "annalises":1,
    "bursting":1,
    "change":1,
    "forever":1,
    "princeton":2,
    "ground":2,
    "aint":2,
    "middleton":2,
    "effigy":2,
    "flames":2,
    "camera":2,
    "crash":2,
    "pants":2,
    "wait":2,
    "shut":2,
    "baby":2,
    "am":2,
    "whyd":2,
    "weapon":2,
    "absolutely":2,
    "agree":2,
    "leave":2,
    "none":2,
    "yell":2,
    "agreed":2,
    "weeks":2,
    "begged":2,
    "focused":2,
    "group":2,
    "choice":2,
    "flip":2,
    "letting":2,
    "realize":2,
    "nod":2,
    "times":2,
    "world":2,
    "reaches":2,
    "deep":2,
    "kinda":2,
    "hitting":2,
    "assigned":2,
    "chart":2,
    "textbook":2,
    "try":2,
    "wanna":2,
    "walked":2,
    "creative":2,
    "expect":2,
    "without":2,
    "motion":2,
    "lives":2,
    "red":2,
    "board":2,
    "turning":2,
    "forward":2,
    "belief":2,
    "content":2,
    "youll":2,
    "learn":2,
    "unlike":2,
    "known":2,
    "upon":2,
    "defendant":2,
    "advertising":2,
    "photo":2,
    "throughout":2,
    "happened":2,
    "millstone":2,
    "ended":2,
    "relationship":2,
    "pills":2,
    "allergic":2,
    "anyone":2,
    "classmates":2,
    "weve":2,
    "actus":2,
    "reus":2,
    "spend":2,
    "professional":2,
    "accepted":2,
    "poisoning":2,
    "common":2,
    "sense":2,
    "staring":2,
    "woods":2,
    "lied":2,
    "same":2,
    "plate":2,
    "reverse":2,
    "angle":2,
    "floor":2,
    "screamed":2,
    "movie":2,
    "crap":2,
    "ball":2,
    "laughin":2,
    "ad":2,
    "became":2,
    "always":2,
    "surprised":2,
    "secretary":2,
    "happy":2,
    "werent":2,
    "hurt":2,
    "moved":2,
    "comforting":2,
    "break":2,
    "bathroom":2,
    "previous":2,
    "bad":2,
    "media":2,
    "asking":2,
    "using":2,
    "prepwork":2,
    "position":2,
    "library":2,
    "perfect":2,
    "sweet":2,
    "stupid":2,
    "top":2,
    "arguewe":2,
    "noticing":2,
    "closer":2,
    "image":2,
    "hi":2,
    "school":2,
    "shuts":2,
    "hating":2,
    "sweetie":2,
    "mother":2,
    "giant":2,
    "football":2,
    "ones":2,
    "wrote":2,
    "statement":2,
    "throws":2,
    "cell":2,
    "feet":2,
    "bag":2,
    "hurry":2,
    "backpack":2,
    "lift":2,
    "heavy":2,
    "car":2,
    "parked":2,
    "city":2,
    "professors":2,
    "old":2,
    "asked":2,
    "explain":2,
    "thinks":2,
    "funeral":2,
    "street":2,
    "drunk":2,
    "rushes":2,
    "pick":2,
    "angry":2,
    "revenge":2,
    "cheating":2,
    "round":2,
    "doctors":2,
    "bloodwork":2,
    "percent":2,
    "low":2,
    "boss":2,
    "give":2,
    "delay":2,
    "run":2,
    "swear":2,
    "touch":2,
    "waits":2,
    "um":2,
    "option":2,
    "enter":2,
    "assistants":2,
    "far":2,
    "join":2,
    "torts":2,
    "contracts":2,
    "free":2,
    "feels":2,
    "kept":2,
    "breathing":2,
    "tried":2,
    "linda":2,
    "throw":2,
    "trash":2,
    "admitting":2,
    "temper":2,
    "watch":2,
    "learned":2,
    "wonders":2,
    "cross":2,
    "accident":2,
    "yellow":2,
    "baldwins":2,
    "shirt":2,
    "blind":2,
    "medication":2,
    "possible":2,
    "looked":2,
    "discredit":2,
    "pure":2,
    "least":2,
    "3":2,
    "respect":2,
    "king":2,
    "whats":2,
    "plan":2,
    "cry":2,
    "pushes":2,
    "dewittand":2,
    "slight":2,
    "knock":2,
    "pop":2,
    "skirt":2,
    "andannalise":2,
    "again":2,
    "says":2,
    "huh":2,
    "convict":2,
    "seriously":2,
    "questioning":2,
    "needs":2,
    "worry":2,
    "coworkers":2,
    "oliver":2,
    "several":2,
    "obvious":2,
    "hot":2,
    "yeah":2,
    "legal":2,
    "slamming":2,
    "apartment":2,
    "shaking":2,
    "howd":2,
    "emails":2,
    "lionel":2,
    "business":2,
    "given":2,
    "employees":2,
    "although":2,
    "junior":2,
    "counsel":2,
    "mention":2,
    "during":2,
    "withdraw":2,
    "further":2,
    "party":2,
    "head":2,
    "full":2,
    "personal":2,
    "secrets":2,
    "straight":2,
    "three":2,
    "laurels":2,
    "else":2,
    "brown":2,
    "such":2,
    "goody":2,
    "corporate":2,
    "screwing":2,
    "married":2,
    "wed":2,
    "marriage":2,
    "intense":2,
    "whatd":2,
    "knowing":2,
    "walks":2,
    "pile":2,
    "pauses":2,
    "anyway":2,
    "notices":2,
    "young":2,
    "convenience":2,
    "id":2,
    "hour":2,
    "startles":2,
    "become":2,
    "ready":2,
    "passes":2,
    "box":2,
    "fingers":2,
    "knows":2,
    "custody":2,
    "log":2,
    "within":2,
    "doctored":2,
    "innocent":2,
    "woman":2,
    "accused":2,
    "ha":2,
    "others":2,
    "holds":2,
    "showing":2,
    "pinning":2,
    "dumb":2,
    "rings":2,
    "bouncy":2,
    "maintenance":2,
    "tank":2,
    "connected":2,
    "drowned":2,
    "toms":2,
    "garage":2,
    "control":2,
    "rebeccas":2,
    "parents":2,
    "year":3,
    "team":3,
    "brings":3,
    "behind":3,
    "bonfire":3,
    "past":3,
    "campus":3,
    "donahue":3,
    "sexy":3,
    "cool":3,
    "though":3,
    "fianc\u00e9":3,
    "decided":3,
    "acting":3,
    "bitch":3,
    "smart":3,
    "saying":3,
    "clean":3,
    "bury":3,
    "honestly":3,
    "yelling":3,
    "police":3,
    "instead":3,
    "ourselves":3,
    "side":3,
    "catch":3,
    "cops":3,
    "jail":3,
    "unless":3,
    "quiet":3,
    "thing":3,
    "dewitts":3,
    "attorney":3,
    "breath":3,
    "myself":3,
    "wouldnt":3,
    "seats":3,
    "sitting":3,
    "enters":3,
    "terrible":3,
    "words":3,
    "scared":3,
    "many":3,
    "wont":3,
    "own":3,
    "study":3,
    "comes":3,
    "attempted":3,
    "second":3,
    "victim":3,
    "agency":3,
    "slide":3,
    "scene":3,
    "theyre":3,
    "mistress":3,
    "years":3,
    "affair":3,
    "doucheface":3,
    "accounting":3,
    "shocked":3,
    "these":3,
    "questions":3,
    "1":3,
    "entire":3,
    "waitlist":3,
    "probably":3,
    "stares":3,
    "matter":3,
    "trial":3,
    "lunch":3,
    "started":3,
    "kind":3,
    "continues":3,
    "months":3,
    "moving":3,
    "kids":3,
    "coming":3,
    "outside":3,
    "loved":3,
    "would":3,
    "ginas":3,
    "story":3,
    "nods":3,
    "havent":3,
    "win":3,
    "each":3,
    "approach":3,
    "wouldve":3,
    "spot":3,
    "firm":3,
    "warned":3,
    "crazy":3,
    "eyes":3,
    "loud":3,
    "sex":3,
    "breakdown":3,
    "rage":3,
    "standing":3,
    "table":3,
    "hate":3,
    "care":3,
    "leaves":3,
    "testify":3,
    "tonight":3,
    "weird":3,
    "friends":3,
    "simple":3,
    "show":3,
    "simply":3,
    "wanted":3,
    "judge":3,
    "self":3,
    "example":3,
    "supposed":3,
    "blue":3,
    "both":3,
    "sometimes":3,
    "whispering":3,
    "testified":3,
    "rest":3,
    "whatever":3,
    "below":3,
    "allow":3,
    "logan":3,
    "pulling":3,
    "directed":3,
    "testimony":3,
    "wow":3,
    "whos":3,
    "making":3,
    "talk":3,
    "soon":3,
    "exactly":3,
    "sexual":3,
    "read":3,
    "gave":3,
    "reason":3,
    "frustrated":3,
    "obviously":3,
    "ass":3,
    "screw":3,
    "whose":3,
    "drops":3,
    "arm":3,
    "kissing":3,
    "kid":3,
    "needed":3,
    "either":3,
    "oath":3,
    "received":3,
    "boyfriend":3,
    "lie":3,
    "match":3,
    "doubt":4,
    "burn":4,
    "across":4,
    "sit":4,
    "calling":4,
    "confident":4,
    "decision":4,
    "vs":4,
    "shouldve":4,
    "place":4,
    "thinking":4,
    "able":4,
    "talking":4,
    "trying":4,
    "against":4,
    "coin":4,
    "decide":4,
    "totally":4,
    "fucked":4,
    "front":4,
    "row":4,
    "taking":4,
    "guy":4,
    "everything":4,
    "picks":4,
    "rather":4,
    "lawyer":4,
    "name":4,
    "sadowski":4,
    "assistant":4,
    "smiles":4,
    "mind":4,
    "nothing":4,
    "fact":4,
    "met":4,
    "wilding":4,
    "another":4,
    "starts":4,
    "makes":4,
    "stunned":4,
    "excited":4,
    "every":4,
    "wall":4,
    "watches":4,
    "few":4,
    "meeting":4,
    "hard":4,
    "minute":4,
    "believe":4,
    "puts":4,
    "confused":4,
    "present":4,
    "discovery":4,
    "type":4,
    "answers":4,
    "much":4,
    "pulls":4,
    "turn":4,
    "lot":4,
    "strange":4,
    "music":4,
    "sees":4,
    "deal":4,
    "love":4,
    "tv":4,
    "files":4,
    "start":4,
    "hands":4,
    "jumps":4,
    "end":4,
    "late":4,
    "youd":4,
    "husband":4,
    "trust":4,
    "direct":4,
    "company":4,
    "getting":4,
    "moment":4,
    "whether":4,
    "clients":4,
    "correct":4,
    "color":4,
    "isnt":4,
    "later":4,
    "open":4,
    "enough":4,
    "owner":4,
    "stay":4,
    "upstairs":4,
    "inside":4,
    "rebecca":4,
    "grown":4,
    "whole":4,
    "kiss":4,
    "gone":4,
    "smiling":4,
    "along":4,
    "home":4,
    "picked":4,
    "stangard":4,
    "those":5,
    "hear":5,
    "word":5,
    "part":5,
    "calm":5,
    "feel":5,
    "won":5,
    "lost":5,
    "even":5,
    "destroy":5,
    "other":5,
    "four":5,
    "morning":5,
    "quickly":5,
    "nice":5,
    "water":5,
    "things":5,
    "done":5,
    "away":5,
    "stands":5,
    "levinsons":5,
    "blood":5,
    "went":5,
    "pratt":5,
    "mens":5,
    "rea":5,
    "assignment":5,
    "guilty":5,
    "came":5,
    "really":5,
    "told":5,
    "heard":5,
    "by":5,
    "file":5,
    "understand":5,
    "while":5,
    "nervous":5,
    "face":5,
    "lila":5,
    "phone":5,
    "steps":5,
    "rug":5,
    "holding":5,
    "clear":5,
    "fine":5,
    "runs":5,
    "flashback":5,
    "play":5,
    "made":5,
    "wheeler":5,
    "still":5,
    "perhaps":5,
    "step":5,
    "naked":5,
    "surveillance":5,
    "maybe":5,
    "brandt":5,
    "having":5,
    "under":6,
    "stop":6,
    "person":6,
    "after":6,
    "doesnt":6,
    "someone":6,
    "ever":6,
    "watching":6,
    "sure":6,
    "big":6,
    "clearly":6,
    "seat":6,
    "already":6,
    "ask":6,
    "also":6,
    "real":6,
    "agnes":6,
    "department":6,
    "sits":6,
    "looking":6,
    "answer":6,
    "days":6,
    "kill":6,
    "verdict":6,
    "mean":6,
    "found":6,
    "today":6,
    "life":6,
    "desk":6,
    "called":6,
    "might":6,
    "doing":6,
    "lets":6,
    "girls":6,
    "ive":6,
    "opens":6,
    "bottle":6,
    "nights":6,
    "footage":6,
    "seidel":6,
    "let":7,
    "suddenly":7,
    "make":7,
    "until":7,
    "hey":7,
    "took":7,
    "people":7,
    "prosecution":7,
    "where":7,
    "house":7,
    "very":7,
    "hand":7,
    "theres":7,
    "god":7,
    "room":7,
    "working":7,
    "gibbins":7,
    "anything":7,
    "act":7,
    "course":7,
    "guess":7,
    "question":7,
    "tomorrow":7,
    "use":7,
    "guys":7,
    "move":7,
    "witness":7,
    "miss":7,
    "wondering":7,
    "tom":7,
    "gill":7,
    "gonna":8,
    "through":8,
    "could":8,
    "gets":8,
    "youve":8,
    "idea":8,
    "heads":8,
    "hold":8,
    "next":8,
    "wasnt":8,
    "courtroom":8,
    "new":8,
    "wife":8,
    "pressure":8,
    "knew":8,
    "around":8,
    "student":8,
    "pill":8,
    "job":8,
    "store":8,
    "said":9,
    "cant":9,
    "never":9,
    "does":9,
    "murder":9,
    "takes":9,
    "please":9,
    "than":9,
    "thought":9,
    "two":9,
    "has":9,
    "okay":9,
    "class":9,
    "law":9,
    "point":9,
    "evidence":9,
    "help":9,
    "more":9,
    "girl":9,
    "come":9,
    "any":9,
    "way":9,
    "stops":9,
    "turns":9,
    "actually":9,
    "2":10,
    "too":10,
    "long":10,
    "should":10,
    "man":10,
    "cut":10,
    "call":10,
    "defense":10,
    "yet":10,
    "professor":10,
    "client":10,
    "arthur":10,
    "day":10,
    "email":10,
    "jury":10,
    "want":10,
    "did":11,
    "little":11,
    "beat":11,
    "trophy":11,
    "finally":11,
    "before":11,
    "better":11,
    "last":11,
    "well":11,
    "didnt":11,
    "thank":11,
    "baldwin":11,
    "over":12,
    "hes":12,
    "take":12,
    "body":12,
    "everyone":12,
    "ago":12,
    "good":12,
    "office":12,
    "prosecutor":12,
    "going":13,
    "put":13,
    "look":13,
    "say":13,
    "goes":13,
    "find":13,
    "some":13,
    "got":13,
    "stand":13,
    "door":13,
    "video":13,
    "been":14,
    "night":14,
    "need":14,
    "hell":14,
    "sorry":14,
    "means":14,
    "dewitt":14,
    "their":14,
    "why":14,
    "saw":14,
    "ill":14,
    "tell":15,
    "aspirin":15,
    "levinson":15,
    "down":16,
    "first":16,
    "oh":16,
    "looks":16,
    "ms":16,
    "only":16,
    "had":17,
    "time":17,
    "off":17,
    "bonnie":17,
    "honor":17,
    "nate":17,
    "something":18,
    "which":18,
    "thats":19,
    "go":19,
    "them":19,
    "or":19,
    "work":19,
    "frank":19,
    "how":20,
    "michaela":20,
    "yes":20,
    "see":20,
    "detective":20,
    "will":21,
    "case":21,
    "students":22,
    "laurel":22,
    "if":22,
    "when":23,
    "then":23,
    "patrick":24,
    "an":24,
    "gina":25,
    "our":26,
    "know":26,
    "us":26,
    "shes":26,
    "from":26,
    "are":27,
    "into":27,
    "youre":27,
    "like":27,
    "back":27,
    "were":28,
    "think":28,
    "one":28,
    "here":29,
    "do":29,
    "about":30,
    "they":30,
    "mr":30,
    "get":31,
    "who":31,
    "there":33,
    "be":33,
    "can":34,
    "because":35,
    "dont":35,
    "right":36,
    "out":37,
    "its":38,
    "im":38,
    "have":39,
    "him":41,
    "no":42,
    "with":47,
    "annalise":50,
    "for":51,
    "my":53,
    "me":53,
    "up":54,
    "at":56,
    "not":58,
    "wes":58,
    "":58,
    "but":59,
    "his":59,
    "he":59,
    "all":60,
    "so":60,
    "she":65,
    "what":66,
    "your":66,
    "just":69,
    "was":72,
    "now":80,
    "her":80,
    "on":82,
    "in":89,
    "is":91,
    "this":96,
    "as":96,
    "it":104,
    "we":122,
    "that":126,
    "of":153,
    "and":185,
    "i":190,
    "you":190,
    "a":218,
    "to":289,
    "the":435
}