{
    "screenplay":1,
    "john":1,
    "william":1,
    "corrington":1,
    "draft":1,
    "62670":1,
    "revised":1,
    "71870":1,
    "palmlined":1,
    "richly":1,
    "attractive":1,
    "suburb":1,
    "quiet":1,
    "lawns":1,
    "uncut":1,
    "ford":1,
    "model":1,
    "sport":1,
    "altogether":1,
    "wealthy":1,
    "allows":1,
    "abreast":1,
    "passenger":1,
    "everybodys":1,
    "ease":1,
    "humming":1,
    "vicious":1,
    "suddenness":1,
    "aghast":1,
    "motion":1,
    "astonishing":1,
    "tear":1,
    "chunks":1,
    "stucco":1,
    "details":1,
    "presence":1,
    "intuited":1,
    "obscuring":1,
    "freezeframe":1,
    "rapid":1,
    "shown":1,
    "star":1,
    "distributed":1,
    "noted":1,
    "soldier":1,
    "screaming":1,
    "sinorussian":1,
    "border":1,
    "escalate":1,
    "according":1,
    "subsequent":1,
    "meeting":1,
    "officials":1,
    "frightened":1,
    "crossed":1,
    "flags":1,
    "portrait":1,
    "lenin":1,
    "overlapping":1,
    "counting":1,
    "chorus":1,
    "doom":1,
    "atomic":1,
    "blasts":1,
    "french":1,
    "british":1,
    "accents":1,
    "survivor":1,
    "embassy":1,
    "terrible":1,
    "christyou":1,
    "vladivastok":1,
    "giant":1,
    "wallmap":1,
    "personnel":1,
    "leaning":1,
    "speaking":1,
    "they\u0092ve":1,
    "sir":1,
    "groundbass":1,
    "officerts":1,
    "radarstyle":1,
    "north":1,
    "continent":1,
    "east":1,
    "increase":1,
    "intensity":1,
    "volume":1,
    "bogies":1,
    "asia":1,
    "earth":1,
    "antimissile":1,
    "technician":1,
    "monitoring":1,
    "incoming":1,
    "intercept":1,
    "tracking":1,
    "isninety":1,
    "seconds":1,
    "zeroing":1,
    "ones":1,
    "conjoining":1,
    "ones6":1,
    "antis":1,
    "configuration":1,
    "frown":1,
    "soun":1,
    "strain":1,
    "civil":1,
    "defense":1,
    "authorities":1,
    "reporters":1,
    "mouths":1,
    "martial":1,
    "law":1,
    "nationwide":1,
    "whether":1,
    "russia":1,
    "exists":1,
    "important":1,
    "fellow":1,
    "countrymen":1,
    "foundations":1,
    "crumble":1,
    "transistor":1,
    "counter":1,
    "pumps":1,
    "conelrad":1,
    "channel":1,
    "class":1,
    "civilian":1,
    "traffic":1,
    "barred":1,
    "homes":1,
    "police":1,
    "receiver":1,
    "message":1,
    "policeman":1,
    "steering":1,
    "orders":1,
    "subject":1,
    "summary":1,
    "execution":1,
    "h0spital":1,
    "halls":1,
    "wards":1,
    "survival":1,
    "yesterdays":1,
    "boasts":1,
    "superhuman":1,
    "conquests":1,
    "age":1,
    "grimaces":1,
    "rings":1,
    "warned":1,
    "weeping":1,
    "gnashing":1,
    "nodding":1,
    "bacteria":1,
    "tryvaccine":1,
    "93b71":1,
    "airstrip":1,
    "lap":1,
    "tohim":1,
    "grabbing":1,
    "controls":1,
    "illness":1,
    "drags":1,
    "wreck":1,
    "unbroken":1,
    "posters":1,
    "mexico":1,
    "london":1,
    "twa":1,
    "hong":1,
    "kong":1,
    "filthy":1,
    "littered":1,
    "clothesline":1,
    "bleached":1,
    "highpitched":1,
    "windowi":1,
    "alongside":1,
    "easter":1,
    "bunnies":1,
    "eggs":1,
    "teachers":1,
    "flag":1,
    "rotten":1,
    "attendant":1,
    "order":1,
    "fixed":1,
    "markings":1,
    "hinges":1,
    "shredded":1,
    "ingots":1,
    "brinks":1,
    "hydrant":1,
    "swinging":1,
    "boxes":1,
    "bullion":1,
    "unguarded":1,
    "disgust":1,
    "unloads":1,
    "muses":1,
    "sunset":1,
    "230sl":1,
    "showroom":1,
    "colors":1,
    "germany":1,
    "careful":1,
    "pasadena":1,
    "driver":1,
    "tennis":1,
    "shoes":1,
    "servicing":1,
    "speeding":1,
    "thoroughfare":1,
    "accelerating":1,
    "impossible":1,
    "bottoming":1,
    "righting":1,
    "fishtailing":1,
    "straightening":1,
    "zooming":1,
    "perspective":1,
    "speeds":1,
    "miles":1,
    "concentration":1,
    "tension":1,
    "masterdriver":1,
    "ultimate":1,
    "career":1,
    "meanwhile":1,
    "careening":1,
    "absolute":1,
    "recklessness":1,
    "nears":1,
    "squeal":1,
    "twilight":1,
    "swieeps":1,
    "detaches":1,
    "growing":1,
    "materialize":1,
    "landing":1,
    "fight":1,
    "drifting":1,
    "wrestle":1,
    "outward":1,
    "stillopen":1,
    "rushing":1,
    "armed":1,
    "lens":1,
    "clenched":1,
    "loathing":1,
    "lowering":1,
    "heapjust":1,
    "scurrying":1,
    "closes4":1,
    "lowered":1,
    "pressing":1,
    "slumped":1,
    "gasolinepowered":1,
    "juryrigged":1,
    "panel":1,
    "distribute":1,
    "current":1,
    "batteries":1,
    "lowlighted":1,
    "rows":1,
    "automobiles":1,
    "jeeps":1,
    "pickup":1,
    "armored":1,
    "polished":1,
    "surveying":1,
    "damage":1,
    "shame":1,
    "repairman":1,
    "unlocks":1,
    "anxious":1,
    "verge":1,
    "fortressapartment":1,
    "militarycap":1,
    "dirty":1,
    "gallerylike":1,
    "mahogany":1,
    "major":1,
    "barliquorcabinet":1,
    "label":1,
    "improve":1,
    "armoire":1,
    "fashioned":1,
    "washbasin":1,
    "screened":1,
    "gallery":1,
    "forming":1,
    "rummages":1,
    "slips":1,
    "lose":1,
    "skill":1,
    "beneath":1,
    "sardonic":1,
    "isolation":1,
    "rummaging":1,
    "storage":1,
    "antiseptic":1,
    "contains":1,
    "multitude":1,
    "canned":1,
    "stainless":1,
    "ice":1,
    "cubes":1,
    "chilled":1,
    "gambit":1,
    "threw":1,
    "pawns":1,
    "lucky":1,
    "casing":1,
    "opposite":1,
    "stark":1,
    "barren":1,
    "utilitarian":1,
    "cultivated":1,
    "civilized":1,
    "kitchen":1,
    "massive":1,
    "smells":1,
    "slang":1,
    "string":1,
    "looped":1,
    "saunters":1,
    "superb":1,
    "museumquality":1,
    "games":1,
    "surprises":1,
    "ummm":1,
    "discovered":1,
    "knight":1,
    "queen":1,
    "opponents":1,
    "propped":1,
    "battered":1,
    "garrison":1,
    "bears":1,
    "eagle":1,
    "insignia":1,
    "absently":1,
    "located":1,
    "frankie":1,
    "laine":1,
    "singing":1,
    "fears":1,
    "reject":1,
    "tune":1,
    "instrumental":1,
    "harlem":1,
    "nocturne":1,
    "ted":1,
    "heaths":1,
    "orchestra":1,
    "alto":1,
    "sax":1,
    "solo":1,
    "commotion":1,
    "intently":1,
    "increases":1,
    "ignore":1,
    "excuse":1,
    "springfield":1,
    "1903":1,
    "sniperscope":1,
    "fulllength":1,
    "partitions":1,
    "courtyard":1,
    "bubbling":1,
    "mile":1,
    "blaze":1,
    "higher":1,
    "library":1,
    "museum":1,
    "infrared":1,
    "telescopic":1,
    "panning":1,
    "unreal":1,
    "hunched":1,
    "squatting":1,
    "crosshairs":1,
    "given":1,
    "adjustment":1,
    "recoils":1,
    "slumps":1,
    "busts":1,
    "salute":1,
    "immediately":1,
    "ocean":1,
    "surrounding":1,
    "glimmer":1,
    "fog":1,
    "flickers":1,
    "molecular":1,
    "biology":1,
    "astrophysics":1,
    "systematically":1,
    "bringing":1,
    "deadwhite":1,
    "enormous":1,
    "defensively":1,
    "cat":1,
    "darkanymore":1,
    "delivered":1,
    "reasonably":1,
    "stir":1,
    "aint":1,
    "outnumbered":1,
    "hundreds":1,
    "memories":1,
    "gimmicks":1,
    "gadgetry":1,
    "earsand":1,
    "thatthat":1,
    "pigparadise":1,
    "hatreds":1,
    "pains":1,
    "matching":1,
    "hog":1,
    "heaven":1,
    "worked":1,
    "to6ls":1,
    "agitated":1,
    "tired":1,
    "glassfronted":1,
    "refrigeration":1,
    "unit":1,
    "flasks":1,
    "nitroglycerin":1,
    "cannons":1,
    "guard":1,
    "armory":1,
    "rocketlauncher":1,
    "continue":1,
    "mumble":1,
    "amongst":1,
    "themselves":1,
    "answers":1,
    "explaining":1,
    "sullen":1,
    "whilst":1,
    "rot":1,
    "hide":1,
    "grubs":1,
    "happen":1,
    "hunts":1,
    "explosives":1,
    "righteousness":1,
    "book":1,
    "hurls":1,
    "elaborate":1,
    "structure":1,
    "blasphemy":1,
    "engulfing":1,
    "apartmenthotels":1,
    "blvd":1,
    "thelawns":1,
    "birds":1,
    "rays":1,
    "refracted":1,
    "johns":1,
    "hopkins":1,
    "pouches":1,
    "waist":1,
    "numbers":1,
    "inspects":1,
    "bob":1,
    "tacklers":1,
    "thousand":1,
    "fans":1,
    "tearing":1,
    "hopkinsyea":1,
    "tapemike":1,
    "6306":1,
    "blocks":1,
    "5500":1,
    "theyd":1,
    "foraging":1,
    "drivein":1,
    "grocery":1,
    "prices":1,
    "super":1,
    "markets":1,
    "unlimbers":1,
    "sets":1,
    "assumption":1,
    "whiskey":1,
    "gargles":1,
    "spits":1,
    "narroweyed":1,
    "tracks":1,
    "mikehang":1,
    "there\u0092d":1,
    "endrun":1,
    "searching":1,
    "efficient":1,
    "spending":1,
    "moments":1,
    "halfclosed":1,
    "sheet":1,
    "plaguetime":1,
    "skeleton":1,
    "disgusting":1,
    "piteous":1,
    "sickened":1,
    "adrenaline":1,
    "draining":1,
    "basement":1,
    "comers":1,
    "practiced":1,
    "technique":1,
    "offices":1,
    "wastebasket":1,
    "sardine":1,
    "drips":1,
    "basket":1,
    "trash":1,
    "plush":1,
    "listens":1,
    "thick":1,
    "carpets":1,
    "highbacked":1,
    "swivel":1,
    "keys":1,
    "lurking":1,
    "stirs":1,
    "dracula":1,
    "wake":1,
    "company":1,
    "poked":1,
    "hive":1,
    "bee":1,
    "pokes":1,
    "disintegrating":1,
    "6806":1,
    "pocket":1,
    "windowshopping":1,
    "askew":1,
    "demolished":1,
    "sweatshirt":1,
    "wash":1,
    "consumer":1,
    "menis":1,
    "department":1,
    "garment":1,
    "rehangs":1,
    "brocade":1,
    "tuxedo":1,
    "officers":1,
    "club":1,
    "permanent":1,
    "undress":1,
    "correct":1,
    "uniform":1,
    "inthe":1,
    "mannikin":1,
    "inert":1,
    "portion":1,
    "reverence":1,
    "bikini":1,
    "remarkably":1,
    "lifelike":1,
    "jut":1,
    "provocatively":1,
    "tanned":1,
    "smallest":1,
    "aisle":1,
    "passion":1,
    "remembrance":1,
    "overseen":1,
    "almostflesh":1,
    "indefinite":1,
    "mannikins":1,
    "negro":1,
    "poses":1,
    "vanishes":1,
    "petrified":1,
    "finding":1,
    "waitcome":1,
    "backwait":1,
    "glimpse":1,
    "focused":1,
    "framed":1,
    "lake":1,
    "stream":1,
    "breath":1,
    "frenzied":1,
    "less":1,
    "seated":1,
    "hallucinated":1,
    "insanity":1,
    "silly":1,
    "asking":1,
    "idiot":1,
    "questions":1,
    "home":1,
    "refreshed":1,
    "guttering":1,
    "holder":1,
    "fromthe":1,
    "tables":1,
    "height":1,
    "keg":1,
    "display":1,
    "experience":1,
    "sigh":1,
    "stairway":1,
    "spooky":1,
    "generally":1,
    "atmosphere":1,
    "contemporary":1,
    "commercial":1,
    "architecture":1,
    "authentic":1,
    "improved":1,
    "foot":1,
    "hogshead":1,
    "examine":1,
    "life":1,
    "clenches":1,
    "fully":1,
    "tilts":1,
    "flaring":1,
    "exploding":1,
    "pileout":1,
    "barrels":1,
    "wherever":1,
    "obscured":1,
    "blurry":1,
    "preaching":1,
    "montage":1,
    "mixture":1,
    "comforting":1,
    "sinister":1,
    "gained":1,
    "grace":1,
    "scientists":1,
    "bankers":1,
    "menthe":1,
    "users":1,
    "clears":1,
    "vague":1,
    "robes":1,
    "seek":1,
    "reflective":1,
    "float":1,
    "candleflames":1,
    "regaining":1,
    "consciousness":1,
    "deadhe":1,
    "stink":1,
    "circuitry":1,
    "obsolete":1,
    "angie":1,
    "former":1,
    "function":1,
    "itnow":1,
    "serves":1,
    "governs":1,
    "meetinghouse":1,
    "church":1,
    "hooded":1,
    "dozen":1,
    "immediate":1,
    "followers":1,
    "assortment":1,
    "discarded":1,
    "aloud":1,
    "bloody":1,
    "halloween":1,
    "party":1,
    "knock":1,
    "false":1,
    "admit":1,
    "truth":1,
    "dragging":1,
    "resembles":1,
    "chambers":1,
    "private":1,
    "inquisition":1,
    "gothic":1,
    "puton":1,
    "taste":1,
    "elsewhere":1,
    "exquisite":1,
    "tread":1,
    "grotesque":1,
    "demented":1,
    "camp":1,
    "assumed":1,
    "truly":1,
    "rant":1,
    "scientist":1,
    "understood":1,
    "whatever":1,
    "called":1,
    "remnant":1,
    "mankind":1,
    "costumes":1,
    "ruins":1,
    "thousands":1,
    "littering":1,
    "jammed":1,
    "hopeless":1,
    "lynching":1,
    "betrayed":1,
    "created":1,
    "couldnt":1,
    "blessing":1,
    "burden":1,
    "dozensyou\u0092re":1,
    "messenger":1,
    "manner":1,
    "adopts":1,
    "portentous":1,
    "pose":1,
    "judgeprophet":1,
    "defending":1,
    "myself":1,
    "lunatics":1,
    "confessed":1,
    "practice":1,
    "proscribed":1,
    "admits":1,
    "machines":1,
    "electricity":1,
    "shared":1,
    "sexes":1,
    "however":1,
    "addition":1,
    "helmets":1,
    "visors":1,
    "eye":1,
    "guards":1,
    "scavenged":1,
    "spared":1,
    "bury":1,
    "harsh":1,
    "libraries":1,
    "laboratoriesyou":1,
    "centers":1,
    "herd":1,
    "honorable":1,
    "cancel":1,
    "erase":1,
    "history":1,
    "began":1,
    "threaten":1,
    "offered":1,
    "played":1,
    "kinsmen":1,
    "plane":1,
    "bomb":1,
    "die":1,
    "thelast":1,
    "reminder":1,
    "rs":1,
    "assent":1,
    "alley":1,
    "solid":1,
    "diameter":1,
    "newspapers":1,
    "roughly":1,
    "conical":1,
    "printout":1,
    "echoes":1,
    "heretics":1,
    "tastefully":1,
    "gather":1,
    "haunts":1,
    "howling":1,
    "dense":1,
    "objects":1,
    "slats":1,
    "scratch":1,
    "vast":1,
    "preaches":1,
    "upsidedown":1,
    "spreadeagled":1,
    "circular":1,
    "plagues":1,
    "onslaught":1,
    "alters":1,
    "deadand":1,
    "asks":1,
    "wivz":1,
    "0n":1,
    "flickeringly":1,
    "bulbs":1,
    "ate":1,
    "burnt":1,
    "failed":1,
    "la":1,
    "flooded":1,
    "dropping":1,
    "groping":1,
    "blazing":1,
    "arc":1,
    "writhing":1,
    "stumbling":1,
    "blindly":1,
    "sidelines":1,
    "stab":1,
    "staked":1,
    "hobbling":1,
    "arelights":1,
    "wink":1,
    "struggling":1,
    "swiftly":1,
    "twist":1,
    "bowl":1,
    "untying":1,
    "semidarkness":1,
    "loosening":1,
    "ankles":1,
    "freeing":1,
    "self":1,
    "cl0se":1,
    "disappearing":1,
    "giving":1,
    "recovering":1,
    "regrouped":1,
    "storeroomseverywhere":1,
    "bearings":1,
    "dimly":1,
    "illuminates":1,
    "lockers":1,
    "uhuh":1,
    "smooth":1,
    "sophisticated":1,
    "profound":1,
    "selfconfidence":1,
    "automatic":1,
    "crucify":1,
    "vaguely":1,
    "vivid":1,
    "fact":1,
    "roast":1,
    "tails":1,
    "shorts":1,
    "boots":1,
    "composed":1,
    "weve":1,
    "reason":1,
    "eyebrows":1,
    "rise":1,
    "mud":1,
    "brings":1,
    "chopping":1,
    "force":1,
    "eisa":1,
    "harder":1,
    "composure":1,
    "cooks":1,
    "muzzle":1,
    "rubbing":1,
    "grudging":1,
    "fool":1,
    "automatically":1,
    "cute":1,
    "saying":1,
    "traverse":1,
    "oakland":1,
    "raider":1,
    "clowning":1,
    "honks":1,
    "fumbling":1,
    "cylindrical":1,
    "capitalize":1,
    "diffusion":1,
    "refraction":1,
    "blowup":1,
    "bluewhite":1,
    "trotting":1,
    "buster":1,
    "ran":1,
    "ramrod":1,
    "seating":1,
    "favor":1,
    "screw":1,
    "roll":1,
    "elbows":1,
    "james":1,
    "bond":1,
    "sift":1,
    "brains":1,
    "spite":1,
    "maam":1,
    "canister":1,
    "alts":1,
    "spurting":1,
    "shrieks":1,
    "skids":1,
    "obstacles":1,
    "heaps":1,
    "cushions":1,
    "advantage":1,
    "refractions":1,
    "veering":1,
    "collisions":1,
    "yards":1,
    "predawn":1,
    "lofts":1,
    "leaving":1,
    "passage":1,
    "phosphorous":1,
    "skid":1,
    "brakes":1,
    "rubber":1,
    "nevillves":1,
    "cam8ra":1,
    "honk":1,
    "prods":1,
    "lump":1,
    "hitch":1,
    "drawers":1,
    "revs":1,
    "flashes":1,
    "veers":1,
    "sails":1,
    "mediumshot":1,
    "steer":1,
    "slot":1,
    "bombs":1,
    "riders":1,
    "disappointed":1,
    "parking":1,
    "cranking":1,
    "exultantly":1,
    "success":1,
    "direction":1,
    "plucks":1,
    "lowers":1,
    "hammer":1,
    "offramp":1,
    "sneaky":1,
    "road":1,
    "perched":1,
    "broadly":1,
    "scratches":1,
    "wed":1,
    "gotten":1,
    "sweet":1,
    "pass":1,
    "approach":1,
    "gunmanis":1,
    "moderately":1,
    "gunman":1,
    "tame":1,
    "twelve":1,
    "nervously":1,
    "tom":1,
    "happening":1,
    "crop":1,
    "evenly":1,
    "divided":1,
    "nuts":1,
    "haven\u0092t":1,
    "healthy":1,
    "wereany":1,
    "goons":1,
    "daytime":1,
    "staying":1,
    "irked":1,
    "seminar":1,
    "ethics":1,
    "kickstand":1,
    "pearlhandled":1,
    "automatics":1,
    "saddlebags":1,
    "staffed":1,
    "style":1,
    "riding":1,
    "jackboots":1,
    "painted":1,
    "fist":1,
    "revolutionwith":1,
    "cookie":1,
    "picture":1,
    "bomber":1,
    "ruffles":1,
    "tommys":1,
    "include":1,
    "reciting":1,
    "memory":1,
    "pathology":1,
    "parameters":1,
    "urban":1,
    "semiurban":1,
    "environment":1,
    "journal":1,
    "june":1,
    "1974":1,
    "incremental":1,
    "effects":1,
    "toxic":1,
    "agents":1,
    "liquid":1,
    "systems":1,
    "delivery":1,
    "microbiological":1,
    "january":1,
    "almighty":1,
    "poisoning":1,
    "senior":1,
    "scratched":1,
    "apply":1,
    "labs":1,
    "postdoc":1,
    "term":1,
    "touched":1,
    "mutual":1,
    "admiration":1,
    "uncomprehendingly":1,
    "reached":1,
    "tertiary":1,
    "we\u0092re":1,
    "primary":1,
    "stunned":1,
    "occurred":1,
    "victims":1,
    "outright":1,
    "albinism":1,
    "psychotic":1,
    "delusions":1,
    "occasional":1,
    "stages":1,
    "torpor":1,
    "gang":1,
    "younger":1,
    "resistance":1,
    "wehold":1,
    "bit":1,
    "sensitive":1,
    "otherwise":1,
    "advanced":1,
    "secondary":1,
    "that\u0092d":1,
    "blow":1,
    "lightthough":1,
    "iris":1,
    "pupil":1,
    "pressure":1,
    "reflexes":1,
    "weeks":1,
    "monstersor":1,
    "fever":1,
    "delirium":1,
    "indefinitely":1,
    "friend":1,
    "warning":1,
    "masonic":1,
    "guitar":1,
    "200":1,
    "patients":1,
    "confused":1,
    "everybodyhas":1,
    "couldn\u0092t":1,
    "reconstitute":1,
    "synthesize":1,
    "antibiotic":1,
    "capturing":1,
    "restraining":1,
    "smashes":1,
    "flask":1,
    "clutching":1,
    "throat":1,
    "dies":1,
    "longshot":1,
    "unloading":1,
    "amazed":1,
    "beauty":1,
    "heavy":1,
    "marriage":1,
    "sing":1,
    "guest":1,
    "helping":1,
    "doorway":1,
    "bylab":1,
    "forgotten":1,
    "mattering":1,
    "climb":1,
    "nearby":1,
    "they\u0092ll":1,
    "soul":1,
    "devil":1,
    "promoting":1,
    "cab":1,
    "glucose":1,
    "drip":1,
    "samples":1,
    "mumbles":1,
    "uneasily":1,
    "hypo":1,
    "fluid":1,
    "phial":1,
    "gives":1,
    "restlessness":1,
    "abates":1,
    "encounter":1,
    "exceptionally":1,
    "miniskirt":1,
    "feminine":1,
    "gin":1,
    "sherry":1,
    "attorney":1,
    "perches":1,
    "candelabra":1,
    "lush":1,
    "insinuating":1,
    "crystal":1,
    "parted":1,
    "hustled":1,
    "thoughtful":1,
    "mouthful":1,
    "housefuzz":1,
    "vacation":1,
    "prince":1,
    "blushes":1,
    "somethings":1,
    "manage":1,
    "patching":1,
    "smug":1,
    "coy":1,
    "massa":1,
    "chiles":1,
    "college":1,
    "electrical":1,
    "rolls":1,
    "tongue":1,
    "barn":1,
    "fork":1,
    "wise":1,
    "tail":1,
    "fooling":1,
    "superbugs":1,
    "clever":1,
    "fell":1,
    "ringing":1,
    "lived":1,
    "ruinsof":1,
    "li":1,
    "sa":1,
    "burial":1,
    "worst":1,
    "wonderful":1,
    "paused":1,
    "shivers":1,
    "noticed":1,
    "hated":1,
    "resented":1,
    "sunlight":1,
    "enjoy":1,
    "clouds":1,
    "oceans":1,
    "slept":1,
    "hid":1,
    "risen":1,
    "lips":1,
    "moist":1,
    "profiles":1,
    "masses":1,
    "intersperse":1,
    "subsound":1,
    "sputter":1,
    "fail":1,
    "loses":1,
    "whines":1,
    "proper":1,
    "fails":1,
    "springs":1,
    "fueled":1,
    "itll":1,
    "pries":1,
    "peer":1,
    "trap":1,
    "cables":1,
    "grows":1,
    "prying":1,
    "rather":1,
    "inches":1,
    "axes":1,
    "splintering":1,
    "overrides":1,
    "poundiiz":1,
    "sceaming":1,
    "holes":1,
    "hustling":1,
    "fivegallon":1,
    "deathly":1,
    "moans":1,
    "upstairs":1,
    "candlelight":1,
    "working":1,
    "foolhardy":1,
    "devils":1,
    "snaking":1,
    "boot":1,
    "covertly":1,
    "shoving":1,
    "lucks":1,
    "paradise":1,
    "hang":1,
    "slung":1,
    "expert":1,
    "agility":1,
    "zachary\u0092s":1,
    "washed":1,
    "moonlight":1,
    "rests":1,
    "curses":1,
    "connects":1,
    "est":1,
    "balconies":1,
    "howl":1,
    "stumble":1,
    "writhe":1,
    "fumbles":1,
    "plunges":1,
    "shrubbery":1,
    "fifth":1,
    "oat":1,
    "reflected":1,
    "contend":1,
    "facing":1,
    "elevatordoors":1,
    "closing":1,
    "nevilleor":1,
    "toss":1,
    "reassuringly":1,
    "cooked":1,
    "blazes":1,
    "seeming":1,
    "aim":1,
    "aiming":1,
    "chew":1,
    "drapery":1,
    "short":1,
    "bursts":1,
    "hose":1,
    "stumbles":1,
    "unveiled":1,
    "contorted":1,
    "murmur":1,
    "youi":1,
    "sprawled":1,
    "cement":1,
    "unaffected":1,
    "twitches":1,
    "votes":1,
    "sorrowful":1,
    "instrument":1,
    "sinned":1,
    "elbow":1,
    "honkys":1,
    "freaked":1,
    "disguised":1,
    "embraces":1,
    "smears":1,
    "paleface":1,
    "dull":1,
    "whove":1,
    "rumpled":1,
    "worried":1,
    "scratching":1,
    "considering":1,
    "proceed":1,
    "glance":1,
    "stable":1,
    "pigment":1,
    "yesterday":1,
    "steady":1,
    "anyone":1,
    "lightly":1,
    "ride":1,
    "he\u0092ll":1,
    "labeled":1,
    "planned":1,
    "parenthood":1,
    "pills":1,
    "returns":1,
    "sack":1,
    "surrounded":1,
    "ambulance":1,
    "account":1,
    "hospitals":1,
    "wait":1,
    "save":1,
    "shock":1,
    "actual":1,
    "dimensions":1,
    "citys":1,
    "impassive":1,
    "horrors":1,
    "toughness":1,
    "scatteredhere":1,
    "stretchers":1,
    "skeletal":1,
    "moderated":1,
    "echo":1,
    "lookout":1,
    "uniforms":1,
    "rotted":1,
    "postures":1,
    "blankly":1,
    "calendar":1,
    "march":1,
    "patronizing":1,
    "buddy":1,
    "anybody":1,
    "happy":1,
    "tree":1,
    "bundles":1,
    "learned":1,
    "makebelieve":1,
    "wondering":1,
    "resistant":1,
    "genes":1,
    "cot":1,
    "device":1,
    "bulb":1,
    "squeeze":1,
    "gently":1,
    "squeezing":1,
    "settling":1,
    "160":1,
    "proof":1,
    "anglosaxon":1,
    "drop":1,
    "corrode":1,
    "bus":1,
    "busses":1,
    "anymore":1,
    "instantly":1,
    "gushes":1,
    "spin":1,
    "treating":1,
    "diseases":1,
    "existed":1,
    "sandwiches":1,
    "onwork":1,
    "invented":1,
    "paid":1,
    "examining":1,
    "examination":1,
    "syringe":1,
    "irony":1,
    "contender":1,
    "nobody\u0092s":1,
    "creeps":1,
    "landlord":1,
    "eases":1,
    "reassured":1,
    "isn\u0092t":1,
    "spooked":1,
    "gotto":1,
    "nothin":1,
    "microscopic":1,
    "often":1,
    "pumping":1,
    "louis":1,
    "pasteur":1,
    "streaking":1,
    "noticeable":1,
    "microscope":1,
    "source":1,
    "inject":1,
    "forthe":1,
    "valleys":1,
    "preoccupied":1,
    "vines":1,
    "fields":1,
    "grow":1,
    "plant":1,
    "streams":1,
    "fish":1,
    "timber":1,
    "mixes":1,
    "coldly":1,
    "moaning":1,
    "research":1,
    "lieutenant":1,
    "ammo":1,
    "resti\u0092ll":1,
    "worry":1,
    "sad":1,
    "subdued":1,
    "untended":1,
    "pedaling":1,
    "met":1,
    "al":1,
    "conceals":1,
    "scurries":1,
    "fearfully":1,
    "lowest":1,
    "basin":1,
    "lays":1,
    "array":1,
    "crouches":1,
    "clasped":1,
    "daring":1,
    "tower":1,
    "pleasei":1,
    "please":1,
    "roaring":1,
    "terrorstruck":1,
    "disappears":1,
    "crosses":1,
    "slowing":1,
    "offering":1,
    "unheeded":1,
    "hypodermic":1,
    "deliriously":1,
    "cops":1,
    "background":1,
    "outto":1,
    "mascara":1,
    "familyin":1,
    "trapped":1,
    "bristles":1,
    "things\u0094":1,
    "forty":1,
    "billion":1,
    "steamy":1,
    "dandy":1,
    "bunch":1,
    "worldthats":1,
    "honeythey":1,
    "therell":1,
    "thatll":1,
    "rembrandts":1,
    "everyone":1,
    "stinking":1,
    "god\u0092ll":1,
    "kicking":1,
    "ashes":1,
    "read":1,
    "shakespeare":1,
    "uppity":1,
    "honky":1,
    "pigand":1,
    "hate":1,
    "ohhh":1,
    "therere":1,
    "panther":1,
    "cell":1,
    "citizens":1,
    "council":1,
    "sds":1,
    "harvard":1,
    "faculty":1,
    "folks":1,
    "united":1,
    "nations":1,
    "boiling":1,
    "matteroffactly":1,
    "classa":1,
    "happens":1,
    "anniversary":1,
    "nogood":1,
    "wrote":1,
    "father":1,
    "catches":1,
    "graves":1,
    "stones":1,
    "disrepair":1,
    "grave":1,
    "cleared":1,
    "gravel":1,
    "gravesite":1,
    "sevenup":1,
    "burying":1,
    "neck":1,
    "plaque":1,
    "orangecrate":1,
    "substantial":1,
    "dates":1,
    "parents":1,
    "lorena":1,
    "mcnally":1,
    "born":1,
    "montgomery":1,
    "alabama":1,
    "california":1,
    "marker":1,
    "tin":1,
    "coffee":1,
    "longwilted":1,
    "conversational":1,
    "tone":1,
    "daddy":1,
    "monologue":1,
    "sob":1,
    "animal":1,
    "copy":1,
    "meters":1,
    "moss":1,
    "ivy":1,
    "cared":1,
    "curious":1,
    "ajar":1,
    "utter":1,
    "sorrow":1,
    "shawl":1,
    "laid":1,
    "leg":1,
    "\u0096":1,
    "woman\u0092s":1,
    "straggled":1,
    "cheeks":1,
    "newborn":1,
    "infant":1,
    "bubbles":1,
    "spewing":1,
    "pool":1,
    "folded":1,
    "splash":1,
    "enjoys":1,
    "parks":1,
    "listlessly":1,
    "absorbed":1,
    "subtle":1,
    "streaks":1,
    "lightened":1,
    "glanced":1,
    "arrived":1,
    "illusion":1,
    "tapped":1,
    "spring":1,
    "skins":1,
    "can\u0092t":1,
    "restless":1,
    "melting":1,
    "wouldif":1,
    "choke":1,
    "mothers":1,
    "babies":1,
    "nine":1,
    "months":1,
    "announcement":1,
    "pregnancy":1,
    "canera":1,
    "missed":1,
    "appointment":1,
    "obstetrician":1,
    "rabbits":1,
    "hound":1,
    "dog":1,
    "bet":1,
    "join":1,
    "embrace":1,
    "hurt":1,
    "hurts":1,
    "returning":1,
    "easily":1,
    "impressed":1,
    "recovery":1,
    "demonstrative":1,
    "anytime":1,
    "nevlle":1,
    "load":1,
    "rover":1,
    "sierras":1,
    "washingtonit":1,
    "delight":1,
    "chicken":1,
    "soupugh":1,
    "stove":1,
    "nevilie":1,
    "18":1,
    "purse":1,
    "concerned":1,
    "skip":1,
    "halfsmiling":1,
    "round":1,
    "lightand":1,
    "questioningly":1,
    "cards":1,
    "mach":1,
    "shops":1,
    "frequently":1,
    "rusted":1,
    "hint":1,
    "sizes":1,
    "reflectively":1,
    "preparing":1,
    "lemme":1,
    "gotwhat":1,
    "afford":1,
    "weakness":1,
    "mine":1,
    "monthif":1,
    "gain":1,
    "weightbut":1,
    "wipes":1,
    "cotton":1,
    "cow":1,
    "quarts":1,
    "wouldn\u0092t":1,
    "formulating":1,
    "formed":1,
    "topside":1,
    "mounted":1,
    "topped":1,
    "decisions":1,
    "collection":1,
    "loonies":1,
    "curedwould":1,
    "fresh":1,
    "you\u0092d":1,
    "wipe":1,
    "interest":1,
    "aroused":1,
    "rats":1,
    "they\u0092re":1,
    "canvas":1,
    "coveted":1,
    "machinegun":1,
    "disbelief":1,
    "p":1,
    "26":1,
    "wryly":1,
    "arent":1,
    "zap":1,
    "em":1,
    "sheepish":1,
    "liking":1,
    "gee":1,
    "mixed":1,
    "katzenjammer":1,
    "affection":1,
    "drawn":1,
    "using":1,
    "juice":1,
    "doc":1,
    "problem":1,
    "nice":1,
    "ours":1,
    "shop":1,
    "examines":1,
    "critically":1,
    "earnestly":1,
    "dressing":1,
    "overseas":1,
    "scrap":1,
    "writes":1,
    "river":1,
    "dammed":1,
    "trust":1,
    "snakes":1,
    "reverie":1,
    "interrupted":1,
    "waves":1,
    "moses":1,
    "undressing":1,
    "dresses":1,
    "threepanel":1,
    "streaked":1,
    "mood":1,
    "dance":1,
    "pockets":1,
    "ofstore":1,
    "such":1,
    "afforded":1,
    "blast":1,
    "strolls":1,
    "interior":1,
    "piece":1,
    "stuck":1,
    "heading":1,
    "quizzically":1,
    "understanding":1,
    "notes":1,
    "meaning":1,
    "kid":1,
    "loading":1,
    "satchelcharge":1,
    "extra":1,
    "clips":1,
    "slings":1,
    "imposing":1,
    "traveling":1,
    "wary":1,
    "wishes":1,
    "embarked":1,
    "venture":1,
    "impulsively":1,
    "piling":1,
    "cosmetics":1,
    "green":1,
    "smearsdark":1,
    "pancake":1,
    "makeup":1,
    "cheek":1,
    "desperately":1,
    "pretend":1,
    "reflects":1,
    "form":1,
    "maze":1,
    "justice":1,
    "scales":1,
    "sword":1,
    "fearful":1,
    "retrace":1,
    "grabbed":1,
    "creatur3s":1,
    "effect":1,
    "maximized":1,
    "paralyzed":1,
    "drag":1,
    "cambra":1,
    "rounding":1,
    "suicidally":1,
    "grim":1,
    "determined":1,
    "captors":1,
    "reassuring":1,
    "panic":1,
    "arriving":1,
    "gutters":1,
    "belief":1,
    "mission":1,
    "inflection":1,
    "forclose":1,
    "swallows":1,
    "benormal":1,
    "trails":1,
    "successive":1,
    "looms":1,
    "sent":1,
    "offer":1,
    "cripple":1,
    "dedication":1,
    "wouldnt":1,
    "dothis":1,
    "loons":1,
    "terrifying":1,
    "concludes":1,
    "brutally":1,
    "stare":1,
    "strangling":1,
    "prepare":1,
    "remembers":1,
    "trot":1,
    "knives":1,
    "freezes":1,
    "perpendicular":1,
    "carry":1,
    "slip":1,
    "soaks":1,
    "pure":1,
    "marches":1,
    "dusk":1,
    "fingertips":1,
    "sweating":1,
    "handle":1,
    "stabs":1,
    "scuttling":1,
    "tip":1,
    "toeing":1,
    "concussion":1,
    "pin":1,
    "ears":1,
    "sounding":1,
    "booming":1,
    "dim":1,
    "waits":1,
    "belly":1,
    "scanning":1,
    "preach":1,
    "oozing":1,
    "obvious":1,
    "foyer":1,
    "downcast":1,
    "lisai\u0092ve":1,
    "avoiding":1,
    "windshield":1,
    "shatters":1,
    "flashing":1,
    "pushing":1,
    "scatter":1,
    "storefront":1,
    "mickey":1,
    "mouse":1,
    "clowns":1,
    "toys":1,
    "camea":1,
    "weakened":1,
    "arrow":1,
    "twitching":1,
    "halfblock":1,
    "wideangle":1,
    "dogtired":1,
    "shrubs":1,
    "fleetingly":1,
    "suggesting":1,
    "downhearted":1,
    "foolish":1,
    "shifts":1,
    "quality":1,
    "yesrobert":1,
    "relaxes":1,
    "threequarterrear":1,
    "floods":1,
    "mechanical":1,
    "iknow":1,
    "knowhow":1,
    "cameramoves":1,
    "extreme":1,
    "deadly":1,
    "necessary":1,
    "central":1,
    "doesn\u0092t":1,
    "dragged":1,
    "entertainment":1,
    "forconcluding":1,
    "destroys":1,
    "ripped":1,
    "smashsd":1,
    "winecabinet":1,
    "cabinets":1,
    "se":1,
    "kindling":1,
    "waited":1,
    "nightmare":1,
    "finished":1,
    "surveys":1,
    "deserves":1,
    "chesspieces":1,
    "surrogate":1,
    "painstakingly":1,
    "wreak":1,
    "listless":1,
    "paying":1,
    "task":1,
    "nearly":1,
    "rolled":1,
    "stung":1,
    "butt":1,
    "dodges":1,
    "skirts":1,
    "respond":1,
    "stuffs":1,
    "neither":1,
    "resists":1,
    "medshot":1,
    "s":1,
    "speak":1,
    "shhh":1,
    "brightlylighted":1,
    "sunup":1,
    "startingup":1,
    "lighten":1,
    "secure":1,
    "prepares":1,
    "bolts":1,
    "drift":1,
    "edges":1,
    "previously":1,
    "sub":1,
    "aural":1,
    "resist":1,
    "cooperate":1,
    "awaiting":1,
    "caressing":1,
    "addressed":1,
    "stabbing":1,
    "uptoward":1,
    "recognizes":1,
    "rapt":1,
    "gazes":1,
    "spot":1,
    "bolt":1,
    "lurid":1,
    "fountains":1,
    "closeup":1,
    "gods":1,
    "sake":1,
    "discovers":1,
    "cast":1,
    "strength":1,
    "chest":1,
    "coverall":1,
    "peace":1,
    "profusely":1,
    "robertrobert":1,
    "quaky":1,
    "knows":1,
    "plazai":1,
    "retreat":1,
    "gradually":1,
    "narrows":1,
    "blink":1,
    "coughs":1,
    "comesback":1,
    "flits":1,
    "receding":1,
    "retreats":1,
    "fades":1,
    "outo":1,
    "cough":1,
    "matches":1,
    "rhythm":1,
    "loud":1,
    "fomutain":1,
    "circuit":1,
    "freed":1,
    "protective":1,
    "mourning":1,
    "waters":1,
    "leader":1,
    "huddled":1,
    "helpless":1,
    "untie":1,
    "shouldershoulder":1,
    "confidence":1,
    "determination":1,
    "impassively":1,
    "touching":1,
    "arranging":1,
    "confusedly":1,
    "tomb":1,
    "wrapped":1,
    "blanket":1,
    "allaround":1,
    "fading":1,
    "experimental":2,
    "neckerchief":2,
    "hums":2,
    "unconcerned":2,
    "passing":2,
    "sight":2,
    "deeply":2,
    "shadowed":2,
    "smash":2,
    "barely":2,
    "title":2,
    "film":2,
    "reading":2,
    "constant":2,
    "crackling":2,
    "number":2,
    "fired":2,
    "garbled":2,
    "american":2,
    "omaha":2,
    "consoles":2,
    "older":2,
    "ape":2,
    "attention":2,
    "blips":2,
    "hysteria":2,
    "process":2,
    "similar":2,
    "motionless":2,
    "abort":2,
    "begun":2,
    "crack":2,
    "fragment":2,
    "reverses":2,
    "china":2,
    "longer":2,
    "dying":2,
    "highways":2,
    "specific":2,
    "hallways":2,
    "beds":2,
    "sign":2,
    "technological":2,
    "teeth":2,
    "airborne":2,
    "helicopter":2,
    "fatigue":2,
    "pilot":2,
    "injects":2,
    "travel":2,
    "boom":2,
    "blind":2,
    "children":2,
    "apple":2,
    "flat":2,
    "irritated":2,
    "seeking":2,
    "steel":2,
    "mint":2,
    "gold":2,
    "contained":2,
    "crashed":2,
    "useless":2,
    "breeze":2,
    "mercedes":2,
    "wilshire":2,
    "battery":2,
    "late":2,
    "faster":2,
    "reaching":2,
    "hundred":2,
    "test":2,
    "darker":2,
    "sideswipes":2,
    "curb":2,
    "lower":2,
    "section":2,
    "rights":2,
    "shoots":2,
    "slows":2,
    "deep":2,
    "remotecontrol":2,
    "relief":2,
    "leaps":2,
    "blackclad":2,
    "crashes":2,
    "pillar":2,
    "reflecting":2,
    "spears":2,
    "stopping":2,
    "sports":2,
    "trucks":2,
    "kept":2,
    "shaking":2,
    "probably":2,
    "opening":2,
    "appears":2,
    "bookcases":2,
    "sculpture":2,
    "angles":2,
    "luck":2,
    "humor":2,
    "loneliness":2,
    "goods":2,
    "refrigerator":2,
    "downstairs":2,
    "sundown":2,
    "catch":2,
    "nervous":2,
    "king":2,
    "badly":2,
    "lifetime":2,
    "breaking":2,
    "attached":2,
    "rail":2,
    "spaced":2,
    "pointed":2,
    "knocked":2,
    "portions":2,
    "access":2,
    "cascading":2,
    "theyve":2,
    "weird":2,
    "range":2,
    "confusion":2,
    "hall":2,
    "suppose":2,
    "farther":2,
    "circle":2,
    "brilliant":2,
    "buildings":2,
    "joshua":2,
    "complexion":2,
    "lenses":2,
    "natural":2,
    "african":2,
    "glare":2,
    "flames":2,
    "sadly":2,
    "lone":2,
    "ways":2,
    "nods":2,
    "grin":2,
    "joke":2,
    "remember":2,
    "uses":2,
    "hearing":2,
    "pointing":2,
    "shake":2,
    "reckon":2,
    "cleansed":2,
    "sweep":2,
    "murder":2,
    "grown":2,
    "early":2,
    "trees":2,
    "diffused":2,
    "suit":2,
    "letters":2,
    "sling":2,
    "utility":2,
    "knife":2,
    "tape":2,
    "hung":2,
    "big":2,
    "scores":2,
    "fifty":2,
    "squats":2,
    "pouch":2,
    "rimini":2,
    "boulevard":2,
    "sector":2,
    "thoughts":2,
    "nest":2,
    "checking":2,
    "decayed":2,
    "ruin":2,
    "nevillets":2,
    "probes":2,
    "closets":2,
    "search":2,
    "everywhere":2,
    "files":2,
    "viciously":2,
    "paneled":2,
    "executive":2,
    "ear":2,
    "response":2,
    "making":2,
    "corners":2,
    "wheres":2,
    "answer":2,
    "displays":2,
    "palls":2,
    "dumb":2,
    "isnt":2,
    "progress":2,
    "upraised":2,
    "male":2,
    "relatively":2,
    "female":2,
    "hips":2,
    "brown":2,
    "dropped":2,
    "among":2,
    "thus":2,
    "calls":2,
    "normal":2,
    "lovely":2,
    "ends":2,
    "slipping":2,
    "bar":2,
    "crash":2,
    "tense":2,
    "reads":2,
    "cobwebs":2,
    "cautiously":2,
    "lighting":2,
    "particular":2,
    "awake":2,
    "outstretched":2,
    "unconscious":2,
    "shook":2,
    "fill":2,
    "great":2,
    "appearance":2,
    "credit":2,
    "sisters":2,
    "business":2,
    "tools":2,
    "sacred":2,
    "pulpit":2,
    "appearing":2,
    "illumination":2,
    "electric":2,
    "evident":2,
    "cloth":2,
    "wear":2,
    "shields":2,
    "shall":2,
    "machinery":2,
    "rubbish":2,
    "nearest":2,
    "compassion":2,
    "questioning":2,
    "smaller":2,
    "talked":2,
    "responsibility":2,
    "throw":2,
    "organized":2,
    "pitiful":2,
    "doctors":2,
    "bear":2,
    "you\u0092ll":2,
    "rites":2,
    "medicine":2,
    "fairly":2,
    "forms":2,
    "individual":2,
    "opaque":2,
    "upon":2,
    "buried":2,
    "burn":2,
    "dangerous":2,
    "engineering":2,
    "barbarians":2,
    "youll":2,
    "tank":2,
    "wooden":2,
    "bound":2,
    "pulled":2,
    "midst":2,
    "weak":2,
    "bizarre":2,
    "laughing":2,
    "insanely":2,
    "throwing":2,
    "wave":2,
    "transition":2,
    "wood":2,
    "piled":2,
    "howls":2,
    "despite":2,
    "agony":2,
    "missing":2,
    "blindness":2,
    "blurred":2,
    "ropes":2,
    "pause":2,
    "slams":2,
    "knees":2,
    "torch":2,
    "shaft":2,
    "amused":2,
    "mister":2,
    "moderate":2,
    "respect":2,
    "nudges":2,
    "said":2,
    "ribs":2,
    "spooks":2,
    "discover":2,
    "container":2,
    "enter":2,
    "blinding":2,
    "explodes":2,
    "motorcycle":2,
    "plan":2,
    "tan":2,
    "rolling":2,
    "path":2,
    "bat":2,
    "piles":2,
    "coke":2,
    "cases":2,
    "leaves":2,
    "collision":2,
    "manages":2,
    "thrown":2,
    "dutchs":2,
    "escape":2,
    "freeway":2,
    "sticks":2,
    "canyon":2,
    "faded":2,
    "thompson":2,
    "submachine":2,
    "machine":2,
    "eight":2,
    "boys":2,
    "least":2,
    "astonished":2,
    "didn\u0092t":2,
    "moved":2,
    "stayed":2,
    "air":2,
    "helmet":2,
    "breeches":2,
    "extended":2,
    "countermeasures":2,
    "1975":2,
    "bedroom":2,
    "third":2,
    "stage":2,
    "fast":2,
    "color":2,
    "really":2,
    "vital":2,
    "steadily":2,
    "sit":2,
    "playing":2,
    "most":2,
    "million":2,
    "immune":2,
    "awed":2,
    "batch":2,
    "expressionless":2,
    "antibodies":2,
    "drugs":2,
    "intercut":2,
    "injecting":2,
    "love":2,
    "song":2,
    "expecting":2,
    "waving":2,
    "splashes":2,
    "resting":2,
    "break":2,
    "dinner":2,
    "phonograph":2,
    "chief":2,
    "staff":2,
    "\u0091em":2,
    "moon":2,
    "bothered":2,
    "someday":2,
    "berkeley":2,
    "ass":2,
    "instead":2,
    "wrong":2,
    "interested":2,
    "army":2,
    "bell":2,
    "corpses":2,
    "gave":2,
    "amidst":2,
    "helped":2,
    "awful":2,
    "hadn\u0092t":2,
    "sooner":2,
    "havent":2,
    "comfortable":2,
    "louder":2,
    "cable":2,
    "cans":2,
    "second":2,
    "zulu":2,
    "gimme":2,
    "pouring":2,
    "heavily":2,
    "hole":2,
    "lurks":2,
    "land":2,
    "swings":2,
    "covering":2,
    "knocks":2,
    "moan":2,
    "promise":2,
    "ah":2,
    "smile":2,
    "grease":2,
    "kiss":2,
    "blinds":2,
    "nude":2,
    "loss":2,
    "kisses":2,
    "four":2,
    "drugstore":2,
    "recalling":2,
    "remains":2,
    "nurses":2,
    "spots":2,
    "strong":2,
    "\u0091till":2,
    "plasma":2,
    "drinking":2,
    "drawing":2,
    "noah":2,
    "terrified":2,
    "easy":2,
    "somewhat":2,
    "hardly":2,
    "ain\u0092t":2,
    "cells":2,
    "ought":2,
    "mountains":2,
    "workbench":2,
    "glad":2,
    "shopping":2,
    "kneeling":2,
    "needle":2,
    "mumbling":2,
    "wants":2,
    "silver":2,
    "herself":2,
    "i\u0092ve":2,
    "best":2,
    "count":2,
    "ruined":2,
    "soon":2,
    "headed":2,
    "ago":2,
    "purposefully":2,
    "cemetery":2,
    "overgrown":2,
    "richard":2,
    "couple":2,
    "times":2,
    "momma":2,
    "glancing":2,
    "astonishment":2,
    "kneels":2,
    "rags":2,
    "fingers":2,
    "slight":2,
    "stillborn":2,
    "possible":2,
    "penlight":2,
    "blond":2,
    "week":2,
    "driven":2,
    "doing":2,
    "eat":2,
    "soup":2,
    "giddy":2,
    "seeing":2,
    "shoot":2,
    "eats":2,
    "helps":2,
    "pint":2,
    "we\u0092ve":2,
    "till":2,
    "thinks":2,
    "pillbox":2,
    "sandbags":2,
    "sister":2,
    "returned":2,
    "somewhere":2,
    "huh":2,
    "changing":2,
    "who\u0092s":2,
    "stupid":2,
    "hopelessness":2,
    "statue":2,
    "relieved":2,
    "sidewalk":2,
    "chant":2,
    "packages":2,
    "marching":2,
    "pavement":2,
    "revealed":2,
    "smoking":2,
    "covers":2,
    "bluish":2,
    "smoke":2,
    "dives":2,
    "judges":2,
    "seat":2,
    "centered":2,
    "bricks":2,
    "toy":2,
    "bleeding":2,
    "vantage":2,
    "remote":2,
    "strange":2,
    "odd":2,
    "complete":2,
    "arrange":2,
    "revenge":2,
    "treasures":2,
    "slashed":2,
    "dream":2,
    "loudly":2,
    "coffins":2,
    "faint":2,
    "track":2,
    "jet":2,
    "los":3,
    "angeles":3,
    "notice":3,
    "convertible":3,
    "driving":3,
    "enters":3,
    "town":3,
    "follow":3,
    "single":3,
    "bullets":3,
    "backward":3,
    "titles":3,
    "names":3,
    "alien":3,
    "twisted":3,
    "anger":3,
    "news":3,
    "war":3,
    "russian":3,
    "including":3,
    "total":3,
    "jesus":3,
    "officer":3,
    "condition":3,
    "yellow":3,
    "alert":3,
    "map":3,
    "approaching":3,
    "origin":3,
    "turning":3,
    "antimissiles":3,
    "minutes":3,
    "initial":3,
    "technicians":3,
    "repeat":3,
    "already":3,
    "state":3,
    "story":3,
    "country":3,
    "civilization":3,
    "filling":3,
    "question":3,
    "conclusion":3,
    "science":3,
    "phone":3,
    "judgment":3,
    "hour":3,
    "satchel":3,
    "coveralls":3,
    "agency":3,
    "visit":3,
    "floors":3,
    "points":3,
    "clothes":3,
    "hanging":3,
    "apart":3,
    "roar":3,
    "school":3,
    "scattered":3,
    "tire":3,
    "box":3,
    "torn":3,
    "sardonically":3,
    "goddamn":3,
    "hangs":3,
    "makes":3,
    "tall":3,
    "presses":3,
    "tough":3,
    "indeed":3,
    "within":3,
    "burst":3,
    "clubs":3,
    "jerks":3,
    "check":3,
    "shelves":3,
    "oil":3,
    "supplies":3,
    "several":3,
    "ornate":3,
    "scotch":3,
    "chamber":3,
    "took":3,
    "finger":3,
    "aren\u0092t":3,
    "partner":3,
    "switch":3,
    "chess":3,
    "noise":3,
    "sighs":3,
    "flood":3,
    "level":3,
    "wrecking":3,
    "crazy":3,
    "bastards":3,
    "image":3,
    "cries":3,
    "grinning":3,
    "reveal":3,
    "computer":3,
    "clearly":3,
    "caught":3,
    "yet":3,
    "forget":3,
    "five":3,
    "gathered":3,
    "destruction":3,
    "mind":3,
    "destroyed":3,
    "knocking":3,
    "lit":3,
    "morning":3,
    "grass":3,
    "sweat":3,
    "canteen":3,
    "recorder":3,
    "block":3,
    "youd":3,
    "drinks":3,
    "year":3,
    "desiccated":3,
    "destroy":3,
    "waste":3,
    "expensive":3,
    "ever":3,
    "draws":3,
    "brief":3,
    "upward":3,
    "manikins":3,
    "dress":3,
    "park":3,
    "pausing":3,
    "directions":3,
    "afternoon":3,
    "drink":3,
    "squints":3,
    "stairs":3,
    "sleeping":3,
    "avoid":3,
    "tiny":3,
    "society":3,
    "pushed":3,
    "flickering":3,
    "tied":3,
    "hoods":3,
    "line":3,
    "insane":3,
    "cure":3,
    "finally":3,
    "mad":3,
    "werent":3,
    "forever":3,
    "today":3,
    "seem":3,
    "wearing":3,
    "goggles":3,
    "removes":3,
    "completes":3,
    "listening":3,
    "leave":3,
    "wasn\u0092t":3,
    "reach":3,
    "ground":3,
    "crawling":3,
    "shut":3,
    "beam":3,
    "son":3,
    "bitch":3,
    "tight":3,
    "setting":3,
    "staring":3,
    "keeps":3,
    "taking":3,
    "dutch\u0092s":3,
    "explosion":3,
    "appear":3,
    "tossing":3,
    "though":3,
    "bathed":3,
    "blinded":3,
    "deafening":3,
    "lot":3,
    "aimed":3,
    "grab":3,
    "smiling":3,
    "damned":3,
    "rubs":3,
    "leather":3,
    "hey":3,
    "am":3,
    "biowar":3,
    "somebody":3,
    "sorry":3,
    "went":3,
    "pretty":3,
    "better":3,
    "looked":3,
    "you\u0092ve":3,
    "goddamned":3,
    "thinking":3,
    "laugh":3,
    "tomorrow":3,
    "saved":3,
    "frozen":3,
    "animals":3,
    "flowers":3,
    "walked":3,
    "meet":3,
    "pounding":3,
    "works":3,
    "change":3,
    "cocks":3,
    "gasoline":3,
    "may":3,
    "robe":3,
    "climbing":3,
    "fourth":3,
    "bushes":3,
    "faces":3,
    "reacts":3,
    "revrse":3,
    "os":3,
    "slide":3,
    "there\u0092s":3,
    "thank":3,
    "hours":3,
    "shelf":3,
    "ward":3,
    "send":3,
    "lighter":3,
    "stuff":3,
    "worth":3,
    "bicycle":3,
    "streak":3,
    "mother":3,
    "outlined":3,
    "build":3,
    "dawn":3,
    "note":3,
    "earlier":3,
    "headlights":3,
    "smashed":3,
    "draperies":3,
    "parked":4,
    "tires":4,
    "drives":4,
    "drive":4,
    "jaw":4,
    "tightens":4,
    "features":4,
    "following":4,
    "missile":4,
    "rising":4,
    "voices":4,
    "together":4,
    "ten":4,
    "apparently":4,
    "thirty":4,
    "larger":4,
    "entire":4,
    "hospital":4,
    "facilities":4,
    "heads":4,
    "station":4,
    "stopped":4,
    "emergency":4,
    "coat":4,
    "colonel":4,
    "waiting":4,
    "vaccine":4,
    "passes":4,
    "walls":4,
    "engine":4,
    "rounds":4,
    "clean":4,
    "new":4,
    "whats":4,
    "main":4,
    "button":4,
    "race":4,
    "simply":4,
    "jumps":4,
    "fallen":4,
    "figures":4,
    "hatred":4,
    "exhausted":4,
    "bright":4,
    "brightly":4,
    "days":4,
    "laughter":4,
    "drops":4,
    "chessboard":4,
    "aside":4,
    "paintings":4,
    "pieces":4,
    "twists":4,
    "carries":4,
    "beans":4,
    "summer":4,
    "sausage":4,
    "let":4,
    "tears":4,
    "sounds":4,
    "quietly":4,
    "every":4,
    "feet":4,
    "glow":4,
    "shooting":4,
    "wasnt":4,
    "pitch":4,
    "dialogue":4,
    "word":4,
    "forbidden":4,
    "weapons":4,
    "evil":4,
    "told":4,
    "snaps":4,
    "living":4,
    "sleep":4,
    "finds":4,
    "breathing":4,
    "food":4,
    "rooms":4,
    "dusty":4,
    "corpse":4,
    "drapes":4,
    "huge":4,
    "bottom":4,
    "ask":4,
    "finishes":4,
    "plague":4,
    "stores":4,
    "liquor":4,
    "bother":4,
    "dressed":4,
    "none":4,
    "alive":4,
    "bench":4,
    "doesnt":4,
    "yourself":4,
    "stretches":4,
    "pours":4,
    "federal":4,
    "general":4,
    "racks":4,
    "free":4,
    "brothers":4,
    "courtroom":4,
    "silence":4,
    "mr":4,
    "surprised":4,
    "understand":4,
    "angrily":4,
    "matter":4,
    "straight":4,
    "call":4,
    "play":4,
    "debris":4,
    "ned":4,
    "rope":4,
    "that\u0092s":4,
    "cycle":4,
    "focuses":4,
    "pain":4,
    "exit":4,
    "final":4,
    "tommy":4,
    "idea":4,
    "knew":4,
    "he\u0092s":4,
    "died":4,
    "visible":4,
    "pale":4,
    "eating":4,
    "lost":4,
    "id":4,
    "honey":4,
    "puzzled":4,
    "nobody":4,
    "kill":4,
    "later":4,
    "forth":4,
    "grapple":4,
    "else":4,
    "beyond":4,
    "bad":4,
    "day":4,
    "weeds":4,
    "scarf":4,
    "houses":5,
    "music":5,
    "fall":5,
    "cannot":5,
    "held":5,
    "raised":5,
    "sky":5,
    "chinese":5,
    "tv":5,
    "transmissions":5,
    "breaks":5,
    "slightly":5,
    "situation":5,
    "real":5,
    "gas":5,
    "streets":5,
    "bodies":5,
    "laboratory":5,
    "i\u0092ll":5,
    "forward":5,
    "rear":5,
    "office":5,
    "dust":5,
    "roof":5,
    "races":5,
    "wheels":5,
    "lifts":5,
    "guns":5,
    "different":5,
    "show":5,
    "rushes":5,
    "high":5,
    "drifts":5,
    "pushes":5,
    "hits":5,
    "penthouse":5,
    "game":5,
    "closed":5,
    "i\u0092m":5,
    "stays":5,
    "covered":5,
    "entrance":5,
    "tell":5,
    "cabinet":5,
    "center":5,
    "talks":5,
    "studying":5,
    "yells":5,
    "wont":5,
    "narrow":5,
    "city":5,
    "wonder":5,
    "art":5,
    "raises":5,
    "scientific":5,
    "live":5,
    "bring":5,
    "power":5,
    "curse":5,
    "checks":5,
    "cover":5,
    "damn":5,
    "distant":5,
    "kicks":5,
    "always":5,
    "furniture":5,
    "approaches":5,
    "crowd":5,
    "clothing":5,
    "jacket":5,
    "shadowy":5,
    "touch":5,
    "whirls":5,
    "believe":5,
    "girls":5,
    "since":5,
    "control":5,
    "strikes":5,
    "peculiar":5,
    "marks":5,
    "use":5,
    "quite":5,
    "half":5,
    "sick":5,
    "talk":5,
    "death":5,
    "changes":5,
    "own":5,
    "name":5,
    "sides":5,
    "give":5,
    "hold":5,
    "care":5,
    "step":5,
    "ill":5,
    "guess":5,
    "exchange":5,
    "either":5,
    "chance":5,
    "even":5,
    "talking":5,
    "bag":5,
    "richies":5,
    "grabs":5,
    "draw":5,
    "centrifuge":5,
    "feel":5,
    "itself":6,
    "speed":6,
    "fires":6,
    "zooms":6,
    "scenes":6,
    "screen":6,
    "clear":6,
    "continues":6,
    "angry":6,
    "illuminated":6,
    "military":6,
    "missiles":6,
    "deserted":6,
    "found":6,
    "sits":6,
    "says":6,
    "signs":6,
    "paper":6,
    "motor":6,
    "shows":6,
    "horror":6,
    "shoulders":6,
    "leans":6,
    "silhouette":6,
    "okay":6,
    "cap":6,
    "arsenal":6,
    "part":6,
    "until":6,
    "three":6,
    "theres":6,
    "loose":6,
    "six":6,
    "child":6,
    "used":6,
    "moving":6,
    "barrel":6,
    "arms":6,
    "filled":6,
    "human":6,
    "beside":6,
    "pick":6,
    "cellar":6,
    "throws":6,
    "punishment":6,
    "skin":6,
    "soft":6,
    "during":6,
    "candles":6,
    "scene":6,
    "blank":6,
    "pan":6,
    "burned":6,
    "carrying":6,
    "45":6,
    "twoshot":6,
    "anyhow":6,
    "standing":6,
    "watches":6,
    "boy":6,
    "anything":6,
    "carefully":6,
    "listen":6,
    "everybody":6,
    "pulling":6,
    "happened":6,
    "except":7,
    "medium":7,
    "shirt":7,
    "becomes":7,
    "seems":7,
    "directly":7,
    "being":7,
    "radio":7,
    "wall":7,
    "various":7,
    "desk":7,
    "fear":7,
    "gone":7,
    "theyre":7,
    "hit":7,
    "shrugs":7,
    "stay":7,
    "revealing":7,
    "lying":7,
    "full":7,
    "might":7,
    "ahead":7,
    "grenades":7,
    "starts":7,
    "black":7,
    "above":7,
    "good":7,
    "beautiful":7,
    "mirror":7,
    "perhaps":7,
    "quickly":7,
    "bust":7,
    "caesar":7,
    "chair":7,
    "water":7,
    "stares":7,
    "cant":7,
    "enough":7,
    "whole":7,
    "youve":7,
    "mouth":7,
    "completely":7,
    "try":7,
    "had":7,
    "tried":7,
    "help":7,
    "wrecked":7,
    "field":7,
    "stand":7,
    "phosphorus":7,
    "gonna":7,
    "grins":7,
    "baby":7,
    "make":7,
    "because":7,
    "silent":7,
    "lies":7,
    "crypt":7,
    "set":8,
    "cars":8,
    "corner":8,
    "pull":8,
    "space":8,
    "darkened":8,
    "seen":8,
    "begin":8,
    "sitting":8,
    "young":8,
    "pans":8,
    "same":8,
    "watch":8,
    "woman":8,
    "wheel":8,
    "without":8,
    "shakes":8,
    "lets":8,
    "distance":8,
    "run":8,
    "belt":8,
    "windows":8,
    "must":8,
    "darkness":8,
    "low":8,
    "generator":8,
    "middle":8,
    "tosses":8,
    "studies":8,
    "once":8,
    "rifle":8,
    "start":8,
    "maybe":8,
    "dissolve":8,
    "heard":8,
    "alone":8,
    "follows":8,
    "bastard":8,
    "slow":8,
    "obviously":8,
    "rapidly":8,
    "bottles":8,
    "frowns":8,
    "years":8,
    "member":8,
    "laughs":8,
    "kind":8,
    "work":8,
    "ive":8,
    "turned":8,
    "glasses":8,
    "mean":8,
    "cart":8,
    "didnt":8,
    "lisa\u0092s":8,
    "grenade":8,
    "yeah":8,
    "climbs":8,
    "ritchie\u0092s":8,
    "spear":8,
    "flash":9,
    "red":9,
    "never":9,
    "both":9,
    "killed":9,
    "watching":9,
    "beginning":9,
    "speech":9,
    "god":9,
    "falling":9,
    "onto":9,
    "himself":9,
    "everything":9,
    "things":9,
    "keep":9,
    "hood":9,
    "ramp":9,
    "hard":9,
    "top":9,
    "profile":9,
    "many":9,
    "far":9,
    "tonight":9,
    "glass":9,
    "board":9,
    "holding":9,
    "picks":9,
    "burning":9,
    "books":9,
    "would":9,
    "someone":9,
    "think":9,
    "corridors":9,
    "ext":9,
    "sequence":9,
    "near":9,
    "shadow":9,
    "thought":9,
    "kids":9,
    "youngsters":9,
    "sunglasses":10,
    "than":10,
    "series":10,
    "cuts":10,
    "each":10,
    "below":10,
    "lab":10,
    "tries":10,
    "runs":10,
    "getting":10,
    "glances":10,
    "doors":10,
    "expression":10,
    "these":10,
    "fine":10,
    "rest":10,
    "also":10,
    "members":10,
    "brought":10,
    "thing":10,
    "you\u0092re":10,
    "manikin":10,
    "court":10,
    "rises":10,
    "came":10,
    "wide":11,
    "few":11,
    "house":11,
    "any":11,
    "under":11,
    "closer":11,
    "suddenly":11,
    "say":11,
    "closes":11,
    "turn":11,
    "night":11,
    "ready":11,
    "reaches":11,
    "floodlights":11,
    "creature":11,
    "sun":11,
    "arm":11,
    "hears":11,
    "trying":11,
    "goes":11,
    "doctor":11,
    "done":11,
    "stadium":11,
    "serum":11,
    "yes":12,
    "equipment":12,
    "zoom":12,
    "much":12,
    "our":12,
    "put":12,
    "inside":12,
    "against":12,
    "youre":12,
    "steps":12,
    "their":12,
    "falls":12,
    "shadows":12,
    "girl":12,
    "creatures":12,
    "want":12,
    "pistol":12,
    "lisas":12,
    "fade":13,
    "while":13,
    "robert":13,
    "edge":13,
    "made":13,
    "outside":13,
    "stop":13,
    "fire":13,
    "puts":13,
    "thats":13,
    "find":13,
    "im":13,
    "pov":13,
    "wears":14,
    "window":14,
    "after":14,
    "world":14,
    "showing":14,
    "between":14,
    "hell":14,
    "too":14,
    "lights":14,
    "body":14,
    "floor":14,
    "pauses":14,
    "begins":14,
    "apt":14,
    "oh":15,
    "gets":15,
    "shoulder":15,
    "moment":15,
    "flashlight":15,
    "reaction":15,
    "need":15,
    "stops":16,
    "fg":16,
    "should":16,
    "nothing":16,
    "here":16,
    "corridor":16,
    "end":16,
    "opens":16,
    "hes":16,
    "coming":16,
    "don\u0092t":16,
    "bed":16,
    "sure":16,
    "something":16,
    "rack":16,
    "walk":16,
    "takes":17,
    "shots":17,
    "int":17,
    "broken":17,
    "which":17,
    "next":17,
    "sees":17,
    "holds":17,
    "move":17,
    "old":17,
    "table":17,
    "candle":17,
    "along":18,
    "area":18,
    "empty":19,
    "front":19,
    "man":19,
    "truck":19,
    "my":19,
    "other":19,
    "place":19,
    "look":19,
    "focus":19,
    "take":19,
    "bike":19,
    "comes":20,
    "reverse":20,
    "frame":20,
    "neville\u0092s":20,
    "speaks":20,
    "large":20,
    "those":20,
    "hair":20,
    "cut":21,
    "just":21,
    "why":21,
    "apartment":21,
    "others":21,
    "been":21,
    "brother":21,
    "little":21,
    "store":21,
    "wine":21,
    "could":22,
    "first":23,
    "past":23,
    "dead":23,
    "white":23,
    "dont":23,
    "bottle":23,
    "group":23,
    "slowly":24,
    "will":24,
    "did":24,
    "hands":24,
    "blood":24,
    "balcony":25,
    "almost":25,
    "last":25,
    "small":25,
    "building":25,
    "does":25,
    "who":25,
    "etc":26,
    "people":26,
    "walking":26,
    "smiles":26,
    "before":26,
    "stun":27,
    "across":27,
    "running":27,
    "only":27,
    "get":27,
    "us":27,
    "plaza":27,
    "when":27,
    "voice":27,
    "off":28,
    "about":28,
    "garage":28,
    "me":28,
    "way":28,
    "hand":29,
    "how":29,
    "know":29,
    "can":30,
    "bg":30,
    "your":31,
    "going":31,
    "got":31,
    "by":32,
    "figure":32,
    "open":32,
    "elevator":32,
    "hear":33,
    "more":33,
    "street":34,
    "dark":34,
    "go":34,
    "zachary":34,
    "like":35,
    "come":35,
    "an":35,
    "behind":36,
    "some":36,
    "time":36,
    "left":36,
    "side":37,
    "where":37,
    "room":37,
    "walks":37,
    "away":37,
    "so":38,
    "point":38,
    "again":38,
    "still":38,
    "do":38,
    "around":38,
    "view":39,
    "head":39,
    "another":39,
    "were":39,
    "looking":39,
    "fountain":39,
    "turns":40,
    "well":40,
    "them":41,
    "through":42,
    "pulls":43,
    "dutch":43,
    "no":44,
    "sound":44,
    "right":46,
    "if":47,
    "toward":47,
    "or":47,
    "stands":47,
    "two":48,
    "eyes":48,
    "moves":48,
    "light":48,
    "very":49,
    "door":51,
    "angle":52,
    "then":52,
    "face":52,
    "gun":55,
    "its":55,
    "not":55,
    "was":55,
    "looks":58,
    "be":58,
    "what":61,
    "have":62,
    "car":63,
    "over":63,
    "now":65,
    "nevilles":66,
    "but":68,
    "has":68,
    "richie":69,
    "all":72,
    "family":72,
    "there":75,
    "one":78,
    "this":88,
    "back":91,
    "that":93,
    "for":94,
    "into":94,
    "they":96,
    "see":100,
    "her":105,
    "him":105,
    "long":109,
    "are":110,
    "she":110,
    "down":113,
    "out":125,
    "with":132,
    "up":132,
    "i":134,
    "camera":137,
    "matthias":138,
    "from":142,
    "at":162,
    "we":179,
    "as":187,
    "his":198,
    "on":210,
    "lisa":212,
    "med":220,
    "you":221,
    "close":228,
    "it":263,
    "he":384,
    "a":404,
    "and":404,
    "is":416,
    "in":426,
    "to":455,
    "neville":456,
    "shot":485,
    "of":552,
    "":600,
    "the":872
}