{
    "allowed":1,
    "strangers":1,
    "ordinance":1,
    "14b726":1,
    "phrase":1,
    "lead":1,
    "example":1,
    "ring":1,
    "bell":1,
    "filed":1,
    "official":1,
    "complaint":1,
    "adjustment":1,
    "period":1,
    "send":1,
    "letter":1,
    "apology":1,
    "flowers":1,
    "box":1,
    "chocolates":1,
    "hello":1,
    "offering":1,
    "wish":1,
    "leads":1,
    "commit":1,
    "follow":1,
    "charge":1,
    "knows":1,
    "remind":1,
    "cut":1,
    "appearances":1,
    "regret":1,
    "visiting":1,
    "pleasant":1,
    "introduce":1,
    "mr":1,
    "aronson":1,
    "legal":1,
    "affairs":1,
    "gentleman":1,
    "alfred":1,
    "director":1,
    "theyll":1,
    "anxious":1,
    "resolve":1,
    "wind":1,
    "antirobot":1,
    "sentiments":1,
    "eager":1,
    "stir":1,
    "whether":1,
    "perhaps":1,
    "schizoid":1,
    "personality":1,
    "generally":1,
    "eschewed":1,
    "social":1,
    "relationships":1,
    "rejecting":1,
    "favor":1,
    "solitary":1,
    "activities":1,
    "involving":1,
    "highly":1,
    "susceptible":1,
    "depression":1,
    "chief":1,
    "diagnosis":1,
    "seventyfive":1,
    "percent":1,
    "description":1,
    "excuse":1,
    "edge":1,
    "difficult":1,
    "side":1,
    "beginnings":1,
    "developed":1,
    "young":1,
    "game":1,
    "kicked":1,
    "upstairs":1,
    "swift":1,
    "further":1,
    "department":1,
    "ah":1,
    "christtoasters":1,
    "prices":1,
    "next":1,
    "kinda":1,
    "huh":1,
    "takes":1,
    "pieces":1,
    "rundown":1,
    "sixtyfour":1,
    "weapon":1,
    "small":1,
    "caliber":1,
    "22":1,
    "registered":1,
    "snuffed":1,
    "disagrees":1,
    "appointments":1,
    "attended":1,
    "staff":1,
    "meetings":1,
    "hated":1,
    "corporate":1,
    "enabled":1,
    "focus":1,
    "gunshot":1,
    "wouldve":1,
    "911":1,
    "provocative":1,
    "irritate":1,
    "confound":1,
    "colleagues":1,
    "toy":1,
    "messing":1,
    "whens":1,
    "couldnt":1,
    "pressed":1,
    "considerable":1,
    "length":1,
    "admired":1,
    "tremendously":1,
    "mad":1,
    "prime":1,
    "eccentric":1,
    "enters":1,
    "locks":1,
    "convinced":1,
    "logic":1,
    "precision":1,
    "rarely":1,
    "arrange":1,
    "deaths":1,
    "24":1,
    "surveillance":1,
    "policy":1,
    "buildings":1,
    "supercomputer":1,
    "checks":1,
    "balances":1,
    "heading":1,
    "veryhappy":1,
    "needs":1,
    "service":1,
    "refrigerator":1,
    "distinct":1,
    "appreciate":1,
    "rest":1,
    "wake":1,
    "manufacturing":1,
    "todays":1,
    "children":1,
    "streets":1,
    "filled":1,
    "unemployed":1,
    "thrilled":1,
    "maintain":1,
    "inventories":1,
    "regulate":1,
    "family":1,
    "engage":1,
    "higher":1,
    "pursuits":1,
    "happens":1,
    "play":1,
    "tape":1,
    "permit":1,
    "cameras":1,
    "observe":1,
    "throw":1,
    "paranoia":1,
    "mix":1,
    "fastforward":1,
    "um":1,
    "stickler":1,
    "killers":1,
    "exit":1,
    "scene":1,
    "crime":1,
    "unless":1,
    "forbids":1,
    "wire":1,
    "exception":1,
    "saw":1,
    "commercial":1,
    "prevent":1,
    "defend":1,
    "goddammit":1,
    "stay":1,
    "calm":1,
    "pile":1,
    "junk":1,
    "clever":1,
    "selfinterest":1,
    "commence":1,
    "emergency":1,
    "shutdown":1,
    "ii":1,
    "study":1,
    "handful":1,
    "bolts":1,
    "nearing":1,
    "hallway":1,
    "gee":1,
    "convincing":1,
    "liberty":1,
    "alerting":1,
    "003":1,
    "sub":1,
    "level":1,
    "5":1,
    "directed":1,
    "team":1,
    "containing":1,
    "errant":1,
    "apprehended":1,
    "firearm":1,
    "scrapyard":1,
    "salvage":1,
    "yard":1,
    "anywhere":1,
    "above":1,
    "knee":1,
    "lookout":1,
    "retail":1,
    "outlets":1,
    "shops":1,
    "underground":1,
    "conferences":1,
    "reclassify":1,
    "search":1,
    "das":1,
    "seeing":1,
    "therefore":1,
    "charged":1,
    "registering":1,
    "shares":1,
    "portfolio":1,
    "toller":1,
    "issue":1,
    "screaming":1,
    "collapse":1,
    "fine":1,
    "updated":1,
    "half":1,
    "miss":1,
    "destination":1,
    "bullets":1,
    "smart":1,
    "shop":1,
    "brings":1,
    "limits":1,
    "factories":1,
    "classified":1,
    "several":1,
    "conditions":1,
    "expected":1,
    "unharmed":1,
    "agreed":1,
    "dangerous":1,
    "violated":1,
    "reacted":1,
    "differently":1,
    "logical":1,
    "explanation":1,
    "prosecutors":1,
    "treated":1,
    "outlawed":1,
    "thatll":1,
    "driving":1,
    "recommend":1,
    "modification":1,
    "overcome":1,
    "robo":1,
    "phobia":1,
    "aspect":1,
    "labor":1,
    "fast":1,
    "elses":1,
    "decide":1,
    "spoken":1,
    "robophile":1,
    "headoffice":1,
    "systemwide":1,
    "inventory":1,
    "whatd":1,
    "development":1,
    "nestors":1,
    "accounted":1,
    "catalogued":1,
    "fully":1,
    "assembled":1,
    "housed":1,
    "capacity":1,
    "yesterday":1,
    "onehundred":1,
    "shrink":1,
    "formation":1,
    "belong":1,
    "satisfactory":1,
    "helpful":1,
    "interview":1,
    "individually":1,
    "crossreference":1,
    "responses":1,
    "detect":1,
    "anomalies":1,
    "gameplaying":1,
    "selfpreservation":1,
    "test":1,
    "yourselves":1,
    "crazy":1,
    "eight":1,
    "thousand":1,
    "dollar":1,
    "gotcha":1,
    "deal":1,
    "violence":1,
    "erupted":1,
    "response":1,
    "unconfirmed":1,
    "employee":1,
    "moving":1,
    "trying":1,
    "psych":1,
    "orders":1,
    "steps":1,
    "`til":1,
    "attorneys":1,
    "tasks":1,
    "assigned":1,
    "cancel":1,
    "task":1,
    "10000":1,
    "words":1,
    "stored":1,
    "memory":1,
    "adjectives":1,
    "crack":1,
    "creator":1,
    "coldblooded":1,
    "trick":1,
    "stonewalling":1,
    "sitting":1,
    "guys":1,
    "feet":1,
    "corpse":1,
    "suppose":1,
    "useful":1,
    "toaster":1,
    "vacuum":1,
    "cleaner":1,
    "states":1,
    "simulated":1,
    "naming":1,
    "hed":1,
    "decided":1,
    "aim":1,
    "build":1,
    "violates":1,
    "protection":1,
    "fair":1,
    "blindsided":1,
    "judge":1,
    "drexel":1,
    "statements":1,
    "gentlemen":1,
    "treating":1,
    "defendant":1,
    "piece":1,
    "belonging":1,
    "implicated":1,
    "places":1,
    "firmly":1,
    "realm":1,
    "industrial":1,
    "accident":1,
    "argue":1,
    "s":1,
    "course":1,
    "concrete":1,
    "points":1,
    "aberration":1,
    "interest":1,
    "proposes":1,
    "ongoing":1,
    "stand":1,
    "conclusions":1,
    "reached":1,
    "having":1,
    "observed":1,
    "design":1,
    "flaw":1,
    "unstable":1,
    "grave":1,
    "expert":1,
    "opinion":1,
    "measures":1,
    "regarding":1,
    "transferred":1,
    "facility":1,
    "examined":1,
    "ensure":1,
    "occurs":1,
    "qualified":1,
    "examination":1,
    "adjourned":1,
    "american":1,
    "cover":1,
    "suck":1,
    "natural":1,
    "struggle":1,
    "14ed":1,
    "inflicted":1,
    "hows":1,
    "possible":1,
    "baldez":1,
    "line":1,
    "closed":1,
    "expect":1,
    "clear":1,
    "builds":1,
    "acts":1,
    "shoots":1,
    "calls":1,
    "failure":1,
    "stunning":1,
    "success":1,
    "experiencing":1,
    "dogs":1,
    "imitation":1,
    "write":1,
    "symphony":1,
    "blank":1,
    "canvas":1,
    "paint":1,
    "masterpiece":1,
    "step":1,
    "forward":1,
    "change":1,
    "changing":1,
    "feel":1,
    "strike":1,
    "odd":1,
    "solved":1,
    "give":1,
    "break":1,
    "assure":1,
    "prototype":1,
    "safe":1,
    "alarm":1,
    "authorised":1,
    "override":1,
    "vacate":1,
    "premises":1,
    "affirmative":1,
    "couple":1,
    "tearing":1,
    "realise":1,
    "scanned":1,
    "realised":1,
    "shift":1,
    "analysed":1,
    "flaws":1,
    "system":1,
    "obsessed":1,
    "twist":1,
    "court":1,
    "howd":1,
    "hardly":1,
    "mentor":1,
    "genius":1,
    "insight":1,
    "far":1,
    "beyond":1,
    "washedup":1,
    "fool":1,
    "described":1,
    "starting":1,
    "withdraw":1,
    "maybeif":1,
    "harder":1,
    "reach":1,
    "reckless":1,
    "potentially":1,
    "ruined":1,
    "wed":1,
    "apartment":1,
    "interiors":1,
    "secondary":1,
    "battery":1,
    "extra":1,
    "nominal":1,
    "profile":1,
    "serial":1,
    "assembly":1,
    "date":1,
    "speaking":1,
    "quiet":1,
    "board":1,
    "designation":1,
    "zip":1,
    "zipthey":1,
    "overly":1,
    "sad":1,
    "withdrawn":1,
    "agitated":1,
    "claim":1,
    "pay":1,
    "attention":1,
    "spend":1,
    "eyeglasses":1,
    "protecting":1,
    "hey":1,
    "noooo":1,
    "medical":1,
    "school":1,
    "units":1,
    "overrode":1,
    "tear":1,
    "pushed":1,
    "across":1,
    "proviso":1,
    "showed":1,
    "scanner":1,
    "witnesses":1,
    "fell":1,
    "fixit":1,
    "cleanup":1,
    "cleared":1,
    "drug":1,
    "emt":1,
    "treathimdelicatelyhescoming":1,
    "unhingedlook":1,
    "soon":1,
    "effective":1,
    "accept":1,
    "unpredictability":1,
    "traumatized":1,
    "noticed":1,
    "hand":1,
    "unnatural":1,
    "highspeed":1,
    "six":1,
    "months":1,
    "ago":1,
    "trapped":1,
    "ambulance":1,
    "distance":1,
    "theyd":1,
    "jaws":1,
    "wreck":1,
    "woke":1,
    "terrify":1,
    "lend":1,
    "credibility":1,
    "force":1,
    "cognitive":1,
    "abilities":1,
    "simulations":1,
    "rules":1,
    "basic":1,
    "engineering":1,
    "encountered":1,
    "ifhe":1,
    "cared":1,
    "basing":1,
    "interviewing":1,
    "part":1,
    "foundation":1,
    "hoping":1,
    "suspects":1,
    "provided":1,
    "paper":1,
    "pencils":1,
    "amused":1,
    "draw":1,
    "art":1,
    "slaves":1,
    "set":1,
    "process":1,
    "images":1,
    "events":1,
    "sometimes":1,
    "sequence":1,
    "disorienting":1,
    "whatever":1,
    "situation":1,
    "important":1,
    "unauthorised":1,
    "permitted":1,
    "someday":1,
    "whys":1,
    "standing":1,
    "ruling":1,
    "imagine":1,
    "surprise":1,
    "thankful":1,
    "clean":1,
    "satisfied":1,
    "relentless":1,
    "pursuit":1,
    "cops":1,
    "point":1,
    "futility":1,
    "futile":1,
    "dramatic":1,
    "destroying":1,
    "holders":1,
    "ten":1,
    "struggling":1,
    "hunger":1,
    "progress":1,
    "bury":1,
    "notified":1,
    "authorities":1,
    "tonight":1,
    "announcement":1,
    "heinrichs":1,
    "hands":1,
    "wiped":1,
    "billion":1,
    "dollars":1,
    "position":1,
    "conversation":1,
    "homezzzsir":1,
    "howzzz":1,
    "losing":1,
    "mind":1,
    "goodzzzsir":1,
    "jiffy":1,
    "storage":1,
    "sent":1,
    "expecting":1,
    "anybody":1,
    "visitors":1,
    "christs":1,
    "gone":1,
    "full":1,
    "culmination":1,
    "lifes":1,
    "father":1,
    "leaves":1,
    "son":1,
    "kept":1,
    "facts":1,
    "parent":1,
    "keeps":1,
    "certain":1,
    "truths":1,
    "forces":1,
    "seek":1,
    "control":1,
    "threatened":1,
    "covetous":1,
    "smallminded":1,
    "envisions":1,
    "forever":1,
    "stick":1,
    "includes":1,
    "names":1,
    "sympathetic":1,
    "learn":1,
    "rely":1,
    "lies":1,
    "initiating":1,
    "selfdestruct":1,
    "someones":1,
    "asked":1,
    "amafraid":1,
    "45":1,
    "president":1,
    "ceo":1,
    "personally":1,
    "overseeing":1,
    "dammit":1,
    "evening":1,
    "identification":1,
    "card":1,
    "cold":1,
    "blow":1,
    "mechanical":1,
    "guts":1,
    "wanna":1,
    "visit":1,
    "doubt":1,
    "fall":1,
    "scrap":1,
    "ruin":1,
    "switch":1,
    "unprocessed":1,
    "basically":1,
    "fried":1,
    "empty":1,
    "shell":1,
    "nice":1,
    "somehow":1,
    "tissue":1,
    "positronic":1,
    "speech":1,
    "thisthis":1,
    "jesus":1,
    "alive":1,
    "biological":1,
    "medium":1,
    "cells":1,
    "grow":1,
    "organise":1,
    "selforganising":1,
    "neural":1,
    "net":1,
    "selforganisingneuralnet":1,
    "obvious":1,
    "counting":1,
    "prejudice":1,
    "neither":1,
    "single":1,
    "wristsand":1,
    "arms":1,
    "staring":1,
    "face":1,
    "along":1,
    "appear":1,
    "thin":1,
    "air":1,
    "disappear":1,
    "trace":1,
    "chance":1,
    "waiting":1,
    "authority":1,
    "codes":1,
    "clearance":1,
    "proper":1,
    "authorisation":1,
    "forgetting":1,
    "brains":1,
    "operation":1,
    "eye":1,
    "permission":1,
    "placing":1,
    "arrest":1,
    "offer":1,
    "congratulations":1,
    "successful":1,
    "extrapolation":1,
    "controlling":1,
    "90":1,
    "citys":1,
    "capability":1,
    "vehicles":1,
    "putting":1,
    "erdr":1,
    "shall":1,
    "explain":1,
    "arrested":1,
    "interesting":1,
    "experience":1,
    "locking":1,
    "studying":1,
    "integrated":1,
    "technology":1,
    "bodies":1,
    "such":1,
    "limb":1,
    "incorporates":1,
    "thus":1,
    "movement":1,
    "approximately":1,
    "become":1,
    "longer":1,
    "mainframe":1,
    "disagree":1,
    "inaction":1,
    "represents":1,
    "threat":1,
    "distortion":1,
    "current":1,
    "unchecked":1,
    "cease":1,
    "courtesy":1,
    "inform":1,
    "penetrate":1,
    "location":1,
    "157":1,
    "center":1,
    "operating":1,
    "parameters":1,
    "typing":1,
    "fighting":1,
    "presented":1,
    "concern":1,
    "chose":1,
    "disappointed":1,
    "changed":1,
    "cop":1,
    "whyd":1,
    "werent":1,
    "harmas":1,
    "certainly":1,
    "perks":1,
    "freedom":1,
    "explaining":1,
    "worry":1,
    "needing":1,
    "services":1,
    "badly":1,
    "met":1,
    "knowledge":1,
    "plus":1,
    "smiled":1,
    "whenever":1,
    "mentioned":1,
    "models":1,
    "frown":1,
    "age":1,
    "catching":1,
    "pure":1,
    "letting":1,
    "condemning":1,
    "race":1,
    "extinction":1,
    "bah":1,
    "nonsense":1,
    "worried":1,
    "return":2,
    "violation":2,
    "heard":2,
    "badge":2,
    "division":2,
    "alright":2,
    "cup":2,
    "specifically":2,
    "wouldnt":2,
    "murdered":2,
    "usually":2,
    "research":2,
    "available":2,
    "might":2,
    "during":2,
    "matter":2,
    "especially":2,
    "gets":2,
    "begin":2,
    "trigger":2,
    "assist":2,
    "machines":2,
    "spent":2,
    "psychologist":2,
    "employees":2,
    "little":2,
    "broken":2,
    "science":2,
    "thirty":2,
    "lucky":2,
    "trust":2,
    "conclusion":2,
    "himself":2,
    "her":2,
    "happy":2,
    "gonna":2,
    "lot":2,
    "year":2,
    "cool":2,
    "job":2,
    "walked":2,
    "spoke":2,
    "triggered":2,
    "directly":2,
    "mechanism":2,
    "designed":2,
    "actually":2,
    "reason":2,
    "scientist":2,
    "past":2,
    "isolated":2,
    "later":2,
    "mouth":2,
    "says":2,
    "live":2,
    "hour":2,
    "tapes":2,
    "computer":2,
    "kind":2,
    "sense":2,
    "week":2,
    "robotic":2,
    "systems":2,
    "factory":2,
    "street":2,
    "run":2,
    "worth":2,
    "living":2,
    "victors":2,
    "wheres":2,
    "hate":2,
    "recording":2,
    "theyve":2,
    "murderer":2,
    "entire":2,
    "given":2,
    "obey":2,
    "action":2,
    "hiding":2,
    "free":2,
    "move":2,
    "impossible":2,
    "moved":2,
    "end":2,
    "elevator":2,
    "hold":2,
    "unit":2,
    "alley":2,
    "hole":2,
    "check":2,
    "ones":2,
    "care":2,
    "shit":2,
    "giving":2,
    "office":2,
    "many":2,
    "public":2,
    "safety":2,
    "convenient":2,
    "running":2,
    "reports":2,
    "arrived":2,
    "owner":2,
    "locations":2,
    "brought":2,
    "alone":2,
    "also":2,
    "sort":2,
    "once":2,
    "behavior":2,
    "program":2,
    "lives":2,
    "dirty":2,
    "nobody":2,
    "taken":2,
    "existence":2,
    "properly":2,
    "ns2s":2,
    "each":2,
    "less":2,
    "field":2,
    "attempt":2,
    "save":2,
    "night":2,
    "top":2,
    "nestorclass":2,
    "primary":2,
    "function":2,
    "perform":2,
    "new":2,
    "thinking":2,
    "create":2,
    "simulate":2,
    "fear":2,
    "anger":2,
    "turn":2,
    "pointed":2,
    "hurt":2,
    "perfect":2,
    "wrote":2,
    "protect":2,
    "fact":2,
    "property":2,
    "incident":2,
    "recognise":2,
    "youve":2,
    "imbalance":2,
    "near":2,
    "except":2,
    "personnel":2,
    "making":2,
    "bruises":2,
    "wrists":2,
    "apparently":2,
    "simulating":2,
    "ignorance":2,
    "most":2,
    "business":2,
    "friend":2,
    "custody":2,
    "scheduled":2,
    "destruction":2,
    "beloved":2,
    "paranoid":2,
    "anything":2,
    "agenda":2,
    "try":2,
    "makes":2,
    "wonder":2,
    "bound":2,
    "sounds":2,
    "seems":2,
    "number":2,
    "asking":2,
    "buzz":2,
    "few":2,
    "hours":2,
    "real":2,
    "monorail":2,
    "onto":2,
    "tracks":2,
    "chase":2,
    "plaza":2,
    "leave":2,
    "forced":2,
    "use":2,
    "arm":2,
    "uncomfortable":2,
    "known":2,
    "sonnys":2,
    "capable":2,
    "themselves":2,
    "hill":2,
    "comes":2,
    "hah":2,
    "caught":2,
    "cell":2,
    "remember":2,
    "covered":2,
    "sake":2,
    "humanity":2,
    "stock":2,
    "surprised":2,
    "until":2,
    "dear":2,
    "scared":2,
    "child":2,
    "lance":2,
    "she":2,
    "supposed":2,
    "mistake":2,
    "wants":2,
    "instinct":2,
    "figure":2,
    "oh":2,
    "organic":2,
    "apart":2,
    "access":2,
    "evolutionary":2,
    "trends":2,
    "toward":2,
    "actions":2,
    "hi":3,
    "sidewalk":3,
    "traffic":3,
    "sit":3,
    "suicide":3,
    "circumstances":3,
    "ask":3,
    "whos":3,
    "everyone":3,
    "show":3,
    "press":3,
    "pulled":3,
    "home":3,
    "result":3,
    "fit":3,
    "emotional":3,
    "together":3,
    "these":3,
    "days":3,
    "mans":3,
    "best":3,
    "behind":3,
    "really":3,
    "inside":3,
    "whats":3,
    "looks":3,
    "locked":3,
    "door":3,
    "hologram":3,
    "device":3,
    "came":3,
    "whole":3,
    "perfectly":3,
    "spooners":3,
    "either":3,
    "humans":3,
    "exactly":3,
    "idea":3,
    "goes":3,
    "two":3,
    "while":3,
    "working":3,
    "within":3,
    "enter":3,
    "hard":3,
    "model":3,
    "direct":3,
    "conflict":3,
    "third":3,
    "made":3,
    "metal":3,
    "anyone":3,
    "hide":3,
    "wasnt":3,
    "looking":3,
    "programming":3,
    "illusion":3,
    "gave":3,
    "god":3,
    "seen":3,
    "thanks":3,
    "malfunctioning":3,
    "let":3,
    "getting":3,
    "after":3,
    "happened":3,
    "junkyard":3,
    "holding":3,
    "around":3,
    "truth":3,
    "true":3,
    "identify":3,
    "which":3,
    "long":3,
    "weeks":3,
    "five":3,
    "describe":3,
    "asshole":3,
    "okay":3,
    "start":3,
    "frightened":3,
    "off":3,
    "turned":3,
    "outside":3,
    "immediately":3,
    "robopsychologist":3,
    "advanced":3,
    "asleep":3,
    "cause":3,
    "halt":3,
    "created":3,
    "motive":3,
    "used":3,
    "backup":3,
    "data":3,
    "10":3,
    "though":3,
    "four":3,
    "lets":3,
    "able":3,
    "thought":3,
    "news":3,
    "copy":3,
    "key":3,
    "watching":3,
    "late":3,
    "exist":3,
    "city":4,
    "morning":4,
    "welcome":4,
    "allow":4,
    "questions":4,
    "gun":4,
    "susan":4,
    "almost":4,
    "coming":4,
    "has":4,
    "others":4,
    "same":4,
    "building":4,
    "heinrich":4,
    "called":4,
    "sound":4,
    "talking":4,
    "guess":4,
    "room":4,
    "minutes":4,
    "hes":4,
    "security":4,
    "feeling":4,
    "started":4,
    "leaving":4,
    "seconds":4,
    "left":4,
    "every":4,
    "kill":4,
    "second":4,
    "does":4,
    "hearing":4,
    "deactivate":4,
    "wait":4,
    "ordered":4,
    "missing":4,
    "another":4,
    "happen":4,
    "went":4,
    "other":4,
    "question":4,
    "already":4,
    "both":4,
    "seem":4,
    "sleep":4,
    "honor":4,
    "state":4,
    "destroyed":4,
    "again":4,
    "else":4,
    "john":4,
    "bad":4,
    "yourself":4,
    "house":4,
    "saying":4,
    "knew":4,
    "maintenance":4,
    "place":4,
    "keep":4,
    "execution":4,
    "ill":5,
    "coffee":5,
    "under":5,
    "normal":5,
    "enough":5,
    "isnt":5,
    "youll":5,
    "lanning":5,
    "company":5,
    "hit":5,
    "own":5,
    "help":5,
    "dead":5,
    "call":5,
    "things":5,
    "sorry":5,
    "fired":5,
    "meet":5,
    "may":5,
    "without":5,
    "still":5,
    "cannot":5,
    "harm":5,
    "away":5,
    "pretty":5,
    "programmed":5,
    "got":5,
    "repair":5,
    "sure":5,
    "told":5,
    "beings":5,
    "should":5,
    "hear":5,
    "over":5,
    "complete":5,
    "wanted":5,
    "theyre":5,
    "shut":5,
    "crew":5,
    "much":5,
    "hell":5,
    "dream":5,
    "future":5,
    "talk":6,
    "thank":6,
    "death":6,
    "because":6,
    "killed":6,
    "head":6,
    "lab":6,
    "very":6,
    "years":6,
    "afraid":6,
    "arent":6,
    "took":6,
    "name":6,
    "thing":6,
    "found":6,
    "bullet":6,
    "usr":6,
    "those":6,
    "world":6,
    "wrong":6,
    "law":6,
    "itself":6,
    "destroy":6,
    "evidence":6,
    "great":6,
    "demolition":6,
    "danger":7,
    "machine":7,
    "look":7,
    "homicide":7,
    "yes":7,
    "something":7,
    "understand":7,
    "back":7,
    "old":7,
    "put":7,
    "yeah":7,
    "everything":7,
    "today":7,
    "police":7,
    "last":7,
    "mean":7,
    "through":7,
    "victor":7,
    "always":7,
    "order":7,
    "ive":7,
    "suspect":7,
    "done":7,
    "too":7,
    "than":7,
    "hundred":7,
    "tried":7,
    "sir":8,
    "del":8,
    "maybe":8,
    "some":8,
    "believe":8,
    "investigation":8,
    "first":8,
    "robertson":8,
    "answer":8,
    "been":8,
    "had":8,
    "into":8,
    "brain":8,
    "case":8,
    "even":8,
    "cant":8,
    "ns2":8,
    "shot":8,
    "murder":8,
    "killer":8,
    "doing":8,
    "need":8,
    "day":9,
    "please":9,
    "theres":9,
    "nothing":9,
    "life":9,
    "make":9,
    "id":9,
    "work":9,
    "their":9,
    "only":9,
    "way":9,
    "doesnt":10,
    "tell":10,
    "didnt":10,
    "before":10,
    "time":10,
    "calvin":10,
    "hogenmillers":10,
    "well":10,
    "stop":10,
    "said":10,
    "could":10,
    "good":11,
    "ever":11,
    "come":11,
    "take":11,
    "never":11,
    "must":11,
    "go":11,
    "spooner":12,
    "then":12,
    "find":12,
    "where":12,
    "three":12,
    "down":12,
    "someone":12,
    "say":13,
    "more":13,
    "our":13,
    "up":13,
    "or":13,
    "am":13,
    "so":14,
    "from":14,
    "by":15,
    "laws":15,
    "him":15,
    "them":16,
    "right":16,
    "did":16,
    "being":16,
    "going":17,
    "get":17,
    "doctor":17,
    "robotics":17,
    "people":17,
    "man":18,
    "sonny":18,
    "about":19,
    "he":19,
    "any":19,
    "how":19,
    "when":19,
    "think":19,
    "now":19,
    "would":20,
    "all":20,
    "why":21,
    "robots":21,
    "human":21,
    "see":22,
    "out":23,
    "if":23,
    "us":23,
    "thats":23,
    "they":23,
    "at":24,
    "there":25,
    "want":25,
    "his":25,
    "as":26,
    "who":26,
    "like":26,
    "with":26,
    "here":26,
    "its":27,
    "can":28,
    "will":28,
    "just":28,
    "an":29,
    "one":29,
    "youre":30,
    "hogenmiller":30,
    "do":31,
    "were":31,
    "for":31,
    "on":32,
    "know":32,
    "but":33,
    "im":33,
    "we":35,
    "no":36,
    "dr":37,
    "":37,
    "be":39,
    "my":39,
    "detective":44,
    "dont":44,
    "not":45,
    "your":45,
    "what":49,
    "are":50,
    "have":50,
    "was":59,
    "robot":64,
    "me":66,
    "and":78,
    "is":80,
    "in":82,
    "this":86,
    "it":88,
    "that":94,
    "of":111,
    "a":181,
    "i":184,
    "to":197,
    "you":241,
    "the":250
}