{
    "cares":1,
    "envelope":1,
    "period":1,
    "hats":1,
    "pin":1,
    "cannot":1,
    "unless":1,
    "washes":1,
    "india":1,
    "ink":1,
    "gray":1,
    "dirt":1,
    "clown":1,
    "changed":1,
    "artificial":1,
    "though":1,
    "drawn":1,
    "seems":1,
    "ignore":1,
    "sandy":1,
    "showoff":1,
    "boat":1,
    "write":1,
    "private":1,
    "together":1,
    "kleenex":1,
    "greaser":1,
    "guy":1,
    "atlas":1,
    "vanlaninghams":1,
    "pittsburgh":1,
    "bully":1,
    "practically":1,
    "arranged":1,
    "marriage":1,
    "peanut":1,
    "brains":1,
    "knot":1,
    "pushover":1,
    "hook":1,
    "works":1,
    "ladies":1,
    "propose":1,
    "toast":1,
    "honor":1,
    "celebration":1,
    "engagement":1,
    "mister":1,
    "vanlaningham":1,
    "serve":1,
    "hitest":1,
    "engineer":1,
    "ideas":1,
    "invented":1,
    "production":1,
    "ship":1,
    "thirtymaybeforty":1,
    "thousand":1,
    "cabinets":1,
    "map":1,
    "advice":1,
    "intestinal":1,
    "produced":1,
    "bacterial":1,
    "metabolism":1,
    "food":1,
    "residues":1,
    "colon":1,
    "mixture":1,
    "oxygen":1,
    "hydrogen":1,
    "carbon":1,
    "dioxide":1,
    "ingredient":1,
    "produce":1,
    "genetic":1,
    "inherited":1,
    "leading":1,
    "uterus":1,
    "vulva":1,
    "assholes":1,
    "skiing":1,
    "mustve":1,
    "skipped":1,
    "ramp":1,
    "grandfather":1,
    "grades":1,
    "dropped":1,
    "kilroy":1,
    "chucking":1,
    "morningnoonandnight":1,
    "sickness":1,
    "barefoot":1,
    "puking":1,
    "patterns":1,
    "talks":1,
    "hours":1,
    "pattern":1,
    "books":1,
    "silent":1,
    "treatment":1,
    "luck":1,
    "swimming":1,
    "words":1,
    "latin":1,
    "light":1,
    "knuckleheads":1,
    "early":1,
    "air":1,
    "umbrella":1,
    "buy":1,
    "sport":1,
    "cleaners":1,
    "packing":1,
    "dougs":1,
    "baloney":1,
    "starts":1,
    "problems":1,
    "stalling":1,
    "fuel":1,
    "filter":1,
    "clogged":1,
    "tank":1,
    "low":1,
    "everyonceinawhile":1,
    "reading":1,
    "reads":1,
    "bait":1,
    "shop":1,
    "nobody":1,
    "store":1,
    "erniell":1,
    "bottles":1,
    "zipper":1,
    "room":1,
    "horton":1,
    "classroom":1,
    "cabinet":1,
    "says":1,
    "true":1,
    "moms":1,
    "smooth":1,
    "bosss":1,
    "saved":1,
    "companys":1,
    "contracts":1,
    "dried":1,
    "driving":1,
    "careful":1,
    "zipping":1,
    "license":1,
    "hanging":1,
    "dates":1,
    "prefer":1,
    "backyard":1,
    "friday":1,
    "folks":1,
    "tricked":1,
    "watching":1,
    "polished":1,
    "handsome":1,
    "sexy":1,
    "sophisticated":1,
    "pipesmokers":1,
    "smarter":1,
    "flunked":1,
    "biology":1,
    "albert":1,
    "einstein":1,
    "threepointtwo":1,
    "act":1,
    "goddamn":1,
    "accidentally":1,
    "brushing":1,
    "teeth":1,
    "comes":1,
    "redandwhite":1,
    "pepsodent":1,
    "babys":1,
    "their":1,
    "spoiled":1,
    "brat":1,
    "paar":1,
    "suitcase":1,
    "`ready":1,
    "willing":1,
    "itch":1,
    "scratch":1,
    "bored":1,
    "rebound":1,
    "fake":1,
    "laid":1,
    "word":1,
    "son":1,
    "earth":1,
    "sense":1,
    "sounds":1,
    "ridiculous":1,
    "corrupted":1,
    "led":1,
    "astray":1,
    "boyfriends":1,
    "homework":1,
    "incomplete":1,
    "manage":1,
    "bates":1,
    "drawing":1,
    "boobs":1,
    "mamie":1,
    "eisenhower":1,
    "everybodys":1,
    "persona":1,
    "non":1,
    "grata":1,
    "outlived":1,
    "usefulness":1,
    "`useful":1,
    "imagination":1,
    "whole":1,
    "turns":1,
    "takes":1,
    "fountain":1,
    "park":1,
    "affair":1,
    "loud":1,
    "accept":1,
    "apology":1,
    "cheaper":1,
    "stays":1,
    "save":1,
    "pay":1,
    "rent":1,
    "moneys":1,
    "tight":1,
    "kidding":1,
    "working":1,
    "summers":1,
    "against":1,
    "moneyll":1,
    "separated":1,
    "difference":1,
    "saying":1,
    "knocked":1,
    "asleep":1,
    "nuts":1,
    "afford":1,
    "fourpoint0":1,
    "context":1,
    "minute":1,
    "mmmm":1,
    "howard":1,
    "lambert":1,
    "four":1,
    "pays":1,
    "ma":1,
    "muriel":1,
    "doris":1,
    "hang":1,
    "bridge":1,
    "adults":1,
    "sound":1,
    "movie":1,
    "rosalie":1,
    "nelson":1,
    "eddy":1,
    "jeanette":1,
    "macdonald":1,
    "powell":1,
    "kissed":1,
    "hmm":1,
    "able":1,
    "costs":1,
    "bright":1,
    "webb":1,
    "many":1,
    "restaurants":1,
    "busboy":1,
    "worth":1,
    "meal":1,
    "charlied":1,
    "highbrows":1,
    "extremely":1,
    "understood":1,
    "tent":1,
    "tough":1,
    "bird":1,
    "eggs":1,
    "ditch":1,
    "road":1,
    "near":1,
    "county":1,
    "ages":1,
    "everyday":1,
    "mood":1,
    "cream":1,
    "scoop":1,
    "pingpong":1,
    "remind":1,
    "hicksville":1,
    "usa":1,
    "riding":1,
    "tails":1,
    "prick":1,
    "peckerhead":1,
    "weasel":1,
    "lee":1,
    "straight":1,
    "youve":1,
    "painting":1,
    "spot":1,
    "minutes":1,
    "pull":1,
    "darn":1,
    "keeps":1,
    "sinking":1,
    "pavement":1,
    "hand":1,
    "base":1,
    "fits":1,
    "sparetireholderoner":1,
    "manual":1,
    "running":1,
    "bank":1,
    "close":1,
    "stopping":1,
    "byebye":1,
    "dollar":1,
    "kids":1,
    "picnics":1,
    "parking":1,
    "meter":1,
    "ticket":1,
    "sees":1,
    "join":1,
    "depends":1,
    "noon":1,
    "sometime":1,
    "sun":1,
    "stroke":1,
    "top":1,
    "cool":1,
    "answers":1,
    "64000":1,
    "xray":1,
    "vision":1,
    "sing":1,
    "pat":1,
    "boone":1,
    "negro":1,
    "tons":1,
    "absolutely":1,
    "delighted":1,
    "unfortunately":1,
    "treating":1,
    "treat":1,
    "somebody":1,
    "scream":1,
    "final":1,
    "older":1,
    "cops":1,
    "cooler":1,
    "hothead":1,
    "soap":1,
    "washing":1,
    "machine":1,
    "overflowed":1,
    "punched":1,
    "broke":1,
    "bastard":1,
    "heat":1,
    "capped":1,
    "mouth":1,
    "scare":1,
    "ways":1,
    "admit":1,
    "biggest":1,
    "photograph":1,
    "probably":1,
    "named":1,
    "initials":1,
    "jc":1,
    "drowned":1,
    "death":1,
    "island":1,
    "islands":1,
    "middle":1,
    "winter":1,
    "twenty":1,
    "bucks":1,
    "through":1,
    "daredevils":1,
    "once":1,
    "backflip":1,
    "roof":1,
    "pile":1,
    "leaves":1,
    "snuck":1,
    "dare":1,
    "moon":1,
    "nudity":1,
    "hypocritical":1,
    "insincere":1,
    "exactly":1,
    "hide":1,
    "nothings":1,
    "water":1,
    "tomatoes":1,
    "lives":1,
    "teach":1,
    "wiggle":1,
    "instead":1,
    "oww":1,
    "accident":1,
    "crabby":1,
    "curious":1,
    "touch":1,
    "breasts":1,
    "taking":1,
    "sisters":1,
    "turtles":1,
    "blames":1,
    "fooled":1,
    "fault":1,
    "kick":1,
    "nut":1,
    "shipped":1,
    "clinic":1,
    "wisconsin":1,
    "truth":1,
    "follow":1,
    "bathroom":1,
    "inside":1,
    "each":1,
    "seeing":1,
    "doghouse":1,
    "whos":1,
    "likely":1,
    "painted":1,
    "nowhere":1,
    "appreciate":1,
    "agreed":1,
    "frightened":1,
    "hiding":1,
    "easier":1,
    "grown":1,
    "child":1,
    "bringing":1,
    "susie":1,
    "sharp":1,
    "razor":1,
    "blades":1,
    "sent":1,
    "soon":1,
    "plans":1,
    "include":1,
    "wealthy":1,
    "mine":1,
    "dear":1,
    "police":1,
    "sonofabitch":1,
    "behind":1,
    "runt":1,
    "stud":1,
    "poorboy":1,
    "half":1,
    "suit":1,
    "invent":1,
    "ends":1,
    "somehow":1,
    "mornings":1,
    "lost":1,
    "cry":1,
    "shouldve":1,
    "taken":1,
    "dropping":1,
    "foolish":1,
    "idiotic":1,
    "doorknob":1,
    "carry":1,
    "garbage":1,
    "cans":1,
    "curb":1,
    "dies":1,
    "helpful":1,
    "fairly":1,
    "obvious":1,
    "woolworths":1,
    "lunch":1,
    "counter":1,
    "sudden":1,
    "standing":1,
    "screaming":1,
    "yelling":1,
    "sleeping":1,
    "husband":1,
    "speechless":1,
    "tongue":1,
    "ease":1,
    "affairs":1,
    "type":1,
    "ahhh":1,
    "cross":1,
    "lord":1,
    "knows":1,
    "airplanes":1,
    "bridges":1,
    "skyscrapers":1,
    "bras":1,
    "utilize":1,
    "fundamentals":1,
    "structural":1,
    "stable":1,
    "foundation":1,
    "resists":1,
    "compression":1,
    "carefully":1,
    "calculated":1,
    "cantilevered":1,
    "elements":1,
    "provide":1,
    "support":1,
    "ahh":1,
    "conversation":1,
    "library":1,
    "shopping":1,
    "set":1,
    "designs":1,
    "taller":1,
    "roped":1,
    "reed":1,
    "hall":1,
    "visitor":1,
    "downstairs":1,
    "awww":1,
    "puritans":1,
    "tarandfeather":1,
    "escape":1,
    "sterno":1,
    "panties":1,
    "welcome":1,
    "ohjesusdidwe":1,
    "drunks":1,
    "window":1,
    "freezing":1,
    "wastebasket":1,
    "embarrassed":1,
    "dying":1,
    "blotto":1,
    "happens":1,
    "cleaning":1,
    "wiping":1,
    "suddenly":1,
    "realized":1,
    "everythings":1,
    "perfect":1,
    "timing":1,
    "youngest":1,
    "sweep":1,
    "move":1,
    "senior":1,
    "scenes":1,
    "plays":1,
    "competition":1,
    "among":1,
    "students":1,
    "scene":1,
    "umm":1,
    "castles":1,
    "rooftop":1,
    "l":1,
    "models":1,
    "kid":1,
    "makebelieve":1,
    "tore":1,
    "farmhouse":1,
    "tear":1,
    "worried":1,
    "blew":1,
    "probation":1,
    "pulled":1,
    "bedcheck":1,
    "dorm":1,
    "messed":1,
    "sundays":1,
    "nickels":1,
    "expect":1,
    "apologize":1,
    "betrayed":1,
    "betray":1,
    "rid":1,
    "kill":1,
    "herself":1,
    "deserve":1,
    "revenge":1,
    "evening":1,
    "score":1,
    "book":1,
    "unlisted":1,
    "freelance":1,
    "drafting":1,
    "wrote":1,
    "mentioned":1,
    "kept":1,
    "forgetting":1,
    "heavens":1,
    "honey":1,
    "silly":1,
    "meet":1,
    "anybody":1,
    "possible":1,
    "single":1,
    "starch":1,
    "eligible":1,
    "drew":1,
    "carter":1,
    "smells":1,
    "remembered":1,
    "smiling":1,
    "times":1,
    "bea":1,
    "during":1,
    "vacations":1,
    "proposed":1,
    "obviously":1,
    "memory":1,
    "kinds":1,
    "situation":1,
    "cheap":1,
    "noise":1,
    "glue":1,
    "paper":1,
    "sam":1,
    "lillian":1,
    "seats":1,
    "whatthehell":1,
    "pencil":1,
    "scar":1,
    "holein":1,
    "theground":1,
    "illinois":1,
    "cancer":1,
    "flu":1,
    "state":1,
    "passes":1,
    "wondering":1,
    "left":1,
    "hotel":1,
    "hypocrites":1,
    "grandma":1,
    "starving":1,
    "stick":1,
    "handle":1,
    "york":1,
    "learn":1,
    "agreement":1,
    "mobilized":1,
    "stopped":1,
    "tanks":1,
    "bombers":1,
    "detroit":1,
    "desks":1,
    "ammo":1,
    "mortar":1,
    "high":1,
    "twice":1,
    "figured":1,
    "thehell":1,
    "fullsuspension":1,
    "1937":1,
    "desoto":1,
    "coupe":1,
    "convertible":1,
    "parked":1,
    "wave":1,
    "goodbye":1,
    "stood":1,
    "theyd":1,
    "thatd":1,
    "laugh":1,
    "snowballs":1,
    "riley":1,
    "became":1,
    "twelve":1,
    "cents":1,
    "pocket":1,
    "spy":1,
    "porch":1,
    "radio":1,
    "since":1,
    "pouring":1,
    "ignorant":1,
    "christs":1,
    "blamed":1,
    "letting":1,
    "less":1,
    "susies":1,
    "cake":1,
    "ears":1,
    "stuffed":1,
    "percodan":1,
    "clean":1,
    "looked":1,
    "owed":1,
    "forgive":1,
    "starting":1,
    "line":2,
    "busy":2,
    "looks":2,
    "such":2,
    "may":2,
    "person":2,
    "sideburns":2,
    "smokes":2,
    "alices":2,
    "marrying":2,
    "afraid":2,
    "gentlemen":2,
    "five":2,
    "morning":2,
    "fill":2,
    "er":2,
    "hmmm":2,
    "suspension":2,
    "year":2,
    "desk":2,
    "free":2,
    "waste":2,
    "louise":2,
    "howd":2,
    "gas":2,
    "means":2,
    "farts":2,
    "vagina":2,
    "canal":2,
    "accepted":2,
    "swing":2,
    "stinks":2,
    "figure":2,
    "baby":2,
    "already":2,
    "hour":2,
    "feeling":2,
    "shell":2,
    "boathouse":2,
    "few":2,
    "boring":2,
    "eunuch":2,
    "boy":2,
    "business":2,
    "coat":2,
    "pick":2,
    "along":2,
    "root":2,
    "dognsuds":2,
    "maam":2,
    "movies":2,
    "sell":2,
    "caught":2,
    "grade":2,
    "either":2,
    "screwed":2,
    "lloyds":2,
    "married":2,
    "ass":2,
    "matters":2,
    "pants":2,
    "chin":2,
    "dead":2,
    "yet":2,
    "scared":2,
    "job":2,
    "boyfriend":2,
    "fire":2,
    "crazy":2,
    "babysitting":2,
    "pipe":2,
    "average":2,
    "sister":2,
    "surprised":2,
    "story":2,
    "brylcreme":2,
    "funny":2,
    "tube":2,
    "peters":2,
    "problem":2,
    "warning":2,
    "dependable":2,
    "exciting":2,
    "hello":2,
    "necessary":2,
    "yourself":2,
    "question":2,
    "idea":2,
    "answer":2,
    "slept":2,
    "history":2,
    "picture":2,
    "happy":2,
    "favor":2,
    "friends":2,
    "live":2,
    "fine":2,
    "anymore":2,
    "visit":2,
    "college":2,
    "divorce":2,
    "pregnant":2,
    "kicked":2,
    "excuse":2,
    "university":2,
    "pennsylvania":2,
    "roommates":2,
    "theatre":2,
    "outside":2,
    "play":2,
    "saw":2,
    "theater":2,
    "proud":2,
    "wonder":2,
    "place":2,
    "walk":2,
    "dip":2,
    "shadow":2,
    "screw":2,
    "douglas":2,
    "john":2,
    "charles":2,
    "git":2,
    "board":2,
    "give":2,
    "river":2,
    "mothers":2,
    "asking":2,
    "deal":2,
    "acting":2,
    "makes":2,
    "happen":2,
    "choice":2,
    "between":2,
    "cafeteria":2,
    "plain":2,
    "dog":2,
    "hit":2,
    "tooth":2,
    "beautiful":2,
    "telling":2,
    "face":2,
    "fathers":2,
    "bag":2,
    "month":2,
    "born":2,
    "jaceys":2,
    "froze":2,
    "mud":2,
    "big":2,
    "naked":2,
    "dared":2,
    "run":2,
    "tree":2,
    "impossible":2,
    "weeks":2,
    "stewardess":2,
    "kissing":2,
    "touching":2,
    "sneak":2,
    "screwing":2,
    "dressed":2,
    "leak":2,
    "found":2,
    "loves":2,
    "somewhere":2,
    "cut":2,
    "finger":2,
    "piano":2,
    "pedal":2,
    "rest":2,
    "sake":2,
    "sooner":2,
    "exist":2,
    "actually":2,
    "eight":2,
    "months":2,
    "woke":2,
    "started":2,
    "coffee":2,
    "fix":2,
    "often":2,
    "afternoon":2,
    "men":2,
    "engaged":2,
    "bye":2,
    "drunk":2,
    "building":2,
    "cold":2,
    "underpants":2,
    "puke":2,
    "show":2,
    "class":2,
    "sets":2,
    "whose":2,
    "picked":2,
    "romeo":2,
    "juliet":2,
    "ten":2,
    "start":2,
    "basement":2,
    "merry":2,
    "exams":2,
    "stitches":2,
    "eyebrow":2,
    "boxes":2,
    "expert":2,
    "except":2,
    "sons":2,
    "loved":2,
    "huh":3,
    "open":3,
    "kotex":3,
    "tried":3,
    "number":3,
    "wash":3,
    "itll":3,
    "worse":3,
    "werent":3,
    "understand":3,
    "youd":3,
    "wants":3,
    "letter":3,
    "meant":3,
    "chance":3,
    "tie":3,
    "borrow":3,
    "shells":3,
    "suggested":3,
    "jeez":3,
    "daughter":3,
    "three":3,
    "sir":3,
    "midwest":3,
    "methane":3,
    "secret":3,
    "lot":3,
    "family":3,
    "encyclopedia":3,
    "dictionary":3,
    "fast":3,
    "eat":3,
    "ivy":3,
    "league":3,
    "steve":3,
    "wallpaper":3,
    "spend":3,
    "invite":3,
    "girls":3,
    "today":3,
    "hot":3,
    "forgot":3,
    "likes":3,
    "couple":3,
    "dick":3,
    "pretty":3,
    "owns":3,
    "needed":3,
    "while":3,
    "drop":3,
    "date":3,
    "blockhead":3,
    "garage":3,
    "lots":3,
    "isnt":3,
    "arent":3,
    "trig":3,
    "smart":3,
    "harm":3,
    "pills":3,
    "door":3,
    "sex":3,
    "daddy":3,
    "thank":3,
    "coming":3,
    "birthday":3,
    "use":3,
    "sleep":3,
    "tracks":3,
    "guys":3,
    "ran":3,
    "asshole":3,
    "besides":3,
    "anyway":3,
    "head":3,
    "whatever":3,
    "kiss":3,
    "mawr":3,
    "these":3,
    "egghead":3,
    "beers":3,
    "missed":3,
    "chicken":3,
    "goes":3,
    "bottom":3,
    "picnic":3,
    "point":3,
    "sunday":3,
    "susan":3,
    "tea":3,
    "shed":3,
    "bought":3,
    "hard":3,
    "hurt":3,
    "shouldnt":3,
    "wreck":3,
    "trying":3,
    "walked":3,
    "yup":3,
    "friend":3,
    "upstairs":3,
    "without":3,
    "lips":3,
    "needs":3,
    "took":3,
    "hospital":3,
    "daughters":3,
    "mr":3,
    "wouldve":3,
    "cup":3,
    "thinks":3,
    "listen":3,
    "drinking":3,
    "sad":3,
    "haley":3,
    "guilty":3,
    "address":3,
    "phone":3,
    "cars":3,
    "shoes":3,
    "girl":4,
    "last":4,
    "wasnt":4,
    "turn":4,
    "mind":4,
    "darling":4,
    "tomorrow":4,
    "new":4,
    "rich":4,
    "steel":4,
    "our":4,
    "nice":4,
    "architect":4,
    "those":4,
    "keep":4,
    "done":4,
    "congratulations":4,
    "heard":4,
    "thinking":4,
    "years":4,
    "looking":4,
    "ride":4,
    "miss":4,
    "mrs":4,
    "company":4,
    "war":4,
    "sold":4,
    "hows":4,
    "nope":4,
    "drive":4,
    "stuff":4,
    "wish":4,
    "catch":4,
    "eleanors":4,
    "might":4,
    "both":4,
    "watch":4,
    "ready":4,
    "getting":4,
    "talked":4,
    "seem":4,
    "sometimes":4,
    "world":4,
    "side":4,
    "scholarship":4,
    "scenic":4,
    "almost":4,
    "pamela":4,
    "bryn":4,
    "wonderful":4,
    "ago":4,
    "being":4,
    "front":4,
    "made":4,
    "tired":4,
    "clothes":4,
    "easy":4,
    "woman":4,
    "best":4,
    "christmas":4,
    "drink":4,
    "gets":5,
    "shut":5,
    "parties":5,
    "work":5,
    "pretend":5,
    "dads":5,
    "course":5,
    "parents":5,
    "bad":5,
    "file":5,
    "drawer":5,
    "still":5,
    "life":5,
    "read":5,
    "called":5,
    "bus":5,
    "finish":5,
    "sit":5,
    "first":5,
    "boys":5,
    "told":5,
    "nothing":5,
    "gone":5,
    "dinner":5,
    "came":5,
    "different":5,
    "bring":5,
    "crying":5,
    "jack":5,
    "very":5,
    "dance":5,
    "wont":5,
    "hate":5,
    "hed":5,
    "goddammit":5,
    "better":5,
    "anyone":5,
    "name":5,
    "felt":5,
    "every":6,
    "peter":6,
    "gonna":6,
    "marry":6,
    "sort":6,
    "kind":6,
    "brother":6,
    "full":6,
    "put":6,
    "other":6,
    "everyone":6,
    "theres":6,
    "penn":6,
    "talking":6,
    "another":6,
    "enough":6,
    "waiting":6,
    "damn":6,
    "philadelphia":6,
    "gotta":6,
    "lets":6,
    "house":6,
    "patent":6,
    "smoke":6,
    "anything":6,
    "same":6,
    "wheres":6,
    "fucking":6,
    "matter":6,
    "helen":6,
    "summer":6,
    "been":6,
    "supposed":6,
    "poor":6,
    "ice":6,
    "try":6,
    "god":6,
    "em":6,
    "stand":6,
    "again":6,
    "bet":6,
    "hold":6,
    "down":6,
    "invited":7,
    "mad":7,
    "does":7,
    "youll":7,
    "old":7,
    "change":7,
    "thanks":7,
    "ive":7,
    "thing":7,
    "stay":7,
    "will":7,
    "please":7,
    "wouldnt":7,
    "help":7,
    "own":7,
    "late":7,
    "fun":7,
    "believe":7,
    "hear":7,
    "someone":7,
    "happened":7,
    "day":7,
    "leave":7,
    "holt":7,
    "his":7,
    "yard":7,
    "guess":8,
    "wanted":8,
    "has":8,
    "town":8,
    "only":8,
    "lake":8,
    "alone":8,
    "which":8,
    "little":8,
    "hey":8,
    "went":8,
    "away":8,
    "died":8,
    "over":8,
    "find":8,
    "us":8,
    "knew":8,
    "abbotts":8,
    "design":8,
    "everything":8,
    "before":8,
    "chicago":8,
    "wrong":9,
    "tonight":9,
    "christ":9,
    "things":9,
    "real":9,
    "id":9,
    "two":9,
    "having":9,
    "making":9,
    "money":9,
    "theyre":9,
    "forget":9,
    "dammit":9,
    "after":9,
    "into":9,
    "than":9,
    "everybody":9,
    "feel":9,
    "fuck":9,
    "long":9,
    "couldnt":9,
    "wait":9,
    "used":9,
    "ever":9,
    "let":10,
    "doesnt":10,
    "am":10,
    "dad":10,
    "people":10,
    "more":10,
    "by":10,
    "car":10,
    "remember":10,
    "stupid":10,
    "make":10,
    "call":11,
    "yes":11,
    "much":11,
    "man":11,
    "doing":11,
    "need":11,
    "ask":11,
    "stop":11,
    "joan":11,
    "always":11,
    "charlie":11,
    "said":12,
    "now":12,
    "as":12,
    "should":12,
    "else":12,
    "say":12,
    "would":12,
    "could":12,
    "back":12,
    "hell":13,
    "night":13,
    "even":13,
    "thought":13,
    "good":13,
    "any":13,
    "care":13,
    "sure":13,
    "school":13,
    "shes":13,
    "beer":13,
    "cause":14,
    "father":14,
    "cant":14,
    "off":15,
    "really":15,
    "hes":15,
    "because":15,
    "something":15,
    "whats":15,
    "jesus":15,
    "lloyd":15,
    "who":16,
    "some":16,
    "party":16,
    "maybe":16,
    "them":16,
    "way":16,
    "take":16,
    "when":16,
    "where":16,
    "home":16,
    "mother":17,
    "there":17,
    "talk":18,
    "an":19,
    "abbott":19,
    "look":19,
    "around":19,
    "ill":19,
    "love":19,
    "pam":20,
    "time":20,
    "never":20,
    "shit":21,
    "mom":21,
    "from":22,
    "okay":22,
    "hi":23,
    "eleanor":23,
    "were":25,
    "then":25,
    "mean":26,
    "had":26,
    "tell":26,
    "see":27,
    "too":27,
    "this":28,
    "or":28,
    "yeah":29,
    "going":30,
    "doug":30,
    "right":30,
    "one":31,
    "we":32,
    "can":32,
    "think":32,
    "thats":34,
    "didnt":35,
    "got":35,
    "him":35,
    "at":36,
    "well":37,
    "youre":37,
    "want":37,
    "here":38,
    "sorry":38,
    "up":39,
    "jacey":39,
    "oh":40,
    "they":42,
    "but":42,
    "about":42,
    "are":43,
    "how":43,
    "alice":43,
    "come":44,
    "all":44,
    "if":44,
    "be":44,
    "get":45,
    "did":45,
    "go":50,
    "so":50,
    "its":52,
    "with":52,
    "not":53,
    "my":56,
    "why":58,
    "out":58,
    "like":62,
    "on":64,
    "is":64,
    "your":65,
    "she":66,
    "":67,
    "im":68,
    "her":68,
    "have":68,
    "no":69,
    "for":71,
    "he":72,
    "do":73,
    "in":76,
    "was":77,
    "that":88,
    "just":92,
    "know":94,
    "of":97,
    "me":101,
    "it":103,
    "what":103,
    "and":113,
    "dont":115,
    "a":129,
    "the":228,
    "to":264,
    "you":389,
    "i":390
}