{
    "dried":1,
    "oatmeal":1,
    "bran":1,
    "sodium":1,
    "pal":1,
    "recognize":1,
    "expression":1,
    "expressions":1,
    "sit":1,
    "liquid":1,
    "contaminantfree":1,
    "perfect":1,
    "address":1,
    "recommend":1,
    "french":1,
    "toast":1,
    "tried":1,
    "really":1,
    "everyones":1,
    "lottery":1,
    "draw":1,
    "host":1,
    "begin":1,
    "guaranteed":1,
    "mood":1,
    "swings":1,
    "sore":1,
    "swollen":1,
    "trade":1,
    "places":1,
    "hudson":1,
    "fouralpha":1,
    "profile":1,
    "reviewed":1,
    "match":1,
    "171":1,
    "5":1,
    "request":1,
    "populate":1,
    "bout":1,
    "spins":1,
    "rigged":1,
    "haulers":1,
    "wish":1,
    "clean":1,
    "zone":1,
    "screening":1,
    "unlimited":1,
    "weightclass":1,
    "multiweight":1,
    "balancing":1,
    "rounds":1,
    "whoooooo":1,
    "input":1,
    "weight":1,
    "class":1,
    "faster":1,
    "`cause":1,
    "pay":1,
    "threebravo":1,
    "five":1,
    "units":1,
    "alcohol":1,
    "rematch":1,
    "blonde":1,
    "meditation":1,
    "flagged":1,
    "quick":1,
    "count":1,
    "missed":1,
    "overslept":1,
    "tonight":1,
    "enjoy":1,
    "gotta":1,
    "serve":1,
    "full":1,
    "meal":1,
    "kleinwort":1,
    "conducting":1,
    "bulletins":1,
    "tracking":1,
    "glitch":1,
    "scanner":1,
    "userware":1,
    "ethercuffs":1,
    "false":1,
    "dropout":1,
    "hr":1,
    "accomodation":1,
    "yesterday":1,
    "apartments":1,
    "occupied":1,
    "updates":1,
    "wins":1,
    "decided":1,
    "messing":1,
    "prove":1,
    "reference":1,
    "procedure":1,
    "occupant":1,
    "electrical":1,
    "phase":1,
    "fires":1,
    "forgetting":1,
    "wires":1,
    "hear":1,
    "irony":1,
    "pointing":1,
    "finger":1,
    "mac":1,
    "`gets":1,
    "shift":1,
    "`crew":1,
    "draggin":1,
    "bust":1,
    "appreciate":1,
    "taste":1,
    "outsiders":1,
    "fraternization":1,
    "cycle":1,
    "disposal":1,
    "detail":1,
    "site":1,
    "containments":1,
    "narrowly":1,
    "mccord":1,
    "tucks":1,
    "cigarette":1,
    "box":1,
    "offers":1,
    "palliative":1,
    "sweet":1,
    "accepting":1,
    "exhale":1,
    "tilt":1,
    "plume":1,
    "dissipating":1,
    "fans":1,
    "confront":1,
    "reward":1,
    "applauds":1,
    "dutifully":1,
    "follows":1,
    "whispers":1,
    "lydias":1,
    "broadcasts":1,
    "response":1,
    "oncology":1,
    "prettier":1,
    "freakshow":1,
    "museum":1,
    "battles":1,
    "defeats":1,
    "stem":1,
    "cell":1,
    "bid":1,
    "cultivate":1,
    "rodents":1,
    "primates":1,
    "barnyard":1,
    "animals":1,
    "skin":1,
    "crawl":1,
    "cases":1,
    "literally":1,
    "rise":1,
    "crossspecies":1,
    "viruses":1,
    "turn":1,
    "corner":1,
    "hall":1,
    "portals":1,
    "tanks":1,
    "amber":1,
    "fluid":1,
    "formaldehyde":1,
    "suspended":1,
    "within":1,
    "embryos":1,
    "fetuses":1,
    "infants":1,
    "grotesquely":1,
    "mutated":1,
    "legislation":1,
    "hit":1,
    "enigma":1,
    "alchemy":1,
    "embryo":1,
    "barely":1,
    "reaches":1,
    "enzymes":1,
    "misfire":1,
    "monstrosities":1,
    "effigies":1,
    "bodies":1,
    "grand":1,
    "checkup":1,
    "discovers":1,
    "imminent":1,
    "renal":1,
    "failure":1,
    "brothers":1,
    "38":1,
    "rejection":1,
    "double":1,
    "whod":1,
    "kidneys":1,
    "solution":1,
    "starting":1,
    "sow":1,
    "seed":1,
    "create":1,
    "sequenced":1,
    "cellular":1,
    "timeclock":1,
    "spawned":1,
    "postmaturate":1,
    "`created":1,
    "spare":1,
    "tested":1,
    "integrity":1,
    "clients":1,
    "waiver":1,
    "survival":1,
    "answered":1,
    "obviates":1,
    "ineffective":1,
    "treatment":1,
    "programs":1,
    "decide":1,
    "existing":1,
    "cost":1,
    "decision":1,
    "role":1,
    "provider":1,
    "guarantee":1,
    "availability":1,
    "retained":1,
    "holder":1,
    "defined":1,
    "effect":1,
    "becoming":1,
    "payments":1,
    "maintaining":1,
    "feasible":1,
    "retaining":1,
    "secondary":1,
    "shall":1,
    "expire":1,
    "associations":1,
    "applicable":1,
    "cow":1,
    "exists":1,
    "limited":1,
    "imbued":1,
    "ways":1,
    "humane":1,
    "fore":1,
    "painlessly":1,
    "returned":1,
    "whence":1,
    "eternal":1,
    "otherwise":1,
    "utility":1,
    "redundancy":1,
    "among":1,
    "knows":1,
    "purpose":1,
    "ambles":1,
    "plunged":1,
    "picks":1,
    "slack":1,
    "month":1,
    "offering":1,
    "including":1,
    "10":1,
    "discount":1,
    "hisandhers":1,
    "staged":1,
    "actors":1,
    "customers":1,
    "enjoying":1,
    "indemnity":1,
    "various":1,
    "limitations":1,
    "exclusions":1,
    "questions":1,
    "raised":1,
    "waspishlooking":1,
    "woman":1,
    "butts":1,
    "prohibits":1,
    "alteration":1,
    "present":1,
    "provides":1,
    "rigors":1,
    "childbirth":1,
    "eligible":1,
    "shortly":1,
    "simple":1,
    "donation":1,
    "sperm":1,
    "fertilized":1,
    "brings":1,
    "term":1,
    "mail":1,
    "practical":1,
    "reasons":1,
    "healthcare":1,
    "delivered":1,
    "rule":1,
    "applies":1,
    "continue":1,
    "natural":1,
    "window":1,
    "sedated":1,
    "yours":1,
    "avoid":1,
    "stretchmarks":1,
    "button":1,
    "glass":1,
    "frosts":1,
    "unnerving":1,
    "reviews":1,
    "headshot":1,
    "scroll":1,
    "forming":1,
    "deserve":1,
    "negative":1,
    "association":1,
    "jobs":1,
    "everythings":1,
    "sounds":1,
    "makeup":1,
    "challenge":1,
    "ah":1,
    "utilize":1,
    "helping":1,
    "solve":1,
    "puzzle":1,
    "consults":1,
    "areas":1,
    "pro":1,
    "exercising":1,
    "rigorously":1,
    "screenings":1,
    "picked":1,
    "burning":1,
    "straying":1,
    "noticed":1,
    "sleeping":1,
    "properly":1,
    "disoriented":1,
    "vocabulary":1,
    "jaw":1,
    "clenches":1,
    "notes":1,
    "resumes":1,
    "difficulty":1,
    "staying":1,
    "focused":1,
    "experiencing":1,
    "feelings":1,
    "sensations":1,
    "agitated":1,
    "apparent":1,
    "frustrated":1,
    "leans":1,
    "forward":1,
    "assert":1,
    "revealed":1,
    "stimulants":1,
    "protein":1,
    "caffeine":1,
    "cooperate":1,
    "interacting":1,
    "regularly":1,
    "encourage":1,
    "mutual":1,
    "benefit":1,
    "sexual":1,
    "deeper":1,
    "entering":1,
    "change":1,
    "emotional":1,
    "confusion":1,
    "inter":1,
    "unhealthy":1,
    "pill":1,
    "swallow":1,
    "shell":1,
    "ties":1,
    "broken":1,
    "refill":1,
    "settle":1,
    "anyway":1,
    "weirdest":1,
    "being":1,
    "wavers":1,
    "excited":1,
    "peace":1,
    "reaching":1,
    "forgot":1,
    "histamine":1,
    "reflex":1,
    "readjusting":1,
    "smell":1,
    "empty":1,
    "short":1,
    "briefed":1,
    "dour":1,
    "slots":1,
    "dock":1,
    "proxy":1,
    "console":1,
    "quarter":1,
    "scale":1,
    "spinning":1,
    "african":1,
    "american":1,
    "bull":1,
    "neck":1,
    "etches":1,
    "thin":1,
    "dropped":1,
    "garbage":1,
    "chute":1,
    "delta":1,
    "suffered":1,
    "disappeared":1,
    "disappear":1,
    "unless":1,
    "figured":1,
    "low":1,
    "functioner":1,
    "mistake":1,
    "functions":1,
    "tame":1,
    "albeit":1,
    "distance":1,
    "throws":1,
    "stone":1,
    "hardens":1,
    "bothered":1,
    "matter":1,
    "accord":1,
    "set":1,
    "freedoms":1,
    "prescribe":1,
    "limits":1,
    "regulation":1,
    "scope":1,
    "activity":1,
    "speech":1,
    "patterns":1,
    "requires":1,
    "origin":1,
    "provided":1,
    "characteristics":1,
    "fallibility":1,
    "bait":1,
    "attempts":1,
    "unable":1,
    "contain":1,
    "fill":1,
    "damn":1,
    "sustained":1,
    "hepatic":1,
    "trauma":1,
    "liver":1,
    "hemorrhage":1,
    "borrowed":1,
    "map":1,
    "crop":1,
    "twelve":1,
    "segments":1,
    "subgrid":1,
    "chutes":1,
    "collects":1,
    "foil":1,
    "bowl":1,
    "sets":1,
    "tray":1,
    "glances":1,
    "north":1,
    "quadrant":1,
    "teams":1,
    "block":1,
    "force":1,
    "shot":1,
    "hook":1,
    "above":1,
    "belt":1,
    "management":1,
    "damage":1,
    "roll":1,
    "knowingly":1,
    "headset":1,
    "asshole":1,
    "hooked":1,
    "crouches":1,
    "examine":1,
    "blossoming":1,
    "shoulder":1,
    "jutting":1,
    "projectile":1,
    "censor":1,
    "presses":1,
    "base":1,
    "snaps":1,
    "loose":1,
    "unintended":1,
    "target":1,
    "`hit":1,
    "hard":1,
    "possible":1,
    "concussion":1,
    "buddy":1,
    "lockdown":1,
    "bulletin":1,
    "following":1,
    "earlier":1,
    "issuing":1,
    "allsector":1,
    "resident":1,
    "infected":1,
    "pathogen":1,
    "assessed":1,
    "advised":1,
    "symptoms":1,
    "experience":1,
    "aberrant":1,
    "anxiety":1,
    "witness":1,
    "immediately":1,
    "jaded":1,
    "stupid":1,
    "checked":1,
    "destabilized":1,
    "deltas":1,
    "jumping":1,
    "conclusions":1,
    "overlook":1,
    "twice":1,
    "coincidence":1,
    "defective":1,
    "q":1,
    "concern":1,
    "quality":1,
    "subway":1,
    "tunnels":1,
    "scraped":1,
    "bone":1,
    "dig":1,
    "try":1,
    "exact":1,
    "degree":1,
    "trial":1,
    "pass":1,
    "abort":1,
    "breaking":1,
    "bioreactor":1,
    "medium":1,
    "upping":1,
    "achieve":1,
    "integration":1,
    "stage":1,
    "deemed":1,
    "stable":1,
    "provide":1,
    "mental":1,
    "stability":1,
    "matching":1,
    "templates":1,
    "walling":1,
    "signs":1,
    "instability":1,
    "started":1,
    "hole":1,
    "oversight":1,
    "happening":1,
    "generat":1,
    "ions":1,
    "actually":1,
    "opposite":1,
    "generations":1,
    "high":1,
    "broke":1,
    "overintegrating":1,
    "specifically":1,
    "neural":1,
    "produced":1,
    "fusion":1,
    "creating":1,
    "component":1,
    "awareness":1,
    "sixth":1,
    "sight":1,
    "emergence":1,
    "arbitrary":1,
    "gives":1,
    "experiences":1,
    "ultimately":1,
    "destabilizes":1,
    "reconditioning":1,
    "amusing":1,
    "numbered":1,
    "cooperation":1,
    "complicity":1,
    "remind":1,
    "military":1,
    "nobody":1,
    "ng2302ds":1,
    "sunburn":1,
    "nurses":1,
    "corridor":1,
    "hold":1,
    "relax":1,
    "incubating":1,
    "prior":1,
    "clause":1,
    "22":1,
    "basic":1,
    "initiate":1,
    "football":1,
    "surgery":1,
    "honey":1,
    "pad":1,
    "longs":1,
    "gonna":1,
    "couriers":1,
    "pickup":1,
    "forever":1,
    "eta":1,
    "stall":1,
    "subjects":1,
    "spiking":1,
    "boost":1,
    "anaesthetic":1,
    "lev":1,
    "yeah":1,
    "sweat":1,
    "secured":1,
    "dishevelled":1,
    "urgent":1,
    "worried":1,
    "exposed":1,
    "soon":1,
    "scare":1,
    "caught":1,
    "stops":1,
    "dead":1,
    "avenue":1,
    "patrol":1,
    "heading":1,
    "barren":1,
    "grimace":1,
    "melts":1,
    "crowd":1,
    "contaminants":1,
    "making":1,
    "scaring":1,
    "ethercon":1,
    "elevator":1,
    "override":1,
    "grid":1,
    "lock":1,
    "command":1,
    "gate":1,
    "deep":1,
    "troubled":1,
    "gently":1,
    "pictures":1,
    "checking":1,
    "scanning":1,
    "hotter":1,
    "harder":1,
    "isolate":1,
    "heat":1,
    "signature":1,
    "path":1,
    "social":1,
    "visit":1,
    "stress":1,
    "anticipated":1,
    "facts":1,
    "downanddirty":1,
    "wev":1,
    "escaped":1,
    "wer":1,
    "piecing":1,
    "alarmist":1,
    "assess":1,
    "liabilities":1,
    "deterrent":1,
    "fear":1,
    "thereby":1,
    "outer":1,
    "conditioning":1,
    "compromised":1,
    "violation":1,
    "bureaucracy":1,
    "bloody":1,
    "battle":1,
    "commission":1,
    "mention":1,
    "goodwill":1,
    "earned":1,
    "dc":1,
    "bio":1,
    "relieved":1,
    "embarrassment":1,
    "chances":1,
    "coordinates":1,
    "direction":1,
    "middle":1,
    "become":1,
    "trough":1,
    "possibly":1,
    "variable":1,
    "basically":1,
    "untested":1,
    "toxins":1,
    "environmentals":1,
    "overcome":1,
    "adaptive":1,
    "track":1,
    "pregnant":1,
    "fasttrack":1,
    "wonder":1,
    "difficulties":1,
    "havent":1,
    "populated":1,
    "operate":1,
    "slipped":1,
    "loophole":1,
    "smelt":1,
    "basement":1,
    "ours":1,
    "core":1,
    "potential":1,
    "critical":1,
    "extent":1,
    "unlikely":1,
    "twenty":1,
    "miles":1,
    "settlement":1,
    "estimate":1,
    "especially":1,
    "panic":1,
    "clearly":1,
    "large":1,
    "services":1,
    "alters":1,
    "perception":1,
    "sanction":1,
    "protect":1,
    "whenever":1,
    "recover":1,
    "reproach":1,
    "nudge":1,
    "spotlight":1,
    "astute":1,
    "stuck":1,
    "supercell":1,
    "didya":1,
    "supercellstorm":1,
    "yep":1,
    "lodeways":1,
    "dust":1,
    "manners":1,
    "osmund":1,
    "bein":1,
    "deer":1,
    "herself":1,
    "girlfriend":1,
    "beholder":1,
    "`may":1,
    "surprised":1,
    "lemme":1,
    "stuffs":1,
    "recyclin":1,
    "sell":1,
    "meltdown":1,
    "markets":1,
    "`fetches":1,
    "fossil":1,
    "fuel":1,
    "piece":1,
    "junks":1,
    "collectors":1,
    "item":1,
    "wheel":1,
    "nostalgia":1,
    "elegant":1,
    "era":1,
    "solid":1,
    "gold":1,
    "colorful":1,
    "valley":1,
    "`got":1,
    "outfit":1,
    "stripped":1,
    "remodelling":1,
    "hump`n":1,
    "fellas":1,
    "partys":1,
    "extension":1,
    "press":1,
    "clothes":1,
    "weird":1,
    "buncha":1,
    "z":1,
    "getcha":1,
    "whaddya":1,
    "partner":1,
    "shy":1,
    "strangers":1,
    "`pursuit":1,
    "swing":1,
    "fireaxe":1,
    "though":1,
    "`took":1,
    "fucker":1,
    "hunters":1,
    "helps":1,
    "bleed":1,
    "bondman":1,
    "dirty":1,
    "civil":1,
    "bonds":1,
    "debt":1,
    "datathieves":1,
    "hunt":1,
    "depends":1,
    "worth":1,
    "unmarked":1,
    "specific":1,
    "details":1,
    "bees":1,
    "memories":1,
    "bag":1,
    "types":1,
    "records":1,
    "armed":1,
    "dangerous":1,
    "kidding":1,
    "due":1,
    "respect":1,
    "jumped":1,
    "overnight":1,
    "strictly":1,
    "childsplay":1,
    "dog":1,
    "impress":1,
    "ladies":1,
    "arms":1,
    "length":1,
    "connection":1,
    "papertrail":1,
    "interest":1,
    "brought":1,
    "quickly":1,
    "quietly":1,
    "unharmed":1,
    "instructions":1,
    "hofstetter":1,
    "bar":1,
    "bother":1,
    "drop":1,
    "pulls":1,
    "handcuffs":1,
    "stands":1,
    "booth":1,
    "pouring":1,
    "tequila":1,
    "shots":1,
    "grins":1,
    "tickets":1,
    "uniform":1,
    "uncertain":1,
    "wants":1,
    "ticket":1,
    "collector":1,
    "deadbeats":1,
    "eaten":1,
    "boy":1,
    "ears":1,
    "disarming":1,
    "per":1,
    "mandate":1,
    "notices":1,
    "quarry":1,
    "pupils":1,
    "black":1,
    "dilating":1,
    "jerks":1,
    "shying":1,
    "horse":1,
    "drawing":1,
    "unperturbed":1,
    "attempt":1,
    "touches":1,
    "device":1,
    "concealed":1,
    "canal":1,
    "miniature":1,
    "twoway":1,
    "radio":1,
    "ride":1,
    "cab":1,
    "surcharge":1,
    "colonnade":1,
    "hobo":1,
    "gesticulating":1,
    "shrinks":1,
    "shadows":1,
    "shaking":1,
    "hatchling":1,
    "wanting":1,
    "nest":1,
    "meets":1,
    "deeply":1,
    "holds":1,
    "gaze":1,
    "chest":1,
    "heaving":1,
    "alley":1,
    "belly":1,
    "clawing":1,
    "assimilating":1,
    "reasserting":1,
    "grip":1,
    "turmoil":1,
    "voice":1,
    "soft":1,
    "sturdy":1,
    "anywhere":1,
    "office":1,
    "hack":1,
    "kindergarten":1,
    "stick":1,
    "using":1,
    "numbers":1,
    "batched":1,
    "crossreferenced":1,
    "union":1,
    "positive":1,
    "number":1,
    "front":1,
    "janeen":1,
    "buy":1,
    "feels":1,
    "play":1,
    "boyfriend":1,
    "agent":1,
    "131":1,
    "ext":1,
    "safer":1,
    "net":1,
    "downtown":1,
    "search":1,
    "active":1,
    "top":1,
    "planet":1,
    "`you":1,
    "brother":1,
    "highest":1,
    "rushing":1,
    "total":1,
    "league":1,
    "`least":1,
    "blew":1,
    "gut":1,
    "doctors":1,
    "season":1,
    "fuckers":1,
    "miracles":1,
    "hi":1,
    "residential":1,
    "blocked":1,
    "snake":1,
    "flicking":1,
    "tongue":1,
    "coiling":1,
    "market":1,
    "chasing":1,
    "bell":1,
    "displays":1,
    "digital":1,
    "slides":1,
    "suspicious":1,
    "nobodys":1,
    "tom":1,
    "calling":1,
    "firm":1,
    "referral":1,
    "joking":1,
    "agree":1,
    "ment":1,
    "ironclad":1,
    "balls":1,
    "family":1,
    "christ":1,
    "idea":1,
    "apology":1,
    "cells":1,
    "cooked":1,
    "centrifuge":1,
    "boiled":1,
    "egg":1,
    "manufactured":1,
    "lawyer":1,
    "laced":1,
    "confidentiality":1,
    "clauses":1,
    "downstairs":1,
    "bay":1,
    "53":1,
    "anybody":1,
    "auto":1,
    "west":1,
    "looked":1,
    "warn":1,
    "holding":1,
    "sounded":1,
    "salt":1,
    "river":1,
    "heritage":1,
    "hohokam":1,
    "nation":1,
    "thousand":1,
    "closed":1,
    "during":1,
    "opening":1,
    "9am":1,
    "5pm":1,
    "monday":1,
    "saturday":1,
    "marks":1,
    "softly":1,
    "negating":1,
    "energy":1,
    "draining":1,
    "lowers":1,
    "mats":1,
    "lies":1,
    "huddling":1,
    "wheezing":1,
    "stopped":1,
    "working":1,
    "sacred":1,
    "commune":1,
    "rock":1,
    "sky":1,
    "clouds":1,
    "fades":1,
    "speaks":1,
    "grandfather":1,
    "whom":1,
    "born":1,
    "great":1,
    "binds":1,
    "sun":1,
    "moon":1,
    "rain":1,
    "asks":1,
    "vision":1,
    "shape":1,
    "ditched":1,
    "near":1,
    "slower":1,
    "rocks":1,
    "oclock":1,
    "ambient":1,
    "meeeee":1,
    "ourselves":1,
    "connect":1,
    "reunion":1,
    "authorities":1,
    "involvement":1,
    "threatened":1,
    "biggest":1,
    "litigation":1,
    "attorneys":1,
    "city":1,
    "marginal":1,
    "according":1,
    "touch":1,
    "genetics":1,
    "selfawareness":1,
    "naked":1,
    "legislature":1,
    "licensing":1,
    "manage":1,
    "weather":1,
    "spent":1,
    "entire":1,
    "career":1,
    "naysayers":1,
    "cryogenics":1,
    "outset":1,
    "dismissed":1,
    "rich":1,
    "mans":1,
    "folly":1,
    "eccentric":1,
    "millionaires":1,
    "freezing":1,
    "brains":1,
    "hoping":1,
    "exmarine":1,
    "served":1,
    "south":1,
    "china":1,
    "insane":1,
    "`":1,
    "wondered":1,
    "pills":1,
    "avail":1,
    "reality":1,
    "concept":1,
    "aspect":1,
    "construction":1,
    "environmental":1,
    "classical":1,
    "playlists":1,
    "utopia":1,
    "finished":1,
    "flames":1,
    "east":1,
    "stadium":1,
    "spanish":1,
    "bronchial":1,
    "infection":1,
    "antibiotic":1,
    "effects":1,
    "listings":1,
    "women":1,
    "young":1,
    "immortal":1,
    "lodeway":1,
    "accident":1,
    "married":1,
    "loved":1,
    "johns":1,
    "unspoken":1,
    "regret":1,
    "forgive":1,
    "child":1,
    "sailing":1,
    "fishing":1,
    "plans":1,
    "died":1,
    "saved":1,
    "shouldnt":1,
    "personnel":1,
    "cowboys":1,
    "resignation":1,
    "`early":1,
    "retirement":1,
    "accurate":1,
    "gain":1,
    "parachute":1,
    "jump":1,
    "able":1,
    "deny":1,
    "waste":1,
    "dihalcyonate":1,
    "reacts":1,
    "molecular":1,
    "internal":1,
    "combustion":1,
    "incinerated":1,
    "postmortem":1,
    "application":1,
    "rigor":1,
    "mortis":1,
    "imagine":1,
    "complicated":1,
    "thorough":1,
    "marines":1,
    "insubordination":1,
    "heroism":1,
    "disobeyed":1,
    "fall":1,
    "singlehanded":1,
    "badge":1,
    "honor":1,
    "bravery":1,
    "dying":1,
    "realized":1,
    "sack":1,
    "heartbeat":1,
    "vehicle":1,
    "unregistered":1,
    "difficult":1,
    "professional":1,
    "final":1,
    "stages":1,
    "blunt":1,
    "shed":1,
    "pieces":1,
    "taken":1,
    "swear":1,
    "extended":1,
    "inhuman":1,
    "formality":1,
    "copy":1,
    "copies":1,
    "sits":1,
    "mask":1,
    "hand":1,
    "tiny":1,
    "ones":1,
    "somewhere":1,
    "jealous":1,
    "pile":1,
    "ashes":1,
    "deepest":1,
    "condolences":1,
    "terrible":1,
    "trivial":1,
    "certain":1,
    "relating":1,
    "confident":1,
    "tragic":1,
    "events":1,
    "remain":1,
    "binding":1,
    "likewise":1,
    "bound":1,
    "reserve":1,
    "devious":1,
    "simply":1,
    "heal":1,
    "wounds":1,
    "restitution":1,
    "agreed":1,
    "meeting":1,
    "visited":1,
    "described":1,
    "agnates":1,
    "mindless":1,
    "organisms":1,
    "livestock":1,
    "interrupt":1,
    "eager":1,
    "created":1,
    "responsibility":1,
    "bear":1,
    "am":1,
    "blame":1,
    "die":1,
    "silently":1,
    "discuss":1,
    "suspected":1,
    "lightly":1,
    "maudlin":1,
    "game":1,
    "serv":1,
    "visitor":1,
    "circulating":1,
    "ceo":1,
    "founder":1,
    "leading":1,
    "tilts":1,
    "reveal":1,
    "sunglasses":1,
    "restricted":1,
    "attack":1,
    "somethings":1,
    "circuits":1,
    "locked":1,
    "wide":1,
    "since":1,
    "breakout":1,
    "hiding":1,
    "quiet":1,
    "survived":1,
    "journal":1,
    "truth":1,
    "learned":1,
    "confuses":1,
    "thirty":1,
    "mother":1,
    "x":1,
    "testament":1,
    "fed":1,
    "junior":1,
    "sound":1,
    "lovingly":1,
    "kisses":1,
    "smiles":1,
    "sweeping":1,
    "forehead":1,
    "unscarred":1,
    "blemishless":1,
    "finish":1,
    "packing":1,
    "hesitates":1,
    "unwilling":1,
    "plants":1,
    "lingering":1,
    "kiss":1,
    "downy":1,
    "presents":1,
    "tablet":1,
    "sympathetic":1,
    "operating":1,
    "manuals":1,
    "maps":1,
    "charts":1,
    "understanding":1,
    "hugs":1,
    "folds":1,
    "yearning":1,
    "maternal":1,
    "embrace":1,
    "tears":1,
    "sorrow":1,
    "laughter":1,
    "tugging":1,
    "gray":1,
    "sixecho":2,
    "options":2,
    "fruit":2,
    "bacon":2,
    "flag":2,
    "stranger":2,
    "nutrition":2,
    "exciting":2,
    "trimester":2,
    "happy":2,
    "healthy":2,
    "burned":2,
    "watching":2,
    "community":2,
    "excellent":2,
    "ready":2,
    "daily":2,
    "win":2,
    "times":2,
    "vacancy":2,
    "won":2,
    "lucky":2,
    "natures":2,
    "pleasure":2,
    "program":2,
    "champ":2,
    "stim":2,
    "says":2,
    "slow":2,
    "lighter":2,
    "programmers":2,
    "jones":2,
    "vita":2,
    "cola":2,
    "interact":2,
    "authorized":2,
    "interaction":2,
    "against":2,
    "friendship":2,
    "officer":2,
    "accept":2,
    "breakfast":2,
    "juice":2,
    "watch":2,
    "seen":2,
    "probably":2,
    "damaged":2,
    "4":2,
    "status":2,
    "24":2,
    "update":2,
    "cross":2,
    "standard":2,
    "sweep":2,
    "griping":2,
    "backlog":2,
    "light":2,
    "backs":2,
    "weeks":2,
    "thanks":2,
    "almost":2,
    "supposed":2,
    "hump":2,
    "`n":2,
    "shrugs":2,
    "gift":2,
    "smoke":2,
    "behalf":2,
    "staff":2,
    "courage":2,
    "group":2,
    "suit":2,
    "ear":2,
    "gaza":2,
    "war":2,
    "history":2,
    "transplant":2,
    "range":2,
    "windows":2,
    "beginning":2,
    "mapping":2,
    "genome":2,
    "declared":2,
    "historic":2,
    "landmark":2,
    "break":2,
    "heredity":2,
    "correct":2,
    "congenital":2,
    "engineering":2,
    "became":2,
    "brave":2,
    "bright":2,
    "future":2,
    "narrowed":2,
    "marches":2,
    "adult":2,
    "infancy":2,
    "resulting":2,
    "grow":2,
    "design":2,
    "require":2,
    "kidney":2,
    "less":2,
    "twin":2,
    "fact":2,
    "organ":2,
    "survive":2,
    "option":2,
    "early":2,
    "risks":2,
    "however":2,
    "required":2,
    "needed":2,
    "price":2,
    "company":2,
    "costly":2,
    "lower":2,
    "premiums":2,
    "production":2,
    "entirely":2,
    "intermediary":2,
    "rights":2,
    "until":2,
    "extend":2,
    "consciousness":2,
    "aware":2,
    "functionality":2,
    "knowledge":2,
    "maintain":2,
    "without":2,
    "capacity":2,
    "true":2,
    "special":2,
    "rate":2,
    "sponsors":2,
    "commercial":2,
    "lease":2,
    "walk":2,
    "fix":2,
    "infertility":2,
    "endemic":2,
    "round":2,
    "pregnancy":2,
    "handled":2,
    "compliance":2,
    "routinely":2,
    "whether":2,
    "wakes":2,
    "seat":2,
    "stays":2,
    "deadpan":2,
    "chair":2,
    "taking":2,
    "3d":2,
    "wouldnt":2,
    "feeling":2,
    "uneasy":2,
    "deviations":2,
    "trace":2,
    "changes":2,
    "pattern":2,
    "residents":2,
    "wake":2,
    "disrupted":2,
    "words":2,
    "patronized":2,
    "quite":2,
    "slowly":2,
    "nods":2,
    "meantime":2,
    "asking":2,
    "shows":2,
    "course":2,
    "apply":2,
    "further":2,
    "better":2,
    "returns":2,
    "esters":2,
    "cancel":2,
    "falls":2,
    "sterile":2,
    "lab":2,
    "rats":2,
    "missing":2,
    "resolves":2,
    "across":2,
    "ago":2,
    "error":2,
    "injury":2,
    "boundary":2,
    "code":2,
    "mentally":2,
    "physically":2,
    "breed":2,
    "realize":2,
    "virtual":2,
    "statutes":2,
    "pauses":2,
    "seem":2,
    "sensitive":2,
    "placed":2,
    "clerk":2,
    "sighs":2,
    "turning":2,
    "ground":2,
    "scheer":2,
    "wound":2,
    "department":2,
    "warning":2,
    "involved":2,
    "risk":2,
    "once":2,
    "shit":2,
    "food":2,
    "fingers":2,
    "biogenesis":2,
    "together":2,
    "inertia":2,
    "pointed":2,
    "later":2,
    "senses":2,
    "seems":2,
    "functional":2,
    "catch":2,
    "poetic":2,
    "discharged":2,
    "player":2,
    "station":2,
    "beautiful":2,
    "record":2,
    "signed":2,
    "wait":2,
    "christs":2,
    "fault":2,
    "listen":2,
    "makes":2,
    "tracks":2,
    "best":2,
    "towards":2,
    "torn":2,
    "pathogens":2,
    "hurt":2,
    "bring":2,
    "access":2,
    "green":2,
    "thermals":2,
    "desert":2,
    "crowne":2,
    "director":2,
    "happen":2,
    "answer":2,
    "getting":2,
    "pull":2,
    "complex":2,
    "chemical":2,
    "suggest":2,
    "favor":2,
    "theyve":2,
    "immune":2,
    "drastic":2,
    "comes":2,
    "shes":2,
    "tracked":2,
    "date":2,
    "worst":2,
    "touched":2,
    "reach":2,
    "area":2,
    "federal":2,
    "government":2,
    "gave":2,
    "agreements":2,
    "factor":2,
    "limit":2,
    "public":2,
    "add":2,
    "politicians":2,
    "ol":2,
    "outta":2,
    "wheres":2,
    "ozzie":2,
    "joke":2,
    "yer":2,
    "home":2,
    "eye":2,
    "industrial":2,
    "scrap":2,
    "boondock":2,
    "pick":2,
    "bullshit":2,
    "heres":2,
    "doin":2,
    "forget":2,
    "slick":2,
    "burdon":2,
    "arm":2,
    "hands":2,
    "runners":2,
    "parties":2,
    "represent":2,
    "secrets":2,
    "keeping":2,
    "jane":2,
    "doe":2,
    "shuttle":2,
    "terminal":2,
    "himself":2,
    "suddenly":2,
    "mouth":2,
    "tattletail":2,
    "menu":2,
    "selection":2,
    "directory":2,
    "jesus":2,
    "stream":2,
    "transactions":2,
    "serial":2,
    "wind":2,
    "ass":2,
    "throat":2,
    "dry":2,
    "breathe":2,
    "jamil":2,
    "owner":2,
    "partners":2,
    "sales":2,
    "cancer":2,
    "sick":2,
    "running":2,
    "parked":2,
    "years":2,
    "tired":2,
    "shadow":2,
    "agents":2,
    "breach":2,
    "facing":2,
    "afraid":2,
    "church":2,
    "old":2,
    "ocean":2,
    "trips":2,
    "papers":2,
    "loss":2,
    "dispose":2,
    "done":2,
    "wear":2,
    "lowering":2,
    "having":2,
    "personally":2,
    "issues":2,
    "conditions":2,
    "sue":2,
    "mrs":2,
    "alone":2,
    "hello":3,
    "tests":3,
    "report":3,
    "both":3,
    "behind":3,
    "quota":3,
    "etherscreen":3,
    "sugar":3,
    "hungry":3,
    "lose":3,
    "tomorrow":3,
    "feet":3,
    "clearance":3,
    "ring":3,
    "anymore":3,
    "beer":3,
    "censors":3,
    "read":3,
    "saying":3,
    "102":3,
    "hours":3,
    "system":3,
    "yet":3,
    "hour":3,
    "gone":3,
    "sanitation":3,
    "arent":3,
    "busy":3,
    "perhaps":3,
    "guys":3,
    "chief":3,
    "closer":3,
    "live":3,
    "end":3,
    "starts":3,
    "stuff":3,
    "shifts":3,
    "aint":3,
    "anyways":3,
    "most":3,
    "talk":3,
    "rules":3,
    "onto":3,
    "dump":3,
    "crew":3,
    "heavy":3,
    "everywhere":3,
    "deal":3,
    "follow":3,
    "mortality":3,
    "friends":3,
    "instance":3,
    "giving":3,
    "mistakes":3,
    "might":3,
    "curse":3,
    "world":3,
    "led":3,
    "dark":3,
    "age":3,
    "field":3,
    "growth":3,
    "cannot":3,
    "body":3,
    "cause":3,
    "different":3,
    "least":3,
    "death":3,
    "process":3,
    "came":3,
    "close":3,
    "real":3,
    "explain":3,
    "ahead":3,
    "girl":3,
    "maternity":3,
    "becomes":3,
    "happens":3,
    "data":3,
    "facility":3,
    "puts":3,
    "exactly":3,
    "sake":3,
    "female":3,
    "itll":3,
    "issue":3,
    "thank":3,
    "waiting":3,
    "finding":3,
    "mind":3,
    "hate":3,
    "systems":3,
    "environment":3,
    "generation":3,
    "product":3,
    "youd":3,
    "humanity":3,
    "men":3,
    "went":3,
    "screen":3,
    "covered":3,
    "headed":3,
    "pretty":3,
    "others":3,
    "kept":3,
    "synesthesia":3,
    "beyond":3,
    "between":3,
    "team":3,
    "else":3,
    "agreement":3,
    "bird":3,
    "meet":3,
    "turns":3,
    "inside":3,
    "sign":3,
    "big":3,
    "mr":3,
    "expect":3,
    "escape":3,
    "bunker":3,
    "return":3,
    "couldnt":3,
    "wed":3,
    "scrutiny":3,
    "money":3,
    "discretion":3,
    "needs":3,
    "news":3,
    "works":3,
    "folks":3,
    "tattoos":3,
    "nice":3,
    "nuthin":3,
    "knew":3,
    "stories":3,
    "bounty":3,
    "must":3,
    "oh":3,
    "recovery":3,
    "police":3,
    "hell":3,
    "shakes":3,
    "used":3,
    "blue":3,
    "card":3,
    "punch":3,
    "park":3,
    "street":3,
    "living":3,
    "juggernaut":3,
    "listing":3,
    "word":3,
    "thomas":3,
    "god":3,
    "unfortunate":3,
    "technology":3,
    "alive":3,
    "hair":3,
    "miss":4,
    "coffee":4,
    "cmon":4,
    "morning":4,
    "everyone":4,
    "four":4,
    "twodelta":4,
    "moving":4,
    "rest":4,
    "worry":4,
    "week":4,
    "census":4,
    "air":4,
    "shut":4,
    "unit":4,
    "proximity":4,
    "late":4,
    "isnt":4,
    "showing":4,
    "remember":4,
    "next":4,
    "upstairs":4,
    "smile":4,
    "lydia":4,
    "each":4,
    "health":4,
    "does":4,
    "parts":4,
    "learn":4,
    "wall":4,
    "kind":4,
    "chance":4,
    "till":4,
    "offer":4,
    "harvest":4,
    "given":4,
    "heart":4,
    "cover":4,
    "legal":4,
    "such":4,
    "function":4,
    "thinking":4,
    "few":4,
    "foundation":4,
    "father":4,
    "case":4,
    "choice":4,
    "taps":4,
    "etherboard":4,
    "lincolns":4,
    "parameters":4,
    "angry":4,
    "thing":4,
    "second":4,
    "trust":4,
    "felt":4,
    "cut":4,
    "off":4,
    "ether":4,
    "subject":4,
    "blood":4,
    "flesh":4,
    "incident":4,
    "contamination":4,
    "year":4,
    "rely":4,
    "show":4,
    "alright":4,
    "open":4,
    "level":4,
    "answers":4,
    "containment":4,
    "lot":4,
    "fast":4,
    "far":4,
    "wherever":4,
    "`em":4,
    "diggs":4,
    "burdie":4,
    "ten":4,
    "everything":4,
    "currency":4,
    "security":4,
    "spirits":4,
    "spirit":4,
    "boat":4,
    "katherine":4,
    "anything":5,
    "ask":5,
    "center":5,
    "hope":5,
    "delivery":5,
    "leave":5,
    "quotas":5,
    "always":5,
    "spin":5,
    "step":5,
    "gets":5,
    "easy":5,
    "guy":5,
    "long":5,
    "believe":5,
    "wont":5,
    "three":5,
    "again":5,
    "law":5,
    "lost":5,
    "check":5,
    "sometimes":5,
    "care":5,
    "gentlemen":5,
    "sir":5,
    "doing":5,
    "question":5,
    "enough":5,
    "genetic":5,
    "science":5,
    "laws":5,
    "which":5,
    "ever":5,
    "many":5,
    "goes":5,
    "around":5,
    "levels":5,
    "order":5,
    "contact":5,
    "left":5,
    "found":5,
    "head":5,
    "control":5,
    "sense":5,
    "storm":5,
    "face":5,
    "somebody":5,
    "anyone":5,
    "night":5,
    "theyd":5,
    "either":5,
    "names":5,
    "john":5,
    "means":5,
    "condition":6,
    "already":6,
    "welcome":6,
    "coming":6,
    "move":6,
    "hey":6,
    "file":6,
    "yourself":6,
    "days":6,
    "same":6,
    "day":6,
    "bad":6,
    "defect":6,
    "someone":6,
    "nothing":6,
    "outside":6,
    "dr":6,
    "platinum":6,
    "very":6,
    "doctor":6,
    "problem":6,
    "insurance":6,
    "theyll":6,
    "also":6,
    "past":6,
    "under":6,
    "youve":6,
    "reason":6,
    "male":6,
    "job":6,
    "asked":6,
    "run":6,
    "heard":6,
    "license":6,
    "stop":6,
    "looking":6,
    "contract":6,
    "whatever":7,
    "six":7,
    "today":7,
    "jonesy":7,
    "work":7,
    "use":7,
    "sorry":7,
    "by":7,
    "things":7,
    "tour":7,
    "plan":7,
    "doesnt":7,
    "while":7,
    "policy":7,
    "terms":7,
    "sleep":7,
    "thought":7,
    "wrong":7,
    "karl":7,
    "fucking":7,
    "called":7,
    "transport":7,
    "saw":7,
    "bernard":7,
    "fuck":7,
    "months":8,
    "those":8,
    "guess":8,
    "own":8,
    "happened":8,
    "didnt":8,
    "much":8,
    "takes":8,
    "looks":8,
    "feel":8,
    "stay":8,
    "trying":8,
    "water":8,
    "took":8,
    "bond":8,
    "every":8,
    "good":9,
    "made":9,
    "friend":9,
    "too":9,
    "put":9,
    "contaminated":9,
    "wanted":9,
    "before":9,
    "wasnt":9,
    "youll":9,
    "talking":9,
    "institute":9,
    "point":9,
    "clone":9,
    "life":9,
    "other":9,
    "than":9,
    "through":9,
    "please":9,
    "told":9,
    "medical":10,
    "part":10,
    "first":10,
    "huh":10,
    "lets":10,
    "theyre":10,
    "even":10,
    "because":10,
    "eyes":10,
    "into":10,
    "id":10,
    "yes":10,
    "need":10,
    "call":10,
    "sponsorship":10,
    "after":10,
    "people":10,
    "away":10,
    "man":10,
    "will":11,
    "sector":11,
    "new":11,
    "maybe":11,
    "place":11,
    "any":11,
    "k":11,
    "another":11,
    "may":11,
    "would":11,
    "did":11,
    "merrick":11,
    "help":11,
    "products":11,
    "start":11,
    "ellen":11,
    "had":12,
    "let":12,
    "island":12,
    "should":12,
    "b":12,
    "only":12,
    "sponsor":12,
    "j":12,
    "where":13,
    "ill":13,
    "last":13,
    "tell":13,
    "never":13,
    "could":13,
    "something":13,
    "sure":13,
    "theres":13,
    "sanger":13,
    "henry":13,
    "little":13,
    "ive":14,
    "come":14,
    "give":14,
    "more":14,
    "these":14,
    "human":14,
    "over":15,
    "starkweather":15,
    "make":15,
    "mean":15,
    "their":15,
    "whats":16,
    "keep":16,
    "still":16,
    "time":16,
    "well":16,
    "has":16,
    "say":16,
    "hes":16,
    "name":16,
    "v":16,
    "f":16,
    "who":17,
    "said":17,
    "when":17,
    "understand":17,
    "way":18,
    "two":18,
    "state":18,
    "or":19,
    "down":19,
    "been":19,
    "okay":19,
    "some":19,
    "p":19,
    "agnate":19,
    "think":20,
    "cant":20,
    "baby":21,
    "w":21,
    "go":21,
    "as":22,
    "m":22,
    "she":22,
    "find":22,
    "youre":23,
    "back":23,
    "one":23,
    "c":23,
    "ester":24,
    "can":25,
    "look":25,
    "right":25,
    "see":25,
    "then":26,
    "were":26,
    "take":27,
    "g":27,
    "our":29,
    "him":29,
    "about":31,
    "got":32,
    "now":32,
    "here":32,
    "so":32,
    "thats":33,
    "us":33,
    "why":33,
    "how":33,
    "u":33,
    "all":34,
    "if":36,
    "his":39,
    "going":40,
    "at":40,
    "from":40,
    "there":40,
    "get":40,
    "like":41,
    "d":42,
    "up":43,
    "them":43,
    "was":44,
    "her":44,
    "its":45,
    "out":45,
    "be":47,
    "an":47,
    "with":47,
    "lincoln":48,
    "no":48,
    "my":49,
    "y":49,
    "are":51,
    "just":52,
    "do":52,
    "know":53,
    "h":53,
    "im":54,
    "want":54,
    "he":55,
    "your":58,
    "they":58,
    "l":61,
    "not":62,
    "have":65,
    "dont":66,
    "but":66,
    "on":68,
    "that":68,
    "this":68,
    "r":70,
    "for":78,
    "me":79,
    "n":83,
    "what":88,
    "s":94,
    "o":105,
    "is":109,
    "and":112,
    "t":116,
    "we":121,
    "in":122,
    "e":125,
    "it":142,
    "of":155,
    "":245,
    "you":307,
    "a":309,
    "to":315,
    "i":342,
    "the":483
}