{
    "dunk":1,
    "hayes":1,
    "landing":1,
    "reports":1,
    "conditions":1,
    "stripers":1,
    "jacks":1,
    "storm":1,
    "warning":1,
    "hatteras":1,
    "freshening":1,
    "winds":1,
    "continued":1,
    "sun":1,
    "autumn":1,
    "yard":1,
    "playing":1,
    "cah":1,
    "sound":1,
    "nyawk":1,
    "30":1,
    "kettle":1,
    "hazard":1,
    "third":1,
    "whistle":1,
    "thrift":1,
    "shop":1,
    "marcia":1,
    "vaughns":1,
    "pet":1,
    "charity":1,
    "mostly":1,
    "clothes":1,
    "wear":1,
    "garden":1,
    "strikes":1,
    "shit":1,
    "muggers":1,
    "silly":1,
    "vampire":1,
    "sanded":1,
    "upstairs":1,
    "mommy":1,
    "aid":1,
    "hm":1,
    "sillier":1,
    "weaken":1,
    "mmm":1,
    "usually":1,
    "float":1,
    "kiddin":1,
    "worthingsly":1,
    "worthington":1,
    "died":1,
    "picked":1,
    "sort":1,
    "passed":1,
    "mightve":1,
    "woman":1,
    "drowned":1,
    "cambridge":1,
    "harvard":1,
    "tuxedo":1,
    "though":1,
    "friends":1,
    "dyou":1,
    "apiece":1,
    "each":1,
    "kick":1,
    "beer":1,
    "cleaning":1,
    "pretty":1,
    "stiff":1,
    "files":1,
    "pendings":1,
    "desk":1,
    "importance":1,
    "aging":1,
    "monday":1,
    "bentoncourt":1,
    "hall":1,
    "inspector":1,
    "wants":1,
    "site":1,
    "catches":1,
    "oclock":1,
    "batch":1,
    "calls":1,
    "searles":1,
    "rentabike":1,
    "rainy":1,
    "ale":1,
    "tisberrys":1,
    "hardware":1,
    "nineyearolds":1,
    "practicing":1,
    "picket":1,
    "coroner":1,
    "santos":1,
    "hide":1,
    "truck":1,
    "hampshire":1,
    "plates":1,
    "parked":1,
    "waitaminute":1,
    "eight":1,
    "bare":1,
    "later":1,
    "stuffs":1,
    "pilgrims":1,
    "yourself":1,
    "register":1,
    "scout":1,
    "troop":1,
    "mile":1,
    "merit":1,
    "badges":1,
    "phone":1,
    "south":1,
    "fatal":1,
    "batten":1,
    "whove":1,
    "bunch":1,
    "scouts":1,
    "coupla":1,
    "thereabouts":1,
    "dry":1,
    "robbie":1,
    "hofner":1,
    "boyle":1,
    "alberts":1,
    "technically":1,
    "instruction":1,
    "civic":1,
    "ordinance":1,
    "anxious":1,
    "rushing":1,
    "serious":1,
    "saying":1,
    "dollars":1,
    "theyll":1,
    "cod":1,
    "smorgasbord":1,
    "tramp":1,
    "accidentally":1,
    "goes":1,
    "drunk":1,
    "fred":1,
    "ganz":1,
    "scalloping":1,
    "bvds":1,
    "bedford":1,
    "bill":1,
    "mayhew":1,
    "amend":1,
    "report":1,
    "appreciate":1,
    "gut":1,
    "reaction":1,
    "reacting":1,
    "psychological":1,
    "barracuda":1,
    "vacuum":1,
    "hendricks":1,
    "puritans":1,
    "cousins":1,
    "prejudiced":1,
    "feuds":1,
    "ties":1,
    "referee":1,
    "complete":1,
    "spools":1,
    "piano":1,
    "ordered":1,
    "yessir":1,
    "choke":1,
    "bye":1,
    "season":1,
    "worse":1,
    "bother":1,
    "company":1,
    "excepted":1,
    "islanders":1,
    "pain":1,
    "butt":1,
    "pardon":1,
    "french":1,
    "islander":1,
    "cat":1,
    "kittens":1,
    "oven":1,
    "muffins":1,
    "muffin":1,
    "fingers":1,
    "beginning":1,
    "prune":1,
    "worried":1,
    "labor":1,
    "weather":1,
    "ow":1,
    "continues":1,
    "lib":1,
    "calling":1,
    "answer":1,
    "fair":1,
    "sean":1,
    "contest":1,
    "country":1,
    "entering":1,
    "advertise":1,
    "recommend":1,
    "outoftown":1,
    "papers":1,
    "care":1,
    "responsible":1,
    "hurt":1,
    "attention":1,
    "affects":1,
    "suggest":1,
    "move":1,
    "chambers":1,
    "questions":1,
    "private":1,
    "between":1,
    "brave":1,
    "steps":1,
    "plan":1,
    "seasonal":1,
    "spotters":1,
    "cooperation":1,
    "contacted":1,
    "involve":1,
    "outsiders":1,
    "decided":1,
    "24":1,
    "official":1,
    "danger":1,
    "raise":1,
    "fishs":1,
    "motel":1,
    "plug":1,
    "drain":1,
    "taxes":1,
    "shirts":1,
    "bird":1,
    "pond":1,
    "bluegills":1,
    "cods":1,
    "swallow":1,
    "tenderizing":1,
    "tourist":1,
    "paying":1,
    "basis":1,
    "value":1,
    "neck":1,
    "bucks":1,
    "costing":1,
    "alive":1,
    "annee":1,
    "welfare":1,
    "advisement":1,
    "tea":1,
    "lemon":1,
    "loves":1,
    "sitting":1,
    "tied":1,
    "jetty":1,
    "doubleknot":1,
    "neat":1,
    "yesterday":1,
    "memorized":1,
    "handbook":1,
    "regulations":1,
    "himself":1,
    "father":1,
    "twothirty":1,
    "wind":1,
    "nibbles":1,
    "sirloin":1,
    "blowin":1,
    "twenty":1,
    "dumb":1,
    "relaxing":1,
    "boring":1,
    "hook":1,
    "gogogogogo":1,
    "holy":1,
    "denherder":1,
    "sat":1,
    "breath":1,
    "figuring":1,
    "explain":1,
    "charlies":1,
    "wife":1,
    "freezer":1,
    "funny":1,
    "field":1,
    "readers":1,
    "enquirer":1,
    "charging":1,
    "double":1,
    "usual":1,
    "rent":1,
    "rochelle":1,
    "gouged":1,
    "cracker":1,
    "prices":1,
    "leaky":1,
    "hamptons":1,
    "whatevers":1,
    "beats":1,
    "ahoy":1,
    "sail":1,
    "oar":1,
    "scull":1,
    "stinkpotter":1,
    "belay":1,
    "ragsetter":1,
    "poke":1,
    "snoot":1,
    "ok":1,
    "thanks":1,
    "aw":1,
    "attracts":1,
    "fantail":1,
    "launch":1,
    "beyond":1,
    "breakwater":1,
    "tellin":1,
    "swear":1,
    "beat":1,
    "split":1,
    "victim":1,
    "identified":1,
    "watkins":1,
    "female":1,
    "caucasian":1,
    "height":1,
    "weight":1,
    "estimated":1,
    "partial":1,
    "remains":1,
    "torso":1,
    "midthorax":1,
    "eviscerated":1,
    "organs":1,
    "elbow":1,
    "massive":1,
    "upper":1,
    "musculature":1,
    "denuded":1,
    "bone":1,
    "notify":1,
    "jurisdiction":1,
    "shoulders":1,
    "sternum":1,
    "ribcage":1,
    "intact":1,
    "smoke":1,
    "minor":1,
    "post":1,
    "mortem":1,
    "lacerations":1,
    "abrasions":1,
    "marks":1,
    "indicate":1,
    "typical":1,
    "nonfrenzy":1,
    "pattern":1,
    "carchaninus":1,
    "lonimanus":1,
    "isurus":1,
    "glaucas":1,
    "gross":1,
    "postmortem":1,
    "erosion":1,
    "surfaces":1,
    "prevent":1,
    "detailed":1,
    "analysis":1,
    "however":1,
    "jaws":1,
    "attacking":1,
    "considered":1,
    "average":1,
    "coral":1,
    "reef":1,
    "jack":1,
    "ripper":1,
    "ginny":1,
    "ap":1,
    "upi":1,
    "dave":1,
    "axelrod":1,
    "owes":1,
    "bozos":1,
    "beginners":1,
    "luck":1,
    "gardner":1,
    "clowns":1,
    "theyd":1,
    "meadows":1,
    "rare":1,
    "definitely":1,
    "specialist":1,
    "send":1,
    "owe":1,
    "debt":1,
    "gratitude":1,
    "catching":1,
    "monster":1,
    "whadya":1,
    "radius":1,
    "hundreds":1,
    "hammerheads":1,
    "whitetips":1,
    "digestion":1,
    "disgusting":1,
    "largest":1,
    "meanest":1,
    "vicious":1,
    "landed":1,
    "known":1,
    "positive":1,
    "confirmation":1,
    "reasonable":1,
    "autopsy":1,
    "plenty":1,
    "dock":1,
    "besides":1,
    "responsibility":1,
    "ugly":1,
    "sonofabitch":1,
    "harve":1,
    "carl":1,
    "dump":1,
    "dangerous":1,
    "pursue":1,
    "cmere":1,
    "daddy":1,
    "kiss":1,
    "needs":1,
    "residence":1,
    "hi":1,
    "swell":1,
    "ummm":1,
    "somewhere":1,
    "difference":1,
    "proved":1,
    "cutting":1,
    "examining":1,
    "stomach":1,
    "contents":1,
    "lucky":1,
    "estate":1,
    "bottled":1,
    "vintage":1,
    "breathe":1,
    "sweetheart":1,
    "rational":1,
    "leaving":1,
    "aurora":1,
    "bestfunded":1,
    "study":1,
    "18":1,
    "months":1,
    "specials":1,
    "television":1,
    "compagno":1,
    "computers":1,
    "telemetry":1,
    "defense":1,
    "department":1,
    "funding":1,
    "otters":1,
    "turtle":1,
    "loved":1,
    "live":1,
    "yep":1,
    "sits":1,
    "childhood":1,
    "clinical":1,
    "word":1,
    "drowning":1,
    "true":1,
    "examined":1,
    "unreported":1,
    "victims":1,
    "lone":1,
    "picks":1,
    "area":1,
    "hangs":1,
    "lasts":1,
    "territoriality":1,
    "theory":1,
    "1900":1,
    "starting":1,
    "bathing":1,
    "resorts":1,
    "flattered":1,
    "dartmouth":1,
    "homecoming":1,
    "queen":1,
    "date":1,
    "greatgrandfather":1,
    "mining":1,
    "ancestors":1,
    "shipbuilders":1,
    "beatnik":1,
    "sarah":1,
    "newport":1,
    "vineyard":1,
    "figured":1,
    "oceanography":1,
    "biology":1,
    "design":1,
    "racing":1,
    "yachts":1,
    "brother":1,
    "alimentary":1,
    "canal":1,
    "abdominal":1,
    "cavity":1,
    "digestive":1,
    "tract":1,
    "simple":1,
    "flounder":1,
    "burlap":1,
    "bag":1,
    "paint":1,
    "aha":1,
    "drifted":1,
    "gulf":1,
    "southern":1,
    "florida":1,
    "license":1,
    "plate":1,
    "ate":1,
    "cans":1,
    "looking":1,
    "sense":1,
    "able":1,
    "feeders":1,
    "stretch":1,
    "depthfinder":1,
    "fathometer":1,
    "sonar":1,
    "closedcircuit":1,
    "tv":1,
    "fore":1,
    "aft":1,
    "rdf":1,
    "loose":1,
    "wheel":1,
    "eater":1,
    "mackerel":1,
    "clumped":1,
    "together":1,
    "staying":1,
    "sets":1,
    "grandparents":1,
    "trust":1,
    "funds":1,
    "stocks":1,
    "principal":1,
    "fooling":1,
    "flicka":1,
    "dinghy":1,
    "tow":1,
    "buried":1,
    "whod":1,
    "agrees":1,
    "suggests":1,
    "staked":1,
    "claim":1,
    "continue":1,
    "limits":1,
    "deaths":1,
    "1916":1,
    "jones":1,
    "stimulated":1,
    "activity":1,
    "occurs":1,
    "whenever":1,
    "humans":1,
    "avoid":1,
    "ringing":1,
    "bell":1,
    "pulled":1,
    "glass":1,
    "wrecked":1,
    "towed":1,
    "chewed":1,
    "lost":1,
    "carcaradon":1,
    "carcharias":1,
    "commit":1,
    "economic":1,
    "suicide":1,
    "flimsy":1,
    "evidence":1,
    "finished":1,
    "noncorrosive":1,
    "mesh":1,
    "netting":1,
    "scientific":1,
    "cost":1,
    "either":1,
    "problems":1,
    "ignore":1,
    "bites":1,
    "ways":1,
    "solve":1,
    "closing":1,
    "deliberate":1,
    "mutilation":1,
    "service":1,
    "message":1,
    "painthappy":1,
    "hung":1,
    "baby":1,
    "browns":1,
    "standing":1,
    "arguing":1,
    "hot":1,
    "goodbye":1,
    "perfect":1,
    "machine":1,
    "miracle":1,
    "evolution":1,
    "eats":1,
    "proportions":1,
    "correct":1,
    "name":1,
    "geographic":1,
    "reopen":1,
    "concerned":1,
    "direct":1,
    "payment":1,
    "flight":1,
    "expenses":1,
    "directly":1,
    "connected":1,
    "command":1,
    "signed":1,
    "erase":1,
    "initial":1,
    "erasure":1,
    "agencies":1,
    "cooperating":1,
    "needing":1,
    "services":1,
    "repellent":1,
    "shove":1,
    "traffic":1,
    "minimum":1,
    "rain":1,
    "rumors":1,
    "indeed":1,
    "repeat":1,
    "predator":1,
    "supposedly":1,
    "injured":1,
    "bathers":1,
    "folks":1,
    "wonderful":1,
    "friendship":1,
    "matthew":1,
    "whatve":1,
    "carcharodon":1,
    "cacharias":1,
    "opinions":1,
    "holiday":1,
    "crowd":1,
    "seems":1,
    "making":1,
    "mind":1,
    "recue":1,
    "machines":1,
    "pan":1,
    "tits":1,
    "cute":1,
    "43":1,
    "equal":1,
    "jerry":1,
    "famed":1,
    "cloud":1,
    "appeared":1,
    "nose":1,
    "beacon":1,
    "remote":1,
    "stick":1,
    "teachers":1,
    "downtown":1,
    "christenson":1,
    "al":1,
    "union":1,
    "engineering":1,
    "shame":1,
    "refreshing":1,
    "pleasant":1,
    "mlady":1,
    "marvelous":1,
    "spot":1,
    "note":1,
    "shadow":1,
    "false":1,
    "alarm":1,
    "glare":1,
    "knees":1,
    "surf":1,
    "copter":1,
    "wrap":1,
    "blankets":1,
    "cars":1,
    "comic":1,
    "pen":1,
    "anymore":1,
    "signing":1,
    "voucher":1,
    "employ":1,
    "happens":1,
    "finds":1,
    "acting":1,
    "towns":1,
    "interests":1,
    "interest":1,
    "bellyup":1,
    "hole":1,
    "authorize":1,
    "costs":1,
    "sign":1,
    "violation":1,
    "handshake":1,
    "authorized":1,
    "township":1,
    "independent":1,
    "price":1,
    "regular":1,
    "daily":1,
    "rate":1,
    "200":1,
    "incidental":1,
    "damages":1,
    "zoning":1,
    "property":1,
    "case":1,
    "apricot":1,
    "brandy":1,
    "buy":1,
    "cases":1,
    "myself":1,
    "swimmin":1,
    "bowlegged":1,
    "women":1,
    "paid":1,
    "piss":1,
    "blackfish":1,
    "board":1,
    "bilges":1,
    "fuel":1,
    "finish":1,
    "crewed":1,
    "transpacs":1,
    "transplants":1,
    "americas":1,
    "trials":1,
    "sailing":1,
    "sharking":1,
    "hooking":1,
    "poor":1,
    "dogfish":1,
    "sheepshank":1,
    "basic":1,
    "seamanship":1,
    "ha":1,
    "counting":1,
    "5000":1,
    "worth":1,
    "makes":1,
    "kiddy":1,
    "scissors":1,
    "dolls":1,
    "hero":1,
    "knock":1,
    "listen":1,
    "charter":1,
    "commissioner":1,
    "5":1,
    "lengths":1,
    "12inch":1,
    "14s":1,
    "straight":1,
    "gaff":1,
    "flying":1,
    "gaffs":1,
    "splice":1,
    "m1":1,
    "clips":1,
    "pliers":1,
    "irons":1,
    "powerhead":1,
    "co2":1,
    "darts":1,
    "hypo":1,
    "regulator":1,
    "gauge":1,
    "camera":1,
    "magazines":1,
    "asked":1,
    "dr":1,
    "miro":1,
    "borack":1,
    "zealand":1,
    "killing":1,
    "stow":1,
    "dorothy":1,
    "junior":1,
    "astronaut":1,
    "harpooner":1,
    "sword":1,
    "fisherman":1,
    "portable":1,
    "shower":1,
    "antishark":1,
    "dramamine":1,
    "daylights":1,
    "wastin":1,
    "colorful":1,
    "worry":1,
    "survive":1,
    "pair":1,
    "black":1,
    "socks":1,
    "blistex":1,
    "kit":1,
    "yohoho":1,
    "bottle":1,
    "rum":1,
    "whatll":1,
    "bow":1,
    "stern":1,
    "frontbow":1,
    "backstern":1,
    "aloft":1,
    "below":1,
    "staircase":1,
    "ladder":1,
    "throw":1,
    "round":1,
    "window":1,
    "owner":1,
    "holler":1,
    "birds":1,
    "overboard":1,
    "cross":1,
    "slap":1,
    "heads":1,
    "greedy":1,
    "sonsabitches":1,
    "guts":1,
    "cannibals":1,
    "appetizer":1,
    "porker":1,
    "serving":1,
    "iron":1,
    "yap":1,
    "break":1,
    "driving":1,
    "drifting":1,
    "charts":1,
    "sounding":1,
    "lead":1,
    "compass":1,
    "nowadays":1,
    "afraid":1,
    "finders":1,
    "radar":1,
    "electric":1,
    "toothbrush":1,
    "stupid":1,
    "fresh":1,
    "compressed":1,
    "boom":1,
    "whitey":1,
    "schools":1,
    "electronics":1,
    "appetite":1,
    "rocking":1,
    "chair":1,
    "mac":1,
    "approve":1,
    "brain":1,
    "radish":1,
    "werent":1,
    "lonesome":1,
    "gulp":1,
    "hooooooo":1,
    "dummy":1,
    "reel":1,
    "farmer":1,
    "halfspeed":1,
    "repel":1,
    "boarders":1,
    "poop":1,
    "mainsail":1,
    "argh":1,
    "jim":1,
    "neutral":1,
    "foolin":1,
    "makin":1,
    "gettin":1,
    "playin":1,
    "gloves":1,
    "tease":1,
    "yahoo":1,
    "lab":1,
    "supercargo":1,
    "backstroke":1,
    "wires":1,
    "showing":1,
    "unbuckle":1,
    "fast":1,
    "leader":1,
    "wild":1,
    "erratic":1,
    "gamefish":1,
    "bridge":1,
    "fasten":1,
    "quartermile":1,
    "breaking":1,
    "trick":1,
    "surface":1,
    "jab":1,
    "understand":1,
    "catfish":1,
    "least":1,
    "inch":1,
    "25":1,
    "howre":1,
    "formula":1,
    "girth":1,
    "150":1,
    "inches":1,
    "squared":1,
    "800":1,
    "fart":1,
    "push":1,
    "busy":1,
    "everythings":1,
    "havent":1,
    "foreground":1,
    "scale":1,
    "steer":1,
    "er":1,
    "clean":1,
    "h":1,
    "crutch":1,
    "pissant":1,
    "tinker":1,
    "toy":1,
    "fight":1,
    "bringing":1,
    "god":1,
    "crack":1,
    "st":1,
    "paddys":1,
    "knocko":1,
    "nolans":1,
    "sunovabitch":1,
    "winged":1,
    "spittoon":1,
    "steve":1,
    "kaplan":1,
    "during":1,
    "recess":1,
    "backstay":1,
    "moray":1,
    "eel":1,
    "suit":1,
    "face":1,
    "scars":1,
    "amusements":1,
    "bar":1,
    "frenchie":1,
    "knife":1,
    "snot":1,
    "locker":1,
    "laid":1,
    "amongst":1,
    "sweetpeas":1,
    "bull":1,
    "scraped":1,
    "samples":1,
    "scar":1,
    "threshers":1,
    "caressed":1,
    "nutmeg":1,
    "grater":1,
    "mako":1,
    "fell":1,
    "deck":1,
    "twice":1,
    "mister":1,
    "moffit":1,
    "heart":1,
    "sisters":1,
    "rather":1,
    "miss":1,
    "shipload":1,
    "misters":1,
    "bayonet":1,
    "iwo":1,
    "jima":1,
    "appendix":1,
    "tattoo":1,
    "death":1,
    "dishonor":1,
    "mother":1,
    "semper":1,
    "fi":1,
    "uhhh":1,
    "tread":1,
    "1944":1,
    "1945":1,
    "midnight":1,
    "torpedoes":1,
    "japanese":1,
    "submarine":1,
    "sealed":1,
    "orders":1,
    "deliverin":1,
    "bombthe":1,
    "hiroshima":1,
    "bombwe":1,
    "across":1,
    "pacific":1,
    "tinian":1,
    "leyte":1,
    "lashed":1,
    "adrift":1,
    "rafts":1,
    "sank":1,
    "twelve":1,
    "thirteenfooter":1,
    "blue":1,
    "measure":1,
    "judgin":1,
    "dorsal":1,
    "knewi":1,
    "officers":1,
    "secret":1,
    "distress":1,
    "signals":1,
    "sent":1,
    "list":1,
    "overdue":1,
    "perhaps":1,
    "hangin":1,
    "limp":1,
    "several":1,
    "bleedin":1,
    "laying":1,
    "bottom":1,
    "crusin":1,
    "formed":1,
    "somewhat":1,
    "battle":1,
    "nearest":1,
    "shout":1,
    "pound":1,
    "turned":1,
    "times":1,
    "seem":1,
    "spite":1,
    "shoutin":1,
    "poundin":1,
    "screamin":1,
    "churn":1,
    "ripped":1,
    "reform":1,
    "dawn":1,
    "count":1,
    "averaged":1,
    "six":1,
    "tigers":1,
    "cried":1,
    "river":1,
    "claimed":1,
    "waterfall":1,
    "choked":1,
    "swam":1,
    "alone":1,
    "lookin":1,
    "islands":1,
    "fellas":1,
    "ones":1,
    "stayed":1,
    "jacket":1,
    "rubbed":1,
    "raw":1,
    "thursday":1,
    "bumped":1,
    "against":1,
    "mine":1,
    "herbie":1,
    "robinson":1,
    "cleveland":1,
    "bosuns":1,
    "seemed":1,
    "asleep":1,
    "reached":1,
    "waken":1,
    "bobbed":1,
    "body":1,
    "upend":1,
    "hed":1,
    "beneath":1,
    "waist":1,
    "bombers":1,
    "overhead":1,
    "noticin":1,
    "suicides":1,
    "dyin":1,
    "noon":1,
    "fifth":1,
    "lockheed":1,
    "ventura":1,
    "swung":1,
    "low":1,
    "evenin":1,
    "fat":1,
    "pby":1,
    "sky":1,
    "began":1,
    "pickup":1,
    "frightened":1,
    "waitin":1,
    "nights":1,
    "sixteen":1,
    "nineteen":1,
    "forty":1,
    "delivered":1,
    "ago":1,
    "busting":1,
    "bilge":1,
    "pumps":1,
    "bearings":1,
    "sleeps":1,
    "angle":1,
    "bent":1,
    "housing":1,
    "goose":1,
    "runs":1,
    "drop":1,
    "foul":1,
    "giving":1,
    "duty":1,
    "treat":1,
    "bananas":1,
    "slower":1,
    "alongside":1,
    "rev":1,
    "atta":1,
    "court":1,
    "threell":1,
    "havin":1,
    "yourselves":1,
    "couple":1,
    "poles":1,
    "snag":1,
    "ropes":1,
    "transom":1,
    "free":1,
    "ride":1,
    "prop":1,
    "untie":1,
    "pieces":1,
    "sall":1,
    "pumpin":1,
    "heading":1,
    "barrels":1,
    "sink":1,
    "astern":1,
    "zigzag":1,
    "throttling":1,
    "gun":1,
    "power":1,
    "ccs":1,
    "strychnine":1,
    "nitrate":1,
    "cable":1,
    "roof":1,
    "eyebolts":1,
    "lower":1,
    "notices":1,
    "wednesday":1,
    "tuesday":1,
    "hate":1,
    "imagine":1,
    "tommy":2,
    "block":2,
    "chop":2,
    "mild":2,
    "shine":2,
    "bought":2,
    "house":2,
    "dogs":2,
    "probably":2,
    "yahd":2,
    "fire":2,
    "pick":2,
    "garbage":2,
    "swing":2,
    "play":2,
    "band":2,
    "sexy":2,
    "depend":2,
    "wash":2,
    "meet":2,
    "both":2,
    "goddamn":2,
    "office":2,
    "christine":2,
    "familys":2,
    "current":2,
    "order":2,
    "meeting":2,
    "council":2,
    "mainly":2,
    "karate":2,
    "fences":2,
    "pass":2,
    "recreation":2,
    "today":2,
    "glad":2,
    "front":2,
    "glasses":2,
    "harry":2,
    "avril":2,
    "bay":2,
    "couldnt":2,
    "printing":2,
    "attack":2,
    "kicking":2,
    "shut":2,
    "authority":2,
    "special":2,
    "selectmen":2,
    "book":2,
    "done":2,
    "propeller":2,
    "possibly":2,
    "boating":2,
    "comes":2,
    "remember":2,
    "almost":2,
    "net":2,
    "doctor":2,
    "trouble":2,
    "says":2,
    "panic":2,
    "hired":2,
    "support":2,
    "vandalism":2,
    "number":2,
    "12":2,
    "looks":2,
    "gets":2,
    "none":2,
    "born":2,
    "once":2,
    "10":2,
    "cold":2,
    "ad":2,
    "splashing":2,
    "room":2,
    "3000":2,
    "cash":2,
    "fishermen":2,
    "police":2,
    "early":2,
    "mainland":2,
    "short":2,
    "hours":2,
    "pull":2,
    "nobodys":2,
    "chasing":2,
    "shakin":2,
    "fellow":2,
    "moren":2,
    "bastard":2,
    "wanna":2,
    "cheap":2,
    "winter":2,
    "whether":2,
    "end":2,
    "offer":2,
    "birthday":2,
    "deep":2,
    "leg":2,
    "lamb":2,
    "screw":2,
    "shoot":2,
    "bait":2,
    "tides":2,
    "goddam":2,
    "jump":2,
    "meat":2,
    "stream":2,
    "yankee":2,
    "many":2,
    "supposed":2,
    "cast":2,
    "channel":2,
    "wonder":2,
    "officer":2,
    "yet":2,
    "pole":2,
    "hooked":2,
    "severed":2,
    "major":2,
    "remaining":2,
    "arm":2,
    "above":2,
    "tissue":2,
    "loss":2,
    "portions":2,
    "feeding":2,
    "squali":2,
    "must":2,
    "checked":2,
    "state":2,
    "boston":2,
    "picture":2,
    "50":2,
    "guess":2,
    "getting":2,
    "pictures":2,
    "tiger":2,
    "dya":2,
    "makos":2,
    "blues":2,
    "attacked":2,
    "slow":2,
    "eating":2,
    "halfassed":2,
    "fall":2,
    "sorry":2,
    "sick":2,
    "terrible":2,
    "because":2,
    "coffee":2,
    "having":2,
    "tells":2,
    "afternoon":2,
    "news":2,
    "small":2,
    "research":2,
    "expedition":2,
    "world":2,
    "cousteau":2,
    "promise":2,
    "hates":2,
    "lemme":2,
    "wish":2,
    "missing":2,
    "swimmers":2,
    "uh":2,
    "rogue":2,
    "supply":2,
    "broke":2,
    "lawrence":2,
    "friend":2,
    "always":2,
    "marine":2,
    "hmmm":2,
    "thought":2,
    "land":2,
    "waste":2,
    "closer":2,
    "single":2,
    "nuts":2,
    "behind":2,
    "touch":2,
    "amateur":2,
    "lifejackets":2,
    "expert":2,
    "situation":2,
    "strike":2,
    "past":2,
    "dinner":2,
    "lives":2,
    "save":2,
    "familiar":2,
    "swims":2,
    "bastards":2,
    "guy":2,
    "prove":2,
    "signature":2,
    "authorization":2,
    "normal":2,
    "mission":2,
    "gas":2,
    "actually":2,
    "lines":2,
    "4":2,
    "roll":2,
    "vaughn":2,
    "pleased":2,
    "happy":2,
    "biologist":2,
    "seconds":2,
    "45":2,
    "air":2,
    "sand":2,
    "suntan":2,
    "lotion":2,
    "arthur":2,
    "quite":2,
    "daisy":2,
    "scared":2,
    "favor":2,
    "ponds":2,
    "ladies":2,
    "whistles":2,
    "estuary":2,
    "shock":2,
    "contractor":2,
    "hire":2,
    "summers":2,
    "10000":2,
    "crap":2,
    "top":2,
    "tanks":2,
    "porkers":2,
    "tie":2,
    "2000":2,
    "class":2,
    "party":2,
    "skipper":2,
    "master":2,
    "ballast":2,
    "depth":2,
    "everything":2,
    "squirt":2,
    "hurry":2,
    "fishin":2,
    "doin":2,
    "hooks":2,
    "upside":2,
    "ahead":2,
    "does":2,
    "whale":2,
    "bitch":2,
    "reverse":2,
    "wet":2,
    "aye":2,
    "marlin":2,
    "stingray":2,
    "handle":2,
    "divide":2,
    "missus":2,
    "forward":2,
    "coming":2,
    "bit":2,
    "slammed":2,
    "yours":2,
    "fella":2,
    "bitten":2,
    "gimme":2,
    "mary":2,
    "ellen":2,
    "uss":2,
    "29th":2,
    "eleven":2,
    "till":2,
    "came":2,
    "groups":2,
    "hard":2,
    "started":2,
    "thirst":2,
    "bed":2,
    "engines":2,
    "shaft":2,
    "rudder":2,
    "tear":2,
    "idea":2,
    "certifiable":2,
    "guard":3,
    "used":3,
    "feed":3,
    "hows":3,
    "burn":3,
    "through":3,
    "dog":3,
    "\u0096":3,
    "forget":3,
    "sometimes":3,
    "ya":3,
    "cup":3,
    "ferry":3,
    "sir":3,
    "thousand":3,
    "week":3,
    "girl":3,
    "fireworks":3,
    "school":3,
    "nice":3,
    "matter":3,
    "polly":3,
    "whered":3,
    "signs":3,
    "problem":3,
    "ten":3,
    "doing":3,
    "lenny":3,
    "miles":3,
    "car":3,
    "even":3,
    "accident":3,
    "fishing":3,
    "along":3,
    "said":3,
    "wrong":3,
    "anyway":3,
    "yell":3,
    "everyone":3,
    "agree":3,
    "4th":3,
    "july":3,
    "since":3,
    "someone":3,
    "ought":3,
    "talk":3,
    "four":3,
    "wire":3,
    "year":3,
    "present":3,
    "kintner":3,
    "honey":3,
    "hope":3,
    "tight":3,
    "buster":3,
    "michael":3,
    "public":3,
    "safety":3,
    "bounty":3,
    "mrs":3,
    "sea":3,
    "local":3,
    "lunch":3,
    "bad":3,
    "size":3,
    "much":3,
    "mikey":3,
    "boats":3,
    "dad":3,
    "heard":3,
    "second":3,
    "trying":3,
    "mustve":3,
    "national":3,
    "safe":3,
    "might":3,
    "turn":3,
    "excuse":3,
    "dynamite":3,
    "leave":3,
    "wont":3,
    "gone":3,
    "middle":3,
    "may":3,
    "large":3,
    "teeth":3,
    "paper":3,
    "real":3,
    "maneater":3,
    "different":3,
    "kinds":3,
    "am":3,
    "stinks":3,
    "beautiful":3,
    "last":3,
    "husband":3,
    "station":3,
    "made":3,
    "ask":3,
    "called":3,
    "few":3,
    "fact":3,
    "side":3,
    "job":3,
    "life":3,
    "gardners":3,
    "aboard":3,
    "hull":3,
    "chrissake":3,
    "tooth":3,
    "means":3,
    "engine":3,
    "without":3,
    "3":3,
    "enough":3,
    "worked":3,
    "vessel":3,
    "pilot":3,
    "eye":3,
    "gear":3,
    "comin":3,
    "starboard":3,
    "captain":3,
    "barrel":3,
    "fine":3,
    "course":3,
    "wed":3,
    "grab":3,
    "onto":3,
    "point":3,
    "throttle":3,
    "haul":3,
    "stop":3,
    "tons":3,
    "follow":3,
    "steady":3,
    "indianapolis":3,
    "bomb":3,
    "already":3,
    "squares":3,
    "high":3,
    "coast":4,
    "cape":4,
    "cause":4,
    "near":4,
    "years":4,
    "city":4,
    "ship":4,
    "hit":4,
    "bring":4,
    "older":4,
    "huh":4,
    "eyes":4,
    "really":4,
    "somebody":4,
    "run":4,
    "york":4,
    "took":4,
    "pay":4,
    "work":4,
    "youve":4,
    "night":4,
    "guys":4,
    "august":4,
    "june":4,
    "swim":4,
    "morning":4,
    "found":4,
    "itll":4,
    "long":4,
    "should":4,
    "set":4,
    "far":4,
    "shes":4,
    "weve":4,
    "family":4,
    "lot":4,
    "kid":4,
    "please":4,
    "boys":4,
    "next":4,
    "everybody":4,
    "whole":4,
    "wouldnt":4,
    "check":4,
    "taken":4,
    "also":4,
    "seen":4,
    "living":4,
    "quick":4,
    "pleasure":4,
    "thank":4,
    "happened":4,
    "tired":4,
    "full":4,
    "working":4,
    "ready":4,
    "other":4,
    "matt":4,
    "bite":4,
    "days":4,
    "shot":4,
    "young":4,
    "most":4,
    "wait":4,
    "wanted":4,
    "red":4,
    "attacks":4,
    "food":4,
    "chum":4,
    "soon":4,
    "extra":4,
    "mate":4,
    "ass":4,
    "1":4,
    "2":4,
    "pump":4,
    "while":4,
    "tail":4,
    "rope":4,
    "cage":4,
    "youll":4,
    "easy":4,
    "keg":4,
    "hour":4,
    "yes":4,
    "cmon":5,
    "clear":5,
    "another":5,
    "taking":5,
    "better":5,
    "until":5,
    "son":5,
    "oh":5,
    "things":5,
    "20":5,
    "minutes":5,
    "weekend":5,
    "careful":5,
    "couldve":5,
    "maybe":5,
    "closed":5,
    "help":5,
    "whatever":5,
    "mayor":5,
    "theyre":5,
    "own":5,
    "use":5,
    "swimming":5,
    "best":5,
    "anyone":5,
    "blood":5,
    "tomorrow":5,
    "id":5,
    "start":5,
    "oceanographic":5,
    "lose":5,
    "goin":5,
    "stand":5,
    "inside":5,
    "charlie":5,
    "money":5,
    "hold":5,
    "try":5,
    "port":5,
    "waters":5,
    "than":5,
    "orca":5,
    "rig":5,
    "give":6,
    "yknow":6,
    "hear":6,
    "else":6,
    "she":6,
    "place":6,
    "minute":6,
    "call":6,
    "isnt":6,
    "hello":6,
    "quint":6,
    "every":6,
    "alex":6,
    "institute":6,
    "larry":6,
    "gonna":6,
    "feet":6,
    "christ":6,
    "wasnt":6,
    "men":6,
    "still":6,
    "crazy":6,
    "whos":6,
    "mean":6,
    "killed":6,
    "heres":6,
    "radio":6,
    "em":6,
    "light":7,
    "say":7,
    "never":7,
    "told":7,
    "love":7,
    "nobody":7,
    "stuff":7,
    "stay":7,
    "away":7,
    "jesus":7,
    "their":7,
    "hands":7,
    "into":7,
    "kind":7,
    "people":7,
    "again":7,
    "kill":7,
    "under":7,
    "ocean":7,
    "catch":7,
    "left":7,
    "show":7,
    "youd":7,
    "anything":7,
    "would":7,
    "talking":7,
    "damn":7,
    "has":8,
    "kids":8,
    "before":8,
    "brody":8,
    "gotta":8,
    "ever":8,
    "saw":8,
    "hundred":8,
    "put":8,
    "town":8,
    "any":8,
    "caught":8,
    "boy":8,
    "who":8,
    "been":8,
    "half":8,
    "find":8,
    "will":8,
    "after":8,
    "believe":8,
    "ben":8,
    "watch":8,
    "knew":8,
    "dead":8,
    "hand":9,
    "yeah":9,
    "first":9,
    "new":9,
    "old":9,
    "only":9,
    "close":9,
    "eat":9,
    "very":9,
    "business":9,
    "aint":9,
    "drink":9,
    "great":9,
    "cut":10,
    "five":10,
    "over":10,
    "mr":10,
    "thing":10,
    "line":10,
    "island":11,
    "let":11,
    "martin":11,
    "why":11,
    "man":11,
    "hell":11,
    "home":11,
    "hooper":11,
    "nothing":11,
    "how":12,
    "okay":12,
    "ive":12,
    "went":12,
    "head":12,
    "could":12,
    "fish":12,
    "open":12,
    "white":12,
    "two":12,
    "amity":13,
    "these":13,
    "lets":13,
    "sure":13,
    "then":13,
    "hey":14,
    "summer":14,
    "those":14,
    "make":14,
    "well":14,
    "beach":14,
    "around":14,
    "day":14,
    "beaches":14,
    "way":14,
    "good":15,
    "when":15,
    "whats":15,
    "cant":15,
    "his":15,
    "three":15,
    "keep":16,
    "by":16,
    "think":16,
    "need":16,
    "take":16,
    "time":16,
    "too":16,
    "didnt":17,
    "did":17,
    "them":17,
    "her":17,
    "had":17,
    "little":17,
    "more":17,
    "big":17,
    "as":17,
    "sharks":17,
    "where":18,
    "our":18,
    "back":19,
    "ill":19,
    "tell":19,
    "boat":19,
    "come":20,
    "chief":20,
    "us":20,
    "off":20,
    "so":20,
    "down":21,
    "something":21,
    "thats":21,
    "theres":22,
    "were":22,
    "an":22,
    "see":24,
    "like":24,
    "at":24,
    "know":24,
    "now":24,
    "they":25,
    "be":27,
    "about":27,
    "not":28,
    "hes":28,
    "youre":29,
    "look":29,
    "from":30,
    "want":31,
    "but":31,
    "going":32,
    "can":32,
    "if":32,
    "are":33,
    "or":33,
    "have":33,
    "water":34,
    "some":34,
    "got":38,
    "one":39,
    "just":39,
    "no":40,
    "all":40,
    "up":42,
    "im":43,
    "right":44,
    "dont":44,
    "go":44,
    "your":46,
    "there":46,
    "its":48,
    "shark":48,
    "do":49,
    "my":49,
    "get":50,
    "was":51,
    "he":51,
    "with":53,
    "him":61,
    "for":62,
    "what":63,
    "me":64,
    "here":67,
    "out":67,
    "is":73,
    "on":73,
    "we":81,
    "this":100,
    "that":107,
    "of":112,
    "it":119,
    "":123,
    "in":128,
    "i":168,
    "and":194,
    "you":195,
    "to":198,
    "a":242,
    "the":346
}