{
    "87":1,
    "southeast":1,
    "wander":1,
    "beach":1,
    "fun":1,
    "sweetheart":1,
    "paul":1,
    "seemed":1,
    "disaster":1,
    "blessing":1,
    "natures":1,
    "freeing":1,
    "confines":1,
    "survive":1,
    "meant":1,
    "mans":1,
    "interference":1,
    "taken":1,
    "hospital":1,
    "fortyeight":1,
    "american":1,
    "yacht":1,
    "cruise":1,
    "stumbled":1,
    "wealthy":1,
    "fond":1,
    "lawsuits":1,
    "wrongful":1,
    "settlements":1,
    "partial":1,
    "donald":1,
    "gennaro":1,
    "365":1,
    "muldoon":1,
    "126":1,
    "damaged":1,
    "173":1,
    "demolition":1,
    "deconstruction":1,
    "disposal":1,
    "facilities":1,
    "organic":1,
    "inorganic":1,
    "twentysix":1,
    "funding":1,
    "media":1,
    "payoffs":1,
    "silence":1,
    "expensive":1,
    "motion":1,
    "chairman":1,
    "poll":1,
    "members":1,
    "show":1,
    "resolution":1,
    "213c":1,
    "signify":1,
    "approval":1,
    "raising":1,
    "hand":1,
    "excuse":1,
    "scientist":1,
    "misquoted":1,
    "merely":1,
    "speculating":1,
    "evolutionary":1,
    "scenario":1,
    "shall":1,
    "lover":1,
    "linger":1,
    "doorway":1,
    "ingenue":1,
    "resentful":1,
    "funny":1,
    "challenged":1,
    "quality":1,
    "opponents":1,
    "gives":1,
    "accomplishments":1,
    "meaning":1,
    "happened":1,
    "returned":1,
    "finally":1,
    "motives":1,
    "message":1,
    "urgent":1,
    "spectacularly":1,
    "observing":1,
    "tried":1,
    "control":1,
    "squandered":1,
    "opportunity":1,
    "electric":1,
    "fences":1,
    "natural":1,
    "habitat":1,
    "paleontologist":1,
    "slip":1,
    "seem":1,
    "trifle":1,
    "compact":1,
    "talking":1,
    "hatchery":1,
    "particular":1,
    "initial":1,
    "yields":1,
    "low":1,
    "embryos":1,
    "single":1,
    "genetic":1,
    "engineering":1,
    "implies":1,
    "giant":1,
    "spotless":1,
    "laboratory":1,
    "showed":1,
    "showroom":1,
    "tourists":1,
    "factory":1,
    "floor":1,
    "built":1,
    "sorna":1,
    "eightsome":1,
    "accident":1,
    "wiped":1,
    "facility":1,
    "evacuate":1,
    "fend":1,
    "themselves":1,
    "fought":1,
    "meddling":1,
    "nightmares":1,
    "reputations":1,
    "extraordinary":1,
    "suggestions":1,
    "numbers":1,
    "contact":1,
    "checkbook":1,
    "fund":1,
    "accounts":1,
    "hesitate":1,
    "behaviorist":1,
    "unimpeachable":1,
    "credentials":1,
    "theories":1,
    "parenting":1,
    "nurturing":1,
    "among":1,
    "hunterscavengers":1,
    "bet":1,
    "shed":1,
    "dying":1,
    "major":1,
    "coup":1,
    "publishes":1,
    "community":1,
    "seriously":1,
    "documentation":1,
    "forensic":1,
    "photographic":1,
    "methods":1,
    "hasselbladt":1,
    "definition":1,
    "video":1,
    "trick":1,
    "photography":1,
    "analysts":1,
    "enhancement":1,
    "computer":1,
    "graphic":1,
    "imaging":1,
    "avoid":1,
    "costs":1,
    "stick":1,
    "vindication":1,
    "lies":1,
    "value":1,
    "footprints":1,
    "known":1,
    "failures":1,
    "allow":1,
    "history":1,
    "lunatic":1,
    "smart":1,
    "youe":1,
    "proud":1,
    "redemption":1,
    "both":1,
    "equivocate":1,
    "seize":1,
    "uncle":1,
    "telling":1,
    "pretend":1,
    "magazine":1,
    "skeptical":1,
    "inquirer":1,
    "signed":1,
    "nondisclosure":1,
    "expressly":1,
    "forbade":1,
    "discussing":1,
    "violated":1,
    "cost":1,
    "relied":1,
    "support":1,
    "children":1,
    "university":1,
    "felt":1,
    "causing":1,
    "embarrassment":1,
    "selling":1,
    "copy":1,
    "version":1,
    "versions":1,
    "maneuver":1,
    "generous":1,
    "compensatory":1,
    "injuries":1,
    "payoff":1,
    "jealously":1,
    "interests":1,
    "aftershave":1,
    "christmas":1,
    "wear":1,
    "touched":1,
    "brings":1,
    "mombassa":1,
    "answered":1,
    "plugged":1,
    "suppose":1,
    "gentleman":1,
    "whos":1,
    "thereabouts":1,
    "unique":1,
    "son":1,
    "bitch":1,
    "success":1,
    "hunter":1,
    "wins":1,
    "spend":1,
    "company":1,
    "greater":1,
    "buzz":1,
    "silly":1,
    "bastard":1,
    "fight":1,
    "tied":1,
    "broke":1,
    "idiots":1,
    "jaw":1,
    "boredom":1,
    "expeditions":1,
    "ranch":1,
    "trophy":1,
    "interest":1,
    "ace":1,
    "striped":1,
    "snout":1,
    "closer":1,
    "view":1,
    "sough":1,
    "f2":1,
    "f5":1,
    "flanking":1,
    "f3":1,
    "f6":1,
    "east":1,
    "disrupting":1,
    "herd":1,
    "stamping":1,
    "angling":1,
    "brooding":1,
    "pups":1,
    "ushered":1,
    "forward":1,
    "pulling":1,
    "flesh":1,
    "carcass":1,
    "twentyfour":1,
    "carrs":1,
    "handling":1,
    "maintain":1,
    "designing":1,
    "top":1,
    "mobile":1,
    "units":1,
    "henry":1,
    "strut":1,
    "laterally":1,
    "crosswise":1,
    "specs":1,
    "deform":1,
    "12000":1,
    "psi":1,
    "test":1,
    "damage":1,
    "save":1,
    "academics":1,
    "former":1,
    "forgotten":1,
    "hi":1,
    "karen":1,
    "expecting":1,
    "night":1,
    "morning":1,
    "station":1,
    "woman":1,
    "museum":1,
    "movie":1,
    "play":1,
    "cards":1,
    "within":1,
    "summer":1,
    "promise":1,
    "daughter":1,
    "convenient":1,
    "hurtful":1,
    "thoughts":1,
    "bothering":1,
    "talked":1,
    "miss":1,
    "gymnastics":1,
    "training":1,
    "assistant":1,
    "kids":1,
    "wan":1,
    "insisted":1,
    "sea":1,
    "helicopters":1,
    "disruptive":1,
    "piles":1,
    "bones":1,
    "studying":1,
    "breathe":1,
    "react":1,
    "story":1,
    "cameraman":1,
    "nightline":1,
    "freelance":1,
    "since":1,
    "91":1,
    "interesting":1,
    "drew":1,
    "women":1,
    "bout":1,
    "eighty":1,
    "female":1,
    "noble":1,
    "spook":1,
    "woolly":1,
    "mammoths":1,
    "johnny":1,
    "cash":1,
    "ians":1,
    "mine":1,
    "needs":1,
    "shrink":1,
    "cleared":1,
    "drop":1,
    "cynical":1,
    "pose":1,
    "pull":1,
    "playing":1,
    "donkey":1,
    "kong":1,
    "tuned":1,
    "frequency":1,
    "specified":1,
    "sooner":1,
    "islands":1,
    "concluded":1,
    "lindstradt":1,
    "air":1,
    "rifle":1,
    "fires":1,
    "subsonic":1,
    "fluger":1,
    "impactdelivery":1,
    "antidote":1,
    "realized":1,
    "accidentally":1,
    "pulled":1,
    "trigger":1,
    "stegosaurus":1,
    "stegosauridae":1,
    "infraorder":1,
    "stegosauria":1,
    "suborder":1,
    "thyreophora":1,
    "length":1,
    "twentyfive":1,
    "pair":1,
    "bond":1,
    "nestbound":1,
    "nesting":1,
    "ground":1,
    "lone":1,
    "colonial":1,
    "clutch":1,
    "empty":1,
    "shells":1,
    "crushed":1,
    "trampled":1,
    "environment":1,
    "conclusive":1,
    "gutty":1,
    "nuts":1,
    "owes":1,
    "apology":1,
    "smoking":1,
    "scent":1,
    "tonics":1,
    "cologne":1,
    "seal":1,
    "plastic":1,
    "bags":1,
    "interact":1,
    "impossibility":1,
    "heisenberg":1,
    "uncertainty":1,
    "principle":1,
    "study":1,
    "also":1,
    "change":1,
    "jurassic":1,
    "pork":1,
    "hide":1,
    "tower":1,
    "surprised":1,
    "stegosaur":1,
    "jackals":1,
    "nearly":1,
    "species":1,
    "birds":1,
    "rogues":1,
    "thinks":1,
    "safely":1,
    "mixes":1,
    "billow":1,
    "dirt":1,
    "started":1,
    "potentially":1,
    "situation":1,
    "leapt":1,
    "lock":1,
    "curiosity":1,
    "chromium":1,
    "fog":1,
    "humidity":1,
    "highest":1,
    "lead":1,
    "density":1,
    "market":1,
    "heavy":1,
    "marching":1,
    "carrying":1,
    "home":1,
    "sending":1,
    "lighten":1,
    "sound":1,
    "school":1,
    "viceprincipal":1,
    "father":1,
    "resemblance":1,
    "whyd":1,
    "scores":1,
    "sentiment":1,
    "recall":1,
    "invasive":1,
    "landings":1,
    "paper":1,
    "write":1,
    "findings":1,
    "contaminated":1,
    "smell":1,
    "blood":1,
    "presence":1,
    "blade":1,
    "welcome":1,
    "forage":1,
    "plains":1,
    "bison":1,
    "explain":1,
    "variety":1,
    "heat":1,
    "dots":1,
    "reading":1,
    "flatlands":1,
    "waterhole":1,
    "hadrosaurus":1,
    "maiasaurus":1,
    "priority":1,
    "barriers":1,
    "cancel":1,
    "near":1,
    "stream":1,
    "beds":1,
    "allyoucaneat":1,
    "bar":1,
    "spot":1,
    "unnecessary":1,
    "risks":1,
    "camping":1,
    "sign":1,
    "checks":1,
    "scotch":1,
    "condition":1,
    "exchange":1,
    "services":1,
    "tyrannosaurs":1,
    "business":1,
    "either":1,
    "swamp":1,
    "safaris":1,
    "rich":1,
    "dentists":1,
    "suicidal":1,
    "ideas":1,
    "lad":1,
    "carnivore":1,
    "herbivore":1,
    "cretaceous":1,
    "unusual":1,
    "plant":1,
    "eater":1,
    "distinctive":1,
    "domed":1,
    "nine":1,
    "inches":1,
    "solid":1,
    "bone":1,
    "roundup":1,
    "powers":1,
    "persuasion":1,
    "pachys":1,
    "neck":1,
    "attaches":1,
    "bottom":1,
    "reptiles":1,
    "absorbing":1,
    "impact":1,
    "matches":1,
    "ruining":1,
    "choke":1,
    "diesel":1,
    "valid":1,
    "trailing":1,
    "army":1,
    "side":1,
    "genetics":1,
    "corporation":1,
    "working":1,
    "gene":1,
    "splicers":1,
    "independently":1,
    "dragged":1,
    "stooge":1,
    "lose":1,
    "blind":1,
    "upwind":1,
    "faster":1,
    "uninjured":1,
    "full":1,
    "extension":1,
    "compsognathus":1,
    "triceratops":1,
    "small":1,
    "scavengers":1,
    "knew":1,
    "heights":1,
    "bed":1,
    "investment":1,
    "eddies":1,
    "ludlows":1,
    "walking":1,
    "japanese":1,
    "whalers":1,
    "french":1,
    "barges":1,
    "barrels":1,
    "nuclear":1,
    "waste":1,
    "atlantic":1,
    "same":1,
    "spray":1,
    "cannon":1,
    "try":1,
    "sink":1,
    "crazy":1,
    "treehugger":1,
    "meet":1,
    "gonna":1,
    "exactly":1,
    "wanted":1,
    "offering":1,
    "incentive":1,
    "gun":1,
    "fathers":1,
    "600":1,
    "nitro":1,
    "express":1,
    "1904":1,
    "karimojo":1,
    "bell":1,
    "8700":1,
    "pound":1,
    "striking":1,
    "force":1,
    "forty":1,
    "assume":1,
    "slug":1,
    "brain":1,
    "scope":1,
    "poison":1,
    "snipe":1,
    "hill":1,
    "beam":1,
    "rally":1,
    "thisll":1,
    "draw":1,
    "parent":1,
    "bull":1,
    "charging":1,
    "startle":1,
    "bulls":1,
    "calves":1,
    "lioness":1,
    "wounded":1,
    "prey":1,
    "den":1,
    "teach":1,
    "cubs":1,
    "finish":1,
    "lessons":1,
    "heartwarming":1,
    "different":1,
    "filling":1,
    "belly":1,
    "acts":1,
    "everyones":1,
    "fascinated":1,
    "dinosaur":1,
    "ninetynine":1,
    "hadnt":1,
    "planned":1,
    "liability":1,
    "risk":1,
    "occurred":1,
    "billion":1,
    "dollar":1,
    "transport":1,
    "prefer":1,
    "encounter":1,
    "turbulence":1,
    "infants":1,
    "luck":1,
    "seaside":1,
    "sands":1,
    "cushioning":1,
    "surface":1,
    "clutches":1,
    "sick":1,
    "bastards":1,
    "obvious":1,
    "holy":1,
    "misery":1,
    "window":1,
    "exceedingly":1,
    "unwise":1,
    "quickly":1,
    "metatarsals":1,
    "tibia":1,
    "fracture":1,
    "above":1,
    "epiphysis":1,
    "heal":1,
    "ankle":1,
    "joint":1,
    "pivot":1,
    "stands":1,
    "hind":1,
    "able":1,
    "crippled":1,
    "weeks":1,
    "temporary":1,
    "fall":1,
    "morphine":1,
    "respiratory":1,
    "arrest":1,
    "adhesive":1,
    "pliable":1,
    "bottle":1,
    "amoxicillin":1,
    "fill":1,
    "syringe":1,
    "quick":1,
    "injection":1,
    "antibiotics":1,
    "direction":1,
    "repeat":1,
    "christ":1,
    "sensory":1,
    "track":1,
    "current":1,
    "seems":1,
    "contrary":1,
    "born":1,
    "blows":1,
    "swear":1,
    "works":1,
    "lions":1,
    "minute":1,
    "note":1,
    "tyrannosaurus":1,
    "nurture":1,
    "unwritten":1,
    "rule":1,
    "news":1,
    "zone":1,
    "van":1,
    "decide":1,
    "embarrassed":1,
    "satisfied":1,
    "vindicated":1,
    "publish":1,
    "stool":1,
    "samples":1,
    "dna":1,
    "nicks":1,
    "stand":1,
    "mainland":1,
    "grab":1,
    "rope":1,
    "catch":1,
    "sliding":1,
    "climbs":1,
    "scared":1,
    "trespassing":1,
    "sabotage":1,
    "jail":1,
    "being":1,
    "legal":1,
    "argument":1,
    "property":1,
    "point":1,
    "outside":1,
    "classroom":1,
    "amazed":1,
    "everyone":1,
    "voices":1,
    "changed":1,
    "perceived":1,
    "persisted":1,
    "destroying":1,
    "area":1,
    "thanks":1,
    "stripmine":1,
    "looter":1,
    "mentality":1,
    "communications":1,
    "equipments":1,
    "guessing":1,
    "tonight":1,
    "order":1,
    "communication":1,
    "renewable":1,
    "replenishing":1,
    "pack":1,
    "hunters":1,
    "pounds":1,
    "handle":1,
    "quite":1,
    "certain":1,
    "choices":1,
    "hike":1,
    "heavily":1,
    "used":1,
    "arrive":1,
    "shelter":1,
    "raptors":1,
    "trust":1,
    "experience":1,
    "gamblers":1,
    "ruin":1,
    "statistical":1,
    "phenomenon":1,
    "says":1,
    "streaks":1,
    "everywhere":1,
    "weather":1,
    "river":1,
    "flooding":1,
    "baseball":1,
    "blackjack":1,
    "stock":1,
    "markets":1,
    "tend":1,
    "cluster":1,
    "feeling":1,
    "blue":1,
    "deeply":1,
    "exists":1,
    "exit":1,
    "yes":1,
    "absence":1,
    "id":1,
    "danger":1,
    "somewhere":1,
    "exits":1,
    "climbed":1,
    "everest":1,
    "oxygen":1,
    "called":1,
    "selftesting":1,
    "sounds":1,
    "selfdestruction":1,
    "uniquely":1,
    "characteristic":1,
    "fact":1,
    "beings":1,
    "function":1,
    "sons":1,
    "kills":1,
    "clears":1,
    "decks":1,
    "evolution":1,
    "proceed":1,
    "phase":1,
    "destruction":1,
    "spew":1,
    "nihilist":1,
    "rants":1,
    "fighting":1,
    "panic":1,
    "buttons":1,
    "knows":1,
    "dropping":1,
    "person":1,
    "studies":1,
    "sloppy":1,
    "hasty":1,
    "conclusions":1,
    "hoax":1,
    "malcolms":1,
    "alien":1,
    "autopsy":1,
    "misplace":1,
    "holes":1,
    "testimony":1,
    "effects":1,
    "genius":1,
    "dinosaurs":1,
    "times":1,
    "square":1,
    "ya":1,
    "polite":1,
    "yell":1,
    "turned":1,
    "sec":1,
    "breaks":1,
    "eight":1,
    "screaming":1,
    "hysterics":1,
    "looks":1,
    "mile":1,
    "northeast":1,
    "game":1,
    "trail":1,
    "sleep":1,
    "dads":1,
    "doubt":1,
    "likes":1,
    "sake":1,
    "keeeeellly":1,
    "jump":1,
    "pushed":1,
    "chasing":1,
    "rounds":1,
    "counting":1,
    "chamber":1,
    "again":1,
    "load":1,
    "indefinitely":1,
    "couple":1,
    "dawn":1,
    "setup":1,
    "operations":1,
    "end":1,
    "lava":1,
    "rig":1,
    "inside":1,
    "directly":1,
    "geothermal":1,
    "generator":1,
    "shouldnt":1,
    "urine":1,
    "demarcated":1,
    "until":1,
    "helicopter":1,
    "fresh":1,
    "valley":1,
    "tracks":1,
    "nature":1,
    "hole":1,
    "cave":1,
    "theme":1,
    "singlehandedly":1,
    "bail":1,
    "chapter":1,
    "11":1,
    "nows":1,
    "stalk":1,
    "predators":1,
    "hurt":1,
    "hungry":1,
    "leader":1,
    "downwind":1,
    "rock":1,
    "shift":1,
    "attack":1,
    "unless":1,
    "threatened":1,
    "won":1,
    "lz":1,
    "debris":1,
    "buildings":1,
    "guano":1,
    "formations":1,
    "dried":1,
    "birdshit":1,
    "singlewall":1,
    "construction":1,
    "shack":1,
    "sixty":1,
    "seconds":1,
    "afraid":1,
    "somethings":1,
    "climb":1,
    "roofs":1,
    "ladder":1,
    "gog":1,
    "snagged":1,
    "tip":1,
    "cut":1,
    "rotors":1,
    "attacking":1,
    "thinking":1,
    "ones":1,
    "reality":1,
    "cold":1,
    "blowing":1,
    "standing":1,
    "cathy":2,
    "snakes":2,
    "lunch":2,
    "hurricane":2,
    "giving":2,
    "ludlow":2,
    "pictures":2,
    "costa":2,
    "rica":2,
    "girl":2,
    "parents":2,
    "angry":2,
    "hardly":2,
    "new":2,
    "list":2,
    "dollars":2,
    "robert":2,
    "destroyed":2,
    "gentlemen":2,
    "hands":2,
    "yeah":2,
    "shit":2,
    "tv":2,
    "whom":2,
    "calling":2,
    "told":2,
    "lawyers":2,
    "killing":2,
    "instead":2,
    "lives":2,
    "behind":2,
    "wild":2,
    "behavior":2,
    "dream":2,
    "thousand":2,
    "birth":2,
    "scale":2,
    "operation":2,
    "park":2,
    "document":2,
    "joke":2,
    "shot":2,
    "most":2,
    "living":2,
    "fossil":2,
    "record":2,
    "seen":2,
    "putting":2,
    "personal":2,
    "entire":2,
    "team":2,
    "bother":2,
    "money":2,
    "immediately":2,
    "already":2,
    "prove":2,
    "scientific":2,
    "cameras":2,
    "apart":2,
    "important":2,
    "interior":2,
    "outer":2,
    "rim":2,
    "found":2,
    "stories":2,
    "agreement":2,
    "livelihood":2,
    "hard":2,
    "offer":2,
    "insult":2,
    "defend":2,
    "cheap":2,
    "actually":2,
    "wellfunded":2,
    "great":2,
    "escapes":2,
    "enough":2,
    "none":2,
    "pick":2,
    "interested":2,
    "knowing":2,
    "quarry":2,
    "room":2,
    "possibly":2,
    "hyenas":2,
    "cliffs":2,
    "f1":2,
    "headed":2,
    "twenty":2,
    "yards":2,
    "center":2,
    "circling":2,
    "wide":2,
    "f7":2,
    "f8":2,
    "eat":2,
    "five":2,
    "member":2,
    "special":2,
    "field":2,
    "plans":2,
    "minimal":2,
    "vacation":2,
    "yours":2,
    "shell":2,
    "bus":2,
    "week":2,
    "hair":2,
    "richard":2,
    "question":2,
    "trials":2,
    "austin":2,
    "couldnt":2,
    "six":2,
    "bringing":2,
    "tells":2,
    "friend":2,
    "three":2,
    "worry":2,
    "completely":2,
    "probably":2,
    "dart":2,
    "foot":2,
    "beautiful":2,
    "adult":2,
    "male":2,
    "estimate":2,
    "thirty":2,
    "egg":2,
    "young":2,
    "insane":2,
    "glad":2,
    "food":2,
    "certainly":2,
    "fire":2,
    "smoke":2,
    "faintest":2,
    "gets":2,
    "others":2,
    "ahead":2,
    "lagoon":2,
    "thatll":2,
    "antiseptic":2,
    "means":2,
    "bend":2,
    "large":2,
    "herbivores":2,
    "carinthosaurus":2,
    "laser":2,
    "running":2,
    "hunt":2,
    "heard":2,
    "conditions":2,
    "fee":2,
    "buck":2,
    "many":2,
    "pachycephalosaurus":2,
    "huh":2,
    "late":2,
    "war":2,
    "perfect":2,
    "collect":2,
    "wish":2,
    "along":2,
    "wake":2,
    "truck":2,
    "funded":2,
    "gotta":2,
    "wed":2,
    "better":2,
    "return":2,
    "alive":2,
    "turn":2,
    "past":2,
    "left":2,
    "dump":2,
    "car":2,
    "gave":2,
    "took":2,
    "jeep":2,
    "carry":2,
    "cares":2,
    "f":2,
    "seven":2,
    "crew":2,
    "gods":2,
    "christs":2,
    "anyone":2,
    "fibula":2,
    "black":2,
    "grows":2,
    "almost":2,
    "sometimes":2,
    "whether":2,
    "lucky":2,
    "asked":2,
    "pushing":2,
    "cliff":2,
    "start":2,
    "neither":2,
    "exist":2,
    "looking":2,
    "matters":2,
    "rexs":2,
    "source":2,
    "velociraptors":2,
    "ourselves":2,
    "against":2,
    "might":2,
    "flawed":2,
    "greatest":2,
    "destroy":2,
    "push":2,
    "criticize":2,
    "created":2,
    "carter":2,
    "path":2,
    "theyll":2,
    "hit":2,
    "weapon":2,
    "shhhh":2,
    "ask":2,
    "piss":2,
    "street":2,
    "runs":2,
    "tyrannosaur":2,
    "fed":2,
    "cq":2,
    "harvest":2,
    "roof":2,
    "lex":2,
    "tim":2,
    "quiet":3,
    "ready":3,
    "without":3,
    "mr":3,
    "onto":3,
    "isla":3,
    "hundred":3,
    "goes":3,
    "favor":3,
    "corporate":3,
    "arent":3,
    "guy":3,
    "believed":3,
    "lost":3,
    "such":3,
    "remember":3,
    "werent":3,
    "hear":3,
    "man":3,
    "away":3,
    "less":3,
    "years":3,
    "safe":3,
    "year":3,
    "trying":3,
    "convince":3,
    "youll":3,
    "someone":3,
    "harding":3,
    "die":3,
    "campfire":3,
    "went":3,
    "am":3,
    "sit":3,
    "roland":3,
    "always":3,
    "mean":3,
    "decided":3,
    "supposed":3,
    "mother":3,
    "arm":3,
    "reason":3,
    "north":3,
    "trailers":3,
    "line":3,
    "light":3,
    "strong":3,
    "academic":3,
    "talk":3,
    "matter":3,
    "fantastic":3,
    "own":3,
    "while":3,
    "youve":3,
    "airlift":3,
    "greenpeace":3,
    "skull":3,
    "check":3,
    "lived":3,
    "listen":3,
    "shoot":3,
    "feet":3,
    "infant":3,
    "observe":3,
    "possible":3,
    "burke":3,
    "idea":3,
    "tapes":3,
    "anybody":3,
    "boats":3,
    "nobody":3,
    "boat":3,
    "day":3,
    "open":3,
    "minutes":3,
    "understand":3,
    "set":3,
    "peter":3,
    "run":3,
    "trip":3,
    "charge":3,
    "job":3,
    "middle":3,
    "done":3,
    "comes":3,
    "hurry":3,
    "coming":3,
    "elephant":3,
    "thought":3,
    "broken":3,
    "may":3,
    "hold":3,
    "baby":3,
    "few":3,
    "break":3,
    "fast":3,
    "wind":3,
    "rest":3,
    "problem":3,
    "territory":3,
    "worker":3,
    "power":3,
    "bad":3,
    "building":3,
    "grandfather":3,
    "nublar":4,
    "alone":4,
    "hello":4,
    "human":4,
    "hours":4,
    "ago":4,
    "b":4,
    "death":4,
    "million":4,
    "equipment":4,
    "research":4,
    "really":4,
    "lot":4,
    "youd":4,
    "next":4,
    "impossible":4,
    "percent":4,
    "live":4,
    "first":4,
    "mind":4,
    "leg":4,
    "expedition":4,
    "through":4,
    "she":4,
    "high":4,
    "everything":4,
    "yourself":4,
    "else":4,
    "uh":4,
    "which":4,
    "life":4,
    "made":4,
    "ajay":4,
    "hes":4,
    "bit":4,
    "much":4,
    "bring":4,
    "kidding":4,
    "saying":4,
    "face":4,
    "straight":4,
    "kill":4,
    "adults":4,
    "eddie":4,
    "forget":4,
    "kid":4,
    "care":4,
    "juttson":4,
    "work":4,
    "dead":4,
    "group":4,
    "carnivores":4,
    "trex":4,
    "water":4,
    "dangerous":4,
    "grass":4,
    "head":4,
    "does":4,
    "guys":4,
    "waiting":4,
    "em":4,
    "jungle":4,
    "damn":4,
    "free":4,
    "wheres":4,
    "miles":5,
    "let":5,
    "once":5,
    "another":5,
    "site":5,
    "fine":5,
    "second":5,
    "said":5,
    "place":5,
    "sorry":5,
    "nothing":5,
    "four":5,
    "together":5,
    "use":5,
    "ill":5,
    "must":5,
    "evidence":5,
    "give":5,
    "real":5,
    "name":5,
    "old":5,
    "whatever":5,
    "isnt":5,
    "satellite":5,
    "send":5,
    "true":5,
    "doesnt":5,
    "close":5,
    "other":5,
    "moving":5,
    "help":5,
    "sure":5,
    "things":5,
    "hour":5,
    "put":5,
    "hey":5,
    "wouldnt":5,
    "days":5,
    "case":5,
    "nest":5,
    "predator":5,
    "base":5,
    "easy":5,
    "hang":5,
    "came":5,
    "village":5,
    "those":6,
    "animals":6,
    "their":6,
    "saw":6,
    "never":6,
    "hammond":6,
    "wrong":6,
    "far":6,
    "than":6,
    "every":6,
    "over":6,
    "should":6,
    "last":6,
    "walk":6,
    "truth":6,
    "even":6,
    "kind":6,
    "weve":6,
    "half":6,
    "stop":6,
    "nick":6,
    "long":6,
    "lets":6,
    "because":6,
    "then":6,
    "chance":7,
    "family":7,
    "malcolm":7,
    "who":7,
    "ever":7,
    "phone":7,
    "itll":7,
    "anything":7,
    "into":7,
    "hell":7,
    "doing":7,
    "thing":7,
    "good":7,
    "camp":7,
    "dieter":7,
    "rex":7,
    "john":8,
    "by":8,
    "world":8,
    "had":8,
    "believe":8,
    "ive":8,
    "has":8,
    "wont":8,
    "make":8,
    "find":8,
    "feel":8,
    "around":8,
    "dad":8,
    "okay":8,
    "his":8,
    "whats":8,
    "radio":8,
    "her":9,
    "thank":9,
    "these":9,
    "after":9,
    "little":9,
    "keep":9,
    "been":9,
    "shes":9,
    "got":9,
    "take":9,
    "before":9,
    "two":9,
    "stay":9,
    "wait":9,
    "move":9,
    "leave":10,
    "theres":10,
    "please":10,
    "ingen":10,
    "tell":10,
    "animal":10,
    "didnt":10,
    "say":10,
    "still":10,
    "sarah":10,
    "call":10,
    "some":10,
    "off":11,
    "him":11,
    "did":11,
    "would":11,
    "need":11,
    "theyre":11,
    "something":12,
    "more":12,
    "dr":12,
    "maybe":12,
    "look":12,
    "where":12,
    "now":13,
    "very":13,
    "people":13,
    "only":13,
    "oh":13,
    "island":13,
    "like":14,
    "way":14,
    "from":14,
    "right":14,
    "time":15,
    "youre":15,
    "how":15,
    "god":15,
    "too":15,
    "he":15,
    "or":16,
    "any":16,
    "ian":16,
    "when":16,
    "see":16,
    "could":16,
    "down":16,
    "kelly":16,
    "so":17,
    "well":18,
    "at":18,
    "our":18,
    "one":19,
    "an":20,
    "will":20,
    "why":20,
    "get":20,
    "cant":20,
    "back":20,
    "them":21,
    "thats":21,
    "us":21,
    "come":21,
    "just":21,
    "up":21,
    "going":22,
    "was":23,
    "as":23,
    "want":23,
    "out":24,
    "think":26,
    "can":26,
    "about":28,
    "with":28,
    "im":30,
    "all":31,
    "me":31,
    "my":31,
    "go":31,
    "here":31,
    "but":32,
    "know":33,
    "were":34,
    "they":37,
    "not":37,
    "if":37,
    "dont":39,
    "there":40,
    "this":40,
    "its":40,
    "are":41,
    "have":43,
    "your":44,
    "do":45,
    "no":46,
    "be":51,
    "what":53,
    "on":54,
    "that":58,
    "for":60,
    "is":62,
    "we":66,
    "":78,
    "and":85,
    "of":87,
    "in":102,
    "it":105,
    "a":132,
    "i":137,
    "to":167,
    "you":215,
    "the":236
}