{
    "huffs":1,
    "louder":1,
    "microphone":1,
    "painful":1,
    "raw":1,
    "blond":1,
    "pov":1,
    "heavily":1,
    "redhot":1,
    "verge":1,
    "ecstasy":1,
    "backs":1,
    "reveal":1,
    "seventeen":1,
    "slightly":1,
    "muscular":1,
    "interesting":1,
    "streetsmart":1,
    "sweating":1,
    "combines":1,
    "rhythmical":1,
    "raised":1,
    "tight":1,
    "underwater":1,
    "partially":1,
    "covered":1,
    "nipples":1,
    "poking":1,
    "heat":1,
    "wetness":1,
    "circulating":1,
    "socks":1,
    "shirts":1,
    "wood":1,
    "neat":1,
    "clothing":1,
    "poster":1,
    "beastie":1,
    "nothings":1,
    "agony":1,
    "bleached":1,
    "electric":1,
    "exposed":1,
    "skank":1,
    "pure":1,
    "pleasure":1,
    "soon":1,
    "ends":1,
    "hardpaced":1,
    "credits":1,
    "maintain":1,
    "hardcore":1,
    "spit":1,
    "fall":1,
    "till":1,
    "flights":1,
    "possible":1,
    "mailboxes":1,
    "exits":1,
    "reading":1,
    "brown":1,
    "sips":1,
    "since":1,
    "temper":1,
    "fight":1,
    "size":1,
    "provides":1,
    "sense":1,
    "adolescent":1,
    "wisdom":1,
    "smart":1,
    "accent":1,
    "assortment":1,
    "tattoos":1,
    "crooked":1,
    "survive":1,
    "startled":1,
    "spills":1,
    "twelve":1,
    "surgeon":1,
    "obvious":1,
    "themselves":1,
    "bleeding":1,
    "screamed":1,
    "bite":1,
    "pillow":1,
    "cross":1,
    "listening":1,
    "word":1,
    "seems":1,
    "laidback":1,
    "hyper":1,
    "claws":1,
    "puss":1,
    "capers":1,
    "snot":1,
    "butterscotch":1,
    "powders":1,
    "creams":1,
    "lifts":1,
    "entered":1,
    "puberty":1,
    "flipping":1,
    "family":1,
    "painting":1,
    "easter":1,
    "eggs":1,
    "ago":1,
    "younger":1,
    "makeup":1,
    "looked":1,
    "felt":1,
    "guilty":1,
    "perverted":1,
    "addicted":1,
    "during":1,
    "complex":1,
    "fantasies":1,
    "kept":1,
    "wasnt":1,
    "lowlevel":1,
    "seduction":1,
    "toward":1,
    "orange":1,
    "trash":1,
    "misses":1,
    "forty":1,
    "hungry":1,
    "starvin":1,
    "sec":1,
    "urinating":1,
    "someones":1,
    "bushes":1,
    "sue":1,
    "food":1,
    "freezer":1,
    "quit":1,
    "dealin":1,
    "76th":1,
    "den":1,
    "zips":1,
    "carrying":1,
    "folded":1,
    "knock":1,
    "philosophy":1,
    "basic":1,
    "lost":1,
    "deflower":1,
    "outlook":1,
    "situation":1,
    "fame":1,
    "grand":1,
    "gotten":1,
    "outdoor":1,
    "produce":1,
    "sodas":1,
    "etc":1,
    "flipflops":1,
    "wooden":1,
    "dehydrated":1,
    "ball":1,
    "lint":1,
    "boost":1,
    "unzip":1,
    "pack":1,
    "curious":1,
    "round":1,
    "reflecting":1,
    "crotch":1,
    "mutha":1,
    "english":1,
    "opposite":1,
    "direction":1,
    "peaches":1,
    "ears":1,
    "stupy":1,
    "stand":1,
    "previously":1,
    "eating":1,
    "also":1,
    "cartoon":1,
    "activate":1,
    "form":1,
    "glass":1,
    "pretended":1,
    "lived":1,
    "thinkin":1,
    "clit":1,
    "dead":1,
    "xrated":1,
    "mouthful":1,
    "brooke":1,
    "cherry":1,
    "imagine":1,
    "bark":1,
    "fire":1,
    "medium":1,
    "sized":1,
    "cabs":1,
    "drive":1,
    "beep":1,
    "buzz":1,
    "tosses":1,
    "couches":1,
    "tv":1,
    "several":1,
    "wires":1,
    "hooked":1,
    "various":1,
    "games":1,
    "huddled":1,
    "breathe":1,
    "colors":1,
    "sizes":1,
    "greet":1,
    "handshake":1,
    "hug":1,
    "generation":1,
    "brain":1,
    "stanley":1,
    "dreads":1,
    "cordless":1,
    "flophouse":1,
    "rent":1,
    "boned":1,
    "havent":1,
    "eyebrows":1,
    "fish":1,
    "tank":1,
    "bookshelves":1,
    "17":1,
    "slicked":1,
    "chainsmokes":1,
    "sophomore":1,
    "uncommon":1,
    "innocence":1,
    "jumpcut":1,
    "rubbys":1,
    "scenes":1,
    "handheld":1,
    "forgive":1,
    "devirginized":1,
    "spoke":1,
    "talked":1,
    "amber":1,
    "poppin":1,
    "jazz":1,
    "group":1,
    "glad":1,
    "rental":1,
    "14":1,
    "asshole":1,
    "bush":1,
    "midnight":1,
    "mosquito":1,
    "bits":1,
    "obviously":1,
    "grass":1,
    "somewhere":1,
    "linda":1,
    "bloody":1,
    "song":1,
    "sang":1,
    "though":1,
    "difference":1,
    "style":1,
    "awww":1,
    "monotonous":1,
    "ooooh":1,
    "animal":1,
    "passion":1,
    "expect":1,
    "hole":1,
    "romance":1,
    "actually":1,
    "comes":1,
    "worst":1,
    "letdown":1,
    "clapping":1,
    "snapping":1,
    "erogenous":1,
    "zones":1,
    "sucks":1,
    "depends":1,
    "eric":1,
    "j":1,
    "dj":1,
    "flipper":1,
    "dumb":1,
    "horney":1,
    "pulled":1,
    "dressed":1,
    "disco":1,
    "underneath":1,
    "fingering":1,
    "busted":1,
    "decided":1,
    "alex":1,
    "holds":1,
    "climax":1,
    "snaps":1,
    "disappointment":1,
    "jake":1,
    "afterwards":1,
    "secret":1,
    "pastime":1,
    "hobby":1,
    "finishes":1,
    "act":1,
    "eye":1,
    "gagging":1,
    "bob":1,
    "swallowed":1,
    "neither":1,
    "sour":1,
    "salty":1,
    "butter":1,
    "disgusting":1,
    "impossible":1,
    "shrink":1,
    "least":1,
    "aj":1,
    "everyones":1,
    "dying":1,
    "wear":1,
    "aids":1,
    "weird":1,
    "makebelieve":1,
    "story":1,
    "believes":1,
    "fraud":1,
    "which":1,
    "questions":1,
    "clipboard":1,
    "cluttered":1,
    "papers":1,
    "decorated":1,
    "shades":1,
    "yellow":1,
    "clowns":1,
    "diagram":1,
    "traces":1,
    "inserting":1,
    "gum":1,
    "elbow":1,
    "clip":1,
    "board":1,
    "rock":1,
    "rotating":1,
    "childlike":1,
    "facing":1,
    "downward":1,
    "falling":1,
    "speaks":1,
    "low":1,
    "voice":1,
    "scalp":1,
    "hmm":1,
    "unprotected":1,
    "protection":1,
    "protected":1,
    "pause":1,
    "pencil":1,
    "mug":1,
    "wind":1,
    "blow":1,
    "okee":1,
    "dokey":1,
    "days":1,
    "results":1,
    "entrance":1,
    "exit":1,
    "transit":1,
    "simultaneously":1,
    "turnstile":1,
    "pull":1,
    "revolving":1,
    "nonchalantly":1,
    "bling":1,
    "accordion":1,
    "danny":1,
    "leather":1,
    "briefcase":1,
    "scattered":1,
    "blind":1,
    "clap":1,
    "uncle":1,
    "collection":1,
    "hella":1,
    "cares":1,
    "uncontrollably":1,
    "figure":1,
    "pounds":1,
    "watery":1,
    "woowee":1,
    "ate":1,
    "follow":1,
    "crosses":1,
    "wish":1,
    "hectic":1,
    "towards":1,
    "file":1,
    "sexually":1,
    "transmitted":1,
    "infections":1,
    "careful":1,
    "read":1,
    "hugging":1,
    "closely":1,
    "folder":1,
    "hiv":1,
    "infection":1,
    "test":1,
    "hundred":1,
    "percent":1,
    "accurate":1,
    "company":1,
    "semicrowded":1,
    "seats":1,
    "shakes":1,
    "headed":1,
    "directly":1,
    "unattractive":1,
    "lowerclass":1,
    "13":1,
    "weekend":1,
    "handing":1,
    "slices":1,
    "hardon":1,
    "jacking":1,
    "vision":1,
    "perfection":1,
    "represented":1,
    "promotes":1,
    "swear":1,
    "everybodys":1,
    "zooted":1,
    "container":1,
    "filled":1,
    "peoples":1,
    "random":1,
    "sings":1,
    "pick":1,
    "sticking":1,
    "closer":1,
    "pockets":1,
    "sits":1,
    "bless":1,
    "ribcage":1,
    "elitist":1,
    "elitism":1,
    "whoever":1,
    "whenever":1,
    "whos":1,
    "especially":1,
    "amputees":1,
    "regular":1,
    "bum":1,
    "streets":1,
    "fat":1,
    "luke":1,
    "handicapped":1,
    "drank":1,
    "pepto":1,
    "blew":1,
    "givin":1,
    "squeezed":1,
    "standstill":1,
    "gridlock":1,
    "beeping":1,
    "dials":1,
    "mind":1,
    "lunches":1,
    "anymore":1,
    "beeper":1,
    "usin":1,
    "stay":1,
    "jen":1,
    "speed":1,
    "passing":1,
    "darts":1,
    "flat":1,
    "st":1,
    "marks":1,
    "hide":1,
    "refrigerator":1,
    "jug":1,
    "glasses":1,
    "cabinet":1,
    "summer":1,
    "breastfeeds":1,
    "breast":1,
    "staggers":1,
    "underarms":1,
    "titties":1,
    "exercise":1,
    "bike":1,
    "museum":1,
    "posters":1,
    "tampons":1,
    "counting":1,
    "twent":1,
    "twentyfive":1,
    "thirtyfive":1,
    "fortyfive":1,
    "scrapping":1,
    "tampon":1,
    "caper":1,
    "pads":1,
    "remaining":1,
    "watering":1,
    "will":1,
    "pound":1,
    "dumbbells":1,
    "buff":1,
    "dude":1,
    "sort":1,
    "faces":1,
    "diesel":1,
    "towel":1,
    "deodorant":1,
    "applies":1,
    "rash":1,
    "natural":1,
    "stays":1,
    "pump":1,
    "dumbbell":1,
    "soap":1,
    "opera":1,
    "rocker":1,
    "rocking":1,
    "cigarette":1,
    "fourthirty":1,
    "morning":1,
    "bucks":1,
    "penny":1,
    "waves":1,
    "goodbye":1,
    "wakes":1,
    "names":1,
    "bell":1,
    "dress":1,
    "dolly":1,
    "lucy":1,
    "tables":1,
    "table":1,
    "riding":1,
    "bikes":1,
    "rollerblading":1,
    "men":1,
    "pullups":1,
    "monkey":1,
    "bars":1,
    "ghetto":1,
    "blasters":1,
    "state":1,
    "public":1,
    "frenzy":1,
    "rastafarian":1,
    "dread":1,
    "cap":1,
    "approaching":1,
    "sess":1,
    "hash":1,
    "shrooms":1,
    "valium":1,
    "coke":1,
    "sessamila":1,
    "ah":1,
    "clot":1,
    "gots":1,
    "twigs":1,
    "pebbles":1,
    "sell":1,
    "drugs":1,
    "skunk":1,
    "delicious":1,
    "drops":1,
    "nothen":1,
    "b":1,
    "sneak":1,
    "gilligan":1,
    "cass":1,
    "belly":1,
    "button":1,
    "pierce":1,
    "presto":1,
    "hamiltons":1,
    "smushing":1,
    "sequence":1,
    "edits":1,
    "thumbnail":1,
    "scrape":1,
    "scrapes":1,
    "tobacco":1,
    "ham":1,
    "flame":1,
    "shoots":1,
    "catches":1,
    "passes":1,
    "huddling":1,
    "wit":1,
    "dat":1,
    "immense":1,
    "male":1,
    "homosexuals":1,
    "tree":1,
    "hang":1,
    "jerk":1,
    "hated":1,
    "glue":1,
    "seventh":1,
    "fault":1,
    "stories":1,
    "backwards":1,
    "entire":1,
    "permission":1,
    "teacher":1,
    "early":1,
    "middleclass":1,
    "queens":1,
    "brooklyn":1,
    "key":1,
    "velvet":1,
    "simple":1,
    "plain":1,
    "generic":1,
    "adobe":1,
    "flips":1,
    "lightswitch":1,
    "hears":1,
    "monster":1,
    "listen":1,
    "scream":1,
    "oooh":1,
    "sounded":1,
    "hall":1,
    "becomes":1,
    "animated":1,
    "heel":1,
    "motorcycle":1,
    "boots":1,
    "pinned":1,
    "grunting":1,
    "pig":1,
    "awe":1,
    "slutty":1,
    "whore":1,
    "struggling":1,
    "opened":1,
    "sight":1,
    "climbs":1,
    "outrageously":1,
    "nuts":1,
    "clawing":1,
    "hysterics":1,
    "confused":1,
    "came":1,
    "ended":1,
    "murdering":1,
    "pops":1,
    "embarrassing":1,
    "bench":1,
    "horrible":1,
    "shi":1,
    "true":1,
    "kidding":1,
    "lied":1,
    "alive":1,
    "works":1,
    "office":1,
    "puff":1,
    "gimmie":1,
    "chronic":1,
    "roach":1,
    "somebodys":1,
    "stoned":1,
    "skates":1,
    "pay":1,
    "polo":1,
    "thick":1,
    "fila":1,
    "headband":1,
    "certain":1,
    "ominous":1,
    "strut":1,
    "rolls":1,
    "taller":1,
    "skate":1,
    "dukes":1,
    "g":1,
    "catch":1,
    "beat":1,
    "mix":1,
    "fountain":1,
    "surround":1,
    "taunts":1,
    "faking":1,
    "swing":1,
    "scuffle":1,
    "nowhere":1,
    "truck":1,
    "thud":1,
    "forward":1,
    "fallen":1,
    "skateboarders":1,
    "boards":1,
    "frantically":1,
    "question":1,
    "pest":1,
    "liked":1,
    "wondering":1,
    "assistance":1,
    "cheer":1,
    "talks":1,
    "driving":1,
    "clumsy":1,
    "lady":1,
    "troubled":1,
    "yesterday":1,
    "son":1,
    "smashed":1,
    "wife":1,
    "found":1,
    "collapsed":1,
    "minor":1,
    "heart":1,
    "attack":1,
    "partial":1,
    "paralysis":1,
    "squeaky":1,
    "win":1,
    "lotto":1,
    "glumly":1,
    "drooped":1,
    "droopy":1,
    "honey":1,
    "lick":1,
    "sadly":1,
    "asked":1,
    "shinning":1,
    "boyfriend":1,
    "warm":1,
    "glamour":1,
    "mole":1,
    "cheeks":1,
    "lifes":1,
    "example":1,
    "golden":1,
    "retriever":1,
    "rest":1,
    "lonesome":1,
    "missed":1,
    "reveals":1,
    "forearm":1,
    "bruno":1,
    "letters":1,
    "leon":1,
    "darling":1,
    "grandson":1,
    "bump":1,
    "stutter":1,
    "advice":1,
    "identification":1,
    "badge":1,
    "goofy":1,
    "hawaiian":1,
    "philosopher":1,
    "write":1,
    "spell":1,
    "shining":1,
    "sky":1,
    "evening":1,
    "darcys":1,
    "named":1,
    "leaning":1,
    "parked":1,
    "apple":1,
    "hurry":1,
    "hope":1,
    "babies":1,
    "chugging":1,
    "na":1,
    "kicked":1,
    "toe":1,
    "broken":1,
    "might":1,
    "twitch":1,
    "crawling":1,
    "livin":1,
    "bikini":1,
    "denim":1,
    "jean":1,
    "pushed":1,
    "speaking":1,
    "ape":1,
    "scrap":1,
    "meeting":1,
    "sometin":1,
    "geez":1,
    "imitating":1,
    "flexing":1,
    "boxer":1,
    "mans":1,
    "lasso":1,
    "penis":1,
    "twirling":1,
    "ho":1,
    "silver":1,
    "sit":1,
    "edge":1,
    "pool":1,
    "cups":1,
    "pours":1,
    "thigh":1,
    "ooh":1,
    "today":1,
    "woke":1,
    "boobs":1,
    "girlfriend":1,
    "anybody":1,
    "boyfriends":1,
    "nicki":1,
    "protective":1,
    "shallow":1,
    "dare":1,
    "softly":1,
    "part":1,
    "dykes":1,
    "gay":1,
    "supposed":1,
    "rave":1,
    "pace":1,
    "reclips":1,
    "rope":1,
    "guards":1,
    "detectors":1,
    "giant":1,
    "warehouse":1,
    "rooms":1,
    "invade":1,
    "inch":1,
    "fastpaced":1,
    "packed":1,
    "flashlights":1,
    "pacifiers":1,
    "darkened":1,
    "amazing":1,
    "exploration":1,
    "wig":1,
    "rub":1,
    "surprised":1,
    "yelling":1,
    "free":1,
    "show":1,
    "adds":1,
    "cornballs":1,
    "jersey":1,
    "x":1,
    "feelin":1,
    "effex":1,
    "depressed":1,
    "bang":1,
    "special":1,
    "k":1,
    "weak":1,
    "euphoric":1,
    "blockbuster":1,
    "swallow":1,
    "reluctantly":1,
    "floatin":1,
    "heaven":1,
    "mess":1,
    "ratty":1,
    "set":1,
    "hiphop":1,
    "mainly":1,
    "call":1,
    "ones":1,
    "weight":1,
    "shoe":1,
    "oriental":1,
    "lemme":1,
    "resisting":1,
    "rubbing":1,
    "jeans":1,
    "hips":1,
    "moving":1,
    "throwing":1,
    "leg":1,
    "forehead":1,
    "dizzy":1,
    "tamara":1,
    "scooted":1,
    "bumpy":1,
    "ride":1,
    "sheds":1,
    "fir":1,
    "litte":1,
    "hook":1,
    "solid":1,
    "drunk":1,
    "stereo":1,
    "mostly":1,
    "underwear":1,
    "brushing":1,
    "resemble":1,
    "tub":1,
    "resting":1,
    "seat":1,
    "dopest":1,
    "town":1,
    "yee":1,
    "haw":1,
    "bitches":1,
    "worried":1,
    "lit":1,
    "lamp":1,
    "considerable":1,
    "amount":1,
    "unison":1,
    "creaks":1,
    "headboard":1,
    "smacking":1,
    "lucky":1,
    "flops":1,
    "itching":1,
    "scratch":1,
    "balls":1,
    "scrunched":1,
    "anyone":1,
    "close":1,
    "nudges":1,
    "breasts":1,
    "thighs":1,
    "caresses":1,
    "swats":1,
    "situating":1,
    "limp":1,
    "heavy":1,
    "matters":1,
    "hen":1,
    "dream":1,
    "dreams":1,
    "escape":1,
    "focuses":1,
    "jesus":1,
    "sexual":2,
    "grows":2,
    "above":2,
    "extremely":2,
    "hurts":2,
    "years":2,
    "punk":2,
    "lip":2,
    "post":2,
    "fade":2,
    "blankets":2,
    "apart":2,
    "bra":2,
    "windows":2,
    "traffic":2,
    "dresser":2,
    "blowing":2,
    "extreme":2,
    "total":2,
    "lights":2,
    "shocking":2,
    "advantage":2,
    "diseases":2,
    "loose":2,
    "goose":2,
    "enough":2,
    "spits":2,
    "malt":2,
    "liquor":2,
    "wrapped":2,
    "paper":2,
    "sack":2,
    "grade":2,
    "twice":2,
    "york":2,
    "shoes":2,
    "sat":2,
    "hours":2,
    "mothafuckin":2,
    "paying":2,
    "speeding":2,
    "happier":2,
    "longer":2,
    "keep":2,
    "putting":2,
    "stink":2,
    "whiff":2,
    "hells":2,
    "herself":2,
    "breathes":2,
    "odor":2,
    "taken":2,
    "less":2,
    "crack":2,
    "myself":2,
    "bastard":2,
    "lately":2,
    "dreaming":2,
    "try":2,
    "loved":2,
    "sip":2,
    "smashes":2,
    "wait":2,
    "stare":2,
    "microwave":2,
    "herb":2,
    "lives":2,
    "joe":2,
    "easy":2,
    "guard":2,
    "died":2,
    "fifty":2,
    "grocery":2,
    "section":2,
    "juice":2,
    "fruit":2,
    "headphones":2,
    "stool":2,
    "thirsty":2,
    "dissdee":2,
    "bottles":2,
    "backpack":2,
    "counter":2,
    "fucka":2,
    "taps":2,
    "fucky":2,
    "stole":2,
    "ring":2,
    "dog":2,
    "horns":2,
    "plants":2,
    "nintendo":2,
    "couple":2,
    "play":2,
    "pot":2,
    "nah":2,
    "cartridge":2,
    "shits":2,
    "vitamin":2,
    "c":2,
    "eight":2,
    "nine":2,
    "bathtub":2,
    "fucks":2,
    "five":2,
    "circle":2,
    "rings":2,
    "age":2,
    "touch":2,
    "cuts":2,
    "virginity":2,
    "gone":2,
    "fact":2,
    "done":2,
    "broke":2,
    "known":2,
    "susan":2,
    "wacked":2,
    "lose":2,
    "backseat":2,
    "turned":2,
    "18":2,
    "werent":2,
    "motha":2,
    "sunday":2,
    "stupid":2,
    "reputation":2,
    "such":2,
    "grandmother":2,
    "whatever":2,
    "instinct":2,
    "kind":2,
    "excuse":2,
    "borrow":2,
    "toes":2,
    "blasted":2,
    "must":2,
    "tits":2,
    "fists":2,
    "kissed":2,
    "our":2,
    "shaking":2,
    "better":2,
    "biggest":2,
    "either":2,
    "bored":2,
    "sperm":2,
    "shoot":2,
    "taste":2,
    "condoms":2,
    "slip":2,
    "disease":2,
    "world":2,
    "past":2,
    "negative":2,
    "safe":2,
    "mistake":2,
    "embarrassed":2,
    "made":2,
    "alone":2,
    "pictures":2,
    "bright":2,
    "process":2,
    "tapping":2,
    "scratches":2,
    "chair":2,
    "vaginal":2,
    "umm":2,
    "altogether":2,
    "checking":2,
    "anal":2,
    "seven":2,
    "uptown":2,
    "station":2,
    "stairwell":2,
    "security":2,
    "coughing":2,
    "raises":2,
    "air":2,
    "pamphlets":2,
    "positive":2,
    "quiet":2,
    "subway":2,
    "bennys":2,
    "innocent":2,
    "watermelon":2,
    "watched":2,
    "joking":2,
    "law":2,
    "shake":2,
    "afro":2,
    "legless":2,
    "lower":2,
    "reverse":2,
    "retards":2,
    "pass":2,
    "cousin":2,
    "telephone":2,
    "quarter":2,
    "peter":2,
    "mommy":2,
    "brother":2,
    "die":2,
    "outta":2,
    "mothafucka":2,
    "anywhere":2,
    "squeezes":2,
    "wiping":2,
    "tears":2,
    "full":2,
    "place":2,
    "koolaid":2,
    "pouring":2,
    "none":2,
    "staring":2,
    "wipes":2,
    "messy":2,
    "cash":2,
    "dollars":2,
    "mothers":2,
    "spray":2,
    "chinese":2,
    "told":2,
    "muscles":2,
    "tries":2,
    "sniffs":2,
    "late":2,
    "bye":2,
    "leave":2,
    "slams":2,
    "finger":2,
    "list":2,
    "stair":2,
    "washington":2,
    "square":2,
    "chess":2,
    "drug":2,
    "dealer":2,
    "caspa":2,
    "bag":2,
    "points":2,
    "female":2,
    "vagina":2,
    "hat":2,
    "plastic":2,
    "complete":2,
    "rolling":2,
    "blows":2,
    "gold":2,
    "steve":2,
    "throat":2,
    "11":2,
    "lunch":2,
    "tshirt":2,
    "dark":2,
    "christ":2,
    "hanging":2,
    "strange":2,
    "noises":2,
    "trouble":2,
    "completely":2,
    "including":2,
    "ski":2,
    "mask":2,
    "stabbing":2,
    "stabs":2,
    "totally":2,
    "chew":2,
    "sudden":2,
    "hitting":2,
    "kill":2,
    "knows":2,
    "road":2,
    "gee":2,
    "soul":2,
    "adopted":2,
    "prying":2,
    "wrong":2,
    "sun":2,
    "prom":2,
    "queen":2,
    "crush":2,
    "darlene":2,
    "louis":2,
    "light":2,
    "notices":2,
    "pulling":2,
    "quart":2,
    "bennie":2,
    "doin":2,
    "bath":2,
    "huh":2,
    "damn":2,
    "feels":2,
    "friend":2,
    "lookin":2,
    "cold":2,
    "splashing":2,
    "tit":2,
    "seeing":2,
    "bug":2,
    "bends":2,
    "hallways":2,
    "techno":2,
    "stuck":2,
    "spectacle":2,
    "pill":2,
    "nods":2,
    "kims":2,
    "joint":2,
    "toilet":2,
    "covers":2,
    "loudly":2,
    "living":2,
    "awake":2,
    "respond":2,
    "deep":3,
    "seconds":3,
    "inches":3,
    "id":3,
    "breathing":3,
    "likes":3,
    "dirty":3,
    "biting":3,
    "smashing":3,
    "rapid":3,
    "high":3,
    "pair":3,
    "spread":3,
    "great":3,
    "feeling":3,
    "fan":3,
    "scared":3,
    "scoots":3,
    "gentle":3,
    "course":3,
    "closeup":3,
    "pussy":3,
    "nothin":3,
    "accompanies":3,
    "intensity":3,
    "staircase":3,
    "gently":3,
    "huge":3,
    "watches":3,
    "smacks":3,
    "four":3,
    "bumps":3,
    "metal":3,
    "comic":3,
    "drink":3,
    "school":3,
    "funny":3,
    "quick":3,
    "isnt":3,
    "hit":3,
    "move":3,
    "put":3,
    "cars":3,
    "hour":3,
    "taking":3,
    "smell":3,
    "nose":3,
    "smells":3,
    "without":3,
    "continue":3,
    "happen":3,
    "smash":3,
    "busy":3,
    "burrito":3,
    "deal":3,
    "saying":3,
    "tomorrow":3,
    "tall":3,
    "pennies":3,
    "whah":3,
    "say":3,
    "spot":3,
    "wonder":3,
    "twins":3,
    "episode":3,
    "others":3,
    "jump":3,
    "furniture":3,
    "wanted":3,
    "wipit":3,
    "wake":3,
    "live":3,
    "everywhere":3,
    "whats":3,
    "forever":3,
    "lips":3,
    "speak":3,
    "trust":3,
    "youll":3,
    "use":3,
    "sleeping":3,
    "everybody":3,
    "being":3,
    "ripped":3,
    "bleed":3,
    "sheets":3,
    "singing":3,
    "matter":3,
    "sweet":3,
    "pounding":3,
    "ripping":3,
    "chewing":3,
    "midst":3,
    "most":3,
    "nigga":3,
    "mine":3,
    "neck":3,
    "sucking":3,
    "slap":3,
    "continued":3,
    "video":3,
    "somethin":3,
    "hate":3,
    "ear":3,
    "hits":3,
    "until":3,
    "work":3,
    "break":3,
    "hear":3,
    "truth":3,
    "went":3,
    "week":3,
    "desk":3,
    "walls":3,
    "box":3,
    "bills":3,
    "stops":3,
    "opens":3,
    "nervous":3,
    "couldnt":3,
    "youve":3,
    "downtown":3,
    "party":3,
    "chin":3,
    "moment":3,
    "holy":3,
    "himself":3,
    "enters":3,
    "cup":3,
    "knees":3,
    "cat":3,
    "stomachache":3,
    "need":3,
    "wheres":3,
    "television":3,
    "cry":3,
    "shh":3,
    "coming":3,
    "hoodlums":3,
    "job":3,
    "dad":3,
    "moms":3,
    "kicks":3,
    "weed":3,
    "naw":3,
    "dime":3,
    "pumping":3,
    "stick":3,
    "nuffin":3,
    "throw":3,
    "goin":3,
    "benches":3,
    "phillie":3,
    "shorts":3,
    "sick":3,
    "faggots":3,
    "rubs":3,
    "friendly":3,
    "upstairs":3,
    "straight":3,
    "red":3,
    "cheek":3,
    "tricks":3,
    "forget":3,
    "silent":3,
    "yourself":3,
    "passed":3,
    "tattoo":3,
    "swimmin":3,
    "ya":3,
    "baggy":3,
    "club":3,
    "sid":3,
    "crowd":3,
    "fine":3,
    "asleep":3,
    "beside":3,
    "sounds":4,
    "moaning":4,
    "puffs":4,
    "sweaty":4,
    "every":4,
    "noise":4,
    "bottom":4,
    "messed":4,
    "pants":4,
    "lying":4,
    "hangs":4,
    "worry":4,
    "kinda":4,
    "stuff":4,
    "beautiful":4,
    "wouldnt":4,
    "hurt":4,
    "promise":4,
    "screams":4,
    "fast":4,
    "strong":4,
    "upper":4,
    "shuts":4,
    "quickly":4,
    "steps":4,
    "middle":4,
    "drinking":4,
    "40oz":4,
    "second":4,
    "together":4,
    "onto":4,
    "excited":4,
    "am":4,
    "attention":4,
    "15":4,
    "minutes":4,
    "talk":4,
    "clean":4,
    "else":4,
    "picture":4,
    "goes":4,
    "thinking":4,
    "probably":4,
    "throws":4,
    "those":4,
    "bet":4,
    "behind":4,
    "theyre":4,
    "korean":4,
    "uh":4,
    "lets":4,
    "ask":4,
    "grabs":4,
    "peach":4,
    "life":4,
    "serious":4,
    "jumping":4,
    "hello":4,
    "doll":4,
    "enter":4,
    "wipits":4,
    "kitchen":4,
    "sleep":4,
    "bullshit":4,
    "point":4,
    "slaps":4,
    "inside":4,
    "bled":4,
    "condom":4,
    "started":4,
    "cracking":4,
    "foreplay":4,
    "slow":4,
    "boring":4,
    "miss":4,
    "sometimes":4,
    "chest":4,
    "across":4,
    "intercourse":4,
    "jennies":4,
    "train":4,
    "dollar":4,
    "begins":4,
    "picks":4,
    "bunch":4,
    "sister":4,
    "guess":4,
    "end":4,
    "bad":4,
    "shut":4,
    "booth":4,
    "trying":4,
    "slowly":4,
    "clothes":4,
    "under":4,
    "stomach":4,
    "hold":4,
    "cement":4,
    "cigar":4,
    "ghost":4,
    "knife":4,
    "kicking":4,
    "father":4,
    "skateboard":4,
    "upset":4,
    "sad":4,
    "kisses":4,
    "dance":4,
    "almost":5,
    "person":5,
    "moves":5,
    "pain":5,
    "outside":5,
    "large":5,
    "believe":5,
    "things":5,
    "us":5,
    "telling":5,
    "tongue":5,
    "wont":5,
    "east":5,
    "center":5,
    "skinny":5,
    "hallway":5,
    "sidewalk":5,
    "step":5,
    "book":5,
    "half":5,
    "friends":5,
    "help":5,
    "smiling":5,
    "says":5,
    "something":5,
    "year":5,
    "blunt":5,
    "whole":5,
    "nothing":5,
    "conversation":5,
    "understand":5,
    "pocket":5,
    "share":5,
    "fun":5,
    "shoulder":5,
    "gives":5,
    "corner":5,
    "smoking":5,
    "seen":5,
    "spanish":5,
    "times":5,
    "doesnt":5,
    "watching":5,
    "itll":5,
    "lot":5,
    "ready":5,
    "eat":5,
    "notice":5,
    "shot":5,
    "sees":5,
    "follows":5,
    "sorry":5,
    "block":5,
    "running":5,
    "used":5,
    "arms":5,
    "top":5,
    "falls":5,
    "window":5,
    "loud":6,
    "please":6,
    "old":6,
    "mad":6,
    "ground":6,
    "naked":6,
    "boys":6,
    "baby":6,
    "care":6,
    "cut":6,
    "scene":6,
    "three":6,
    "laughs":6,
    "new":6,
    "always":6,
    "happened":6,
    "knew":6,
    "real":6,
    "saw":6,
    "than":6,
    "thought":6,
    "once":6,
    "again":6,
    "said":6,
    "more":6,
    "never":6,
    "smoke":6,
    "theres":6,
    "remember":6,
    "feel":6,
    "diss":6,
    "digg":6,
    "mirror":6,
    "anything":6,
    "ten":6,
    "watch":6,
    "couch":6,
    "phone":6,
    "many":6,
    "rubys":6,
    "forth":6,
    "name":6,
    "blood":6,
    "boom":6,
    "fifteen":6,
    "tested":6,
    "feet":6,
    "thanks":6,
    "standing":6,
    "eyes":6,
    "turns":6,
    "luck":6,
    "shirt":6,
    "nasa":6,
    "body":6,
    "mother":6,
    "misha":6,
    "sup":6,
    "bedroom":7,
    "short":7,
    "against":7,
    "before":7,
    "except":7,
    "open":7,
    "change":7,
    "virgins":7,
    "jumps":7,
    "bottle":7,
    "someone":7,
    "teeth":7,
    "stands":7,
    "arm":7,
    "hell":7,
    "took":7,
    "could":7,
    "these":7,
    "bathroom":7,
    "crazy":7,
    "water":7,
    "paul":7,
    "heard":7,
    "nice":7,
    "car":7,
    "cause":7,
    "home":7,
    "kissing":7,
    "tonight":7,
    "screaming":7,
    "find":7,
    "ras":7,
    "killed":7,
    "fidget":7,
    "camera":8,
    "wall":8,
    "hard":8,
    "virgin":8,
    "best":8,
    "ass":8,
    "bit":8,
    "street":8,
    "much":8,
    "another":8,
    "run":8,
    "game":8,
    "kid":8,
    "next":8,
    "laughter":8,
    "thing":8,
    "only":8,
    "holding":8,
    "pushes":8,
    "ok":8,
    "joy":8,
    "after":9,
    "few":9,
    "pretty":9,
    "shes":9,
    "white":9,
    "both":9,
    "small":9,
    "between":9,
    "sticks":9,
    "em":9,
    "does":9,
    "music":9,
    "stairs":9,
    "been":9,
    "fingers":9,
    "stop":9,
    "wanna":9,
    "pauls":9,
    "maybe":9,
    "doing":9,
    "still":9,
    "same":9,
    "park":9,
    "kim":9,
    "sound":10,
    "even":10,
    "long":10,
    "makes":10,
    "happy":10,
    "mouth":10,
    "last":10,
    "bitch":10,
    "walking":10,
    "talking":10,
    "first":10,
    "let":10,
    "or":10,
    "getting":10,
    "didnt":10,
    "sure":10,
    "playing":10,
    "smiles":10,
    "testing":10,
    "hey":10,
    "parents":10,
    "driver":10,
    "young":11,
    "hair":11,
    "going":11,
    "everything":11,
    "runs":11,
    "beer":11,
    "god":11,
    "laughing":11,
    "continues":11,
    "making":11,
    "clinic":11,
    "boy":11,
    "hi":11,
    "hoodlum":11,
    "taxi":11,
    "having":12,
    "looking":12,
    "time":12,
    "fucked":12,
    "kiss":12,
    "ill":12,
    "smile":12,
    "each":12,
    "laugh":12,
    "well":12,
    "tell":12,
    "suck":12,
    "way":12,
    "kids":12,
    "gets":12,
    "give":12,
    "ive":12,
    "caspers":12,
    "gotta":12,
    "stevens":12,
    "yes":13,
    "legs":13,
    "wearing":13,
    "building":13,
    "start":13,
    "mean":13,
    "dick":13,
    "ever":13,
    "side":14,
    "floor":14,
    "make":14,
    "ext":14,
    "see":14,
    "yo":14,
    "here":14,
    "while":14,
    "harold":14,
    "cant":15,
    "who":15,
    "take":15,
    "really":15,
    "front":15,
    "too":15,
    "where":15,
    "night":15,
    "youre":16,
    "would":16,
    "tellys":16,
    "walk":16,
    "any":16,
    "their":16,
    "yep":16,
    "through":17,
    "apartment":17,
    "fuckin":17,
    "guys":17,
    "house":17,
    "money":17,
    "mom":17,
    "an":18,
    "bed":18,
    "because":18,
    "takes":18,
    "away":18,
    "steven":18,
    "should":19,
    "other":19,
    "now":19,
    "nurse":19,
    "hamilton":19,
    "girls":20,
    "door":20,
    "everyone":20,
    "hes":20,
    "head":20,
    "off":20,
    "did":20,
    "hands":20,
    "room":21,
    "go":21,
    "guy":21,
    "some":21,
    "think":22,
    "love":22,
    "pulls":22,
    "over":22,
    "fucking":23,
    "from":23,
    "big":23,
    "hand":23,
    "were":23,
    "into":24,
    "why":24,
    "we":24,
    "good":24,
    "got":24,
    "around":24,
    "sex":25,
    "if":25,
    "puts":25,
    "get":25,
    "by":25,
    "people":26,
    "one":26,
    "want":26,
    "gonna":26,
    "face":27,
    "about":27,
    "come":27,
    "very":28,
    "black":28,
    "had":28,
    "there":28,
    "ruby":28,
    "sitting":29,
    "look":29,
    "little":29,
    "how":29,
    "can":29,
    "walks":30,
    "when":31,
    "this":31,
    "not":31,
    "girl":32,
    "has":32,
    "him":32,
    "fuck":33,
    "starts":33,
    "darcy":33,
    "oh":34,
    "man":34,
    "then":35,
    "right":35,
    "int":36,
    "your":36,
    "shit":36,
    "back":37,
    "have":37,
    "two":38,
    "them":39,
    "do":42,
    "be":43,
    "so":43,
    "for":44,
    "as":45,
    "thats":45,
    "but":46,
    "day":47,
    "down":48,
    "my":48,
    "im":50,
    "looks":51,
    "":59,
    "dont":59,
    "just":60,
    "no":62,
    "what":64,
    "me":65,
    "all":68,
    "its":69,
    "at":70,
    "was":72,
    "know":73,
    "they":75,
    "out":82,
    "jennie":82,
    "are":89,
    "she":96,
    "with":97,
    "that":99,
    "yeah":99,
    "like":113,
    "up":117,
    "her":119,
    "telly":123,
    "on":125,
    "it":139,
    "in":154,
    "his":156,
    "of":175,
    "casper":178,
    "he":184,
    "to":187,
    "i":266,
    "is":271,
    "a":298,
    "you":299,
    "and":352,
    "the":567
}