{
    "envelopes":1,
    "stamps":1,
    "listens":1,
    "baby":1,
    "lap":1,
    "fouryearold":1,
    "fiddles":1,
    "star":1,
    "wars":1,
    "toy":1,
    "tongue":1,
    "delighted":1,
    "thoughtful":1,
    "horn":1,
    "blares":1,
    "writes":1,
    "interior":1,
    "hangout":1,
    "divided":1,
    "folding":1,
    "partition":1,
    "painted":1,
    "webs":1,
    "dockworkers":1,
    "modest":1,
    "dining":1,
    "ships":1,
    "tablecloths":1,
    "35":1,
    "welldressed":1,
    "wife":1,
    "impatiently":1,
    "harangue":1,
    "week":1,
    "deadline":1,
    "530":1,
    "girls":1,
    "semester":1,
    "struggled":1,
    "accepted":1,
    "misses":1,
    "lives":1,
    "beloved":1,
    "sign":1,
    "kids":1,
    "provide":1,
    "twenty":1,
    "swelters":1,
    "heat":1,
    "stroll":1,
    "hookers":1,
    "lingering":1,
    "intelligence":1,
    "dump":1,
    "charm":1,
    "international":1,
    "tried":1,
    "miami":1,
    "switchboard":1,
    "copacabana":1,
    "palace":1,
    "introduce":1,
    "lessons":1,
    "practice":1,
    "learn":1,
    "pull":1,
    "tough":1,
    "teenagers":1,
    "rundown":1,
    "theater":1,
    "16":1,
    "parlor":1,
    "latenight":1,
    "broadcasts":1,
    "test":1,
    "pattern":1,
    "81":1,
    "elbow":1,
    "cane":1,
    "teaches":1,
    "late":1,
    "barrestaurant":1,
    "pens":1,
    "slow":1,
    "recognize":1,
    "kid":1,
    "backseat":1,
    "16yearold":1,
    "fathers":1,
    "crestfallen":1,
    "haul":1,
    "steel":1,
    "directly":1,
    "tycoon":1,
    "discovers":1,
    "buys":1,
    "needs":1,
    "describing":1,
    "melodrama":1,
    "addressing":1,
    "dare":1,
    "32":1,
    "marks":1,
    "intense":1,
    "gives":1,
    "matches":1,
    "quite":1,
    "asks":1,
    "smoking":1,
    "suicide":1,
    "gaunt":1,
    "calling":1,
    "cars":1,
    "desperation":1,
    "gaudy":1,
    "outfit":1,
    "flirting":1,
    "selling":1,
    "urinates":1,
    "arrives":1,
    "clothing":1,
    "seeing":1,
    "plate":1,
    "butts":1,
    "bottle":1,
    "instantly":1,
    "falls":1,
    "tearstained":1,
    "words":1,
    "burden":1,
    "humming":1,
    "mustve":1,
    "philosophies":1,
    "science":1,
    "journalism":1,
    "junk":1,
    "scandal":1,
    "none":1,
    "excited":1,
    "wonderfully":1,
    "proud":1,
    "avenues":1,
    "liberation":1,
    "parisian":1,
    "skyline":1,
    "charged":1,
    "excitement":1,
    "pan":1,
    "reveal":1,
    "uniforms":1,
    "battalions":1,
    "supermen":1,
    "series":1,
    "shots":1,
    "average":1,
    "workingclass":1,
    "slapdash":1,
    "1940s":1,
    "specifically":1,
    "books":1,
    "truth":1,
    "welcomed":1,
    "frenchmen":1,
    "unload":1,
    "hardware":1,
    "store":1,
    "convoy":1,
    "cellar":1,
    "shot":1,
    "surrender":1,
    "most":1,
    "cheered":1,
    "disaster":1,
    "starvation":1,
    "aide":1,
    "smugglers":1,
    "cargo":1,
    "distribute":1,
    "contraband":1,
    "pickup":1,
    "alley":1,
    "thugs":1,
    "hulking":1,
    "crosseyed":1,
    "grimy":1,
    "loaded":1,
    "meats":1,
    "cognac":1,
    "blackmarketeers":1,
    "simply":1,
    "kicks":1,
    "effeminate":1,
    "overdrive":1,
    "explain":1,
    "ruins":1,
    "emotion":1,
    "dials":1,
    "rehearses":1,
    "lavish":1,
    "nightclub":1,
    "chorusgirl":1,
    "offstage":1,
    "jacob":1,
    "bernard":1,
    "vive":1,
    "dances":1,
    "waiters":1,
    "ravishing":1,
    "chanteuse":1,
    "audience":1,
    "command":1,
    "stunning":1,
    "brunette":1,
    "spotlight":1,
    "lamaison":1,
    "kelly":1,
    "piaf":1,
    "lyrics":1,
    "portray":1,
    "nightingale":1,
    "nest":1,
    "fierce":1,
    "brutal":1,
    "courage":1,
    "occupation":1,
    "heartless":1,
    "volcano":1,
    "gorgeous":1,
    "chief":1,
    "reaction":1,
    "somethings":1,
    "bothering":1,
    "stooped":1,
    "helping":1,
    "fine":1,
    "pick":1,
    "tightlipped":1,
    "kicking":1,
    "sticking":1,
    "jackboot":1,
    "hung":1,
    "grimaces":1,
    "sex":1,
    "boring":1,
    "angry":1,
    "page":1,
    "congratulations":1,
    "corrupt":1,
    "minors":1,
    "eleven":1,
    "terrific":1,
    "naive":1,
    "clearly":1,
    "tampax":1,
    "commercial":1,
    "mindfuck":1,
    "everybody":1,
    "recoils":1,
    "regroups":1,
    "dandy":1,
    "stinking":1,
    "prejudiced":1,
    "liberated":1,
    "comment":1,
    "fighter":1,
    "pissass":1,
    "heroine":1,
    "limp":1,
    "p":1,
    "prop":1,
    "hooded":1,
    "cloth":1,
    "bloodstained":1,
    "muffled":1,
    "groan":1,
    "drowsy":1,
    "bringing":1,
    "departing":1,
    "echoes":1,
    "trouble":1,
    "wash":1,
    "basin":1,
    "bleeding":1,
    "bananas":1,
    "dressingroom":1,
    "pink":1,
    "satin":1,
    "heavenly":1,
    "firm":1,
    "waist":1,
    "smooth":1,
    "smells":1,
    "fresh":1,
    "lavender":1,
    "porno":1,
    "carried":1,
    "loverboy":1,
    "suppose":1,
    "namecard":1,
    "fabulous":1,
    "filthy":1,
    "pats":1,
    "sympathetic":1,
    "t":1,
    "dance":1,
    "unemployed":1,
    "minutes":1,
    "blue":1,
    "burn":1,
    "soul":1,
    "claws":1,
    "inescapable":1,
    "rewrite":1,
    "divine":1,
    "counts":1,
    "charlotte":1,
    "mexico":1,
    "inventing":1,
    "showing":1,
    "everywhere":1,
    "recent":1,
    "exquisite":1,
    "romance":1,
    "atheists":1,
    "mentioning":1,
    "fagots":1,
    "facts":1,
    "fantasies":1,
    "alienating":1,
    "gladly":1,
    "trivial":1,
    "candlewicks":1,
    "torchsinger":1,
    "conducting":1,
    "check":1,
    "doors":1,
    "barking":1,
    "fourth":1,
    "standing":1,
    "attention":1,
    "mashes":1,
    "crackers":1,
    "cups":1,
    "cleaning":1,
    "cupboard":1,
    "lunch":1,
    "offer":1,
    "half":1,
    "act":1,
    "smart":1,
    "oversensitive":1,
    "fantasy":1,
    "prejudice":1,
    "acted":1,
    "gestures":1,
    "point":1,
    "mostly":1,
    "brutes":1,
    "grimace":1,
    "selfdiscipline":1,
    "relax":1,
    "gratifying":1,
    "senses":1,
    "becomes":1,
    "secondary":1,
    "serving":1,
    "spell":1,
    "capitalist":1,
    "cares":1,
    "fancy":1,
    "fear":1,
    "hot":1,
    "soft":1,
    "warm":1,
    "todays":1,
    "led":1,
    "barred":1,
    "windows":1,
    "soccer":1,
    "reach":1,
    "grab":1,
    "38":1,
    "fills":1,
    "tower":1,
    "sunbathe":1,
    "starving":1,
    "twice":1,
    "besides":1,
    "larger":1,
    "portion":1,
    "toying":1,
    "hungry":1,
    "swallows":1,
    "spoonfuls":1,
    "sweetheart":1,
    "pockets":1,
    "rumor":1,
    "definite":1,
    "phoned":1,
    "dying":1,
    "dumb":1,
    "shiny":1,
    "fenders":1,
    "fixed":1,
    "outside":1,
    "accepting":1,
    "invitation":1,
    "drink":1,
    "chauffeur":1,
    "cabinet":1,
    "limo":1,
    "rhein":1,
    "meanwhile":1,
    "unborn":1,
    "decided":1,
    "spy":1,
    "arsenal":1,
    "curb":1,
    "accelerates":1,
    "hurtles":1,
    "lifeless":1,
    "sprawled":1,
    "wet":1,
    "pavement":1,
    "horrified":1,
    "stunned":1,
    "notice":1,
    "smokefilled":1,
    "sip":1,
    "harm":1,
    "destroy":1,
    "free":1,
    "offended":1,
    "arrogance":1,
    "artiste":1,
    "dangling":1,
    "flapping":1,
    "scarecrow":1,
    "snaps":1,
    "chilling":1,
    "elated":1,
    "discover":1,
    "distraction":1,
    "tribute":1,
    "storytelling":1,
    "prowess":1,
    "sealed":1,
    "protect":1,
    "leaky":1,
    "faucet":1,
    "taking":1,
    "chances":1,
    "climb":1,
    "displays":1,
    "happening":1,
    "together":1,
    "lifetime":1,
    "stranger":1,
    "humble":1,
    "listless":1,
    "ambles":1,
    "emptiness":1,
    "middleaged":1,
    "cruising":1,
    "searching":1,
    "jumped":1,
    "scorn":1,
    "deceit":1,
    "tracks":1,
    "riveted":1,
    "white":1,
    "magnet":1,
    "named":1,
    "cmon":1,
    "sisters":1,
    "nervous":1,
    "patron":1,
    "pounding":1,
    "terror":1,
    "disappointed":1,
    "handled":1,
    "cursed":1,
    "composure":1,
    "humiliated":1,
    "sleazehole":1,
    "bickering":1,
    "sluts":1,
    "maintained":1,
    "prince":1,
    "suggest":1,
    "antipasto":1,
    "fattening":1,
    "steak":1,
    "onion":1,
    "soup":1,
    "closing":1,
    "fraternize":1,
    "clientele":1,
    "earn":1,
    "agree":1,
    "affectionately":1,
    "character":1,
    "kidding":1,
    "satisfy":1,
    "except":1,
    "realistic":1,
    "believe":1,
    "staying":1,
    "boyfriend":1,
    "married":1,
    "bind":1,
    "oldfashioned":1,
    "bourgeois":1,
    "sexist":1,
    "danger":1,
    "unless":1,
    "attitude":1,
    "doubles":1,
    "stabbing":1,
    "pains":1,
    "appendicitis":1,
    "mine":1,
    "throw":1,
    "later":1,
    "waving":1,
    "muffles":1,
    "scream":1,
    "wrist":1,
    "cheri":1,
    "grasped":1,
    "statuette":1,
    "justice":1,
    "endtable":1,
    "hammers":1,
    "skull":1,
    "flees":1,
    "desperately":1,
    "streaming":1,
    "hunched":1,
    "trapped":1,
    "enemy":1,
    "killer":1,
    "escort":1,
    "spring":1,
    "neither":1,
    "coming":1,
    "middle":1,
    "goddess":1,
    "heaving":1,
    "bosom":1,
    "fullbodied":1,
    "figure":1,
    "exercising":1,
    "descending":1,
    "staircase":1,
    "mezzanine":1,
    "baroque":1,
    "vestibule":1,
    "prepare":1,
    "guest":1,
    "trembling":1,
    "magical":1,
    "floating":1,
    "immense":1,
    "banners":1,
    "waves":1,
    "violins":1,
    "waters":1,
    "river":1,
    "navigated":1,
    "mangod":1,
    "motherland":1,
    "sparkle":1,
    "candlelight":1,
    "amused":1,
    "backwards":1,
    "fatherland":1,
    "hypnotically":1,
    "whispering":1,
    "wagner":1,
    "resurrection":1,
    "masculine":1,
    "endeavor":1,
    "bears":1,
    "reich":1,
    "greater":1,
    "contribution":1,
    "scientist":1,
    "power":1,
    "tanks":1,
    "armored":1,
    "vehicles":1,
    "cheering":1,
    "army":1,
    "entire":1,
    "inferiority":1,
    "imperfection":1,
    "communists":1,
    "vatican":1,
    "worships":1,
    "rightful":1,
    "invincibility":1,
    "embracing":1,
    "space":1,
    "slot":1,
    "killers":1,
    "motherfuckers":1,
    "laughing":1,
    "spins":1,
    "stalks":1,
    "towards":1,
    "brothers":1,
    "catholics":1,
    "marxists":1,
    "dumber":1,
    "stuck":1,
    "ass":1,
    "retreats":1,
    "hitting":1,
    "icecold":1,
    "use":1,
    "retrieves":1,
    "harmless":1,
    "imitation":1,
    "clitoris":1,
    "accident":1,
    "knife":1,
    "ovens":1,
    "scoops":1,
    "cover":1,
    "stream":1,
    "following":1,
    "interns":1,
    "halfconcealed":1,
    "oxygen":1,
    "given":1,
    "sorrow":1,
    "wheeled":1,
    "emergency":1,
    "wonder":1,
    "inform":1,
    "thunderous":1,
    "undress":1,
    "dressingtable":1,
    "wheres":1,
    "rack":1,
    "gowns":1,
    "schoolboy":1,
    "gagged":1,
    "48":1,
    "jewel":1,
    "fighting":1,
    "kill":1,
    "gas":1,
    "chamber":1,
    "lie":1,
    "clutching":1,
    "chalkwhite":1,
    "kneel":1,
    "exploding":1,
    "goes":1,
    "joke":1,
    "rats":1,
    "maggots":1,
    "falling":1,
    "enough":1,
    "bless":1,
    "garbage":1,
    "closely":1,
    "boiled":1,
    "famished":1,
    "choice":1,
    "tastes":1,
    "pigsty":1,
    "bits":1,
    "disappear":1,
    "earth":1,
    "cinderella":1,
    "fairy":1,
    "godmother":1,
    "grant":1,
    "vanish":1,
    "contrary":1,
    "bedroom":1,
    "silk":1,
    "sheets":1,
    "antique":1,
    "mere":1,
    "adoration":1,
    "giving":1,
    "orders":1,
    "efficiency":1,
    "hears":1,
    "coldly":1,
    "execution":1,
    "dozen":1,
    "freedomfighters":1,
    "sandcastle":1,
    "demolished":1,
    "tidal":1,
    "distorted":1,
    "raindrops":1,
    "resemble":1,
    "proposes":1,
    "marriage":1,
    "agrees":1,
    "coldhearted":1,
    "avenge":1,
    "hosts":1,
    "gathering":1,
    "officials":1,
    "wives":1,
    "glassenclosed":1,
    "garden":1,
    "adjacent":1,
    "grand":1,
    "concludes":1,
    "applaud":1,
    "encore":1,
    "record":1,
    "enraptured":1,
    "unaware":1,
    "performance":1,
    "recording":1,
    "key":1,
    "unlocks":1,
    "rifles":1,
    "adjust":1,
    "frame":1,
    "grows":1,
    "heartbreaking":1,
    "betraying":1,
    "curls":1,
    "relaxes":1,
    "nails":1,
    "hammered":1,
    "traitors":1,
    "betrayal":1,
    "shifting":1,
    "gears":1,
    "beating":1,
    "swelling":1,
    "popped":1,
    "lowcut":1,
    "luscious":1,
    "hors":1,
    "doeuvres":1,
    "platter":1,
    "lipstick":1,
    "draw":1,
    "pair":1,
    "chuckles":1,
    "knees":1,
    "scoots":1,
    "juicy":1,
    "tit":1,
    "places":1,
    "serve":1,
    "pairs":1,
    "laughter":1,
    "snap":1,
    "nods":1,
    "quick":1,
    "zipper":1,
    "stays":1,
    "underpants":1,
    "shitbucket":1,
    "stack":1,
    "folded":1,
    "disgusted":1,
    "shirttails":1,
    "blackandblue":1,
    "wrap":1,
    "stink":1,
    "tenderly":1,
    "insistent":1,
    "weekly":1,
    "washed":1,
    "noon":1,
    "papoose":1,
    "toga":1,
    "crawl":1,
    "honestly":1,
    "thisll":1,
    "wonders":1,
    "curious":1,
    "detest":1,
    "censored":1,
    "unfolds":1,
    "pages":1,
    "elsa":1,
    "mumbled":1,
    "mumble":1,
    "writing":1,
    "architect":1,
    "pure":1,
    "bourgeoisie":1,
    "upperclass":1,
    "laws":1,
    "lull":1,
    "whenever":1,
    "forced":1,
    "28":1,
    "radiant":1,
    "disappearing":1,
    "destroying":1,
    "broke":1,
    "nextdoor":1,
    "brushes":1,
    "hair":1,
    "conceal":1,
    "distressed":1,
    "exploitation":1,
    "argued":1,
    "quilt":1,
    "joins":1,
    "accept":1,
    "brim":1,
    "rushhour":1,
    "crowds":1,
    "crowded":1,
    "honest":1,
    "plodding":1,
    "suits":1,
    "commuters":1,
    "born":1,
    "doomed":1,
    "misery":1,
    "death":1,
    "beyond":1,
    "factories":1,
    "xerox":1,
    "goodyear":1,
    "petrobras":1,
    "volkswagen":1,
    "votorantin":1,
    "remington":1,
    "illegal":1,
    "arrests":1,
    "leaking":1,
    "abroad":1,
    "believed":1,
    "assignment":1,
    "remaining":1,
    "members":1,
    "armed":1,
    "opposition":1,
    "platform":1,
    "older":1,
    "62":1,
    "suit":1,
    "wondering":1,
    "worth":1,
    "main":1,
    "accomplished":1,
    "boards":1,
    "escalator":1,
    "kept":1,
    "burning":1,
    "reaching":1,
    "level":1,
    "plainclothes":1,
    "jump":1,
    "grabbing":1,
    "handcuff":1,
    "wrists":1,
    "push":1,
    "pulled":1,
    "rafaels":1,
    "shove":1,
    "griefstricken":1,
    "screen":1,
    "bedsheet":1,
    "halfdead":1,
    "torturer":1,
    "deserve":1,
    "confessed":1,
    "infuriates":1,
    "receive":1,
    "sewer":1,
    "fire":1,
    "itches":1,
    "mmm":1,
    "noticed":1,
    "rise":1,
    "cigar":1,
    "question":1,
    "rush":1,
    "careful":1,
    "chose":1,
    "26":1,
    "undercover":1,
    "grad":1,
    "student":1,
    "diarrhea":1,
    "arrangement":1,
    "halfempty":1,
    "insisted":1,
    "wouldve":1,
    "kleenex":1,
    "seat":1,
    "tissues":1,
    "dab":1,
    "accuse":1,
    "cheer":1,
    "lot":1,
    "practically":1,
    "cadre":1,
    "eats":1,
    "personal":1,
    "uncle":1,
    "farm":1,
    "disappeared":1,
    "react":1,
    "messed":1,
    "crime":1,
    "justifies":1,
    "routine":1,
    "distracted":1,
    "months":1,
    "tinsel":1,
    "difficult":1,
    "actor":1,
    "kidnapped":1,
    "american":1,
    "ambassador":1,
    "looked":1,
    "idiots":1,
    "foreign":1,
    "press":1,
    "planning":1,
    "hesitates":1,
    "visiting":1,
    "brings":1,
    "groceries":1,
    "roast":1,
    "chickens":1,
    "butter":1,
    "potato":1,
    "salad":1,
    "peaches":1,
    "condensed":1,
    "milk":1,
    "boxes":1,
    "chamomile":1,
    "jar":1,
    "pickled":1,
    "herring":1,
    "minds":1,
    "blank":1,
    "\u00e6\u00b0\u00df=8\u00df=":1,
    "culinary":1,
    "picnic":1,
    "mustnt":1,
    "beaming":1,
    "delight":1,
    "de":1,
    "complies":1,
    "idea":1,
    "baba":1,
    "au":1,
    "forgot":1,
    "exist":1,
    "maternal":1,
    "finger":1,
    "rich":1,
    "placing":1,
    "rectangle":1,
    "rubs":1,
    "ahhh":1,
    "cigarettes":1,
    "missing":1,
    "affects":1,
    "theatrical":1,
    "pose":1,
    "degenerate":1,
    "wander":1,
    "hated":1,
    "study":1,
    "complaining":1,
    "enormous":1,
    "dinosaur":1,
    "skeletons":1,
    "natural":1,
    "hostage":1,
    "screams":1,
    "treason":1,
    "dusk":1,
    "sidebyside":1,
    "hero":1,
    "huh":1,
    "doublecrosses":1,
    "collaborator":1,
    "seriously":1,
    "racked":1,
    "shock":1,
    "dinner":1,
    "noticing":1,
    "distance":1,
    "impulsively":1,
    "tin":1,
    "diningroom":1,
    "broken":1,
    "goblet":1,
    "majestic":1,
    "refuse":1,
    "government":1,
    "archive":1,
    "photos":1,
    "documents":1,
    "famine":1,
    "throughout":1,
    "shows":1,
    "elite":1,
    "create":1,
    "shortages":1,
    "enslave":1,
    "masses":1,
    "superimposed":1,
    "exit":1,
    "doric":1,
    "understood":1,
    "mission":1,
    "humanity":1,
    "injustice":1,
    "domination":1,
    "superimposition":1,
    "above":1,
    "promises":1,
    "ensare":1,
    "enemies":1,
    "passionately":1,
    "insisting":1,
    "farmhouse":1,
    "studies":1,
    "upstairs":1,
    "smiling":1,
    "violently":1,
    "slaps":1,
    "lands":1,
    "fake":1,
    "shoves":1,
    "revolver":1,
    "pointblank":1,
    "stairway":1,
    "railing":1,
    "staggers":1,
    "collapses":1,
    "fill":1,
    "scene":1,
    "pantheon":1,
    "heroes":1,
    "vision":1,
    "eternal":1,
    "cry":1,
    "sacrifice":1,
    "vain":1,
    "pretty":1,
    "storyteller":1,
    "visits":1,
    "especially":1,
    "hardon":1,
    "shoes":1,
    "dizziness":1,
    "missed":1,
    "holds":1,
    "messing":1,
    "tossing":1,
    "americos":1,
    "clothes":1,
    "effects":1,
    "cart":1,
    "expressionless":1,
    "package":1,
    "grocery":1,
    "cake":1,
    "dam":1,
    "stove":1,
    "fruit":1,
    "watching":1,
    "temper":1,
    "nonsense":1,
    "obligated":1,
    "pumpkin":1,
    "ones":1,
    "choose":1,
    "recalls":1,
    "latest":1,
    "curtains":1,
    "interrogated":1,
    "thoroughly":1,
    "meaning":1,
    "case":1,
    "win":1,
    "oppressors":1,
    "oppresses":1,
    "controlled":1,
    "locked":1,
    "ail":1,
    "tortured":1,
    "speed":1,
    "hunch":1,
    "inmates":1,
    "gotten":1,
    "released":1,
    "dim":1,
    "lightbulb":1,
    "exhaustion":1,
    "conditioning":1,
    "whatever":1,
    "affection":1,
    "harmed":1,
    "gift":1,
    "heaven":1,
    "selfless":1,
    "devoted":1,
    "risking":1,
    "ideal":1,
    "embarrassing":1,
    "admire":1,
    "paces":1,
    "changing":1,
    "confidential":1,
    "pressured":1,
    "responsibility":1,
    "chance":1,
    "catch":1,
    "fish":1,
    "bait":1,
    "set":1,
    "hook":1,
    "theyll":1,
    "procedure":1,
    "hopes":1,
    "baked":1,
    "apple":1,
    "appetite":1,
    "came":1,
    "granted":1,
    "truly":1,
    "begin":1,
    "strike":1,
    "advantage":1,
    "silly":1,
    "mirrors":1,
    "running":1,
    "choking":1,
    "sobs":1,
    "clears":1,
    "upon":1,
    "stretches":1,
    "wore":1,
    "dress":1,
    "lame":1,
    "fit":1,
    "glove":1,
    "forest":1,
    "grew":1,
    "slithers":1,
    "plants":1,
    "creatures":1,
    "barely":1,
    "visible":1,
    "drifted":1,
    "sandy":1,
    "fed":1,
    "cared":1,
    "wounds":1,
    "nourished":1,
    "nursed":1,
    "awoke":1,
    "gazed":1,
    "tear":1,
    "slide":1,
    "junge":1,
    "blends":1,
    "lit":1,
    "explanations":1,
    "suffering":1,
    "jam":1,
    "pat":1,
    "dropping":1,
    "masks":1,
    "vulnerability":1,
    "fallen":1,
    "hadnt":1,
    "ashamed":1,
    "gently":1,
    "caresses":1,
    "eyebrow":1,
    "squeezes":1,
    "candlespark":1,
    "amid":1,
    "whips":1,
    "squeezed":1,
    "lift":1,
    "somehow":1,
    "spark":1,
    "faded":1,
    "faith":1,
    "wishywashy":1,
    "serious":1,
    "strictly":1,
    "homos":1,
    "discuss":1,
    "nicest":1,
    "exploited":1,
    "bright":1,
    "shines":1,
    "shitface":1,
    "motherfuck":1,
    "human":1,
    "bury":1,
    "pussy":1,
    "six":1,
    "mouth":1,
    "shoot":1,
    "kick":1,
    "sends":1,
    "sprawling":1,
    "motherfucker":1,
    "approved":1,
    "document":1,
    "hankypanky":1,
    "cunt":1,
    "lead":1,
    "damned":1,
    "queers":1,
    "numbers":1,
    "terrified":1,
    "desire":1,
    "fact":1,
    "surprise":1,
    "exploit":1,
    "dial":1,
    "third":1,
    "electronic":1,
    "machinegun":1,
    "escorts":1,
    "final":1,
    "checkpoint":1,
    "walls":1,
    "fly":1,
    "lovingly":1,
    "forehead":1,
    "weakly":1,
    "strolls":1,
    "reflected":1,
    "neonlit":1,
    "weight":1,
    "carmens":1,
    "commotion":1,
    "causes":1,
    "transvestite":1,
    "microphone":1,
    "address":1,
    "fans":1,
    "welcome":1,
    "cherished":1,
    "sister":1,
    "sacrificed":1,
    "lordknowshowmany":1,
    "debt":1,
    "hypocritical":1,
    "society":1,
    "embarrassed":1,
    "dedicate":1,
    "loud":1,
    "cheers":1,
    "timidly":1,
    "halfrises":1,
    "acknowledgment":1,
    "sing":1,
    "building":1,
    "filing":1,
    "report":1,
    "binoculars":1,
    "residence":1,
    "release":1,
    "answered":1,
    "calls":1,
    "returned":1,
    "exception":1,
    "single":1,
    "spends":1,
    "approximately":1,
    "afternoon":1,
    "facing":1,
    "south":1,
    "motionless":1,
    "city":1,
    "rooftops":1,
    "distant":1,
    "unkept":1,
    "awhile":1,
    "armchair":1,
    "locking":1,
    "ring":1,
    "necessary":1,
    "disappears":1,
    "mob":1,
    "teller":1,
    "askance":1,
    "appearance":1,
    "penalty":1,
    "maintain":1,
    "minimum":1,
    "balance":1,
    "brown":1,
    "park":1,
    "meets":1,
    "duck":1,
    "pond":1,
    "million":1,
    "carnival":1,
    "feed":1,
    "trip":1,
    "wherever":1,
    "steamy":1,
    "dabs":1,
    "shaving":1,
    "scrutinizes":1,
    "fulllength":1,
    "shaven":1,
    "immaculately":1,
    "groomed":1,
    "carefully":1,
    "adjusts":1,
    "neck":1,
    "pretended":1,
    "sleeping":1,
    "nurse":1,
    "coma":1,
    "engaged":1,
    "erratic":1,
    "activities":1,
    "executed":1,
    "powerofattorney":1,
    "homosexual":1,
    "investigation":1,
    "montes":1,
    "picked":1,
    "spots":1,
    "shopping":1,
    "mall":1,
    "boutique":1,
    "display":1,
    "entrance":1,
    "drives":1,
    "cacophony":1,
    "firecrackers":1,
    "samba":1,
    "bands":1,
    "dancing":1,
    "costumes":1,
    "costumed":1,
    "peddler":1,
    "badger":1,
    "lady":1,
    "grates":1,
    "cheese":1,
    "potatoes":1,
    "motherinlaw":1,
    "fountain":1,
    "sweat":1,
    "foamy":1,
    "fag":1,
    "calm":1,
    "noises":1,
    "pile":1,
    "slum":1,
    "tires":1,
    "screech":1,
    "tumbles":1,
    "roars":1,
    "corpse":1,
    "delirious":1,
    "cot":1,
    "aid":1,
    "swollen":1,
    "bruises":1,
    "disfigured":1,
    "thirddegree":1,
    "burns":1,
    "morphine":1,
    "nod":1,
    "forty":1,
    "barbaric":1,
    "ease":1,
    "minute":1,
    "twentynine":1,
    "thirtyone":1,
    "thirtyuh":1,
    "slightly":1,
    "cottonball":1,
    "womans":1,
    "surreal":1,
    "tunnel":1,
    "strangely":1,
    "glowing":1,
    "shadowy":1,
    "holding":1,
    "separate":1,
    "sparkling":1,
    "horizon":1,
    "christmas":2,
    "promised":2,
    "hasnt":2,
    "spread":2,
    "iced":2,
    "moistens":2,
    "pen":2,
    "peter":2,
    "ship":2,
    "weary":2,
    "officers":2,
    "handsome":2,
    "tunic":2,
    "tables":2,
    "tray":2,
    "dirty":2,
    "miss":2,
    "took":2,
    "dearest":2,
    "itself":2,
    "favor":2,
    "hundred":2,
    "grateful":2,
    "bitch":2,
    "chic":2,
    "turn":2,
    "busstop":2,
    "brought":2,
    "manager":2,
    "shell":2,
    "poof":2,
    "bus":2,
    "everyday":2,
    "eh":2,
    "afford":2,
    "dimlylit":2,
    "tv":2,
    "wakes":2,
    "bedtime":2,
    "hows":2,
    "bad":2,
    "papers":2,
    "squints":2,
    "favorite":2,
    "stark":2,
    "working":2,
    "fires":2,
    "tb":2,
    "treatment":2,
    "fishermans":2,
    "shack":2,
    "mexican":2,
    "losing":2,
    "unshaven":2,
    "ways":2,
    "bother":2,
    "decides":2,
    "though":2,
    "prostitutes":2,
    "lamp":2,
    "passing":2,
    "deep":2,
    "seems":2,
    "normal":2,
    "full":2,
    "rum":2,
    "moonlight":2,
    "reads":2,
    "swells":2,
    "pass":2,
    "studied":2,
    "phrase":2,
    "ah":2,
    "appreciate":2,
    "easily":2,
    "involved":2,
    "glares":2,
    "book":2,
    "problem":2,
    "telling":2,
    "war":2,
    "heroic":2,
    "soldiers":2,
    "march":2,
    "broad":2,
    "parade":2,
    "marching":2,
    "air":2,
    "arch":2,
    "triumph":2,
    "columns":2,
    "marvelous":2,
    "invincible":2,
    "neighborhood":2,
    "images":2,
    "arrest":2,
    "saving":2,
    "spits":2,
    "flunky":2,
    "boss":2,
    "delicacies":2,
    "canned":2,
    "goons":2,
    "shameless":2,
    "guys":2,
    "crazy":2,
    "fighters":2,
    "speech":2,
    "ruined":2,
    "hobbles":2,
    "booth":2,
    "chorus":2,
    "line":2,
    "la":2,
    "grace":2,
    "innocent":2,
    "taken":2,
    "eagle":2,
    "public":2,
    "descends":2,
    "finishes":2,
    "resist":2,
    "waits":2,
    "anger":2,
    "count":2,
    "those":2,
    "horse":2,
    "serves":2,
    "queen":2,
    "journalist":2,
    "fights":2,
    "freedoms":2,
    "couldnt":2,
    "singer":2,
    "dreams":2,
    "sack":2,
    "holy":2,
    "expect":2,
    "disturbed":2,
    "stealing":2,
    "brushing":2,
    "teeth":2,
    "changes":2,
    "hips":2,
    "ridiculous":2,
    "sudden":2,
    "notices":2,
    "bouquet":2,
    "examines":2,
    "tosses":2,
    "kraut":2,
    "won":2,
    "able":2,
    "pregnant":2,
    "nuts":2,
    "embroider":2,
    "beauty":2,
    "drive":2,
    "keys":2,
    "follow":2,
    "otherwise":2,
    "fade":2,
    "slammed":2,
    "till":2,
    "spoiled":2,
    "precious":2,
    "spit":2,
    "sensitive":2,
    "sentimental":2,
    "meant":2,
    "violence":2,
    "touche":2,
    "trash":2,
    "join":2,
    "noble":2,
    "marxist":2,
    "fascist":2,
    "hide":2,
    "raises":2,
    "view":2,
    "withdrawn":2,
    "stronger":2,
    "talks":2,
    "yours":2,
    "stew":2,
    "lawyer":2,
    "far":2,
    "having":2,
    "finish":2,
    "sleek":2,
    "crisp":2,
    "flags":2,
    "step":2,
    "wave":2,
    "germany":2,
    "prefer":2,
    "champagne":2,
    "hurries":2,
    "lieutenant":2,
    "child":2,
    "horror":2,
    "wheel":2,
    "races":2,
    "hides":2,
    "caught":2,
    "staring":2,
    "heres":2,
    "humiliate":2,
    "stories":2,
    "weakness":2,
    "turned":2,
    "phony":2,
    "theyd":2,
    "killing":2,
    "shaking":2,
    "feelings":2,
    "impossible":2,
    "talking":2,
    "suffered":2,
    "companions":2,
    "years":2,
    "hardly":2,
    "letters":2,
    "lonely":2,
    "drawn":2,
    "continue":2,
    "hurry":2,
    "evening":2,
    "among":2,
    "lasagna":2,
    "finished":2,
    "weve":2,
    "known":2,
    "unhappy":2,
    "laughs":2,
    "became":2,
    "ago":2,
    "sadness":2,
    "rest":2,
    "lays":2,
    "husband":2,
    "fucked":2,
    "gonna":2,
    "feels":2,
    "ulcer":2,
    "acting":2,
    "hour":2,
    "effort":2,
    "embraces":2,
    "touches":2,
    "blood":2,
    "dashes":2,
    "taxi":2,
    "pocket":2,
    "chicken":2,
    "revealing":2,
    "trembles":2,
    "sight":2,
    "stay":2,
    "leads":2,
    "salon":2,
    "portrait":2,
    "flanked":2,
    "fears":2,
    "hitlers":2,
    "alive":2,
    "ear":2,
    "military":2,
    "throngs":2,
    "liberate":2,
    "kissing":2,
    "trance":2,
    "proof":2,
    "hurls":2,
    "metal":2,
    "ducks":2,
    "doing":2,
    "reality":2,
    "fist":2,
    "backs":2,
    "jerk":2,
    "throws":2,
    "pants":2,
    "genitals":2,
    "spoon":2,
    "naked":2,
    "shoved":2,
    "brink":2,
    "slumps":2,
    "handcuffs":2,
    "fault":2,
    "applause":2,
    "bound":2,
    "send":2,
    "lies":2,
    "bomb":2,
    "pour":2,
    "infirmary":2,
    "closes":2,
    "wristwatch":2,
    "weaker":2,
    "mistake":2,
    "shouldnt":2,
    "piss":2,
    "forever":2,
    "valentina":2,
    "awakes":2,
    "reflection":2,
    "butcher":2,
    "phonograph":2,
    "slips":2,
    "kneels":2,
    "foot":2,
    "tremble":2,
    "fast":2,
    "silver":2,
    "hurts":2,
    "breaks":2,
    "soiled":2,
    "toilet":2,
    "paper":2,
    "sitting":2,
    "removes":2,
    "covered":2,
    "sheet":2,
    "wraps":2,
    "touched":2,
    "politics":2,
    "scans":2,
    "false":2,
    "fell":2,
    "nude":2,
    "movement":2,
    "bathroom":2,
    "breakfast":2,
    "softly":2,
    "terrace":2,
    "relationship":2,
    "suffer":2,
    "shoulder":2,
    "streets":2,
    "wornout":2,
    "land":2,
    "hearing":2,
    "information":2,
    "needed":2,
    "wears":2,
    "shake":2,
    "warmly":2,
    "satisfied":2,
    "luck":2,
    "glad":2,
    "parked":2,
    "emerge":2,
    "covers":2,
    "guilt":2,
    "loving":2,
    "martyr":2,
    "hold":2,
    "bath":2,
    "smoke":2,
    "suspicious":2,
    "agent":2,
    "risk":2,
    "pardon":2,
    "nearly":2,
    "poison":2,
    "become":2,
    "wipe":2,
    "nose":2,
    "person":2,
    "group":2,
    "visit":2,
    "idiot":2,
    "fool":2,
    "recognizes":2,
    "quicker":2,
    "bag":2,
    "bring":2,
    "soap":2,
    "piece":2,
    "lights":2,
    "cream":2,
    "sunlit":2,
    "felt":2,
    "arranges":2,
    "museum":2,
    "headquarters":2,
    "begs":2,
    "meeting":2,
    "shoots":2,
    "topples":2,
    "gripping":2,
    "healthy":2,
    "getting":2,
    "spoil":2,
    "glazed":2,
    "silent":2,
    "mad":2,
    "unable":2,
    "supposed":2,
    "attached":2,
    "lose":2,
    "thinks":2,
    "asking":2,
    "friendship":2,
    "parole":2,
    "ministry":2,
    "fair":2,
    "lived":2,
    "bunch":2,
    "queens":2,
    "throat":2,
    "tropical":2,
    "island":2,
    "ocean":2,
    "dense":2,
    "web":2,
    "lush":2,
    "exotic":2,
    "foliage":2,
    "shipwrecked":2,
    "waterlogged":2,
    "rowboat":2,
    "shoulders":2,
    "scar":2,
    "scared":2,
    "less":2,
    "circle":2,
    "handle":2,
    "stupid":2,
    "suitcase":2,
    "asleep":2,
    "gate":2,
    "smiles":2,
    "dish":2,
    "subsequent":2,
    "surveillance":2,
    "reveals":2,
    "red":2,
    "scarf":2,
    "account":2,
    "grateall":2,
    "rubbish":2,
    "thirty":2,
    "silhouettes":2,
    "yet":3,
    "loves":3,
    "children":3,
    "boys":3,
    "card":3,
    "waiter":3,
    "dishes":3,
    "kitchen":3,
    "resumes":3,
    "today":3,
    "school":3,
    "return":3,
    "ask":3,
    "father":3,
    "accepts":3,
    "month":3,
    "closed":3,
    "shadows":3,
    "shame":3,
    "making":3,
    "times":3,
    "stinkhole":3,
    "approach":3,
    "worked":3,
    "english":3,
    "several":3,
    "exhausted":3,
    "sofa":3,
    "sips":3,
    "regular":3,
    "officer":3,
    "business":3,
    "slums":3,
    "speaks":3,
    "tells":3,
    "job":3,
    "wants":3,
    "sick":3,
    "cellmate":3,
    "show":3,
    "torture":3,
    "doorman":3,
    "large":3,
    "walks":3,
    "realizes":3,
    "hiding":3,
    "drag":3,
    "build":3,
    "rushes":3,
    "note":3,
    "cannot":3,
    "looking":3,
    "romantic":3,
    "ceiling":3,
    "isnt":3,
    "helps":3,
    "cause":3,
    "disgust":3,
    "story":3,
    "spot":3,
    "girlfriend":3,
    "paris":3,
    "second":3,
    "magnificent":3,
    "troops":3,
    "history":3,
    "others":3,
    "trying":3,
    "escape":3,
    "jews":3,
    "whispers":3,
    "break":3,
    "nearby":3,
    "driver":3,
    "saw":3,
    "freedom":3,
    "upset":3,
    "rather":3,
    "michelle":3,
    "matters":3,
    "elegant":3,
    "sings":3,
    "high":3,
    "sweet":3,
    "top":3,
    "mind":3,
    "interrogation":3,
    "fucking":3,
    "bastards":3,
    "blondes":3,
    "quickly":3,
    "dawn":3,
    "kneeling":3,
    "peers":3,
    "foodslot":3,
    "hey":3,
    "sounds":3,
    "treat":3,
    "gown":3,
    "breasts":3,
    "skin":3,
    "sometimes":3,
    "flowers":3,
    "sent":3,
    "dressing":3,
    "superimpose":3,
    "began":3,
    "shakes":3,
    "swear":3,
    "four":3,
    "names":3,
    "poor":3,
    "bastard":3,
    "welts":3,
    "enjoy":3,
    "offers":3,
    "try":3,
    "live":3,
    "must":3,
    "anywhere":3,
    "walk":3,
    "playing":3,
    "slowly":3,
    "guy":3,
    "hall":3,
    "longer":3,
    "bowl":3,
    "fight":3,
    "extremely":3,
    "starts":3,
    "may":3,
    "paroled":3,
    "called":3,
    "reason":3,
    "goodbye":3,
    "wine":3,
    "finest":3,
    "traitor":3,
    "perhaps":3,
    "lifts":3,
    "glass":3,
    "strange":3,
    "killed":3,
    "lips":3,
    "helpless":3,
    "homosexuals":3,
    "nights":3,
    "louisa":3,
    "menu":3,
    "refused":3,
    "place":3,
    "five":3,
    "lost":3,
    "guess":3,
    "lingers":3,
    "both":3,
    "comes":3,
    "uh":3,
    "marble":3,
    "butler":3,
    "cold":3,
    "hitler":3,
    "furious":3,
    "clutches":3,
    "pillow":3,
    "flings":3,
    "youd":3,
    "spill":3,
    "mask":3,
    "silence":3,
    "loved":3,
    "start":3,
    "hangs":3,
    "sniffs":3,
    "theyve":3,
    "short":3,
    "gone":3,
    "hang":3,
    "wipes":3,
    "plays":3,
    "guts":3,
    "laugh":3,
    "uses":3,
    "bucket":3,
    "tugs":3,
    "smell":3,
    "shower":3,
    "envelope":3,
    "martas":3,
    "sunlight":3,
    "wanted":3,
    "left":3,
    "living":3,
    "code":3,
    "passport":3,
    "guns":3,
    "agents":3,
    "gaze":3,
    "seated":3,
    "dammit":3,
    "remains":3,
    "least":3,
    "close":3,
    "wrinkles":3,
    "stairs":3,
    "bit":3,
    "24":3,
    "graveyard":3,
    "bank":3,
    "arcade":3,
    "quiet":4,
    "dignity":4,
    "side":4,
    "money":4,
    "dear":4,
    "music":4,
    "jungle":4,
    "whole":4,
    "saying":4,
    "puts":4,
    "patio":4,
    "blessed":4,
    "moment":4,
    "himself":4,
    "although":4,
    "narrow":4,
    "past":4,
    "corner":4,
    "speak":4,
    "perfect":4,
    "cheap":4,
    "goodnight":4,
    "front":4,
    "desk":4,
    "fingers":4,
    "massive":4,
    "wake":4,
    "lovers":4,
    "rolls":4,
    "thin":4,
    "while":4,
    "wearing":4,
    "finds":4,
    "bolero":4,
    "totally":4,
    "film":4,
    "propaganda":4,
    "germans":4,
    "part":4,
    "gestapo":4,
    "kisses":4,
    "nazis":4,
    "filled":4,
    "dressed":4,
    "anyway":4,
    "matter":4,
    "gotta":4,
    "faggot":4,
    "picks":4,
    "run":4,
    "deeply":4,
    "which":4,
    "aside":4,
    "wrapped":4,
    "blanket":4,
    "nice":4,
    "before":4,
    "jesus":4,
    "thinking":4,
    "prisoners":4,
    "thanks":4,
    "respect":4,
    "eating":4,
    "pleasure":4,
    "myself":4,
    "change":4,
    "word":4,
    "knew":4,
    "lucky":4,
    "courtyard":4,
    "between":4,
    "watch":4,
    "great":4,
    "ahead":4,
    "behind":4,
    "limousine":4,
    "motions":4,
    "floor":4,
    "turning":4,
    "everyone":4,
    "trust":4,
    "near":4,
    "tries":4,
    "true":4,
    "hard":4,
    "ready":4,
    "went":4,
    "straight":4,
    "lenis":4,
    "fall":4,
    "reaches":4,
    "edge":4,
    "legs":4,
    "chateau":4,
    "leader":4,
    "people":4,
    "depressed":4,
    "promise":4,
    "drops":4,
    "giant":4,
    "trousers":4,
    "died":4,
    "mirror":4,
    "pushes":4,
    "hours":4,
    "cousin":4,
    "keeps":4,
    "checks":4,
    "said":4,
    "dog":4,
    "agony":4,
    "piano":4,
    "slides":4,
    "embrace":4,
    "once":4,
    "wondered":4,
    "hood":4,
    "probably":4,
    "chair":4,
    "wasnt":4,
    "wait":4,
    "message":4,
    "candy":4,
    "heartshaped":4,
    "light":4,
    "sedan":4,
    "plaza":4,
    "seen":5,
    "son":5,
    "district":5,
    "write":5,
    "answer":5,
    "spider":5,
    "clean":5,
    "listening":5,
    "glances":5,
    "save":5,
    "leaving":5,
    "big":5,
    "hotel":5,
    "havent":5,
    "stand":5,
    "listen":5,
    "doctor":5,
    "happen":5,
    "police":5,
    "singing":5,
    "lover":5,
    "someone":5,
    "pans":5,
    "arregui":5,
    "blows":5,
    "cigarette":5,
    "under":5,
    "crying":5,
    "strength":5,
    "home":5,
    "without":5,
    "mary":5,
    "political":5,
    "during":5,
    "important":5,
    "appears":5,
    "france":5,
    "resistance":5,
    "runs":5,
    "voice":5,
    "hope":5,
    "revolution":5,
    "sound":5,
    "shut":5,
    "station":5,
    "beautiful":5,
    "sit":5,
    "since":5,
    "anymore":5,
    "darkness":5,
    "mothers":5,
    "arent":5,
    "faces":5,
    "pain":5,
    "guard":5,
    "heard":5,
    "hospital":5,
    "itll":5,
    "real":5,
    "keep":5,
    "friend":5,
    "call":5,
    "forgive":5,
    "first":5,
    "returns":5,
    "might":5,
    "happened":5,
    "wish":5,
    "chest":5,
    "everything":5,
    "feet":5,
    "hell":5,
    "beach":5,
    "heart":6,
    "year":6,
    "leaves":6,
    "bar":6,
    "moves":6,
    "pay":6,
    "smile":6,
    "remember":6,
    "three":6,
    "lewis":6,
    "tomorrow":6,
    "song":6,
    "gazes":6,
    "hurt":6,
    "feeling":6,
    "dark":6,
    "empty":6,
    "find":6,
    "mean":6,
    "ever":6,
    "along":6,
    "read":6,
    "crowd":6,
    "inside":6,
    "movies":6,
    "stage":6,
    "every":6,
    "thought":6,
    "yeah":6,
    "crap":6,
    "forward":6,
    "made":6,
    "guards":6,
    "bunk":6,
    "shirt":6,
    "soon":6,
    "avocado":6,
    "wouldnt":6,
    "arm":6,
    "order":6,
    "touch":6,
    "struggle":6,
    "greta":6,
    "almost":6,
    "give":6,
    "grabs":6,
    "worse":6,
    "box":6,
    "water":6,
    "onto":6,
    "done":6,
    "put":6,
    "wardens":6,
    "number":6,
    "suspect":6,
    "says":7,
    "boy":7,
    "begins":7,
    "waiting":7,
    "senhor":7,
    "next":7,
    "bars":7,
    "apartment":7,
    "anyone":7,
    "pulls":7,
    "gets":7,
    "morning":7,
    "lets":7,
    "tired":7,
    "young":7,
    "finally":7,
    "suddenly":7,
    "against":7,
    "secret":7,
    "such":7,
    "each":7,
    "wonderful":7,
    "imagine":7,
    "men":7,
    "few":7,
    "didnt":7,
    "cabaret":7,
    "prisoner":7,
    "wrong":7,
    "damn":7,
    "dream":7,
    "hate":7,
    "theyre":7,
    "makes":7,
    "stomach":7,
    "end":7,
    "yourself":7,
    "weak":7,
    "theres":7,
    "kind":7,
    "turns":7,
    "rafael":7,
    "care":7,
    "die":7,
    "beside":7,
    "americo":7,
    "small":8,
    "these":8,
    "knows":8,
    "stands":8,
    "old":8,
    "dead":8,
    "camera":8,
    "arms":8,
    "leans":8,
    "shit":8,
    "best":8,
    "move":8,
    "truck":8,
    "already":8,
    "else":8,
    "black":8,
    "id":8,
    "head":8,
    "whos":8,
    "train":8,
    "country":8,
    "youve":8,
    "hear":8,
    "women":8,
    "letter":8,
    "friends":8,
    "very":9,
    "wont":9,
    "doesnt":9,
    "forget":9,
    "restaurant":9,
    "told":9,
    "darling":9,
    "takes":9,
    "looks":9,
    "kiss":9,
    "watches":9,
    "stares":9,
    "meet":9,
    "enters":9,
    "body":9,
    "stops":9,
    "days":9,
    "opens":9,
    "cup":9,
    "around":9,
    "happy":9,
    "new":10,
    "table":10,
    "last":10,
    "name":10,
    "thank":10,
    "work":10,
    "help":10,
    "coffee":10,
    "need":10,
    "after":10,
    "candle":10,
    "until":10,
    "being":10,
    "does":10,
    "world":10,
    "french":10,
    "map":10,
    "afraid":10,
    "sure":10,
    "corridor":10,
    "eat":10,
    "maybe":10,
    "had":10,
    "sorry":11,
    "tea":11,
    "office":11,
    "own":11,
    "still":11,
    "course":11,
    "stop":11,
    "us":11,
    "another":11,
    "oh":11,
    "phone":11,
    "toward":11,
    "many":11,
    "marta":11,
    "pedro":11,
    "come":12,
    "other":12,
    "long":12,
    "should":12,
    "their":12,
    "going":12,
    "where":12,
    "worry":12,
    "open":12,
    "shes":12,
    "blonde":12,
    "hand":12,
    "steps":12,
    "our":12,
    "way":12,
    "would":12,
    "hands":12,
    "tears":12,
    "room":13,
    "alone":13,
    "car":13,
    "same":13,
    "nazi":13,
    "too":14,
    "sad":14,
    "approaches":14,
    "things":14,
    "understand":14,
    "mama":14,
    "sits":14,
    "little":14,
    "much":14,
    "god":14,
    "any":14,
    "ive":14,
    "whats":14,
    "german":14,
    "food":14,
    "yes":14,
    "sir":14,
    "hes":15,
    "across":15,
    "am":15,
    "than":15,
    "could":15,
    "down":15,
    "really":15,
    "something":15,
    "sleep":15,
    "been":15,
    "sees":15,
    "wall":15,
    "got":15,
    "or":15,
    "off":15,
    "make":15,
    "okay":16,
    "please":16,
    "youll":16,
    "there":16,
    "clubfoot":16,
    "let":16,
    "some":16,
    "feel":16,
    "them":17,
    "mother":17,
    "talk":17,
    "away":17,
    "good":17,
    "gabriel":18,
    "were":18,
    "through":18,
    "think":18,
    "better":18,
    "right":18,
    "did":19,
    "over":19,
    "even":19,
    "go":19,
    "prison":19,
    "werners":19,
    "always":19,
    "life":20,
    "leave":20,
    "then":20,
    "because":20,
    "street":21,
    "time":21,
    "again":21,
    "two":21,
    "valentins":21,
    "warden":21,
    "look":22,
    "well":22,
    "anything":22,
    "has":23,
    "say":23,
    "will":23,
    "bed":23,
    "door":23,
    "thing":23,
    "window":24,
    "nothing":24,
    "movie":24,
    "here":24,
    "woman":25,
    "molinas":25,
    "an":26,
    "more":26,
    "eyes":26,
    "werner":26,
    "ext":27,
    "now":27,
    "tell":27,
    "only":28,
    "thats":29,
    "never":29,
    "into":29,
    "want":30,
    "see":30,
    "when":30,
    "by":31,
    "ill":31,
    "love":32,
    "youre":32,
    "take":32,
    "cant":33,
    "we":33,
    "why":34,
    "who":35,
    "man":35,
    "back":36,
    "face":36,
    "how":37,
    "cell":39,
    "have":40,
    "get":41,
    "was":41,
    "about":42,
    "can":42,
    "all":43,
    "out":44,
    "leni":44,
    "its":47,
    "not":48,
    "just":48,
    "one":50,
    "know":50,
    "they":50,
    "day":51,
    "if":52,
    "night":52,
    "im":52,
    "as":55,
    "up":55,
    "from":57,
    "do":59,
    "int":59,
    "be":61,
    "but":62,
    "him":67,
    "are":68,
    "what":68,
    "this":69,
    "so":70,
    "for":73,
    "like":75,
    "she":75,
    "no":78,
    "on":79,
    "at":82,
    "your":84,
    "that":84,
    "dont":88,
    "my":98,
    "cut":99,
    "he":100,
    "with":103,
    "me":112,
    "her":113,
    "valentin":113,
    "":131,
    "it":135,
    "of":157,
    "is":167,
    "in":172,
    "molina":174,
    "his":184,
    "and":271,
    "i":277,
    "you":327,
    "to":366,
    "a":385,
    "the":681
}