{
    "blew":1,
    "revlons":1,
    "receipts":1,
    "small":1,
    "sweat":1,
    "relax":1,
    "runt":1,
    "guy":1,
    "starts":1,
    "cough":1,
    "goin":1,
    "geezer":1,
    "poor":1,
    "sonofabitch":1,
    "screw":1,
    "blocks":1,
    "retires":1,
    "feeling":1,
    "kick":1,
    "upstairs":1,
    "takin":1,
    "turning":1,
    "fivefifteen":1,
    "afternoon":1,
    "officially":1,
    "excess":1,
    "keys":1,
    "needing":1,
    "busy":1,
    "american":1,
    "express":1,
    "bloomingdales":1,
    "credit":1,
    "card":1,
    "book":1,
    "savings":1,
    "bank":1,
    "slips":1,
    "laundry":1,
    "ready":1,
    "regret":1,
    "paid":1,
    "rent":1,
    "coned":1,
    "phone":1,
    "least":1,
    "finished":1,
    "walking":1,
    "truly":1,
    "hack":1,
    "yell":1,
    "window":1,
    "friend":1,
    "innocent":1,
    "perfectly":1,
    "ha":1,
    "nice":1,
    "door":1,
    "mustve":1,
    "used":1,
    "dragging":1,
    "swell":1,
    "occur":1,
    "easiest":1,
    "hermit":1,
    "recluse":1,
    "entertained":1,
    "socially":1,
    "shits":1,
    "wonder":1,
    "scraps":1,
    "wouldve":1,
    "noticed":1,
    "typhoid":1,
    "mary":1,
    "takes":1,
    "argument":1,
    "herself":1,
    "mad":1,
    "breakfast":1,
    "kiddo":1,
    "fix":1,
    "specialty":1,
    "eggs":1,
    "milk":1,
    "orange":1,
    "oj":1,
    "bitch":1,
    "forgets":1,
    "runned":1,
    "truck":1,
    "killed":1,
    "news":1,
    "celebrating":1,
    "blockbuster":1,
    "figured":1,
    "loser":1,
    "agrees":1,
    "oldest":1,
    "whore":1,
    "marriages":1,
    "joannall":1,
    "advice":1,
    "relatives":1,
    "straightened":1,
    "sound":1,
    "landed":1,
    "biggest":1,
    "history":1,
    "deliver":1,
    "goods":1,
    "depend":1,
    "percent":1,
    "runny":1,
    "nose":1,
    "letter":1,
    "dear":1,
    "daddies":1,
    "mommies":1,
    "boys":1,
    "everybody":1,
    "writing":1,
    "heart":1,
    "nothing":1,
    "calling":1,
    "water":1,
    "bottle":1,
    "whos":1,
    "230":1,
    "east":1,
    "76th":1,
    "472":1,
    "8227":1,
    "fifty":1,
    "bucks":1,
    "visit":1,
    "nearest":1,
    "hospital":1,
    "lenox":1,
    "hill":1,
    "77th":1,
    "lex":1,
    "emergency":1,
    "327":1,
    "colors":1,
    "pile":1,
    "white":1,
    "shirts":1,
    "brush":1,
    "teeth":1,
    "towel":1,
    "flush":1,
    "toilet":1,
    "feet":1,
    "joke":1,
    "polish":1,
    "skydiver":1,
    "kline":1,
    "afraid":1,
    "nervous":1,
    "mark":1,
    "fingers":1,
    "yankees":1,
    "game":1,
    "excused":1,
    "hungry":1,
    "cake":1,
    "younger":1,
    "cousin":1,
    "mine":1,
    "instead":1,
    "angry":1,
    "bedrooms":1,
    "phew":1,
    "pig":1,
    "sty":1,
    "troubles":1,
    "floors":1,
    "windows":1,
    "wednesdays":1,
    "shy":1,
    "soap":1,
    "box":1,
    "difference":1,
    "pink":1,
    "color":1,
    "cereal":1,
    "duty":1,
    "fivethirty":1,
    "lady":1,
    "pro":1,
    "childrens":1,
    "zoo":1,
    "pure":1,
    "darling":1,
    "barbara":1,
    "due":1,
    "til":1,
    "board":1,
    "figures":1,
    "lombardo":1,
    "packaging":1,
    "kelsey":1,
    "stephanies":1,
    "party":1,
    "crying":1,
    "chrissie":1,
    "doll":1,
    "hiya":1,
    "contracts":1,
    "oclock":1,
    "closing":1,
    "centre":1,
    "mmmmnph":1,
    "clients":1,
    "dunno":1,
    "sleeping":1,
    "marry":1,
    "till":1,
    "death":1,
    "add":1,
    "basil":1,
    "charleyll":1,
    "fling":1,
    "logic":1,
    "farther":1,
    "bat":1,
    "art":1,
    "department":1,
    "roughs":1,
    "basically":1,
    "added":1,
    "hour":1,
    "nothings":1,
    "locked":1,
    "cement":1,
    "elephant":1,
    "catch":1,
    "pulling":1,
    "weight":1,
    "busting":1,
    "decent":1,
    "notice":1,
    "bedtime":1,
    "yelled":1,
    "catching":1,
    "flack":1,
    "buying":1,
    "perrier":1,
    "lime":1,
    "oconnors":1,
    "gentleman":1,
    "buddy":1,
    "count":1,
    "shoot":1,
    "dope":1,
    "thatll":1,
    "palling":1,
    "worlds":1,
    "naive":1,
    "ad":1,
    "layout":1,
    "gave":1,
    "conference":1,
    "decisions":1,
    "approval":1,
    "garbage":1,
    "final":1,
    "gravy":1,
    "plain":1,
    "hamburger":1,
    "spoiled":1,
    "brat":1,
    "owwww":1,
    "bargain":1,
    "mm":1,
    "ommy":1,
    "stuck":1,
    "mmmo":1,
    "mmo":1,
    "mmy":1,
    "cause":1,
    "explain":1,
    "kept":1,
    "certain":1,
    "meant":1,
    "truth":1,
    "stayed":1,
    "longer":1,
    "san":1,
    "francisco":1,
    "tennis":1,
    "presenting":1,
    "fantastic":1,
    "superjet":1,
    "brave":1,
    "cleaned":1,
    "inch":1,
    "caught":1,
    "stitches":1,
    "wound":1,
    "plastic":1,
    "surgeon":1,
    "advise":1,
    "outside":1,
    "eas":1,
    "ohhh":1,
    "ohhhh":1,
    "ohhhhh":1,
    "f":1,
    "responsibility":1,
    "havent":1,
    "waits":1,
    "thanks":1,
    "gino":1,
    "fell":1,
    "somehow":1,
    "couldve":1,
    "stopped":1,
    "distance":1,
    "sat":1,
    "watching":1,
    "past":1,
    "city":1,
    "looking":1,
    "mind":1,
    "crappy":1,
    "defensive":1,
    "screwed":1,
    "elses":1,
    "twoyearold":1,
    "highly":1,
    "neurotic":1,
    "changes":1,
    "learn":1,
    "rationally":1,
    "desertion":1,
    "especially":1,
    "second":1,
    "burden":1,
    "win":1,
    "end":1,
    "costs":1,
    "hired":1,
    "cases":1,
    "involving":1,
    "tends":1,
    "side":1,
    "signed":1,
    "helpful":1,
    "matters":1,
    "list":1,
    "pros":1,
    "cons":1,
    "whip":1,
    "asses":1,
    "marketing":1,
    "tests":1,
    "results":1,
    "disappointing":1,
    "pulled":1,
    "fourteen":1,
    "share":1,
    "hoping":1,
    "minimum":1,
    "rethink":1,
    "firing":1,
    "bitches":1,
    "blood":1,
    "ummm":1,
    "umm":1,
    "worst":1,
    "thinks":1,
    "bonus":1,
    "theyve":1,
    "date":1,
    "sixth":1,
    "situation":1,
    "lie":1,
    "winning":1,
    "prospects":1,
    "yesterday":1,
    "midfebruary":1,
    "march":1,
    "latest":1,
    "positions":1,
    "fishing":1,
    "expedition":1,
    "happier":1,
    "commission":1,
    "arent":1,
    "ass":1,
    "resume":1,
    "setting":1,
    "leisure":1,
    "package":1,
    "spent":1,
    "working":1,
    "lines":1,
    "multiple":1,
    "buys":1,
    "regional":1,
    "pitfalls":1,
    "potential":1,
    "revenue":1,
    "company":1,
    "inherent":1,
    "programs":1,
    "impressive":1,
    "director":1,
    "twoweek":1,
    "leaves":1,
    "gogetter":1,
    "jack":1,
    "touch":1,
    "twofive":1,
    "offering":1,
    "holidays":1,
    "worth":1,
    "twentytwo":1,
    "aboard":1,
    "pleased":1,
    "merry":1,
    "legal":1,
    "kidnaps":1,
    "honestly":1,
    "suing":1,
    "kidnapping":1,
    "brutally":1,
    "honest":1,
    "mental":1,
    "shape":1,
    "admitted":1,
    "walls":1,
    "seventyfifth":1,
    "entrance":1,
    "central":1,
    "naturally":1,
    "assume":1,
    "compelling":1,
    "major":1,
    "appellate":1,
    "1969":1,
    "ruled":1,
    "thus":1,
    "establishing":1,
    "precedent":1,
    "awarding":1,
    "previously":1,
    "abandoned":1,
    "washington":1,
    "hew":1,
    "pass":1,
    "handling":1,
    "funding":1,
    "miss":1,
    "prepare":1,
    "evaluation":1,
    "sheet":1,
    "attempt":1,
    "conduct":1,
    "social":1,
    "discreetly":1,
    "distress":1,
    "particularly":1,
    "prospect":1,
    "brooklyn":1,
    "names":1,
    "robin":1,
    "leading":1,
    "restaurant":1,
    "hits":1,
    "planet":1,
    "kriptarium":1,
    "steal":1,
    "buried":1,
    "treasure":1,
    "famous":1,
    "factory":1,
    "silly":1,
    "desk":1,
    "yep":1,
    "neat":1,
    "shed":1,
    "circuit":1,
    "state":1,
    "presiding":1,
    "session":1,
    "rise":1,
    "throat":1,
    "increasingly":1,
    "wish":1,
    "refuses":1,
    "hire":1,
    "babysitter":1,
    "jantzen":1,
    "sportswear":1,
    "designer":1,
    "salary":1,
    "thirtyone":1,
    "chose":1,
    "frustrated":1,
    "turned":1,
    "handle":1,
    "threatened":1,
    "whenever":1,
    "act":1,
    "attack":1,
    "separate":1,
    "husbands":1,
    "attitude":1,
    "unwillingness":1,
    "selfesteem":1,
    "sincerely":1,
    "believed":1,
    "realize":1,
    "outlet":1,
    "evidence":1,
    "therapist":1,
    "elinore":1,
    "freedman":1,
    "la":1,
    "jolla":1,
    "residence":1,
    "separated":1,
    "asking":1,
    "hopes":1,
    "dreams":1,
    "pain":1,
    "cheaper":1,
    "gotten":1,
    "worked":1,
    "become":1,
    "alcoholic":1,
    "heavy":1,
    "drinker":1,
    "unfaithful":1,
    "fail":1,
    "provide":1,
    "friends":1,
    "lovers":1,
    "somewhere":1,
    "request":1,
    "allow":1,
    "remain":1,
    "continuing":1,
    "stable":1,
    "regarded":1,
    "prevented":1,
    "fit":1,
    "virtually":1,
    "undertaken":1,
    "adult":1,
    "girlfriends":1,
    "whom":1,
    "speak":1,
    "success":1,
    "ended":1,
    "rewritten":1,
    "matrimonial":1,
    "both":1,
    "model":1,
    "stability":1,
    "respectability":1,
    "succeeded":1,
    "succeed":1,
    "drive":1,
    "hustler":1,
    "run":1,
    "letting":1,
    "duties":1,
    "interfere":1,
    "responsibilities":1,
    "unemployed":1,
    "witnesses":1,
    "930":1,
    "dream":1,
    "jeannie":1,
    "nope":1,
    "invented":1,
    "mcdonalds":1,
    "astronauts":1,
    "frozen":1,
    "yogurt":1,
    "known":1,
    "moved":1,
    "building":1,
    "often":1,
    "generous":1,
    "vague":1,
    "relates":1,
    "spends":1,
    "reads":1,
    "devoted":1,
    "trial":1,
    "wishes":1,
    "undone":1,
    "explained":1,
    "ambitions":1,
    "token":1,
    "simply":1,
    "virtue":1,
    "makes":1,
    "constancy":1,
    "understanding":1,
    "written":1,
    "qualities":1,
    "asleep":1,
    "weeks":1,
    "technically":1,
    "seventy":1,
    "examining":1,
    "mans":1,
    "employment":1,
    "record":1,
    "pretends":1,
    "fitness":1,
    "cannot":1,
    "nearly":1,
    "responsible":1,
    "disfigured":1,
    "germane":1,
    "proceedings":1,
    "badly":1,
    "scarred":1,
    "affidavits":1,
    "however":1,
    "unless":1,
    "deny":1,
    "questioning":1,
    "concluded":1,
    "passing":1,
    "brought":1,
    "interested":1,
    "sort":1,
    "seems":1,
    "ordered":1,
    "adjudged":1,
    "decreed":1,
    "awarded":1,
    "minor":1,
    "effective":1,
    "23rd":1,
    "maintenance":1,
    "shall":1,
    "following":1,
    "visitation":1,
    "weekend":1,
    "mutually":1,
    "agreed":1,
    "upon":1,
    "half":1,
    "appeal":1,
    "guarantee":1,
    "chances":1,
    "money":1,
    "pays":1,
    "packed":1,
    "country":1,
    "bout":1,
    "william":1,
    "grape":1,
    "loss":1,
    "also":1,
    "health":1,
    "store":1,
    "supermarket":1,
    "nightmares":1,
    "monster":1,
    "determine":1,
    "body":1,
    "sexual":1,
    "penis":1,
    "anger":1,
    "sundafed":1,
    "colds":1,
    "tablespoon":1,
    "pack":1,
    "suitcase":1,
    "babar":1,
    "winnie":1,
    "pooh":1,
    "moving":1,
    "housekeeper":1,
    "etta":1,
    "note":1,
    "loving":1,
    "conscientious":1,
    "concerned":1,
    "cares":1,
    "urge":1,
    "7228099":1,
    "eventually":1,
    "repeat":1,
    "grateful":1,
    "discussion":1,
    "wise":1,
    "decides":1,
    "decide":1,
    "powerful":1,
    "bigger":1,
    "robes":1,
    "apartment":1,
    "weekends":1,
    "comes":1,
    "mommys":1,
    "knows":1,
    "cold":1,
    "warm":1,
    "scoot":1,
    "doin":1,
    "bread":1,
    "hustle":1,
    "lobby":1,
    "alone":1,
    "knew":1,
    "twentyseven":1,
    "mess":1,
    "hardest":1,
    "anybody":1,
    "faces":1,
    "seemed":1,
    "courtroom":1,
    "counts":1,
    "drop":2,
    "represents":2,
    "billing":2,
    "everythings":2,
    "shouldnt":2,
    "heres":2,
    "wanna":2,
    "sold":2,
    "pitch":2,
    "sudden":2,
    "keeps":2,
    "coughing":2,
    "early":2,
    "gotta":2,
    "starting":2,
    "turn":2,
    "blue":2,
    "rush":2,
    "already":2,
    "schmidt":2,
    "theyll":2,
    "running":2,
    "might":2,
    "handed":2,
    "check":2,
    "cleaning":2,
    "everybodys":2,
    "normal":2,
    "taking":2,
    "awful":2,
    "try":2,
    "sooner":2,
    "cab":2,
    "point":2,
    "wheres":2,
    "tonight":2,
    "ohmygod":2,
    "hurt":2,
    "table":2,
    "attention":2,
    "selfish":2,
    "met":2,
    "paying":2,
    "split":2,
    "courage":2,
    "hand":2,
    "moms":2,
    "forgot":2,
    "absolutely":2,
    "goddam":2,
    "remind":2,
    "happens":2,
    "gets":2,
    "kicker":2,
    "beat":2,
    "divorces":2,
    "none":2,
    "butt":2,
    "send":2,
    "main":2,
    "twentyfour":2,
    "worried":2,
    "appreciate":2,
    "sweet":2,
    "straight":2,
    "problem":2,
    "fifteen":2,
    "hot":2,
    "pediatrician":2,
    "ed":2,
    "davies":2,
    "write":2,
    "telling":2,
    "twice":2,
    "park":2,
    "number":2,
    "slow":2,
    "hang":2,
    "drink":2,
    "waiting":2,
    "mothers":2,
    "usual":2,
    "won":2,
    "birthday":2,
    "staying":2,
    "parents":2,
    "scared":2,
    "creative":2,
    "green":2,
    "yellow":2,
    "bethesda":2,
    "fountain":2,
    "kill":2,
    "august":2,
    "ladies":2,
    "television":2,
    "asked":2,
    "period":2,
    "meet":2,
    "tuesday":2,
    "fried":2,
    "liked":2,
    "children":2,
    "part":2,
    "sense":2,
    "forget":2,
    "loved":2,
    "swing":2,
    "throw":2,
    "report":2,
    "talked":2,
    "rule":2,
    "murrays":2,
    "trust":2,
    "sits":2,
    "fence":2,
    "crap":2,
    "scotch":2,
    "soda":2,
    "crazy":2,
    "damn":2,
    "changed":2,
    "single":2,
    "entire":2,
    "against":2,
    "salisbury":2,
    "steak":2,
    "brown":2,
    "lots":2,
    "young":2,
    "hurting":2,
    "course":2,
    "light":2,
    "eye":2,
    "position":2,
    "sons":2,
    "age":2,
    "scar":2,
    "otherwise":2,
    "fuck":2,
    "evening":2,
    "great":2,
    "cut":2,
    "sitting":2,
    "shops":2,
    "somebodys":2,
    "daughter":2,
    "far":2,
    "shrink":2,
    "kids":2,
    "shut":2,
    "involved":2,
    "exwife":2,
    "unfit":2,
    "cost":2,
    "wifes":2,
    "lawyer":2,
    "issue":2,
    "emotional":2,
    "hmmm":2,
    "nobody":2,
    "january":2,
    "hearing":2,
    "plan":2,
    "within":2,
    "mentioned":2,
    "serious":2,
    "ackerman":2,
    "experience":2,
    "advertising":2,
    "anyone":2,
    "else":2,
    "spencer":2,
    "vacation":2,
    "twentyfive":2,
    "privately":2,
    "certainly":2,
    "rights":2,
    "planning":2,
    "seeing":2,
    "choice":2,
    "vs":2,
    "though":2,
    "offered":2,
    "alvarez":2,
    "atkins":2,
    "sex":2,
    "doctor":2,
    "detroit":2,
    "ones":2,
    "batman":2,
    "peanut":2,
    "butter":2,
    "name":2,
    "chair":2,
    "hadnt":2,
    "oyez":2,
    "motherhood":2,
    "difficult":2,
    "ex":2,
    "employed":2,
    "present":2,
    "during":2,
    "isolated":2,
    "feelings":2,
    "therapy":2,
    "began":2,
    "punished":2,
    "needs":2,
    "correct":2,
    "strike":2,
    "abuse":2,
    "physically":2,
    "overruled":2,
    "lover":2,
    "permanent":2,
    "harassing":2,
    "consider":2,
    "law":2,
    "worker":2,
    "change":2,
    "petitioner":2,
    "respondent":2,
    "phillips":2,
    "particular":2,
    "incident":2,
    "perfect":2,
    "childs":2,
    "injury":2,
    "introducing":2,
    "negligence":2,
    "support":2,
    "month":2,
    "fight":2,
    "circus":2,
    "clown":2,
    "read":2,
    "fear":2,
    "stories":2,
    "principal":2,
    "toys":2,
    "wrong":3,
    "million":3,
    "gross":3,
    "making":3,
    "goodnight":3,
    "tight":3,
    "bedbugs":3,
    "idea":3,
    "days":3,
    "swear":3,
    "die":3,
    "pretty":3,
    "along":3,
    "took":3,
    "thousand":3,
    "saturday":3,
    "youd":3,
    "stop":3,
    "":3,
    "bill":3,
    "listening":3,
    "anymore":3,
    "patience":3,
    "inside":3,
    "help":3,
    "made":3,
    "came":3,
    "pow":3,
    "joannas":3,
    "unhappy":3,
    "dyou":3,
    "felt":3,
    "seven":3,
    "deal":3,
    "business":3,
    "start":3,
    "trouble":3,
    "nine":3,
    "jesus":3,
    "shell":3,
    "chance":3,
    "hope":3,
    "gone":3,
    "bring":3,
    "myself":3,
    "losing":3,
    "raising":3,
    "billys":3,
    "third":3,
    "put":3,
    "meeting":3,
    "bye":3,
    "ago":3,
    "supposed":3,
    "actually":3,
    "place":3,
    "mister":3,
    "lucky":3,
    "willewska":3,
    "monday":3,
    "buy":3,
    "chicken":3,
    "gentlemen":3,
    "welcome":3,
    "greatest":3,
    "earth":3,
    "discuss":3,
    "appointment":3,
    "lunch":3,
    "phyllis":3,
    "ought":3,
    "different":3,
    "hed":3,
    "true":3,
    "thinking":3,
    "ideas":3,
    "campaign":3,
    "close":3,
    "tv":3,
    "goddamnit":3,
    "happen":3,
    "decision":3,
    "pizza":3,
    "food":3,
    "either":3,
    "mmmy":3,
    "bad":3,
    "into":3,
    "stand":3,
    "playing":3,
    "hows":3,
    "seen":3,
    "except":3,
    "across":3,
    "looks":3,
    "yours":3,
    "started":3,
    "learned":3,
    "such":3,
    "shaunessy":3,
    "open":3,
    "prove":3,
    "dollars":3,
    "lose":3,
    "retain":3,
    "those":3,
    "christmas":3,
    "j":3,
    "walter":3,
    "thompson":3,
    "almost":3,
    "dr":3,
    "saw":3,
    "direct":3,
    "describe":3,
    "became":3,
    "exhusband":3,
    "needed":3,
    "recall":3,
    "counsel":3,
    "suppose":3,
    "apple":3,
    "burger":3,
    "king":3,
    "each":3,
    "once":3,
    "says":3,
    "parent":3,
    "counselor":3,
    "bite":4,
    "concept":4,
    "line":4,
    "congratulations":4,
    "next":4,
    "leaving":4,
    "whatever":4,
    "gods":4,
    "fault":4,
    "weve":4,
    "few":4,
    "later":4,
    "talking":4,
    "word":4,
    "exactly":4,
    "house":4,
    "hostile":4,
    "goddamn":4,
    "loves":4,
    "morning":4,
    "dinner":4,
    "always":4,
    "thirty":4,
    "pay":4,
    "human":4,
    "divorce":4,
    "soon":4,
    "french":4,
    "toast":4,
    "bet":4,
    "pick":4,
    "kim":4,
    "marriage":4,
    "matter":4,
    "case":4,
    "rough":4,
    "hundred":4,
    "hours":4,
    "must":4,
    "interesting":4,
    "lets":4,
    "between":4,
    "today":4,
    "goodbye":4,
    "eat":4,
    "finally":4,
    "walked":4,
    "tough":4,
    "probably":4,
    "stuff":4,
    "divorced":4,
    "months":4,
    "doing":4,
    "excuse":4,
    "called":4,
    "friday":4,
    "wants":4,
    "many":4,
    "onions":4,
    "wouldnt":4,
    "trying":4,
    "sit":4,
    "give":4,
    "somebody":4,
    "done":4,
    "shot":4,
    "allergic":4,
    "hard":4,
    "coffee":4,
    "shop":4,
    "haskins":4,
    "yet":4,
    "question":4,
    "sustained":4,
    "longest":4,
    "easy":5,
    "agency":5,
    "without":5,
    "anyway":5,
    "hey":5,
    "yknow":5,
    "wow":5,
    "living":5,
    "sake":5,
    "person":5,
    "problems":5,
    "eight":5,
    "stay":5,
    "hello":5,
    "play":5,
    "use":5,
    "told":5,
    "kramers":5,
    "guys":5,
    "watch":5,
    "getting":5,
    "feel":5,
    "may":5,
    "decided":5,
    "yourself":5,
    "since":5,
    "juice":5,
    "school":5,
    "last":5,
    "find":5,
    "lost":5,
    "bed":5,
    "beautiful":5,
    "itll":5,
    "baby":5,
    "people":5,
    "room":5,
    "hold":5,
    "times":5,
    "reason":5,
    "california":5,
    "york":5,
    "our":5,
    "moment":5,
    "hit":5,
    "remarried":5,
    "fired":5,
    "theyre":6,
    "us":6,
    "sleep":6,
    "couple":6,
    "fire":6,
    "terrible":6,
    "promise":6,
    "tried":6,
    "tomorrow":6,
    "saying":6,
    "day":6,
    "wonderful":6,
    "office":6,
    "world":6,
    "set":6,
    "being":6,
    "leave":6,
    "through":6,
    "while":6,
    "sometimes":6,
    "having":6,
    "happened":6,
    "ten":6,
    "their":6,
    "street":6,
    "wait":6,
    "twenty":6,
    "same":6,
    "dad":6,
    "remember":6,
    "happy":6,
    "again":6,
    "these":6,
    "still":6,
    "around":6,
    "hate":6,
    "answer":6,
    "important":6,
    "less":6,
    "further":6,
    "failure":6,
    "shit":7,
    "revlon":7,
    "five":7,
    "whole":7,
    "keep":7,
    "murray":7,
    "walk":7,
    "show":7,
    "youll":7,
    "better":7,
    "everything":7,
    "favor":7,
    "week":7,
    "enough":7,
    "means":7,
    "boy":7,
    "hear":7,
    "six":7,
    "coming":7,
    "need":7,
    "three":7,
    "doesnt":7,
    "personal":7,
    "minute":7,
    "john":7,
    "face":7,
    "four":7,
    "judge":7,
    "questions":7,
    "permanently":7,
    "went":8,
    "old":8,
    "god":8,
    "ice":8,
    "wont":8,
    "worry":8,
    "wife":8,
    "heard":8,
    "off":8,
    "wanted":8,
    "live":8,
    "big":8,
    "most":8,
    "until":8,
    "isnt":8,
    "who":8,
    "thel":8,
    "theres":8,
    "pal":8,
    "thank":8,
    "couldnt":8,
    "together":8,
    "new":8,
    "father":8,
    "woman":8,
    "custody":8,
    "witness":8,
    "cmon":9,
    "year":9,
    "even":9,
    "ask":9,
    "charley":9,
    "another":9,
    "care":9,
    "court":9,
    "relationship":9,
    "gonna":10,
    "account":10,
    "believe":10,
    "minutes":10,
    "husband":10,
    "night":10,
    "real":10,
    "youve":10,
    "other":10,
    "own":10,
    "oconnor":10,
    "honor":10,
    "fine":11,
    "too":11,
    "best":11,
    "home":11,
    "christ":11,
    "before":11,
    "please":11,
    "huh":11,
    "thelma":11,
    "shes":11,
    "yeah":11,
    "work":11,
    "let":12,
    "hell":12,
    "late":12,
    "listen":12,
    "them":12,
    "after":12,
    "terrific":12,
    "make":12,
    "long":12,
    "first":12,
    "never":12,
    "away":12,
    "does":12,
    "two":13,
    "down":13,
    "over":13,
    "married":13,
    "years":13,
    "kind":13,
    "mom":13,
    "objection":13,
    "man":14,
    "am":14,
    "come":14,
    "kid":14,
    "way":14,
    "should":14,
    "id":14,
    "call":15,
    "take":15,
    "than":15,
    "maybe":15,
    "they":15,
    "thought":15,
    "every":15,
    "left":15,
    "say":16,
    "where":16,
    "whats":16,
    "back":16,
    "by":16,
    "things":16,
    "could":16,
    "some":16,
    "guess":16,
    "understand":17,
    "anything":17,
    "ah":17,
    "uh":17,
    "has":17,
    "much":17,
    "love":18,
    "job":18,
    "wasnt":18,
    "little":19,
    "life":19,
    "talk":19,
    "lot":19,
    "daddy":19,
    "jim":20,
    "only":20,
    "any":20,
    "didnt":20,
    "sure":20,
    "said":21,
    "mother":21,
    "or":21,
    "been":21,
    "an":22,
    "more":22,
    "cant":22,
    "something":23,
    "why":23,
    "ever":23,
    "son":23,
    "sorry":24,
    "hes":24,
    "then":24,
    "because":24,
    "good":25,
    "from":25,
    "mrs":25,
    "will":26,
    "really":26,
    "her":26,
    "as":26,
    "yes":26,
    "his":27,
    "were":27,
    "mommy":28,
    "would":28,
    "out":29,
    "here":29,
    "thing":29,
    "see":29,
    "well":31,
    "oh":32,
    "mean":32,
    "time":32,
    "child":32,
    "when":33,
    "think":34,
    "there":34,
    "one":34,
    "going":34,
    "go":34,
    "had":34,
    "up":35,
    "how":36,
    "we":37,
    "can":37,
    "ive":37,
    "youre":38,
    "very":38,
    "are":39,
    "did":40,
    "so":40,
    "at":40,
    "get":41,
    "all":42,
    "look":42,
    "want":43,
    "ill":43,
    "tell":44,
    "joanna":45,
    "him":45,
    "mr":46,
    "got":47,
    "right":48,
    "now":50,
    "thats":50,
    "like":52,
    "with":52,
    "if":53,
    "okay":54,
    "about":55,
    "its":55,
    "know":56,
    "not":57,
    "billy":57,
    "he":59,
    "she":61,
    "but":62,
    "just":62,
    "on":63,
    "no":64,
    "be":65,
    "for":65,
    "ted":72,
    "kramer":72,
    "do":74,
    "this":78,
    "have":79,
    "was":82,
    "your":84,
    "my":88,
    "dont":90,
    "me":91,
    "what":92,
    "im":93,
    "\u0096":98,
    "in":105,
    "that":109,
    "is":111,
    "of":113,
    "it":134,
    "and":223,
    "a":249,
    "to":269,
    "the":287,
    "you":362,
    "i":469
}