{
    "ok":1,
    "helicopter":1,
    "small":1,
    "school":1,
    "concentrate":1,
    "pointing":1,
    "instead":1,
    "mio":1,
    "palmo":1,
    "count":1,
    "whos":1,
    "six":1,
    "throw":1,
    "brava":1,
    "poor":1,
    "padre":1,
    "papa":1,
    "stones":1,
    "pump":1,
    "america":1,
    "allergic":1,
    "likes":1,
    "refrigerators":1,
    "machines":1,
    "floor":1,
    "unpredictable":1,
    "bars":1,
    "athens":1,
    "extract":1,
    "wreck":1,
    "engine":1,
    "current":1,
    "fucked":1,
    "feeding":1,
    "regularly":1,
    "lira":1,
    "mans":1,
    "worth":1,
    "village":1,
    "saying":1,
    "flags":1,
    "nations":1,
    "flap":1,
    "direction":1,
    "checkbook":1,
    "write":1,
    "sign":1,
    "extortionist":1,
    "bastard":1,
    "painted":1,
    "santini":1,
    "25":1,
    "wax":1,
    "rosary":1,
    "mama":1,
    "lago":1,
    "demonio":1,
    "huacracocha":1,
    "gracias":1,
    "yeah":1,
    "warm":1,
    "intravenous":1,
    "whiskey":1,
    "red":1,
    "goggles":1,
    "dr":1,
    "lawrence":1,
    "halloween":1,
    "restless":1,
    "weeks":1,
    "watches":1,
    "believe":1,
    "experiment":1,
    "dumping":1,
    "frozen":1,
    "fell":1,
    "crevasse":1,
    "melts":1,
    "ice":1,
    "science":1,
    "cruel":1,
    "mistress":1,
    "speed":1,
    "which":1,
    "slowing":1,
    "fluoroscope":1,
    "impressive":1,
    "flow":1,
    "concentrated":1,
    "brain":1,
    "feed":1,
    "limbs":1,
    "phenomena":1,
    "observed":1,
    "soon":1,
    "unless":1,
    "rest":1,
    "blanket":1,
    "mothers":1,
    "spent":1,
    "half":1,
    "states":1,
    "english":1,
    "recognize":1,
    "ago":1,
    "hut":1,
    "looked":1,
    "mistral":1,
    "peuchere":1,
    "olive":1,
    "tree":1,
    "suddenly":1,
    "slept":1,
    "plane":1,
    "bathsheba":1,
    "llama":1,
    "darjeeling":1,
    "catch":1,
    "ta":1,
    "da":1,
    "snow":1,
    "experience":1,
    "missed":1,
    "rascals":1,
    "post":1,
    "card":1,
    "changed":1,
    "sally":1,
    "burgled":1,
    "tv":1,
    "stereo":1,
    "hope":1,
    "remembered":1,
    "microwave":1,
    "yep":1,
    "police":1,
    "detectives":1,
    "number":1,
    "whod":1,
    "cardiogram":1,
    "met":1,
    "jesus":1,
    "stove":1,
    "63":1,
    "61":1,
    "59":1,
    "flippers":1,
    "add":1,
    "height":1,
    "hair":1,
    "peruvian":1,
    "sight":1,
    "recognized":1,
    "315":1,
    "lazarus":1,
    "raised":1,
    "surprise":1,
    "starts":1,
    "ticket":1,
    "dying":1,
    "dumbshit":1,
    "spoiling":1,
    "unfortunately":1,
    "sandwich":1,
    "40":1,
    "floors":1,
    "above":1,
    "boring":1,
    "definitely":1,
    "chief":1,
    "freeze":1,
    "popsicle":1,
    "keeping":1,
    "papers":1,
    "glove":1,
    "compartment":1,
    "customs":1,
    "office":1,
    "copy":1,
    "hows":1,
    "professor":1,
    "reach":1,
    "yours":1,
    "additional":1,
    "information":1,
    "championships":1,
    "cosa":1,
    "nostra":1,
    "documents":1,
    "forged":1,
    "notary":1,
    "phony":1,
    "signature":1,
    "contractor":1,
    "immediately":1,
    "prove":1,
    "forgery":1,
    "hook":1,
    "flight":1,
    "rome":1,
    "hop":1,
    "cardoza":1,
    "bar":1,
    "mitzvohed":1,
    "boss":1,
    "spoke":1,
    "practically":1,
    "taxi":1,
    "reservation":1,
    "san":1,
    "domenico":1,
    "127":1,
    "paint":1,
    "giacomino":1,
    "join":1,
    "stai":1,
    "key":1,
    "hi":1,
    "personally":1,
    "reserve":1,
    "treat":1,
    "stranger":1,
    "somewhere":1,
    "special":1,
    "happens":1,
    "throwing":1,
    "stupido":1,
    "drop":1,
    "countess":1,
    "cemetery":1,
    "frascatti":1,
    "grazie":1,
    "worlds":1,
    "swim":1,
    "beats":1,
    "sexy":1,
    "broad":1,
    "become":1,
    "joined":1,
    "navy":1,
    "experiments":1,
    "pay":1,
    "neither":1,
    "cause":1,
    "curse":1,
    "tornado":1,
    "mule":1,
    "engaged":1,
    "bouncing":1,
    "play":1,
    "field":1,
    "port":1,
    "joking":1,
    "madonna":1,
    "coincidence":1,
    "expecting":1,
    "seat":1,
    "interrupt":1,
    "staying":1,
    "recommended":1,
    "pension":1,
    "investigation":1,
    "palermo":1,
    "gorgeous":1,
    "dedicated":1,
    "traveling":1,
    "agent":1,
    "superb":1,
    "earlier":1,
    "virile":1,
    "admit":1,
    "muscles":1,
    "contracted":1,
    "effort":1,
    "cazzo":1,
    "ma":1,
    "mamia":1,
    "catches":1,
    "restaurant":1,
    "heading":1,
    "toward":1,
    "huge":1,
    "widows":1,
    "luggage":1,
    "madame":1,
    "americana":1,
    "benvenuto":1,
    "helping":1,
    "bag":1,
    "busy":1,
    "liked":1,
    "visit":1,
    "coast":1,
    "competitions":1,
    "ruins":1,
    "mostly":1,
    "taught":1,
    "competitive":1,
    "voluptuous":1,
    "suitcases":1,
    "cmon":1,
    "bowtie":1,
    "shoes":1,
    "dinner":1,
    "loud":1,
    "adorable":1,
    "especially":1,
    "sneakers":1,
    "ladies":1,
    "gentlemen":1,
    "attention":1,
    "andre":1,
    "bonnet":1,
    "president":1,
    "international":1,
    "committee":1,
    "trophy":1,
    "descended":1,
    "remarkable":1,
    "280":1,
    "young":1,
    "tia":1,
    "tiraro":1,
    "tiraore":1,
    "moa":1,
    "tiraero":1,
    "moameora":1,
    "hero":1,
    "gives":1,
    "tahiti":1,
    "sun":1,
    "cook":1,
    "fresh":1,
    "coconut":1,
    "trees":1,
    "lovely":1,
    "native":1,
    "dance":1,
    "excuse":1,
    "strange":1,
    "baby":1,
    "learned":1,
    "kids":1,
    "compared":1,
    "superior":1,
    "truth":1,
    "another":1,
    "music":1,
    "bother":1,
    "ha":1,
    "several":1,
    "champagne":1,
    "between":1,
    "sisters":1,
    "yell":1,
    "scream":1,
    "angelica":1,
    "cries":1,
    "kissing":1,
    "keeps":1,
    "together":1,
    "large":1,
    "quit":1,
    "eye":1,
    "fuckin":1,
    "says":1,
    "loose":1,
    "unbeatable":1,
    "younger":1,
    "tiny":1,
    "size":1,
    "tanks":1,
    "longer":1,
    "hole":1,
    "tie":1,
    "acting":1,
    "pair":1,
    "olds":1,
    "move":1,
    "slowly":1,
    "rocking":1,
    "jumped":1,
    "assure":1,
    "wallet":1,
    "ruined":1,
    "anywhere":1,
    "meditating":1,
    "yoga":1,
    "nap":1,
    "terribly":1,
    "cannot":1,
    "advanced":1,
    "state":1,
    "exhaustion":1,
    "tubes":1,
    "tin":1,
    "cans":1,
    "warned":1,
    "swims":1,
    "along":1,
    "finds":1,
    "picks":1,
    "ancient":1,
    "markings":1,
    "youth":1,
    "scared":1,
    "drunker":1,
    "idea":1,
    "perform":1,
    "surfacing":1,
    "thrusts":1,
    "edge":1,
    "female":1,
    "public":1,
    "specialist":1,
    "dealer":1,
    "investment":1,
    "certainly":1,
    "entitled":1,
    "complain":1,
    "cost":1,
    "stand":1,
    "ourselves":1,
    "8":1,
    "soaking":1,
    "reasonable":1,
    "everyone":1,
    "upstairs":1,
    "photographers":1,
    "shall":1,
    "refuses":1,
    "danger":1,
    "impress":1,
    "upon":1,
    "importance":1,
    "attending":1,
    "allowed":1,
    "overwhelmed":1,
    "inspiring":1,
    "324":1,
    "eaten":1,
    "al":1,
    "dente":1,
    "bit":1,
    "agree":1,
    "buon":1,
    "appetito":1,
    "signorina":1,
    "bunch":1,
    "price":1,
    "china":1,
    "landed":1,
    "moon":1,
    "favor":1,
    "wholl":1,
    "tutto":1,
    "va":1,
    "bene":1,
    "gracie":1,
    "chignora":1,
    "slow":1,
    "drive":1,
    "driving":1,
    "remembering":1,
    "road":1,
    "running":1,
    "stealing":1,
    "stretchers":1,
    "jail":1,
    "bitching":1,
    "hurry":1,
    "girlfriend":1,
    "freezing":1,
    "sinister":1,
    "ours":1,
    "cheerful":1,
    "mammas":1,
    "stretcher":1,
    "ones":1,
    "paramedics":1,
    "180":1,
    "330":1,
    "heliumoxygen":1,
    "mixture":1,
    "compressed":1,
    "contains":1,
    "carbon":1,
    "dioxide":1,
    "balloon":1,
    "pulls":1,
    "pinned":1,
    "magic":1,
    "tre":1,
    "due":1,
    "uno":1,
    "minuto":1,
    "gueuse":1,
    "slides":1,
    "cable":1,
    "hangs":1,
    "ribbon":1,
    "marker":1,
    "90":1,
    "applause":1,
    "set":1,
    "robertos":1,
    "collect":1,
    "lost":1,
    "poem":1,
    "recipe":1,
    "frutti":1,
    "souvenir":1,
    "next":1,
    "fall":1,
    "creatures":1,
    "onto":1,
    "least":1,
    "feels":1,
    "suitcase":1,
    "1100":1,
    "hmmm":1,
    "team":1,
    "quarters":1,
    "paychecks":1,
    "making":1,
    "unhappy":1,
    "smoking":1,
    "lit":1,
    "cigarettes":1,
    "piss":1,
    "carrying":1,
    "noireuter":1,
    "brussels":1,
    "450":1,
    "loved":1,
    "erases":1,
    "erase":1,
    "rather":1,
    "miserable":1,
    "dumb":1,
    "minus":1,
    "800":1,
    "15":1,
    "helium":1,
    "knows":1,
    "speaking":1,
    "conversation":1,
    "strictly":1,
    "complaints":1,
    "list":1,
    "porthole":1,
    "seeing":1,
    "commanders":1,
    "belgian":1,
    "alcoholics":1,
    "anonymous":1,
    "capsule":1,
    "channel":1,
    "gotten":1,
    "spot":1,
    "arms":1,
    "dancing":1,
    "theyd":1,
    "repaint":1,
    "painters":1,
    "visa":1,
    "express":1,
    "couch":1,
    "bloomingdales":1,
    "limit":1,
    "hidden":1,
    "meaning":1,
    "depressed":1,
    "drinking":1,
    "terrible":1,
    "honey":1,
    "frenchy":1,
    "act":1,
    "exercise":1,
    "herb":1,
    "ya":1,
    "miss":1,
    "trick":1,
    "order":1,
    "wise":1,
    "canceled":1,
    "stadium":1,
    "cheated":1,
    "million":1,
    "dock":1,
    "salary":1,
    "wed":1,
    "fire":1,
    "interfere":1,
    "maternity":1,
    "presume":1,
    "seems":1,
    "happiest":1,
    "bon":1,
    "appetit":1,
    "adieu":1,
    "bay":1,
    "window":1,
    "dawning":1,
    "far":1,
    "sky":1,
    "memory":1,
    "float":1,
    "coming":1,
    "greet":1,
    "judge":1,
    "sincere":1,
    "pure":1,
    "airport":1,
    "carlton":1,
    "siesta":1,
    "someone":1,
    "assassin":1,
    "visiting":1,
    "bonjour":1,
    "monsieur":1,
    "75":1,
    "amazing":1,
    "listens":1,
    "wonder":1,
    "henrietta":1,
    "named":1,
    "city":1,
    "explains":1,
    "lays":1,
    "thief":1,
    "torturer":1,
    "orphan":1,
    "nursed":1,
    "late":1,
    "picture":1,
    "died":1,
    "cancer":1,
    "comes":1,
    "totally":1,
    "blind":1,
    "ears":1,
    "bullshit":1,
    "famous":1,
    "flesh":1,
    "honor":1,
    "permanently":1,
    "fix":1,
    "shy":1,
    "kinda":1,
    "greek":1,
    "mythology":1,
    "gods":1,
    "example":1,
    "sleeping":1,
    "jupiter":1,
    "imagine":1,
    "announcing":1,
    "chickadee":1,
    "quite":1,
    "probably":1,
    "nerve":1,
    "sometime":1,
    "calimari":1,
    "fritti":1,
    "zuppa":1,
    "de":1,
    "pesci":1,
    "sono":1,
    "buoni":1,
    "hungry":1,
    "sophia":1,
    "loren":1,
    "anna":1,
    "magnani":1,
    "sarah":1,
    "bernardt":1,
    "sing":1,
    "carmen":1,
    "signora":1,
    "fishy":1,
    "italians":1,
    "different":1,
    "pesce":1,
    "di":1,
    "spada":1,
    "pass":1,
    "squids":1,
    "goddamned":1,
    "frogmen":1,
    "concentration":1,
    "required":1,
    "temperature":1,
    "magazine":1,
    "discouraged":1,
    "easily":1,
    "strength":1,
    "fight":1,
    "wants":1,
    "pier":1,
    "moment":1,
    "unbelievable":1,
    "328":1,
    "held":1,
    "tomorrows":1,
    "cut":1,
    "suggested":1,
    "measure":1,
    "consequences":1,
    "type":1,
    "also":1,
    "scuba":1,
    "below":1,
    "polled":1,
    "insist":1,
    "luck":1,
    "fabulous":1,
    "point":1,
    "knocking":1,
    "putting":1,
    "essence":1,
    "dives":1,
    "control":1,
    "continues":1,
    "escape":1,
    "noise":1,
    "jetlagged":1,
    "lie":1,
    "glass":1,
    "peaceful":1,
    "straight":1,
    "laugh":1,
    "swear":1,
    "search":1,
    "creature":1,
    "meant":1,
    "learning":1,
    "hurt":1,
    "mistake":1,
    "turn":1,
    "moron":1,
    "fool":1,
    "hed":1,
    "nose":1,
    "slipping":1,
    "falling":1,
    "hardest":1,
    "finding":1,
    "refreshing":1,
    "clears":1,
    "sinuses":1,
    "analyzed":1,
    "data":1,
    "became":1,
    "apparent":1,
    "depths":1,
    "impossibility":1,
    "retain":1,
    "oxygen":1,
    "surface":1,
    "function":1,
    "orient":1,
    "themselves":1,
    "return":1,
    "attempt":1,
    "break":1,
    "simple":1,
    "suicide":1,
    "molinaris":1,
    "concentrating":1,
    "safe":1,
    "cheat":1,
    "push":1,
    "stimulator":1,
    "quickly":1,
    "started":1,
    "dreams":1,
    "clothes":1,
    "inside":1,
    "gotta":1,
    "pitch":1,
    "exist":1,
    "dream":1,
    "lied":1,
    "quick":2,
    "shining":2,
    "found":2,
    "liar":2,
    "fighting":2,
    "buy":2,
    "ferrari":2,
    "decide":2,
    "light":2,
    "midnight":2,
    "fine":2,
    "itll":2,
    "worry":2,
    "mermaid":2,
    "question":2,
    "sitting":2,
    "myself":2,
    "goddamnit":2,
    "signore":2,
    "happen":2,
    "asked":2,
    "trying":2,
    "boat":2,
    "turned":2,
    "breathing":2,
    "blows":2,
    "took":2,
    "money":2,
    "dress":2,
    "welcome":2,
    "heater":2,
    "drink":2,
    "both":2,
    "eyes":2,
    "moving":2,
    "truck":2,
    "driver":2,
    "spring":2,
    "dear":2,
    "heartbeat":2,
    "incredible":2,
    "blood":2,
    "depends":2,
    "wish":2,
    "spanish":2,
    "morning":2,
    "everybody":2,
    "presents":2,
    "either":2,
    "lock":2,
    "son":2,
    "bitch":2,
    "called":2,
    "phone":2,
    "interesting":2,
    "short":2,
    "listening":2,
    "eight":2,
    "oclock":2,
    "jerk":2,
    "twenty":2,
    "dead":2,
    "guest":2,
    "mad":2,
    "every":2,
    "compete":2,
    "incomplete":2,
    "street":2,
    "file":2,
    "stick":2,
    "fast":2,
    "complete":2,
    "made":2,
    "heard":2,
    "problems":2,
    "mafia":2,
    "positive":2,
    "careful":2,
    "paolo":2,
    "leaving":2,
    "shell":2,
    "comfortable":2,
    "bottle":2,
    "bottles":2,
    "si":2,
    "mille":2,
    "moves":2,
    "lots":2,
    "front":2,
    "living":2,
    "married":2,
    "walls":2,
    "girl":2,
    "eh":2,
    "pleased":2,
    "town":2,
    "brought":2,
    "super":2,
    "known":2,
    "telling":2,
    "most":2,
    "sport":2,
    "blue":2,
    "human":2,
    "ahi":2,
    "kill":2,
    "eating":2,
    "black":2,
    "expect":2,
    "carry":2,
    "elevator":2,
    "fun":2,
    "ceremony":2,
    "chic":2,
    "avanti":2,
    "present":2,
    "afternoon":2,
    "depth":2,
    "lets":2,
    "big":2,
    "forgot":2,
    "hula":2,
    "walk":2,
    "forever":2,
    "greece":2,
    "child":2,
    "speaks":2,
    "actually":2,
    "lunch":2,
    "important":2,
    "empty":2,
    "except":2,
    "explain":2,
    "gold":2,
    "old":2,
    "breath":2,
    "award":2,
    "year":2,
    "lucky":2,
    "medics":2,
    "pictures":2,
    "minute":2,
    "allow":2,
    "own":2,
    "risk":2,
    "brave":2,
    "checking":2,
    "wet":2,
    "spend":2,
    "pool":2,
    "case":2,
    "others":2,
    "having":2,
    "among":2,
    "training":2,
    "receive":2,
    "medal":2,
    "already":2,
    "trinket":2,
    "arrivo":2,
    "lights":2,
    "plenty":2,
    "300":2,
    "machine":2,
    "minuti":2,
    "past":2,
    "proud":2,
    "couldnt":2,
    "measuring":2,
    "tape":2,
    "afraid":2,
    "packed":2,
    "enjoy":2,
    "absolutely":2,
    "forbidden":2,
    "board":2,
    "rules":2,
    "seventeen":2,
    "voice":2,
    "serious":2,
    "alcohol":2,
    "suck":2,
    "gets":2,
    "working":2,
    "guys":2,
    "playing":2,
    "curtains":2,
    "vitamins":2,
    "herbs":2,
    "came":2,
    "breast":2,
    "whole":2,
    "business":2,
    "four":2,
    "hundred":2,
    "quietly":2,
    "start":2,
    "wagner":2,
    "berlioz":2,
    "use":2,
    "bring":2,
    "idiot":2,
    "apartment":2,
    "telephone":2,
    "leda":2,
    "swan":2,
    "actress":2,
    "enzos":2,
    "whale":2,
    "200":2,
    "kiss":2,
    "fifty":2,
    "continue":2,
    "physiological":2,
    "takes":2,
    "darker":2,
    "360":2,
    "answer":2,
    "once":2,
    "sweet":2,
    "piano":2,
    "mayols":2,
    "promise":2,
    "shit":3,
    "italian":3,
    "mind":3,
    "seconds":3,
    "wake":3,
    "everyday":3,
    "eat":3,
    "tired":3,
    "asking":3,
    "taking":3,
    "island":3,
    "clean":3,
    "company":3,
    "many":3,
    "hold":3,
    "wind":3,
    "check":3,
    "lot":3,
    "car":3,
    "peru":3,
    "possible":3,
    "tea":3,
    "suit":3,
    "uh":3,
    "three":3,
    "accident":3,
    "things":3,
    "equipment":3,
    "lake":3,
    "werent":3,
    "able":3,
    "save":3,
    "dolphins":3,
    "decided":3,
    "might":3,
    "american":3,
    "while":3,
    "wasnt":3,
    "cold":3,
    "tina":3,
    "doctor":3,
    "dark":3,
    "such":3,
    "swimming":3,
    "hell":3,
    "looking":3,
    "show":3,
    "easy":3,
    "french":3,
    "reason":3,
    "pleasure":3,
    "work":3,
    "our":3,
    "goodbye":3,
    "wait":3,
    "weve":3,
    "real":3,
    "happened":3,
    "cancel":3,
    "policy":3,
    "hours":3,
    "tried":3,
    "sir":3,
    "full":3,
    "finally":3,
    "suite":3,
    "hard":3,
    "story":3,
    "amorgos":3,
    "stubborn":3,
    "men":3,
    "bet":3,
    "cross":3,
    "spaghetti":3,
    "head":3,
    "pain":3,
    "feeling":3,
    "hand":3,
    "used":3,
    "skinny":3,
    "everywhere":3,
    "caught":3,
    "today":3,
    "sick":3,
    "needs":3,
    "before":3,
    "dolphin":3,
    "wrong":3,
    "sad":3,
    "party":3,
    "indisposed":3,
    "descent":3,
    "learn":3,
    "alone":3,
    "dangerous":3,
    "pressure":3,
    "title":3,
    "asleep":3,
    "thinking":3,
    "yet":3,
    "name":3,
    "finger":3,
    "cassettes":3,
    "deaf":3,
    "boy":3,
    "doctors":3,
    "law":3,
    "wanted":3,
    "deeper":3,
    "radio":4,
    "later":4,
    "frenchman":4,
    "youd":4,
    "wouldnt":4,
    "dove":4,
    "father":4,
    "any":4,
    "home":4,
    "thanks":4,
    "anybody":4,
    "second":4,
    "person":4,
    "under":4,
    "breathe":4,
    "heart":4,
    "anymore":4,
    "job":4,
    "knew":4,
    "somebody":4,
    "coffee":4,
    "id":4,
    "each":4,
    "bad":4,
    "week":4,
    "guess":4,
    "championship":4,
    "need":4,
    "dyou":4,
    "keep":4,
    "kind":4,
    "end":4,
    "true":4,
    "brother":4,
    "else":4,
    "told":4,
    "mare":4,
    "questions":4,
    "italy":4,
    "bed":4,
    "tonight":4,
    "few":4,
    "congratulations":4,
    "looks":4,
    "ass":4,
    "earth":4,
    "ready":4,
    "family":4,
    "lungs":4,
    "stayed":4,
    "better":4,
    "matter":4,
    "press":4,
    "their":4,
    "die":4,
    "funny":4,
    "fired":4,
    "york":4,
    "bonita":4,
    "angry":4,
    "alright":4,
    "split":5,
    "stupid":5,
    "until":5,
    "seen":5,
    "saw":5,
    "mermaids":5,
    "went":5,
    "woman":5,
    "air":5,
    "ten":5,
    "thousand":5,
    "talking":5,
    "life":5,
    "same":5,
    "mean":5,
    "damn":5,
    "del":5,
    "trip":5,
    "had":5,
    "five":5,
    "hello":5,
    "thought":5,
    "last":5,
    "days":5,
    "taormina":5,
    "sorry":5,
    "god":5,
    "glad":5,
    "happy":5,
    "off":5,
    "sicily":5,
    "la":5,
    "tomorrow":5,
    "room":5,
    "ah":5,
    "remember":5,
    "crazy":5,
    "mine":5,
    "must":5,
    "these":5,
    "pasta":5,
    "exactly":5,
    "people":5,
    "fish":5,
    "free":5,
    "enough":5,
    "arent":5,
    "put":5,
    "mr":5,
    "women":5,
    "sometimes":5,
    "around":5,
    "bottom":5,
    "problem":5,
    "wonderful":5,
    "care":5,
    "after":6,
    "since":6,
    "stop":6,
    "into":6,
    "shouldnt":6,
    "mother":6,
    "shes":6,
    "left":6,
    "diver":6,
    "find":6,
    "forget":6,
    "insurance":6,
    "guy":6,
    "talk":6,
    "send":6,
    "without":6,
    "try":6,
    "other":6,
    "beautiful":6,
    "youve":6,
    "oh":6,
    "said":6,
    "havent":6,
    "years":6,
    "supposed":6,
    "being":6,
    "more":6,
    "watch":6,
    "please":6,
    "those":6,
    "won":6,
    "yourself":6,
    "pregnant":6,
    "water":7,
    "first":7,
    "hey":7,
    "always":7,
    "didnt":7,
    "day":7,
    "everything":7,
    "could":7,
    "man":7,
    "place":7,
    "getting":7,
    "deep":7,
    "hear":7,
    "night":7,
    "wont":7,
    "call":7,
    "minutes":7,
    "sleep":7,
    "great":7,
    "again":7,
    "theyre":7,
    "anyway":7,
    "meet":7,
    "away":7,
    "competition":7,
    "record":7,
    "hotel":7,
    "anything":7,
    "than":7,
    "feel":7,
    "help":8,
    "ask":8,
    "leave":8,
    "molinari":8,
    "divers":8,
    "over":8,
    "dollars":8,
    "much":8,
    "would":8,
    "or":8,
    "even":8,
    "thing":8,
    "an":8,
    "by":8,
    "way":8,
    "give":8,
    "waiting":8,
    "coin":9,
    "maybe":9,
    "stay":9,
    "ever":9,
    "live":9,
    "doing":9,
    "nice":9,
    "some":9,
    "theres":9,
    "beat":9,
    "best":9,
    "am":9,
    "course":9,
    "let":9,
    "uncle":9,
    "ive":10,
    "them":10,
    "her":10,
    "make":10,
    "listen":10,
    "doesnt":10,
    "has":10,
    "us":10,
    "never":10,
    "got":10,
    "still":10,
    "look":11,
    "champion":11,
    "does":11,
    "should":11,
    "sure":11,
    "who":11,
    "youll":11,
    "diving":11,
    "something":12,
    "roberto":12,
    "long":12,
    "time":12,
    "friend":12,
    "nothing":12,
    "louis":13,
    "only":13,
    "then":14,
    "sea":14,
    "understand":14,
    "mayol":14,
    "his":14,
    "huh":14,
    "love":14,
    "whats":14,
    "mamma":14,
    "really":15,
    "thank":15,
    "feet":15,
    "cant":16,
    "where":16,
    "two":16,
    "now":17,
    "back":17,
    "will":17,
    "been":17,
    "too":18,
    "out":18,
    "as":18,
    "new":18,
    "go":19,
    "say":19,
    "johana":19,
    "she":20,
    "okay":20,
    "little":21,
    "when":21,
    "isnt":21,
    "about":21,
    "because":21,
    "from":22,
    "dive":22,
    "world":22,
    "think":22,
    "come":23,
    "if":23,
    "why":23,
    "were":23,
    "see":23,
    "take":23,
    "get":24,
    "up":24,
    "hes":25,
    "want":25,
    "down":25,
    "very":26,
    "one":27,
    "thats":29,
    "yes":29,
    "with":29,
    "ill":30,
    "good":30,
    "but":31,
    "did":31,
    "tell":31,
    "like":31,
    "right":32,
    "can":32,
    "not":32,
    "they":32,
    "there":34,
    "so":34,
    "at":34,
    "here":35,
    "how":36,
    "on":36,
    "him":36,
    "youre":37,
    "well":38,
    "your":38,
    "going":39,
    "enzo":39,
    "this":39,
    "just":40,
    "all":41,
    "was":42,
    "do":44,
    "we":46,
    "know":47,
    "no":48,
    "my":50,
    "are":51,
    "he":51,
    "jacques":53,
    "be":58,
    "im":60,
    "dont":61,
    "what":64,
    "have":64,
    "":71,
    "that":74,
    "for":78,
    "of":84,
    "in":86,
    "me":88,
    "its":90,
    "and":90,
    "is":98,
    "it":108,
    "a":182,
    "i":208,
    "to":209,
    "the":325,
    "you":360
}