{
    "squeal":1,
    "kissing":1,
    "underdogs":1,
    "reads":1,
    "touched":1,
    "aww":1,
    "slinks":1,
    "arrives":1,
    "agitated":1,
    "rick":1,
    "vision":1,
    "fluffy":1,
    "blondeness":1,
    "runs":1,
    "positive":1,
    "flown":1,
    "newport":1,
    "fed":1,
    "carat":1,
    "diamond":1,
    "shy":1,
    "pledge":1,
    "sweatshirt":1,
    "library":1,
    "outside":1,
    "jovial":1,
    "brothers":1,
    "jason":1,
    "grant":1,
    "\u2014this":1,
    "golfing":1,
    "winks":1,
    "andheads":1,
    "launch":1,
    "sunset":1,
    "plaza":1,
    "boutique":1,
    "demure":1,
    "red":1,
    "confidence":1,
    "disregarding":1,
    "signature":1,
    "special":1,
    "store":1,
    "dumb":1,
    "daddys":1,
    "plastic":1,
    "dress":1,
    "clearance":1,
    "sale":1,
    "rack":1,
    "ripping":1,
    "tag":1,
    "wearing":1,
    "ivy":1,
    "dating":1,
    "impress":1,
    "gas":1,
    "practically":1,
    "preengaged":1,
    "topstitching":1,
    "hem":1,
    "impossible":1,
    "topstitch":1,
    "snag":1,
    "fabric":1,
    "june":1,
    "vogue":1,
    "ago":1,
    "sell":1,
    "picked":1,
    "iii":1,
    "awash":1,
    "devotion":1,
    "heres":1,
    "slower":1,
    "sip":1,
    "edge":1,
    "amenable":1,
    "discussion":1,
    "to\u2014":1,
    "deep":1,
    "breath":1,
    "filled":1,
    "anticipation":1,
    "drops":1,
    "crashes":1,
    "patio":1,
    "entirely":1,
    "miles":1,
    "minute":1,
    "catching":1,
    "poofy":1,
    "reopens":1,
    "yanking":1,
    "expect":1,
    "everybody":1,
    "east":1,
    "coast":1,
    "sudden":1,
    "white":1,
    "trash":1,
    "grew":1,
    "bel":1,
    "spelling":1,
    "drags":1,
    "cheekbones":1,
    "highlighted":1,
    "streetlamp":1,
    "meets":1,
    "pained":1,
    "determined":1,
    "leaving":1,
    "ring":1,
    "kappa":1,
    "canceling":1,
    "mixer":1,
    "needed":1,
    "underst":1,
    "grandmother":1,
    "e":1,
    "britney":1,
    "spears":1,
    "phew":1,
    "shut":1,
    "framed":1,
    "photo":1,
    "clutching":1,
    "leaps":1,
    "reluctant":1,
    "bullshit":1,
    "enter":1,
    "bearing":1,
    "jamba":1,
    "juice":1,
    "walk":1,
    "aisle":1,
    "adrift":1,
    "brother":1,
    "typeof":1,
    "wants":1,
    "marry":1,
    "rushes":1,
    "cuticles":1,
    "merchandising":1,
    "aced":1,
    "lycra":1,
    "recommendations":1,
    "heck":1,
    "oneseventyfive":1,
    "tightywhitey":1,
    "me\u2014":1,
    "brightly":1,
    "cousin":1,
    "rash":1,
    "exam":1,
    "girls\u2014":1,
    "vakay":1,
    "road":1,
    "trip":1,
    "cecil":1,
    "condo":1,
    "tahoe":1,
    "sees":1,
    "plan":1,
    "highest":1,
    "gpa":1,
    "wrist":1,
    "lucky":1,
    "spanish":1,
    "luckily":1,
    "skilled":1,
    "commanding":1,
    "attention":1,
    "issues":1,
    "able":1,
    "hundreds":1,
    "details":1,
    "hat":1,
    "reveal":1,
    "raft":1,
    "days":1,
    "joined":1,
    "search":1,
    "identity":1,
    "brainwashed":1,
    "stefano":1,
    "laws":1,
    "bilaws":1,
    "civil":1,
    "obedience":1,
    "crucial":1,
    "skates":1,
    "fakeelbows":1,
    "auditorium":1,
    "episode":1,
    "practice":1,
    "swerves":1,
    "scream":1,
    "videotapes":1,
    "seventyfiveone":1,
    "seventy":1,
    "five":1,
    "opens":1,
    "raises":1,
    "above":1,
    "triumph":1,
    "jumping":1,
    "ensues":1,
    "pride":1,
    "ends":1,
    "vote":1,
    "2003":1,
    "ricky":1,
    "martin":1,
    "interested":1,
    "music":1,
    "designed":1,
    "faux":1,
    "fur":1,
    "panties":1,
    "sororitys":1,
    "charity":1,
    "animals":1,
    "philanthropist":1,
    "puts":1,
    "distress":1,
    "perfectly":1,
    "respectable":1,
    "boring":1,
    "button":1,
    "none":1,
    "runnerup":1,
    "hawaiian":1,
    "tropic":1,
    "throw":1,
    "suck":1,
    "wiener":1,
    "bends":1,
    "pour":1,
    "evian":1,
    "inflatable":1,
    "inadvertently":1,
    "revealing":1,
    "cleavage":1,
    "dropping":1,
    "imac":1,
    "shatters":1,
    "million":1,
    "pieces":1,
    "moving":1,
    "hauling":1,
    "fauxfur":1,
    "potted":1,
    "palm":1,
    "tree":1,
    "beauty":1,
    "strides":1,
    "dorm":1,
    "amazement":1,
    "whose":1,
    "knob":1,
    "honk":1,
    "map":1,
    "book":1,
    "list":1,
    "checked":1,
    "lido":1,
    "deck":1,
    "social":1,
    "events":1,
    "mixers":1,
    "formals":1,
    "beach":1,
    "pizza":1,
    "lunch":1,
    "count":1,
    "hellwas":1,
    "malibu":1,
    "barbie":1,
    "circle":1,
    "bit":1,
    "themselves":1,
    "masters":1,
    "russian":1,
    "literature":1,
    "biochemistry":1,
    "eighteen":1,
    "worming":1,
    "orphans":1,
    "somalia":1,
    "berkeley":1,
    "womens":1,
    "studies\u2014":1,
    "emphasis":1,
    "combat":1,
    "march":1,
    "lesbians":1,
    "drunk":1,
    "driving":1,
    "killer":1,
    "mba":1,
    "wharton":1,
    "wall":1,
    "mushed":1,
    "ididarods":1,
    "figured":1,
    "crash":1,
    "stock":1,
    "market":1,
    "sri":1,
    "lanka":1,
    "later":1,
    "gemini":1,
    "bachelors":1,
    "degree":1,
    "usc":1,
    "leader":1,
    "inappropriate":1,
    "skimpy":1,
    "gucci":1,
    "accents":1,
    "putting":1,
    "trendy":1,
    "wirerimmed":1,
    "glasses":1,
    "stomps":1,
    "perceived":1,
    "blowoff":1,
    "opts":1,
    "wandering":1,
    "seemingly":1,
    "oblivious":1,
    "ultranonchalant":1,
    "silly":1,
    "y":1,
    "ou":1,
    "g":1,
    "ha":1,
    "rv":1,
    "rd":1,
    "aw":1,
    "thathard":1,
    "discombobulated":1,
    "sweetly":1,
    "checking":1,
    "oops":1,
    "benches":1,
    "cruella":1,
    "ville":1,
    "puppy":1,
    "recommend":1,
    "interpretation":1,
    "selfdoubt":1,
    "halflaughs":1,
    "relief":1,
    "steele":1,
    "ivan":1,
    "sued":1,
    "doctors":1,
    "malpractice":1,
    "dispute":1,
    "entail":1,
    "zone":1,
    "distressed":1,
    "prim":1,
    "preppy":1,
    "blueblood":1,
    "pearls":1,
    "sweater":1,
    "betray":1,
    "humiliated":1,
    "jurisdictionexist":1,
    "snapping":1,
    "stupor":1,
    "tend":1,
    "socratic":1,
    "method":1,
    "cry":1,
    "waited":1,
    "shrivel":1,
    "whatevers":1,
    "levinson":1,
    "speak":1,
    "opinion":1,
    "sit":1,
    "tends":1,
    "spit":1,
    "talks":1,
    "products":1,
    "liability":1,
    "stromwells":1,
    "daily":1,
    "quotes":1,
    "acing":1,
    "midterm":1,
    "trickle":1,
    "building":1,
    "thirdyear":1,
    "adoration":1,
    "remains":1,
    "uncomfortable":1,
    "civ":1,
    "pro":1,
    "biggie":1,
    "pats":1,
    "exciting":1,
    "female":1,
    "snakes":1,
    "chest":1,
    "brings":1,
    "owner":1,
    "presenting":1,
    "contempt":1,
    "fiancee":1,
    "hallucinated":1,
    "girlfriend":1,
    "prep":1,
    "grandmothers":1,
    "club":1,
    "flattering":1,
    "condescending":1,
    "dips":1,
    "soapy":1,
    "water":1,
    "spill":1,
    "blew":1,
    "spring":1,
    "greek":1,
    "week":1,
    "neglected":1,
    "duties":1,
    "coppola":1,
    "boyfriend":1,
    "trouble":1,
    "sixcarat":1,
    "bony":1,
    "unpolished":1,
    "finger":1,
    "whatd":1,
    "cried":1,
    "trailer":1,
    "precious":1,
    "rufus":1,
    "jackcrap":1,
    "terrible":1,
    "tits":1,
    "genetically":1,
    "blessed":1,
    "polish":1,
    "starting":1,
    "sjie":1,
    "anymore":1,
    "goddamn":1,
    "steal":1,
    "warn":1,
    "addition":1,
    "firms":1,
    "highly":1,
    "coveted":1,
    "assist":1,
    "actual":1,
    "cases":1,
    "bloodbath":1,
    "commence":1,
    "usual":1,
    "torture":1,
    "amusing":1,
    "committed":1,
    "se":1,
    "prohibitum":1,
    "neither":1,
    "proud":1,
    "snickers":1,
    "frowns":1,
    "dare":1,
    "dream":1,
    "prefer":1,
    "challenge":1,
    "between":1,
    "rsvp":1,
    "takea":1,
    "perkiness":1,
    "gone":1,
    "deflated":1,
    "raging":1,
    "feminist":1,
    "calls":1,
    "rush":1,
    "voted":1,
    "dyke":1,
    "nearly":1,
    "mowed":1,
    "gaggle":1,
    "nerds":1,
    "dorky":1,
    "david":1,
    "muffins":1,
    "depressed":1,
    "second":1,
    "power":1,
    "yoga":1,
    "josh":1,
    "proposed":1,
    "po":1,
    "bangs":1,
    "genius":1,
    "pops":1,
    "snubbed":1,
    "invited":1,
    "barks":1,
    "english":1,
    "language":1,
    "subliminal":1,
    "domination":1,
    "semester":1,
    "example":1,
    "schools":1,
    "discriminatory":1,
    "preference":1,
    "semen":1,
    "ovaries":1,
    "petitioning":1,
    "term":1,
    "referred":1,
    "ovester":1,
    "backs":1,
    "fright":1,
    "passes":1,
    "elle\u2014":1,
    "silicone":1,
    "90s":1,
    "inviting":1,
    "super":1,
    "playboy":1,
    "bunny":1,
    "slit":1,
    "fiancees":1,
    "broken":1,
    "wine":1,
    "tragic":1,
    "admiring":1,
    "costume":1,
    "felony":1,
    "barely":1,
    "grades":1,
    "qualify":1,
    "backpedals":1,
    "hopes":1,
    "i11":1,
    "weeks":1,
    "throws":1,
    "bowl":1,
    "spreads":1,
    "legs":1,
    "generous":1,
    "betting":1,
    "belong":1,
    "provide":1,
    "worthwhile":1,
    "value":1,
    "needs":1,
    "rich":1,
    "valuable":1,
    "negate":1,
    "affirmatively":1,
    "filed":1,
    "typing":1,
    "laptop":1,
    "reasonable":1,
    "belief":1,
    "require":1,
    "harriman":1,
    "hungry":1,
    "unknowingly":1,
    "eat":1,
    "written":1,
    "forehead":1,
    "snicker":1,
    "neubert":1,
    "private":1,
    "donor":1,
    "allowed":1,
    "forth":1,
    "sticking":1,
    "precedent":1,
    "latimer":1,
    "stalking\u2014":1,
    "within":1,
    "donqvan":1,
    "mans":1,
    "\u2014the":1,
    "exist":1,
    "file":1,
    "quietly":1,
    "speaks":1,
    "wonder":1,
    "thorough":1,
    "emission":1,
    "titters":1,
    "unless":1,
    "attempted":1,
    "contact":1,
    "single":1,
    "onenight":1,
    "determine":1,
    "resulted":1,
    "unions":1,
    "parental":1,
    "whatsoever":1,
    "masturbatory":1,
    "emissions":1,
    "seeking":1,
    "egg":1,
    "termed":1,
    "reckless":1,
    "abandonment":1,
    "sarahs":1,
    "won":1,
    "applying":1,
    "resume":1,
    "showed":1,
    "showing":1,
    "couldnt":1,
    "total":1,
    "ignition":1,
    "yon":1,
    "eating":1,
    "donut":1,
    "beggin1":1,
    "newcomb":1,
    "askin":1,
    "antes":1,
    "ante":1,
    "common":1,
    "marriage":1,
    "entitles":1,
    "benefits":1,
    "equitable":1,
    "division":1,
    "assets":1,
    "due":1,
    "retained":1,
    "residence":1,
    "bonafante":1,
    "entitled":1,
    "canine":1,
    "enforcing":1,
    "dog":1,
    "dumbass":1,
    "cmere":1,
    "mommys":1,
    "felt":1,
    "vacation":1,
    "image":1,
    "hook":1,
    "raised":1,
    "sandra":1,
    "0connor":1,
    "firm":1,
    "defending":1,
    "caseload":1,
    "heavy":1,
    "chose":1,
    "throng":1,
    "cheek":1,
    "shoved":1,
    "tries":1,
    "hears":1,
    "stiff":1,
    "ion":1,
    "mrgrabass":1,
    "incredible":1,
    "tub":1,
    "shopping":1,
    "bathroom":1,
    "machine":1,
    "and1bobby":1,
    "smarmy":1,
    "trim":1,
    "short":1,
    "bald":1,
    "wave":1,
    "associates":1,
    "gold":1,
    "digger":1,
    "maiden":1,
    "name\u2014daniels":1,
    "gifted":1,
    "whom":1,
    "twentyseven":1,
    "telling":1,
    "prove":1,
    "late":1,
    "former":1,
    "editor":1,
    "review":1,
    "lurking":1,
    "research":1,
    "napping":1,
    "quad":1,
    "coroner":1,
    "cops":1,
    "stash":1,
    "exercise":1,
    "couldve":1,
    "floor":1,
    "bent":1,
    "screamed":1,
    "unadulterated":1,
    "hatred":1,
    "reasons":1,
    "ov":1,
    "ed":1,
    "h":1,
    "thirtyfour":1,
    "stiffens":1,
    "loud":1,
    "lie":1,
    "perks":1,
    "huge":1,
    "fan":1,
    "yours":1,
    "high":1,
    "sort":1,
    "brain":1,
    "retards":1,
    "frozen":1,
    "ya":1,
    "doin":1,
    "easy":1,
    "interaction":1,
    "sometimes":1,
    "considered":1,
    "cold":1,
    "beverage":1,
    "perhaps":1,
    "neck":1,
    "massage":1,
    "fabulous":1,
    "sexy":1,
    "repeating":1,
    "maneuver":1,
    "bendand":1,
    "version":1,
    "arch":1,
    "footing":1,
    "solid":1,
    "curlers":1,
    "knee":1,
    "less":1,
    "works":1,
    "police":1,
    "discarded":1,
    "bullet":1,
    "entered":1,
    "carrying":1,
    "distraught":1,
    "wonderful":1,
    "loved":1,
    "others":1,
    "shift":1,
    "uncomfortably":1,
    "unbuttonedtoshowhispecs":1,
    "screwing":1,
    "embarrassed":1,
    "screw":1,
    "fund":1,
    "payoff":1,
    "inheritance":1,
    "mother":1,
    "member":1,
    "relation":1,
    "sadand":1,
    "orange":1,
    "paying":1,
    "pushes":1,
    "basket":1,
    "necessities":1,
    "aromatherapy":1,
    "candles":1,
    "loofah":1,
    "bible":1,
    "cosmopolitan":1,
    "angel":1,
    "squirms":1,
    "dabs":1,
    "corner":1,
    "ralph":1,
    "lauren":1,
    "shameful":1,
    "whatever":1,
    "sob":1,
    "liposuction":1,
    "fraud":1,
    "fans":1,
    "lost":1,
    "reputation":1,
    "safe":1,
    "interviews":1,
    "grab":1,
    "fetches":1,
    "communique":1,
    "visit":1,
    "promised":1,
    "bonds":1,
    "scandal":1,
    "crazy":1,
    "hides":1,
    "listening":1,
    "caresabout":1,
    "gave":1,
    "seeing":1,
    "light":1,
    "storms":1,
    "seems":1,
    "unconcerned":1,
    "interview":1,
    "berkshires":1,
    "mothership":1,
    "subscribe":1,
    "doctrine":1,
    "selfhatred":1,
    "imposed":1,
    "upon":1,
    "gender":1,
    "male":1,
    "delusions":1,
    "twice":1,
    "explain":1,
    "untrustworthy":1,
    "b":1,
    "c":1,
    "victoria":1,
    "principal":1,
    "sells":1,
    "network":1,
    "quiet":1,
    "figure":1,
    "seem":1,
    "refuse":1,
    "ninth":1,
    "teasing":1,
    "oclock":1,
    "massages":1,
    "katherine":1,
    "somewhere":1,
    "pilates":1,
    "damn":1,
    "arm":1,
    "expensive":1,
    "egyptian":1,
    "hardly":1,
    "cover":1,
    "parts":1,
    "settles":1,
    "washcloths":1,
    "strategically":1,
    "placed":1,
    "quite":1,
    "cun\u2014":1,
    "relationship":1,
    "infomercial":1,
    "humped":1,
    "gorillas":1,
    "awkward":1,
    "hearing":1,
    "havent":1,
    "cabana":1,
    "distance":1,
    "alimony":1,
    "mail":1,
    "pants":1,
    "hovering":1,
    "swizzle":1,
    "bet":1,
    "named":1,
    "condiment":1,
    "icky":1,
    "discriminated":1,
    "worldwide":1,
    "brookes":1,
    "cheesy":1,
    "shooting":1,
    "mousy":1,
    "poor":1,
    "widow":1,
    "result":1,
    "discrimination":1,
    "hilary":1,
    "clinton":1,
    "true":1,
    "left":1,
    "cheating":1,
    "brunettes":1,
    "live":1,
    "\u2014by":1,
    "gorilla":1,
    "sixtyyearold":1,
    "topic":1,
    "bought":1,
    "seaweed":1,
    "cream":1,
    "bags":1,
    "care":1,
    "f":1,
    "projecting":1,
    "sometime":1,
    "n":1,
    "dork":1,
    "freshman":1,
    "losers":1,
    "ruining":1,
    "wanna":1,
    "district":1,
    "session":1,
    "honorable":1,
    "william":1,
    "ptak":1,
    "presiding":1,
    "topless":1,
    "latin":1,
    "handed":1,
    "fathers":1,
    "cleaning":1,
    "shifts":1,
    "define":1,
    "inserted":1,
    "genitalia":1,
    "hers":1,
    "objection":1,
    "sexual":1,
    "relations":1,
    "wears":1,
    "thong":1,
    "clean":1,
    "filter":1,
    "taken":1,
    "read":1,
    "stack":1,
    "defensive":1,
    "helpless":1,
    "own":1,
    "laundry":1,
    "sent":1,
    "waitlisted":1,
    "applied":1,
    "sounds":1,
    "poke":1,
    "heads":1,
    "surprise":1,
    "york":1,
    "wed":1,
    "rescue":1,
    "limo":1,
    "lots":1,
    "these":1,
    "wiggles":1,
    "bring":1,
    "outfits":1,
    "change":1,
    "mind":1,
    "jesus":1,
    "talk":1,
    "sisters":1,
    "freezes":1,
    "slowly":1,
    "realizing":1,
    "leaning":1,
    "snaps":1,
    "clocking":1,
    "reels":1,
    "backward":1,
    "flowing":1,
    "himin":1,
    "horror":1,
    "intercut":1,
    "carried":1,
    "paramedics":1,
    "gurney":1,
    "flutter":1,
    "concerned":1,
    "noticed":1,
    "maimed":1,
    "prada":1,
    "sandals":1,
    "enriques":1,
    "cher":1,
    "tape":1,
    "appreciate":1,
    "masterful":1,
    "legal":1,
    "theory":1,
    "attend":1,
    "backup":1,
    "openly":1,
    "sigh":1,
    "gesture":1,
    "concurs":1,
    "couple":1,
    "firing":1,
    "rapid":1,
    "speed":1,
    "restaurant":1,
    "oakland":1,
    "recognize":1,
    "chuck":1,
    "gasp":1,
    "delighted":1,
    "misunderstood":1,
    "slippyslap":1,
    "offered":1,
    "drive":1,
    "painkillers":1,
    "whole":1,
    "unconscious":1,
    "howd":1,
    "words":1,
    "beckons":1,
    "shutting":1,
    "followed":1,
    "intuition":1,
    "target":1,
    "shouldve":1,
    "listened":1,
    "sighs":1,
    "initiative":1,
    "clients":1,
    "smarter":1,
    "payroll":1,
    "desk":1,
    "opposite":1,
    "path":1,
    "competitive":1,
    "balancing":1,
    "human":1,
    "intelligence":1,
    "animal":1,
    "diligence":1,
    "hitting":1,
    "knows":1,
    "finally":1,
    "realized":1,
    "pathetic":1,
    "asshole":1,
    "fooled":1,
    "quitting":1,
    "whoa":1,
    "earned":1,
    "itshe":1,
    "earn":1,
    "processes":1,
    "fulfill":1,
    "destiny":1,
    "useless":1,
    "swedish":1,
    "bikini":1,
    "team":1,
    "navy":1,
    "blue":1,
    "suits":1,
    "pantyhose":1,
    "treating":1,
    "california":1,
    "grow":1,
    "victorias":1,
    "model":1,
    "marries":1,
    "star":1,
    "seemed":1,
    "expected":1,
    "underwear":1,
    "living":1,
    "piece":1,
    "j":1,
    "oke":1,
    "goodbye":1,
    "prick":1,
    "shocked":1,
    "discredited":1,
    "reporter":1,
    "discredit":1,
    "strategy":1,
    "reporters":1,
    "smug":1,
    "prepping":1,
    "following":1,
    "such":1,
    "funny":1,
    "tracks":1,
    "representation":1,
    "approach":1,
    "303":1,
    "supreme":1,
    "judicial":1,
    "appear":1,
    "behalf":1,
    "criminal":1,
    "proceedings":1,
    "problem":1,
    "allowing":1,
    "agreed":1,
    "implication":1,
    "ruling":1,
    "supervise":1,
    "supervising":1,
    "enjoy":1,
    "lack":1,
    "definition":1,
    "vicious":1,
    "unaware":1,
    "vocabulary":1,
    "lesson":1,
    "upstairs":1,
    "drenched":1,
    "stashed":1,
    "strike":1,
    "speculation":1,
    "earlier":1,
    "starbucks":1,
    "gym":1,
    "gotten":1,
    "relevant":1,
    "tracy":1,
    "marcinkos":1,
    "ruined":1,
    "hosed":1,
    "cardinal":1,
    "maintenance":1,
    "forbidden":1,
    "twentyfour":1,
    "risk":1,
    "deactivating":1,
    "ammonium":1,
    "thiglycolate":1,
    "pales":1,
    "perms":1,
    "lifetime":1,
    "intact":1,
    "plausible":1,
    "married":1,
    "however":1,
    "meant":1,
    "rules":1,
    "haircare":1,
    "simple":1,
    "finite":1,
    "cosmo":1,
    "known":1,
    "daniel":1,
    "morning":1,
    "workout":1,
    "treadmill":1,
    "honey":1,
    "stop":1,
    "biles":1,
    "tan":1,
    "game":1,
    "laker":1,
    "though":1,
    "shit":1,
    "product":1,
    "patriarchy":1,
    "creation":1,
    "maledominated":1,
    "media":1,
    "friends":1,
    "kinda":1,
    "harmless":1,
    "airkisses":1,
    "shellshocked":1,
    "removing":1,
    "waist":1,
    "wrenching":1,
    "opposing":1,
    "sides":1,
    "huh":1,
    "ascumbag":1,
    "pawnshop":1,
    "jamaica":1,
    "celebration":1,
    "mantoy":1,
    "trophy":1,
    "early":1,
    "friday":1,
    "missed":1,
    "popular":1,
    "turning":1,
    "nervous":1,
    "1l":1,
    "newly":1,
    "gathered":1,
    "rushing":1,
    "hangs":2,
    "card":2,
    "yips":2,
    "jeremy":2,
    "formal":2,
    "please":2,
    "penis":2,
    "stairs":2,
    "toward":2,
    "happen":2,
    "ex":2,
    "six":2,
    "pick":2,
    "outfit":2,
    "anyone":2,
    "spend":2,
    "brandon":2,
    "ran":2,
    "laughs":2,
    "int":2,
    "proposing":2,
    "bridal":2,
    "suspect":2,
    "across":2,
    "nothing":2,
    "half":2,
    "price":2,
    "pass":2,
    "means":2,
    "yesterday":2,
    "lowviscosity":2,
    "rayon":2,
    "halfloop":2,
    "few":2,
    "discuss":2,
    "fully":2,
    "lot":2,
    "world":2,
    "glass":2,
    "onto":2,
    "tears":2,
    "choice":2,
    "afraid":2,
    "likes":2,
    "vanderbilt":2,
    "air":2,
    "street":2,
    "car":2,
    "herself":2,
    "wheres":2,
    "broke":2,
    "theta":2,
    "itll":2,
    "normal":2,
    "don":2,
    "month":2,
    "looked":2,
    "myself":2,
    "lies":2,
    "bed":2,
    "doggy":2,
    "hall":2,
    "lady":2,
    "older":2,
    "become":2,
    "picture":2,
    "butt":2,
    "ugly":2,
    "shell":2,
    "fashion":2,
    "history":2,
    "backups":2,
    "excellent":2,
    "professors":2,
    "essay":2,
    "contest":2,
    "handle":2,
    "reading":2,
    "apparently":2,
    "brilliant":2,
    "scrunchie":2,
    "montage":2,
    "begins":2,
    "president":2,
    "discussing":2,
    "recall":2,
    "drop":2,
    "beside":2,
    "lives":2,
    "hope":2,
    "evil":2,
    "terms":2,
    "mcdermott":2,
    "immediately":2,
    "diversity":2,
    "video":2,
    "2":2,
    "line":2,
    "project":2,
    "sapphire":2,
    "throat":2,
    "agreement":2,
    "dish":2,
    "passing":2,
    "bespectacled":2,
    "trips":2,
    "noticing":2,
    "truck":2,
    "phd":2,
    "de":2,
    "led":2,
    "straight":2,
    "homecoming":2,
    "waiting":2,
    "luck":2,
    "arrogant":2,
    "closer":2,
    "presence":2,
    "forgot":2,
    "l":2,
    "best":2,
    "row":2,
    "aristotle":2,
    "leaves":2,
    "gordon":2,
    "v":2,
    "greenstein":2,
    "dressed":2,
    "gathers":2,
    "returns":2,
    "matter":2,
    "spot":2,
    "until":2,
    "royalton":2,
    "glad":2,
    "pure":2,
    "hi":2,
    "rises":2,
    "somewhat":2,
    "except":2,
    "horrible":2,
    "bench":2,
    "side":2,
    "urn":2,
    "stricken":2,
    "famous":2,
    "excuse":2,
    "imagine":2,
    "hired":2,
    "direct":2,
    "eight":2,
    "gained":2,
    "pounds":2,
    "dewey":2,
    "baby":2,
    "rolls":2,
    "shaking":2,
    "spastic":2,
    "definitely":2,
    "bastard":2,
    "competing":2,
    "grade":2,
    "crime":2,
    "malum":2,
    "id":2,
    "claire":2,
    "besides":2,
    "tried":2,
    "feeling":2,
    "mustve":2,
    "knock":2,
    "staying":2,
    "continue":2,
    "winter":2,
    "real":2,
    "boyfriends":2,
    "wow":2,
    "walking":2,
    "turn":2,
    "find":2,
    "longer":2,
    "society":2,
    "bimbo":2,
    "kiss":2,
    "marches":2,
    "continues":2,
    "sitting":2,
    "evidence":2,
    "evidentiary":2,
    "believes":2,
    "according":2,
    "swinney":2,
    "visitation":2,
    "rights":2,
    "parents":2,
    "without":2,
    "question":2,
    "murmurs":2,
    "thinking":2,
    "enters":2,
    "watching":2,
    "although":2,
    "record":2,
    "throughout":2,
    "open":2,
    "notes":2,
    "dinner":2,
    "shop":2,
    "times":2,
    "bonaf":2,
    "under":2,
    "state":2,
    "property":2,
    "ownership":2,
    "close":2,
    "interns":2,
    "competition":2,
    "office":2,
    "bobby":2,
    "black":2,
    "theyre":2,
    "stupid":2,
    "save":2,
    "kerrigan":2,
    "probably":2,
    "hed":2,
    "thirty":2,
    "arrived":2,
    "giving":2,
    "plenty":2,
    "endorphins":2,
    "husbands":2,
    "may":2,
    "walked":2,
    "inside":2,
    "covered":2,
    "insurance":2,
    "da":2,
    "sound":2,
    "cock":2,
    "took":2,
    "la":2,
    "lawyers":2,
    "jail":2,
    "men":2,
    "afternoon":2,
    "shiny":2,
    "shirt":2,
    "is\u2014":2,
    "licensed":2,
    "sheets":2,
    "ruin":2,
    "heyworths":2,
    "knew":2,
    "tomorrow":2,
    "exwife":2,
    "prison":2,
    "caught":2,
    "sisterhood":2,
    "fuck":2,
    "nearby":2,
    "yourself":2,
    "both":2,
    "anti":2,
    "aside":2,
    "being":2,
    "faith":2,
    "mud":2,
    "tells":2,
    "heyworth":2,
    "blondes":2,
    "sleeping":2,
    "fellated":2,
    "sex":2,
    "attractive":2,
    "uniform":2,
    "asked":2,
    "lingers":2,
    "kidding":2,
    "finals":2,
    "promise":2,
    "win":2,
    "ups":2,
    "shoes":2,
    "complete":2,
    "audience":2,
    "chair":2,
    "career":2,
    "mistake":2,
    "clear":2,
    "stay":2,
    "defense":2,
    "counselors":2,
    "states":2,
    "leans":2,
    "questioning":2,
    "aware":2,
    "washing":2,
    "curls":2,
    "wet":2,
    "gunshot":2,
    "hide":2,
    "younger":2,
    "shoot":2,
    "mouth":3,
    "forever":3,
    "sweet":3,
    "help":3,
    "spots":3,
    "alone":3,
    "meet":3,
    "leads":3,
    "naked":3,
    "story":3,
    "balls":3,
    "color":3,
    "coming":3,
    "remember":3,
    "use":3,
    "huntington":3,
    "ready":3,
    "wanted":3,
    "things":3,
    "support":3,
    "agree":3,
    "break":3,
    "boobs":3,
    "start":3,
    "sweetheart":3,
    "campus":3,
    "crying":3,
    "purse":3,
    "pulls":3,
    "family":3,
    "wont":3,
    "aaron":3,
    "told":3,
    "soon":3,
    "forget":3,
    "starts":3,
    "ve":3,
    "r":3,
    "birthday":3,
    "liked":3,
    "nods":3,
    "kisses":3,
    "awful":3,
    "totally":3,
    "major":3,
    "least":3,
    "3":3,
    "name":3,
    "amazing":3,
    "speaking":3,
    "dylan":3,
    "cut":3,
    "pull":3,
    "crowd":3,
    "begin":3,
    "arent":3,
    "looking":3,
    "welcome":3,
    "place":3,
    "worked":3,
    "hard":3,
    "queen":3,
    "students":3,
    "schedule":3,
    "yet":3,
    "missing":3,
    "minutes":3,
    "o":3,
    "part":3,
    "says":3,
    "years":3,
    "wish":3,
    "hello":3,
    "keeps":3,
    "pissed":3,
    "talking":3,
    "front":3,
    "approaches":3,
    "knowing":3,
    "brunette":3,
    "set":3,
    "kick":3,
    "worry":3,
    "donovans":3,
    "almost":3,
    "holds":3,
    "study":3,
    "asking":3,
    "move":3,
    "kept":3,
    "bottle":3,
    "ladies":3,
    "hold":3,
    "rest":3,
    "each":3,
    "rather":3,
    "glares":3,
    "fat":3,
    "join":3,
    "guilty":3,
    "shrugs":3,
    "leave":3,
    "instead":3,
    "wouldve":3,
    "table":3,
    "meaning":3,
    "snorts":3,
    "new":3,
    "smart":3,
    "saying":3,
    "far":3,
    "mens":3,
    "rea":3,
    "claim":3,
    "grins":3,
    "stand":3,
    "brought":3,
    "job":3,
    "many":3,
    "must":3,
    "keep":3,
    "already":3,
    "gasps":3,
    "coffee":3,
    "gerard":3,
    "dick":3,
    "questions":3,
    "daughter":3,
    "found":3,
    "jury":3,
    "associate":3,
    "kill":3,
    "done":3,
    "happy":3,
    "actually":3,
    "lying":3,
    "check":3,
    "blood":3,
    "package":3,
    "bend":3,
    "bitch":3,
    "women":3,
    "sister":3,
    "forward":3,
    "secret":3,
    "hour":3,
    "surprised":3,
    "watches":3,
    "stick":3,
    "work":3,
    "exactly":3,
    "court":3,
    "wear":3,
    "sign":3,
    "gay":3,
    "proof":3,
    "rule":3,
    "steps":3,
    "realize":3,
    "joy":4,
    "underdog":4,
    "sigma":4,
    "holding":4,
    "shed":4,
    "getting":4,
    "engaged":4,
    "cmon":4,
    "perfect":4,
    "date":4,
    "always":4,
    "grabs":4,
    "trying":4,
    "nice":4,
    "future":4,
    "beautiful":4,
    "face":4,
    "reason":4,
    "different":4,
    "takes":4,
    "champagne":4,
    "breaking":4,
    "fine":4,
    "home":4,
    "thinks":4,
    "thing":4,
    "most":4,
    "seriously":4,
    "sorority":4,
    "lose":4,
    "everything":4,
    "gives":4,
    "old":4,
    "warners":4,
    "impressed":4,
    "lsats":4,
    "months":4,
    "stares":4,
    "weve":4,
    "clearly":4,
    "friend":4,
    "miss":4,
    "guess":4,
    "against":4,
    "four":4,
    "past":4,
    "whatre":4,
    "hot":4,
    "goes":4,
    "answer":4,
    "pretty":4,
    "summer":4,
    "party":4,
    "internship":4,
    "wasnt":4,
    "spent":4,
    "give":4,
    "might":4,
    "child":4,
    "idiot":4,
    "attorney":4,
    "great":4,
    "another":4,
    "weapon":4,
    "trial":4,
    "snap":4,
    "downstairs":4,
    "spa":4,
    "butthead":4,
    "drink":4,
    "fired":4,
    "salvatore":4,
    "nose":4,
    "tv":4,
    "perm":4,
    "tonight":5,
    "taking":5,
    "chi":5,
    "door":5,
    "wrong":5,
    "group":5,
    "their":5,
    "understand":5,
    "s":5,
    "wait":5,
    "rock":5,
    "youve":5,
    "sleep":5,
    "course":5,
    "absolutely":5,
    "kind":5,
    "full":5,
    "try":5,
    "hours":5,
    "fun":5,
    "let":5,
    "twenty":5,
    "stops":5,
    "gets":5,
    "isnt":5,
    "thank":5,
    "happened":5,
    "t":5,
    "heart":5,
    "those":5,
    "once":5,
    "bad":5,
    "yeah":5,
    "seen":5,
    "long":5,
    "moment":5,
    "also":5,
    "other":5,
    "watch":5,
    "sits":5,
    "makes":5,
    "very":5,
    "knottingham":5,
    "put":5,
    "met":5,
    "youd":5,
    "client":5,
    "innocent":5,
    "wouldnt":5,
    "called":5,
    "word":5,
    "defendant":5,
    "sperm":5,
    "came":5,
    "point":5,
    "ones":5,
    "gun":5,
    "dead":5,
    "husband":5,
    "body":5,
    "affair":5,
    "woman":5,
    "witness":5,
    "else":6,
    "seat":6,
    "mean":6,
    "elles":6,
    "top":6,
    "again":6,
    "behind":6,
    "student":6,
    "youll":6,
    "admissions":6,
    "judge":6,
    "trust":6,
    "confused":6,
    "important":6,
    "life":6,
    "every":6,
    "before":6,
    "boy":6,
    "stands":6,
    "pink":6,
    "smile":6,
    "does":6,
    "everyone":6,
    "enid":6,
    "made":6,
    "hey":6,
    "thanks":6,
    "whos":6,
    "ask":6,
    "feel":6,
    "since":6,
    "doesnt":6,
    "murder":6,
    "hair":6,
    "shot":6,
    "vandermark":6,
    "while":6,
    "enough":7,
    "big":7,
    "amy":7,
    "much":7,
    "went":7,
    "heard":7,
    "having":7,
    "thought":7,
    "house":7,
    "last":7,
    "say":7,
    "three":7,
    "hands":7,
    "d":7,
    "which":7,
    "show":7,
    "stromwell":7,
    "fact":7,
    "supposed":7,
    "will":7,
    "shower":7,
    "ass":7,
    "saw":7,
    "enrique":7,
    "father":7,
    "honor":7,
    "lets":8,
    "guys":8,
    "standing":8,
    "whats":8,
    "day":8,
    "night":8,
    "anything":8,
    "girls":8,
    "year":8,
    "our":8,
    "still":8,
    "little":8,
    "together":8,
    "eyes":8,
    "something":8,
    "or":8,
    "today":8,
    "pool":8,
    "love":9,
    "gonna":9,
    "delta":9,
    "gamma":9,
    "uh":9,
    "better":9,
    "away":9,
    "said":9,
    "sure":9,
    "hear":9,
    "doing":9,
    "next":9,
    "two":9,
    "theres":9,
    "call":9,
    "alibi":9,
    "ever":9,
    "head":10,
    "someone":10,
    "blonde":10,
    "man":10,
    "serious":10,
    "hand":10,
    "them":10,
    "god":10,
    "hell":10,
    "make":10,
    "lawyer":10,
    "room":10,
    "guy":10,
    "some":10,
    "paulette":10,
    "ill":11,
    "come":11,
    "never":11,
    "any":11,
    "than":11,
    "us":11,
    "harvard":11,
    "sorry":11,
    "im":11,
    "even":11,
    "where":11,
    "case":11,
    "mr":11,
    "am":12,
    "more":12,
    "people":12,
    "turns":12,
    "could":12,
    "after":12,
    "professor":12,
    "chutney":12,
    "too":13,
    "serena":13,
    "into":13,
    "should":13,
    "completely":13,
    "been":13,
    "need":13,
    "take":13,
    "first":13,
    "oh":13,
    "has":13,
    "walks":13,
    "off":14,
    "margot":14,
    "well":14,
    "right":14,
    "way":14,
    "maybe":14,
    "ive":14,
    "okay":14,
    "only":15,
    "down":15,
    "really":15,
    "time":15,
    "want":15,
    "around":15,
    "ms":15,
    "girl":16,
    "hes":16,
    "smiles":16,
    "because":17,
    "mrs":17,
    "by":17,
    "good":17,
    "woods":17,
    "look":18,
    "there":18,
    "yes":18,
    "when":18,
    "school":18,
    "had":18,
    "see":19,
    "going":19,
    "tell":19,
    "think":19,
    "class":19,
    "believe":20,
    "thats":20,
    "one":20,
    "they":21,
    "didnt":21,
    "now":21,
    "all":21,
    "emmett":21,
    "would":22,
    "over":22,
    "go":23,
    "brooke":23,
    "did":24,
    "get":24,
    "here":24,
    "cant":25,
    "law":26,
    "then":26,
    "who":26,
    "windham":26,
    "from":27,
    "got":27,
    "an":27,
    "can":28,
    "about":28,
    "just":28,
    "were":29,
    "how":29,
    "shes":30,
    "do":31,
    "sarah":31,
    "donovan":31,
    "why":32,
    "if":32,
    "its":33,
    "know":33,
    "dont":34,
    "out":35,
    "no":35,
    "so":37,
    "back":37,
    "like":40,
    "we":40,
    "him":40,
    "warner":41,
    "his":43,
    "be":43,
    "are":46,
    "but":46,
    "was":48,
    "looks":50,
    "up":52,
    "youre":53,
    "have":56,
    "m":58,
    "your":58,
    "this":58,
    "my":59,
    "not":60,
    "with":61,
    "as":61,
    "what":63,
    "he":64,
    "on":68,
    "for":78,
    "me":79,
    "at":79,
    "that":81,
    "is":83,
    "it":86,
    "she":88,
    "her":108,
    "in":113,
    "of":118,
    "\u2014":123,
    "elle":132,
    "":141,
    "and":161,
    "to":213,
    "a":242,
    "i":284,
    "you":291,
    "the":321
}