{
    "jackothegreen":1,
    "greetings":1,
    "wood":1,
    "perhaps":1,
    "ahunting":1,
    "frightful":1,
    "wears":1,
    "aptly":1,
    "promise":1,
    "oath":1,
    "complaining":1,
    "gentleman":1,
    "boot":1,
    "detest":1,
    "serpents":1,
    "patient":1,
    "elfwork":1,
    "dropped":1,
    "startled":1,
    "search":1,
    "leave":1,
    "alone":1,
    "spoor":1,
    "daughters":1,
    "certain":1,
    "proceed":1,
    "restrain":1,
    "commoner":1,
    "royalty":1,
    "approaches":1,
    "ohhhh":1,
    "purifies":1,
    "purging":1,
    "poison":1,
    "smell":1,
    "ambrosia":1,
    "rival":1,
    "paradise":1,
    "mightnt":1,
    "thrill":1,
    "virtuous":1,
    "lay":1,
    "flee":1,
    "chaste":1,
    "awesome":1,
    "virginity":1,
    "failure":1,
    "implications":1,
    "unbecoming":1,
    "judge":1,
    "witness":1,
    "trial":1,
    "hunters":1,
    "tricked":1,
    "fast":1,
    "ran":1,
    "mount":1,
    "kingdom":1,
    "outrun":1,
    "ransom":1,
    "drops":1,
    "reminded":1,
    "washed":1,
    "spots":1,
    "rode":1,
    "milkwhite":1,
    "roses":1,
    "dewdrops":1,
    "woven":1,
    "hair":1,
    "flatter":1,
    "flattery":1,
    "happier":1,
    "kissing":1,
    "mocks":1,
    "wary":1,
    "intentions":1,
    "intends":1,
    "la":1,
    "quarry":1,
    "bay":1,
    "attend":1,
    "storm":1,
    "cozy":1,
    "bower":1,
    "horses":1,
    "band":1,
    "serenade":1,
    "dancing":1,
    "adancing":1,
    "reel":1,
    "partners":1,
    "frolic":1,
    "nights":1,
    "dictate":1,
    "music":1,
    "disrespect":1,
    "forgiven":1,
    "song":1,
    "strumming":1,
    "bell":1,
    "knell":1,
    "ringing":1,
    "lifes":1,
    "codfish":1,
    "cockles":1,
    "gammon":1,
    "trotters":1,
    "mark":1,
    "wanting":1,
    "deserves":1,
    "laid":1,
    "hearth":1,
    "lived":1,
    "hill":1,
    "nae":1,
    "harp":1,
    "meself":1,
    "dread":1,
    "waking":1,
    "hotblooded":1,
    "wouldnt":1,
    "affections":1,
    "nymph":1,
    "corpse":1,
    "bottom":1,
    "elderberry":1,
    "delicious":1,
    "bouquet":1,
    "aromatic":1,
    "momma":1,
    "food":1,
    "rude":1,
    "general":1,
    "boots":1,
    "misunderstand":1,
    "grateful":1,
    "prattle":1,
    "upside":1,
    "summertime":1,
    "wintry":1,
    "underworld":1,
    "unleashed":1,
    "state":1,
    "blamed":1,
    "gumpd":1,
    "wizard":1,
    "measure":1,
    "modest":1,
    "questions":1,
    "elsewhere":1,
    "goods":1,
    "locked":1,
    "season":1,
    "folks":1,
    "scare":1,
    "wits":1,
    "summers":1,
    "tickle":1,
    "enjoyable":1,
    "somewhere":1,
    "respect":1,
    "bog":1,
    "seaside":1,
    "doubtful":1,
    "standards":1,
    "devours":1,
    "children":1,
    "avoid":1,
    "lead":1,
    "merry":1,
    "wallow":1,
    "dwells":1,
    "play":1,
    "girlchild":1,
    "shell":1,
    "suck":1,
    "honey":1,
    "comb":1,
    "toss":1,
    "terribly":1,
    "vain":1,
    "lull":1,
    "babe":1,
    "cradle":1,
    "ratspittle":1,
    "toadbreath":1,
    "accursed":1,
    "bat":1,
    "bullfrog":1,
    "loveliness":1,
    "rivals":1,
    "reflected":1,
    "discerning":1,
    "young":1,
    "maam":1,
    "smile":1,
    "afar":1,
    "complete":1,
    "cloud":1,
    "comparison":1,
    "dross":1,
    "heavenly":1,
    "envy":1,
    "conceit":1,
    "rare":1,
    "entreat":1,
    "surrounding":1,
    "bespeak":1,
    "mourning":1,
    "slain":1,
    "thou":1,
    "hast":1,
    "lucky":1,
    "dry":1,
    "upon":1,
    "devil":1,
    "chopped":1,
    "rot":1,
    "vanquished":1,
    "noirs":1,
    "rests":1,
    "sharpest":1,
    "fury":1,
    "precise":1,
    "directions":1,
    "sit":1,
    "beside":1,
    "draw":1,
    "map":1,
    "tempting":1,
    "invitation":1,
    "became":1,
    "godwins":1,
    "daughter":1,
    "trace":1,
    "exceeding":1,
    "compare":1,
    "star":1,
    "concerned":1,
    "again":1,
    "hummingbird":1,
    "returns":1,
    "fairest":1,
    "blossom":1,
    "tongue":1,
    "lamentable":1,
    "concerns":1,
    "killing":1,
    "caused":1,
    "restored":1,
    "ended":1,
    "acorns":1,
    "nests":1,
    "sake":1,
    "bravely":1,
    "taking":1,
    "possession":1,
    "forgotten":1,
    "final":1,
    "graverobber":1,
    "residence":1,
    "less":1,
    "ones":1,
    "skewer":1,
    "michaeld":1,
    "job":1,
    "hoards":1,
    "booty":1,
    "among":1,
    "treasures":1,
    "knaves":1,
    "robbers":1,
    "sleeper":1,
    "praying":1,
    "yank":1,
    "haul":1,
    "recognize":1,
    "noise":1,
    "deaf":1,
    "stumps":1,
    "grants":1,
    "potent":1,
    "solly":1,
    "intellupt":1,
    "crossed":1,
    "wanna":1,
    "lising":1,
    "sun":1,
    "mercia":1,
    "idee":1,
    "people":1,
    "lookee":1,
    "same":1,
    "countlee":1,
    "bling":1,
    "luck":1,
    "makee":1,
    "lain":1,
    "thunder":1,
    "ravage":1,
    "countryside":1,
    "devouring":1,
    "maidens":1,
    "burning":1,
    "crops":1,
    "stlength":1,
    "goodness":1,
    "stag":1,
    "stolen":1,
    "outside":1,
    "return":1,
    "flozen":1,
    "foleva":1,
    "rift":1,
    "cuss":1,
    "stupid":1,
    "puny":1,
    "pilfering":1,
    "listening":1,
    "insignificant":1,
    "worthless":1,
    "revere":1,
    "meat":1,
    "gnats":1,
    "pesky":1,
    "gadfly":1,
    "swatting":1,
    "waste":1,
    "filthy":1,
    "child":1,
    "worry":1,
    "pet":1,
    "housebroke":1,
    "meats":1,
    "flesh":1,
    "belly":1,
    "hush":1,
    "wormsticking":1,
    "modesty":1,
    "sits":1,
    "providence":1,
    "sharper":1,
    "archangels":1,
    "wield":1,
    "michael":1,
    "drove":1,
    "alls":1,
    "lacking":1,
    "lies":1,
    "marsh":1,
    "ravenfodder":1,
    "torn":1,
    "stallions":1,
    "change":1,
    "squabbling":1,
    "shush":1,
    "coming":1,
    "foal":1,
    "pregnant":1,
    "wonderful":1,
    "careful":1,
    "brutes":1,
    "shant":1,
    "debt":1,
    "stout":1,
    "wolfslayer":1,
    "wormsticker":1,
    "turning":1,
    "garments":1,
    "insideout":1,
    "sewing":1,
    "enchant":1,
    "brighten":1,
    "studll":1,
    "beget":1,
    "shy":1,
    "mother":1,
    "deserve":1,
    "shine":1,
    "second":1,
    "colts":1,
    "smaller":1,
    "dust":1,
    "trick":1,
    "ungrateful":1,
    "sour":1,
    "droppingsll":1,
    "fall":1,
    "wherever":1,
    "droppings":1,
    "knave":1,
    "mountain":1,
    "troops":1,
    "finelooking":1,
    "hour":1,
    "finding":1,
    "troubling":1,
    "trail":1,
    "track":1,
    "lair":1,
    "hang":1,
    "dirty":1,
    "laundry":1,
    "drying":1,
    "oceans":1,
    "deep":1,
    "moons":1,
    "souls":1,
    "sounds":1,
    "pinched":1,
    "probably":1,
    "everythings":1,
    "laugh":1,
    "laughs":1,
    "bettern":1,
    "stubbing":1,
    "toe":1,
    "weaves":1,
    "fraid":1,
    "preserve":1,
    "tops":1,
    "barely":1,
    "sorcery":1,
    "witchcraft":1,
    "swine":1,
    "eaters":1,
    "maggots":1,
    "vermin":1,
    "chapsll":1,
    "woodpecker":1,
    "mounting":1,
    "party":1,
    "lymers":1,
    "alaunts":1,
    "cared":1,
    "chasing":1,
    "tables":1,
    "lot":1,
    "delivering":1,
    "foulest":1,
    "shorter":1,
    "memories":1,
    "lend":1,
    "fields":1,
    "ofttimes":1,
    "tend":1,
    "wounded":1,
    "staunch":1,
    "bleeding":1,
    "cobwebs":1,
    "parched":1,
    "dew":1,
    "cool":1,
    "fevered":1,
    "brow":1,
    "quit":1,
    "wager":1,
    "attractions":1,
    "apart":1,
    "nursing":1,
    "knight":1,
    "borrowing":1,
    "stealing":1,
    "steal":1,
    "seeing":1,
    "roosted":1,
    "sharp":1,
    "spire":1,
    "distance":1,
    "landmark":1,
    "provide":1,
    "refuge":1,
    "unknown":1,
    "travelers":1,
    "precede":1,
    "thinking":1,
    "hospitable":1,
    "hardworking":1,
    "chaps":1,
    "forge":1,
    "livelong":1,
    "distract":1,
    "casual":1,
    "visitor":1,
    "dwarf":1,
    "busy":1,
    "disturbed":1,
    "imagination":1,
    "gleanings":1,
    "mentioned":1,
    "carrion":1,
    "frighten":1,
    "uninvited":1,
    "doorstop":1,
    "bah":1,
    "morals":1,
    "grave":1,
    "injustice":1,
    "settled":1,
    "inhospitable":1,
    "spriggen":1,
    "banshee":1,
    "bogies":1,
    "sunset":1,
    "considered":1,
    "guests":1,
    "others":1,
    "twists":1,
    "turns":1,
    "astray":1,
    "plays":1,
    "deafen":1,
    "infernal":1,
    "excuse":1,
    "enthusiasm":1,
    "occasioned":1,
    "fondness":1,
    "sold":1,
    "jug":1,
    "piss":1,
    "claiming":1,
    "bygonesre":1,
    "bygones":1,
    "stole":1,
    "apples":1,
    "merely":1,
    "stood":1,
    "blame":1,
    "unfairly":1,
    "rehash":1,
    "differences":1,
    "haven":1,
    "escort":1,
    "acquaintance":1,
    "leads":1,
    "weather":1,
    "late":1,
    "undo":1,
    "gonna":1,
    "ogrestew":1,
    "blackhearts":1,
    "soup":1,
    "clean":1,
    "straw":1,
    "footprints":1,
    "sensitive":1,
    "certainly":1,
    "understandable":1,
    "secretive":1,
    "mention":1,
    "lips":1,
    "putting":1,
    "foot":1,
    "beat":1,
    "curing":1,
    "cousin":1,
    "co":1,
    "uncle":1,
    "fashioned":1,
    "hammer":1,
    "thor":1,
    "mjolnir":1,
    "grandfather":1,
    "excalibur":1,
    "craftsmanship":1,
    "wields":1,
    "stagnars":1,
    "called":1,
    "regin":1,
    "welded":1,
    "heros":1,
    "handmedown":1,
    "greek":1,
    "uhm":1,
    "wore":1,
    "gates":1,
    "troy":1,
    "equipped":1,
    "legendary":1,
    "stoutly":1,
    "grouches":1,
    "heed":1,
    "spiteful":1,
    "grumbling":1,
    "talk":1,
    "heroes":1,
    "upset":1,
    "apiece":1,
    "neckandneck":1,
    "tournament":1,
    "twice":1,
    "tempered":1,
    "counts":1,
    "swings":1,
    "yesterday":1,
    "chastity":1,
    "methought":1,
    "kept":1,
    "naked":1,
    "maiden":1,
    "chanced":1,
    "abandoned":1,
    "fox":1,
    "den":1,
    "roots":1,
    "thousandyearold":1,
    "oak":1,
    "bed":1,
    "pine":1,
    "boughs":1,
    "rabbit":1,
    "skins":1,
    "weaponry":1,
    "maids":1,
    "partial":1,
    "oaks":1,
    "maynt":1,
    "sometime":1,
    "charmed":1,
    "charms":1,
    "dull":1,
    "witted":1,
    "offending":1,
    "wondrously":1,
    "new":1,
    "pollen":1,
    "shape":1,
    "promises":1,
    "dally":1,
    "guised":1,
    "suffered":1,
    "generosity":1,
    "large":1,
    "sting":1,
    "sharply":1,
    "whip":1,
    "heartless":1,
    "jesting":1,
    "torture":1,
    "magnificent":1,
    "grotesque":1,
    "monstrous":1,
    "contrary":1,
    "puling":1,
    "pallid":1,
    "truly":1,
    "disgusting":1,
    "goddess":1,
    "embodiment":1,
    "humiliate":1,
    "forced":1,
    "bear":1,
    "punishment":1,
    "triumph":1,
    "beasts":1,
    "also":1,
    "ashamed":1,
    "concealment":1,
    "require":1,
    "shadows":1,
    "solace":1,
    "cover":1,
    "completely":1,
    "whenever":1,
    "venture":1,
    "forth":1,
    "daylight":1,
    "sunshine":1,
    "destroyer":1,
    "vile":1,
    "sagacious":1,
    "owl":1,
    "feed":1,
    "mice":1,
    "plump":1,
    "capon":1,
    "brought":1,
    "assure":1,
    "plucky":1,
    "lust":1,
    "feline":1,
    "times":1,
    "throw":1,
    "discipline":1,
    "lessons":1,
    "obedience":1,
    "future":1,
    "baroness":1,
    "damsel":1,
    "distress":1,
    "rescue":1,
    "attempt":1,
    "amusing":1,
    "flay":1,
    "afterdinner":1,
    "cry":1,
    "vex":1,
    "threats":1,
    "soft":1,
    "spiritless":1,
    "hawks":1,
    "keen":1,
    "steel":1,
    "barren":1,
    "build":1,
    "enter":1,
    "porridgepot":1,
    "blast":1,
    "fathom":1,
    "womens":1,
    "gentle":1,
    "journey":1,
    "ragwort":1,
    "stems":1,
    "ahem":1,
    "fancy":1,
    "favor":1,
    "wrought":1,
    "tristan":1,
    "oertook":1,
    "axe":1,
    "dent":1,
    "blight":1,
    "gainst":1,
    "fighters":1,
    "assistance":1,
    "coil":1,
    "thread":1,
    "web":1,
    "silver":1,
    "select":1,
    "flies":1,
    "due":1,
    "onward":1,
    "rate":1,
    "fortress":1,
    "grows":1,
    "slower":1,
    "gods":1,
    "blessing":1,
    "mates":1,
    "bodes":1,
    "pageant":1,
    "lark":1,
    "willful":1,
    "stuck":1,
    "lance":1,
    "deal":1,
    "guard":1,
    "bug":1,
    "chinks":1,
    "spaces":1,
    "between":1,
    "cheers":1,
    "spiders":1,
    "ears":1,
    "continue":1,
    "direction":1,
    "knowing":1,
    "changes":1,
    "gently":1,
    "boys":1,
    "bury":1,
    "futures":1,
    "secrets":1,
    "belong":1,
    "oaf":1,
    "lepers":1,
    "thumb":1,
    "mixture":1,
    "cools":1,
    "droll":1,
    "stead":1,
    "seriously":1,
    "riding":1,
    "serious":1,
    "marching":1,
    "miracle":1,
    "past":1,
    "insects":1,
    "ready":1,
    "rip":1,
    "shreds":1,
    "admit":1,
    "entirely":1,
    "greeks":1,
    "decked":1,
    "sending":1,
    "pity":1,
    "imps":1,
    "fiends":1,
    "rogue":1,
    "frightfullooking":1,
    "sod":1,
    "harmless":1,
    "aright":1,
    "gotten":1,
    "clap":1,
    "mate":1,
    "point":1,
    "eh":1,
    "hate":1,
    "blacker":1,
    "spoils":1,
    "aplenty":1,
    "guide":1,
    "problem":1,
    "moans":1,
    "pleasurable":1,
    "developing":1,
    "etiquette":1,
    "parents":1,
    "sadly":1,
    "overlooked":1,
    "victim":1,
    "months":1,
    "art":1,
    "beg":1,
    "constant":1,
    "begin":1,
    "reasonable":1,
    "company":1,
    "table":1,
    "cleaned":1,
    "suitable":1,
    "gown":1,
    "nourishment":1,
    "returning":1,
    "become":1,
    "ripe":1,
    "harvest":1,
    "pleased":1,
    "paltry":1,
    "trifle":1,
    "expect":1,
    "highly":1,
    "elusive":1,
    "commodity":1,
    "suggest":1,
    "contemplate":1,
    "intriguing":1,
    "reflection":1,
    "consider":1,
    "whether":1,
    "possibly":1,
    "pair":1,
    "born":1,
    "chill":1,
    "castles":1,
    "mortar":1,
    "grief":1,
    "troubles":1,
    "protecting":1,
    "glued":1,
    "basement":1,
    "cries":1,
    "despair":1,
    "feels":1,
    "greedy":1,
    "awake":1,
    "nightmares":1,
    "battlements":1,
    "bout":1,
    "siege":1,
    "machinery":1,
    "scaling":1,
    "ladders":1,
    "frontal":1,
    "attack":1,
    "diversion":1,
    "drive":1,
    "tunnel":1,
    "digging":1,
    "unto":1,
    "storming":1,
    "bastions":1,
    "mites":1,
    "scurry":1,
    "fleas":1,
    "delusion":1,
    "kind":1,
    "works":1,
    "against":1,
    "persuaded":1,
    "pygmie":1,
    "sling":1,
    "armed":1,
    "dumb":1,
    "peewee":1,
    "required":1,
    "tiny":1,
    "invaders":1,
    "raise":1,
    "hatch":1,
    "birdies":1,
    "pace":1,
    "curdling":1,
    "braverlooking":1,
    "host":1,
    "short":1,
    "heat":1,
    "prove":1,
    "calm":1,
    "horseflies":1,
    "kneel":1,
    "mess":1,
    "horrid":1,
    "nipping":1,
    "creatures":1,
    "spoken":1,
    "loose":1,
    "assemble":1,
    "everyone":1,
    "holding":1,
    "retrieve":1,
    "somehow":1,
    "front":1,
    "center":1,
    "shields":1,
    "gadflies":1,
    "fights":1,
    "survivors":1,
    "retreat":1,
    "pleasant":1,
    "awaiting":1,
    "began":1,
    "finish":1,
    "evenings":1,
    "private":1,
    "affair":1,
    "audience":1,
    "dismantling":1,
    "enemies":1,
    "aflame":1,
    "purely":1,
    "precaution":1,
    "bloody":1,
    "marvelous":1,
    "thrifty":1,
    "slippers":1,
    "oisin":1,
    "fired":1,
    "burn":1,
    "frog":1,
    "tomcats":1,
    "telling":1,
    "side":1,
    "magics":1,
    "match":1,
    "gifts":1,
    "unbreakable":1,
    "tie":1,
    "timbers":1,
    "climb":1,
    "chop":1,
    "perfect":1,
    "solution":1,
    "gunner":1,
    "liege":1,
    "rise":1,
    "basket":1,
    "maybe":1,
    "idea":1,
    "friendly":1,
    "shut":1,
    "acting":1,
    "cling":1,
    "itself":1,
    "windlass":1,
    "engineers":1,
    "corrected":1,
    "alignment":1,
    "trajectory":1,
    "pesties":1,
    "attacked":1,
    "godspeed":1,
    "hump":1,
    "meeeeeeeee":1,
    "glorious":1,
    "bet":1,
    "elves":1,
    "breakfast":1,
    "moving":1,
    "serves":1,
    "toast":1,
    "atop":1,
    "worries":1,
    "sippin":1,
    "fresh":1,
    "cows":1,
    "udder":1,
    "loves":1,
    "eating":1,
    "pancakes":1,
    "breached":1,
    "delight":1,
    "routing":1,
    "sounded":1,
    "courtyard":1,
    "parapets":1,
    "amused":1,
    "contriving":1,
    "later":1,
    "dreamed":1,
    "pleasures":1,
    "seize":1,
    "insipid":1,
    "pale":1,
    "skinned":1,
    "rapture":1,
    "odd":1,
    "changing":1,
    "sick":1,
    "loathing":1,
    "disgust":1,
    "looked":1,
    "weakness":1,
    "primitive":1,
    "surfaced":1,
    "brothers":1,
    "hawk":1,
    "created":1,
    "image":1,
    "turbulent":1,
    "motion":1,
    "savagery":1,
    "mating":1,
    "share":1,
    "exquisite":1,
    "yield":1,
    "grant":1,
    "quarter":1,
    "bewitched":1,
    "given":1,
    "freed":1,
    "damnable":1,
    "cowardly":1,
    "used":1,
    "destroys":1,
    "goes":1,
    "masked":1,
    "during":1,
    "hiding":1,
    "courtyards":1,
    "forces":1,
    "besieged":1,
    "south":1,
    "tower":1,
    "sign":1,
    "saying":1,
    "won":1,
    "nonsense":1,
    "reckoned":1,
    "medicine":1,
    "senses":1,
    "doomed":1,
    "hides":1,
    "passage":1,
    "opens":1,
    "quickly":1,
    "below":1,
    "important":1,
    "room":1,
    "fighting":1,
    "carrying":1,
    "kettle":1,
    "easier":1,
    "couple":1,
    "plates":1,
    "howre":1,
    "plate":1,
    "explain":1,
    "patience":1,
    "hideaway":1,
    "goldenrod":1,
    "faster":1,
    "delicate":1,
    "operation":1,
    "requires":1,
    "engineering":1,
    "next":1,
    "kirkdale":1,
    "reporting":1,
    "duty":1,
    "vaulted":1,
    "chamber":1,
    "jaack":1,
    "wondered":1,
    "needed":1,
    "escape":1,
    "wildest":1,
    "fiery":1,
    "furnace":1,
    "womb":1,
    "took":1,
    "exactly":1,
    "whence":1,
    "lucifer":1,
    "blessed":1,
    "forty":1,
    "springtimes":1,
    "denying":1,
    "joyous":1,
    "till":1,
    "lungs":1,
    "burst":1,
    "worth":1,
    "worlds":1,
    "reborn":1,
    "sleeps":1,
    "impatient":1,
    "burns":1,
    "purged":1,
    "instant":1,
    "remember":1,
    "endless":1,
    "quests":1,
    "festival":1,
    "scar":1,
    "talking":1,
    "harder":1,
    "repair":1,
    "swordwork":1,
    "gesture":1,
    "fell":1,
    "tossed":1,
    "bid":1,
    "shed":1,
    "air":1,
    "completes":1,
    "cycle":1,
    "riddles":1,
    "broken":1,
    "fond":1,
    "swim":1,
    "sticking":1,
    "exchange":1,
    "bauble":1,
    "exciting":1,
    "spectacle":1,
    "horseback":1,
    "courting":1,
    "crown":1,
    "nightmare":1,
    "sleeping":1,
    "fetched":1,
    "seemed":1,
    "title":1,
    "lands":1,
    "scarce":1,
    "vines":1,
    "threads":1,
    "weeds":1,
    "prince":1,
    "everywhere":1,
    "buzzing":1,
    "trapped":1,
    "ear":1,
    "hurts":1,
    "crosses":1,
    "strew":1,
    "floors":1,
    "flax":1,
    "salt":1,
    "lots":1,
    "stuffy":1,
    "manor":1,
    "weathers":1,
    "homespun":1,
    "shepherdess":1,
    "hello":2,
    "bother":2,
    "cruel":2,
    "brings":2,
    "promised":2,
    "liar":2,
    "perchance":2,
    "guest":2,
    "sport":2,
    "sacred":2,
    "minute":2,
    "thirsty":2,
    "offer":2,
    "yon":2,
    "viper":2,
    "envenomed":2,
    "lace":2,
    "himself":2,
    "rather":2,
    "hounds":2,
    "horns":2,
    "shhh":2,
    "order":2,
    "quiet":2,
    "honest":2,
    "maid":2,
    "lap":2,
    "test":2,
    "theyve":2,
    "bait":2,
    "run":2,
    "pay":2,
    "memory":2,
    "seed":2,
    "kiss":2,
    "bride":2,
    "marry":2,
    "wishes":2,
    "beggars":2,
    "wedding":2,
    "whos":2,
    "twill":2,
    "part":2,
    "begun":2,
    "liking":2,
    "meant":2,
    "cannot":2,
    "pleases":2,
    "thee":2,
    "bluebells":2,
    "flower":2,
    "means":2,
    "damnation":2,
    "bested":2,
    "empty":2,
    "cup":2,
    "gave":2,
    "riddlediddle":2,
    "nicketynoo":2,
    "nickety":2,
    "nackety":2,
    "noonoonoo":2,
    "dreaming":2,
    "jacklad":2,
    "runs":2,
    "sup":2,
    "generally":2,
    "known":2,
    "knew":2,
    "hospitality":2,
    "sip":2,
    "powerful":2,
    "looking":2,
    "wrong":2,
    "happen":2,
    "babies":2,
    "spells":2,
    "cast":2,
    "prospect":2,
    "hideous":2,
    "hag":2,
    "courage":2,
    "answers":2,
    "morrow":2,
    "tonight":2,
    "foolish":2,
    "rob":2,
    "lure":2,
    "caught":2,
    "resist":2,
    "glass":2,
    "thinks":2,
    "teeth":2,
    "cross":2,
    "twixt":2,
    "universe":2,
    "glory":2,
    "call":2,
    "closer":2,
    "thanks":2,
    "moon":2,
    "befallen":2,
    "cause":2,
    "sorrow":2,
    "wondrous":2,
    "stallion":2,
    "therell":2,
    "flight":2,
    "old":2,
    "struck":2,
    "twould":2,
    "meal":2,
    "lilis":2,
    "mound":2,
    "dragonslayer":2,
    "asking":2,
    "st":2,
    "hands":2,
    "serpent":2,
    "pile":2,
    "within":2,
    "worms":2,
    "covered":2,
    "gold":2,
    "tree":2,
    "charm":2,
    "velly":2,
    "speakee":2,
    "loud":2,
    "harm":2,
    "stealee":2,
    "tleasoo":2,
    "flum":2,
    "cathay":2,
    "fa":2,
    "east":2,
    "diffelent":2,
    "dlagon":2,
    "spilit":2,
    "cursed":2,
    "plunged":2,
    "eternal":2,
    "unless":2,
    "forever":2,
    "suffer":2,
    "gladly":2,
    "whelp":2,
    "leg":2,
    "move":2,
    "delightful":2,
    "challenge":2,
    "breath":2,
    "lifted":2,
    "victuals":2,
    "eat":2,
    "full":2,
    "jacks":2,
    "aint":2,
    "false":2,
    "shhhh":2,
    "dolt":2,
    "somethings":2,
    "appear":2,
    "wolves":2,
    "collect":2,
    "miracles":2,
    "bee":2,
    "cow":2,
    "high":2,
    "wide":2,
    "beneath":2,
    "oberons":2,
    "unseen":2,
    "place":2,
    "pinch":2,
    "joke":2,
    "sorcerers":2,
    "poor":2,
    "send":2,
    "above":2,
    "different":2,
    "etc":2,
    "godwin":2,
    "lift":2,
    "reward":2,
    "fellow":2,
    "cut":2,
    "hope":2,
    "mouth":2,
    "seems":2,
    "held":2,
    "quite":2,
    "two":2,
    "honor":2,
    "suppose":2,
    "tells":2,
    "mile":2,
    "neath":2,
    "doubt":2,
    "hammering":2,
    "handiwork":2,
    "fools":2,
    "bold":2,
    "ferrets":2,
    "manner":2,
    "piece":2,
    "pure":2,
    "since":2,
    "tears":2,
    "mine":2,
    "oggs":2,
    "step":2,
    "each":2,
    "avatar":2,
    "sigurd":2,
    "volsung":2,
    "fafnir":2,
    "break":2,
    "sigurds":2,
    "ah":2,
    "being":2,
    "sweeter":2,
    "jest":2,
    "spring":2,
    "possible":2,
    "matters":2,
    "hearts":2,
    "real":2,
    "happy":2,
    "abhorrent":2,
    "fierce":2,
    "beast":2,
    "shame":2,
    "darkness":2,
    "toadstool":2,
    "rats":2,
    "happily":2,
    "choice":2,
    "both":2,
    "almost":2,
    "savage":2,
    "caress":2,
    "around":2,
    "hard":2,
    "haste":2,
    "wed":2,
    "thistledown":2,
    "noble":2,
    "ere":2,
    "spider":2,
    "lock":2,
    "valor":2,
    "victory":2,
    "graves":2,
    "passed":2,
    "ago":2,
    "heading":2,
    "through":2,
    "archers":2,
    "shoot":2,
    "bite":2,
    "batwing":2,
    "quick":2,
    "carry":2,
    "spears":2,
    "getting":2,
    "surprise":2,
    "lose":2,
    "strike":2,
    "surprises":2,
    "built":2,
    "try":2,
    "breach":2,
    "remains":2,
    "moment":2,
    "imagine":2,
    "possess":2,
    "felt":2,
    "close":2,
    "arent":2,
    "together":2,
    "whilst":2,
    "wolf":2,
    "which":2,
    "magician":2,
    "precisely":2,
    "giant":2,
    "smashing":2,
    "speeches":2,
    "yourselves":2,
    "ourselves":2,
    "bow":2,
    "arrows":2,
    "win":2,
    "concluded":2,
    "sire":2,
    "shot":2,
    "miss":2,
    "arrow":2,
    "power":2,
    "portculis":2,
    "drawbridge":2,
    "floki":2,
    "bruise":2,
    "because":2,
    "kite":2,
    "mission":2,
    "hee":2,
    "likely":2,
    "told":2,
    "join":2,
    "palace":2,
    "brown":2,
    "tom":2,
    "mercy":2,
    "joy":2,
    "satan":2,
    "singing":2,
    "wheres":2,
    "teasing":2,
    "dearest":2,
    "husband":2,
    "ouch":2,
    "biting":2,
    "wild":3,
    "use":3,
    "provided":3,
    "ogre":3,
    "mask":3,
    "named":3,
    "fie":3,
    "lets":3,
    "animal":3,
    "three":3,
    "dogs":3,
    "until":3,
    "longer":3,
    "grace":3,
    "angels":3,
    "touch":3,
    "going":3,
    "trap":3,
    "lovely":3,
    "baby":3,
    "bad":3,
    "wound":3,
    "mare":3,
    "theyll":3,
    "catch":3,
    "kings":3,
    "powers":3,
    "mustnt":3,
    "truth":3,
    "heaven":3,
    "havent":3,
    "wife":3,
    "mood":3,
    "spend":3,
    "lively":3,
    "end":3,
    "word":3,
    "hey":3,
    "name":3,
    "mortals":3,
    "king":3,
    "splendid":3,
    "likes":3,
    "cold":3,
    "finer":3,
    "looks":3,
    "er":3,
    "enchantment":3,
    "listen":3,
    "turned":3,
    "precious":3,
    "walk":3,
    "big":3,
    "entertainment":3,
    "making":3,
    "beyond":3,
    "knows":3,
    "claws":3,
    "praise":3,
    "wanted":3,
    "naught":3,
    "else":3,
    "behind":3,
    "seem":3,
    "troubled":3,
    "calamity":3,
    "country":3,
    "weapon":3,
    "demon":3,
    "edge":3,
    "wing":3,
    "summer":3,
    "sad":3,
    "news":3,
    "cheer":3,
    "visit":3,
    "youd":3,
    "mischief":3,
    "pick":3,
    "start":3,
    "asleep":3,
    "fight":3,
    "needs":3,
    "stay":3,
    "sin":3,
    "skin":3,
    "forged":3,
    "toad":3,
    "half":3,
    "doing":3,
    "steady":3,
    "bells":3,
    "milk":3,
    "drop":3,
    "army":3,
    "march":3,
    "plan":3,
    "trees":3,
    "ogres":3,
    "battlefield":3,
    "needle":3,
    "trust":3,
    "dwarfs":3,
    "fore":3,
    "note":3,
    "ugly":3,
    "slew":3,
    "enemy":3,
    "feet":3,
    "takes":3,
    "sore":3,
    "thank":3,
    "protection":3,
    "anything":3,
    "lash":3,
    "form":3,
    "die":3,
    "swift":3,
    "human":3,
    "wall":3,
    "reach":3,
    "net":3,
    "sort":3,
    "aim":3,
    "body":3,
    "blind":3,
    "easily":3,
    "faith":3,
    "nicely":3,
    "sir":3,
    "simple":3,
    "weeks":3,
    "enjoy":3,
    "strength":3,
    "dreams":3,
    "em":3,
    "pinching":3,
    "darling":3,
    "fly":3,
    "says":3,
    "kitchen":3,
    "pond":3,
    "ow":3,
    "herself":4,
    "gone":4,
    "none":4,
    "face":4,
    "fool":4,
    "drink":4,
    "napkin":4,
    "without":4,
    "command":4,
    "head":4,
    "didnt":4,
    "unicorns":4,
    "steed":4,
    "devils":4,
    "ride":4,
    "dance":4,
    "sleep":4,
    "sure":4,
    "warm":4,
    "dare":4,
    "pleasure":4,
    "tomb":4,
    "riddle":4,
    "does":4,
    "makes":4,
    "tricks":4,
    "twas":4,
    "seen":4,
    "chance":4,
    "sound":4,
    "made":4,
    "jump":4,
    "hero":4,
    "welcome":4,
    "enchanted":4,
    "spirits":4,
    "winter":4,
    "someone":4,
    "spirit":4,
    "terrible":4,
    "treasure":4,
    "foul":4,
    "sight":4,
    "spell":4,
    "forgive":4,
    "proper":4,
    "admire":4,
    "last":4,
    "off":4,
    "fastest":4,
    "golden":4,
    "after":4,
    "sky":4,
    "believe":4,
    "fate":4,
    "nothing":4,
    "heard":4,
    "got":4,
    "understand":4,
    "quest":4,
    "wear":4,
    "whatever":4,
    "o":4,
    "nature":4,
    "soon":4,
    "had":4,
    "already":4,
    "girl":4,
    "isnt":4,
    "line":4,
    "champions":4,
    "pretty":4,
    "sapphire":4,
    "lads":4,
    "hand":4,
    "war":4,
    "arms":4,
    "stone":4,
    "ogg":4,
    "thurgis":4,
    "bit":4,
    "serve":4,
    "nice":4,
    "every":4,
    "grand":4,
    "great":4,
    "came":4,
    "beloved":4,
    "prefer":4,
    "pain":4,
    "days":4,
    "shield":4,
    "north":4,
    "hours":4,
    "turn":4,
    "set":4,
    "plenty":4,
    "smash":4,
    "moat":4,
    "doesnt":4,
    "lady":5,
    "honored":5,
    "gift":5,
    "blackheart":5,
    "water":5,
    "shall":5,
    "theyre":5,
    "alicorn":5,
    "question":5,
    "myself":5,
    "nor":5,
    "hold":5,
    "happened":5,
    "damned":5,
    "few":5,
    "birds":5,
    "beware":5,
    "methinks":5,
    "while":5,
    "fit":5,
    "mayhap":5,
    "yet":5,
    "spoke":5,
    "safe":5,
    "living":5,
    "frozen":5,
    "things":5,
    "best":5,
    "worthy":5,
    "seek":5,
    "taste":5,
    "stand":5,
    "flowers":5,
    "trouble":5,
    "curse":5,
    "taken":5,
    "left":5,
    "light":5,
    "thing":5,
    "lindfarne":5,
    "lie":5,
    "ahead":5,
    "mean":5,
    "those":5,
    "fire":5,
    "surely":5,
    "sorry":5,
    "evil":5,
    "save":5,
    "defend":5,
    "friends":5,
    "live":5,
    "dwarves":5,
    "soul":5,
    "friend":5,
    "wind":5,
    "battle":5,
    "key":5,
    "straight":5,
    "lord":5,
    "inside":5,
    "walls":5,
    "fun":5,
    "indeed":6,
    "rest":6,
    "stop":6,
    "matter":6,
    "master":6,
    "men":6,
    "woods":6,
    "beautiful":6,
    "many":6,
    "sing":6,
    "under":6,
    "hide":6,
    "bones":6,
    "found":6,
    "mortal":6,
    "folk":6,
    "wine":6,
    "eyes":6,
    "shes":6,
    "feel":6,
    "tell":6,
    "earth":6,
    "small":6,
    "care":6,
    "free":6,
    "lives":6,
    "worse":6,
    "horn":6,
    "dragons":6,
    "killed":6,
    "wait":6,
    "blade":6,
    "always":6,
    "hurry":6,
    "words":6,
    "first":6,
    "sunlight":6,
    "pass":6,
    "yourself":6,
    "father":7,
    "desire":7,
    "own":7,
    "strong":7,
    "once":7,
    "thought":7,
    "ever":7,
    "let":7,
    "round":7,
    "ask":7,
    "dream":7,
    "into":7,
    "little":7,
    "mind":7,
    "just":7,
    "been":7,
    "back":7,
    "alive":7,
    "achilles":7,
    "protect":7,
    "black":7,
    "far":7,
    "worm":7,
    "damn":7,
    "done":7,
    "weve":7,
    "bird":7,
    "said":8,
    "show":8,
    "fear":8,
    "who":8,
    "might":8,
    "speak":8,
    "honeythorn":8,
    "death":8,
    "fine":8,
    "course":8,
    "beauty":8,
    "bring":8,
    "raven":8,
    "help":8,
    "other":8,
    "watch":8,
    "over":8,
    "squarefoot":8,
    "along":8,
    "may":9,
    "something":9,
    "id":9,
    "am":9,
    "hell":9,
    "any":9,
    "hurt":9,
    "blood":9,
    "take":9,
    "before":9,
    "enough":9,
    "long":9,
    "pray":9,
    "day":9,
    "life":9,
    "boy":9,
    "easy":9,
    "jenny":9,
    "greenteeth":9,
    "creature":9,
    "follow":9,
    "man":10,
    "these":10,
    "say":10,
    "hear":10,
    "fetch":10,
    "yes":10,
    "kill":10,
    "wee":10,
    "still":10,
    "down":10,
    "dark":10,
    "could":10,
    "get":10,
    "barons":10,
    "another":10,
    "should":10,
    "hes":11,
    "wont":11,
    "keep":11,
    "wish":11,
    "much":11,
    "most":11,
    "even":11,
    "afraid":11,
    "answer":11,
    "ring":11,
    "them":11,
    "faeries":11,
    "armor":11,
    "screwball":11,
    "right":12,
    "only":12,
    "their":12,
    "away":12,
    "heart":12,
    "night":12,
    "youve":12,
    "better":12,
    "very":12,
    "give":12,
    "cant":12,
    "champion":12,
    "jimmy":12,
    "green":13,
    "about":13,
    "lost":13,
    "go":13,
    "lili":13,
    "such":13,
    "theres":13,
    "sweet":13,
    "look":13,
    "sword":13,
    "dead":13,
    "must":14,
    "some":14,
    "ive":14,
    "god":14,
    "think":14,
    "love":14,
    "oona":14,
    "work":14,
    "did":15,
    "baron":15,
    "noir":15,
    "would":15,
    "has":15,
    "whats":15,
    "thats":15,
    "where":15,
    "make":15,
    "faerie":15,
    "by":15,
    "please":15,
    "magic":15,
    "fair":16,
    "or":16,
    "couer":16,
    "de":16,
    "nay":16,
    "too":16,
    "dear":17,
    "when":17,
    "us":17,
    "true":17,
    "one":17,
    "youll":17,
    "need":17,
    "castle":17,
    "want":18,
    "out":18,
    "ye":18,
    "unicorn":19,
    "good":19,
    "how":20,
    "him":20,
    "gump":20,
    "aye":20,
    "time":20,
    "find":20,
    "they":21,
    "":21,
    "world":21,
    "way":21,
    "at":22,
    "from":22,
    "never":23,
    "an":23,
    "were":23,
    "princess":23,
    "tis":23,
    "youre":24,
    "up":24,
    "his":25,
    "he":25,
    "she":26,
    "can":26,
    "oh":27,
    "know":27,
    "why":27,
    "then":27,
    "see":28,
    "than":28,
    "our":28,
    "its":29,
    "ill":29,
    "come":29,
    "her":29,
    "im":30,
    "was":30,
    "there":30,
    "lad":30,
    "more":31,
    "will":33,
    "here":34,
    "well":38,
    "are":39,
    "if":40,
    "have":40,
    "now":40,
    "like":44,
    "but":45,
    "all":46,
    "so":47,
    "with":48,
    "on":48,
    "dont":49,
    "as":59,
    "do":62,
    "this":62,
    "that":63,
    "my":66,
    "we":68,
    "not":69,
    "what":73,
    "for":76,
    "in":88,
    "your":90,
    "no":93,
    "jack":101,
    "me":106,
    "is":110,
    "be":129,
    "it":136,
    "of":150,
    "and":158,
    "to":159,
    "i":217,
    "a":250,
    "you":269,
    "the":440
}