{
    "burritosenchiladas":1,
    "gag":1,
    "vegetables":1,
    "chatter":1,
    "sevenyou":1,
    "mans":1,
    "asking":1,
    "hooked":1,
    "mouth":1,
    "hello":1,
    "seven":1,
    "wrap":1,
    "trip":1,
    "tit":1,
    "waiting":1,
    "promise":1,
    "rogers":1,
    "neighborhood":1,
    "comes":1,
    "shackhooks":1,
    "winch":1,
    "ok":1,
    "stands":1,
    "millers":1,
    "tastes":1,
    "hurry":1,
    "compression":1,
    "ahhhh":1,
    "monitors":1,
    "normal":1,
    "station":1,
    "mother":1,
    "forgive":1,
    "monitoring":1,
    "implosion":1,
    "imploding":1,
    "dochelp":1,
    "knock":1,
    "tear":1,
    "apart":1,
    "manthis":1,
    "holds":1,
    "tops":1,
    "psychiatrists":1,
    "drinking":1,
    "brew":1,
    "lines":1,
    "bank":1,
    "stuck":1,
    "traffic":1,
    "wherever":1,
    "tv":1,
    "nauseous":1,
    "car":1,
    "driving":1,
    "dirty":1,
    "dare":1,
    "breath":1,
    "lucky":1,
    "home":1,
    "house":1,
    "everyone":1,
    "elses":1,
    "wifes":1,
    "fat":1,
    "reason":1,
    "strung":1,
    "using":1,
    "theyve":1,
    "appreciate":1,
    "hasnt":1,
    "showed":1,
    "dinner":1,
    "since":1,
    "busy":1,
    "earlier":1,
    "looking":1,
    "rosterat":1,
    "outstanding":1,
    "uh":1,
    "ohi":1,
    "owe":1,
    "mister":1,
    "whooo":1,
    "shop":1,
    "steward":1,
    "er":1,
    "abide":1,
    "rules":1,
    "follow":1,
    "letter":1,
    "tomorrowor":1,
    "twentyfive":1,
    "barring":1,
    "unforeseen":1,
    "easily":1,
    "count":1,
    "rattle":1,
    "sixpackliving":1,
    "quarters":1,
    "williamsget":1,
    "rack":1,
    "diagnostics":1,
    "latch":1,
    "screwed":1,
    "hinge":1,
    "todaywith":1,
    "smart":1,
    "anything":1,
    "stillyou":1,
    "dozed":1,
    "planning":1,
    "working":1,
    "golf":1,
    "babies":1,
    "deliver":1,
    "almost":1,
    "accident":1,
    "son":1,
    "second":1,
    "officer":1,
    "deck":1,
    "holes":1,
    "christwhat":1,
    "whatd":1,
    "wonder":1,
    "drunken":1,
    "buddy":1,
    "listen":1,
    "christsake":1,
    "ah":1,
    "old":1,
    "opening":1,
    "creak":1,
    "jointsi":1,
    "recycling":1,
    "fiftytwo":1,
    "magnesium":1,
    "sodium":1,
    "week":1,
    "facti":1,
    "folder":1,
    "front":1,
    "vice":1,
    "president":1,
    "district":1,
    "operations":1,
    "short":1,
    "shhhhdont":1,
    "job":1,
    "sirbut":1,
    "handle":1,
    "tub":1,
    "signedup":1,
    "option":1,
    "switzerlandand":1,
    "countrys":1,
    "east":1,
    "la":1,
    "okaythey":1,
    "speak":1,
    "54":1,
    "different":1,
    "dialects":1,
    "fiftyfour":1,
    "cares":1,
    "nice":1,
    "snow":1,
    "covered":1,
    "chalet":1,
    "warm":1,
    "woman":1,
    "crackling":1,
    "cobbman":1,
    "major":1,
    "development":1,
    "south":1,
    "indian":1,
    "2010":1,
    "interesting":1,
    "holdings":1,
    "remember":1,
    "year":1,
    "tanker":1,
    "fell":1,
    "bloody":1,
    "fortune":1,
    "decided":1,
    "diversify":1,
    "seriously":1,
    "topside":1,
    "date":1,
    "angel":1,
    "bowhenre":1,
    "tonights":1,
    "nba":1,
    "scores":1,
    "weathers":1,
    "checked":1,
    "whore":1,
    "kemosabi":1,
    "shitfaced":1,
    "chivas":1,
    "drinker":1,
    "play":1,
    "stupid":1,
    "cobbim":1,
    "nirvana":1,
    "rightthe":1,
    "dude":1,
    "sun":1,
    "bathing":1,
    "clothes":1,
    "darlincome":1,
    "sit":1,
    "sorry":1,
    "darlingjust":1,
    "humor":1,
    "upyou":1,
    "taste":1,
    "foot":1,
    "bunk":1,
    "iuhuh":1,
    "shehe":1,
    "ease":1,
    "dayanymore":1,
    "drunk":1,
    "insane":1,
    "hangovers":1,
    "kid":1,
    "videotaping":1,
    "outcrop":1,
    "backing":1,
    "rover":1,
    "boo":1,
    "lights":1,
    "malfunctioned":1,
    "35":1,
    "degrees":1,
    "southwest":1,
    "screw":1,
    "hardly":1,
    "darlin":1,
    "fallen":1,
    "jonesysweat":1,
    "mangot":1,
    "poison":1,
    "far":1,
    "meters":1,
    "shacknearing":1,
    "tubers":1,
    "ten":1,
    "high":1,
    "blinkers":1,
    "difference":1,
    "therehe":1,
    "pick":1,
    "signal":1,
    "eaten":1,
    "shackyou":1,
    "picking":1,
    "affirmativewidening":1,
    "picture":1,
    "reading":1,
    "minuteswho":1,
    "tank":1,
    "elsesixpack":1,
    "unbelievable":1,
    "companys":1,
    "replace":1,
    "theyll":1,
    "minutesafter":1,
    "sixpackanswer":1,
    "otherwise":1,
    "gotta":1,
    "own":1,
    "fucked":1,
    "everybodys":1,
    "personal":1,
    "effects":1,
    "timex":1,
    "moneydont":1,
    "retire":1,
    "loot":1,
    "debbie":1,
    "dallas":1,
    "assholes":1,
    "confiscated":1,
    "board":1,
    "stolichnaya":1,
    "french":1,
    "italian":1,
    "spanish":1,
    "greek":1,
    "german":1,
    "hindu":1,
    "serbo":1,
    "croat":1,
    "smattering":1,
    "swahilistandard":1,
    "premed":1,
    "background":1,
    "grandmother":1,
    "impounded":1,
    "supply":1,
    "mind":1,
    "guest":1,
    "goods":1,
    "med":1,
    "records":1,
    "anyway":1,
    "another":1,
    "party":1,
    "filled":1,
    "confiscate":1,
    "government":1,
    "mysterious":1,
    "these":1,
    "testi":1,
    "purpose":1,
    "cover":1,
    "record":1,
    "wreck":1,
    "marshal":1,
    "goloviev":1,
    "baltic":1,
    "phone":1,
    "social":1,
    "twotwelveninetysix":1,
    "use":1,
    "birthday":1,
    "bingo":1,
    "bottles":1,
    "permission":1,
    "mining":1,
    "lab":1,
    "strange":1,
    "becks":1,
    "uhexcuse":1,
    "recirculating":1,
    "cute":1,
    "dejesusspecimen":1,
    "cups":1,
    "aw":1,
    "served":1,
    "tests":1,
    "exercise":1,
    "live":1,
    "tie":1,
    "forget":1,
    "space":1,
    "cadet":1,
    "hers":1,
    "finds":1,
    "bottle":1,
    "missing":1,
    "switched":1,
    "beat":1,
    "sonof":1,
    "abitch":1,
    "turd":1,
    "favorite":1,
    "used":1,
    "hard":1,
    "others":1,
    "friendly":1,
    "goodits":1,
    "whatever":1,
    "electrical":1,
    "field":1,
    "experience":1,
    "resume":1,
    "everything":1,
    "helps":1,
    "corporate":1,
    "sup":1,
    "posed":1,
    "hone":1,
    "skills":1,
    "adventure":1,
    "hang":1,
    "earn":1,
    "figured":1,
    "shoes":1,
    "thinksir":1,
    "puuleeeeze":1,
    "sixpackrise":1,
    "shine":1,
    "tongue":1,
    "imitation":1,
    "feels":1,
    "thousand":1,
    "worse":1,
    "dunno":1,
    "doci":1,
    "thenits":1,
    "decision":1,
    "ha":1,
    "haa":1,
    "jokesuit":1,
    "sad":1,
    "self":1,
    "nohes":1,
    "consideration":1,
    "numbers":1,
    "halfpay":1,
    "entire":1,
    "cocksuckers":1,
    "sickhe":1,
    "toilet":1,
    "siri":1,
    "wanted":1,
    "docim":1,
    "coldi":1,
    "hurt":1,
    "tiny":1,
    "piece":1,
    "microscopeafterwards":1,
    "sedative":1,
    "23s":1,
    "hooks":1,
    "24":1,
    "kidding":1,
    "virus":1,
    "unknown":1,
    "origin":1,
    "work":1,
    "disorder":1,
    "rash":1,
    "eight":1,
    "thisyou":1,
    "mask":1,
    "becatching":1,
    "forth":1,
    "narragansett":1,
    "naval":1,
    "consulting":1,
    "medicine":1,
    "viruses":1,
    "described":1,
    "yeahright":1,
    "reported":1,
    "nothin":1,
    "10000":1,
    "downespecially":1,
    "checkup":1,
    "precaution":1,
    "missed":1,
    "gets":1,
    "kindaoutta":1,
    "shape":1,
    "conditionwhat":1,
    "measles":1,
    "difficult":1,
    "describe":1,
    "itd":1,
    "roof":1,
    "kind":1,
    "wife":1,
    "seem":1,
    "head":1,
    "unnecessary":1,
    "white":1,
    "gloves":1,
    "diseasedo":1,
    "causes":1,
    "ideas":1,
    "possibility":1,
    "simple":1,
    "begun":1,
    "changes":1,
    "blackensbecomes":1,
    "scaly":1,
    "yeslike":1,
    "joking":1,
    "according":1,
    "law":1,
    "commander":1,
    "authority":1,
    "dispose":1,
    "however":1,
    "jeopardy":1,
    "proof":1,
    "assume":1,
    "disease":1,
    "contagious":1,
    "anxious":1,
    "either":1,
    "felt":1,
    "danger":1,
    "authorize":1,
    "immediate":1,
    "few":1,
    "unfortunately":1,
    "shouldnt":1,
    "sixpackhey":1,
    "dog":1,
    "itbeck":1,
    "uswe":1,
    "dropped":1,
    "catching":1,
    "sleeping":1,
    "sign":1,
    "shower":1,
    "godwhats":1,
    "sixpackwhats":1,
    "sirbowmans":1,
    "usually":1,
    "simply":1,
    "herproximity":1,
    "sixpacks":1,
    "bullshiti":1,
    "except":1,
    "none":1,
    "noshe":1,
    "herself":1,
    "sector":1,
    "delayed":1,
    "double":1,
    "cobbyoure":1,
    "slacking":1,
    "goddamnitits":1,
    "states":1,
    "disposed":1,
    "authorization":1,
    "heyi":1,
    "moving":1,
    "toosomeones":1,
    "push":1,
    "sleep":1,
    "close":1,
    "brings":1,
    "rots":1,
    "upon":1,
    "fucker":1,
    "gotten":1,
    "knew":1,
    "holy":1,
    "shooting":1,
    "vodkait":1,
    "rewind":1,
    "slowly":1,
    "innsbruck":1,
    "64":1,
    "ski":1,
    "slopes":1,
    "sixtyfour":1,
    "thative":1,
    "isolated":1,
    "engineering":1,
    "aquaticus":1,
    "such":1,
    "manone":1,
    "ancestors":1,
    "named":1,
    "alps":1,
    "ethiopia":1,
    "exactly":1,
    "country":1,
    "counted":1,
    "couple":1,
    "seas":1,
    "came":1,
    "drove":1,
    "most":1,
    "sapiens":1,
    "itdanakil":1,
    "adapted":1,
    "basically":1,
    "hairless":1,
    "resistance":1,
    "speeds":1,
    "leechlike":1,
    "aspect":1,
    "life":1,
    "incorporate":1,
    "components":1,
    "offer":1,
    "perfecting":1,
    "aquaman":1,
    "isnt":1,
    "obviously":1,
    "lacked":1,
    "environment":1,
    "turned":1,
    "black":1,
    "trick":1,
    "easy":1,
    "soft":1,
    "fellow":1,
    "nothings":1,
    "changed":1,
    "jumpy":1,
    "plumbing":1,
    "finish":1,
    "puzzle":1,
    "hazywhatre":1,
    "nowcooking":1,
    "pleaseim":1,
    "manjust":1,
    "touch":1,
    "hazyits":1,
    "chunks":1,
    "teeth":1,
    "remove":1,
    "shithes":1,
    "defend":1,
    "jonescome":1,
    "rooms":1,
    "earths":1,
    "matter":1,
    "smack":1,
    "dejesusits":1,
    "doss":1,
    "doccobb":1,
    "intercoms":1,
    "busted":1,
    "fixed":1,
    "italmost":1,
    "bigger":1,
    "greatyou":1,
    "dracula":1,
    "suction":1,
    "appendages":1,
    "ran":1,
    "appears":1,
    "aberration":1,
    "lie":1,
    "traits":1,
    "deep":1,
    "liferegeneration":1,
    "gills":1,
    "period":1,
    "dormancy":1,
    "fact":1,
    "remembered":1,
    "plasma":1,
    "stored":1,
    "communication":1,
    "wiring":1,
    "imply":1,
    "quality":1,
    "whatwhat":1,
    "acquires":1,
    "victims":1,
    "word":1,
    "semantics":1,
    "guessing":1,
    "middle":1,
    "typhoonno":1,
    "lure":1,
    "flush":1,
    "careful":1,
    "bothering":1,
    "itches":1,
    "rebandage":1,
    "alone":1,
    "bag":1,
    "paws":1,
    "bandage":1,
    "docdoc":1,
    "until":1,
    "baby":1,
    "momma":1,
    "cobbs":1,
    "cutit":1,
    "signed":1,
    "warrant":1,
    "goodness":1,
    "naturally":1,
    "received":1,
    "dr":1,
    "warrens":1,
    "message":1,
    "deserted":1,
    "question":1,
    "hopefully":1,
    "48":1,
    "fortyeight":1,
    "change":1,
    "posted":1,
    "stand":1,
    "asshole":1,
    "yeahi":1,
    "deciding":1,
    "seeing":1,
    "stocks":1,
    "welcome":1,
    "union":1,
    "expendable":1,
    "stopped":1,
    "backup":1,
    "hour":1,
    "ruptured":1,
    "duct":1,
    "therere":1,
    "pipe":1,
    "bilge":1,
    "tappedin":1,
    "anywhere":1,
    "cobbjob":1,
    "drawing":1,
    "choice":1,
    "pressure":1,
    "crunchimplosion":1,
    "sitting":1,
    "wondering":1,
    "spend":1,
    "williamslets":1,
    "tune":1,
    "gointo":1,
    "wild":1,
    "blue":1,
    "yonder":1,
    "block":1,
    "die":1,
    "ride":1,
    "switch":1,
    "hurryget":1,
    "orders":1,
    "jammed":1,
    "hellve":1,
    "hung":1,
    "yours":1,
    "mekill":1,
    "ejecting":1,
    "answered":1,
    "flares":1,
    "leaves":1,
    "tip":1,
    "willietip":1,
    "damned":1,
    "looka":1,
    "flare":1,
    "quit":1,
    "kicking":1,
    "touching":1,
    "nono":1,
    "combed":1,
    "area":1,
    "didmany":1,
    "initiate":1,
    "rescue":1,
    "sucker":1,
    "dark":1,
    "jonesygive":1,
    "harness":1,
    "open":1,
    "passed":1,
    "colors":1,
    "ms":1,
    "glad":1,
    "told":1,
    "believed":1,
    "gave":1,
    "once":1,
    "bettera":1,
    "wonderful":1,
    "seafood":1,
    "else":1,
    "rather":1,
    "burger":1,
    "fries":1,
    "stuff":2,
    "fresh":2,
    "cut":2,
    "container":2,
    "22":2,
    "dumb":2,
    "over":2,
    "ready":2,
    "clear":2,
    "beer":2,
    "losing":2,
    "blow":2,
    "needs":2,
    "calm":2,
    "internal":2,
    "telling":2,
    "supposed":2,
    "wouldve":2,
    "bet":2,
    "folks":2,
    "problems":2,
    "eating":2,
    "pussy":2,
    "watching":2,
    "news":2,
    "realize":2,
    "airs":2,
    "looks":2,
    "same":2,
    "kids":2,
    "drugs":2,
    "which":2,
    "needed":2,
    "tonight":2,
    "violation":2,
    "point":2,
    "giving":2,
    "reach":2,
    "ya":2,
    "wasnt":2,
    "course":2,
    "today":2,
    "ii":2,
    "important":2,
    "nine":2,
    "pair":2,
    "boy":2,
    "boss":2,
    "hundred":2,
    "15":2,
    "martin":2,
    "friends":2,
    "nothing":2,
    "transocean":2,
    "money":2,
    "stock":2,
    "size":2,
    "beautiful":2,
    "shirt":2,
    "wearing":2,
    "wear":2,
    "beach":2,
    "goddamnit":2,
    "fall":2,
    "ago":2,
    "bottom":2,
    "years":2,
    "somebody":2,
    "power":2,
    "nbajameson":2,
    "jameson":2,
    "con":2,
    "game":2,
    "somewhere":2,
    "looney":2,
    "bin":2,
    "face":2,
    "loosen":2,
    "monster":2,
    "half":2,
    "oooooh":2,
    "loud":2,
    "pretend":2,
    "hangover":2,
    "howd":2,
    "hold":2,
    "pretty":2,
    "sent":2,
    "charge":2,
    "roger":2,
    "happening":2,
    "great":2,
    "move":2,
    "werent":2,
    "shed":2,
    "leave":2,
    "three":2,
    "rich":2,
    "mine":2,
    "report":2,
    "booze":2,
    "amigo":2,
    "observers":2,
    "sank":2,
    "mistakes":2,
    "astronaut":2,
    "drink":2,
    "happens":2,
    "goes":2,
    "doesnt":2,
    "trust":2,
    "ever":2,
    "being":2,
    "serves":2,
    "line":2,
    "leadership":2,
    "helped":2,
    "lot":2,
    "always":2,
    "heard":2,
    "theyd":2,
    "ought":2,
    "yourself":2,
    "tanking":2,
    "flying":2,
    "whys":2,
    "says":2,
    "pay":2,
    "thirty":2,
    "excuse":2,
    "hand":2,
    "please":2,
    "bring":2,
    "yes":2,
    "her":2,
    "examine":2,
    "because":2,
    "believe":2,
    "things":2,
    "death":2,
    "picked":2,
    "meal":2,
    "human":2,
    "herpes":2,
    "whole":2,
    "havent":2,
    "body":2,
    "emergency":2,
    "whatre":2,
    "saying":2,
    "delay":2,
    "feeling":2,
    "though":2,
    "explain":2,
    "downstairs":2,
    "concerned":2,
    "least":2,
    "alive":2,
    "square":2,
    "homo":2,
    "danakil":2,
    "less":2,
    "faster":2,
    "swimming":2,
    "scales":2,
    "marine":2,
    "mustard":2,
    "ahhh":2,
    "leech":2,
    "weve":2,
    "door":2,
    "friend":2,
    "fuckin":2,
    "many":2,
    "intelligence":2,
    "escape":2,
    "bubbles":2,
    "surface":2,
    "howre":2,
    "rest":2,
    "am":2,
    "order":2,
    "meat":2,
    "wait":3,
    "six":3,
    "pants":3,
    "relax":3,
    "too":3,
    "readout":3,
    "stay":3,
    "read":3,
    "jesus":3,
    "huh":3,
    "month":3,
    "place":3,
    "myself":3,
    "hope":3,
    "answer":3,
    "break":3,
    "bullshit":3,
    "makes":3,
    "minutes":3,
    "forward":3,
    "left":3,
    "found":3,
    "em":3,
    "shift":3,
    "goddamn":3,
    "pull":3,
    "tons":3,
    "might":3,
    "other":3,
    "pocket":3,
    "will":3,
    "thinking":3,
    "deal":3,
    "sounds":3,
    "put":3,
    "night":3,
    "security":3,
    "ocean":3,
    "set":3,
    "tied":3,
    "lost":3,
    "bo":3,
    "fun":3,
    "talking":3,
    "minute":3,
    "trying":3,
    "from":3,
    "guys":3,
    "crazy":3,
    "bitch":3,
    "till":3,
    "gonna":3,
    "both":3,
    "turn":3,
    "music":3,
    "miss":3,
    "show":3,
    "fine":3,
    "around":3,
    "away":3,
    "wouldnt":3,
    "maybe":3,
    "twenty":3,
    "id":3,
    "does":3,
    "lock":3,
    "learn":3,
    "maritime":3,
    "run":3,
    "tour":3,
    "number":3,
    "thanks":3,
    "training":3,
    "physical":3,
    "wont":3,
    "chance":3,
    "fix":3,
    "everybody":3,
    "guess":3,
    "control":3,
    "room":3,
    "times":3,
    "under":3,
    "symptoms":3,
    "food":3,
    "went":3,
    "sure":3,
    "christ":3,
    "fish":3,
    "twelve":3,
    "killed":3,
    "without":3,
    "onboard":3,
    "miles":3,
    "hungry":3,
    "genetic":3,
    "hit":3,
    "whos":4,
    "hook":4,
    "watch":4,
    "call":4,
    "honey":4,
    "keep":4,
    "youll":4,
    "before":4,
    "come":4,
    "through":4,
    "wheres":4,
    "into":4,
    "happened":4,
    "every":4,
    "kill":4,
    "first":4,
    "again":4,
    "top":4,
    "pickup":4,
    "youve":4,
    "damn":4,
    "enough":4,
    "she":4,
    "even":4,
    "already":4,
    "becky":4,
    "by":4,
    "system":4,
    "probably":4,
    "must":4,
    "next":4,
    "mean":4,
    "funny":4,
    "million":4,
    "hows":4,
    "theyre":4,
    "cobbie":4,
    "sea":4,
    "really":4,
    "light":4,
    "four":4,
    "gone":4,
    "blood":4,
    "god":4,
    "feet":4,
    "coming":4,
    "much":4,
    "shut":4,
    "may":4,
    "safe":4,
    "routine":4,
    "part":4,
    "understand":4,
    "shes":4,
    "typhoon":4,
    "motherfucker":4,
    "eat":5,
    "inside":5,
    "bad":5,
    "suits":5,
    "people":5,
    "stop":5,
    "yeah":5,
    "days":5,
    "weather":5,
    "five":5,
    "only":5,
    "new":5,
    "doctor":5,
    "better":5,
    "duty":5,
    "full":5,
    "hear":5,
    "last":5,
    "morning":5,
    "thank":5,
    "williams":5,
    "fire":5,
    "their":5,
    "worry":5,
    "those":5,
    "still":5,
    "infirmary":5,
    "try":5,
    "didnt":5,
    "crew":5,
    "saw":5,
    "bit":5,
    "swamp":5,
    "willie":6,
    "hazy":6,
    "jonesy":6,
    "never":6,
    "done":6,
    "let":6,
    "two":6,
    "then":6,
    "ass":6,
    "getting":6,
    "feel":6,
    "company":6,
    "tomorrow":6,
    "quota":6,
    "should":6,
    "bowman":6,
    "who":6,
    "made":6,
    "than":6,
    "best":6,
    "water":6,
    "could":6,
    "vodka":6,
    "big":6,
    "has":6,
    "mr":7,
    "after":7,
    "been":7,
    "long":7,
    "youd":7,
    "find":7,
    "ive":7,
    "problem":7,
    "check":7,
    "said":7,
    "sir":7,
    "russian":7,
    "skin":7,
    "dead":7,
    "yet":8,
    "time":8,
    "give":8,
    "need":8,
    "had":8,
    "would":8,
    "hours":8,
    "thought":8,
    "sick":8,
    "little":8,
    "hell":8,
    "cmon":8,
    "ship":8,
    "theres":8,
    "lets":9,
    "suit":9,
    "dejesus":9,
    "hes":9,
    "them":9,
    "tell":9,
    "fucking":9,
    "back":9,
    "see":9,
    "where":9,
    "contract":9,
    "jones":9,
    "any":9,
    "oh":10,
    "or":10,
    "help":10,
    "fuck":10,
    "make":10,
    "doing":10,
    "so":10,
    "way":10,
    "wrong":10,
    "say":10,
    "okay":11,
    "shack":11,
    "thing":11,
    "take":11,
    "an":11,
    "shit":12,
    "now":12,
    "go":12,
    "air":12,
    "our":12,
    "day":13,
    "beck":13,
    "his":13,
    "more":13,
    "cobb":13,
    "some":13,
    "did":13,
    "whats":14,
    "as":14,
    "down":14,
    "want":14,
    "can":15,
    "cant":15,
    "when":15,
    "good":15,
    "about":15,
    "well":15,
    "why":15,
    "hey":16,
    "look":17,
    "are":17,
    "how":18,
    "something":18,
    "him":18,
    "off":18,
    "ill":18,
    "youre":19,
    "if":19,
    "aint":19,
    "doc":19,
    "right":19,
    "at":20,
    "like":20,
    "but":20,
    "they":20,
    "one":21,
    "think":21,
    "with":21,
    "not":22,
    "sixpack":22,
    "thats":22,
    "was":22,
    "man":23,
    "for":23,
    "there":23,
    "us":23,
    "all":25,
    "my":25,
    "he":25,
    "do":26,
    "up":26,
    "know":27,
    "just":28,
    "here":29,
    "have":29,
    "were":30,
    "got":31,
    "im":32,
    "be":32,
    "we":33,
    "going":34,
    "dont":34,
    "get":34,
    "out":35,
    "no":35,
    "your":37,
    "this":37,
    "its":39,
    "is":40,
    "me":45,
    "of":56,
    "on":57,
    "and":57,
    "what":57,
    "that":66,
    "in":66,
    "a":104,
    "it":110,
    "i":115,
    "to":122,
    "you":180,
    "the":185
}