{
    "sophisticated":1,
    "touch":1,
    "mustve":1,
    "noise":1,
    "complain":1,
    "thoughts":1,
    "pitying":1,
    "exception":1,
    "perfect":1,
    "version":1,
    "ourselves":1,
    "sidewalk":1,
    "copywriting":1,
    "dexter":1,
    "kerr":1,
    "nonmutual":1,
    "extraordinary":1,
    "burst":1,
    "desperate":1,
    "bullshitted":1,
    "ready":1,
    "gearing":1,
    "psyched":1,
    "fled":1,
    "banks":1,
    "attentive":1,
    "cared":1,
    "watch":1,
    "friday":1,
    "worse":1,
    "dare":1,
    "whatll":1,
    "enthusiastic":1,
    "invite":1,
    "boot":1,
    "film":1,
    "beckoning":1,
    "newark":1,
    "pitied":1,
    "avoided":1,
    "anyway":1,
    "yesterday":1,
    "assistant":1,
    "deserve":1,
    "almost":1,
    "talks":1,
    "potential":1,
    "onramp":1,
    "sleeping":1,
    "father":1,
    "welcome":1,
    "challenging":1,
    "field":1,
    "dental":1,
    "inventory":1,
    "relationships":1,
    "forgotten":1,
    "mothballs":1,
    "exbrotherin":1,
    "gotta":1,
    "9":1,
    "counting":1,
    "pack":1,
    "sedentary":1,
    "drink":1,
    "nah":1,
    "tire":1,
    "enticing":1,
    "invitation":1,
    "`em":1,
    "whens":1,
    "ahhah":1,
    "agreed":1,
    "lives":1,
    "internet":1,
    "sales":1,
    "jealous":1,
    "walked":1,
    "married":1,
    "said":1,
    "polluting":1,
    "nights":1,
    "wow":1,
    "creative":1,
    "consulting":1,
    "pharmaceutical":1,
    "yalies":1,
    "basement":1,
    "exclusive":1,
    "product":1,
    "onstream":1,
    "hump":1,
    "receptors":1,
    "activate":1,
    "specific":1,
    "circuits":1,
    "percent":1,
    "smoke":1,
    "chest":1,
    "corpse":1,
    "aches":1,
    "lumps":1,
    "rashes":1,
    "condition":1,
    "conditions":1,
    "hold":1,
    "keel":1,
    "lifes":1,
    "crapper":1,
    "sudden":1,
    "upswing":1,
    "stratosphere":1,
    "brand":1,
    "shiny":1,
    "designer":1,
    "afraid":1,
    "leave":1,
    "hang":1,
    "ungrateful":1,
    "bucks":1,
    "smarter":1,
    "provoke":1,
    "professional":1,
    "mentor":1,
    "mutually":1,
    "supportive":1,
    "empathetic":1,
    "touchfeely":1,
    "kindly":1,
    "pie":1,
    "bakers":1,
    "bitches":1,
    "quick":1,
    "worst":1,
    "command":1,
    "generals":1,
    "curing":1,
    "cancer":1,
    "movies":1,
    "senate":1,
    "plausible":1,
    "broke":1,
    "buzzed":1,
    "earlier":1,
    "vomiting":1,
    "desk":1,
    "during":1,
    "presentation":1,
    "stealing":1,
    "aunts":1,
    "percocet":1,
    "dumped":1,
    "coldcalling":1,
    "anybody":1,
    "especially":1,
    "landlords":1,
    "nasty":1,
    "tuesday":1,
    "handles":1,
    "feed":1,
    "thoughtlessly":1,
    "ingested":1,
    "substance":1,
    "remarkably":1,
    "bike":1,
    "messenger":1,
    "hallucinogen":1,
    "listening":1,
    "tripping":1,
    "jump":1,
    "window":1,
    "muscle":1,
    "levels":1,
    "layers":1,
    "3d":1,
    "galactically":1,
    "depth":1,
    "clarity":1,
    "blind":1,
    "schlumpy":1,
    "sucking":1,
    "defeated":1,
    "sack":1,
    "sponging":1,
    "blow":1,
    "brains":1,
    "upset":1,
    "usually":1,
    "carry":1,
    "academic":1,
    "constipated":1,
    "print":1,
    "books":1,
    "dorothea":1,
    "lange":1,
    "creep":1,
    "corner":1,
    "true":1,
    "college":1,
    "couch":1,
    "ta":1,
    "waiting":1,
    "bathroom":1,
    "condom":1,
    "unconscious":1,
    "served":1,
    "recorded":1,
    "y":1,
    "cal":1,
    "berkeley":1,
    "oral":1,
    "son":1,
    "google":1,
    "sons":1,
    "famous":1,
    "dish":1,
    "dirt":1,
    "parents":1,
    "youdve":1,
    "mile":1,
    "apple":1,
    "professor":1,
    "odd":1,
    "museum":1,
    "halfread":1,
    "article":1,
    "pbs":1,
    "documentary":1,
    "bubbling":1,
    "frontal":1,
    "lobes":1,
    "mixing":1,
    "sparkling":1,
    "cocktail":1,
    "useful":1,
    "polished":1,
    "gem":1,
    "effect":1,
    "stayed":1,
    "hard":1,
    "messy":1,
    "eaten":1,
    "abstemious":1,
    "tidy":1,
    "anal":1,
    "high":1,
    "probe":1,
    "greet":1,
    "shuffling":1,
    "zombie":1,
    "coffee":1,
    "kidding":1,
    "words":1,
    "appeared":1,
    "enhanced":1,
    "displayed":1,
    "wrote":1,
    "themselves":1,
    "chucked":1,
    "novel":1,
    "pitched":1,
    "societal":1,
    "economic":1,
    "class":1,
    "struggle":1,
    "futuristic":1,
    "fictional":1,
    "lifetime":1,
    "lay":1,
    "manifesto":1,
    "mein":1,
    "kampf":1,
    "except":1,
    "crazy":1,
    "racist":1,
    "fast":1,
    "hap":1,
    "stuffs":1,
    "name":1,
    "profile":1,
    "mdt48":1,
    "fdaapproved":1,
    "laugh":1,
    "unknown":1,
    "untested":1,
    "dangerous":1,
    "scammed":1,
    "highly":1,
    "unreliable":1,
    "definitely":1,
    "favor":1,
    "shape":1,
    "hop":1,
    "cleaners":1,
    "suit":1,
    "breakfast":1,
    "slotted":1,
    "dealerclient":1,
    "dynamic":1,
    "easy":1,
    "sacrificing":1,
    "dignity":1,
    "guaranteed":1,
    "dime":1,
    "gram":1,
    "rent":1,
    "report":1,
    "murder":1,
    "j":1,
    "sat":1,
    "clearer":1,
    "meal":1,
    "heyheyhey":1,
    "exwifes":1,
    "invited":1,
    "buy":1,
    "wha":1,
    "whatre":1,
    "fine":1,
    "antiques":1,
    "viennese":1,
    "chairs":1,
    "curlicue":1,
    "leg":1,
    "correct":1,
    "victims":1,
    "sister":1,
    "10":1,
    "involved":1,
    "jell":1,
    "wandered":1,
    "pressing":1,
    "occur":1,
    "probably":1,
    "hopefully":1,
    "worth":1,
    "combined":1,
    "unprecedented":1,
    "motivation":1,
    "enabled":1,
    "torpor":1,
    "cultural":1,
    "appetites":1,
    "learned":1,
    "halflistening":1,
    "language":1,
    "fluent":1,
    "cloud":1,
    "nagging":1,
    "feeling":1,
    "create":1,
    "paranoia":1,
    "focal":1,
    "protecting":1,
    "homage":1,
    "improved":1,
    "commandeered":1,
    "adjective":1,
    "status":1,
    "orwellian":1,
    "dickensian":1,
    "means":1,
    "authors":1,
    "rests":1,
    "foundation":1,
    "acclaim":1,
    "zeitgeist":1,
    "praise":1,
    "fame":1,
    "unrelated":1,
    "achievement":1,
    "greatest":1,
    "cd":1,
    "cannot":1,
    "contain":1,
    "songs":1,
    "shakespeares":1,
    "catchiness":1,
    "belies":1,
    "mediocrity":1,
    "rather":1,
    "personally":1,
    "launch":1,
    "ships":1,
    "fish":1,
    "barrel":1,
    "presence":1,
    "mom":1,
    "401":1,
    "k":1,
    "misinvested":1,
    "pliocine":1,
    "era":1,
    "fundamental":1,
    "paid":1,
    "eye":1,
    "candy":1,
    "surrounding":1,
    "default":1,
    "flops":1,
    "stick":1,
    "cdss":1,
    "cdos":1,
    "cbos":1,
    "unfamiliar":1,
    "term":1,
    "spike":1,
    "rapid":1,
    "expansion":1,
    "devalue":1,
    "completely":1,
    "aggressive":1,
    "overexpansion":1,
    "nature":1,
    "overreach":1,
    "ruled":1,
    "portugal":1,
    "butch":1,
    "navy":1,
    "salt":1,
    "cod":1,
    "cheap":1,
    "condos":1,
    "brits":1,
    "dank":1,
    "island":1,
    "fussing":1,
    "suits":1,
    "stops":1,
    "thinks":1,
    "poland":1,
    "france":1,
    "swiss":1,
    "invade":1,
    "russia":1,
    "winter":1,
    "interest":1,
    "pouring":1,
    "organized":1,
    "available":1,
    "renegotiate":1,
    "apologize":1,
    "communicated":1,
    "lack":1,
    "faith":1,
    "abilities":1,
    "dunham":1,
    "offer":1,
    "road":1,
    "title":1,
    "series":1,
    "ones":1,
    "seriously":1,
    "profession":1,
    "marginalized":1,
    "whiners":1,
    "fit":1,
    "incarceration":1,
    "loneliness":1,
    "burrowing":1,
    "psyche":1,
    "increasingly":1,
    "insulated":1,
    "currents":1,
    "rattling":1,
    "cage":1,
    "cannibalizing":1,
    "bestselling":1,
    "disagree":1,
    "remuneration":1,
    "paperbacks":1,
    "careerll":1,
    "oozing":1,
    "along":1,
    "snail":1,
    "copies":1,
    "whoopdeedoo":1,
    "developing":1,
    "readership":1,
    "phoenix":1,
    "saturday":1,
    "holdout":1,
    "indie":1,
    "store":1,
    "cheese":1,
    "pile":1,
    "quantitive":1,
    "quants":1,
    "algorhythms":1,
    "discrepancies":1,
    "numbers":1,
    "volume":1,
    "armed":1,
    "800":1,
    "4000":1,
    "750000":1,
    "capital":1,
    "quintupled":1,
    "row":1,
    "luck":1,
    "tricked":1,
    "computer":1,
    "fix":1,
    "crook":1,
    "caught":1,
    "detailed":1,
    "records":1,
    "figure":1,
    "pay":1,
    "waist":1,
    "peel":1,
    "tie":1,
    "knot":1,
    "suffocate":1,
    "showed":1,
    "leverage":1,
    "firm":1,
    "upping":1,
    "learning":1,
    "curve":1,
    "informed":1,
    "huge":1,
    "amounts":1,
    "conducted":1,
    "rapidly":1,
    "comprehensively":1,
    "lafayette":1,
    "buying":1,
    "ceo":1,
    "indicted":1,
    "bribed":1,
    "announced":1,
    "brokerage":1,
    "contained":1,
    "metaphors":1,
    "collective":1,
    "nervous":1,
    "global":1,
    "numerical":1,
    "representation":1,
    "whatever":1,
    "jacked":1,
    "booted":1,
    "tissue":1,
    "greater":1,
    "functioning":1,
    "26":1,
    "19":1,
    "messages":1,
    "offers":1,
    "raising":1,
    "reporter":1,
    "articles":1,
    "cooperation":1,
    "casual":1,
    "drinks":1,
    "wants":1,
    "apparently":1,
    "finance":1,
    "shaking":1,
    "selfimprovement":1,
    "gave":1,
    "wakeup":1,
    "boy":1,
    "gosh":1,
    "unexpected":1,
    "intimidated":1,
    "hon":1,
    "somebodys":1,
    "nows":1,
    "success":1,
    "chinese":1,
    "inevitability":1,
    "consciousness":1,
    "ate":1,
    "warned":1,
    "mercurial":1,
    "nextyoure":1,
    "leper":1,
    "tentative":1,
    "rehearse":1,
    "scenarios":1,
    "eating":1,
    "bit":1,
    "toast":1,
    "secret":1,
    "special":1,
    "partially":1,
    "snakeoil":1,
    "judgement":1,
    "anymore":1,
    "blink":1,
    "entered":1,
    "age":1,
    "decentralized":1,
    "online":1,
    "decisions":1,
    "hundreds":1,
    "individual":1,
    "killing":1,
    "sneeze":1,
    "rules":1,
    "panic":1,
    "mass":1,
    "actual":1,
    "recipe":1,
    "rosemarys":1,
    "devastated":1,
    "daughter":1,
    "investment":1,
    "halfcocky":1,
    "halfterrified":1,
    "acquiring":1,
    "upmarket":1,
    "solarwindmillhippie":1,
    "outfits":1,
    "unless":1,
    "sides":1,
    "fence":1,
    "control":1,
    "enchilada":1,
    "emerging":1,
    "contemplating":1,
    "bling":1,
    "justify":1,
    "rationalization":1,
    "con":1,
    "artist":1,
    "oliver":1,
    "twist":1,
    "bowl":1,
    "gruel":1,
    "whisper":1,
    "brazen":1,
    "libya":1,
    "far":1,
    "shmuck":1,
    "gusty":1,
    "ooh":1,
    "admit":1,
    "buttons":1,
    "late":1,
    "office":1,
    "schmuck":1,
    "re":1,
    "deal":1,
    "disposal":1,
    "spartans":1,
    "amenities":1,
    "asses":1,
    "kicked":1,
    "digest":1,
    "ingest":1,
    "crossed":1,
    "hobnobbing":1,
    "ambassadors":1,
    "flying":1,
    "dubai":1,
    "blowing":1,
    "supermodels":1,
    "vacationing":1,
    "medici":1,
    "villas":1,
    "skip":1,
    "uptown":1,
    "harlem":1,
    "different":1,
    "passed":1,
    "skipping":1,
    "decided":1,
    "files":1,
    "hieroglyphs":1,
    "flu":1,
    "analyze":1,
    "data":1,
    "recognized":1,
    "tongue":1,
    "leaden":1,
    "synapses":1,
    "regular":1,
    "unbearable":1,
    "beginnings":1,
    "curling":1,
    "greasy":1,
    "python":1,
    "timeskips":1,
    "such":1,
    "tap":1,
    "dance":1,
    "iconoclast":1,
    "colorado":1,
    "uhhuh":1,
    "101":1,
    "radar":1,
    "great":1,
    "leap":1,
    "forward":1,
    "strong":1,
    "beat":1,
    "properties":1,
    "bumfuck":1,
    "oil":1,
    "places":1,
    "near":1,
    "sextuples":1,
    "picks":1,
    "green":1,
    "technologies":1,
    "hotel":1,
    "victim":1,
    "foul":1,
    "billion":1,
    "nickel":1,
    "convince":1,
    "raise":1,
    "eyewitness":1,
    "seeing":1,
    "limp":1,
    "leaving":1,
    "scene":1,
    "contact":1,
    "local":1,
    "enforcement":1,
    "authorities":1,
    "improve":1,
    "planet":1,
    "ball":1,
    "excuse":1,
    "conduct":1,
    "seduce":1,
    "fight":1,
    "nonono":1,
    "charlies":1,
    "across":1,
    "realized":1,
    "vernons":1,
    "clients":1,
    "paul":1,
    "kaplan":1,
    "journalist":1,
    "electronics":1,
    "today":1,
    "died":1,
    "jerry":1,
    "brady":1,
    "johnson":1,
    "hospital":1,
    "wednesday":1,
    "collapsed":1,
    "stupidity":1,
    "saved":1,
    "hoped":1,
    "mdtll":1,
    "shortselling":1,
    "secondguessing":1,
    "posts":1,
    "hatch":1,
    "brian":1,
    "greenes":1,
    "elegant":1,
    "universe":1,
    "understood":1,
    "rate":1,
    "increased":1,
    "insanely":1,
    "overnight":1,
    "offered":1,
    "mental":1,
    "activity":1,
    "crash":1,
    "throwing":1,
    "vegetable":1,
    "mother":1,
    "sponge":1,
    "batch":1,
    "story":1,
    "while":1,
    "concentrate":1,
    "deadlines":1,
    "lazy":1,
    "checked":1,
    "migraine":1,
    "pee":1,
    "unraveled":1,
    "space":1,
    "ghost":1,
    "bump":1,
    "taper":1,
    "otherwise":1,
    "sicker":1,
    "forget":1,
    "ahh":1,
    "tries":1,
    "catch":1,
    "breath":1,
    "institution":1,
    "balls":1,
    "oof":1,
    "eh":1,
    "plus":1,
    "vitamins":1,
    "full":1,
    "movie":1,
    "script":1,
    "lisa":1,
    "simple":1,
    "complicated":1,
    "focus":1,
    "tearing":1,
    "floor":1,
    "legal":1,
    "jerk":1,
    "stashed":1,
    "cab":1,
    "turn":1,
    "cops":1,
    "traffic":1,
    "slowing":1,
    "walking":1,
    "chasing":1,
    "tan":1,
    "happening":1,
    "hiding":1,
    "killed":1,
    "cop":1,
    "reach":1,
    "sswallow":1,
    "thirty":1,
    "seconds":1,
    "closer":1,
    "powered":1,
    "lots":1,
    "share":1,
    "till":1,
    "invincibility":1,
    "bottle":1,
    "mapped":1,
    "grid":1,
    "wing":1,
    "settled":1,
    "rob":1,
    "businessman":1,
    "fancy":1,
    "nose":1,
    "fed":1,
    "calls":1,
    "clean":1,
    "stages":1,
    "selfpity":1,
    "compatible":1,
    "patch":1,
    "deny":1,
    "cancel":1,
    "imploded":1,
    "delirium":1,
    "instability":1,
    "playing":1,
    "revised":1,
    "firings":1,
    "oddly":1,
    "needing":1,
    "fill":1,
    "position":1,
    "helping":1,
    "broker":1,
    "corporate":1,
    "maintained":1,
    "remembered":1,
    "eat":1,
    "drank":1,
    "alcohol":1,
    "blackouts":1,
    "recur":1,
    "speed":1,
    "construct":1,
    "imperceptible":1,
    "compartment":1,
    "sir":1,
    "quite":1,
    "fort":1,
    "knox":1,
    "precede":1,
    "follow":1,
    "`inconspicuous":1,
    "describe":1,
    "ceos":1,
    "wallpaper":1,
    "safer":1,
    "though":1,
    "stove":1,
    "top":1,
    "pro":1,
    "combine":1,
    "ingredients":1,
    "quantities":1,
    "method":1,
    "delivery":1,
    "darts":1,
    "dartboard":1,
    "meaning":1,
    "guinea":1,
    "pig":1,
    "eighteen":1,
    "straightened":1,
    "detective":1,
    "donatella":1,
    "alvarez":1,
    "suspect":1,
    "person":1,
    "whereabouts":1,
    "june":1,
    "afford":1,
    "morris":1,
    "lawyer":1,
    "released":1,
    "wiped":1,
    "weak":1,
    "circumstantial":1,
    "busy":1,
    "unaware":1,
    "murderer":1,
    "unified":1,
    "front":1,
    "lethally":1,
    "effective":1,
    "sycorps":1,
    "andine":1,
    "others":1,
    "jockeying":1,
    "industrial":1,
    "concessions":1,
    "mexico":1,
    "secretly":1,
    "sniffing":1,
    "governmental":1,
    "bribe":1,
    "corrupt":1,
    "workings":1,
    "barbarians":1,
    "waving":1,
    "gates":1,
    "descending":1,
    "order":1,
    "threat":1,
    "flew":1,
    "seems":1,
    "frail":1,
    "track":1,
    "answer":1,
    "prenegotiated":1,
    "trust":1,
    "scale":1,
    "contribution":1,
    "lese":1,
    "continue":1,
    "onto":1,
    "dollar":1,
    "payout":1,
    "singe":1,
    "ego":1,
    "open":1,
    "tough":1,
    "toys":1,
    "restaurants":1,
    "screening":1,
    "cellar":1,
    "walkin":1,
    "humidor":1,
    "unparalleled":1,
    "threetier":1,
    "asking":1,
    "carried":1,
    "require":1,
    "400":1,
    "details":1,
    "dilemma":1,
    "earth":1,
    "solve":1,
    "sign":1,
    "papers":1,
    "changed":1,
    "discourtesy":1,
    "graphs":1,
    "remind":1,
    "unqualified":1,
    "posturing":1,
    "pisher":1,
    "delphi":1,
    "oracle":1,
    "mrs":1,
    "confidential":1,
    "experienced":1,
    "dizziness":1,
    "lenox":1,
    "hill":1,
    "undergoing":1,
    "signing":1,
    "proceed":1,
    "platitude":1,
    "helpful":1,
    "respectful":1,
    "rely":1,
    "discretion":1,
    "proxy":1,
    "cagey":1,
    "giving":1,
    "power":1,
    "meteoric":1,
    "rises":1,
    "jeopardy":1,
    "liberty":1,
    "allow":1,
    "disparity":1,
    "race":1,
    "physical":1,
    "type":1,
    "clones":1,
    "handsome":1,
    "change":1,
    "jacket":1,
    "shirt":1,
    "factor":1,
    "womans":1,
    "bellboy":1,
    "undertipped":1,
    "dimmest":1,
    "clue":1,
    "dithering":1,
    "dow":1,
    "yoyoing":1,
    "amidst":1,
    "speculation":1,
    "negotiated":1,
    "vapor":1,
    "phone":1,
    "movement":1,
    "atwoods":1,
    "tired":1,
    "unable":1,
    "overdue":1,
    "station":1,
    "coat":1,
    "24":1,
    "alli":1,
    "safe":1,
    "rumor":1,
    "whatsoever":1,
    "difficult":1,
    "questions":1,
    "downstairs":1,
    "alerting":1,
    "visitor":1,
    "feet":1,
    "slowly":1,
    "horribly":1,
    "choice":1,
    "instinctive":1,
    "creatures":1,
    "foggy":1,
    "joking":1,
    "dissolve":1,
    "shoot":1,
    "goes":1,
    "straight":1,
    "blood":1,
    "plum":1,
    "quicker":1,
    "part":1,
    "importexport":1,
    "plate":1,
    "learn":1,
    "flay":1,
    "meat":1,
    "steaks":1,
    "softer":1,
    "parts":1,
    "inspiration":1,
    "triumph":1,
    "bloodstream":1,
    "noted":1,
    "deals":1,
    "save":1,
    "express":1,
    "saving":1,
    "decide":1,
    "minus":1,
    "tickets":1,
    "overbooked":1,
    "fundraiser":1,
    "overflow":1,
    "event":1,
    "wave":1,
    "donations":1,
    "debate":1,
    "john":1,
    "steadmans":1,
    "biggest":1,
    "contributor":1,
    "shitty":1,
    "pharmaceuticals":1,
    "heres":1,
    "technicality":1,
    "lasting":1,
    "indulged":1,
    "distinguished":1,
    "furthest":1,
    "fastest":1,
    "interesting":1,
    "breach":1,
    "publicly":1,
    "exist":1,
    "detail":1,
    "advantages":1,
    "bother":1,
    "bothering":1,
    "godspeed":1,
    "candle":1,
    "brief":1,
    "lovely":1,
    "relieved":1,
    "problems":1,
    "healthy":1,
    "brilliant":1,
    "shut":1,
    "jeopardize":1,
    "downside":1,
    "offering":1,
    "fewer":1,
    "effects":1,
    "arrangement":1,
    "starving":1,
    "path":1,
    "greatness":1,
    "tolerate":1,
    "wind":1,
    "drag":1,
    "compromise":1,
    "overall":1,
    "foreign":1,
    "policy":1,
    "courts":1,
    "constitution":1,
    "tweaking":1,
    "creation":1,
    "puts":1,
    "50":1,
    "ahead":1,
    "spend":1,
    "devising":1,
    "scare":1,
    "israelis":1,
    "bead":1,
    "caliber":1,
    "push":1,
    "button":1,
    "silos":1,
    "8ball":1,
    "become":2,
    "neighbor":2,
    "opened":2,
    "wish":2,
    "self":2,
    "close":2,
    "impact":2,
    "writer":2,
    "write":2,
    "pass":2,
    "under":2,
    "impression":2,
    "stand":2,
    "90":2,
    "mark":2,
    "says":2,
    "loved":2,
    "use":2,
    "lose":2,
    "itll":2,
    "rag":2,
    "lower":2,
    "bunk":2,
    "childhood":2,
    "bedroom":2,
    "wed":2,
    "sex":2,
    "once":2,
    "35":2,
    "happy":2,
    "law":2,
    "jesus":2,
    "fact":2,
    "wanna":2,
    "health":2,
    "nut":2,
    "cmon":2,
    "afternoon":2,
    "conversation":2,
    "brother":2,
    "upstate":2,
    "shes":2,
    "kinda":2,
    "kids":2,
    "coke":2,
    "problem":2,
    "recreational":2,
    "coming":2,
    "year":2,
    "clinical":2,
    "trials":2,
    "fda":2,
    "approved":2,
    "identified":2,
    "access":2,
    "20":2,
    "sore":2,
    "weird":2,
    "network":2,
    "hands":2,
    "light":2,
    "gant":2,
    "absolutely":2,
    "house":2,
    "cost":2,
    "pop":2,
    "women":2,
    "hate":2,
    "each":2,
    "delegate":2,
    "reason":2,
    "directing":2,
    "running":2,
    "sense":2,
    "direct":2,
    "link":2,
    "dying":2,
    "40":2,
    "blocks":2,
    "wife":2,
    "steve":2,
    "rents":2,
    "bullshit":2,
    "extra":2,
    "low":2,
    "telling":2,
    "calling":2,
    "club":2,
    "pissed":2,
    "beauty":2,
    "wwhat":2,
    "blame":2,
    "hoping":2,
    "existence":2,
    "none":2,
    "dry":2,
    "following":2,
    "memory":2,
    "writing":2,
    "asked":2,
    "alive":2,
    "together":2,
    "worked":2,
    "pleased":2,
    "side":2,
    "returned":2,
    "cigarette":2,
    "wired":2,
    "clear":2,
    "sent":2,
    "surge":2,
    "brilliance":2,
    "short":2,
    "remained":2,
    "hour":2,
    "advance":2,
    "further":2,
    "grandiose":2,
    "totally":2,
    "solution":2,
    "interested":2,
    "um":2,
    "boys":2,
    "kitchen":2,
    "sound":2,
    "unidentified":2,
    "pick":2,
    "bag":2,
    "forever":2,
    "known":2,
    "whoever":2,
    "hed":2,
    "theyd":2,
    "cook":2,
    "ran":2,
    "drugs":2,
    "sort":2,
    "dealer":2,
    "voice":2,
    "surprised":2,
    "funeral":2,
    "attention":2,
    "followed":2,
    "risk":2,
    "obvious":2,
    "tablet":2,
    "kept":2,
    "limitless":2,
    "music":2,
    "being":2,
    "author":2,
    "prosaic":2,
    "hits":2,
    "analysis":2,
    "psychology":2,
    "explained":2,
    "audience":2,
    "safeguards":2,
    "against":2,
    "countries":2,
    "sit":2,
    "nobody":2,
    "weve":2,
    "portfolio":2,
    "thank":2,
    "discussing":2,
    "hope":2,
    "exciting":2,
    "truth":2,
    "inside":2,
    "bored":2,
    "wine":2,
    "goal":2,
    "small":2,
    "market":2,
    "patterns":2,
    "100":2,
    "lucky":2,
    "investors":2,
    "skin":2,
    "pull":2,
    "doyle":2,
    "trading":2,
    "based":2,
    "research":2,
    "fat":2,
    "defense":2,
    "system":2,
    "credit":2,
    "yous":2,
    "thursday":2,
    "month":2,
    "stuck":2,
    "proud":2,
    "enemies":2,
    "proverb":2,
    "sleep":2,
    "moved":2,
    "loons":2,
    "answers":2,
    "lost":2,
    "pattern":2,
    "recognition":2,
    "decision":2,
    "millions":2,
    "formula":2,
    "delusions":2,
    "list":2,
    "ass":2,
    "stocks":2,
    "play":2,
    "markets":2,
    "whoa":2,
    "associates":2,
    "somebody":2,
    "either":2,
    "realize":2,
    "press":2,
    "begin":2,
    "prick":2,
    "curious":2,
    "shot":2,
    "exactly":2,
    "moments":2,
    "weeks":2,
    "meetings":2,
    "test":2,
    "headache":2,
    "scared":2,
    "forbes":2,
    "invests":2,
    "reported":2,
    "team":2,
    "hi":2,
    "may":2,
    "magazine":2,
    "jerrys":2,
    "bill":2,
    "weight":2,
    "nine":2,
    "level":2,
    "bugs":2,
    "real":2,
    "beginning":2,
    "invented":2,
    "financial":2,
    "gennady":2,
    "twenty":2,
    "lie":2,
    "doctor":2,
    "middle":2,
    "asshole":2,
    "knife":2,
    "dealers":2,
    "dog":2,
    "guarantee":2,
    "tried":2,
    "certainly":2,
    "steps":2,
    "act":2,
    "exact":2,
    "twelve":2,
    "witness":2,
    "brandt":2,
    "lineup":2,
    "inner":2,
    "private":2,
    "turned":2,
    "yourself":2,
    "police":2,
    "makes":2,
    "eyes":2,
    "pain":2,
    "tests":2,
    "interests":2,
    "intention":2,
    "blur":2,
    "personal":2,
    "coma":2,
    "starting":2,
    "anywhere":2,
    "building":2,
    "fucks":2,
    "lunch":2,
    "eibenchemcorps":2,
    "senator":2,
    "heading":2,
    "maintain":2,
    "yourselves":2,
    "ideas":2,
    "underestimate":2,
    "bought":3,
    "waste":3,
    "many":3,
    "having":3,
    "friends":3,
    "became":3,
    "case":3,
    "wait":3,
    "living":3,
    "finally":3,
    "thanks":3,
    "supply":3,
    "trying":3,
    "matter":3,
    "hear":3,
    "hows":3,
    "guys":3,
    "werent":3,
    "six":3,
    "written":3,
    "huh":3,
    "company":3,
    "eight":3,
    "mind":3,
    "woman":3,
    "less":3,
    "young":3,
    "suddenly":3,
    "gotten":3,
    "wrong":3,
    "school":3,
    "12":3,
    "sitting":3,
    "somehow":3,
    "needed":3,
    "paper":3,
    "history":3,
    "start":3,
    "45":3,
    "hours":3,
    "thick":3,
    "without":3,
    "reading":3,
    "finish":3,
    "actually":3,
    "achievable":3,
    "called":3,
    "possibly":3,
    "return":3,
    "edward":3,
    "longer":3,
    "least":3,
    "four":3,
    "seemed":3,
    "stock":3,
    "remember":3,
    "human":3,
    "account":3,
    "happen":3,
    "working":3,
    "takes":3,
    "prepared":3,
    "nowhere":3,
    "eventually":3,
    "large":3,
    "price":3,
    "slow":3,
    "head":3,
    "times":3,
    "dose":3,
    "instinct":3,
    "gonna":3,
    "speak":3,
    "begging":3,
    "watching":3,
    "tomorrow":3,
    "myself":3,
    "needs":3,
    "medication":3,
    "understand":3,
    "understanding":3,
    "everyone":3,
    "grandeur":3,
    "went":3,
    "thinking":3,
    "both":3,
    "hit":3,
    "structure":3,
    "bridge":3,
    "bar":3,
    "owns":3,
    "lot":3,
    "goodbye":3,
    "rest":3,
    "post":3,
    "york":3,
    "moment":3,
    "luckily":3,
    "check":3,
    "aspirin":3,
    "supposed":3,
    "third":3,
    "plenty":3,
    "whod":3,
    "appreciate":3,
    "attorney":3,
    "pony":3,
    "theyve":4,
    "door":4,
    "half":4,
    "mine":4,
    "contract":4,
    "care":4,
    "able":4,
    "stop":4,
    "friend":4,
    "move":4,
    "believe":4,
    "missed":4,
    "useless":4,
    "put":4,
    "dealing":4,
    "beer":4,
    "oclock":4,
    "question":4,
    "pretty":4,
    "word":4,
    "lab":4,
    "old":4,
    "knows":4,
    "hundred":4,
    "shed":4,
    "anyone":4,
    "those":4,
    "boss":4,
    "later":4,
    "told":4,
    "felt":4,
    "shouldnt":4,
    "arent":4,
    "saw":4,
    "seen":4,
    "else":4,
    "nice":4,
    "itself":4,
    "chance":4,
    "live":4,
    "morning":4,
    "stupid":4,
    "ask":4,
    "guess":4,
    "works":4,
    "yet":4,
    "somewhere":4,
    "given":4,
    "place":4,
    "pill":4,
    "took":4,
    "looking":4,
    "meet":4,
    "verns":4,
    "stash":4,
    "saying":4,
    "left":4,
    "bank":4,
    "important":4,
    "until":4,
    "second":4,
    "started":4,
    "comes":4,
    "meeting":4,
    "hell":4,
    "companies":4,
    "pierce":4,
    "ride":4,
    "yours":4,
    "havent":4,
    "hank":4,
    "man":4,
    "walk":4,
    "am":4,
    "sorry":4,
    "love":4,
    "feel":4,
    "projections":4,
    "security":4,
    "found":5,
    "five":5,
    "before":5,
    "heard":5,
    "minute":5,
    "hadnt":5,
    "world":5,
    "job":5,
    "months":5,
    "kind":5,
    "pages":5,
    "stuff":5,
    "try":5,
    "wanted":5,
    "hey":5,
    "own":5,
    "soon":5,
    "stopped":5,
    "couple":5,
    "behind":5,
    "between":5,
    "room":5,
    "enough":5,
    "information":5,
    "whole":5,
    "youd":5,
    "gone":5,
    "show":5,
    "bad":5,
    "talk":5,
    "amazing":5,
    "already":5,
    "guy":5,
    "game":5,
    "everything":5,
    "best":5,
    "cut":5,
    "kevin":5,
    "million":5,
    "since":5,
    "merger":5,
    "hello":5,
    "kill":5,
    "headaches":5,
    "taking":5,
    "minutes":6,
    "let":6,
    "came":6,
    "few":6,
    "apartment":6,
    "knew":6,
    "ah":6,
    "listen":6,
    "does":6,
    "things":6,
    "other":6,
    "made":6,
    "god":6,
    "always":6,
    "their":6,
    "stay":6,
    "night":6,
    "quickly":6,
    "line":6,
    "point":6,
    "someone":6,
    "which":6,
    "thousand":6,
    "most":6,
    "wouldnt":6,
    "must":6,
    "forty":6,
    "find":6,
    "dollars":6,
    "die":6,
    "every":6,
    "obviously":6,
    "couldnt":7,
    "done":7,
    "long":7,
    "ago":7,
    "end":7,
    "energy":7,
    "nothing":7,
    "happened":7,
    "run":7,
    "lindy":7,
    "thought":7,
    "away":7,
    "whos":7,
    "vernon":7,
    "making":7,
    "husband":7,
    "possible":7,
    "theyre":7,
    "another":7,
    "smart":7,
    "uh":7,
    "money":7,
    "business":7,
    "sick":7,
    "pills":7,
    "after":8,
    "wasnt":8,
    "lets":8,
    "help":8,
    "isnt":8,
    "next":8,
    "say":8,
    "dead":8,
    "three":8,
    "same":8,
    "our":8,
    "street":8,
    "sure":8,
    "course":8,
    "big":8,
    "mr":8,
    "youve":8,
    "carl":8,
    "might":9,
    "thing":9,
    "years":9,
    "book":9,
    "keep":9,
    "give":9,
    "she":9,
    "around":9,
    "please":9,
    "fuck":9,
    "much":9,
    "doing":9,
    "brain":9,
    "new":9,
    "talking":9,
    "doesnt":9,
    "cash":9,
    "week":9,
    "us":10,
    "ever":10,
    "getting":10,
    "ive":10,
    "where":10,
    "morgan":10,
    "should":10,
    "home":10,
    "by":10,
    "make":10,
    "loon":10,
    "first":11,
    "good":11,
    "anything":11,
    "read":11,
    "because":11,
    "very":11,
    "them":12,
    "than":12,
    "day":12,
    "work":12,
    "better":12,
    "still":12,
    "wont":12,
    "vern":12,
    "too":12,
    "has":12,
    "life":12,
    "down":12,
    "need":12,
    "van":12,
    "atwood":12,
    "they":13,
    "never":13,
    "come":13,
    "days":13,
    "why":13,
    "whats":13,
    "last":14,
    "only":14,
    "into":14,
    "shit":14,
    "ill":14,
    "these":14,
    "drug":14,
    "again":14,
    "yes":14,
    "call":14,
    "something":15,
    "over":15,
    "hes":15,
    "off":15,
    "time":15,
    "ten":15,
    "mean":16,
    "two":16,
    "way":16,
    "youll":16,
    "really":16,
    "yeah":16,
    "when":16,
    "maybe":17,
    "his":18,
    "did":18,
    "melissa":18,
    "back":18,
    "oh":18,
    "any":18,
    "will":19,
    "an":19,
    "thats":19,
    "as":19,
    "her":19,
    "been":19,
    "take":19,
    "people":19,
    "theres":19,
    "from":19,
    "didnt":20,
    "then":20,
    "fucking":20,
    "cant":20,
    "even":21,
    "okay":21,
    "him":21,
    "id":22,
    "little":22,
    "who":22,
    "look":23,
    "mdt":23,
    "up":24,
    "tell":24,
    "got":24,
    "here":24,
    "like":26,
    "see":26,
    "right":26,
    "or":27,
    "were":27,
    "can":28,
    "could":28,
    "go":28,
    "would":28,
    "more":31,
    "going":31,
    "get":34,
    "some":34,
    "he":35,
    "how":36,
    "we":36,
    "had":37,
    "if":37,
    "its":37,
    "so":38,
    "about":38,
    "want":38,
    "now":39,
    "there":39,
    "are":41,
    "at":41,
    "just":41,
    "youre":41,
    "one":41,
    "well":42,
    "with":42,
    "think":44,
    "out":45,
    "all":47,
    "im":52,
    "for":54,
    "eddie":56,
    "is":57,
    "no":58,
    "be":58,
    "your":58,
    "do":59,
    "know":62,
    "but":63,
    "not":65,
    "dont":70,
    "on":71,
    "have":73,
    "that":85,
    "":87,
    "my":93,
    "this":96,
    "what":96,
    "me":99,
    "in":114,
    "was":123,
    "of":140,
    "and":151,
    "it":154,
    "a":214,
    "to":232,
    "the":256,
    "you":322,
    "i":353
}