{
    "ex":1,
    "moving":1,
    "company":1,
    "giving":1,
    "uncle":1,
    "handjobs":1,
    "tickets":1,
    "game":1,
    "office":1,
    "five":1,
    "bills":1,
    "jobs":1,
    "dallas":1,
    "fiasco":1,
    "chokin":1,
    "motherfuckers":1,
    "returnin":1,
    "yesterday":1,
    "puttin":1,
    "twentytimer":1,
    "indiana":1,
    "oftheblue":1,
    "asks":1,
    "makin":1,
    "conversation":1,
    "faggot":1,
    "juiceheads":1,
    "playground":1,
    "joint":1,
    "stories":1,
    "horsecock":1,
    "whipped":1,
    "tomlinsons":1,
    "brad":1,
    "comes":1,
    "mexico":1,
    "athens":1,
    "dirty":1,
    "paid":1,
    "wynwood":1,
    "speaking":1,
    "howd":1,
    "tiny":1,
    "water":1,
    "miserable":1,
    "except":1,
    "anywhere":1,
    "dump":1,
    "hi":1,
    "mother":1,
    "train":1,
    "nottalking":1,
    "nonsense":1,
    "messages":1,
    "beauty":1,
    "living":1,
    "jina":1,
    "bed":1,
    "keeping":1,
    "melinda":1,
    "ron":1,
    "totally":1,
    "longer":1,
    "running":1,
    "therere":1,
    "dues":1,
    "works":1,
    "sits":1,
    "desk":1,
    "day":1,
    "crosseyed":1,
    "attracts":1,
    "personal":1,
    "built":1,
    "nowhere":1,
    "return":1,
    "spineless":1,
    "fag":1,
    "beggin":1,
    "account":1,
    "fainted":1,
    "horsing":1,
    "breakin":1,
    "patio":1,
    "unit":1,
    "community":1,
    "service":1,
    "keith":1,
    "clear":1,
    "borrow":1,
    "asking":1,
    "losers":1,
    "law":1,
    "questions":1,
    "tight":1,
    "breathing":1,
    "answer":1,
    "uh":1,
    "rot":1,
    "rushing":1,
    "idontfuckingcare":1,
    "kiss":1,
    "hafta":1,
    "200":1,
    "nah":1,
    "paying":1,
    "offa":1,
    "sweetheart":1,
    "werent":1,
    "answering":1,
    "bringing":1,
    "afternoon":1,
    "dammit":1,
    "getting":1,
    "parkway":1,
    "squirt":1,
    "alone":1,
    "stuck":1,
    "moron":1,
    "wanted":1,
    "mary":1,
    "lynn":1,
    "gigantic":1,
    "beast":1,
    "bet":1,
    "drain":1,
    "pipes":1,
    "buddy":1,
    "startin":1,
    "annoy":1,
    "annoying":1,
    "hang":1,
    "moods":1,
    "cheater":1,
    "cheats":1,
    "others":1,
    "humped":1,
    "immaculate":1,
    "infection":1,
    "cuz":1,
    "pitt":1,
    "hot":1,
    "esta":1,
    "buenisima":1,
    "threw":1,
    "pancho":1,
    "illegal":1,
    "sucks":1,
    "smell":1,
    "cocksuckers":1,
    "thatll":1,
    "voy":1,
    "cagar":1,
    "saw":1,
    "cat":1,
    "pies":1,
    "speak":1,
    "folks":1,
    "special":1,
    "rush":1,
    "words":1,
    "sign":1,
    "hopin":1,
    "rich":1,
    "hospital":1,
    "kinds":1,
    "insurance":1,
    "whatnot":1,
    "stripper":1,
    "godsake":1,
    "retarded":1,
    "blood":1,
    "avoidin":1,
    "attention":1,
    "bro":1,
    "plows":1,
    "anythin":1,
    "buncha":1,
    "fast":1,
    "crackhead":1,
    "whenever":1,
    "placin":1,
    "bookie":1,
    "twenty":1,
    "percent":1,
    "drives":1,
    "sellin":1,
    "plastic":1,
    "dealer":1,
    "lemme":1,
    "nose":1,
    "horsin":1,
    "patch":1,
    "smoke":1,
    "highly":1,
    "whyd":1,
    "hats":1,
    "lately":1,
    "vincents":1,
    "found":1,
    "pen":1,
    "porno":1,
    "magazines":1,
    "kevin":1,
    "bike":1,
    "moped":1,
    "oye":1,
    "con":1,
    "esas":1,
    "tetas":1,
    "sent":1,
    "jail":1,
    "younger":1,
    "witness":1,
    "mom":1,
    "courtroom":1,
    "goodbye":1,
    "without":1,
    "appointment":1,
    "cook":1,
    "fivethirty":1,
    "sleeping":1,
    "died":1,
    "disease":1,
    "taught":1,
    "guessing":1,
    "type":1,
    "harrys":1,
    "waiting":1,
    "snapped":1,
    "afraid":1,
    "cycle":1,
    "different":1,
    "nachos":1,
    "helpin":1,
    "kill":1,
    "filthy":1,
    "eyes":1,
    "screwed":1,
    "hitching":1,
    "psychotic":1,
    "sonuvabitch":1,
    "damn":1,
    "youve":1,
    "callin":1,
    "haul":1,
    "needed":1,
    "margaret":1,
    "slap":1,
    "slaps":1,
    "hay":1,
    "por":1,
    "slapping":1,
    "dial":1,
    "waitin":1,
    "grand":1,
    "theft":1,
    "auto":1,
    "lent":1,
    "shore":1,
    "bitchin":1,
    "extortion":1,
    "meetin":1,
    "chick":1,
    "jack":1,
    "charge":1,
    "twentyfive":1,
    "discount":1,
    "drinks":1,
    "fortyfive":1,
    "cheapass":1,
    "high":1,
    "fault":1,
    "grass":1,
    "cut":1,
    "spare":1,
    "register":1,
    "dunno":1,
    "spent":1,
    "tech":1,
    "courses":1,
    "painting":1,
    "reschedule":1,
    "booked":1,
    "referred":1,
    "trust":1,
    "women":1,
    "doctors":1,
    "feeling":1,
    "someones":1,
    "45":1,
    "smith":1,
    "wondering":1,
    "their":1,
    "banged":1,
    "careful":1,
    "caller":1,
    "pickup":1,
    "delivering":1,
    "town":1,
    "pizza":1,
    "shitload":1,
    "knocked":1,
    "ring":1,
    "doorbell":1,
    "cells":1,
    "scouring":1,
    "countryside":1,
    "attitude":1,
    "mushrooms":1,
    "growin":1,
    "dominoes":1,
    "whod":1,
    "bullfuckinshit":1,
    "dick":1,
    "checked":1,
    "same":1,
    "bangin":1,
    "behind":1,
    "asses":1,
    "graduated":1,
    "fights":1,
    "parties":1,
    "rather":1,
    "persuasive":1,
    "swell":1,
    "kinney":1,
    "eaten":1,
    "starving":1,
    "month":1,
    "boys":1,
    "temporary":1,
    "spend":1,
    "less":1,
    "court":1,
    "throw":1,
    "shelby":1,
    "air":1,
    "homeless":1,
    "months":1,
    "transmission":1,
    "transmissions":1,
    "tires":1,
    "flat":1,
    "breathe":1,
    "official":1,
    "ox":1,
    "crushed":1,
    "between":1,
    "boards":1,
    "nobodys":1,
    "quacks":1,
    "insist":1,
    "ignoring":1,
    "rules":1,
    "outrageous":1,
    "walking":1,
    "collapses":1,
    "weird":1,
    "pounds":1,
    "heavier":1,
    "though":1,
    "understand":1,
    "prettier":1,
    "nutcase":1,
    "own":1,
    "slob":1,
    "introduced":1,
    "outranks":1,
    "must":1,
    "set":1,
    "match":1,
    "heathers":1,
    "dressed":1,
    "walk":1,
    "surprised":1,
    "deliverin":1,
    "anna":1,
    "poppys":1,
    "nope":1,
    "vcr":1,
    "los":1,
    "dinners":1,
    "promise":1,
    "jessicas":1,
    "half":1,
    "dozen":1,
    "apartments":1,
    "circled":1,
    "joking":1,
    "minutes":1,
    "dropping":1,
    "practically":1,
    "flipping":1,
    "hasnt":1,
    "made":1,
    "ultrathin":1,
    "ribbed":1,
    "lie":1,
    "putting":1,
    "hormone":1,
    "nor":1,
    "casual":1,
    "slip":1,
    "spy":1,
    "flush":1,
    "shithole":1,
    "relationship":1,
    "toilet":1,
    "ride":1,
    "pieceofshit":1,
    "suspect":1,
    "news":1,
    "thinkin":1,
    "spearchucker":1,
    "manville":1,
    "sold":1,
    "fake":1,
    "dball":1,
    "tied":1,
    "brothers":1,
    "bumper":1,
    "talked":1,
    "turned":1,
    "small":1,
    "itchin":1,
    "notches":1,
    "talks":1,
    "ninethirty":1,
    "juicehead":1,
    "daves":1,
    "life":1,
    "fertilizer":1,
    "spill":1,
    "utility":1,
    "likes":1,
    "mustangs":1,
    "jodas":1,
    "asi":1,
    "gusta":1,
    "smart":1,
    "emergency":1,
    "skirt":1,
    "leave":1,
    "nada":1,
    "hitched":1,
    "sounds":1,
    "grab":1,
    "beer":1,
    "kimmocks":1,
    "evicted":1,
    "gallon":1,
    "eviction":1,
    "notice":1,
    "milks":1,
    "spoiling":1,
    "panchos":1,
    "pissing":1,
    "crash":1,
    "sunglasses":1,
    "gives":1,
    "marriage":1,
    "counselor":1,
    "slapped":1,
    "punched":1,
    "fist":1,
    "bunch":1,
    "none":1,
    "whys":1,
    "kiddin":1,
    "herpes":1,
    "listening":1,
    "wore":1,
    "condom":1,
    "whatthefuckever":1,
    "seein":1,
    "rachel":1,
    "against":1,
    "fightin":1,
    "troys":1,
    "sprayed":1,
    "tries":1,
    "dance":1,
    "shows":1,
    "bounty":1,
    "hunter":1,
    "whose":1,
    "chase":1,
    "across":1,
    "country":1,
    "welcome":1,
    "ridiculous":1,
    "runnin":1,
    "soup":1,
    "kitchen":1,
    "laid":1,
    "enjoy":1,
    "knees":1,
    "lousy":1,
    "dimebag":1,
    "favorite":1,
    "part":1,
    "hide":1,
    "pussy":1,
    "reads":1,
    "tomorrows":1,
    "embarrassing":1,
    "usual":1,
    "driveway":1,
    "gage":1,
    "busted":1,
    "block":1,
    "herald":1,
    "picture":1,
    "owner":1,
    "laughing":1,
    "wonder":1,
    "wearin":1,
    "bookbag":1,
    "tire":1,
    "dickhead":1,
    "lying":1,
    "fours":1,
    "skank":1,
    "pizzaman":1,
    "referring":1,
    "calzones":1,
    "harder":1,
    "muthafuckin":1,
    "usually":1,
    "legless":1,
    "waste":1,
    "legs":1,
    "massey":1,
    "muthafucka":1,
    "worryin":1,
    "important":1,
    "nineteenten":1,
    "serve":1,
    "baby":1,
    "watch":1,
    "remind":1,
    "signed":1,
    "seemed":1,
    "crappy":1,
    "advice":1,
    "itd":1,
    "constant":1,
    "torture":1,
    "wanting":1,
    "scares":1,
    "handsome":1,
    "boy":1,
    "yogurt":1,
    "mixing":1,
    "share":1,
    "beautiful":1,
    "nauseous":1,
    "worked":1,
    "together":1,
    "nasty":1,
    "barnes":1,
    "tossing":1,
    "racket":1,
    "ping":1,
    "pong":1,
    "player":1,
    "follow":1,
    "involved":1,
    "selling":1,
    "sayeeds":1,
    "ems":1,
    "such":1,
    "pull":1,
    "goddamit":1,
    "handle":1,
    "bein":1,
    "mood":1,
    "wreckin":1,
    "livelihood":1,
    "pays":1,
    "thorn":1,
    "em":1,
    "freshman":1,
    "unfortunately":1,
    "several":1,
    "noise":1,
    "complaints":1,
    "tellin":1,
    "jeremy":1,
    "offer":1,
    "jeremys":1,
    "switch":1,
    "plates":1,
    "er":1,
    "surprise":1,
    "cheatin":1,
    "wipe":1,
    "smashed":1,
    "whiskey":1,
    "hits":1,
    "livin":1,
    "piss":1,
    "lucky":1,
    "woe":1,
    "yourself":1,
    "tough":1,
    "loses":1,
    "temper":1,
    "absolutely":1,
    "word":1,
    "very":1,
    "scared":1,
    "sometimes":1,
    "rottenbitchpsycho":1,
    "scare":1,
    "shouldnt":1,
    "excuse":1,
    "sayeed":1,
    "whered":1,
    "screw":1,
    "knock":1,
    "teeth":1,
    "staying":1,
    "swear":1,
    "j":1,
    "c":1,
    "closer":1,
    "idiot":1,
    "whacking":1,
    "economically":1,
    "speakers":1,
    "stereos":1,
    "telling":1,
    "cherries":1,
    "fellas":1,
    "buying":1,
    "stolen":1,
    "cop":1,
    "seem":1,
    "somehow":1,
    "tattood":1,
    "church":1,
    "lift":1,
    "coge":1,
    "harvey":1,
    "pendejo":1,
    "clutch":1,
    "goddammit":1,
    "bought":1,
    "missed":1,
    "motherfuckin":1,
    "chalk":1,
    "board":1,
    "xs":1,
    "os":1,
    "certain":1,
    "toss":1,
    "window":1,
    "pointing":1,
    "bowling":1,
    "send":1,
    "ups":1,
    "gunshot":1,
    "everybodys":1,
    "jettin":1,
    "copsll":1,
    "officers":1,
    "middletown":2,
    "sound":2,
    "baseball":2,
    "hed":2,
    "wish":2,
    "finally":2,
    "hours":2,
    "credit":2,
    "card":2,
    "stopping":2,
    "six":2,
    "sec":2,
    "askin":2,
    "havent":2,
    "shootin":2,
    "mouth":2,
    "e":2,
    "indy":2,
    "inside":2,
    "conjo":2,
    "number":2,
    "couple":2,
    "days":2,
    "many":2,
    "times":2,
    "called":2,
    "new":2,
    "gone":2,
    "sleep":2,
    "lat":2,
    "machine":2,
    "afford":2,
    "employees":2,
    "bets":2,
    "theyre":2,
    "figure":2,
    "fool":2,
    "911":2,
    "quit":2,
    "glass":2,
    "today":2,
    "letting":2,
    "drinking":2,
    "loser":2,
    "older":2,
    "itll":2,
    "old":2,
    "twentyone":2,
    "yet":2,
    "thank":2,
    "light":2,
    "passed":2,
    "uhuh":2,
    "dating":2,
    "broke":2,
    "asked":2,
    "couldnt":2,
    "whoa":2,
    "step":2,
    "cold":2,
    "till":2,
    "eh":2,
    "hungry":2,
    "cards":2,
    "area":2,
    "standing":2,
    "aarons":2,
    "weekend":2,
    "few":2,
    "promised":2,
    "woman":2,
    "personality":2,
    "slow":2,
    "seeing":2,
    "anybody":2,
    "honest":2,
    "assholes":2,
    "move":2,
    "went":2,
    "catch":2,
    "anyone":2,
    "musta":2,
    "shits":2,
    "boss":2,
    "address":2,
    "first":2,
    "barely":2,
    "plenty":2,
    "setzers":2,
    "bang":2,
    "bag":2,
    "sweat":2,
    "lawyer":2,
    "hard":2,
    "worse":2,
    "problems":2,
    "bleedin":2,
    "snap":2,
    "kinda":2,
    "coke":2,
    "friends":2,
    "payin":2,
    "pissin":2,
    "huh":2,
    "interested":2,
    "bit":2,
    "saying":2,
    "ran":2,
    "wasnt":2,
    "dad":2,
    "remember":2,
    "wear":2,
    "prison":2,
    "hitting":2,
    "has":2,
    "lay":2,
    "gracias":2,
    "fifteen":2,
    "sitting":2,
    "bueno":2,
    "dr":2,
    "missing":2,
    "pain":2,
    "paranoid":2,
    "whole":2,
    "trying":2,
    "yo":2,
    "hittin":2,
    "porch":2,
    "tow":2,
    "sicka":2,
    "police":2,
    "ready":2,
    "freakin":2,
    "sixty":2,
    "jar":2,
    "extra":2,
    "knowin":2,
    "food":2,
    "bastard":2,
    "broken":2,
    "rob":2,
    "houses":2,
    "quack":2,
    "hengis":2,
    "deep":2,
    "ache":2,
    "crushing":2,
    "cousins":2,
    "meet":2,
    "side":2,
    "question":2,
    "lotta":2,
    "mind":2,
    "smack":2,
    "bumps":2,
    "fulla":2,
    "person":2,
    "carson":2,
    "rest":2,
    "later":2,
    "suck":2,
    "luck":2,
    "healthy":2,
    "using":2,
    "blouse":2,
    "concerned":2,
    "health":2,
    "shave":2,
    "pretty":2,
    "tried":2,
    "milk":2,
    "icetea":2,
    "boyfriend":2,
    "kind":2,
    "paper":2,
    "perfect":2,
    "pill":2,
    "used":2,
    "leftovers":2,
    "body":2,
    "drunk":2,
    "having":2,
    "may":2,
    "looking":2,
    "check":2,
    "until":2,
    "buy":2,
    "somebody":2,
    "dog":2,
    "crazy":2,
    "que":2,
    "el":2,
    "stole":2,
    "steal":2,
    "hand":2,
    "wash":2,
    "helld":2,
    "ago":2,
    "bringin":2,
    "pepper":2,
    "spray":2,
    "whatll":2,
    "whadda":2,
    "thirty":2,
    "co\u00f1o":2,
    "woods":2,
    "talking":2,
    "play":2,
    "scary":2,
    "vodka":2,
    "table":2,
    "bob":2,
    "partner":2,
    "twelve":2,
    "hundred":2,
    "brains":2,
    "bottle":2,
    "grabbed":2,
    "touch":2,
    "near":2,
    "mighty":2,
    "deserve":2,
    "bash":2,
    "h":2,
    "initials":2,
    "stereo":2,
    "break":2,
    "copsre":2,
    "gun":2,
    "bad":3,
    "adam":3,
    "either":3,
    "jimmys":3,
    "party":3,
    "wants":3,
    "clean":3,
    "pick":3,
    "since":3,
    "wouldnt":3,
    "school":3,
    "leaving":3,
    "taking":3,
    "hate":3,
    "long":3,
    "ive":3,
    "free":3,
    "couch":3,
    "gets":3,
    "fix":3,
    "business":3,
    "working":3,
    "lost":3,
    "people":3,
    "blandinos":3,
    "jerrys":3,
    "aw":3,
    "pete":3,
    "slept":3,
    "says":3,
    "turn":3,
    "steve":3,
    "started":3,
    "start":3,
    "early":3,
    "til":3,
    "tv":3,
    "novel":3,
    "weeks":3,
    "stopped":3,
    "girls":3,
    "delivery":3,
    "while":3,
    "calm":3,
    "yer":3,
    "caught":3,
    "thrown":3,
    "isnt":3,
    "lock":3,
    "cock":3,
    "matt":3,
    "deliveries":3,
    "takin":3,
    "bout":3,
    "ta":3,
    "hells":3,
    "definitely":3,
    "seriously":3,
    "hour":3,
    "gave":3,
    "vincent":3,
    "vamos":3,
    "second":3,
    "fired":3,
    "wrong":3,
    "heart":3,
    "street":3,
    "accident":3,
    "whos":3,
    "doin":3,
    "parents":3,
    "whatd":3,
    "fifty":3,
    "regular":3,
    "thousand":3,
    "feel":3,
    "keys":3,
    "cheated":3,
    "rash":3,
    "bat":3,
    "trunk":3,
    "course":3,
    "ah":3,
    "drop":3,
    "love":3,
    "carters":3,
    "condoms":3,
    "fun":3,
    "admit":3,
    "everyone":3,
    "might":3,
    "finish":3,
    "hands":3,
    "troy":3,
    "open":3,
    "mitch":3,
    "every":3,
    "cripple":3,
    "psycho":3,
    "angry":3,
    "jerry":4,
    "myself":4,
    "buggerin":4,
    "calls":4,
    "christ":4,
    "juice":4,
    "shower":4,
    "least":4,
    "emily":4,
    "calling":4,
    "kidding":4,
    "youd":4,
    "watching":4,
    "message":4,
    "youll":4,
    "needs":4,
    "favor":4,
    "guys":4,
    "they":4,
    "moved":4,
    "late":4,
    "neither":4,
    "enough":4,
    "room":4,
    "eat":4,
    "after":4,
    "heya":4,
    "relax":4,
    "coming":4,
    "brought":4,
    "wheres":4,
    "through":4,
    "being":4,
    "shot":4,
    "else":4,
    "idea":4,
    "outside":4,
    "holy":4,
    "whore":4,
    "sell":4,
    "brother":4,
    "gas":4,
    "victor":4,
    "serious":4,
    "looks":4,
    "soon":4,
    "cocksucker":4,
    "thinks":4,
    "dead":4,
    "tess":4,
    "goin":4,
    "god":4,
    "balls":4,
    "next":4,
    "bucks":4,
    "meant":4,
    "price":4,
    "ten":4,
    "somewhere":4,
    "cars":4,
    "whatever":4,
    "three":4,
    "already":4,
    "best":4,
    "park":4,
    "knew":4,
    "cheat":4,
    "once":4,
    "beat":4,
    "rj":4,
    "motherfucker":4,
    "show":4,
    "morning":5,
    "nine":5,
    "lot":5,
    "mad":5,
    "bales":5,
    "money":5,
    "heard":5,
    "stop":5,
    "cash":5,
    "pool":5,
    "forget":5,
    "please":5,
    "driving":5,
    "jessica":5,
    "real":5,
    "front":5,
    "any":5,
    "apartment":5,
    "will":5,
    "answered":5,
    "use":5,
    "things":5,
    "trouble":5,
    "worry":5,
    "matter":5,
    "away":5,
    "cheating":5,
    "wont":5,
    "fer":5,
    "someone":5,
    "gimme":5,
    "mr":5,
    "wait":5,
    "dave":5,
    "nuts":5,
    "knows":5,
    "try":5,
    "took":5,
    "problem":5,
    "stand":5,
    "becker":5,
    "kwon":5,
    "pissed":5,
    "only":5,
    "week":5,
    "makes":5,
    "hurry":6,
    "believe":6,
    "corey":6,
    "stay":6,
    "arent":6,
    "birthday":6,
    "great":6,
    "keep":6,
    "talkin":6,
    "lookin":6,
    "gettin":6,
    "everybody":6,
    "stuff":6,
    "everything":6,
    "done":6,
    "night":6,
    "drink":6,
    "could":6,
    "minute":6,
    "does":6,
    "somethin":6,
    "stupid":6,
    "cops":6,
    "better":6,
    "nothing":6,
    "rent":6,
    "nobody":6,
    "always":6,
    "from":6,
    "mustang":6,
    "deal":7,
    "because":7,
    "phone":7,
    "ask":7,
    "thanks":7,
    "katie":7,
    "before":7,
    "am":7,
    "than":7,
    "sick":7,
    "much":7,
    "happened":7,
    "another":7,
    "comin":7,
    "them":7,
    "bring":7,
    "these":7,
    "guess":7,
    "k":7,
    "doctor":7,
    "louie":7,
    "hear":8,
    "tomorrow":8,
    "derek":8,
    "anyway":8,
    "hold":8,
    "those":8,
    "goddam":8,
    "make":8,
    "nice":8,
    "house":8,
    "other":8,
    "drive":8,
    "fucked":8,
    "shell":8,
    "had":8,
    "carlos":8,
    "sure":8,
    "easy":8,
    "cmon":8,
    "bitch":8,
    "probably":8,
    "really":8,
    "door":8,
    "kick":8,
    "sinjin":8,
    "job":9,
    "doesnt":9,
    "thought":9,
    "hurt":9,
    "nothin":9,
    "bobby":9,
    "outta":9,
    "jesus":9,
    "happy":9,
    "two":9,
    "last":9,
    "even":9,
    "listen":9,
    "hello":9,
    "find":9,
    "friend":9,
    "head":9,
    "truck":9,
    "as":9,
    "owe":10,
    "guy":10,
    "thing":10,
    "place":10,
    "shut":10,
    "supposed":10,
    "again":10,
    "cause":10,
    "theres":10,
    "heather":10,
    "ya":10,
    "hit":10,
    "sit":10,
    "sister":11,
    "bullshit":11,
    "id":11,
    "care":11,
    "yes":11,
    "slut":11,
    "never":11,
    "whatre":11,
    "pedro":11,
    "time":11,
    "help":11,
    "work":12,
    "pay":12,
    "put":12,
    "would":12,
    "home":12,
    "into":12,
    "still":12,
    "more":12,
    "over":12,
    "talk":12,
    "dude":12,
    "left":13,
    "big":13,
    "tonight":13,
    "too":13,
    "maybe":13,
    "did":13,
    "anything":13,
    "drugs":13,
    "something":13,
    "aaron":13,
    "si":13,
    "asshole":14,
    "by":14,
    "girl":14,
    "should":14,
    "oh":14,
    "around":14,
    "carter":15,
    "our":15,
    "then":15,
    "jess":15,
    "say":15,
    "let":15,
    "sorry":15,
    "an":15,
    "told":16,
    "way":17,
    "ally":17,
    "been":17,
    "or":17,
    "":17,
    "gotta":18,
    "wanna":18,
    "shes":18,
    "who":18,
    "ass":18,
    "us":19,
    "when":19,
    "tell":19,
    "give":19,
    "didnt":19,
    "little":20,
    "one":20,
    "well":20,
    "doing":20,
    "okay":20,
    "down":20,
    "aint":21,
    "off":21,
    "call":21,
    "think":21,
    "whats":22,
    "good":22,
    "said":23,
    "going":23,
    "lets":23,
    "cant":23,
    "why":23,
    "mean":24,
    "how":25,
    "was":25,
    "where":25,
    "some":26,
    "were":26,
    "right":26,
    "his":27,
    "man":27,
    "come":27,
    "at":28,
    "want":28,
    "there":28,
    "take":28,
    "fine":29,
    "now":29,
    "car":29,
    "she":29,
    "fuckin":30,
    "need":31,
    "mehn":31,
    "have":32,
    "thats":32,
    "see":33,
    "all":33,
    "ill":33,
    "if":33,
    "but":35,
    "fucking":35,
    "look":36,
    "can":36,
    "about":37,
    "hes":37,
    "hey":37,
    "we":37,
    "hell":37,
    "back":38,
    "go":41,
    "him":41,
    "alright":42,
    "not":44,
    "jimmy":44,
    "with":46,
    "up":46,
    "her":49,
    "its":50,
    "fuck":50,
    "yeah":51,
    "gonna":51,
    "of":54,
    "so":55,
    "like":55,
    "shit":56,
    "be":56,
    "get":58,
    "are":59,
    "on":59,
    "out":59,
    "here":60,
    "know":61,
    "for":61,
    "is":62,
    "youre":63,
    "no":65,
    "do":69,
    "in":74,
    "got":75,
    "just":75,
    "your":78,
    "this":84,
    "my":88,
    "he":89,
    "what":93,
    "that":95,
    "dont":98,
    "and":106,
    "me":113,
    "im":124,
    "it":148,
    "to":158,
    "a":167,
    "the":209,
    "i":355,
    "you":479
}