{
    "hadnt":1,
    "fashionable":1,
    "runs":1,
    "elder":1,
    "figure":1,
    "exits":1,
    "pursued":1,
    "thin":1,
    "haggard":1,
    "stunningly":1,
    "drably":1,
    "cloaked":1,
    "hidden":1,
    "shadow":1,
    "hood":1,
    "idiotic":1,
    "fop":1,
    "nears":1,
    "lace":1,
    "kerchief":1,
    "lettercharles":1,
    "bland":1,
    "catherines":1,
    "jaunt":1,
    "misjudge":1,
    "distinction":1,
    "victim":1,
    "capable":1,
    "action":1,
    "remark":1,
    "misconstruction":1,
    "fortitude":1,
    "supported":1,
    "misfortunes":1,
    "dogs":1,
    "bark":1,
    "suddenly":1,
    "\u201canxiety":1,
    "meet\u201d":1,
    "\u201cknow":1,
    "finishes":1,
    "reflective":1,
    "anticipating":1,
    "haste":1,
    "forbids":1,
    "\u201cforbid\u201d":1,
    "severest":1,
    "imaginable":1,
    "sending":1,
    "tarredandfeathered":1,
    "claims":1,
    "threatens":1,
    "ward":1,
    "slips":1,
    "desk":1,
    "drawer":1,
    "approached":1,
    "pray":1,
    "harm":1,
    "discreet":1,
    "admitting":1,
    "attentions":1,
    "avoiding":1,
    "flirtation":1,
    "bestowed":1,
    "cap":1,
    "considering":1,
    "shared":1,
    "detached":1,
    "simpleton":1,
    "earth":1,
    "baronet":1,
    "provoking":1,
    "crawl":1,
    "knees":1,
    "spot":1,
    "ocean":1,
    "village":1,
    "brotherinlaws":1,
    "gentlewoman":1,
    "straitened":1,
    "circumstances":1,
    "pack":1,
    "unpack":1,
    "brotherinlaw":1,
    "banking":1,
    "rolls":1,
    "begrudge":1,
    "sums":1,
    "irrational":1,
    "plight":1,
    "opportunity":1,
    "opportunistic":1,
    "coachman":1,
    "shouts":1,
    "behind":1,
    "greenery":1,
    "bore":1,
    "boring":1,
    "crane":1,
    "shot":1,
    "descend":1,
    "exasperated":1,
    "adjoining":1,
    "complain":1,
    "reception":1,
    "wellbred":1,
    "surprisingly":1,
    "disposed":1,
    "favour":1,
    "agreement":1,
    "sought":1,
    "possiblemrs":1,
    "exceptionally":1,
    "sosusan":1,
    "thoughtful":1,
    "recalls":1,
    "detested":1,
    "lengths":1,
    "liberal":1,
    "opposing":1,
    "preventing":1,
    "buying":1,
    "unfavorable":1,
    "mustn\u2019t":1,
    "yourselfsusan":1,
    "shant":1,
    "project":1,
    "names":1,
    "attach":1,
    "taking":1,
    "lap":1,
    "sighing":1,
    "uncles":1,
    "sakea":1,
    "knock":1,
    "compliments":1,
    "pleasureshe":1,
    "exchanges":1,
    "repose":1,
    "directly":1,
    "sounds":1,
    "appetite":1,
    "tall":1,
    "touch":1,
    "careful":1,
    "clatter":1,
    "metal":1,
    "gash":1,
    "red":1,
    "covers":1,
    "mark":1,
    "napkin":1,
    "smoothly":1,
    "warm":1,
    "fabrics":1,
    "serves":1,
    "reminds":1,
    "eyes\u2026":1,
    "weren\u2019t":1,
    "brown":1,
    "shape":1,
    "slope":1,
    "brow":1,
    "short":1,
    "understood":1,
    "sunny":1,
    "dispositions":1,
    "led":1,
    "borne":1,
    "retirement":1,
    "became":1,
    "confide":1,
    "illness":1,
    "prevented":1,
    "placed":1,
    "keeps":1,
    "represent":1,
    "hours":1,
    "deducted":1,
    "\u201cgrand":1,
    "education\u201d":1,
    "deductions":1,
    "christmassusan":1,
    "concentrated":1,
    "cup":1,
    "sorrysusan":1,
    "rested":1,
    "activity":1,
    "applied":1,
    "trace":1,
    "frederick\u2019s":1,
    "interesting":1,
    "design":1,
    "disappear":1,
    "pensive":1,
    "works":1,
    "fees":1,
    "economy":1,
    "light":1,
    "candles":1,
    "curiosity":1,
    "firsthand":1,
    "powers":1,
    "possesses":1,
    "captivating":1,
    "deceit":1,
    "pleasing":1,
    "detect":1,
    "weather":1,
    "momentarily":1,
    "expressions":1,
    "polite":1,
    "nod":1,
    "addresses":1,
    "renown":1,
    "precedes":1,
    "allusion":1,
    "escapes":1,
    "ornament":1,
    "thoughts":1,
    "sadness":1,
    "husband\u2019s":1,
    "lived":1,
    "nearly":1,
    "isolation":1,
    "remove":1,
    "frivolous":1,
    "sister\u2019s":1,
    "montage":1,
    "period":1,
    "wide":1,
    "landscape":1,
    "attending":1,
    "outdoor":1,
    "warmly":1,
    "greets":1,
    "disagree":1,
    "betrayed":1,
    "sauciness":1,
    "familiarity":1,
    "aversion":1,
    "callow":1,
    "idealism":1,
    "greater":1,
    "sisters":1,
    "offices":1,
    "calflike":1,
    "person":1,
    "predetermined":1,
    "instead":1,
    "acknowledge":1,
    "superiority":1,
    "humble":1,
    "pompous":1,
    "decourcys":1,
    "arrive":1,
    "sniffles":1,
    "season\u2019s":1,
    "cheerless":1,
    "aside":1,
    "affected":1,
    "save":1,
    "rightsir":1,
    "aloud":1,
    "alright":1,
    "hopes":1,
    "mumbling":1,
    "cites":1,
    "\u201cfine":1,
    "weather\u201d":1,
    "weather\u2019s":1,
    "maybe":1,
    "verbatim":1,
    "comma":1,
    "dash":1,
    "uneasy":1,
    "witnessing":1,
    "rapid":1,
    "increase":1,
    "punctuation":1,
    "frequently":1,
    "visiting":1,
    "engage":1,
    "\u201clong\u201d":1,
    "cleared":1,
    "heir":1,
    "\u201chow":1,
    "sincerely":1,
    "grieve":1,
    "boundless":1,
    "effaced":1,
    "illopinion":1,
    "terms\u2026\u201d":1,
    "golady":1,
    "writesir":1,
    "happening":1,
    "prepare":1,
    "horseback":1,
    "dismounts":1,
    "tavern":1,
    "coaching":1,
    "station":1,
    "warms":1,
    "reserved":1,
    "silently":1,
    "won\u2019t":1,
    "dissemble":1,
    "district":1,
    "importance":1,
    "admit":1,
    "inquiry":1,
    "ours":1,
    "credit":1,
    "survivalreginald":1,
    "fathersir":1,
    "deliberately":1,
    "engagement":1,
    "informing":1,
    "fall":1,
    "oppose":1,
    "age":1,
    "alonereginald":1,
    "astonish":1,
    "imputing":1,
    "ambitions":1,
    "enemies":1,
    "superior":1,
    "greatsir":1,
    "extravagance":1,
    "encouragement":1,
    "notoriousreginald":1,
    "calumnies":1,
    "dignify":1,
    "spend":1,
    "frequented":1,
    "hateful":1,
    "countrysir":1,
    "deprecate":1,
    "inheriting":1,
    "distress":1,
    "during":1,
    "revenge":1,
    "choose":1,
    "takereginald":1,
    "unnecessarysir":1,
    "permanent":1,
    "destroy":1,
    "honest":1,
    "blush":1,
    "humility":1,
    "trunck":1,
    "pleasant":1,
    "forecourt":1,
    "watches":1,
    "trunk":1,
    "post":1,
    "depart":1,
    "buckinghamshire":1,
    "highly":1,
    "separating":1,
    "pretends":1,
    "finds":1,
    "opener":1,
    "slits":1,
    "begins":1,
    "falls":1,
    "no\u2026":1,
    "it\u2026":1,
    "defies":1,
    "comprehension":1,
    "lost":1,
    "detected":1,
    "early":1,
    "ratherreginald":1,
    "terriblysusan":1,
    "reacts":1,
    "removed":1,
    "bullied":1,
    "confronted":1,
    "imposing":1,
    "mistress":1,
    "rightly":1,
    "stately":1,
    "arcade":1,
    "elegant":1,
    "notion":1,
    "milkiness":1,
    "confirms":1,
    "instructions":1,
    "scolding":1,
    "roundly":1,
    "protested":1,
    "wonderfully":1,
    "courtyard":1,
    "reflecting":1,
    "single":1,
    "instant":1,
    "nonverbal":1,
    "\u201cthank":1,
    "you\u201d":1,
    "circumstance":1,
    "nearness":1,
    "ages":1,
    "reginald\u2019s":1,
    "implication":1,
    "dawns":1,
    "displeased":1,
    "forgiven":1,
    "fallacy":1,
    "youth":1,
    "decision":1,
    "hold":1,
    "trumps":1,
    "slowbasting":1,
    "scathing":1,
    "address":1,
    "susansusan":1,
    "whipped":1,
    "slinks":1,
    "shamefaced":1,
    "stranger":1,
    "american":1,
    "branch":1,
    "delancey":1,
    "although":1,
    "bestbred":1,
    "\u201cfine\u201d":1,
    "freshness":1,
    "manners":1,
    "tonic":1,
    "treated":1,
    "outrageously":1,
    "war":1,
    "punished":1,
    "crown":1,
    "themselves":1,
    "nation":1,
    "ingrates":1,
    "begin":1,
    "floor":1,
    "searches":1,
    "seeks":1,
    "entering":1,
    "coach":1,
    "brought":1,
    "succeeded":1,
    "refuses":1,
    "says":1,
    "schools":1,
    "arrivals":1,
    "shy":1,
    "eighteen":1,
    "notices":1,
    "niece":1,
    "longed":1,
    "facing":1,
    "problem":1,
    "hasn\u2019t":1,
    "nourishment":1,
    "gardens":1,
    "practicing":1,
    "pianoforte":1,
    "practices":1,
    "quietly":1,
    "spied":1,
    "creatures":1,
    "eagerly":1,
    "spying":1,
    "judging":1,
    "rarely":1,
    "breed":1,
    "acutest":1,
    "critics":1,
    "marvel":1,
    "alternative":1,
    "sweetness":1,
    "partially":1,
    "compensates":1,
    "dreadfulness":1,
    "conversationi":1,
    "accepting":1,
    "responsibility":1,
    "securing":1,
    "rests":1,
    "prettier":1,
    "imagined":1,
    "vivacity":1,
    "commotion":1,
    "meembarrassed":1,
    "sorryfrederica":1,
    "hurrying":1,
    "subdued":1,
    "suppose":1,
    "beforehand":1,
    "truth":1,
    "forgot":1,
    "relation":1,
    "hoping":1,
    "establishment":1,
    "immaculate":1,
    "alltogether":1,
    "explains":1,
    "big":1,
    "marlborough":1,
    "showed":1,
    "realize":1,
    "corrected":1,
    "lets":1,
    "loose":1,
    "laugh":1,
    "ends":1,
    "versed":1,
    "supervises":1,
    "landowner":1,
    "role":1,
    "collins\u201d":1,
    "\u201cwhat":1,
    "pm":1,
    "tries":1,
    "darkened":1,
    "space":1,
    "revealed":1,
    "bedroom":1,
    "suite":1,
    "asleep":1,
    "hiding":1,
    "rushing":1,
    "ungenerous":1,
    "speech":1,
    "move":1,
    "respond":1,
    "kindhearted":1,
    "whose":1,
    "offense":1,
    "response":1,
    "comfortable":1,
    "precarious":1,
    "mercy":1,
    "discovered":1,
    "painfully":1,
    "won":1,
    "aunts":1,
    "served":1,
    "spite":1,
    "mamasusan":1,
    "mama\u201d":1,
    "contradict":1,
    "offers":1,
    "taste":1,
    "irregular":1,
    "thou":1,
    "shalt":1,
    "not\u201d":1,
    "\u201cshalt\u201d":1,
    "\u201cthou":1,
    "shalt\u201d":1,
    "dishonored":1,
    "\u201chonor\u201d":1,
    "means":1,
    "among":1,
    "parent\u2019s":1,
    "pay":1,
    "larger":1,
    "imperative":1,
    "universe":1,
    "offer":1,
    "splendid":1,
    "unlikely":1,
    "offered":1,
    "shielded":1,
    "starve":1,
    "resist":1,
    "hungrysusan":1,
    "starvation":1,
    "schoolhouse":1,
    "destitute":1,
    "whole":1,
    "lifesusan":1,
    "experience":1,
    "seek":1,
    "interference":1,
    "arrival":1,
    "suddenness":1,
    "unexpectedsusan":1,
    "apparent":1,
    "infant":1,
    "disputed":1,
    "half":1,
    "wording":1,
    "suitors":1,
    "wisdom":1,
    "knowsusan":1,
    "desirable":1,
    "dining":1,
    "tight":1,
    "round":1,
    "knife":1,
    "plate":1,
    "china":1,
    "jolly":1,
    "toys":1,
    "pair":1,
    "wall":1,
    "tiny":1,
    "balls":1,
    "savors":1,
    "forkful":1,
    "mmm":1,
    "tasting":1,
    "called":1,
    "novelty":1,
    "vegetable":1,
    "packet":1,
    "circling":1,
    "fireplace":1,
    "pretending":1,
    "enjoying":1,
    "angle":1,
    "fredericksville":1,
    "farm":1,
    "tower":1,
    "enjoins":1,
    "try":1,
    "overlapping":1,
    "children\u2019s":1,
    "candlelight":1,
    "utterly":1,
    "butreginald":1,
    "navigating":1,
    "cascades":1,
    "occasionally":1,
    "falling":1,
    "foaming":1,
    "waters":1,
    "apt":1,
    "appear":1,
    "bestreginald":1,
    "\u201ccomprehension\u201d":1,
    "sensible":1,
    "intimidate":1,
    "advantage":1,
    "character":1,
    "but\u2026":1,
    "clearly":1,
    "besotted":1,
    "flattered":1,
    "smitten":1,
    "proposed":1,
    "incomprehension":1,
    "easeful":1,
    "add":1,
    "layer":1,
    "full":1,
    "extent":1,
    "manhood":1,
    "hubbub":1,
    "attendants":1,
    "steal":1,
    "subterfuges":1,
    "relentless":1,
    "he\u2019d":1,
    "association":1,
    "lower":1,
    "mention":1,
    "plans":1,
    "react":1,
    "gratification":1,
    "untinged":1,
    "torture":1,
    "reveal":1,
    "astonishment":1,
    "ourselves":1,
    "difficulty":1,
    "convincing":1,
    "justified":1,
    "reasoning":1,
    "comfortably":1,
    "arranged":1,
    "verdict":1,
    "stupid":1,
    "contempt":1,
    "fancies":1,
    "doubting":1,
    "reasonableness":1,
    "emotions":1,
    "convinced":1,
    "ponders":1,
    "seeking":1,
    "interrupts":1,
    "nearby":1,
    "noticing":1,
    "trying":1,
    "poet":1,
    "jumps":1,
    "versatile":1,
    "poetry":1,
    "yesterday":1,
    "cited":1,
    "reminded":1,
    "accounts":1,
    "learns":1,
    "childhood":1,
    "significant":1,
    "forming":1,
    "principles":1,
    "prophet":1,
    "mountain":1,
    "tablets":1,
    "bearing":1,
    "taught":1,
    "obeyed":1,
    "fail":1,
    "tricky":1,
    "nots\u201c":1,
    "murder":1,
    "covet":1,
    "neighbor\u2019s":1,
    "wouldn\u2019t":1,
    "anyway":1,
    "whether":1,
    "disquisition":1,
    "impressed":1,
    "\u201csoon":1,
    "relative":1,
    "aids":1,
    "widow\u201d":1,
    "sign":1,
    "documents":1,
    "\u201cnote\u201d":1,
    "familyor":1,
    "glimpse":1,
    "partial":1,
    "local":1,
    "assembly":1,
    "gathering":1,
    "protagonists":1,
    "strangers":1,
    "contentedly":1,
    "observing":1,
    "varying":1,
    "degrees":1,
    "uncomfortable":1,
    "actively":1,
    "distressed":1,
    "plunged":1,
    "sharply":1,
    "cry":1,
    "ii":1,
    "shouldnt":1,
    "people":1,
    "unwelcome":1,
    "disturbs":1,
    "torment":1,
    "realizing":1,
    "flustered":1,
    "panics":1,
    "silences":1,
    "vexing":1,
    "forbade":1,
    "subject":1,
    "wits":1,
    "indifferent":1,
    "knowledgable":1,
    "\u201ccatch\u201d":1,
    "\u201cmatch\u201d":1,
    "temperament":1,
    "devote":1,
    "work":1,
    "bread":1,
    "couldreginald":1,
    "cleareyed":1,
    "mistaken":1,
    "likeable":1,
    "cousin\u2019s":1,
    "inlaw":1,
    "stepsomething":1,
    "particulars":1,
    "deaf":1,
    "wishes":1,
    "blue":1,
    "christmas":1,
    "redfaced":1,
    "justice":1,
    "fate":1,
    "opened":1,
    "wrongcatherine":1,
    "notcatherine":1,
    "quarrelled":1,
    "mecatherine":1,
    "cough":1,
    "fredericks":1,
    "worries":1,
    "dr":1,
    "preston\u2019s":1,
    "lozenges":1,
    "use":1,
    "package":1,
    "request":1,
    "losing":1,
    "barely":1,
    "impetuous":1,
    "resolutionscatherine":1,
    "wouldnt":1,
    "impetuoussusan":1,
    "hasty":1,
    "resolutions":1,
    "quick":1,
    "unmake":1,
    "we\u2019ll":1,
    "affecting":1,
    "girls":1,
    "dressed":1,
    "ascends":1,
    "calling":1,
    "shorten":1,
    "wellsusan":1,
    "aware":1,
    "passed":1,
    "illsuit":1,
    "risks":1,
    "clan":1,
    "affectionately":1,
    "attached":1,
    "consequence":1,
    "whereas":1,
    "terrifying":1,
    "destruction":1,
    "started":1,
    "grip":1,
    "madness":1,
    "entreating":1,
    "behalf":1,
    "solemnity":1,
    "inform":1,
    "impropriety":1,
    "allowing":1,
    "tried":1,
    "pompoussusan":1,
    "pomposity":1,
    "disloyalty":1,
    "outraged":1,
    "held":1,
    "insinuations":1,
    "worthy":1,
    "lover":1,
    "unanswerable":1,
    "motives":1,
    "certainlysusan":1,
    "continuing":1,
    "softer":1,
    "register":1,
    "scarcely":1,
    "condescension":1,
    "appeared":1,
    "summons":1,
    "halfwishing":1,
    "halffearing":1,
    "softened":1,
    "outcome":1,
    "justifies":1,
    "portion":1,
    "vanity":1,
    "favorable":1,
    "immediate":1,
    "tasks":1,
    "application":1,
    "receiving":1,
    "serious":1,
    "amends":1,
    "humiliations":1,
    "undergo":1,
    "miserable":1,
    "committing":1,
    "imprudence":1,
    "following":1,
    "churchillsusan":1,
    "follow":1,
    "indispensable":1,
    "remaining":1,
    "reward":1,
    "penance":1,
    "begs":1,
    "admitted":1,
    "perfection":1,
    "mirror":1,
    "dark":1,
    "bundled":1,
    "visible":1,
    "pew":1,
    "stained":1,
    "glass":1,
    "bent":1,
    "meditation":1,
    "affable":1,
    "asking":1,
    "teaching":1,
    "honored":1,
    "\u201cremember":1,
    "holy\u201d":1,
    "favorite":1,
    "rome":1,
    "\u201chonour":1,
    "giveth":1,
    "thee\u201d":1,
    "profound":1,
    "aspect":1,
    "born":1,
    "savage":1,
    "wilderness":1,
    "constructed":1,
    "avoid":1,
    "neglecting":1,
    "glorify":1,
    "preserve":1,
    "lord\u2019s":1,
    "creation":1,
    "superb":1,
    "baumgarten":1,
    "outlined":1,
    "aesthetic":1,
    "trinity":1,
    "perceived":1,
    "senses":1,
    "moral":1,
    "curate\u2019s":1,
    "encounters":1,
    "vespers":1,
    "clouded":1,
    "downpour":1,
    "drenched":1,
    "dry":1,
    "protectively":1,
    "touching":1,
    "withdraws":1,
    "embarrassedly":1,
    "touched":1,
    "hot":1,
    "surface":1,
    "embracing":1,
    "almost":1,
    "gave":1,
    "hastilylady":1,
    "expectation":1,
    "dashed":1,
    "break":1,
    "impose":1,
    "securely":1,
    "intercepts":1,
    "dreadful":1,
    "cured":1,
    "sooner":1,
    "cure":1,
    "hole":1,
    "pavement":1,
    "workmen":1,
    "replace":1,
    "cobblestones":1,
    "building":1,
    "wasn\u2019t":1,
    "substitute":1,
    "remains":1,
    "pouting":1,
    "singing":1,
    "praises":1,
    "scare":1,
    "joking":1,
    "coursesusan":1,
    "uncouthness":1,
    "expects":1,
    "candor":1,
    "older":1,
    "complaint":1,
    "drops":1,
    "lips":1,
    "exemplary":1,
    "known":1,
    "\u201cplagued":1,
    "doubt\u201d":1,
    "disconcerted":1,
    "severe":1,
    "reproaches":1,
    "butsusan":1,
    "absence":1,
    "forbidden":1,
    "delicacy":1,
    "caution":1,
    "enthusiasm":1,
    "insufficiently":1,
    "heededreginald":1,
    "feelings":1,
    "hurried":1,
    "accords":1,
    "views":1,
    "timesusan":1,
    "poignancy":1,
    "feelingsreginald":1,
    "longer":1,
    "hesitantly":1,
    "suggesting":1,
    "postpone":1,
    "until":1,
    "opinion":1,
    "inclinations":1,
    "opinions":1,
    "perhaps\u2026":1,
    "inclinationsreginald":1,
    "let\u2019ssusan":1,
    "responsible":1,
    "delays":1,
    "insupportable":1,
    "separations":1,
    "geographical":1,
    "reasonably":1,
    "staying":1,
    "reputations":1,
    "cruel":1,
    "evident":1,
    "arrangements":1,
    "elderly":1,
    "hate":1,
    "cause":1,
    "\u00e9loignement":1,
    "prime":1,
    "decline":1,
    "usual":1,
    "aches":1,
    "pains":1,
    "overall":1,
    "hardest":1,
    "implacable":1,
    "deals":1,
    "ignore":1,
    "minimize":1,
    "awaits":1,
    "fathers":1,
    "prospect":1,
    "reconsider":1,
    "me\u2026":1,
    "in\u2026":1,
    "lunges":1,
    "disappears":1,
    "closes":1,
    "leans":1,
    "exactly\u2019s":1,
    "happened\u2026":1,
    "visitor":1,
    "aback":1,
    "ashamed":1,
    "mealicia":1,
    "maneuvers":1,
    "courtesy":1,
    "dictate":1,
    "\u201cstrictly":1,
    "private\u201d":1,
    "intriguing":1,
    "animal":1,
    "injured":1,
    "amateur":1,
    "theatricals":1,
    "\u201cmedea\u201d":1,
    "perform":1,
    "week":1,
    "watched":1,
    "rehearsing":1,
    "unobstructed":1,
    "glimpses":1,
    "drama":1,
    "mustntmr":1,
    "equanimitylady":1,
    "equanimity":1,
    "theyre":1,
    "implore":1,
    "wont":1,
    "helpmr":1,
    "partway":1,
    "heed":1,
    "excellentlady":1,
    "tears":1,
    "verge":1,
    "error":1,
    "recognized":1,
    "youlady":1,
    "visits":1,
    "ladyship\u2026":1,
    "told":1,
    "minutes":1,
    "received":1,
    "devouring":1,
    "hour\u201d":1,
    "gained":1,
    "beyond":1,
    "contact":1,
    "mad":1,
    "atlantic":1,
    "passage":1,
    "hysterics":1,
    "agonies":1,
    "disastersusan":1,
    "forced":1,
    "study":1,
    "woes":1,
    "selfrespect":1,
    "makes":1,
    "bursting":1,
    "wailing":1,
    "handwriting":1,
    "tore":1,
    "aloudsusan":1,
    "ungentlemanly":1,
    "marked":1,
    "regardless":1,
    "confidential":1,
    "remarks":1,
    "obloquy":1,
    "acted":1,
    "badly":1,
    "innocent":1,
    "people\u2019s":1,
    "unluckily":1,
    "wormed":1,
    "husbands":1,
    "facts":1,
    "enraged":1,
    "vow":1,
    "dinner":1,
    "tomorrow":1,
    "doubtful":1,
    "pacing":1,
    "regards":1,
    "compassion":1,
    "marrying":1,
    "governable":1,
    "die":1,
    "ear":1,
    "eavesdropping":1,
    "outlandish":1,
    "othersint":1,
    "gown":1,
    "expecting":1,
    "benefit":1,
    "friendfriend":1,
    "denies":1,
    "sane":1,
    "enemy":1,
    "escape":1,
    "suspicions":1,
    "granting":1,
    "interview":1,
    "ease":1,
    "womans":1,
    "\u201calone\u201d":1,
    "ears":1,
    "unfortunate":1,
    "dreaded":1,
    "injuring":1,
    "deteriorated":1,
    "suspicious":1,
    "condition":1,
    "reassurance":1,
    "eyessusan":1,
    "compounded":1,
    "misinterpreting":1,
    "confided":1,
    "contents":1,
    "havent":1,
    "illnature":1,
    "interpret":1,
    "discredit":1,
    "stagger":1,
    "discussed":1,
    "word\u2026":1,
    "reflected":1,
    "untrusting":1,
    "commitment":1,
    "mistrust":1,
    "bode":1,
    "union":1,
    "master":1,
    "mood":1,
    "notlady":1,
    "fears":1,
    "vain":1,
    "engagements":1,
    "broke":1,
    "apprehensive":1,
    "elsewhere":1,
    "woman\u2019s":1,
    "fiend":1,
    "mens":1,
    "natures":1,
    "confusion":1,
    "start":1,
    "detriment":1,
    "guilty":1,
    "regret":1,
    "overwhelm":1,
    "wronged":1,
    "renowned":1,
    "ruin":1,
    "comments":1,
    "vulnerable":1,
    "geniuslady":1,
    "diabolically":1,
    "serpent":1,
    "eden\u2019s":1,
    "clever":1,
    "tradesmen":1,
    "astute":1,
    "stratagems":1,
    "banded":1,
    "agents":1,
    "obliging":1,
    "pawn":1,
    "jewels":1,
    "slay":1,
    "fatted":1,
    "calf":1,
    "prodigals":1,
    "wet":1,
    "blanket":1,
    "aged":1,
    "eludes":1,
    "tease":1,
    "fleeing":1,
    "assure":1,
    "holds":1,
    "appealed":1,
    "dirty":1,
    "noisy":1,
    "noxious":1,
    "soot":1,
    "point":1,
    "towns":1,
    "relates":1,
    "entire":1,
    "vindication":1,
    "assuredly":1,
    "reenters":1,
    "sheaf":1,
    "blushing":1,
    "prepared":1,
    "ready":1,
    "tired":1,
    "suitable":1,
    "audienceoutside":1,
    "approaching":1,
    "mesir":1,
    "ifrederica":1,
    "hearing":1,
    "soprano":1,
    "visitors":1,
    "whos":1,
    "arriving":1,
    "wayexcept":1,
    "pose":1,
    "families":1,
    "recognizing":1,
    "abruptness":1,
    "enchant\u00e9":1,
    "intrusion":1,
    "fixed":1,
    "readily":1,
    "promisesir":1,
    "\u201csome\u201d":1,
    "veritable":1,
    "kent":1,
    "moonlit":1,
    "native":1,
    "talent":1,
    "bird":1,
    "repetitive":1,
    "stay\u201d":1,
    "wherever":1,
    "secured":1,
    "lesson":1,
    "grand":1,
    "halfmeasures":1,
    "key":1,
    "\u201cnightingale\u201d":1,
    "loud":1,
    "\u201ckentish":1,
    "nightingale\u201d":1,
    "appellation":1,
    "teacher":1,
    "anywhere":1,
    "fights":1,
    "fought":1,
    "observation":1,
    "hates":1,
    "praised":1,
    "buy":1,
    "displacement":1,
    "remind":1,
    "referring":1,
    "misinterpretation":1,
    "henceforth":1,
    "assured":1,
    "consideration":1,
    "retrieving":1,
    "thwarted":1,
    "whimper":1,
    "storm":1,
    "winter\u2019s":1,
    "submitting":1,
    "caprices":1,
    "resigning":1,
    "deference":1,
    "resolve":1,
    "weaken":1,
    "indulgent":1,
    "grab":1,
    "unselfish":1,
    "bestow":1,
    "sends":1,
    "dine":1,
    "insulting":1,
    "opposite":1,
    "whenever":1,
    "enraging":1,
    "survive":1,
    "allowance":1,
    "folds":1,
    "finished":1,
    "changed":1,
    "protect":1,
    "argument":1,
    "fortunately":1,
    "trip":1,
    "marvellous":1,
    "oblige":1,
    "lucky":1,
    "pressing":1,
    "um":1,
    "top":1,
    "yoususan":1,
    "who\u2019s":1,
    "express":1,
    "hospitality":1,
    "extended":1,
    "fearful":1,
    "mode":1,
    "hello":1,
    "select":1,
    "show":1,
    "studied":1,
    "ducks":1,
    "strides":1,
    "plays":1,
    "haydn":1,
    "himmel":1,
    "bernardinicherubini":1,
    "city":1,
    "complicates":1,
    "complication":1,
    "hoped":1,
    "missed":1,
    "moving":1,
    "cousinly":1,
    "defects":1,
    "repaired":1,
    "invite":1,
    "teachers":1,
    "lessons":1,
    "londons":1,
    "soughtafter":1,
    "masters":1,
    "invitation":1,
    "retreat":1,
    "tutor":1,
    "thensusan":1,
    "part":1,
    "tension":1,
    "disappeared":1,
    "sag":1,
    "hearts":1,
    "completely":1,
    "extreme":1,
    "quiet":1,
    "soothing":1,
    "factor":1,
    "london\u2019s":1,
    "vaporous":1,
    "healthy":1,
    "pale":1,
    "smoky":1,
    "salutary":1,
    "fresh":1,
    "awkward":1,
    "silence":1,
    "descends":1,
    "broken":1,
    "town\u2019s":1,
    "dank":1,
    "spread":1,
    "cases":1,
    "reported":1,
    "disorders":1,
    "contagion":1,
    "shouldn\u2019t":1,
    "removing":1,
    "pause":1,
    "itd":1,
    "hardship":1,
    "lose":1,
    "daughters":1,
    "rely":1,
    "studies":1,
    "climbs":1,
    "exultant":1,
    "comparatively":1,
    "selfindulgent":1,
    "wallow":1,
    "park":1,
    "vows":1,
    "scalped":1,
    "suspected":1,
    "respectable":1,
    "divide":1,
    "yield":1,
    "impaired":1,
    "happier":1,
    "independent":1,
    "impatiently":1,
    "squeeze":1,
    "gouty":1,
    "attack":1,
    "palatial":1,
    "closed":1,
    "bachelor":1,
    "\u201crattle\u201d":1,
    "rattle":1,
    "complete":1,
    "three":1,
    "explanations":1,
    "allowedreginald":1,
    "second":1,
    "secure":1,
    "prudent":1,
    "effect":1,
    "instrument":1,
    "possess":1,
    "partakes":1,
    "rousseau\u2019s":1,
    "writings":1,
    "julie":1,
    "heloise":1,
    "confirm":1,
    "citation":1,
    "interested":1,
    "pea":1,
    "strains":1,
    "credulity":1,
    "security":1,
    "events":1,
    "recent":1,
    "years":1,
    "deprived":1,
    "favored":1,
    "deserve":1,
    "heartily":1,
    "adding":1,
    "double":1,
    "excepted":1,
    "elaborate":1,
    "service":1,
    "mixes":1,
    "hinted":1,
    "shortly":1,
    "confirmed":1,
    "wheezing":1,
    "burden":1,
    "separated":1,
    "invited":1,
    "upsets":1,
    "separation":1,
    "ended":1,
    "fails":1,
    "advertising":1,
    "failure":1,
    "failed":1,
    "sexes":1,
    "wander":1,
    "vice":1,
    "versa":1,
    "strays":1,
    "merely":1,
    "biology":1,
    "similar":1,
    "unimaginable":1,
    "samovar":1,
    "pours":1,
    "water":1,
    "blame":1,
    "scenemaking":1,
    "driving":1,
    "gain":1,
    "result":1,
    "caused":1,
    "capital":1,
    "loves":1,
    "game":1,
    "susans":1,
    "sharp":1,
    "shares":1,
    "baby":1,
    "disheveled":1,
    "sobbing":1,
    "martin\u2019s":1,
    "alight":1,
    "stepping":1,
    "slightly":1,
    "ahead":1,
    "here\u2019s":1,
    "where\u2019s":1,
    "hill":1,
    "content":1,
    "garland":1,
    "arch":1,
    "cheers":1,
    "throws":1,
    "wheat":1,
    "newlyweds":1,
    "beneath":1,
    "advancing":1,
    "calls":1,
    "bless":1,
    "enormously":1,
    "efforts":1,
    "ninth":1,
    "grouping":1,
    "\u201cproud\u201d":1,
    "attend":1,
    "cunning":1,
    "manipulative":1,
    "toast":1,
    "announces":1,
    "gentlemen":1,
    "standing":1,
    "beaming":1,
    "continued":1,
    "startled":1,
    "loveliness":1,
    "goodheart":1,
    "verses":1,
    "memorial":1,
    "discoveries":1,
    "blest":1,
    "tho":1,
    "ev\u2019ry":1,
    "grace":1,
    "mien":1,
    "\u201dmean\u201d":1,
    "engaging":1,
    "\u201cmien":1,
    "engaging\u201d":1,
    "\u201cmien\u201d":1,
    "appearance":1,
    "countenance":1,
    "\u201cmine\u201d":1,
    "reference":1,
    "raised":1,
    "completes":1,
    "reciting":1,
    "higher":1,
    "virtue":1,
    "adorns":1,
    "fair":1,
    "requests":1,
    "commands":1,
    "gathers":1,
    "mountains":1,
    "waves":1,
    "fountains":1,
    "graves":1,
    "floods":1,
    "deepest":1,
    "neptune":1,
    "rocks":1,
    "steepest":1,
    "sings":1,
    "reaction":1,
    "shots":1,
    "affectionate":1,
    "embrace":1,
    "deem":1,
    "coward":1,
    "flight":1,
    "doth":1,
    "concealed":1,
    "guards":1,
    "frame":2,
    "heading":2,
    "crying":2,
    "hurries":2,
    "drive":2,
    "title":2,
    "card":2,
    "calm":2,
    "riding":2,
    "accomplished":2,
    "flirt":2,
    "england":2,
    "women":2,
    "anyone":2,
    "grave":2,
    "spoke":2,
    "settled":2,
    "pulling":2,
    "gloves":2,
    "car":2,
    "hurry":2,
    "curious":2,
    "threatening":2,
    "punishment":2,
    "hartford":2,
    "settle":2,
    "severed":2,
    "horrid":2,
    "deranged":2,
    "thinking":2,
    "heaven":2,
    "determined":2,
    "general":2,
    "except":2,
    "knew":2,
    "honor":2,
    "vastly":2,
    "simple":2,
    "ideal":2,
    "greatest":2,
    "engaged":2,
    "refused":2,
    "thousand":2,
    "year":2,
    "place":2,
    "worst":2,
    "seat":2,
    "element":2,
    "involved":2,
    "wages":2,
    "offensive":2,
    "travelling":2,
    "rides":2,
    "money":2,
    "rational":2,
    "terms":2,
    "distance":2,
    "ancient":2,
    "castle":2,
    "greet":2,
    "pays":2,
    "butler":2,
    "across":2,
    "satisfied":2,
    "lady\u2019s":2,
    "perfectly":2,
    "manner":2,
    "sympathetic":2,
    "amiable":2,
    "went":2,
    "prevent":2,
    "shows":2,
    "illiberal":2,
    "resent":2,
    "later":2,
    "disposition":2,
    "dislike":2,
    "couple":2,
    "join":2,
    "checks":2,
    "offscreen":2,
    "grow":2,
    "objects":2,
    "jam":2,
    "dress":2,
    "resemblance":2,
    "change":2,
    "let\u2019s":2,
    "refer":2,
    "tolerated":2,
    "loss":2,
    "easily":2,
    "fondest":2,
    "neglected":2,
    "duty":2,
    "required":2,
    "therefore":2,
    "trust":2,
    "days":2,
    "alas":2,
    "needs":2,
    "stain":2,
    "craves":2,
    "sense":2,
    "shakes":2,
    "servants":2,
    "bewitching":2,
    "dependent":2,
    "struck":2,
    "recovers":2,
    "acquaintance":2,
    "collect":2,
    "surprises":2,
    "perfect":2,
    "relations":2,
    "horses":2,
    "ride":2,
    "observed":2,
    "care":2,
    "quality":2,
    "interests":2,
    "inspired":2,
    "certain":2,
    "expectantly":2,
    "nonsense":2,
    "influence":2,
    "easier":2,
    "definitely":2,
    "son":2,
    "entered":2,
    "power":2,
    "justify":2,
    "conduct":2,
    "heads":2,
    "extraordinary":2,
    "health":2,
    "affairs":2,
    "obligation":2,
    "grant":2,
    "enjoy":2,
    "prejudice":2,
    "neglect":2,
    "dissipation":2,
    "vile":2,
    "explain":2,
    "you\u2019d":2,
    "estate":2,
    "ability":2,
    "lives":2,
    "considered":2,
    "utmost":2,
    "somber":2,
    "group":2,
    "watch":2,
    "obliged":2,
    "book":2,
    "poems":2,
    "run":2,
    "intercept":2,
    "folly":2,
    "outrageous":2,
    "requires":2,
    "fortune":2,
    "forgotten":2,
    "act":2,
    "rightness":2,
    "joke":2,
    "aristocratic":2,
    "slowly":2,
    "foolish":2,
    "need":2,
    "confused":2,
    "unkind":2,
    "stunned":2,
    "loyalty":2,
    "shown":2,
    "dynamic":2,
    "ground":2,
    "opens":2,
    "lines":2,
    "feared":2,
    "allow":2,
    "weve":2,
    "bows":2,
    "lack":2,
    "notes":2,
    "quickly":2,
    "odd":2,
    "lot":2,
    "bring":2,
    "situation":2,
    "humor":2,
    "smile":2,
    "small":2,
    "pretty":2,
    "candid":2,
    "intelligence":2,
    "stops":2,
    "pardon":2,
    "didnt":2,
    "expect":2,
    "law":2,
    "et":2,
    "cetera":2,
    "write":2,
    "took":2,
    "liberty":2,
    "deal":2,
    "\u201cchurch\u201d":2,
    "\u201chill\u201d":2,
    "french":2,
    "spoken":2,
    "mistake":2,
    "happens":2,
    "collins":2,
    "couldnt":2,
    "wanting":2,
    "provide":2,
    "waits":2,
    "state":2,
    "\u201cbut":2,
    "\u201cshalt":2,
    "wonder":2,
    "actually":2,
    "\u201chonor":2,
    "mother\u201d":2,
    "counsel":2,
    "thatsusan":2,
    "james\u2019":2,
    "less":2,
    "hungry":2,
    "meanwhile":2,
    "promise":2,
    "remember":2,
    "jamess":2,
    "qualities":2,
    "exact":2,
    "likely":2,
    "silver":2,
    "knocks":2,
    "cultivate":2,
    "catches":2,
    "cowper":2,
    "stairway":2,
    "maid":2,
    "vexed":2,
    "\u201csolomon\u201d":2,
    "romantic":2,
    "courtship":2,
    "youve":2,
    "fool":2,
    "isnt":2,
    "deny":2,
    "intentions":2,
    "blockhead":2,
    "court":2,
    "incomprehensible":2,
    "generous":2,
    "merit":2,
    "deserves":2,
    "friend\u2019s":2,
    "advice":2,
    "\u201cbook\u201d":2,
    "writes":2,
    "story":2,
    "twelve":2,
    "obey":2,
    "sabbath":2,
    "honoured":2,
    "dance":2,
    "party":2,
    "dancing":2,
    "ending":2,
    "freezes":2,
    "besides":2,
    "cheerful":2,
    "wifes":2,
    "though":2,
    "despise":2,
    "cousin":2,
    "leaving":2,
    "grateful":2,
    "corridor":2,
    "intercede":2,
    "boy":2,
    "ago":2,
    "strangeness":2,
    "fallen":2,
    "asked":2,
    "dressing":2,
    "learned":2,
    "intention":2,
    "entreat":2,
    "account":2,
    "raises":2,
    "inconvenient":2,
    "disfavour":2,
    "abhor":2,
    "creature":2,
    "punish":2,
    "absolutely":2,
    "able":2,
    "exchange":2,
    "sky":2,
    "prayer":2,
    "curate":2,
    "accord":2,
    "christian":2,
    "meant":2,
    "fifth":2,
    "god":2,
    "sentiment":2,
    "gratitude":2,
    "mansion":2,
    "\u201cbeauty\u201d":2,
    "\u201ctruth\u201d":2,
    "\u201cgood\u201d":2,
    "religion":2,
    "dodging":2,
    "forward":2,
    "joy":2,
    "frighten":2,
    "blind":2,
    "constitution":2,
    "st":2,
    "favor":2,
    "disagreeable":2,
    "alicia\u2019s":2,
    "support":2,
    "arrange":2,
    "months":2,
    "delay":2,
    "necessity":2,
    "owe":2,
    "hed":2,
    "rubbish":2,
    "ah":2,
    "mortality":2,
    "natural":2,
    "guardian":2,
    "within":2,
    "announce":2,
    "explained":2,
    "entrusted":2,
    "recover":2,
    "holding":2,
    "letter\u2019s":2,
    "repeat":2,
    "else":2,
    "possibly":2,
    "dangerous":2,
    "solicitors":2,
    "happened":2,
    "visited":2,
    "dread":2,
    "tendency":2,
    "convince":2,
    "judgment":2,
    "third":2,
    "esteem":2,
    "actions":2,
    "uncanny":2,
    "nature":2,
    "spirits":2,
    "screen":2,
    "youll":2,
    "gases":2,
    "danger":2,
    "songbird":2,
    "play":2,
    "unite":2,
    "anxiety":2,
    "instruction":2,
    "glance":2,
    "signore":2,
    "veltroni":2,
    "hard":2,
    "shall":2,
    "difference":2,
    "progress":2,
    "grown":2,
    "companionship":2,
    "congratulate":2,
    "least":2,
    "extensive":2,
    "archway":2,
    "written":2,
    "match":2,
    "human":2,
    "responds":2,
    "brain":2,
    "someone":2,
    "marvelous":2,
    "wedding":2,
    "funny":2,
    "fellow":2,
    "guest":2,
    "pregnant":2,
    "portal":2,
    "\u201csurrey":2,
    "songbird\u201d":2,
    "yet":3,
    "wife":3,
    "turn":3,
    "bear":3,
    "accompanied":3,
    "beg":3,
    "watching":3,
    "gives":3,
    "starts":3,
    "receive":3,
    "beauty":3,
    "sisterinlaw":3,
    "land":3,
    "admire":3,
    "meeting":3,
    "johnsons":3,
    "surely":3,
    "happen":3,
    "preposterous":3,
    "pretext":3,
    "former":3,
    "sit":3,
    "jealous":3,
    "married":3,
    "recall":3,
    "martindale":3,
    "set":3,
    "income":3,
    "large":3,
    "she\u2019d":3,
    "ten":3,
    "side":3,
    "companion":3,
    "road":3,
    "once":3,
    "gets":3,
    "name":3,
    "decidedly":3,
    "coming":3,
    "ladyship":3,
    "appears":3,
    "particular":3,
    "main":3,
    "wilson":3,
    "vernon\u2019s":3,
    "wanted":3,
    "succeed":3,
    "plan":3,
    "reproach":3,
    "asks":3,
    "crosses":3,
    "setting":3,
    "smiles":3,
    "moves":3,
    "genius":3,
    "theres":3,
    "made":3,
    "feel":3,
    "glad":3,
    "chance":3,
    "fault":3,
    "affair":3,
    "afford":3,
    "shell":3,
    "puts":3,
    "glances":3,
    "looking":3,
    "high":3,
    "widow":3,
    "pauses":3,
    "since":3,
    "death":3,
    "further":3,
    "music":3,
    "wardrobe":3,
    "returns":3,
    "finding":3,
    "allowed":3,
    "considers":3,
    "insist":3,
    "reginalds":3,
    "hunt":3,
    "each":3,
    "deeply":3,
    "dearest":3,
    "conversations":3,
    "yourself":3,
    "persuaded":3,
    "passionate":3,
    "hurst":3,
    "wilford":3,
    "fire":3,
    "form":3,
    "astonishing":3,
    "we\u2019ve":3,
    "we\u2019d":3,
    "follows":3,
    "carrying":3,
    "intext":3,
    "joins":3,
    "realized":3,
    "value":3,
    "cowper\u2019s":3,
    "agitated":3,
    "enough":3,
    "evidently":3,
    "put":3,
    "contrary":3,
    "seemed":3,
    "several":3,
    "times":3,
    "walking":3,
    "forget":3,
    "clear":3,
    "dare":3,
    "americans":3,
    "direction":3,
    "note":3,
    "saw":3,
    "favorably":3,
    "neither":3,
    "nor":3,
    "mother\u2019s":3,
    "sincere":3,
    "i\u2019d":3,
    "distraught":3,
    "bursts":3,
    "astonished":3,
    "fine":3,
    "mentioned":3,
    "agricultural":3,
    "taken":3,
    "thinks":3,
    "speaks":3,
    "sorts":3,
    "forever":3,
    "answer":3,
    "order":3,
    "matter":3,
    "immediately":3,
    "king":3,
    "bible":3,
    "idea":3,
    "dividing":3,
    "mothers":3,
    "green":3,
    "peas":3,
    "against":3,
    "sweet":3,
    "james\u2019s":3,
    "charlotte":3,
    "voices":3,
    "same":3,
    "charm":3,
    "knows":3,
    "reply":3,
    "apply":3,
    "presence":3,
    "promised":3,
    "require":3,
    "free":3,
    "parlor":3,
    "pass":3,
    "returning":3,
    "close":3,
    "assume":3,
    "brilliant":3,
    "town":3,
    "send":3,
    "arrived":3,
    "forlorn":3,
    "greatly":3,
    "lovely":3,
    "edward":3,
    "news":3,
    "mine":3,
    "guide":3,
    "father\u2019s":3,
    "sad":3,
    "paces":3,
    "rest":3,
    "snatches":3,
    "alone":3,
    "johnson\u2019s":3,
    "shocking":3,
    "hell":3,
    "parklands":3,
    "piece":3,
    "sing":3,
    "kentish":3,
    "nightingale":3,
    "weeks":3,
    "wed":3,
    "influenza":3,
    "ha":3,
    "sob":4,
    "maria":4,
    "impressive":4,
    "wait":4,
    "pulls":4,
    "finally":4,
    "fact":4,
    "being":4,
    "spirit":4,
    "jealousy":4,
    "catherine\u2019s":4,
    "concerned":4,
    "often":4,
    "seeing":4,
    "connecticut":4,
    "connection":4,
    "wrote":4,
    "ones":4,
    "notice":4,
    "motive":4,
    "rich":4,
    "friendship":4,
    "paying":4,
    "advanced":4,
    "ever":4,
    "view":4,
    "\u201cchurchill\u201d":4,
    "footmen":4,
    "ladies":4,
    "leads":4,
    "persuade":4,
    "noticed":4,
    "given":4,
    "past":4,
    "prefer":4,
    "handsome":4,
    "laughs":4,
    "remarkable":4,
    "because":4,
    "happily":4,
    "affection":4,
    "i\u2019ll":4,
    "reads":4,
    "correspondence":4,
    "enter":4,
    "introduce":4,
    "reputation":4,
    "doing":4,
    "decourcy\u2019s":4,
    "agreeable":4,
    "conversation":4,
    "ive":4,
    "respect":4,
    "isn\u2019t":4,
    "pride":4,
    "words":4,
    "brings":4,
    "what\u2019s":4,
    "heart":4,
    "sole":4,
    "happiness":4,
    "near":4,
    "understanding":4,
    "interest":4,
    "lively":4,
    "none":4,
    "comfort":4,
    "impossible":4,
    "expression":4,
    "front":4,
    "morning":4,
    "position":4,
    "goes":4,
    "object":4,
    "worth":4,
    "walks":4,
    "followed":4,
    "either":4,
    "path":4,
    "parents":4,
    "future":4,
    "question":4,
    "looked":4,
    "proud":4,
    "methods":4,
    "today":4,
    "strange":4,
    "nothing":4,
    "teach":4,
    "commandments":4,
    "explanation":4,
    "solomon":4,
    "volume":4,
    "ridiculous":4,
    "cast":4,
    "mind":4,
    "sent":4,
    "whatever":4,
    "verse":4,
    "old":4,
    "wrong":4,
    "necessary":4,
    "private":4,
    "end":4,
    "concern":4,
    "season":4,
    "upstairs":4,
    "leave":4,
    "hour":4,
    "divine":4,
    "next":4,
    "home":4,
    "chapel":4,
    "arrives":4,
    "risk":4,
    "company":4,
    "gentleman":4,
    "everything":4,
    "owen":4,
    "doubt":4,
    "agree":4,
    "guests":4,
    "air":4,
    "crowd":4,
    "two":5,
    "congratulations":5,
    "outside":5,
    "didn\u2019t":5,
    "business":5,
    "hands":5,
    "going":5,
    "sort":5,
    "thing":5,
    "doesn\u2019t":5,
    "delighted":5,
    "marriage":5,
    "decided":5,
    "you\u2019ll":5,
    "eyes":5,
    "surprise":5,
    "society":5,
    "wish":5,
    "something":5,
    "education":5,
    "far":5,
    "confess":5,
    "hallway":5,
    "silent":5,
    "moment":5,
    "takes":5,
    "trouble":5,
    "himself":5,
    "particularly":5,
    "continues":5,
    "voice":5,
    "talk":5,
    "men":5,
    "everyone":5,
    "late":5,
    "every":5,
    "hand":5,
    "accept":5,
    "friends":5,
    "envelope":5,
    "last":5,
    "stand":5,
    "under":5,
    "silly":5,
    "forgive":5,
    "keep":5,
    "hullo":5,
    "listen":5,
    "said":5,
    "sister":5,
    "ask":5,
    "that\u2019s":5,
    "regard":5,
    "you\u2019re":5,
    "anything":5,
    "best":5,
    "night":5,
    "whats":5,
    "id":5,
    "child":5,
    "returned":5,
    "become":5,
    "upper":5,
    "library":5,
    "return":5,
    "hew":5,
    "happy":6,
    "sound":6,
    "servant":6,
    "sits":6,
    "clothes":6,
    "head":6,
    "already":6,
    "many":6,
    "heavens":6,
    "attention":6,
    "saying":6,
    "impression":6,
    "found":6,
    "welcome":6,
    "meet":6,
    "up":6,
    "degree":6,
    "evening":6,
    "present":6,
    "better":6,
    "came":6,
    "new":6,
    "pleased":6,
    "walk":6,
    "upon":6,
    "without":6,
    "ill":6,
    "bit":6,
    "stands":6,
    "continue":6,
    "fredericas":6,
    "remain":6,
    "wise":6,
    "seen":6,
    "few":6,
    "case":6,
    "around":6,
    "matters":6,
    "surprised":6,
    "seem":6,
    "aunt":6,
    "those":6,
    "through":6,
    "youre":6,
    "church":6,
    "stop":6,
    "especially":6,
    "reason":7,
    "give":7,
    "possible":7,
    "live":7,
    "there\u2019s":7,
    "hall":7,
    "done":7,
    "vernons":7,
    "gold":7,
    "while":7,
    "uncle":7,
    "afraid":7,
    "stay":7,
    "summers":7,
    "cold":7,
    "truly":7,
    "still":7,
    "than":7,
    "pleasure":7,
    "thats":7,
    "window":7,
    "word":7,
    "together":7,
    "afternoon":7,
    "hear":7,
    "fear":7,
    "other":7,
    "call":7,
    "comes":7,
    "toward":7,
    "consider":7,
    "am":7,
    "fourth":7,
    "thy":7,
    "again":7,
    "get":7,
    "also":7,
    "herself":7,
    "salon":7,
    "seymour":7,
    "approaches":8,
    "shes":8,
    "nods":8,
    "open":8,
    "important":8,
    "manwaring\u2019s":8,
    "both":8,
    "another":8,
    "country":8,
    "sure":8,
    "turns":8,
    "steps":8,
    "footman":8,
    "myself":8,
    "life":8,
    "delightful":8,
    "can\u2019t":8,
    "frederica\u2019s":8,
    "first":8,
    "reading":8,
    "mean":8,
    "between":8,
    "stairs":8,
    "poor":8,
    "marry":8,
    "you\u2019ve":8,
    "commandment":8,
    "madam":8,
    "house":9,
    "brother":9,
    "back":9,
    "girl":9,
    "cannot":9,
    "speak":9,
    "leaves":9,
    "want":9,
    "children":9,
    "street":9,
    "soon":9,
    "daughter":9,
    "one\u2019s":9,
    "certainly":9,
    "friend":9,
    "true":9,
    "tea":9,
    "much":9,
    "time":9,
    "excellent":9,
    "may":9,
    "make":9,
    "making":9,
    "hope":9,
    "imagine":9,
    "thought":9,
    "whom":9,
    "mama":9,
    "really":9,
    "langford":10,
    "lucy":10,
    "left":10,
    "these":10,
    "entirely":10,
    "charming":10,
    "world":10,
    "understand":10,
    "over":10,
    "worry":10,
    "garden":10,
    "after":10,
    "take":10,
    "having":10,
    "right":10,
    "others":10,
    "gone":10,
    "own":10,
    "things":10,
    "lord":11,
    "beautiful":11,
    "face":11,
    "seems":11,
    "always":11,
    "family":11,
    "school":11,
    "rooms":11,
    "away":11,
    "heard":11,
    "couldn\u2019t":11,
    "tell":11,
    "go":12,
    "why":12,
    "before":12,
    "love":12,
    "great":12,
    "long":12,
    "their":12,
    "sorry":12,
    "off":12,
    "let":12,
    "perhaps":12,
    "any":12,
    "miss":13,
    "help":13,
    "visit":13,
    "frederick":13,
    "door":13,
    "quite":13,
    "down":13,
    "course":13,
    "kind":13,
    "woman":14,
    "he\u2019s":14,
    "does":14,
    "never":14,
    "too":14,
    "where":14,
    "she\u2019s":14,
    "susan\u2019s":14,
    "more":14,
    "enters":15,
    "rather":15,
    "cant":15,
    "way":15,
    "look":15,
    "i\u2019ve":15,
    "even":15,
    "hes":15,
    "please":16,
    "about":16,
    "read":16,
    "ext":16,
    "like":17,
    "should":17,
    "little":17,
    "husband":17,
    "father":17,
    "when":17,
    "carriage":18,
    "martin":18,
    "its":18,
    "think":18,
    "thank":18,
    "london":18,
    "find":18,
    "dont":19,
    "cross":19,
    "room":19,
    "im":19,
    "young":20,
    "johnson":20,
    "man":20,
    "don\u2019t":20,
    "did":21,
    "then":21,
    "some":21,
    "alicia":22,
    "i\u2019m":22,
    "believe":22,
    "been":23,
    "into":23,
    "excuse":23,
    "out":24,
    "them":24,
    "most":24,
    "who":24,
    "looks":24,
    "come":25,
    "now":25,
    "they":25,
    "were":25,
    "only":26,
    "letter":26,
    "can":26,
    "had":26,
    "mrs":26,
    "just":26,
    "there":27,
    "say":27,
    "here":27,
    "mother":27,
    "it\u2019s":28,
    "well":28,
    "dear":28,
    "oh":28,
    "decourcy":29,
    "good":29,
    "vernon":31,
    "us":31,
    "mr":31,
    "int":31,
    "do":31,
    "might":32,
    "charles":32,
    "by":33,
    "know":33,
    "very":33,
    "see":33,
    "which":34,
    "one":34,
    "could":38,
    "our":39,
    "or":39,
    "how":40,
    "catherine":40,
    "such":42,
    "his":43,
    "was":44,
    "on":45,
    "we":47,
    "churchill":48,
    "an":49,
    "are":49,
    "has":50,
    "him":52,
    "day":52,
    "manwaring":53,
    "will":53,
    "at":53,
    "must":53,
    "if":55,
    "would":55,
    "all":56,
    "james":57,
    "from":59,
    "so":63,
    "this":63,
    "yes":66,
    "your":68,
    "he":68,
    "she":72,
    "have":84,
    "no":87,
    "sir":91,
    "as":93,
    "reginald":94,
    "lady":96,
    "what":96,
    "me":97,
    "frederica":97,
    "susan":99,
    "with":100,
    "my":101,
    "for":102,
    "not":102,
    "it":112,
    "but":113,
    "that":120,
    "be":123,
    "is":139,
    "in":152,
    "her":171,
    "and":192,
    "of":227,
    "":244,
    "you":280,
    "a":301,
    "i":327,
    "to":393,
    "the":474
}