{
    "kareem":1,
    "blocking":1,
    "star":1,
    "daddies":1,
    "scrub":1,
    "kelvin":1,
    "gainst":1,
    "jamal":1,
    "nuh":1,
    "whistles":1,
    "aaah":1,
    "dogged":1,
    "cheerleader":1,
    "eeew":1,
    "needs":1,
    "camille":1,
    "ice":1,
    "fool":1,
    "alleyoop":1,
    "fake":1,
    "burn":1,
    "using":1,
    "folks":1,
    "bitching":1,
    "traded":1,
    "neighborhood":1,
    "mixed":1,
    "became":1,
    "parties":1,
    "atlanta":1,
    "nathan":1,
    "settled":1,
    "older":1,
    "definitely":1,
    "lived":1,
    "inside":1,
    "sodoes":1,
    "hole":1,
    "works":1,
    "lawyer":1,
    "most":1,
    "junior":1,
    "high":1,
    "scored":1,
    "fortyeight":1,
    "quarters":1,
    "sat":1,
    "fourth":1,
    "bothers":1,
    "fight":1,
    "ali":1,
    "karate":1,
    "almighty":1,
    "isis":1,
    "itsits":1,
    "towel":1,
    "pile":1,
    "rags":1,
    "garbage":1,
    "pants":1,
    "brushes":1,
    "teeth":1,
    "lay":1,
    "blue":1,
    "sweetheart":1,
    "hurry":1,
    "twinkies":1,
    "own":1,
    "bike":1,
    "drives":1,
    "worst":1,
    "nurse":1,
    "u":1,
    "g":1,
    "l":1,
    "y":1,
    "alibi":1,
    "thirty":1,
    "technical":1,
    "sub":1,
    "suck":1,
    "thicker":1,
    "base":1,
    "flour":1,
    "tennessee":1,
    "showing":1,
    "emotion":1,
    "grow":1,
    "tomboy":1,
    "lesbian":1,
    "jersey":1,
    "apron":1,
    "ismaybe":1,
    "reality":1,
    "chance":1,
    "listen":1,
    "comb":1,
    "whodunit":1,
    "felicia":1,
    "meet":1,
    "hottie":1,
    "inhere":1,
    "shed":1,
    "beating":1,
    "live":1,
    "creeping":1,
    "track":1,
    "fast":1,
    "rumors":1,
    "jim":1,
    "sons":1,
    "bound":1,
    "career":1,
    "press":1,
    "conference":1,
    "ivy":1,
    "already":1,
    "conversation":1,
    "proud":1,
    "feelings":1,
    "mr":1,
    "baller":1,
    "hoop":1,
    "legs":1,
    "car":1,
    "stretch":1,
    "note":1,
    "easton":1,
    "bigass":1,
    "titties":1,
    "promise":1,
    "wants":1,
    "sending":1,
    "coochie":1,
    "mail":1,
    "trampass":1,
    "hotass":1,
    "temper":1,
    "scar":1,
    "holding":1,
    "tempt":1,
    "stall":1,
    "recruit":1,
    "smack":1,
    "pat":1,
    "calm":1,
    "lady":1,
    "jackedup":1,
    "earring":1,
    "hoochie":1,
    "room":1,
    "fatass":1,
    "studying":1,
    "dollar":1,
    "signs":1,
    "twentyseven":1,
    "assists":1,
    "undefeated":1,
    "hed":1,
    "morning":1,
    "anywhere":1,
    "punching":1,
    "wife":1,
    "scouting":1,
    "tramps":1,
    "lead":1,
    "office":1,
    "savings":1,
    "gucci":1,
    "gold":1,
    "voice":1,
    "week":1,
    "tight":1,
    "ungrateful":1,
    "forcing":1,
    "chill":1,
    "lined":1,
    "locker":1,
    "charity":1,
    "brother":1,
    "howd":1,
    "claiming":1,
    "heels":1,
    "recruiter":1,
    "leaving":1,
    "taste":1,
    "eat":1,
    "bite":1,
    "worked":1,
    "control":1,
    "oncetwothree":1,
    "reaching":1,
    "oneand":1,
    "top":1,
    "drawer":1,
    "pearls":1,
    "yesterdays":1,
    "recruiters":1,
    "enjoy":1,
    "coat":1,
    "ohshit":1,
    "song":1,
    "halfbad":1,
    "jason":1,
    "dang":1,
    "nike":1,
    "gym":1,
    "major":1,
    "careful":1,
    "dry":1,
    "punch":1,
    "djs":1,
    "clown":1,
    "free":1,
    "percentage":1,
    "fiftyone":1,
    "percent":1,
    "shooting":1,
    "uhhuh":1,
    "myself":1,
    "shh":1,
    "psst":1,
    "mulholland":1,
    "drive":1,
    "figures":1,
    "deadend":1,
    "sitting":1,
    "jasons":1,
    "kissing":1,
    "bugging":1,
    "boards":1,
    "accidentally":1,
    "kneeing":1,
    "whend":1,
    "cree":1,
    "guarantee":1,
    "sacrifice":1,
    "spanked":1,
    "zvette":1,
    "dag":1,
    "t":1,
    "mommy":1,
    "mammary":1,
    "challenge":1,
    "feet":1,
    "lift":1,
    "personal":1,
    "position":1,
    "compete":1,
    "each":1,
    "reading":1,
    "econ":1,
    "basically":1,
    "loot":1,
    "limited":1,
    "commodity":1,
    "fan":1,
    "shhh":1,
    "daddys":1,
    "punk":1,
    "girlsyoure":1,
    "pose":1,
    "sick":1,
    "dora":1,
    "z":1,
    "shower":1,
    "smell":1,
    "sits":1,
    "bus":1,
    "whoa":1,
    "yours":1,
    "sloppy":1,
    "sid":1,
    "bowlegged":1,
    "wishes":1,
    "instead":1,
    "red":1,
    "carpet":1,
    "laid":1,
    "salty":1,
    "order":1,
    "wings":1,
    "weak":1,
    "cares":1,
    "known":1,
    "mccalls":1,
    "clothes":1,
    "drop":1,
    "plan":1,
    "candy":1,
    "store":1,
    "teams":1,
    "dukes":1,
    "kentuckys":1,
    "arkansas":1,
    "surprise":1,
    "sweet":1,
    "sixteen":1,
    "returning":1,
    "starters":1,
    "squad":1,
    "consider":1,
    "nation":1,
    "highlight":1,
    "diaper":1,
    "dandies":1,
    "ptp":1,
    "prime":1,
    "country":1,
    "chose":1,
    "follow":1,
    "fathers":1,
    "footsteps":1,
    "become":1,
    "trojan":1,
    "shoulders":1,
    "cheryl":1,
    "miller":1,
    "feels":1,
    "breakout":1,
    "awesome":1,
    "defenders":1,
    "hand":1,
    "sportscenter":1,
    "genuine":1,
    "orange":1,
    "juice":1,
    "crossovers":1,
    "crossover":1,
    "post":1,
    "numbers":1,
    "putting":1,
    "definite":1,
    "lottery":1,
    "pick":1,
    "higher":1,
    "level":1,
    "develop":1,
    "nowhere":1,
    "choices":1,
    "choice":1,
    "deal":1,
    "dealing":1,
    "paternity":1,
    "party":1,
    "babys":1,
    "lawyers":1,
    "settle":1,
    "hang":1,
    "relations":1,
    "clips":1,
    "false":1,
    "onell":1,
    "exactly":1,
    "living":1,
    "fairy":1,
    "tale":1,
    "brings":1,
    "closer":1,
    "pushes":1,
    "further":1,
    "apart":1,
    "space":1,
    "autograph":1,
    "drinking":1,
    "marvin":1,
    "gaye":1,
    "died":1,
    "truthll":1,
    "truth":1,
    "justleave":1,
    "hos":1,
    "trick":1,
    "lie":1,
    "hired":1,
    "pathetic":1,
    "meetings":1,
    "proof":1,
    "pockets":1,
    "eye":1,
    "change":1,
    "loud":1,
    "sense":1,
    "understands":1,
    "wives":1,
    "dorm":1,
    "icant":1,
    "minutes":1,
    "call":1,
    "shay":1,
    "breaking":1,
    "lineup":1,
    "center":1,
    "senior":1,
    "noise":1,
    "bigbad":1,
    "la":1,
    "tech":1,
    "charging":1,
    "crowd":1,
    "sports":1,
    "arena":1,
    "hell":1,
    "ol":1,
    "chichis":1,
    "sandra":1,
    "chest":1,
    "bumped":1,
    "tries":1,
    "hyped":1,
    "portugal":1,
    "offer":1,
    "agents":1,
    "law":1,
    "couldve":1,
    "given":1,
    "weve":1,
    "final":1,
    "state":1,
    "ankle":1,
    "justit":1,
    "yelling":1,
    "hoarse":1,
    "potential":1,
    "ignore":1,
    "dressed":1,
    "sis":1,
    "reg":1,
    "derek":1,
    "roll":1,
    "ganked":1,
    "balcony":1,
    "flyness":1,
    "bra":1,
    "strap":1,
    "reggie":1,
    "kill":1,
    "practice":1,
    "lips":1,
    "limp":1,
    "whatevers":1,
    "clever":1,
    "buts":1,
    "dumbass":1,
    "beer":1,
    "sharing":1,
    "partys":1,
    "drunk":1,
    "crash":1,
    "finemaybe":1,
    "unlocked":1,
    "perfect":1,
    "liar":1,
    "quick":1,
    "those":1,
    "pictures":1,
    "nineteen":1,
    "marriage":1,
    "trapped":1,
    "handled":1,
    "responsibilities":1,
    "city":1,
    "hundred":1,
    "waiting":1,
    "hotel":1,
    "twenty":1,
    "security":1,
    "boldest":1,
    "becomes":1,
    "part":1,
    "dropping":1,
    "werent":1,
    "buzzer":1,
    "hells":1,
    "food":1,
    "defensive":1,
    "surprised":1,
    "dinner":1,
    "whenever":1,
    "burger":1,
    "king":1,
    "fucked":1,
    "far":1,
    "notice":1,
    "stayed":1,
    "priorities":1,
    "straight":1,
    "anyone":1,
    "vitale":1,
    "neglected":1,
    "able":1,
    "didwe":1,
    "fix":1,
    "entering":1,
    "decide":1,
    "damnitt":1,
    "soi":1,
    "baloncesto":1,
    "balencesto":1,
    "autografo":1,
    "si":1,
    "silenco":1,
    "winning":1,
    "dreaming":1,
    "trophy":1,
    "cocky":1,
    "uno":1,
    "mas":1,
    "por":1,
    "favor":1,
    "staying":1,
    "tinyass":1,
    "town":1,
    "fifty":1,
    "goats":1,
    "dark":1,
    "loses":1,
    "row":1,
    "blamed":1,
    "fire":1,
    "american":1,
    "led":1,
    "drama":1,
    "person":1,
    "chick":1,
    "difrent":1,
    "strokes":1,
    "reruns":1,
    "swear":1,
    "willis":1,
    "spanish":1,
    "youve":1,
    "seven":1,
    "tapped":1,
    "type":1,
    "boys":1,
    "alternative":1,
    "bookstore":1,
    "hollywood":1,
    "stars":1,
    "sweeter":1,
    "subs":1,
    "threepointer":1,
    "sc":1,
    "fifth":1,
    "quite":1,
    "lakers":1,
    "doctorll":1,
    "recognize":1,
    "happy":1,
    "fault":1,
    "divorced":1,
    "bleak":1,
    "stopped":1,
    "middle":1,
    "finger":1,
    "paying":1,
    "awkward":1,
    "spain":1,
    "peach":1,
    "fuzz":1,
    "cool":1,
    "doctors":1,
    "torn":1,
    "proball":1,
    "europe":1,
    "breasts":1,
    "during":1,
    "physical":1,
    "props":1,
    "allamerican":1,
    "retired":1,
    "cheapass":1,
    "answering":1,
    "machine":1,
    "messing":1,
    "actually":1,
    "switch":1,
    "flights":1,
    "hello":1,
    "quincys":1,
    "congratulations":1,
    "thank":1,
    "welli":1,
    "appreciate":1,
    "manage":1,
    "saw":1,
    "engaged":1,
    "stewardess":1,
    "met":1,
    "cookout":1,
    "theyre":1,
    "registered":1,
    "gift":1,
    "opinion":1,
    "place":1,
    "sex":1,
    "important":1,
    "pie":1,
    "makes":1,
    "along":1,
    "turning":1,
    "nose":1,
    "nail":1,
    "polish":1,
    "lip":1,
    "gloss":1,
    "spray":1,
    "pushing":1,
    "combed":1,
    "wearing":1,
    "martha":1,
    "stewart":1,
    "athlete":1,
    "housewife":1,
    "arent":1,
    "eight":1,
    "spent":1,
    "hours":1,
    "fancy":1,
    "wires":1,
    "crossed":1,
    "walks":1,
    "pizzas":1,
    "tupperware":1,
    "tossed":1,
    "fridge":1,
    "stood":1,
    "husband":1,
    "knowing":1,
    "womans":1,
    "ironing":1,
    "drawers":1,
    "dammitt":1,
    "coaches":1,
    "babe":1,
    "locking":1,
    "doors":1,
    "rehabs":1,
    "busting":1,
    "whether":1,
    "wonderful":1,
    "supportive":1,
    "stands":1,
    "cheering":1,
    "upstairs":1,
    "tends":1,
    "bosss":1,
    "daughter":1,
    "problem":1,
    "compliment":1,
    "steal":1,
    "goes":1,
    "onone":1,
    "jordan":1,
    "stops":1,
    "dress":1,
    "visiting":1,
    "kyras":1,
    "gone":1,
    "company":1,
    "darryl":1,
    "corny":1,
    "sohows":1,
    "strong":1,
    "aisle":1,
    "invitation":1,
    "rough":1,
    "rode":1,
    "tough":1,
    "dribbled":1,
    "half":1,
    "attention":1,
    "serious":1,
    "popsor":1,
    "hasnt":1,
    "painkillers":1,
    "crosses":1,
    "turn":1,
    "whyd":1,
    "matter":1,
    "breastfeeding":1,
    "fat":1,
    "jacket":1,
    "lp":1,
    "woke":1,
    "loved":1,
    "changed":1,
    "sun":1,
    "rises":1,
    "sets":1,
    "upset":1,
    "married":1,
    "psychology":1,
    "forgiven":1,
    "win":1,
    "biggest":1,
    "mistake":1,
    "present":1,
    "nine":1,
    "contemplating":1,
    "comeback":1,
    "comebacks":1,
    "enjoying":1,
    "spectator":1,
    "butt":2,
    "stand":2,
    "dr":2,
    "j":2,
    "none":2,
    "hope":2,
    "ah":2,
    "does":2,
    "shell":2,
    "bake":2,
    "mans":2,
    "vocabulary":2,
    "road":2,
    "until":2,
    "friends":2,
    "almost":2,
    "bone":2,
    "different":2,
    "bank":2,
    "doctor":2,
    "six":2,
    "minute":2,
    "box":2,
    "showed":2,
    "dresses":2,
    "under":2,
    "which":2,
    "wear":2,
    "done":2,
    "riding":2,
    "somebody":2,
    "sleep":2,
    "kay":2,
    "flowers":2,
    "bout":2,
    "buy":2,
    "girlfriend":2,
    "ugly":2,
    "mama":2,
    "taunting":2,
    "sit":2,
    "cut":2,
    "potato":2,
    "use":2,
    "lost":2,
    "hoping":2,
    "chances":2,
    "realize":2,
    "looks":2,
    "cute":2,
    "without":2,
    "education":2,
    "pop":2,
    "league":2,
    "miss":2,
    "spring":2,
    "satisfied":2,
    "stick":2,
    "warning":2,
    "ones":2,
    "female":2,
    "ballplayer":2,
    "wheres":2,
    "players":2,
    "shake":2,
    "bullshit":2,
    "itd":2,
    "coming":2,
    "front":2,
    "nights":2,
    "booty":2,
    "case":2,
    "looked":2,
    "child":2,
    "between":2,
    "luck":2,
    "cougars":2,
    "beautiful":2,
    "lying":2,
    "either":2,
    "sort":2,
    "words":2,
    "throw":2,
    "hit":2,
    "balls":2,
    "rebounds":2,
    "bed":2,
    "very":2,
    "end":2,
    "hates":2,
    "teammates":2,
    "finish":2,
    "such":2,
    "feel":2,
    "d":2,
    "wonder":2,
    "show":2,
    "tonya":2,
    "randall":2,
    "decided":2,
    "recruiting":2,
    "easy":2,
    "woman":2,
    "oneonone":2,
    "score":2,
    "strip":2,
    "alls":2,
    "fair":2,
    "new":2,
    "choose":2,
    "treat":2,
    "troy":2,
    "class":2,
    "draft":2,
    "teach":2,
    "also":2,
    "suit":2,
    "true":2,
    "touch":2,
    "past":2,
    "giving":2,
    "scared":2,
    "talked":2,
    "sweat":2,
    "whose":2,
    "money":2,
    "lied":2,
    "oclock":2,
    "watching":2,
    "mon":2,
    "sidras":2,
    "our":2,
    "charge":2,
    "overseas":2,
    "mcdonalds":2,
    "worth":2,
    "threw":2,
    "away":2,
    "against":2,
    "oregon":2,
    "superstar":2,
    "pass":2,
    "advice":2,
    "excuse":2,
    "nobody":2,
    "kids":2,
    "fucking":2,
    "another":2,
    "awhile":2,
    "hi":2,
    "cheap":2,
    "forgot":2,
    "knows":2,
    "asking":2,
    "oye":2,
    "luisa":2,
    "large":2,
    "table":2,
    "bitch":2,
    "thousand":2,
    "club":2,
    "making":2,
    "went":2,
    "working":2,
    "son":2,
    "twelve":2,
    "finally":2,
    "busy":2,
    "grew":2,
    "sneaking":2,
    "calling":2,
    "must":2,
    "figured":2,
    "rest":2,
    "fiance":2,
    "prissy":2,
    "believe":2,
    "perfume":2,
    "angry":2,
    "ashamed":2,
    "cooking":2,
    "meal":2,
    "ridiculous":2,
    "mattered":2,
    "rehab":2,
    "horse":2,
    "belong":2,
    "grandma":2,
    "wedding":2,
    "forgive":2,
    "deep":2,
    "basket":3,
    "stuff":3,
    "bet":3,
    "hear":3,
    "lucky":3,
    "shut":3,
    "munchkin":3,
    "stop":3,
    "caught":3,
    "whatd":3,
    "business":3,
    "nona":3,
    "moved":3,
    "street":3,
    "cook":3,
    "used":3,
    "caterer":3,
    "seen":3,
    "hurt":3,
    "says":3,
    "plays":3,
    "clippers":3,
    "everything":3,
    "thirtytwo":3,
    "points":3,
    "daddy":3,
    "whole":3,
    "anybody":3,
    "run":3,
    "though":3,
    "ow":3,
    "someone":3,
    "hate":3,
    "tomorrow":3,
    "seconds":3,
    "won":3,
    "m":3,
    "foul":3,
    "set":3,
    "am":3,
    "bench":3,
    "funny":3,
    "watch":3,
    "mouth":3,
    "recruited":3,
    "face":3,
    "usc":3,
    "smart":3,
    "pretty":3,
    "walk":3,
    "cmon":3,
    "til":3,
    "broke":3,
    "shawnee":3,
    "wanting":3,
    "guy":3,
    "honest":3,
    "cared":3,
    "spalding":3,
    "tired":3,
    "guys":3,
    "floor":3,
    "hearing":3,
    "yup":3,
    "hands":3,
    "clock":3,
    "second":3,
    "degree":3,
    "taking":3,
    "behind":3,
    "try":3,
    "bit":3,
    "brothers":3,
    "trust":3,
    "times":3,
    "before":3,
    "kick":3,
    "english":3,
    "having":3,
    "whack":3,
    "early":3,
    "kept":3,
    "hold":3,
    "freshmen":3,
    "dumb":3,
    "any":3,
    "curse":3,
    "reason":3,
    "pregnant":3,
    "their":3,
    "every":3,
    "sooner":3,
    "mess":3,
    "hanging":3,
    "happens":3,
    "qman":3,
    "father":3,
    "pops":3,
    "wouldnt":3,
    "needed":3,
    "messed":3,
    "stay":3,
    "send":3,
    "toni":3,
    "yall":3,
    "everybody":3,
    "ready":3,
    "heart":3,
    "seems":3,
    "find":3,
    "pull":3,
    "ten":3,
    "kerry":3,
    "anymore":3,
    "italian":3,
    "hows":3,
    "acl":3,
    "tried":3,
    "kyra":3,
    "wow":3,
    "knee":3,
    "missing":3,
    "ima":4,
    "moms":4,
    "feeling":4,
    "running":4,
    "sister":4,
    "zeke":4,
    "trip":4,
    "least":4,
    "gets":4,
    "house":4,
    "huh":4,
    "where":4,
    "magic":4,
    "lena":4,
    "work":4,
    "rather":4,
    "wont":4,
    "means":4,
    "stupid":4,
    "offensive":4,
    "supposed":4,
    "isnt":4,
    "hair":4,
    "beat":4,
    "might":4,
    "telling":4,
    "wait":4,
    "played":4,
    "dance":4,
    "through":4,
    "dick":4,
    "god":4,
    "eleven":4,
    "best":4,
    "attitude":4,
    "doing":4,
    "yet":4,
    "date":4,
    "tore":4,
    "else":4,
    "cold":4,
    "check":4,
    "made":4,
    "fun":4,
    "asked":4,
    "night":4,
    "couldnt":4,
    "whatever":4,
    "standing":4,
    "quit":4,
    "prove":4,
    "wrong":4,
    "court":4,
    "women":4,
    "mccall":4,
    "happen":4,
    "mind":4,
    "pro":4,
    "life":4,
    "few":4,
    "days":4,
    "into":4,
    "curfew":4,
    "shouldnt":4,
    "probably":4,
    "games":4,
    "sometimes":4,
    "mother":4,
    "fuck":4,
    "weeks":4,
    "dog":5,
    "heard":5,
    "old":5,
    "thinking":5,
    "shit":5,
    "baby":5,
    "meeting":5,
    "start":5,
    "together":5,
    "five":5,
    "black":5,
    "once":5,
    "long":5,
    "help":5,
    "act":5,
    "number":5,
    "ride":5,
    "mad":5,
    "forget":5,
    "has":5,
    "other":5,
    "besides":5,
    "havent":5,
    "jump":5,
    "late":5,
    "leave":5,
    "ho":5,
    "lose":5,
    "shot":5,
    "player":5,
    "spot":5,
    "alone":5,
    "tonight":5,
    "kinda":5,
    "ask":5,
    "kid":5,
    "months":5,
    "couple":5,
    "talking":5,
    "by":6,
    "shoot":6,
    "uh":6,
    "point":6,
    "looking":6,
    "word":6,
    "over":6,
    "put":6,
    "family":6,
    "door":6,
    "again":6,
    "since":6,
    "real":6,
    "same":6,
    "care":6,
    "found":6,
    "would":6,
    "day":6,
    "kiss":6,
    "team":6,
    "keep":6,
    "yo":6,
    "whos":6,
    "starting":6,
    "anyway":6,
    "hard":6,
    "home":6,
    "much":6,
    "these":6,
    "came":6,
    "job":6,
    "worry":6,
    "yes":6,
    "three":6,
    "will":6,
    "freshman":6,
    "sidra":6,
    "ago":6,
    "q":7,
    "girls":7,
    "boy":7,
    "getting":7,
    "maybe":7,
    "left":7,
    "later":7,
    "really":7,
    "knew":7,
    "doesnt":7,
    "id":7,
    "gotta":7,
    "wasnt":7,
    "there":7,
    "bad":7,
    "championship":7,
    "youd":7,
    "yourself":7,
    "enough":7,
    "many":7,
    "anything":7,
    "great":7,
    "season":7,
    "even":7,
    "people":7,
    "wanna":8,
    "big":8,
    "nothing":8,
    "than":8,
    "us":8,
    "more":8,
    "next":8,
    "them":8,
    "ever":8,
    "sure":8,
    "youll":8,
    "thing":8,
    "wanted":8,
    "theres":8,
    "lets":8,
    "took":8,
    "year":8,
    "remember":8,
    "nah":8,
    "only":9,
    "little":9,
    "after":9,
    "school":9,
    "last":9,
    "college":9,
    "please":9,
    "saying":9,
    "thought":9,
    "first":10,
    "head":10,
    "four":10,
    "ive":10,
    "basketball":10,
    "lot":10,
    "let":10,
    "an":10,
    "off":10,
    "damn":10,
    "being":10,
    "nice":11,
    "better":11,
    "two":11,
    "shes":11,
    "fine":11,
    "oh":11,
    "years":11,
    "things":11,
    "then":11,
    "thanks":11,
    "make":11,
    "need":11,
    "always":11,
    "coach":11,
    "his":12,
    "nba":12,
    "told":12,
    "around":12,
    "alright":12,
    "down":12,
    "as":12,
    "did":12,
    "give":12,
    "playing":12,
    "aint":13,
    "sorry":13,
    "ball":13,
    "hes":13,
    "way":13,
    "who":13,
    "trying":13,
    "from":13,
    "love":13,
    "come":13,
    "take":13,
    "now":13,
    "man":14,
    "they":14,
    "talk":14,
    "guess":14,
    "ass":14,
    "never":15,
    "still":15,
    "too":15,
    "because":15,
    "ill":16,
    "said":16,
    "should":16,
    "right":16,
    "him":16,
    "mean":16,
    "dad":17,
    "could":17,
    "back":17,
    "good":17,
    "look":18,
    "cant":18,
    "tell":18,
    "something":18,
    "her":18,
    "mom":18,
    "didnt":18,
    "or":19,
    "hey":19,
    "play":19,
    "cause":19,
    "time":19,
    "been":19,
    "had":20,
    "why":20,
    "say":20,
    "well":20,
    "monica":20,
    "whats":20,
    "were":20,
    "here":21,
    "quincy":22,
    "got":22,
    "at":22,
    "when":23,
    "game":23,
    "think":23,
    "gonna":24,
    "girl":24,
    "okay":24,
    "out":24,
    "all":25,
    "he":25,
    "want":25,
    "going":26,
    "some":26,
    "thats":27,
    "see":28,
    "are":28,
    "if":28,
    "yeah":29,
    "one":29,
    "how":29,
    "go":29,
    "can":30,
    "its":30,
    "no":32,
    "we":35,
    "do":37,
    "she":37,
    "on":38,
    "have":39,
    "not":40,
    "with":42,
    "youre":43,
    "but":43,
    "is":46,
    "about":46,
    "get":49,
    "up":51,
    "of":53,
    "be":54,
    "like":57,
    "just":59,
    "know":59,
    "for":61,
    "dont":64,
    "so":64,
    "my":65,
    "this":66,
    "was":67,
    "in":69,
    "im":75,
    "that":82,
    "it":85,
    "what":86,
    "me":90,
    "your":100,
    "and":115,
    "a":151,
    "the":168,
    "to":202,
    "i":286,
    "you":374
}