{
    "robot":1,
    "slaps":1,
    "breathing":1,
    "exercises":1,
    "oooohh":1,
    "fascinating":1,
    "excuse":1,
    "sprays":1,
    "perfume":1,
    "resets":1,
    "drunk":1,
    "zips":1,
    "purse":1,
    "view":1,
    "chucking":1,
    "frame":1,
    "title":1,
    "fade":1,
    "slumped":1,
    "tracksuit":1,
    "bottoms":1,
    "cat":1,
    "slippers":1,
    "hung":1,
    "large":1,
    "drinking":1,
    "television":1,
    "\u2018silence":1,
    "lambs\u2019":1,
    "nest":1,
    "quote":1,
    "\u2018turns\u2019":1,
    "loud":1,
    "reveal":1,
    "forcing":1,
    "reveals":1,
    "huge":1,
    "decker":1,
    "chips":1,
    "trimmings":1,
    "salad":1,
    "onion":1,
    "melted":1,
    "cheese":1,
    "bacon":1,
    "gherkins":1,
    "politely":1,
    "stuffs":1,
    "chip":1,
    "boy\u2019s":1,
    "tag":1,
    "andrew":1,
    "mood":1,
    "lifts":1,
    "bun":1,
    "answers":1,
    "mouthful":1,
    "ketchup":1,
    "signature":1,
    "hannibal":1,
    "mention":1,
    "andy\u2019s":1,
    "there\u2019ll":1,
    "makeup":1,
    "outraged":1,
    "ambushed":1,
    "bloke":1,
    "lament":1,
    "organised":1,
    "bear":1,
    "nance":1,
    "disturb":1,
    "flops":1,
    "show":1,
    "stay":1,
    "interrupts":1,
    "themed":1,
    "84":1,
    "\u2018mantras\u2019":1,
    "crossed":1,
    "\u2018nantras\u2019":1,
    "hollow":1,
    "robotic":1,
    "countryside":1,
    "hotellobby":1,
    "floors":1,
    "above":1,
    "ping":1,
    "opening\u2019":1,
    "enters":1,
    "squatting":1,
    "deviant":1,
    "learn":1,
    "french":1,
    "cook":1,
    "peering":1,
    "lobby":1,
    "israeli":1,
    "palestinian":1,
    "conflict":1,
    "closing\u2019":1,
    "close":1,
    "steadies":1,
    "encounter":1,
    "strides":1,
    "engage":1,
    "groom":1,
    "sweeps":1,
    "hula":1,
    "sent":1,
    "search":1,
    "drapes":1,
    "grabbing":1,
    "waiter":1,
    "paid":1,
    "handbag":1,
    "engagement":1,
    "literally":1,
    "present":1,
    "touched":1,
    "raided":1,
    "dom\u2019s":1,
    "manic":1,
    "swoops":1,
    "hates":1,
    "loves":1,
    "yoga":1,
    "creative":1,
    "wiped":1,
    "pea":1,
    "brain":1,
    "memory":1,
    "giving":1,
    "apologetic":1,
    "soldiers":1,
    "happiness":1,
    "imply":1,
    "poor":1,
    "personal":1,
    "hygiene":1,
    "paper":1,
    "zero":1,
    "pause":1,
    "slurp":1,
    "alright":1,
    "ryan\u2019s":1,
    "busted":1,
    "photo":1,
    "ex":1,
    "zee":1,
    "boyz":1,
    "drains":1,
    "pictures":1,
    "alive":1,
    "kicking":1,
    "canvas":1,
    "bags":1,
    "pringles":1,
    "galore":1,
    "plonked":1,
    "opposite":1,
    "excruciating":1,
    "predictable":1,
    "vagina":1,
    "hermetically":1,
    "barbie":1,
    "buggy":1,
    "horses":1,
    "salon":1,
    "pronto":1,
    "bowls":1,
    "announcer\u2019s":1,
    "voice":1,
    "booms":1,
    "due":1,
    "reminder":1,
    "passengers":1,
    "weekend":1,
    "engineering":1,
    "trains":1,
    "clapham":1,
    "junction":1,
    "7":1,
    "joking":1,
    "funny":1,
    "mum\u2019s":1,
    "obsessed":1,
    "rough":1,
    "draft":1,
    "passenger":1,
    "doodles":1,
    "promise":1,
    "self":1,
    "guide":1,
    "rolling":1,
    "mantras":1,
    "dismisses":1,
    "remembers":1,
    "writes":1,
    "\u2018black":1,
    "wash\u2019":1,
    "leaning":1,
    "overhearing":1,
    "\u2018this":1,
    "life\u2019":1,
    "lend":1,
    "recognise":1,
    "often":1,
    "matchmaker":1,
    "homework":1,
    "successful":1,
    "relationships":1,
    "built":1,
    "\u2018outdoorsy":1,
    "type\u2019":1,
    "international":1,
    "bestseller":1,
    "escalates":1,
    "suggesting":1,
    "sandwich":1,
    "annoyed":1,
    "asleep":1,
    "squashed":1,
    "wakes":1,
    "announcer":1,
    "arriving":1,
    "yawns":1,
    "luxuriously":1,
    "awake":1,
    "train\u2019s":1,
    "smiley":1,
    "drawn":1,
    "sticking":1,
    "infuriated":1,
    "bookmarking":1,
    "chapter":1,
    "\u2018your":1,
    "negative":1,
    "thoughts":1,
    "ruining":1,
    "\u2019":1,
    "waving":1,
    "gaily":1,
    "carriage":1,
    "furiously":1,
    "including":1,
    "charges":1,
    "picked":1,
    "pace":1,
    "manages":1,
    "barriers":1,
    "beeps":1,
    "blimey":1,
    "hero":1,
    "charming":1,
    "threw":1,
    "themselves":1,
    "tracks":1,
    "blame":1,
    "delays":1,
    "swooning":1,
    "emergency":1,
    "already":1,
    "barely":1,
    "swipes":1,
    "caller":1,
    "gory":1,
    "details":1,
    "gulps":1,
    "usually":1,
    "exchange":1,
    "ideas":1,
    "notions":1,
    "lecter":1,
    "tweaking":1,
    "verbal":1,
    "nipples":1,
    "bidding":1,
    "fashionable":1,
    "greeting":1,
    "descending":1,
    "quantity":1,
    "thinks":1,
    "599":1,
    "shelf":1,
    "mental":1,
    "stocking":1,
    "intend":1,
    "distance":1,
    "trick":1,
    "thirty":1,
    "forty":1,
    "breeze":1,
    "serious":1,
    "approaches":1,
    "pushing":1,
    "nailing":1,
    "wanders":1,
    "perturbed":1,
    "display":1,
    "unit":1,
    "spirit":1,
    "outdrink":1,
    "guys":1,
    "shrugs":1,
    "\u201cwhat":1,
    "do\u2019":1,
    "answered":1,
    "encouraging":1,
    "bring":1,
    "drinker":1,
    "fuck\u2019s":1,
    "laughing":1,
    "host":1,
    "eventualities":1,
    "pattersons":1,
    "clock\u2019s":1,
    "offer":1,
    "alone":1,
    "worried":1,
    "\u2018faux\u2019":1,
    "upset":1,
    "concerned":1,
    "wideeyed":1,
    "expression":1,
    "alltotally":1,
    "whoops":1,
    "cancels":1,
    "embarrassing":1,
    "buddy":1,
    "concentrating":1,
    "efforts":1,
    "\u2018jessica":1,
    "wanna":1,
    "switch":1,
    "tells":1,
    "stressful":1,
    "nah":1,
    "movie":1,
    "quoting":1,
    "abilities":1,
    "managing":1,
    "bots":1,
    "they\u2019ll":1,
    "manage":1,
    "nervous":1,
    "\u2018dating":1,
    "chat\u2019":1,
    "admit":1,
    "reservations":1,
    "registers":1,
    "common":1,
    "reached":1,
    "popup":1,
    "bullet":1,
    "term":1,
    "cock":1,
    "deal":1,
    "affairs":1,
    "who\u2019d":1,
    "packet":1,
    "adding":1,
    "recently":1,
    "bars":1,
    "blankly":1,
    "\u2018d\u2019":1,
    "panics":1,
    "thankful":1,
    "hitched":1,
    "complicated":1,
    "winner":1,
    "spontaneously":1,
    "laughs":1,
    "high":1,
    "lapse":1,
    "stepsmezzanine":1,
    "bleach":1,
    "sheets":1,
    "juju":1,
    "uhuh":1,
    "regularly":1,
    "devours":1,
    "offers":1,
    "shouldn\u2019t":1,
    "y\u2019know":1,
    "pump":1,
    "iron":1,
    "performs":1,
    "vague":1,
    "weight":1,
    "lifting":1,
    "mime":1,
    "munch":1,
    "uncomfortable":1,
    "envy":1,
    "mates":1,
    "lying":1,
    "nappy":1,
    "swimming":1,
    "direction":1,
    "freaking":1,
    "cutest":1,
    "papoose":1,
    "gurgling":1,
    "physically":1,
    "swoon":1,
    "plenty":1,
    "peeks":1,
    "unless":1,
    "freezing":1,
    "wrap":1,
    "enjoying":1,
    "touch":1,
    "joint":1,
    "river":1,
    "regime":1,
    "allow":1,
    "tonne":1,
    "burrito":1,
    "\u00a32":1,
    "bridgelondon":1,
    "dusk":1,
    "grimacing":1,
    "clear":1,
    "recognition":1,
    "regular":1,
    "define":1,
    "\u2018regular\u2019":1,
    "helen":1,
    "moleskine":1,
    "produce":1,
    "identical":1,
    "snap":1,
    "mine\u2019s":1,
    "lloyd":1,
    "cole":1,
    "commotions":1,
    "lifetime":1,
    "spooky":1,
    "spaghetti":1,
    "bolognese":1,
    "happily":1,
    "chuck":1,
    "forth":1,
    "pays":1,
    "wins":1,
    "revealing":1,
    "photos":1,
    "paradise":1,
    "kitties":1,
    "guilt":1,
    "confession":1,
    "appealing":1,
    "distracted":1,
    "giant":1,
    "deception":1,
    "simultaneously":1,
    "guess":1,
    "ice":1,
    "breaker":1,
    "wherever":1,
    "patient":1,
    "someplace":1,
    "torn":1,
    "enjoyed":1,
    "remaining":1,
    "whaddya":1,
    "considering":1,
    "whether":1,
    "taken":1,
    "hot":1,
    "steamy":1,
    "montage":1,
    "smash":1,
    "pins":1,
    "ecstatic":1,
    "ordinary":1,
    "tacky":1,
    "retro":1,
    "heaven":1,
    "1960s\u2019":1,
    "diner":1,
    "staff":1,
    "dressed":1,
    "american":1,
    "outfits":1,
    "lanesbar":1,
    "glancing":1,
    "pleased":1,
    "barmen":1,
    "tall":1,
    "dark":1,
    "kinda":1,
    "class":1,
    "5g":1,
    "comprehensive":1,
    "\u201888\u201993":1,
    "valentine\u2019s":1,
    "card":1,
    "nine":1,
    "ran":1,
    "glued":1,
    "57":1,
    "pieces":1,
    "lord":1,
    "pies":1,
    "emperor":1,
    "uhhuh":1,
    "52":1,
    "diet":1,
    "2":1,
    "strawberry":1,
    "luckily":1,
    "fridges":1,
    "likewise":1,
    "flirting":1,
    "jealous":1,
    "ramp":1,
    "choose":1,
    "glance":1,
    "sssshh":1,
    "nachos":1,
    "wheat":1,
    "allergy":1,
    "silly":1,
    "tree":1,
    "weep":1,
    "seanie":1,
    "pantene":1,
    "prov":1,
    "removes":1,
    "stole":1,
    "noyes":1,
    "barrel":1,
    "indeed":1,
    "cool":1,
    "women\u2019s":1,
    "working":1,
    "novelty":1,
    "mr":1,
    "armstrong":1,
    "predicted":1,
    "careers":1,
    "advisor":1,
    "jeez":1,
    "desired":1,
    "affect":1,
    "potential":1,
    "\u2018he\u2019s":1,
    "bowler\u2019":1,
    "type":1,
    "ruin":1,
    "plea":1,
    "dismantle":1,
    "web":1,
    "muffet":1,
    "pearl":1,
    "necklace":1,
    "wrestles":1,
    "fulfil":1,
    "jason":1,
    "aspinall":1,
    "h":1,
    "block":1,
    "adjoining":1,
    "listening":1,
    "presence":1,
    "alert":1,
    "makes":1,
    "binoculars":1,
    "training":1,
    "sights":1,
    "housekitchen":1,
    "volauvents":1,
    "oven":1,
    "eeeeeeeexactly":1,
    "steers":1,
    "cracks":1,
    "chugs":1,
    "ticks":1,
    "\u2018booze\u2019":1,
    "housefront":1,
    "continuous":1,
    "relaxing":1,
    "sofas":1,
    "main":1,
    "lots":1,
    "smaller":1,
    "chairs":1,
    "nearby":1,
    "covered":1,
    "defence":1,
    "tardiness":1,
    "white":1,
    "gravely":1,
    "softening":1,
    "imagine":1,
    "jostle":1,
    "affectionately":1,
    "teasing":1,
    "slobbed":1,
    "surreptitiously":1,
    "returns":1,
    "examine":1,
    "stain":1,
    "tastes":1,
    "hummus":1,
    "typing":1,
    "message":1,
    "honestly":1,
    "stuck":1,
    "saving":1,
    "wedged":1,
    "nip":1,
    "ladies\u2019":1,
    "845pm":1,
    "swoons":1,
    "skips":1,
    "spring":1,
    "step":1,
    "immaculately":1,
    "reapplying":1,
    "lipstick":1,
    "picking":1,
    "result":1,
    "hump":1,
    "sink":1,
    "nearest":1,
    "ankle":1,
    "screams":1,
    "saw":1,
    "break":1,
    "early":1,
    "luscious":1,
    "gyrates":1,
    "physique":1,
    "fit":1,
    "pokes":1,
    "impressed":1,
    "babies":1,
    "pamela":1,
    "handerson":1,
    "hans":1,
    "solo":1,
    "darth":1,
    "vader\u2019s":1,
    "helmet":1,
    "wanking":1,
    "shoulders":1,
    "wrapping":1,
    "sing":1,
    "nelson\u2019s":1,
    "pleadingly":1,
    "reluctantly":1,
    "luck":1,
    "dropping":1,
    "embrace":1,
    "results":1,
    "connection":1,
    "feelings":1,
    "chill":1,
    "harsh":1,
    "oops":1,
    "pet":1,
    "major":1,
    "effect":1,
    "seems":1,
    "impulsive":1,
    "lunatic":1,
    "conventional":1,
    "frankly":1,
    "psychotic":1,
    "per":1,
    "se":1,
    "fucked":1,
    "allowed":1,
    "conclusion":1,
    "merely":1,
    "enter":1,
    "bedtime":1,
    "add":1,
    "grandpa":1,
    "uncalled":1,
    "giggling":1,
    "overreacting":1,
    "pocket":1,
    "crest":1,
    "conversation":1,
    "firstly":1,
    "\u2018set":1,
    "ups\u2019":1,
    "\u2018b\u2019":1,
    "matched":1,
    "pleeeeease":1,
    "selfhelp":1,
    "books":1,
    "highflying":1,
    "business":1,
    "part":1,
    "classic":1,
    "retort":1,
    "lonely":1,
    "desperate":1,
    "eggs":1,
    "sexual":1,
    "peak":1,
    "downhill":1,
    "hefner":1,
    "viagra":1,
    "scurries":1,
    "bitter":1,
    "suits":1,
    "wonder":1,
    "slept":1,
    "\u2018oh":1,
    "wounded":1,
    "rejected":1,
    "age\u2019":1,
    "century":1,
    "management":1,
    "paaaaaaiiiint":1,
    "jackets":1,
    "congratulations":1,
    "pack":1,
    "lies":1,
    "afraid":1,
    "mine":1,
    "tequilas":1,
    "lawyers":1,
    "sexier":1,
    "cab":1,
    "20":1,
    "seem":1,
    "swim":1,
    "cycle":1,
    "dont":1,
    "triathlon":1,
    "steady":1,
    "jacks":1,
    "dumps":1,
    "boris":1,
    "rack":1,
    "puke":1,
    "ominously":1,
    "steels":1,
    "cantinathe":1,
    "scan":1,
    "far":1,
    "busier":1,
    "tourists":1,
    "aware":1,
    "mess":1,
    "intention":1,
    "thanks":1,
    "barges":1,
    "fuuuuuuuuuuuuuuck":1,
    "calls":1,
    "messages":1,
    "dials":1,
    "clocking":1,
    "state":1,
    "wipes":1,
    "mud":1,
    "elaine\u2019s":1,
    "mantra":1,
    "loser":1,
    "damp":1,
    "tshirty":1,
    "vest":1,
    "straightens":1,
    "straps":1,
    "bra":1,
    "notch":1,
    "ruffles":1,
    "hair":1,
    "cardigan":1,
    "air":1,
    "freshener":1,
    "underarms":1,
    "spray":1,
    "scanning":1,
    "exiting":1,
    "arrives":1,
    "oblivious":1,
    "resolutely":1,
    "faking":1,
    "sighs":1,
    "record":1,
    "finest":1,
    "agreeing":1,
    "demands":1,
    "angle":1,
    "\u2018idiot\u2019":1,
    "fading":1,
    "precise":1,
    "agreed":1,
    "39":1,
    "overly":1,
    "manly":1,
    "smythson":1,
    "10pm":1,
    "saturday":1,
    "marked":1,
    "surprised":1,
    "information":1,
    "pissy":1,
    "moustache":1,
    "dyeing":1,
    "week":1,
    "protectively":1,
    "exwife":1,
    "partners":1,
    "mature":1,
    "stable":1,
    "anymore":1,
    "declared":1,
    "breaks":1,
    "speechless":1,
    "edward":1,
    "held":1,
    "senses":1,
    "balks":1,
    "examines":1,
    "nails":1,
    "engaging":1,
    "owe":1,
    "achieve":1,
    "\u201cclosure\u201d":1,
    "greatest":1,
    "planned":1,
    "judgement":1,
    "yates\u2019s":1,
    "lodge":1,
    "tonic":1,
    "pint":1,
    "second":1,
    "gently":1,
    "downing":1,
    "seeing":1,
    "cackhandedly":1,
    "feed":1,
    "partythrough":1,
    "account":1,
    "leading":1,
    "pr":1,
    "firm":1,
    "blowing":1,
    "cockney":1,
    "rhyming":1,
    "slang":1,
    "wanker":1,
    "hil":1,
    "unaffected":1,
    "\u2018merchant":1,
    "wanker\u2019":1,
    "\u2018wanker\u2019":1,
    "hundred":1,
    "sixty":1,
    "eight":1,
    "calendar":1,
    "piss":1,
    "sending":1,
    "flying":1,
    "babycakes":1,
    "\u2018babycakes\u2019":1,
    "bound":1,
    "sooner":1,
    "protective":1,
    "stiffen":1,
    "fell":1,
    "marriage":1,
    "forced":1,
    "nod":1,
    "\u2018emotional\u2019":1,
    "nuts":1,
    "seductive":1,
    "wink":1,
    "rabbits":1,
    "sexually":1,
    "speaking":1,
    "seamlessly":1,
    "sleeping":1,
    "acts":1,
    "blank":1,
    "church":1,
    "lesbyterian":1,
    "beneath":1,
    "guided":1,
    "tour":1,
    "site":1,
    "amused":1,
    "every":1,
    "flipped":1,
    "ease":1,
    "18":1,
    "contains":1,
    "adult":1,
    "material":1,
    "69":1,
    "bath":1,
    "pg13":1,
    "tartan":1,
    "pyjamas":1,
    "goodnight":1,
    "\u2018missionary":1,
    "position\u2019":1,
    "aaaaaannnd":1,
    "flustered":1,
    "miffed":1,
    "usual":1,
    "guaranteed":1,
    "blowjob":1,
    "abuse":1,
    "\u2018irreconcilable":1,
    "differences\u2019":1,
    "\u2018just":1,
    "jobs\u2019":1,
    "shifts":1,
    "uncomfortably":1,
    "reminds":1,
    "conveniently":1,
    "angrily":1,
    "whacking":1,
    "prefer":1,
    "blood":1,
    "wanting":1,
    "diffuse":1,
    "dragging":1,
    "dancefloor":1,
    "playing":1,
    "nelson":1,
    "making":1,
    "twat":1,
    "medium":1,
    "submission":1,
    "\u2018school":1,
    "disco":1,
    "therapy\u2019":1,
    "waist":1,
    "responds":1,
    "accordingly":1,
    "dumped":1,
    "regret":1,
    "lives":1,
    "slipping":1,
    "habit":1,
    "tough":1,
    "traditional":1,
    "sleep":1,
    "married\u2019":1,
    "proposed":1,
    "tuscan":1,
    "hill":1,
    "kefalonian":1,
    "\u2018big":1,
    "day\u2019":1,
    "120":1,
    "130":1,
    "resized":1,
    "thin":1,
    "thousand":1,
    "pounds":1,
    "jewellery":1,
    "amounted":1,
    "realist":1,
    "optimist":1,
    "judgements":1,
    "chorus":1,
    "\u2018the":1,
    "reflex\u2019":1,
    "contain":1,
    "carry":1,
    "debate":1,
    "basically":1,
    "dancefightoff":1,
    "problem":1,
    "sidelines":1,
    "\u2018theorising\u2019":1,
    "experiencing":1,
    "actions":1,
    "considered":1,
    "\u2018chancey\u2019":1,
    "married":1,
    "chastened":1,
    "cynical":1,
    "wisecracks":1,
    "hola":1,
    "smeared":1,
    "cisterns":1,
    "crap":1,
    "cosy":1,
    "blows":1,
    "nose":1,
    "loudly":1,
    "palm":1,
    "positive":1,
    "overanalyse":1,
    "elaborate":1,
    "monumentally":1,
    "decisions":1,
    "24yearolds":1,
    "changed":1,
    "tune":1,
    "unlike":1,
    "lady":1,
    "palms":1,
    "allowance":1,
    "prior":1,
    "china":1,
    "\u2018found":1,
    "himself\u2019":1,
    "shacked":1,
    "shepherd\u2019s":1,
    "bush":1,
    "apart":1,
    "deauthorised":1,
    "itunes":1,
    "unforgivable":1,
    "journalist":1,
    "slash":1,
    "wannabe":1,
    "literary":1,
    "polymath":1,
    "figures":1,
    "poster":1,
    "child":1,
    "industry":1,
    "divorced":1,
    "piece":1,
    "corners":1,
    "squeezes":1,
    "\u2018interesting\u2019":1,
    "helpless":1,
    "69ing":1,
    "share":1,
    "nonsense":1,
    "seminal":1,
    "mark":1,
    "laughter":1,
    "hang":1,
    "deftly":1,
    "continue":1,
    "lay":1,
    "equipment":1,
    "sambuca":1,
    "liquor":1,
    "clipper":1,
    "lighters":1,
    "fill":1,
    "focus":1,
    "repeat":1,
    "realising":1,
    "alight":1,
    "determinedly":1,
    "sniffs":1,
    "hers":1,
    "pukes":1,
    "decides":1,
    "throw":1,
    "lands":1,
    "ed\u2019s":1,
    "aaaargh":1,
    "flailing":1,
    "dipping":1,
    "whoosh":1,
    "nozzle":1,
    "tougher":1,
    "control":1,
    "standard":1,
    "testing":1,
    "protocol":1,
    "closure":1,
    "dictionary":1,
    "definition":1,
    "depression":1,
    "acceptance":1,
    "o\u2019clock":1,
    "insert":1,
    "cacophony":1,
    "folks":1,
    "slowing":1,
    "suit":1,
    "texted":1,
    "she\u2019d":1,
    "confusion":1,
    "stood":1,
    "looooooser":1,
    "technically":1,
    "cynic":1,
    "obsession":1,
    "slows":1,
    "asking":1,
    "argue":1,
    "unbelievable":1,
    "speed":1,
    "opinions":1,
    "permission":1,
    "nail":1,
    "confidence":1,
    "coffin":1,
    "presume":1,
    "noting":1,
    "anecdote":1,
    "respectively":1,
    "crowd":1,
    "engulfs":1,
    "poof":1,
    "platform":1,
    "11":1,
    "collapses":1,
    "forgot":1,
    "doodle":1,
    "bubbles":1,
    "\u2018swoon\u2019":1,
    "\u2018hubba":1,
    "hubba\u2019":1,
    "gutted":1,
    "begins":1,
    "hall":1,
    "heaters":1,
    "aka":1,
    "nutter":1,
    "prove":1,
    "publishing":1,
    "sensation":1,
    "become":1,
    "raises":1,
    "glug":1,
    "keeps":1,
    "glugging":1,
    "wild":1,
    "eye":1,
    "patiently":1,
    "waits":1,
    "finish":1,
    "thirsty":1,
    "reference":1,
    "leonardo":1,
    "di":1,
    "caprio":1,
    "youngest":1,
    "daughter":1,
    "delayed":1,
    "plate":1,
    "falls":1,
    "suitable":1,
    "agree":1,
    "park":1,
    "doubleyellow":1,
    "fully":1,
    "weekly":1,
    "shop":1,
    "spending":1,
    "shell":1,
    "laundry":1,
    "softens":1,
    "wally":1,
    "pear":1,
    "soften":1,
    "metaphors":1,
    "fruit":1,
    "ha":1,
    "remembered":1,
    "loads":1,
    "promptly":1,
    "bursts":1,
    "finishing":1,
    "artiste":1,
    "dabble":1,
    "kidding":1,
    "art":1,
    "level":1,
    "levels":1,
    "b\u2019s":1,
    "c":1,
    "c\u2019s":1,
    "passed":1,
    "fan":1,
    "needed":1,
    "continues":1,
    "perks":1,
    "unhappy":1,
    "soul":1,
    "girly":1,
    "multicoloured":1,
    "efficiently":1,
    "flick":1,
    "gulp":1,
    "dad\u2019s":1,
    "epic":1,
    "screeches":1,
    "dawns":1,
    "driver":1,
    "meter":1,
    "helplessly":1,
    "hopeless":1,
    "mission":1,
    "ridiculous":1,
    "connected":1,
    "mutual":1,
    "jessica\u2019s":1,
    "firmly":1,
    "genius":1,
    "triathleting":1,
    "lovingly":1,
    "seanathon":1,
    "backs":1,
    "exact":1,
    "google":1,
    "map":1,
    "coordinates":1,
    "flings":1,
    "bumper":1,
    "sticker":1,
    "\u2018grass":1,
    "cash":1,
    "ass":1,
    "noone":1,
    "rides":1,
    "free\u2019":1,
    "burning":1,
    "rubber":1,
    "suburbia":1,
    "bright":1,
    "lights":1,
    "central":1,
    "dear":1,
    "blatantly":1,
    "dramatically":1,
    "swerves":1,
    "dangerously":1,
    "overtake":1,
    "win":1,
    "power":1,
    "ballad":1,
    "gestures":1,
    "declarations":1,
    "changing":1,
    "action":1,
    "aghast":1,
    "blanching":1,
    "drive":1,
    "useful":1,
    "appalled":1,
    "overtakes":1,
    "foot":1,
    "accelerator":1,
    "screeeeeeeeech":1,
    "abrupt":1,
    "lamp":1,
    "row":1,
    "victorian":1,
    "terrace":1,
    "brings":1,
    "bon":1,
    "speeds":1,
    "surrounded":1,
    "practically":1,
    "indecipherable":1,
    "throughout":1,
    "scene":1,
    "me\u2019":1,
    "easy":1,
    "partition":1,
    "sobs":1,
    "noooooo":1,
    "deeply":1,
    "la":1,
    "composes":1,
    "rrrrrrriinnnnnggggg":1,
    "25":1,
    "strippergram":1,
    "stripper":1,
    "gram":1,
    "appear":1,
    "marvellous":1,
    "family\u2019s":1,
    "shown":1,
    "welcome":1,
    "epicentre":1,
    "breakfast":1,
    "joints":1,
    "fridge":1,
    "needs":1,
    "carnage":1,
    "scans":1,
    "stops":1,
    "harry":1,
    "blonde":1,
    "loved":1,
    "babysitter":1,
    "condense":1,
    "thus":1,
    "lame":1,
    "afternoon":1,
    "mistook":1,
    "\u2018you\u2019ve":1,
    "girl\u2019":1,
    "normal":1,
    "decided":1,
    "intake":1,
    "ages":1,
    "hint":1,
    "fun":1,
    "loving":1,
    "contradictory":1,
    "admire":1,
    "support":1,
    "they\u2019ve":1,
    "given":1,
    "verge":1,
    "toasting":1,
    "wishing":1,
    "toasts":1,
    "year\u2019s":1,
    "\u2018jack\u2019":1,
    "immediately":1,
    "dustin":1,
    "hoffman":1,
    "graduate":1,
    "shrugging":1,
    "climbs":1,
    "shuts":1,
    "clears":1,
    "throat":1,
    "boys":1,
    "except":1,
    "turned":1,
    "bizarre":1,
    "possible":1,
    "blew":1,
    "mid":1,
    "dickhead":1,
    "sought":1,
    "\u2018old":1,
    "beaus\u2019":1,
    "admittedly":1,
    "reliable":1,
    "source":1,
    "all\u2019s":1,
    "fair":1,
    "commandeered":1,
    "drunken":1,
    "youths":1,
    "journey":1,
    "streets":1,
    "suburban":1,
    "finding":1,
    "witnessed":1,
    "instinctive":1,
    "skills":1,
    "vomit":1,
    "muddy":1,
    "surprisingly":1,
    "utterly":1,
    "rubbish":1,
    "aws":1,
    "silences":1,
    "reckon":1,
    "shoves":1,
    "cheers":1,
    "aren\u2019t":1,
    "leads":1,
    "grinning":1,
    "champagne":1,
    "crew":1,
    "lawn":1,
    "housebathroom":1,
    "confirm":1,
    "experience":1,
    "begin":1,
    "do\u2019s":1,
    "don\u2019ts":1,
    "bedroombathroom":1,
    "either":2,
    "inhale":2,
    "exhale":2,
    "mint":2,
    "chucks":2,
    "bin":2,
    "happens":2,
    "disappears":2,
    "bathroom":2,
    "screen":2,
    "hoody":2,
    "pair":2,
    "munching":2,
    "plays":2,
    "transfixed":2,
    "terns":2,
    "beautiful":2,
    "sip":2,
    "film":2,
    "mmmmm":2,
    "jumps":2,
    "pauses":2,
    "side":2,
    "etc":2,
    "bite":2,
    "older":2,
    "bought":2,
    "dinner":2,
    "napkin":2,
    "works":2,
    "scared":2,
    "legs":2,
    "ten":2,
    "flips":2,
    "page":2,
    "\u2018m\u2019":2,
    "less":2,
    "hard":2,
    "\u2018doors":2,
    "confidently":2,
    "kicks":2,
    "swing":2,
    "couples":2,
    "everywhere":2,
    "passing":2,
    "free":2,
    "savings":2,
    "mini":2,
    "34yearold":2,
    "wife":2,
    "pull":2,
    "longer":2,
    "cried":2,
    "37":2,
    "relief":2,
    "chemistry":2,
    "photograph":2,
    "carrying":2,
    "bemused":2,
    "snaps":2,
    "dry":2,
    "cats":2,
    "ask":2,
    "seal":2,
    "hurt":2,
    "directing":2,
    "boot":2,
    "boyfriend":2,
    "guy":2,
    "fake":2,
    "oi":2,
    "stopping":2,
    "currently":2,
    "slamming":2,
    "cannot":2,
    "dips":2,
    "driver\u2019s":2,
    "opening":2,
    "crossing":2,
    "soon":2,
    "hangs":2,
    "reading":2,
    "mate":2,
    "modern":2,
    "catches":2,
    "sympathetically":2,
    "otherwise":2,
    "without":2,
    "death":2,
    "da":2,
    "vinci":2,
    "code":2,
    "argument":2,
    "perhaps":2,
    "listen":2,
    "shush":2,
    "lips":2,
    "finished":2,
    "aggressively":2,
    "fallen":2,
    "gentlemen":2,
    "destination":2,
    "catch":2,
    "denial":2,
    "somebody":2,
    "many":2,
    "we\u2019d":2,
    "penny":2,
    "cheek":2,
    "\u2018elaine":2,
    "calling\u2019":2,
    "lines":2,
    "spoken":2,
    "swap":2,
    "thrown":2,
    "impression":2,
    "hindsight":2,
    "possibly":2,
    "sense":2,
    "london\u2019s":2,
    "south":2,
    "quality":2,
    "deserve":2,
    "salutes":2,
    "boxes":2,
    "lager":2,
    "mobile":2,
    "vodka":2,
    "answer":2,
    "sounds":2,
    "disaster":2,
    "gonna":2,
    "simply":2,
    "prepared":2,
    "ticking":2,
    "walked":2,
    "write":2,
    "southbank":2,
    "shakes":2,
    "momentarily":2,
    "dammit":2,
    "mouths":2,
    "found":2,
    "phones":2,
    "unison":2,
    "lunch":2,
    "wimps":2,
    "\u2018if":2,
    "dog\u2019":2,
    "delighted":2,
    "trust":2,
    "relationship":2,
    "spectrum":2,
    "wise":2,
    "while":2,
    "\u2018em":2,
    "bill":2,
    "pay":2,
    "drinks":2,
    "proper":2,
    "five":2,
    "improvement":2,
    "plans":2,
    "hallway":2,
    "carb":2,
    "worked":2,
    "neither":2,
    "smiling":2,
    "yikes":2,
    "hungerford":2,
    "bridge":2,
    "men":2,
    "swapping":2,
    "list":2,
    "ambition":2,
    "fresh":2,
    "funky":2,
    "none":2,
    "relieved":2,
    "notepads":2,
    "clean":2,
    "finds":2,
    "honesty":2,
    "important":2,
    "honest":2,
    "depends":2,
    "stupid":2,
    "different":2,
    "road":2,
    "grin":2,
    "music":2,
    "cu":2,
    "awesome":2,
    "strike":2,
    "cheesy":2,
    "style":2,
    "dates":2,
    "watching":2,
    "handsome":2,
    "bellamy":2,
    "st":2,
    "andrews":2,
    "sat":2,
    "gave":2,
    "tore":2,
    "boom":2,
    "5":2,
    "nesquik":2,
    "shows":2,
    "outside":2,
    "steps":2,
    "bowl":2,
    "attempt":2,
    "pretending":2,
    "school":2,
    "confident":2,
    "stealing":2,
    "tiny":2,
    "deceit":2,
    "sweet":2,
    "tongues":2,
    "psycho":2,
    "tentatively":2,
    "tray":2,
    "kitchen":2,
    "laid":2,
    "clothes":2,
    "glass":2,
    "tables":2,
    "placing":2,
    "franny":2,
    "knows":2,
    "christ\u2019s":2,
    "doorbell":2,
    "guests":2,
    "sort":2,
    "tightens":2,
    "swings":2,
    "strong":2,
    "pulled":2,
    "phyllis":2,
    "\u2018move":2,
    "closer\u2019":2,
    "dramatic":2,
    "you\u2019d":2,
    "explain":2,
    "reagan":2,
    "sinatra":2,
    "starting":2,
    "confess":2,
    "mad":2,
    "steal":2,
    "planning":2,
    "yours":2,
    "derailing":2,
    "cloakroom":2,
    "feel":2,
    "absolutely":2,
    "24yearold":2,
    "minute":2,
    "brilliant":2,
    "ready":2,
    "40yearold":2,
    "weren\u2019t":2,
    "bike":2,
    "tactical":2,
    "follows":2,
    "floor":2,
    "dj":2,
    "follow":2,
    "missed":2,
    "spots":2,
    "checking":2,
    "stares":2,
    "line":2,
    "realise":2,
    "hour":2,
    "root":2,
    "darkhaired":2,
    "carries":2,
    "whips":2,
    "war":2,
    "knew":2,
    "women":2,
    "pain":2,
    "spontaneous":2,
    "strange":2,
    "safety":2,
    "pub":2,
    "worst":2,
    "scenario":2,
    "extinguisher":2,
    "living":2,
    "merchant":2,
    "banker":2,
    "three":2,
    "rating":2,
    "porn":2,
    "star":2,
    "months":2,
    "slow":2,
    "paradox":2,
    "clink":2,
    "signed":2,
    "using":2,
    "properly":2,
    "dick":2,
    "live":2,
    "rest":2,
    "simple":2,
    "\u2018don\u2019t":2,
    "spent":2,
    "twenty":2,
    "four":2,
    "gesture":2,
    "unable":2,
    "offering":2,
    "supposed":2,
    "crisis":2,
    "casually":2,
    "shoes":2,
    "random":2,
    "\u2018happy\u2019":2,
    "secondly":2,
    "feeling":2,
    "eventually":2,
    "baggage":2,
    "4":2,
    "somehow":2,
    "six":2,
    "jigsaw":2,
    "correct":2,
    "tried":2,
    "knickers":2,
    "flaming":2,
    "wiser":2,
    "moving":2,
    "burns":2,
    "cracking":2,
    "whose":2,
    "ago":2,
    "meets":2,
    "hallsouth":2,
    "pretend":2,
    "holds":2,
    "halt":2,
    "seany":2,
    "across":2,
    "putting":2,
    "lit":2,
    "houses":2,
    "sobbing":2,
    "bang":2,
    "against":2,
    "chair":2,
    "boo":2,
    "faces":2,
    "snogged":2,
    "join":2,
    "naaaaaaaaaancy":2,
    "pretended":2,
    "kissing":2,
    "pops":3,
    "seductively":3,
    "forward":3,
    "spits":3,
    "lei":3,
    "empty":3,
    "sits":3,
    "beach":3,
    "clarice":3,
    "knock":3,
    "rolls":3,
    "nowhere":3,
    "burger":3,
    "how\u2019s":3,
    "pick":3,
    "pen":3,
    "wants":3,
    "hanging":3,
    "minutes":3,
    "used":3,
    "says":3,
    "determined":3,
    "cut":3,
    "game":3,
    "guest":3,
    "understand":3,
    "amazing":3,
    "facebook":3,
    "perfect":3,
    "single":3,
    "glares":3,
    "shake":3,
    "wee":3,
    "everybody":3,
    "shall":3,
    "bet":3,
    "dead":3,
    "hours":3,
    "whatever":3,
    "forget":3,
    "mousse":3,
    "happen":3,
    "flicks":3,
    "point":3,
    "haven\u2019t":3,
    "finger":3,
    "quiet":3,
    "pulling":3,
    "final":3,
    "top":3,
    "spins":3,
    "story":3,
    "miss":3,
    "drops":3,
    "adults":3,
    "kisses":3,
    "quick":3,
    "feels":3,
    "exit":3,
    "psychopath":3,
    "hit":3,
    "bye":3,
    "handing":3,
    "ahead":3,
    "obviously":3,
    "sake":3,
    "booze":3,
    "real":3,
    "calling":3,
    "alongside":3,
    "freaked":3,
    "eh":3,
    "city":3,
    "manager":3,
    "forever":3,
    "plus":3,
    "future":3,
    "huh":3,
    "trying":3,
    "awkwardly":3,
    "talk":3,
    "bad":3,
    "taught":3,
    "silence":3,
    "kids":3,
    "girlfriend":3,
    "tequila":3,
    "comes":3,
    "between":3,
    "waitress":3,
    "quickly":3,
    "band":3,
    "wash":3,
    "onto":3,
    "once":3,
    "heads":3,
    "round":3,
    "worry":3,
    "meant":3,
    "fat":3,
    "lost":3,
    "beers":3,
    "person":3,
    "ball":3,
    "bedroom":3,
    "lead":3,
    "b":3,
    "situation":3,
    "hear":3,
    "mind":3,
    "jesus":3,
    "motions":3,
    "runs":3,
    "light":3,
    "nobody":3,
    "pretends":3,
    "worse":3,
    "15":3,
    "dating":3,
    "means":3,
    "order":3,
    "else\u2019s":3,
    "decision":3,
    "half":3,
    "where\u2019s":3,
    "um":3,
    "came":3,
    "here\u2019s":3,
    "run":3,
    "himself":3,
    "dancing":3,
    "manbag":3,
    "tissue":3,
    "shoulder":3,
    "made":3,
    "diary":3,
    "sunday":3,
    "pass":3,
    "proud":3,
    "pushes":3,
    "firewoman":3,
    "affair":3,
    "porno":3,
    "baffled":3,
    "sex":3,
    "roll":3,
    "song":3,
    "total":3,
    "bruise":3,
    "lose":3,
    "stand":3,
    "heart":3,
    "sleeve":3,
    "dirty":3,
    "wanted":3,
    "tears":3,
    "glad":3,
    "queen":3,
    "elizabeth":3,
    "sharp":3,
    "hooray":3,
    "blah":3,
    "interesting":4,
    "chokes":4,
    "black":4,
    "double":4,
    "wearing":4,
    "corner":4,
    "bottle":4,
    "quid":4,
    "pro":4,
    "quo":4,
    "case":4,
    "trolley":4,
    "hi":4,
    "rings":4,
    "speak":4,
    "watches":4,
    "make":4,
    "excellent":4,
    "sign":4,
    "lift":4,
    "thighs":4,
    "doors":4,
    "full":4,
    "happy":4,
    "whole":4,
    "smile":4,
    "notices":4,
    "such":4,
    "place":4,
    "chocolate":4,
    "glances":4,
    "considers":4,
    "pant":4,
    "couldn\u2019t":4,
    "reads":4,
    "change":4,
    "read":4,
    "telling":4,
    "ended":4,
    "definitely":4,
    "ticket":4,
    "although":4,
    "ring":4,
    "we\u2019ve":4,
    "evening":4,
    "visibly":4,
    "bank":4,
    "i\u2019d":4,
    "we\u2019ll":4,
    "won\u2019t":4,
    "dad":4,
    "red":4,
    "words":4,
    "darling":4,
    "sees":4,
    "horrified":4,
    "hadn\u2019t":4,
    "friend":4,
    "paint":4,
    "since":4,
    "grabs":4,
    "stands":4,
    "word":4,
    "days":4,
    "probably":4,
    "baby":4,
    "24":4,
    "checks":4,
    "couple":4,
    "west":4,
    "barman":4,
    "might":4,
    "brought":4,
    "liked":4,
    "bloomsbury":4,
    "alley":4,
    "swiftly":4,
    "happening":4,
    "sofa":4,
    "least":4,
    "competitive":4,
    "took":4,
    "friends":4,
    "appears":4,
    "doubt":4,
    "parents\u2019":4,
    "parents":4,
    "jalapeno":4,
    "sexy":4,
    "socks":4,
    "land":4,
    "arms":4,
    "throws":4,
    "truth":4,
    "plan":4,
    "hopeful":4,
    "instead":4,
    "divorce":4,
    "papers":4,
    "earlier":4,
    "hoping":4,
    "happened":4,
    "olive":4,
    "stone":4,
    "you\u2019ll":4,
    "emotional":4,
    "try":4,
    "buy":4,
    "sad":4,
    "bits":4,
    "crazy":4,
    "wedding":4,
    "essie":4,
    "sophie":4,
    "teenagers":4,
    "mouth":5,
    "wow":5,
    "gone":5,
    "beat":5,
    "bed":5,
    "dress":5,
    "crisps":5,
    "there\u2019s":5,
    "along":5,
    "things":5,
    "though":5,
    "opens":5,
    "food":5,
    "clocks":5,
    "name":5,
    "massive":5,
    "london":5,
    "who\u2019s":5,
    "leaving":5,
    "somewhere":5,
    "ah":5,
    "enough":5,
    "set":5,
    "awkward":5,
    "34":5,
    "chances":5,
    "dom":5,
    "mojito":5,
    "reaches":5,
    "much":5,
    "slightly":5,
    "tries":5,
    "realises":5,
    "gives":5,
    "crying":5,
    "seriously":5,
    "flat":5,
    "nibbles":5,
    "seat":5,
    "world":5,
    "fact":5,
    "clearly":5,
    "ladies":5,
    "late":5,
    "rather":5,
    "isn\u2019t":5,
    "she\u2019ll":5,
    "check":5,
    "best":5,
    "standing":5,
    "last":5,
    "turn":5,
    "pete":5,
    "told":5,
    "triathlete":5,
    "most":5,
    "moments":5,
    "which":5,
    "mexican":5,
    "cantina":5,
    "glasses":5,
    "walks":5,
    "favourite":5,
    "spag":5,
    "bol":5,
    "new":5,
    "lists":5,
    "laugh":5,
    "heard":5,
    "those":5,
    "believe":5,
    "lanes":5,
    "wouldn\u2019t":5,
    "pants":5,
    "behind":5,
    "10":5,
    "walk":5,
    "taxi":5,
    "saying":5,
    "than":5,
    "theory":5,
    "grand":5,
    "blue":5,
    "breath":5,
    "40th":5,
    "74":5,
    "family":5,
    "picks":6,
    "neck":6,
    "mirror":6,
    "taking":6,
    "lovely":6,
    "smiles":6,
    "sister":6,
    "young":6,
    "eyes":6,
    "straight":6,
    "stronger":6,
    "toilet":6,
    "these":6,
    "shut":6,
    "day":6,
    "went":6,
    "copy":6,
    "meeting":6,
    "hope":6,
    "exactly":6,
    "station":6,
    "having":6,
    "stuff":6,
    "keep":6,
    "underneath":6,
    "few":6,
    "nods":6,
    "kind":6,
    "mum":6,
    "sure":6,
    "wtf":6,
    "thinking":6,
    "sound":6,
    "move":6,
    "deep":6,
    "nothing":6,
    "yup":6,
    "home":6,
    "doesn\u2019t":6,
    "cubicle":6,
    "sitting":6,
    "teeth":6,
    "romantic":6,
    "fire":6,
    "hello":7,
    "stop":7,
    "moment":7,
    "hold":7,
    "same":7,
    "hotel":7,
    "small":7,
    "nice":7,
    "us":7,
    "else":7,
    "front":7,
    "street":7,
    "coming":7,
    "finally":7,
    "blow":7,
    "chance":7,
    "fine":7,
    "thank":7,
    "they\u2019re":7,
    "everything":7,
    "moves":7,
    "wrong":7,
    "arse":7,
    "own":7,
    "towards":7,
    "also":7,
    "only":7,
    "waterloo":7,
    "walking":7,
    "40":7,
    "grins":7,
    "blind":7,
    "start":7,
    "er":7,
    "waiting":7,
    "bloody":7,
    "beer":7,
    "wall":7,
    "online":7,
    "marketing":7,
    "anything":7,
    "today":7,
    "watch":7,
    "dance":7,
    "theories":7,
    "pretty":8,
    "tonight":8,
    "any":8,
    "katie":8,
    "met":8,
    "better":8,
    "pulls":8,
    "totally":8,
    "through":8,
    "let":8,
    "yet":8,
    "billion":8,
    "table":8,
    "talking":8,
    "under":8,
    "later":8,
    "head":8,
    "thing":8,
    "girls":8,
    "year":8,
    "shots":8,
    "ooh":8,
    "called":8,
    "leave":8,
    "reason":8,
    "anniversary":8,
    "sean\u2019s":8,
    "window":8,
    "nearly":9,
    "yourself":9,
    "another":9,
    "great":9,
    "call":9,
    "ext":9,
    "give":9,
    "shit":9,
    "big":9,
    "whoa":9,
    "use":9,
    "people":9,
    "always":9,
    "car":9,
    "6":9,
    "after":9,
    "holding":9,
    "kiss":9,
    "myself":9,
    "arm":9,
    "fucking":9,
    "being":9,
    "shot":9,
    "patterson":9,
    "could":9,
    "teenage":9,
    "number":9,
    "leans":10,
    "wine":10,
    "service":10,
    "end":10,
    "andy":10,
    "job":10,
    "can\u2019t":10,
    "away":10,
    "were":10,
    "wallet":10,
    "lot":10,
    "quite":10,
    "let\u2019s":10,
    "daniel":10,
    "together":10,
    "woman":10,
    "flex":10,
    "help":11,
    "door":11,
    "course":11,
    "hell":11,
    "remember":11,
    "drink":11,
    "turns":11,
    "i\u2019ll":11,
    "getting":11,
    "idea":11,
    "wasn\u2019t":11,
    "before":11,
    "even":11,
    "idiot":11,
    "past":11,
    "scarf":11,
    "herself":12,
    "confused":12,
    "little":12,
    "long":12,
    "speech":12,
    "doing":12,
    "anyway":12,
    "house":12,
    "ryan":13,
    "mean":13,
    "way":13,
    "hand":13,
    "please":13,
    "something":13,
    "someone":13,
    "old":13,
    "open":13,
    "find":13,
    "our":13,
    "years":13,
    "both":13,
    "everyone":13,
    "we\u2019re":13,
    "tom":13,
    "wait":13,
    "ever":13,
    "fuck":14,
    "tell":14,
    "goes":14,
    "by":14,
    "hey":14,
    "meet":14,
    "you\u2019ve":14,
    "didn\u2019t":14,
    "book":14,
    "each":14,
    "face":15,
    "puts":15,
    "done":15,
    "gets":15,
    "what\u2019s":15,
    "still":15,
    "sorry":15,
    "next":15,
    "toilets":15,
    "very":16,
    "more":16,
    "thought":16,
    "when":16,
    "love":16,
    "two":16,
    "said":16,
    "maybe":17,
    "god":17,
    "looking":17,
    "hands":17,
    "how":17,
    "life":17,
    "should":17,
    "clock":17,
    "left":17,
    "too":18,
    "will":18,
    "boy":18,
    "notepad":18,
    "jack\u2019s":18,
    "if":19,
    "he\u2019s":19,
    "been":19,
    "never":19,
    "other":19,
    "bit":19,
    "room":20,
    "phone":20,
    "i\u2019ve":20,
    "take":20,
    "where":20,
    "actually":20,
    "again":21,
    "can":21,
    "put":21,
    "suddenly":21,
    "adam":21,
    "need":21,
    "would":21,
    "work":21,
    "date":21,
    "bowling":21,
    "or":22,
    "bag":22,
    "yeah":22,
    "say":22,
    "bar":22,
    "want":22,
    "okay":23,
    "see":23,
    "come":23,
    "she\u2019s":23,
    "first":23,
    "why":23,
    "had":23,
    "does":24,
    "int":24,
    "that\u2019s":24,
    "their":24,
    "because":24,
    "night":25,
    "good":25,
    "time":25,
    "fran":25,
    "ed":25,
    "am":26,
    "nancy\u2019s":26,
    "into":27,
    "has":27,
    "bert":27,
    "starts":28,
    "party":28,
    "him":28,
    "an":28,
    "train":28,
    "takes":29,
    "got":30,
    "hilary":30,
    "some":31,
    "did":31,
    "yes":31,
    "think":31,
    "look":31,
    "them":32,
    "right":33,
    "jessica":33,
    "really":34,
    "one":34,
    "down":34,
    "man":34,
    "over":34,
    "around":36,
    "girl":36,
    "off":37,
    "here":37,
    "you\u2019re":39,
    "like":40,
    "there":41,
    "about":41,
    "get":42,
    "going":42,
    "well":42,
    "from":43,
    "all":43,
    "they":44,
    "then":45,
    "go":45,
    "don\u2019t":48,
    "know":49,
    "looks":49,
    "elaine":51,
    "back":53,
    "who":54,
    "your":54,
    "now":55,
    "be":55,
    "are":56,
    "he":57,
    "we":58,
    "have":58,
    "was":58,
    "oh":59,
    "do":61,
    "sean":63,
    "i\u2019m":65,
    "no":66,
    "it\u2019s":70,
    "out":72,
    "just":72,
    "his":73,
    "so":74,
    "me":77,
    "but":79,
    "this":80,
    "my":86,
    "what":92,
    "as":93,
    "with":95,
    "up":96,
    "she":98,
    "for":100,
    "not":102,
    "that":108,
    "at":112,
    "of":149,
    "in":155,
    "is":167,
    "on":169,
    "it":187,
    "her":189,
    "":213,
    "jack":223,
    "i":284,
    "you":297,
    "and":308,
    "nancy":341,
    "a":358,
    "to":362,
    "the":470
}