{
    "thankee":1,
    "lights":1,
    "lifebuoy":1,
    "hate":1,
    "intelligence":1,
    "reports":1,
    "leaving":1,
    "12th":1,
    "ahead":1,
    "wit":1,
    "breastbone":1,
    "remark":1,
    "surprised":1,
    "reminds":1,
    "bowsprit":1,
    "pounds":1,
    "sixteen":1,
    "ounces":1,
    "preparing":1,
    "paper":1,
    "society":1,
    "finished":1,
    "provisions":1,
    "care":1,
    "forests":1,
    "botanizing":1,
    "specimens":1,
    "anaconda":1,
    "cassowary":1,
    "thankyou":1,
    "coffee":1,
    "topcoat":1,
    "90":1,
    "shelly":1,
    "four":1,
    "oi":1,
    "liftin":1,
    "feels":1,
    "putting":1,
    "\u00e9ad":1,
    "native":1,
    "fisherman":1,
    "marker":1,
    "false":1,
    "alarm":1,
    "beat":1,
    "quarters":1,
    "distant":1,
    "saw":1,
    "either":1,
    "stand":1,
    "everybody":1,
    "tops":1,
    "ccast":1,
    "um":1,
    "note":1,
    "watt":1,
    "closer":1,
    "pistolshot":1,
    "bowchasers":1,
    "witchcraft":1,
    "blast":1,
    "high":1,
    "masts":1,
    "floor":1,
    "orlop":1,
    "holed":1,
    "bodies":1,
    "goat":1,
    "cartridge":1,
    "ye":1,
    "poxed":1,
    "whore":1,
    "rudder":1,
    "waterline":1,
    "firing":1,
    "steerage":1,
    "trimmers":1,
    "sternchasers":1,
    "sharp":1,
    "fancyline":1,
    "clew":1,
    "cully":1,
    "carronades":1,
    "quiet":1,
    "calls":1,
    "shouts":1,
    "boats":1,
    "east":1,
    "beating":1,
    "inshore":1,
    "rowing":1,
    "oars":1,
    "pumps":1,
    "keeping":1,
    "butchers":1,
    "bill":1,
    "thirteen":1,
    "severe":1,
    "depressed":1,
    "fracture":1,
    "skull":1,
    "broken":1,
    "possible":1,
    "brow":1,
    "yours":1,
    "sailing":1,
    "happened":1,
    "darkness":1,
    "exact":1,
    "position":1,
    "uncanny":1,
    "unless":1,
    "alerted":1,
    "presence":1,
    "spies":1,
    "elsewhere":1,
    "saying":1,
    "imagine":1,
    "lone":1,
    "access":1,
    "commands":1,
    "overtly":1,
    "covertly":1,
    "heavily":1,
    "painted":1,
    "dutchman":1,
    "twodecker":1,
    "moren":1,
    "wonder":1,
    "manner":1,
    "balls":1,
    "seemed":1,
    "bounce":1,
    "weathergauge":1,
    "beyond":1,
    "effective":1,
    "sum":1,
    "40":1,
    "28":1,
    "counted":1,
    "muzzle":1,
    "flashes":1,
    "unfair":1,
    "main":1,
    "foresail":1,
    "bend":1,
    "spare":1,
    "basic":1,
    "repairs":1,
    "allowing":1,
    "jamaica":1,
    "dock":1,
    "hopefully":1,
    "sent":1,
    "punish":1,
    "blackguard":1,
    "decimated":1,
    "atlantic":1,
    "threatens":1,
    "pacific":1,
    "mercy":1,
    "slink":1,
    "add":1,
    "list":1,
    "draw":1,
    "wages":1,
    "pursue":1,
    "interest":1,
    "repaired":1,
    "news":1,
    "mates":1,
    "different":1,
    "til":1,
    "sends":1,
    "bottom":1,
    "matey":1,
    "loaded":1,
    "gems":1,
    "araby":1,
    "gold":1,
    "prizemoney":1,
    "hoi":1,
    "jump":1,
    "gunwale":1,
    "moved":1,
    "clear":1,
    "fifty":1,
    "hugging":1,
    "coast":1,
    "stopping":1,
    "odd":1,
    "merchantman":1,
    "begins":1,
    "rasp":1,
    "smaller":1,
    "alright":1,
    "dreaming":1,
    "sew":1,
    "hammock":1,
    "sleeping":1,
    "telling":1,
    "stories":1,
    "stitching":1,
    "mine":1,
    "mending":1,
    "laudanum":1,
    "speaking":1,
    "regular":1,
    "braver":1,
    "patient":1,
    "dreamed":1,
    "sup":1,
    "marbles":1,
    "physician":1,
    "common":1,
    "surgeons":1,
    "cured":1,
    "prince":1,
    "billy":1,
    "marthambles":1,
    "fives":1,
    "wouldnt":1,
    "guineas":1,
    "beasts":1,
    "boyo":1,
    "105":1,
    "anchor":1,
    "bear":1,
    "fellows":1,
    "thick":1,
    "weighing":1,
    "trice":1,
    "sheet":1,
    "hoist":1,
    "cheerly":1,
    "foretop":1,
    "tgarnsl":1,
    "sheets":1,
    "braces":1,
    "tune":1,
    "dance":1,
    "drunk":1,
    "daveys":1,
    "sow":1,
    "breaking":1,
    "ground":1,
    "trying":1,
    "air":1,
    "governors":1,
    "house":1,
    "mahon":1,
    "met":1,
    "corelli":1,
    "mistaken":1,
    "locatelli":1,
    "unable":1,
    "seat":1,
    "performance":1,
    "practising":1,
    "apon":1,
    "bishop":1,
    "puddings":1,
    "athwart":1,
    "gumbrils":1,
    "arrant":1,
    "nonsense":1,
    "toulon":1,
    "blockade":1,
    "meeting":1,
    "entirely":1,
    "pompom":1,
    "pitch":1,
    "spars":1,
    "broadsides":1,
    "supervise":1,
    "spitfire":1,
    "hop":1,
    "tompions":1,
    "prime":1,
    "forward":1,
    "minute":1,
    "fortynine":1,
    "soused":1,
    "hoggsface":1,
    "aah":1,
    "favorite":1,
    "redfaced":1,
    "fart":1,
    "permission":1,
    "composed":1,
    "short":1,
    "mission":1,
    "brotherhood":1,
    "baptized":1,
    "renewed":1,
    "unified":1,
    "thoughts":1,
    "forsaken":1,
    "leads":1,
    "comfort":1,
    "until":1,
    "unrepentant":1,
    "foe":1,
    "bumpers":1,
    "meet":1,
    "serving":1,
    "nile":1,
    "stands":1,
    "dined":1,
    "occasions":1,
    "salt":1,
    "second":1,
    "offered":1,
    "boatcloak":1,
    "cold":1,
    "zeal":1,
    "country":1,
    "sounds":1,
    "absurd":1,
    "pitiful":1,
    "stuff":1,
    "dismiss":1,
    "enthusiasm":1,
    "glow":1,
    "scrap":1,
    "difference":1,
    "curculio":1,
    "righthand":1,
    "weevil":1,
    "perceptible":1,
    "advantage":1,
    "breadth":1,
    "dished":1,
    "navy":1,
    "lesser":1,
    "pun":1,
    "pick":1,
    "pocket":1,
    "d\u00fde":1,
    "smoke":1,
    "thin":1,
    "barren":1,
    "minds":1,
    "paltry":1,
    "clench":1,
    "righteous":1,
    "inherit":1,
    "earth":1,
    "handy":1,
    "gasket":1,
    "dipped":1,
    "prick":1,
    "phosphorus":1,
    "shed":1,
    "steered":1,
    "bosphorus":1,
    "spain":1,
    "received":1,
    "appreciated":1,
    "wonderfully":1,
    "voice":1,
    "possess":1,
    "thoughtless":1,
    "young":1,
    "warning":1,
    "happy":1,
    "raging":1,
    "colnett":1,
    "travelled":1,
    "cook":1,
    "carried":1,
    "arnotts":1,
    "chronometers":1,
    "door":1,
    "reveal":1,
    "warleys":1,
    "familiar":1,
    "remembered":1,
    "mister":1,
    "done":1,
    "third":1,
    "layer":1,
    "tween":1,
    "outer":1,
    "inner":1,
    "ribbing":1,
    "diagonal":1,
    "bracing":1,
    "constitution":1,
    "12":1,
    "pounders":1,
    "couldnt":1,
    "penetrate":1,
    "extra":1,
    "ration":1,
    "rum":1,
    "private":1,
    "store":1,
    "saving":1,
    "live":1,
    "whilst":1,
    "alive":1,
    "vulnerable":1,
    "cross":1,
    "rake":1,
    "chased":1,
    "finally":1,
    "ourran":1,
    "forty":1,
    "arrive":1,
    "generally":1,
    "manual":1,
    "physical":1,
    "powerful":1,
    "happen":1,
    "usage":1,
    "certain":1,
    "extent":1,
    "adapt":1,
    "situation":1,
    "fighting":1,
    "footsteps":1,
    "worry":1,
    "book":1,
    "use":1,
    "sextant":1,
    "knot":1,
    "climb":1,
    "dress":1,
    "praises":1,
    "courage":1,
    "fortitude":1,
    "skill":1,
    "logarithms":1,
    "elevations":1,
    "rated":1,
    "bootlaces":1,
    "jacket":1,
    "handkerchief":1,
    "summonsed":1,
    "dinner":1,
    "beam":1,
    "knowing":1,
    "studdingsails":1,
    "top":1,
    "gallants":1,
    "wet":1,
    "idlers":1,
    "rail":1,
    "touch":1,
    "plans":1,
    "outrun":1,
    "join":1,
    "loves":1,
    "lifelines":1,
    "fore":1,
    "topsails":1,
    "vouch":1,
    "rig":1,
    "preventer":1,
    "warps":1,
    "hawsers":1,
    "mastheads":1,
    "turns":1,
    "nasty":1,
    "flying":1,
    "hed":1,
    "gates":1,
    "wreckage":1,
    "reduce":1,
    "broaching":1,
    "seaanchor":1,
    "axes":1,
    "deaths":1,
    "actual":1,
    "easiest":1,
    "knife":1,
    "consequent":1,
    "infection":1,
    "casualty":1,
    "wear":1,
    "hats":1,
    "particular":1,
    "supporter":1,
    "capacity":1,
    "contrary":1,
    "insist":1,
    "talk":1,
    "decks":1,
    "turning":1,
    "rather":1,
    "turned":1,
    "lucky":1,
    "usually":1,
    "victory":1,
    "accustomed":1,
    "personally":1,
    "larger":1,
    "faster":1,
    "beginning":1,
    "smack":1,
    "goeth":1,
    "naval":1,
    "discussion":1,
    "satiric":1,
    "attacking":1,
    "whales":1,
    "polish":1,
    "soap":1,
    "sabres":1,
    "muskets":1,
    "destroying":1,
    "win":1,
    "calculate":1,
    "reference":1,
    "ward":1,
    "room":1,
    "cast":1,
    "161":1,
    "further":1,
    "necessary":1,
    "sixtieth":1,
    "parallel":1,
    "globes":1,
    "verge":1,
    "view":1,
    "leaning":1,
    "sky":1,
    "thence":1,
    "rolling":1,
    "neighbours":1,
    "hidden":1,
    "securely":1,
    "pry":1,
    "praise":1,
    "celebrate":1,
    "northward":1,
    "toward":1,
    "slightly":1,
    "ragged":1,
    "cheer":1,
    "anticipation":1,
    "asked":1,
    "prepare":1,
    "special":1,
    "narborough":1,
    "chatham":1,
    "hood":1,
    "permit":1,
    "slice":1,
    "albermale":1,
    "redondo":1,
    "fair":1,
    "behind":1,
    "167":1,
    "open":1,
    "best":1,
    "bowers":1,
    "chipped":1,
    "lot":1,
    "rust":1,
    "forechains":1,
    "black":1,
    "strake":1,
    "needs":1,
    "coat":1,
    "engagement":1,
    "soon":1,
    "went":1,
    "falls":1,
    "whose":1,
    "per":1,
    "thimbleful":1,
    "corporal":1,
    "scientific":1,
    "purposes":1,
    "veritable":1,
    "zoo":1,
    "sailor":1,
    "region":1,
    "tend":1,
    "between":1,
    "trades":1,
    "soueasterlies":1,
    "hope":1,
    "vastness":1,
    "paradise":1,
    "truth":1,
    "merest":1,
    "guano":1,
    "stained":1,
    "sway":1,
    "beneath":1,
    "compensation":1,
    "ashore":1,
    "pledge":1,
    "several":1,
    "wander":1,
    "catching":1,
    "bugs":1,
    "hearts":1,
    "delight":1,
    "foot":1,
    "accept":1,
    "mutinied":1,
    "thrown":1,
    "mutiny":1,
    "counting":1,
    "share":1,
    "prize":1,
    "money":1,
    "gladly":1,
    "clean":1,
    "ach":1,
    "bellyacheing":1,
    "rain":1,
    "ourselves":1,
    "mad":1,
    "petrel":1,
    "eating":1,
    "sporting":1,
    "waters":1,
    "loading":1,
    "rye":1,
    "swift":1,
    "addison":1,
    "heads":1,
    "tails":1,
    "attack":1,
    "arms":1,
    "irons":1,
    "defaulters":1,
    "pushed":1,
    "obedience":1,
    "intended":1,
    "deliberate":1,
    "insubordination":1,
    "friendly":1,
    "theyve":1,
    "against":1,
    "whispering":1,
    "giving":1,
    "looks":1,
    "tougher":1,
    "foremast":1,
    "jacks":1,
    "despise":1,
    "leadership":1,
    "twentythree":1,
    "twentyfour":1,
    "twentyfive":1,
    "next":1,
    "friday":1,
    "spend":1,
    "midshipman":1,
    "article":1,
    "thirtysix":1,
    "crimes":1,
    "committed":1,
    "person":1,
    "persons":1,
    "punished":1,
    "according":1,
    "laws":1,
    "customs":1,
    "manofwars":1,
    "officer":1,
    "knew":1,
    "defence":1,
    "seize":1,
    "seized":1,
    "dozen":1,
    "bosuns":1,
    "mate":1,
    "red":1,
    "merely":1,
    "remarking":1,
    "prided":1,
    "rigged":1,
    "grating":1,
    "besides":1,
    "wager":1,
    "brutality":1,
    "governed":1,
    "wisely":1,
    "grant":1,
    "excuse":1,
    "history":1,
    "nero":1,
    "opposed":1,
    "authority":1,
    "egg":1,
    "misery":1,
    "oppression":1,
    "current":1,
    "circumstances":1,
    "hardwork":1,
    "firm":1,
    "discipline":1,
    "keeps":1,
    "little":1,
    "together":1,
    "immemorial":1,
    "shameful":1,
    "pressed":1,
    "permanent":1,
    "state":1,
    "dull":1,
    "inebriation":1,
    "confined":1,
    "prison":1,
    "hours":1,
    "flogged":1,
    "drunken":1,
    "idleness":1,
    "drives":1,
    "stating":1,
    "plain":1,
    "facts":1,
    "whether":1,
    "place":1,
    "papist":1,
    "shop":1,
    "anarchy":1,
    "sick":1,
    "dodging":1,
    "pardon":1,
    "seamonster":1,
    "wished":1,
    "human":1,
    "bigger":1,
    "missed":1,
    "eat":1,
    "dissect":1,
    "accursed":1,
    "abominable":1,
    "manatee":1,
    "possibly":1,
    "known":1,
    "flares":1,
    "sergeant":1,
    "shipwreck":1,
    "offduty":1,
    "duppies":1,
    "swallow":1,
    "spirit":1,
    "neither":1,
    "experience":1,
    "matters":1,
    "causing":1,
    "howling":1,
    "phantomship":1,
    "calling":1,
    "ghostship":1,
    "appear":1,
    "straight":1,
    "hotplace":1,
    "contain":1,
    "201":1,
    "stephens":1,
    "cabin":1,
    "physically":1,
    "thinks":1,
    "cursed":1,
    "0men":1,
    "probably":1,
    "sailors":1,
    "abide":1,
    "crow":1,
    "others":1,
    "peck":1,
    "desired":1,
    "save":1,
    "cure":1,
    "sorted":1,
    "morning":1,
    "goodbye":1,
    "become":1,
    "hoped":1,
    "creatures":1,
    "fellowship":1,
    "forgiveness":1,
    "eight":1,
    "landho":1,
    "joy":1,
    "wot":1,
    "wimmun":1,
    "taint":1,
    "extraordinary":1,
    "apparently":1,
    "unknown":1,
    "science":1,
    "dragons":1,
    "seem":1,
    "bother":1,
    "type":1,
    "iguana":1,
    "therefore":1,
    "vegetarian":1,
    "telescope":1,
    "remains":1,
    "focussed":1,
    "cormorants":1,
    "wholly":1,
    "absorbed":1,
    "eggs":1,
    "lizards":1,
    "present":1,
    "offspring":1,
    "jove":1,
    "confounded":1,
    "bellowing":1,
    "bless":1,
    "shipmates":1,
    "lines":1,
    "hid":1,
    "inlet":1,
    "yonder":1,
    "blackthree":1,
    "beamy":1,
    "pound":1,
    "whale":1,
    "stole":1,
    "bastards":1,
    "swearing":1,
    "burnt":1,
    "bunch":1,
    "fugging":1,
    "pirates":1,
    "supplies":1,
    "subject":1,
    "requirements":1,
    "conscience":1,
    "delay":1,
    "iguano":1,
    "peccary":1,
    "interesting":1,
    "immediate":1,
    "application":1,
    "opportunity":1,
    "serve":1,
    "objectives":1,
    "briskly":1,
    "pausing":1,
    "important":1,
    "measurements":1,
    "almost":1,
    "valuable":1,
    "discoveries":1,
    "simply":1,
    "content":1,
    "form":1,
    "belligerent":1,
    "expedition":1,
    "inestimable":1,
    "wonders":1,
    "bent":1,
    "solely":1,
    "forget":1,
    "self":1,
    "believed":1,
    "individual":1,
    "matter":1,
    "lowly":1,
    "seems":1,
    "exercise":1,
    "power":1,
    "brought":1,
    "conditional":1,
    "standing":1,
    "stood":1,
    "supported":1,
    "worlds":1,
    "oceans":1,
    "risk":1,
    "hobbies":1,
    "curious":1,
    "deck":1,
    "walked":1,
    "likely":1,
    "shame":1,
    "plate":1,
    "wont":1,
    "joining":1,
    "marthas":1,
    "vineyard":1,
    "married":1,
    "road":1,
    "yankee":1,
    "bedford":1,
    "hog":1,
    "accuracy":1,
    "chummer":1,
    "dowels":1,
    "continue":1,
    "sort":1,
    "albatross":1,
    "mew":1,
    "since":1,
    "crossing":1,
    "dropped":1,
    "low":1,
    "capable":1,
    "prodding":1,
    "opening":1,
    "equal":1,
    "task":1,
    "read":1,
    "doctors":1,
    "books":1,
    "study":1,
    "pictures":1,
    "bearings":1,
    "manage":1,
    "somehow":1,
    "wed":1,
    "nightfall":1,
    "wish":1,
    "rope":1,
    "jollyboat":1,
    "slowly":1,
    "jenks":1,
    "grasscombing":1,
    "lubber":1,
    "slade":1,
    "onto":1,
    "stretcher":1,
    "account":1,
    "because":1,
    "poking":1,
    "solid":1,
    "platform":1,
    "stomach":1,
    "pressing":1,
    "firmly":1,
    "raise":1,
    "rib":1,
    "grip":1,
    "square":1,
    "snip":1,
    "cartilage":1,
    "steady":1,
    "downward":1,
    "pressure":1,
    "davier":1,
    "nicely":1,
    "goodness":1,
    "specimen":1,
    "plant":1,
    "ooops":1,
    "goes":1,
    "snared":1,
    "ducks":1,
    "chicken":1,
    "coop":1,
    "notes":1,
    "makings":1,
    "combine":1,
    "fightingnaturalist":1,
    "aviary":1,
    "intend":1,
    "stay":1,
    "haste":1,
    "marquesas":1,
    "sighted":1,
    "breaks":1,
    "france":1,
    "forbid":1,
    "admiralty":1,
    "spent":1,
    "fruitless":1,
    "pursuit":1,
    "plants":1,
    "british":1,
    "museum":1,
    "wing":1,
    "fear":1,
    "burdened":1,
    "debt":1,
    "repay":1,
    "prickly":1,
    "eradicate":1,
    "tortoise":1,
    "testudo":1,
    "aubreii":1,
    "unscientific":1,
    "ride":1,
    "experiment":1,
    "absolutely":1,
    "vital":1,
    "importance":1,
    "afterwards":1,
    "desire":1,
    "forgot":1,
    "greatest":1,
    "indeed":1,
    "unique":1,
    "insect":1,
    "disguised":1,
    "stick":1,
    "confuse":1,
    "yellow":1,
    "paint":1,
    "brushes":1,
    "slung":1,
    "doudle":1,
    "yessir":1,
    "makers":1,
    "eyelet":1,
    "replace":1,
    "oldest":1,
    "patched":1,
    "afterhold":1,
    "clutter":1,
    "spread":1,
    "foredeck":1,
    "mess":1,
    "toplight":1,
    "westsouthwest":1,
    "drop":1,
    "wolf":1,
    "sheep":1,
    "sheeps":1,
    "clothing":1,
    "blue":1,
    "skirt":1,
    "comes":1,
    "3rd":1,
    "station":1,
    "naturally":1,
    "asking":1,
    "fleeing":1,
    "upwind":1,
    "panicky":1,
    "disorganized":1,
    "whaler":1,
    "offence":1,
    "load":1,
    "triple":1,
    "boarding":1,
    "wanted":1,
    "answer":1,
    "promised":1,
    "return":1,
    "piece":1,
    "score":1,
    "retire":1,
    "defend":1,
    "shooting":1,
    "gunner":1,
    "throw":1,
    "barrels":1,
    "blow":1,
    "majesty":1,
    "keenly":1,
    "cheered":1,
    "loudly":1,
    "dealt":1,
    "trafalgar":1,
    "st":1,
    "sell":1,
    "dearly":1,
    "worth":1,
    "boneys":1,
    "privateers":1,
    "faint":1,
    "among":1,
    "pipes":1,
    "cheers":1,
    "took":1,
    "liberty":1,
    "unrivalled":1,
    "strains":1,
    "deplore":1,
    "thimpervious":1,
    "horrors":1,
    "leeward":1,
    "transfixed":1,
    "terror":1,
    "thapproaching":1,
    "doom":1,
    "people":1,
    "merchant":1,
    "ofcourse":1,
    "gunports":1,
    "aloft":1,
    "helms":1,
    "concentrate":1,
    "sight":1,
    "astarboard":1,
    "boarders":1,
    "ou":1,
    "est":1,
    "votre":1,
    "le":1,
    "il":1,
    "m\u00e1vait":1,
    "prie":1,
    "de":1,
    "vous":1,
    "donner":1,
    "ceci":1,
    "passes":1,
    "needle":1,
    "twine":1,
    "alone":1,
    "john":1,
    "henry":1,
    "joseph":1,
    "horner":1,
    "winston":1,
    "parole":1,
    "valparaiso":1,
    "rendezvous":1,
    "begin":1,
    "brother":1,
    "gathering":1,
    "wool":1,
    "tending":1,
    "fever":1,
    "starts":1,
    "deep":1,
    "booming":1,
    "cello":1,
    "cheese":1,
    "seizing":1,
    "plates":1,
    "gangway":2,
    "lee":2,
    "shore":2,
    "backstays":2,
    "running":2,
    "royal":2,
    "recife":2,
    "tour":2,
    "brazil":2,
    "strong":2,
    "fathoms":2,
    "ahoy":2,
    "vincent":2,
    "bell":2,
    "lead":2,
    "please":2,
    "sixty":2,
    "marines":2,
    "wounded":2,
    "loose":2,
    "alongside":2,
    "uproll":2,
    "damn":2,
    "wood":2,
    "lamb":2,
    "jemmy":2,
    "holy":2,
    "son":2,
    "help":2,
    "fish":2,
    "barrel":2,
    "afraid":2,
    "aint":2,
    "tow":2,
    "points":2,
    "double":2,
    "gaining":2,
    "over":2,
    "lives":2,
    "weve":2,
    "lost":2,
    "pass":2,
    "later":2,
    "whos":2,
    "everything":2,
    "father":2,
    "scratch":2,
    "seven":2,
    "really":2,
    "looking":2,
    "tosh":2,
    "britain":2,
    "working":2,
    "napoleon":2,
    "himself":2,
    "weigh":2,
    "upon":2,
    "call":2,
    "ha":2,
    "hit":2,
    "match":2,
    "dishonor":2,
    "gone":2,
    "confident":2,
    "port":2,
    "into":2,
    "dry":2,
    "purpose":2,
    "gentlemen":2,
    "whaling":2,
    "portsmouth":2,
    "pay":2,
    "underway":2,
    "lose":2,
    "condition":2,
    "eh":2,
    "heading":2,
    "question":2,
    "handsomely":2,
    "placed":2,
    "also":2,
    "hundred":2,
    "board":2,
    "nose":2,
    "told":2,
    "mamma":2,
    "peter":2,
    "died":2,
    "left":2,
    "blood":2,
    "brains":2,
    "hand":2,
    "scrape":2,
    "screech":2,
    "played":2,
    "years":2,
    "entire":2,
    "five":2,
    "appears":2,
    "tonight":2,
    "hey":2,
    "ho":2,
    "lets":2,
    "boarded":2,
    "sunk":2,
    "command":2,
    "wives":2,
    "sweethearts":2,
    "bottle":2,
    "fact":2,
    "trouble":2,
    "tried":2,
    "someone":2,
    "quite":2,
    "warm":2,
    "king":2,
    "kept":2,
    "cry":2,
    "mere":2,
    "felt":2,
    "heart":2,
    "weevils":2,
    "suppose":2,
    "length":2,
    "adieu":2,
    "spanish":2,
    "ladies":2,
    "england":2,
    "singing":2,
    "homes":2,
    "ones":2,
    "pair":2,
    "couple":2,
    "opens":2,
    "carrying":2,
    "peace":2,
    "except":2,
    "saluting":2,
    "rouse":2,
    "stern":2,
    "broadside":2,
    "devil":2,
    "till":2,
    "nature":2,
    "whole":2,
    "expectation":2,
    "follow":2,
    "learning":2,
    "philosophy":2,
    "ah":2,
    "tie":2,
    "battle":2,
    "sails":2,
    "fancy":2,
    "dr":2,
    "maturin":2,
    "chase":2,
    "twelve":2,
    "cracking":2,
    "presently":2,
    "doesnt":2,
    "westwards":2,
    "food":2,
    "chasing":2,
    "canvas":2,
    "topgallants":2,
    "swim":2,
    "acting":2,
    "remind":2,
    "killed":2,
    "war":2,
    "ball":2,
    "friend":2,
    "anywhere":2,
    "problem":2,
    "pride":2,
    "destruction":2,
    "boot":2,
    "lamps":2,
    "cost":2,
    "friends":2,
    "ocean":2,
    "world":2,
    "rise":2,
    "shine":2,
    "leg":2,
    "sleepers":2,
    "awake":2,
    "pray":2,
    "officers":2,
    "destination":2,
    "islands":2,
    "rock":2,
    "crew":2,
    "having":2,
    "assuming":2,
    "youd":2,
    "delighted":2,
    "natural":2,
    "provided":2,
    "beetles":2,
    "naturalist":2,
    "solemn":2,
    "shoot":2,
    "yield":2,
    "powder":2,
    "wasnt":2,
    "saved":2,
    "master":2,
    "clap":2,
    "yet":2,
    "salute":2,
    "speak":2,
    "ive":2,
    "rights":2,
    "unfortunate":2,
    "death":2,
    "flogging":2,
    "thousand":2,
    "hierarchies":2,
    "wooden":2,
    "tradition":2,
    "months":2,
    "few":2,
    "sleep":2,
    "anyone":2,
    "understand":2,
    "music":2,
    "play":2,
    "useless":2,
    "beg":2,
    "seaelephant":2,
    "calf":2,
    "gods":2,
    "sake":2,
    "mother":2,
    "bosun":2,
    "duppie":2,
    "gave":2,
    "amen":2,
    "raised":2,
    "cormorant":2,
    "flightless":2,
    "iguanas":2,
    "certainly":2,
    "many":2,
    "fresh":2,
    "maybe":2,
    "following":2,
    "tortoises":2,
    "forgotten":2,
    "island":2,
    "walk":2,
    "after":2,
    "each":2,
    "found":2,
    "walking":2,
    "sound":2,
    "wake":2,
    "carry":2,
    "worse":2,
    "horizon":2,
    "move":2,
    "belly":2,
    "retractor":2,
    "easy":2,
    "while":2,
    "emptyhanded":2,
    "name":2,
    "shrub":2,
    "hard":2,
    "discovery":2,
    "predator":2,
    "yards":2,
    "eyes":2,
    "hogg":2,
    "portuguese":2,
    "rules":2,
    "waves":2,
    "capitaine":2,
    "prisoners":2,
    "line":3,
    "shell":3,
    "reef":3,
    "tom":3,
    "try":3,
    "prodigious":3,
    "much":3,
    "aft":3,
    "thinking":3,
    "business":3,
    "collecting":3,
    "giant":3,
    "things":3,
    "along":3,
    "bells":3,
    "white":3,
    "sand":3,
    "knots":3,
    "reckon":3,
    "enemy":3,
    "miles":3,
    "lie":3,
    "swab":3,
    "lay":3,
    "bears":3,
    "rigging":3,
    "davies":3,
    "belay":3,
    "coming":3,
    "colours":3,
    "else":3,
    "pull":3,
    "head":3,
    "due":3,
    "haul":3,
    "feet":3,
    "dead":3,
    "plaice":3,
    "moment":3,
    "weeks":3,
    "phantom":3,
    "does":3,
    "hull":3,
    "eighteens":3,
    "patch":3,
    "mizzen":3,
    "far":3,
    "stop":3,
    "fleet":3,
    "same":3,
    "respect":3,
    "half":3,
    "hollar":3,
    "work":3,
    "die":3,
    "stitch":3,
    "though":3,
    "youll":3,
    "cut":3,
    "still":3,
    "birds":3,
    "beetle":3,
    "hell":3,
    "hands":3,
    "speed":3,
    "remember":3,
    "ago":3,
    "being":3,
    "poor":3,
    "such":3,
    "during":3,
    "mark":3,
    "enough":3,
    "boneparte":3,
    "poem":3,
    "honour":3,
    "rest":3,
    "capital":3,
    "twice":3,
    "both":3,
    "oh":3,
    "species":3,
    "completely":3,
    "life":3,
    "farewell":3,
    "fine":3,
    "sea":3,
    "idea":3,
    "thought":3,
    "id":3,
    "says":3,
    "thing":3,
    "bad":3,
    "exercises":3,
    "myself":3,
    "chance":3,
    "whatever":3,
    "own":3,
    "surely":3,
    "voyage":3,
    "captains":3,
    "oil":3,
    "around":3,
    "bloody":3,
    "sun":3,
    "heres":3,
    "doldrums":3,
    "glass":3,
    "already":3,
    "ow":3,
    "wrong":3,
    "harder":3,
    "doing":3,
    "deal":3,
    "often":3,
    "animals":3,
    "noise":3,
    "got":3,
    "most":3,
    "doubt":3,
    "hurry":3,
    "press":3,
    "phasmid":3,
    "order":3,
    "mainmast":3,
    "tweedly":3,
    "boyle":4,
    "alls":4,
    "bow":4,
    "wait":4,
    "boston":4,
    "least":4,
    "week":4,
    "surprise":4,
    "pon":4,
    "strength":4,
    "under":4,
    "mast":4,
    "round":4,
    "light":4,
    "heard":4,
    "larboard":4,
    "range":4,
    "start":4,
    "signal":4,
    "stroke":4,
    "keep":4,
    "night":4,
    "arm":4,
    "close":4,
    "sit":4,
    "find":4,
    "french":4,
    "privateer":4,
    "tyrant":4,
    "defeat":4,
    "going":4,
    "ships":4,
    "another":4,
    "way":4,
    "cape":4,
    "making":4,
    "true":4,
    "part":4,
    "nelson":4,
    "grog":4,
    "turn":4,
    "knows":4,
    "minutes":4,
    "point":4,
    "stamp":4,
    "duty":4,
    "lord":4,
    "orders":4,
    "past":4,
    "days":4,
    "headed":4,
    "south":4,
    "only":4,
    "party":4,
    "end":4,
    "whalers":4,
    "west":4,
    "tumble":4,
    "galapagos":4,
    "words":4,
    "theyll":4,
    "youve":4,
    "service":4,
    "creature":4,
    "kind":4,
    "bonden":4,
    "across":4,
    "watch":5,
    "starboard":5,
    "put":5,
    "word":5,
    "frigate":5,
    "ten":5,
    "anything":5,
    "overboard":5,
    "made":5,
    "why":5,
    "about":5,
    "warley":5,
    "believe":5,
    "whats":5,
    "than":5,
    "horn":5,
    "heave":5,
    "wind":5,
    "william":5,
    "last":5,
    "old":5,
    "land":5,
    "pom":5,
    "want":5,
    "gun":5,
    "taken":5,
    "spoke":5,
    "choose":5,
    "great":5,
    "mean":5,
    "cannot":5,
    "even":5,
    "jonah":5,
    "didnt":5,
    "promise":5,
    "howard":5,
    "failed":5,
    "bird":6,
    "nothing":6,
    "ask":6,
    "nagel":6,
    "damned":6,
    "strike":6,
    "water":6,
    "three":6,
    "hold":6,
    "look":6,
    "who":6,
    "without":6,
    "bit":6,
    "through":6,
    "youre":6,
    "other":6,
    "show":6,
    "em":6,
    "mowett":6,
    "quarterdeck":6,
    "thank":6,
    "better":6,
    "sorry":6,
    "need":6,
    "god":6,
    "yourself":6,
    "had":7,
    "six":7,
    "something":7,
    "shot":7,
    "allen":7,
    "side":7,
    "did":7,
    "too":7,
    "catch":7,
    "day":7,
    "always":7,
    "hear":7,
    "said":7,
    "yes":7,
    "lieutenant":7,
    "course":7,
    "might":7,
    "should":8,
    "perhaps":8,
    "calamy":8,
    "run":8,
    "guns":8,
    "theres":8,
    "again":8,
    "home":8,
    "acheron":8,
    "first":8,
    "give":8,
    "before":8,
    "once":8,
    "padeen":8,
    "tell":9,
    "how":9,
    "so":9,
    "may":9,
    "cant":9,
    "nor":9,
    "seen":9,
    "higgins":9,
    "leave":9,
    "let":9,
    "back":9,
    "very":9,
    "joe":9,
    "any":9,
    "new":9,
    "dont":10,
    "time":10,
    "those":10,
    "aye":10,
    "could":10,
    "which":10,
    "when":11,
    "jack":11,
    "been":11,
    "away":11,
    "hollom":11,
    "right":11,
    "sure":11,
    "these":11,
    "every":11,
    "set":11,
    "say":12,
    "long":12,
    "thats":12,
    "sail":12,
    "shes":12,
    "down":12,
    "where":12,
    "more":12,
    "hes":12,
    "im":12,
    "blakeney":12,
    "their":12,
    "has":12,
    "come":12,
    "ill":13,
    "stephen":13,
    "ship":13,
    "them":13,
    "below":13,
    "make":13,
    "from":13,
    "good":13,
    "am":14,
    "take":14,
    "an":14,
    "two":14,
    "must":14,
    "pullings":14,
    "know":14,
    "off":14,
    "would":14,
    "think":15,
    "she":15,
    "go":15,
    "killick":16,
    "get":16,
    "fire":16,
    "out":17,
    "see":17,
    "man":17,
    "never":17,
    "captain":17,
    "some":17,
    "here":18,
    "just":18,
    "men":19,
    "now":20,
    "by":20,
    "his":20,
    "shall":21,
    "doctor":21,
    "one":21,
    "or":22,
    "like":22,
    "can":22,
    "do":24,
    "then":24,
    "well":25,
    "they":25,
    "were":26,
    "at":27,
    "my":27,
    "if":27,
    "its":28,
    "us":29,
    "was":30,
    "our":31,
    "him":32,
    "up":32,
    "this":32,
    "are":34,
    "but":34,
    "me":35,
    "will":36,
    "her":37,
    "as":38,
    "he":38,
    "all":39,
    "there":41,
    "what":43,
    "be":48,
    "no":50,
    "with":50,
    "your":52,
    "":57,
    "on":61,
    "that":61,
    "not":62,
    "mr":63,
    "have":64,
    "for":67,
    "is":69,
    "we":69,
    "sir":71,
    "in":84,
    "it":104,
    "of":123,
    "i":140,
    "and":150,
    "to":152,
    "you":176,
    "a":177,
    "the":281
}