{
    "t":1,
    "sequence":1,
    "liftoff":1,
    "risky":1,
    "stuff":1,
    "professional":1,
    "booster":1,
    "completes":1,
    "intake":1,
    "precious":1,
    "rendezvous":1,
    "suggesting":1,
    "bat":1,
    "american":1,
    "series":1,
    "foreigners":1,
    "wed":1,
    "crush":1,
    "equal":1,
    "handicap":1,
    "easy":1,
    "shortstop":1,
    "pitch":1,
    "steals":1,
    "batter":1,
    "calls":1,
    "strikes":1,
    "thousand":1,
    "bucks":1,
    "eh":1,
    "bien":1,
    "winner":1,
    "balls":1,
    "part":1,
    "technically":1,
    "outrank":1,
    "peace":1,
    "dears":1,
    "allowing":1,
    "type":1,
    "staying":1,
    "behind":1,
    "research":1,
    "shows":1,
    "marriage":1,
    "provide":1,
    "stability":1,
    "duration":1,
    "trips":1,
    "studied":1,
    "poor":1,
    "totally":1,
    "eat":1,
    "visits":1,
    "tragic":1,
    "routine":1,
    "physical":1,
    "wham":1,
    "dream":1,
    "graham":1,
    "deserves":1,
    "friends":1,
    "fort":1,
    "deep":1,
    "lonesome":1,
    "cold":1,
    "memories":1,
    "warm":1,
    "bedtime":1,
    "finish":1,
    "bout":1,
    "along":1,
    "bit":1,
    "anxious":1,
    "ol":1,
    "ben":1,
    "gunn":1,
    "dyou":1,
    "hug":1,
    "caught":1,
    "whiff":1,
    "barbecue":1,
    "helpless":1,
    "galveston":1,
    "mighty":1,
    "glad":1,
    "remember":1,
    "lowest":1,
    "ranking":1,
    "commanders":1,
    "sent":1,
    "lift":1,
    "egos":1,
    "bullshit":1,
    "teamed":1,
    "mostly":1,
    "chalkboard":1,
    "jockies":1,
    "payloads":1,
    "mr":1,
    "coveroftime":1,
    "magazine":1,
    "landed":1,
    "crippled":1,
    "highest":1,
    "rankings":1,
    "footprints":1,
    "phd":1,
    "thesis":1,
    "colonize":1,
    "kid":1,
    "gordon":1,
    "rocketships":1,
    "necks":1,
    "jewelry":1,
    "loved":1,
    "clowns":1,
    "woodrow":1,
    "donated":1,
    "museum":1,
    "internal":1,
    "combustion":1,
    "boys":1,
    "substitutes":1,
    "solve":1,
    "mysteries":1,
    "fresh":1,
    "beer":1,
    "shouldve":1,
    "maggies":1,
    "hoping":1,
    "assignment":1,
    "gotten":1,
    "sick":1,
    "battled":1,
    "step":1,
    "41":1,
    "north":1,
    "longitude":1,
    "9":1,
    "west":1,
    "plains":1,
    "cydonia":1,
    "telling":1,
    "oui":1,
    "exactement":1,
    "kirovs":1,
    "fault":1,
    "todays":1,
    "scientific":1,
    "duty":1,
    "anomaly":1,
    "guaranteed":1,
    "ridiculous":1,
    "many":1,
    "written":1,
    "damned":1,
    "egyptians":1,
    "amazons":1,
    "green":1,
    "lousy":1,
    "craters":1,
    "eye":1,
    "sockets":1,
    "ufo":1,
    "kook":1,
    "spouting":1,
    "oclock":1,
    "news":1,
    "cinder":1,
    "cone":1,
    "angular":1,
    "fissures":1,
    "caldera":1,
    "color":1,
    "shiny":1,
    "swear":1,
    "unless":1,
    "sixteen":1,
    "kilometers":1,
    "northeast":1,
    "truly":1,
    "anomalous":1,
    "structure":1,
    "crystalline":1,
    "displayed":1,
    "nuts":1,
    "extrusion":1,
    "subsurface":1,
    "geothermal":1,
    "column":1,
    "permanent":1,
    "colonization":1,
    "scramble":1,
    "fullcourt":1,
    "press":1,
    "weare":1,
    "receive":1,
    "onsite":1,
    "antennas":1,
    "phase":1,
    "talker":1,
    "break":1,
    "nicknamed":1,
    "comm":1,
    "actually":1,
    "capcom":1,
    "link":1,
    "astronauts":1,
    "manned":1,
    "inception":1,
    "pioneers":1,
    "friend":1,
    "ours":1,
    "hates":1,
    "fuss":1,
    "mention":1,
    "name":1,
    "embarrass":1,
    "weasels":1,
    "fake":1,
    "agoodsport":1,
    "grins":1,
    "wasntinmymissionplan":1,
    "faces":1,
    "happy":1,
    "birthday":1,
    "jimbo":1,
    "je":1,
    "ne":1,
    "sais":1,
    "pas":1,
    "equipment":1,
    "meters":1,
    "rubble":1,
    "vein":1,
    "ore":1,
    "interfering":1,
    "screen":1,
    "stoked":1,
    "rooms":1,
    "comparing":1,
    "photomap":1,
    "theyve":1,
    "goin":1,
    "stupid":1,
    "remind":1,
    "late":1,
    "bore":1,
    "done":1,
    "crank":1,
    "sucker":1,
    "business":1,
    "note":1,
    "advised":1,
    "worth":1,
    "honestly":1,
    "suggestions":1,
    "worse":1,
    "talked":1,
    "third":1,
    "125":1,
    "hatch":1,
    "malfunction":1,
    "override":1,
    "solution":1,
    "replace":1,
    "circuit":1,
    "breaker":1,
    "907b":1,
    "dreams":1,
    "nightmares":1,
    "subject":1,
    "married":1,
    "invite":1,
    "floor":1,
    "danced":1,
    "grab":1,
    "rhumba":1,
    "jitterbug":1,
    "serious":1,
    "lug":1,
    "live":1,
    "head":1,
    "drill":1,
    "beck":1,
    "told":1,
    "round":1,
    "team":1,
    "1417":1,
    "xband":1,
    "continuous":1,
    "silent":1,
    "med":1,
    "environmental":1,
    "suddenly":1,
    "stopped":1,
    "large":1,
    "array":1,
    "soccoro":1,
    "moment":1,
    "burst":1,
    "survivable":1,
    "clue":1,
    "checked":1,
    "instrument":1,
    "failures":1,
    "remos":1,
    "contained":1,
    "uplink":1,
    "faint":1,
    "distorted":1,
    "someones":1,
    "indecipherable":1,
    "teams":1,
    "concentrating":1,
    "audio":1,
    "managed":1,
    "words":1,
    "quick":1,
    "ch":1,
    "thers":1,
    "terrib":1,
    "stems":1,
    "assuming":1,
    "usually":1,
    "auditory":1,
    "component":1,
    "mexico":1,
    "electromagnetic":1,
    "emission":1,
    "uncommon":1,
    "largescale":1,
    "geophysical":1,
    "phenomena":1,
    "causing":1,
    "buy":1,
    "blasted":1,
    "vehicle":1,
    "member":1,
    "ervs":1,
    "fared":1,
    "modelling":1,
    "drives":1,
    "meanwhile":1,
    "needs":1,
    "doubtful":1,
    "saturn":1,
    "imaging":1,
    "probe":1,
    "slingshot":1,
    "retasked":1,
    "pictures":1,
    "tells":1,
    "swing":1,
    "free":1,
    "capability":1,
    "trip":1,
    "option":1,
    "ahead":1,
    "forgetting":1,
    "orbits":1,
    "decent":1,
    "window":1,
    "earlier":1,
    "reconfigure":1,
    "payload":1,
    "extra":1,
    "paper":1,
    "stresses":1,
    "protocols":1,
    "helped":1,
    "updated":1,
    "0800":1,
    "works":1,
    "word":1,
    "geologist":1,
    "objective":1,
    "authorization":1,
    "ought":1,
    "success":1,
    "seat":1,
    "himself":1,
    "evaluations":1,
    "refused":1,
    "pilot":1,
    "benched":1,
    "desk":1,
    "prelims":1,
    "exceptions":1,
    "lie":1,
    "couch":1,
    "share":1,
    "strangers":1,
    "call":1,
    "wasted":1,
    "front":1,
    "suck":1,
    "crime":1,
    "upset":1,
    "cried":1,
    "trust":1,
    "crisis":1,
    "bet":1,
    "lives":1,
    "sims":1,
    "copilot":1,
    "promise":1,
    "exact":1,
    "chemical":1,
    "ideal":1,
    "frog":1,
    "effects":1,
    "longterm":1,
    "interplanetary":1,
    "update":1,
    "capturing":1,
    "dust":1,
    "southern":1,
    "hemisphere":1,
    "east":1,
    "fella":1,
    "headed":1,
    "chryse":1,
    "planitia":1,
    "yup":1,
    "hairy":1,
    "advance":1,
    "eta":1,
    "cover":1,
    "flyby":1,
    "moneys":1,
    "brought":1,
    "zerog":1,
    "graceful":1,
    "grabbing":1,
    "attention":1,
    "deserted":1,
    "though":1,
    "question":1,
    "signs":1,
    "recent":1,
    "activity":1,
    "bury":1,
    "disaster":1,
    "magnetic":1,
    "interference":1,
    "infrared":1,
    "distortion":1,
    "analyzing":1,
    "determine":1,
    "frankly":1,
    "stumped":1,
    "agree":1,
    "evidence":1,
    "inconclusive":1,
    "ground":1,
    "search":1,
    "advisable":1,
    "aware":1,
    "kicking":1,
    "shouldnt":1,
    "factor":1,
    "excited":1,
    "enjoy":1,
    "nights":1,
    "anticipate":1,
    "bless":1,
    "goodnight":1,
    "opened":1,
    "theyd":1,
    "notion":1,
    "brown":1,
    "rice":1,
    "springloaded":1,
    "spikes":1,
    "evaluation":1,
    "schizophrenic":1,
    "higher":1,
    "score":1,
    "seriously":1,
    "underpowered":1,
    "starstruck":1,
    "met":1,
    "academy":1,
    "flight":1,
    "exploring":1,
    "heavenly":1,
    "body":1,
    "ribald":1,
    "laughter":1,
    "kept":1,
    "leash":1,
    "accomplished":1,
    "celebrate":1,
    "chapter":1,
    "story":1,
    "historic":1,
    "newlyannounced":1,
    "captain":1,
    "cocaptain":1,
    "intelligent":1,
    "music":1,
    "sister":1,
    "brother":1,
    "opportunity":1,
    "pure":1,
    "myths":1,
    "culture":1,
    "held":1,
    "attraction":1,
    "chaos":1,
    "connection":1,
    "reaches":1,
    "born":1,
    "caused":1,
    "might":1,
    "leaving":1,
    "range":1,
    "6783":1,
    "closing":1,
    "35":1,
    "sharp":1,
    "drifting":1,
    "eternity":1,
    "ruin":1,
    "delta":1,
    "v":1,
    "initialized":1,
    "apu":1,
    "tie":1,
    "valves":1,
    "flow":1,
    "reset":1,
    "pw":1,
    "protocol":1,
    "transferred":1,
    "awaiting":1,
    "track":1,
    "confirmation":1,
    "uhhh":1,
    "gods":1,
    "micrometeoroids":1,
    "breach":1,
    "alarms":1,
    "decompress":1,
    "zero":1,
    "seconds":1,
    "20":1,
    "positive":1,
    "vacuum":1,
    "total":1,
    "electrical":1,
    "fry":1,
    "l":1,
    "1":1,
    "hub":1,
    "smashed":1,
    "crashing":1,
    "switch":1,
    "bleeding":1,
    "eighty":1,
    "helmet":1,
    "storage":1,
    "machine":1,
    "re":1,
    "initialize":1,
    "automated":1,
    "embolize":1,
    "seventy":1,
    "disconnect":1,
    "bay":1,
    "jump":1,
    "hard":1,
    "boot":1,
    "kidding":1,
    "machines":1,
    "valuable":1,
    "ag":1,
    "goddamn":1,
    "print":1,
    "identification":1,
    "accepted":1,
    "shutting":1,
    "artificial":1,
    "gravitational":1,
    "sixty":1,
    "locate":1,
    "topside":1,
    "workin":1,
    "searching":1,
    "needle":1,
    "haystack":1,
    "liquid":1,
    "sonofabitch":1,
    "bastard":1,
    "forty":1,
    "gotcha":1,
    "thirty":1,
    "stabilizing":1,
    "increasing":1,
    "awriiiight":1,
    "scarring":1,
    "punctures":1,
    "checklist":1,
    "easier":1,
    "cocky":1,
    "times":1,
    "twice":1,
    "hand":1,
    "tendons":1,
    "fingers":1,
    "slowly":1,
    "drive":1,
    "candle":1,
    "gono":1,
    "braking":1,
    "fueling":1,
    "optimum":1,
    "entry":1,
    "separation":1,
    "blow":1,
    "bolts":1,
    "cm":1,
    "thrust":1,
    "correct":1,
    "steep":1,
    "falling":1,
    "timeve":1,
    "stick":1,
    "linkup":1,
    "kilometer":1,
    "prepare":1,
    "abandon":1,
    "mark":1,
    "thruster":1,
    "shed":1,
    "tether":1,
    "shots":1,
    "reach":1,
    "aim":1,
    "arc":1,
    "seeya":1,
    "path":1,
    "hot":1,
    "abandoning":1,
    "unit":1,
    "contact":1,
    "rough":1,
    "thirtytwo":1,
    "fall":1,
    "carrying":1,
    "hooked":1,
    "retrievable":1,
    "comes":1,
    "amount":1,
    "retrieval":1,
    "numbers":1,
    "drop":1,
    "scoop":1,
    "reoriented":1,
    "woodyll":1,
    "moving":1,
    "brakes":1,
    "dumping":1,
    "youd":1,
    "both":1,
    "farther":1,
    "jet":1,
    "tries":1,
    "everyone":1,
    "nooooooo":1,
    "initiating":1,
    "deploy":1,
    "chutes":1,
    "laptop":1,
    "soften":1,
    "tin":1,
    "cans":1,
    "wondering":1,
    "rig":1,
    "seatbelts":1,
    "straps":1,
    "telemetry":1,
    "reports":1,
    "reached":1,
    "martian":1,
    "crashed":1,
    "sixtythree":1,
    "offline":1,
    "graph":1,
    "reads":1,
    "controlled":1,
    "descent":1,
    "lander":1,
    "bitch":1,
    "operational":1,
    "touch":1,
    "airlock":1,
    "entering":1,
    "access":1,
    "100":1,
    "capacity":1,
    "structurally":1,
    "intact":1,
    "busted":1,
    "filters":1,
    "clogged":1,
    "intakes":1,
    "cleanup":1,
    "major":1,
    "treasure":1,
    "hurt":1,
    "reason":1,
    "comecomecome":1,
    "mealpacks":1,
    "picnic":1,
    "term":1,
    "exposure":1,
    "adverse":1,
    "brain":1,
    "adjust":1,
    "greatgreatgreat":1,
    "blew":1,
    "emptied":1,
    "totalled":1,
    "food":1,
    "kinda":1,
    "rescue":1,
    "boards":1,
    "roundtrip":1,
    "tickets":1,
    "talk":1,
    "dug":1,
    "myself":1,
    "faceplate":1,
    "cracked":1,
    "leaking":1,
    "badly":1,
    "nerve":1,
    "somehow":1,
    "dig":1,
    "blowing":1,
    "holds":1,
    "course":1,
    "directly":1,
    "top":1,
    "mustve":1,
    "visible":1,
    "hundreds":1,
    "erosion":1,
    "lava":1,
    "flows":1,
    "meteor":1,
    "changed":1,
    "wonder":1,
    "meant":1,
    "dirt":1,
    "built":1,
    "pauses":1,
    "repeating":1,
    "mathematical":1,
    "distinct":1,
    "blocks":1,
    "within":1,
    "threethreethree":1,
    "struggled":1,
    "constructs":1,
    "xyz":1,
    "equals":1,
    "assigning":1,
    "graphic":1,
    "values":1,
    "group":1,
    "tone":1,
    "finally":1,
    "model":1,
    "selfportrait":1,
    "species":1,
    "created":1,
    "difference":1,
    "between":1,
    "ape":1,
    "genetic":1,
    "material":1,
    "gives":1,
    "mozart":1,
    "einstein":1,
    "jack":1,
    "ripper":1,
    "tackle":1,
    "fresher":1,
    "priority":1,
    "concentrate":1,
    "communications":1,
    "inventory":1,
    "scissors":1,
    "medkit":1,
    "generator":1,
    "salvageable":1,
    "panels":1,
    "production":1,
    "considering":1,
    "absolute":1,
    "essentials":1,
    "asking":1,
    "concentrated":1,
    "waves":1,
    "interpreted":1,
    "security":1,
    "alarm":1,
    "incorrect":1,
    "defends":1,
    "itself":1,
    "equivalent":1,
    "dub":1,
    "recording":1,
    "input":1,
    "completed":1,
    "whoever":1,
    "answers":1,
    "vain":1,
    "brink":1,
    "greatest":1,
    "discovery":1,
    "mankinds":1,
    "knows":1,
    "congress":1,
    "dangerous":1,
    "loss":1,
    "unmanned":1,
    "flights":1,
    "explorers":1,
    "decades":1,
    "checking":1,
    "video":1,
    "feed":1,
    "boulder":1,
    "seismic":1,
    "anemometer":1,
    "sign":1,
    "vortex":1,
    "hostile":1,
    "gesture":1,
    "fourman":1,
    "planetary":1,
    "sock":1,
    "starve":1,
    "death":1,
    "repair":1,
    "suggestion":1,
    "signals":1,
    "breaking":1,
    "deadline":1,
    "firm":1,
    "roger":1,
    "texture":1,
    "footing":1,
    "obstructions":1,
    "trapped":1,
    "orientation":1,
    "load":1,
    "visibility":1,
    "depressurize":1,
    "rigid":1,
    "above":1,
    "atmospheric":1,
    "gigantic":1,
    "white":1,
    "psi":1,
    "nitrogen":1,
    "otherwise":1,
    "lethal":1,
    "trace":1,
    "gasses":1,
    "pangaea":1,
    "continents":1,
    "separated":1,
    "martians":1,
    "cambrian":1,
    "expansion":1,
    "multicelled":1,
    "plants":1,
    "animals":1,
    "appeared":1,
    "understood":1,
    "seeded":1,
    "countdown":1,
    "accidents":1,
    "point":1,
    "running":1,
    "felt":1,
    "mine":1,
    "jealous":1,
    "saving":1,
    "pleasure":1,
    "beacon":1,
    "driving":1,
    "straight":1,
    "worry":1,
    "gave":1,
    "direct":1,
    "beep":1,
    "dear":1,
    "godspeed":1,
    "minus":2,
    "nine":2,
    "ignition":2,
    "highly":2,
    "trained":2,
    "since":2,
    "memory":2,
    "yknow":2,
    "nice":2,
    "days":2,
    "sergei":2,
    "baseball":2,
    "crews":2,
    "ourselves":2,
    "system":2,
    "half":2,
    "woman":2,
    "helluva":2,
    "interesting":2,
    "sad":2,
    "saying":2,
    "personal":2,
    "known":2,
    "seen":2,
    "hows":2,
    "grave":2,
    "lose":2,
    "history":2,
    "deb":2,
    "baby":2,
    "spend":2,
    "whos":2,
    "mommy":2,
    "wherever":2,
    "cause":2,
    "marooned":2,
    "island":2,
    "afraid":2,
    "spoil":2,
    "crazy":2,
    "looking":2,
    "week":2,
    "lunar":2,
    "happen":2,
    "ii":2,
    "shuttle":2,
    "noise":2,
    "putting":2,
    "nah":2,
    "wrote":2,
    "place":2,
    "fiction":2,
    "wear":2,
    "flash":2,
    "accept":2,
    "universe":2,
    "yours":2,
    "none":2,
    "twelve":2,
    "hadnt":2,
    "pulled":2,
    "beat":2,
    "ares8":2,
    "line":2,
    "boss":2,
    "gimme":2,
    "coordinates":2,
    "latitude":2,
    "hit":2,
    "impact":2,
    "smooth":2,
    "volcanic":2,
    "upwelling":2,
    "ice":2,
    "formation":2,
    "appears":2,
    "water":2,
    "found":2,
    "key":2,
    "geology":2,
    "hydrology":2,
    "anyway":2,
    "composition":2,
    "christ":2,
    "sounds":2,
    "fix":2,
    "skip":2,
    "room":2,
    "incoming":2,
    "voice":2,
    "jims":2,
    "program":2,
    "today":2,
    "special":2,
    "someone":2,
    "sing":2,
    "catch":2,
    "buddy":2,
    "metal":2,
    "solid":2,
    "sense":2,
    "antenna":2,
    "watch":2,
    "spotted":2,
    "show":2,
    "medical":2,
    "wants":2,
    "blood":2,
    "tests":2,
    "set":2,
    "chief":2,
    "juice":2,
    "debra":2,
    "fine":2,
    "page":2,
    "door":2,
    "backup":2,
    "fail":2,
    "manual":2,
    "piece":2,
    "cake":2,
    "change":2,
    "sisters":2,
    "dancing":2,
    "lessons":2,
    "catastrophic":2,
    "failure":2,
    "kill":2,
    "shuffling":2,
    "butt":2,
    "chacha":2,
    "starting":2,
    "such":2,
    "cockpit":2,
    "station":2,
    "report":2,
    "stream":2,
    "intense":2,
    "seem":2,
    "tried":2,
    "resupply":2,
    "module":2,
    "holding":2,
    "steady":2,
    "alive":2,
    "working":2,
    "site":2,
    "earthquake":2,
    "damage":2,
    "hasnt":2,
    "return":2,
    "designed":2,
    "fly":2,
    "fried":2,
    "motherboards":2,
    "weeks":2,
    "analyze":2,
    "transmit":2,
    "whether":2,
    "safe":2,
    "levels":2,
    "survived":2,
    "design":2,
    "bigger":2,
    "faster":2,
    "modelled":2,
    "tested":2,
    "recovery":2,
    "shot":2,
    "0600":2,
    "bjornstrom":2,
    "given":2,
    "washed":2,
    "everybody":2,
    "tough":2,
    "eyes":2,
    "edge":2,
    "knocked":2,
    "shit":2,
    "rest":2,
    "used":2,
    "travel":2,
    "move":2,
    "morning":2,
    "gravity":2,
    "standing":2,
    "greenhouse":2,
    "graves":2,
    "hold":2,
    "nobody":2,
    "quake":2,
    "continue":2,
    "storms":2,
    "near":2,
    "turning":2,
    "insertion":2,
    "packs":2,
    "instead":2,
    "ones":2,
    "mistake":2,
    "force":2,
    "beyond":2,
    "planned":2,
    "realize":2,
    "capture":2,
    "primary":2,
    "engaged":2,
    "charged":2,
    "select":2,
    "hpu":2,
    "cells":2,
    "bus":2,
    "h2o2":2,
    "open":2,
    "transfer":2,
    "hull":2,
    "outgassing":2,
    "seal":2,
    "breech":2,
    "lower":2,
    "hole":2,
    "below":2,
    "simulator":2,
    "spare":2,
    "save":2,
    "doin":2,
    "per":2,
    "cent":2,
    "light":2,
    "stay":2,
    "shake":2,
    "fifty":2,
    "beautiful":2,
    "sim":2,
    "seems":2,
    "moi":2,
    "seven":2,
    "response":2,
    "attitude":2,
    "maneuver":2,
    "suits":2,
    "miss":2,
    "choice":2,
    "whatre":2,
    "shes":2,
    "brake":2,
    "impacts":2,
    "heard":2,
    "possible":2,
    "hour":2,
    "dump":2,
    "goddammit":2,
    "die":2,
    "help":2,
    "blind":2,
    "patch":2,
    "job":2,
    "son":2,
    "lukes":2,
    "happened":2,
    "fired":2,
    "spared":2,
    "suffering":2,
    "form":2,
    "asphyxia":2,
    "barely":2,
    "millions":2,
    "explosion":2,
    "each":2,
    "tones":2,
    "groups":2,
    "dimensions":2,
    "thank":2,
    "less":2,
    "phils":2,
    "test":2,
    "goes":2,
    "chances":2,
    "invitation":2,
    "rover":2,
    "fortyfive":2,
    "order":2,
    "anymore":2,
    "follow":2,
    "taking":2,
    "ride":2,
    "eight":3,
    "five":3,
    "uncle":3,
    "year":3,
    "heading":3,
    "till":3,
    "solar":3,
    "men":3,
    "happens":3,
    "own":3,
    "wanna":3,
    "lot":3,
    "feel":3,
    "nasa":3,
    "couples":3,
    "feeling":3,
    "havent":3,
    "anybody":3,
    "sleep":3,
    "books":3,
    "bobby":3,
    "space":3,
    "book":3,
    "deal":3,
    "folks":3,
    "wish":3,
    "second":3,
    "scored":3,
    "block":3,
    "isnt":3,
    "really":3,
    "thanks":3,
    "renee":3,
    "degrees":3,
    "mountain":3,
    "south":3,
    "impossible":3,
    "away":3,
    "twenty":3,
    "looks":3,
    "angle":3,
    "charge":3,
    "real":3,
    "world":3,
    "red":3,
    "hundred":3,
    "million":3,
    "miles":3,
    "end":3,
    "images":3,
    "said":3,
    "wedding":3,
    "mind":3,
    "awhile":3,
    "feet":3,
    "dance":3,
    "theyll":3,
    "started":3,
    "level":3,
    "pulse":3,
    "computer":3,
    "message":3,
    "yourselves":3,
    "dead":3,
    "low":3,
    "couldnt":3,
    "sudden":3,
    "software":3,
    "slow":3,
    "plan":3,
    "radiation":3,
    "longer":3,
    "yet":3,
    "pass":3,
    "psych":3,
    "knew":3,
    "supposed":3,
    "sorry":3,
    "landing":3,
    "planet":3,
    "normal":3,
    "meal":3,
    "orbital":3,
    "air":3,
    "prove":3,
    "believe":3,
    "overshoot":3,
    "run":3,
    "main":3,
    "online":3,
    "eva":3,
    "hits":3,
    "shut":3,
    "fire":3,
    "hang":3,
    "tight":3,
    "wheres":3,
    "gun":3,
    "gone":3,
    "velocity":3,
    "sir":3,
    "secret":3,
    "alone":3,
    "pattern":3,
    "dna":3,
    "signature":3,
    "pair":3,
    "chromosomes":3,
    "worked":3,
    "prep":3,
    "1950":3,
    "ten":4,
    "turn":4,
    "nick":4,
    "wife":4,
    "status":4,
    "thinking":4,
    "short":4,
    "let":4,
    "always":4,
    "listen":4,
    "science":4,
    "around":4,
    "youll":4,
    "through":4,
    "anything":4,
    "wanted":4,
    "bad":4,
    "picked":4,
    "sector":4,
    "because":4,
    "gets":4,
    "send":4,
    "least":4,
    "chance":4,
    "closer":4,
    "big":4,
    "radar":4,
    "things":4,
    "ah":4,
    "under":4,
    "says":4,
    "sand":4,
    "doesnt":4,
    "once":4,
    "everything":4,
    "figure":4,
    "signal":4,
    "lost":4,
    "energy":4,
    "whatever":4,
    "sound":4,
    "missing":4,
    "shape":4,
    "whoa":4,
    "already":4,
    "able":4,
    "until":4,
    "wasnt":4,
    "tomorrow":4,
    "different":4,
    "had":4,
    "stand":4,
    "ago":4,
    "hours":4,
    "ready":4,
    "hab":4,
    "nav":4,
    "use":4,
    "jets":4,
    "supplies":4,
    "without":4,
    "launch":5,
    "soon":5,
    "guess":5,
    "trying":5,
    "night":5,
    "very":5,
    "land":5,
    "camp":5,
    "talking":5,
    "together":5,
    "nothing":5,
    "kind":5,
    "funny":5,
    "these":5,
    "hear":5,
    "almost":5,
    "day":5,
    "am":5,
    "reading":5,
    "wouldnt":5,
    "which":5,
    "wouldve":5,
    "over":5,
    "yourself":5,
    "rotation":5,
    "care":5,
    "id":5,
    "would":5,
    "couple":5,
    "far":5,
    "packet":5,
    "anyone":5,
    "may":5,
    "does":5,
    "transmission":5,
    "stop":5,
    "while":5,
    "went":5,
    "orbit":5,
    "getting":5,
    "saw":5,
    "answer":5,
    "somebody":5,
    "inside":5,
    "engines":5,
    "oxygen":5,
    "burn":5,
    "cargo":5,
    "start":6,
    "another":6,
    "surface":6,
    "crew":6,
    "after":6,
    "should":6,
    "losing":6,
    "every":6,
    "training":6,
    "must":6,
    "love":6,
    "thought":6,
    "didnt":6,
    "again":6,
    "off":6,
    "damn":6,
    "leave":6,
    "give":6,
    "idea":6,
    "people":6,
    "human":6,
    "need":6,
    "problem":6,
    "honey":6,
    "face":6,
    "home":6,
    "uh":6,
    "computers":6,
    "other":6,
    "sima":6,
    "best":6,
    "few":6,
    "died":6,
    "storm":6,
    "came":6,
    "pressure":6,
    "suit":6,
    "ok":6,
    "next":7,
    "itll":7,
    "six":7,
    "months":7,
    "base":7,
    "doing":7,
    "whole":7,
    "keep":7,
    "tell":7,
    "great":7,
    "much":7,
    "she":7,
    "even":7,
    "whats":7,
    "put":7,
    "micker":7,
    "control":7,
    "power":7,
    "theyre":7,
    "new":7,
    "negative":7,
    "please":8,
    "years":8,
    "bring":8,
    "fast":8,
    "man":8,
    "their":8,
    "never":8,
    "copy":8,
    "find":8,
    "systems":8,
    "did":8,
    "life":8,
    "gotta":8,
    "else":8,
    "mean":8,
    "than":8,
    "before":8,
    "pretty":9,
    "yes":9,
    "coming":9,
    "first":9,
    "made":9,
    "ever":9,
    "check":9,
    "close":9,
    "ray":9,
    "why":9,
    "data":9,
    "only":9,
    "means":9,
    "has":9,
    "left":9,
    "four":10,
    "say":10,
    "try":10,
    "wont":10,
    "long":10,
    "same":10,
    "any":10,
    "mcconnell":10,
    "where":10,
    "enough":10,
    "who":10,
    "thing":10,
    "minutes":10,
    "jesus":10,
    "understand":10,
    "wrong":10,
    "them":10,
    "work":10,
    "remo":10,
    "into":10,
    "fuel":11,
    "last":11,
    "her":11,
    "those":11,
    "something":11,
    "youve":11,
    "down":11,
    "percent":11,
    "earth":12,
    "maybe":12,
    "sure":12,
    "cmon":12,
    "by":12,
    "maggie":12,
    "or":12,
    "erv":12,
    "want":13,
    "two":14,
    "ive":14,
    "god":14,
    "cant":14,
    "been":14,
    "more":14,
    "way":14,
    "ship":14,
    "better":14,
    "atmosphere":14,
    "three":15,
    "his":15,
    "little":15,
    "make":15,
    "mission":15,
    "him":15,
    "our":16,
    "some":16,
    "hell":16,
    "think":17,
    "oh":17,
    "time":17,
    "yeah":17,
    "read":17,
    "come":17,
    "look":17,
    "will":18,
    "weve":18,
    "hey":19,
    "going":19,
    "an":19,
    "guys":20,
    "okay":20,
    "they":20,
    "hes":20,
    "still":20,
    "good":21,
    "youre":21,
    "from":21,
    "ill":21,
    "lets":21,
    "could":22,
    "when":22,
    "theres":22,
    "like":23,
    "right":23,
    "gonna":24,
    "terri":24,
    "see":24,
    "then":25,
    "woody":25,
    "with":25,
    "too":25,
    "as":26,
    "take":26,
    "luke":26,
    "your":26,
    "phil":27,
    "now":27,
    "how":28,
    "well":28,
    "so":28,
    "up":28,
    "my":30,
    "he":30,
    "me":31,
    "at":31,
    "about":31,
    "thats":32,
    "one":35,
    "know":35,
    "back":36,
    "can":37,
    "all":37,
    "us":39,
    "are":40,
    "have":40,
    "go":40,
    "dont":41,
    "there":41,
    "mars":42,
    "got":42,
    "just":43,
    "do":44,
    "here":44,
    "was":46,
    "im":46,
    "if":46,
    "jim":49,
    "":50,
    "out":51,
    "not":53,
    "get":55,
    "no":57,
    "were":58,
    "but":59,
    "its":61,
    "for":63,
    "on":68,
    "be":69,
    "in":73,
    "is":74,
    "what":78,
    "this":82,
    "that":92,
    "we":97,
    "and":103,
    "of":103,
    "it":140,
    "i":141,
    "a":143,
    "you":169,
    "to":195,
    "the":268
}