{
    "bar":1,
    "drinking":1,
    "laughing":1,
    "fun":1,
    "swear":1,
    "touched":1,
    "lay":1,
    "finger":1,
    "flounder":1,
    "shes":1,
    "truthcmon":1,
    "helpcome":1,
    "palgive":1,
    "minskthe":1,
    "minskworks":1,
    "travel":1,
    "isdimitri":1,
    "dimitri":1,
    "miedievdimitri":1,
    "scum":1,
    "feet":1,
    "start":1,
    "talkings":1,
    "walkings":1,
    "sleepings":1,
    "reason":1,
    "tubs":1,
    "ladies":1,
    "gentlemen":1,
    "leveled":1,
    "cruising":1,
    "altitude":1,
    "thirtyeight":1,
    "feetand":1,
    "arriving":1,
    "schedule":1,
    "rosen":1,
    "prefer":1,
    "theatre":1,
    "ukraine":1,
    "choose":1,
    "aleksander":1,
    "former":1,
    "kgb":1,
    "x":1,
    "officer":1,
    "market":1,
    "selling":1,
    "learned":1,
    "non":1,
    "reasons":1,
    "divided":1,
    "encoded":1,
    "halves":1,
    "cryptonym":1,
    "contains":1,
    "targeting":1,
    "areas":1,
    "useless":1,
    "combined":1,
    "kept":1,
    "plans":1,
    "function":1,
    "mission":1,
    "obtain":1,
    "photographic":1,
    "proof":1,
    "theft":1,
    "apprehend":1,
    "stress":1,
    "importance":1,
    "keeping":1,
    "internally":1,
    "urgency":1,
    "selected":1,
    "group":1,
    "word":1,
    "member":1,
    "force":1,
    "caught":1,
    "secretary":1,
    "disavow":1,
    "knowledge":1,
    "actions":1,
    "tape":1,
    "self":1,
    "destruct":1,
    "camera":1,
    "whatever":1,
    "transmits":1,
    "yourear":1,
    "lovely":1,
    "smile":1,
    "loud":1,
    "clear":1,
    "jackthats":1,
    "spying":1,
    "fact":1,
    "ninety":1,
    "sixtyseven":1,
    "hells":1,
    "possible":1,
    "claires":1,
    "weird":1,
    "mood":1,
    "started":1,
    "noticing":1,
    "memory":1,
    "loss":1,
    "burnout":1,
    "afford":1,
    "wonderful":1,
    "convention":1,
    "auto":1,
    "astronaut":1,
    "comes":1,
    "manned":1,
    "mars":1,
    "wifes":1,
    "old":1,
    "kid":1,
    "harry":1,
    "lou":1,
    "grim":1,
    "beyond":1,
    "charles":1,
    "grabs":1,
    "highest":1,
    "bidders":1,
    "terrorists":1,
    "lords":1,
    "everybody":1,
    "whod":1,
    "coverts":1,
    "among":1,
    "exposed":1,
    "executed":1,
    "further":1,
    "organizations":1,
    "become":1,
    "irrelevant":1,
    "unconstitutional":1,
    "concept":1,
    "pentagons":1,
    "budget":1,
    "covert":1,
    "subgroups":1,
    "confidential":1,
    "funding":1,
    "people":1,
    "living":1,
    "democracy":1,
    "walter":1,
    "chairing":1,
    "armed":1,
    "services":1,
    "hearing":1,
    "flyfishing":1,
    "oughterard":1,
    "slough":1,
    "kildare":1,
    "irish":1,
    "guides":1,
    "plotll":1,
    "main":1,
    "character":1,
    "believable":1,
    "interrupting":1,
    "stick":1,
    "pick":1,
    "mash":1,
    "together":1,
    "chew":1,
    "windows":1,
    "twentythree":1,
    "rand":1,
    "housman":1,
    "ambassadors":1,
    "aide":1,
    "steer":1,
    "reception":1,
    "allow":1,
    "introduce":1,
    "jaroslav":1,
    "reid":1,
    "director":1,
    "national":1,
    "gallery":1,
    "petr":1,
    "brandl":1,
    "mayor":1,
    "bet":1,
    "norman":1,
    "archway":1,
    "mark":1,
    "advance":1,
    "mentioned":1,
    "tour":1,
    "terrific":1,
    "great":1,
    "marked":1,
    "pull":1,
    "shade":1,
    "governors":1,
    "leads":1,
    "directly":1,
    "limited":1,
    "both":1,
    "marine":1,
    "guard":1,
    "video":1,
    "surveillance":1,
    "strictly":1,
    "monitored":1,
    "staff":1,
    "reliable":1,
    "recall":1,
    "constantly":1,
    "late":1,
    "pinned":1,
    "dancing":1,
    "forced":1,
    "tie":1,
    "stallion":1,
    "barn":1,
    "crack":1,
    "foghorn":1,
    "workin":1,
    "definitely":1,
    "blind":1,
    "heading":1,
    "taking":1,
    "golitsyns":1,
    "exit":1,
    "freeze":1,
    "saved":1,
    "pops":1,
    "sarahs":1,
    "reconsidering":1,
    "roll":1,
    "stairway":1,
    "wrapped":1,
    "control":1,
    "that\ufffds":1,
    "negative":1,
    "eye":1,
    "recover":1,
    "covering":1,
    "frequency":1,
    "repeat":1,
    "satcom":1,
    "central":1,
    "unsecured":1,
    "designator":1,
    "bravo":1,
    "echo":1,
    "switching":1,
    "secure":1,
    "damaged":1,
    "intact":1,
    "read":1,
    "safely":1,
    "followed":1,
    "clean":1,
    "meant":1,
    "professionally":1,
    "visas":1,
    "drill":1,
    "exfiltration":1,
    "thru":1,
    "canada":1,
    "debrief":1,
    "police":1,
    "bone":1,
    "toss":1,
    "suspects":1,
    "seem":1,
    "bent":1,
    "blaming":1,
    "drunk":1,
    "russians":1,
    "embankment":1,
    "7":1,
    "8":1,
    "oclockthe":1,
    "waltzing":1,
    "11":1,
    "waiter":1,
    "staircase":1,
    "bowtie":1,
    "12":1,
    "worried":1,
    "thisll":1,
    "save":1,
    "spotting":1,
    "blowback":1,
    "penetration":1,
    "decoded":1,
    "internet":1,
    "czech":1,
    "seems":1,
    "unique":1,
    "gifts":1,
    "capacity":1,
    "corrupting":1,
    "susceptible":1,
    "gotten":1,
    "buy":1,
    "referred":1,
    "stole":1,
    "decoy":1,
    "correct":1,
    "lightning":1,
    "rod":1,
    "ours":1,
    "moles":1,
    "deep":1,
    "survived":1,
    "since":1,
    "fathers":1,
    "death":1,
    "familys":1,
    "subchapter":1,
    "s":1,
    "flush":1,
    "dads":1,
    "illness":1,
    "wiped":1,
    "dying":1,
    "slowly":1,
    "america":1,
    "expensive":1,
    "proposition":1,
    "plane":1,
    "bathroom":1,
    "wash":1,
    "mouth":1,
    "soap":1,
    "button":1,
    "bureaucratic":1,
    "asshole":1,
    "bribed":1,
    "cajoled":1,
    "relied":1,
    "intimate":1,
    "loyalties":1,
    "determined":1,
    "shake":1,
    "hands":1,
    "devil":1,
    "31":1,
    "tainted":1,
    "hazardous":1,
    "fate":1,
    "kings":1,
    "counsellors":1,
    "themselves":1,
    "palaces":1,
    "lying":1,
    "ruins":1,
    "discuss":1,
    "asap":1,
    "werent":1,
    "ago":1,
    "youdid":1,
    "0four":1,
    "havent":1,
    "brought":1,
    "somehow":1,
    "found":1,
    "parents":1,
    "assumes":1,
    "theyve":1,
    "tracing":1,
    "employ":1,
    "whoever":1,
    "least":1,
    "making":1,
    "assume":1,
    "match":1,
    "remove":1,
    "hat":1,
    "price":1,
    "admission":1,
    "misunderstood":1,
    "allowing":1,
    "communicate":1,
    "youll":1,
    "wearing":1,
    "indefinitely":1,
    "willing":1,
    "chance":1,
    "simply":1,
    "penny":1,
    "drops":1,
    "given":1,
    "quoting":1,
    "scripture":1,
    "tone":1,
    "aggressive":1,
    "depends":1,
    "whether":1,
    "fifty":1,
    "sold":1,
    "bait":1,
    "internal":1,
    "company":1,
    "asking":1,
    "arrange":1,
    "introduction":1,
    "certain":1,
    "equipped":1,
    "homing":1,
    "device":1,
    "exact":1,
    "tenable":1,
    "thirty":1,
    "boys":1,
    "hopping":1,
    "jackrabbits":1,
    "mm":1,
    "hmmm":1,
    "rf":1,
    "scanner":1,
    "pack":1,
    "twentysix":1,
    "twentyseven":1,
    "thirtytwo":1,
    "signal":1,
    "drive":1,
    "heating":1,
    "fortyfour":1,
    "fortyfive":1,
    "fiftyseven":1,
    "fiftynine":1,
    "switch":1,
    "cleaning":1,
    "d":1,
    "gunther":1,
    "apartments":1,
    "doubted":1,
    "sport":1,
    "compliment":1,
    "thanks":1,
    "maxine":1,
    "comfort":1,
    "profession":1,
    "warm":1,
    "blanket":1,
    "subject":1,
    "successful":1,
    "scan":1,
    "obviously":1,
    "muster":1,
    "deals":1,
    "complete":1,
    "piecemeal":1,
    "entire":1,
    "nonofficial":1,
    "throughout":1,
    "negotiable":1,
    "treasury":1,
    "certificates":1,
    "bearer":1,
    "form":1,
    "coupons":1,
    "attached":1,
    "personal":1,
    "assurance":1,
    "exchange":1,
    "delight":1,
    "front":1,
    "losing":1,
    "life":1,
    "wouldnt":1,
    "dream":1,
    "mans":1,
    "decides":1,
    "surface":1,
    "transportation":1,
    "airport":1,
    "identities":1,
    "slipped":1,
    "past":1,
    "custom":1,
    "trained":1,
    "ghosts":1,
    "waste":1,
    "chasing":1,
    "everybody\ufffds":1,
    "pressure":1,
    "points":1,
    "squeeze":1,
    "delivers":1,
    "seventyfive":1,
    "rounds":1,
    "glock":1,
    "sig":1,
    "sauer":1,
    "pair":1,
    "visco":1,
    "glasses":1,
    "monitor":1,
    "plenty":1,
    "passports":1,
    "husband":1,
    "enter":1,
    "simple":1,
    "game":1,
    "players":1,
    "exfil":1,
    "opens":1,
    "cyber":1,
    "ops":1,
    "lifts":1,
    "wallet":1,
    "headquarters":1,
    "fort":1,
    "knox":1,
    "fly":1,
    "lobby":1,
    "easier":1,
    "breaking":1,
    "profitable":1,
    "payment":1,
    "delivery":1,
    "sound":1,
    "whatd":1,
    "net":1,
    "ranger":1,
    "phineas":1,
    "phreak":1,
    "hacked":1,
    "nato":1,
    "ghostcom":1,
    "physical":1,
    "evidence":1,
    "exceptional":1,
    "missing":1,
    "mt":1,
    "everest":1,
    "hacks":1,
    "yourselves":1,
    "crypto":1,
    "cray":1,
    "stu":1,
    "3s":1,
    "tells":1,
    "machine":1,
    "686":1,
    "prototypes":1,
    "artificial":1,
    "chip":1,
    "equipment":1,
    "excuses":1,
    "hack":1,
    "modem":1,
    "standalone":1,
    "physically":1,
    "terminal":1,
    "worse":1,
    "terminals":1,
    "lockdown":1,
    "vents":1,
    "laser":1,
    "nets":1,
    "countermeasure":1,
    "deactivated":1,
    "authorized":1,
    "entry":1,
    "soundsensitive":1,
    "above":1,
    "whisper":1,
    "sets":1,
    "floor":1,
    "pressuresensitive":1,
    "detects":1,
    "increase":1,
    "temperature":1,
    "heat":1,
    "unauthorized":1,
    "person":1,
    "trigger":1,
    "art":1,
    "cash":1,
    "slightest":1,
    "deviation":1,
    "shoulder":1,
    "comply":1,
    "laid":1,
    "accessed":1,
    "authorization":1,
    "valid":1,
    "implement":1,
    "deactivate":1,
    "listening":1,
    "kicked":1,
    "shoes":1,
    "recruiting":1,
    "purpose":1,
    "survival":1,
    "sighted":1,
    "proactive":1,
    "initiates":1,
    "noise":1,
    "evacuate":1,
    "alarms":1,
    "twelve":1,
    "conditioning":1,
    "blow":1,
    "building":1,
    "wait":1,
    "hi":1,
    "conditionings":1,
    "william":1,
    "donloe":1,
    "wheres":1,
    "zero":1,
    "mekrieger":1,
    "absolute":1,
    "silence":1,
    "type":1,
    "aw96b6":1,
    "diskette":1,
    "double":1,
    "click":1,
    "scrolling":1,
    "0k":1,
    "download":1,
    "edit":1,
    "select":1,
    "copy":1,
    "disc":1,
    "holy":1,
    "eject":1,
    "yellow":1,
    "yellowstoast":1,
    "merci":1,
    "outta":1,
    "mired":1,
    "detail":1,
    "minds":1,
    "staring":1,
    "face":1,
    "vulnerable":1,
    "yup":1,
    "stops":1,
    "manning":1,
    "radar":1,
    "tower":1,
    "alaska":1,
    "mail":1,
    "clothes":1,
    "contacting":1,
    "buyer":1,
    "scuse":1,
    "shy":1,
    "orders":1,
    "while":1,
    "holding":1,
    "lachez":1,
    "tagueue":1,
    "trick":1,
    "computer":1,
    "carrying":1,
    "discs":1,
    "track":1,
    "things":1,
    "sleightofhand":1,
    "throat":1,
    "worked":1,
    "letting":1,
    "range":1,
    "unlikely":1,
    "settinga":1,
    "heartland":1,
    "americathe":1,
    "federal":1,
    "claim":1,
    "broken":1,
    "brain":1,
    "ring":1,
    "live":1,
    "correspondent":1,
    "capitol":1,
    "identified":1,
    "margaret":1,
    "apprehended":1,
    "major":1,
    "sting":1,
    "manufacture":1,
    "methcathinone":1,
    "known":1,
    "similar":1,
    "methamphetamines":1,
    "most":1,
    "powerful":1,
    "drugs":1,
    "thirtyfour":1,
    "labs":1,
    "seized":1,
    "recently":1,
    "widowed":1,
    "mrs":1,
    "brotherinlaw":1,
    "believed":1,
    "global":1,
    "distribution":1,
    "network":1,
    "comment":1,
    "sad":1,
    "farmers":1,
    "conglomerate":1,
    "operating":1,
    "paperthin":1,
    "margin":1,
    "afraid":1,
    "naive":1,
    "widow":1,
    "financial":1,
    "problems":1,
    "chose":1,
    "means":1,
    "john":1,
    "charge":1,
    "investigation":1,
    "law":1,
    "enforcement":1,
    "expected":1,
    "arrive":1,
    "today":1,
    "hunts":1,
    "joe":1,
    "jones":1,
    "bastard":1,
    "dontdont":1,
    "expecting":1,
    "visiting":1,
    "watching":1,
    "tv":1,
    "hauling":1,
    "mom":1,
    "jail":1,
    "shackles":1,
    "especially":1,
    "england":1,
    "mi5":1,
    "reassure":1,
    "business":1,
    "ridiculous":1,
    "family":1,
    "eliminated":1,
    "completely":1,
    "their":1,
    "plea":1,
    "dealing":1,
    "whos":1,
    "crushed":1,
    "stabbed":1,
    "detonated":1,
    "members":1,
    "devastated":1,
    "marching":1,
    "ma":1,
    "courthouse":1,
    "next":1,
    "managed":1,
    "house":1,
    "mustve":1,
    "youanyway":1,
    "aliases":1,
    "places":1,
    "smaller":1,
    "computerize":1,
    "customs":1,
    "records":1,
    "watched":1,
    "englandit":1,
    "rentals":1,
    "liverpool":1,
    "doctors":1,
    "cantsit":1,
    "fence":1,
    "couldve":1,
    "taken":1,
    "inevitableno":1,
    "cold":1,
    "war":1,
    "secrets":1,
    "president":1,
    "united":1,
    "running":1,
    "permission":1,
    "sonofa":1,
    "dare":1,
    "realize":1,
    "obsolete":1,
    "hardware":1,
    "upgrading":1,
    "marriage":1,
    "sixtytwo":1,
    "sonofabitch":1,
    "enroute":1,
    "guns":1,
    "real":1,
    "plus":1,
    "supposedly":1,
    "agreed":1,
    "marcel":1,
    "sitting":1,
    "cafe":1,
    "rain":1,
    "outside":1,
    "housealive":1,
    "beautifuland":1,
    "she\ufffds":1,
    "stake":1,
    "probably":1,
    "usually":1,
    "safehouse":1,
    "doctor":1,
    "yescome":1,
    "hereviens":1,
    "pres":1,
    "noon":1,
    "terminus":1,
    "twentyfive":1,
    "chunnel":1,
    "wasn\ufffdt":1,
    "discussed":1,
    "apologies":1,
    "couldn\ufffdt":1,
    "helped":1,
    "cloth":1,
    "seat":1,
    "tear":1,
    "you\ufffdll":1,
    "ha":1,
    "hope":1,
    "prelude":1,
    "private":1,
    "girl":1,
    "possibility":1,
    "alone":1,
    "rack":1,
    "silver":1,
    "briefcase":1,
    "combination":1,
    "wouldn\ufffdt":1,
    "search":1,
    "speed":1,
    "place":1,
    "putting":1,
    "tickets":1,
    "ethankittridge":1,
    "delivered":1,
    "connection":1,
    "phone":1,
    "run":1,
    "civilians":1,
    "bullshit":1,
    "telephone":1,
    "we\ufffdve":1,
    "hello":1,
    "where\ufffds":1,
    "modemed":1,
    "ethan\ufffds":1,
    "listen":1,
    "takes":1,
    "blame":1,
    "darling":1,
    "mind":1,
    "telling":1,
    "bible":1,
    "stamped":1,
    "gideons":1,
    "shows":1,
    "this\ufffdll":1,
    "i\ufffdd":1,
    "you\ufffdd":1,
    "jimwhy":1,
    "masquerade":1,
    "fairness":1,
    "convinced":1,
    "charms":1,
    "supremely":1,
    "confident":1,
    "tastes":1,
    "thou":1,
    "shall":1,
    "covet":1,
    "thy":1,
    "neighbour\ufffds":1,
    "wife":1,
    "world\ufffds":1,
    "lovers":1,
    "tortured":1,
    "exploiting":1,
    "feelings":1,
    "returning":1,
    "earned":1,
    "blew":1,
    "scattered":1,
    "town":1,
    "counting":1,
    "satisfied":1,
    "aren\ufffdt":1,
    "flatter":1,
    "goodbye":1,
    "eliminate":1,
    "truth":1,
    "clairehey":1,
    "stuff":1,
    "sticky":1,
    "ethanyou\ufffdll":1,
    "backwon\ufffdt":1,
    "tunnel":1,
    "stop":1,
    "itll":1,
    "fucker":1,
    "lawyers":1,
    "field":1,
    "entrapment":1,
    "jurisdictional":1,
    "conflicts":1,
    "courts":1,
    "feeling":1,
    "apology":1,
    "justice":1,
    "department":1,
    "vip":1,
    "treatment":1,
    "nine":1,
    "confused":1,
    "dope":1,
    "smugglers":1,
    "florida":1,
    "keys":1,
    "heres":1,
    "flavour":1,
    "month":1,
    "mistaken":1,
    "debriefing":1,
    "figured":1,
    "reinstate":1,
    "pay":1,
    "promotion":1,
    "office":1,
    "negotiation":1,
    "hows":1,
    "solid":1,
    "citizen":1,
    "mani":1,
    "disreputable":1,
    "clarke":1,
    "caribbean":1,
    "aruba":1,
    "called":2,
    "having":2,
    "anatoly":2,
    "jesus":2,
    "cmon":2,
    "theyll":2,
    "agency":2,
    "miediev":2,
    "cheers":2,
    "rid":2,
    "walking":2,
    "particular":2,
    "cinema":2,
    "perhaps":2,
    "intelligence":2,
    "stolen":2,
    "half":2,
    "official":2,
    "cover":2,
    "already":2,
    "portion":2,
    "names":2,
    "unless":2,
    "station":2,
    "steal":2,
    "decide":2,
    "accept":2,
    "those":2,
    "usual":2,
    "point":2,
    "getting":2,
    "luck":2,
    "built":2,
    "sees":2,
    "wicked":2,
    "later":2,
    "days":2,
    "worst":2,
    "short":2,
    "term":2,
    "ah":2,
    "forget":2,
    "talking":2,
    "guess":2,
    "ran":2,
    "dealers":2,
    "drake":2,
    "hotel":2,
    "flight":2,
    "year":2,
    "sammy":2,
    "wasnt":2,
    "suppose":2,
    "own":2,
    "every":2,
    "country":2,
    "third":2,
    "lock":2,
    "shadow":2,
    "throw":2,
    "report":2,
    "last":2,
    "checked":2,
    "county":2,
    "hurry":2,
    "gum":2,
    "red":2,
    "asta":2,
    "lasagna":2,
    "jacks":2,
    "facility":2,
    "ahead":2,
    "set":2,
    "elevator":2,
    "young":2,
    "named":2,
    "drag":2,
    "few":2,
    "relax":2,
    "rolling":2,
    "box":2,
    "ok":2,
    "opening":2,
    "break":2,
    "such":2,
    "nice":2,
    "lonely":2,
    "roger":2,
    "door":2,
    "power":2,
    "lose":2,
    "can\ufffdt":2,
    "order":2,
    "golitsyn\ufffds":2,
    "gave":2,
    "we\ufffdre":2,
    "yards":2,
    "they\ufffdre":2,
    "seven":2,
    "who\ufffds":2,
    "worry":2,
    "location":2,
    "hour":2,
    "myself":2,
    "disappoint":2,
    "much":2,
    "passport":2,
    "left":2,
    "another":2,
    "tonight":2,
    "quite":2,
    "9":2,
    "serious":2,
    "operations":2,
    "dealer":2,
    "anonymity":2,
    "himself":2,
    "actual":2,
    "molehunt":2,
    "suddenly":2,
    "grand":2,
    "supposed":2,
    "account":2,
    "quietly":2,
    "onto":2,
    "pathetic":2,
    "upset":2,
    "kitteridge":2,
    "march":2,
    "fourteen":2,
    "extremely":2,
    "must":2,
    "trouble":2,
    "shut":2,
    "wake":2,
    "jims":2,
    "walked":2,
    "everyone":2,
    "part":2,
    "sense":2,
    "please":2,
    "wish":2,
    "shroud":2,
    "playful":2,
    "paradox":2,
    "pinpoint":2,
    "easy":2,
    "information":2,
    "boot":2,
    "anywhere":2,
    "suggest":2,
    "change":2,
    "pass":2,
    "end":2,
    "drop":2,
    "dropped":2,
    "local":2,
    "authorities":2,
    "countries":2,
    "taught":2,
    "christs":2,
    "sake":2,
    "important":2,
    "son":2,
    "password":2,
    "mainframe":2,
    "helicopter":2,
    "downloading":2,
    "stickell":2,
    "actually":2,
    "kidding":2,
    "laptops":2,
    "risk":2,
    "twentyfour":2,
    "missed":2,
    "systems":2,
    "body":2,
    "eyes":2,
    "file":2,
    "still":2,
    "case":2,
    "immediately":2,
    "standing":2,
    "trying":2,
    "figure":2,
    "care":2,
    "fire":2,
    "gene":2,
    "sop":2,
    "picked":2,
    "sectors":2,
    "air":2,
    "hold":2,
    "count":2,
    "2":2,
    "3":2,
    "toast":2,
    "files":2,
    "menu":2,
    "moi":2,
    "makes":2,
    "wisconsin":2,
    "cnn":2,
    "madison":2,
    "illegal":2,
    "street":2,
    "officials":2,
    "folks":2,
    "charges":2,
    "certainly":2,
    "uncle":2,
    "catch":2,
    "states":2,
    "liked":2,
    "sit":2,
    "took":2,
    "worth":2,
    "lousy":2,
    "we\ufffdll":2,
    "big":2,
    "he\ufffdll":2,
    "tgv":2,
    "tight":2,
    "til":2,
    "there\ufffds":2,
    "crash":2,
    "reach":2,
    "doesn\ufffdt":2,
    "cars":2,
    "high":2,
    "gets":2,
    "batteries":2,
    "looks":2,
    "looking":2,
    "idea":2,
    "quicker":2,
    "mistake":2,
    "fold":2,
    "transfer":2,
    "extra":2,
    "accelerate":2,
    "kasimov":3,
    "kill":3,
    "asked":3,
    "contact":3,
    "drink":3,
    "sleep":3,
    "yet":3,
    "waiting":3,
    "consider":3,
    "line":3,
    "international":3,
    "security":3,
    "which":3,
    "true":3,
    "involved":3,
    "return":3,
    "matter":3,
    "kiev":3,
    "theres":3,
    "isnt":3,
    "might":3,
    "leave":3,
    "coming":3,
    "made":3,
    "chicago":3,
    "burn":3,
    "years":3,
    "says":3,
    "arms":3,
    "best":3,
    "week":3,
    "trust":3,
    "against":3,
    "thank":3,
    "senator":3,
    "miss":3,
    "pocket":3,
    "uh":3,
    "en":3,
    "route":3,
    "denied":3,
    "access":3,
    "higher":3,
    "touch":3,
    "doors":3,
    "coat":3,
    "transport":3,
    "hey":3,
    "stay":3,
    "i\ufffdve":3,
    "understand":3,
    "radio":3,
    "communications":3,
    "bring":3,
    "heard":3,
    "lot":3,
    "personally":3,
    "weve":3,
    "mean":3,
    "else":3,
    "couple":3,
    "top":3,
    "message":3,
    "put":3,
    "operation":3,
    "314":3,
    "farm":3,
    "goods":3,
    "meet":3,
    "saw":3,
    "nobody":3,
    "hours":3,
    "send":3,
    "until":3,
    "knows":3,
    "talk":3,
    "answer":3,
    "doesnt":3,
    "ask":3,
    "virginia":3,
    "used":3,
    "phew":3,
    "six":3,
    "dangerous":3,
    "close":3,
    "bitch":3,
    "exactly":3,
    "vault":3,
    "alive":3,
    "system":3,
    "state":3,
    "sector":3,
    "mother":3,
    "wanted":3,
    "meeting":3,
    "donald":3,
    "dea":3,
    "cat":3,
    "fairchild":3,
    "shot":3,
    "once":3,
    "em":3,
    "straight":3,
    "what\ufffds":3,
    "paris":3,
    "baggage":3,
    "noone":3,
    "feel":3,
    "remember":4,
    "friends":4,
    "better":4,
    "movie":4,
    "youd":4,
    "working":4,
    "eastern":4,
    "agent":4,
    "code":4,
    "second":4,
    "believe":4,
    "killed":4,
    "seconds":4,
    "piece":4,
    "before":4,
    "friend":4,
    "boy":4,
    "world":4,
    "drug":4,
    "love":4,
    "wont":4,
    "green":4,
    "package":4,
    "area":4,
    "times":4,
    "around":4,
    "moving":4,
    "ass":4,
    "follow":4,
    "room":4,
    "other":4,
    "day":4,
    "someone":4,
    "show":4,
    "bank":4,
    "seen":4,
    "needed":4,
    "disavowed":4,
    "dollars":4,
    "mole":4,
    "nothing":4,
    "showed":4,
    "worthless":4,
    "deliver":4,
    "far":4,
    "hard":4,
    "deal":4,
    "without":4,
    "barnes":4,
    "many":4,
    "guys":4,
    "kind":4,
    "thinking":4,
    "alarm":4,
    "gotta":4,
    "try":4,
    "check":4,
    "didn\ufffdt":4,
    "happened":5,
    "her":5,
    "under":5,
    "help":5,
    "walk":5,
    "watch":5,
    "thousand":5,
    "morning":5,
    "cia":5,
    "tomorrow":5,
    "night":5,
    "because":5,
    "thought":5,
    "some":5,
    "problem":5,
    "first":5,
    "she":5,
    "really":5,
    "anything":5,
    "goes":5,
    "guy":5,
    "light":5,
    "these":5,
    "use":5,
    "work":5,
    "does":5,
    "am":5,
    "behind":5,
    "sarah":5,
    "sir":5,
    "you\ufffdre":5,
    "move":5,
    "said":5,
    "disk":5,
    "maybe":5,
    "i\ufffdll":5,
    "lost":5,
    "enough":5,
    "hell":5,
    "yourself":5,
    "imf":5,
    "oclock":5,
    "safe":5,
    "twenty":5,
    "1":5,
    "may":5,
    "same":5,
    "thing":5,
    "london":5,
    "being":5,
    "call":5,
    "twentyone":5,
    "you\ufffdve":5,
    "course":6,
    "gonna":6,
    "phelps":6,
    "black":6,
    "europe":6,
    "embassy":6,
    "sent":6,
    "five":6,
    "then":6,
    "dear":6,
    "them":6,
    "ill":6,
    "whole":6,
    "damn":6,
    "gone":6,
    "excuse":6,
    "position":6,
    "i\ufffdm":6,
    "cut":6,
    "way":6,
    "okay":6,
    "youve":6,
    "three":6,
    "million":6,
    "done":6,
    "it\ufffds":6,
    "name":7,
    "whats":7,
    "wrong":7,
    "yeah":7,
    "should":7,
    "team":7,
    "or":7,
    "when":7,
    "theyre":7,
    "give":7,
    "could":7,
    "through":7,
    "let":7,
    "minutes":7,
    "he\ufffds":7,
    "abort":7,
    "away":7,
    "knew":7,
    "langley":7,
    "question":7,
    "krieger":7,
    "train":7,
    "long":8,
    "mr":8,
    "golitsyn":8,
    "look":8,
    "bridge":8,
    "hear":8,
    "id":8,
    "very":8,
    "little":8,
    "inside":8,
    "lets":8,
    "down":8,
    "keep":8,
    "car":8,
    "four":8,
    "ten":8,
    "even":9,
    "never":9,
    "didnt":9,
    "only":9,
    "yes":9,
    "again":9,
    "prague":9,
    "man":9,
    "has":9,
    "agents":9,
    "ive":9,
    "always":9,
    "more":9,
    "hundred":9,
    "after":9,
    "had":9,
    "god":9,
    "sorry":9,
    "hannah":9,
    "doing":9,
    "something":9,
    "find":9,
    "need":9,
    "too":10,
    "his":10,
    "our":10,
    "than":10,
    "over":10,
    "say":10,
    "sure":10,
    "make":10,
    "by":10,
    "money":10,
    "luther":10,
    "been":11,
    "would":11,
    "into":11,
    "two":11,
    "back":11,
    "cant":11,
    "open":11,
    "oh":12,
    "see":12,
    "an":13,
    "from":13,
    "thats":13,
    "time":13,
    "us":14,
    "tell":14,
    "any":14,
    "as":14,
    "kittridge":14,
    "dead":14,
    "well":15,
    "come":16,
    "right":16,
    "off":16,
    "hunt":16,
    "will":16,
    "take":16,
    "don\ufffdt":16,
    "where":16,
    "did":17,
    "good":18,
    "jack":18,
    "like":18,
    "noc":18,
    "there":19,
    "hes":19,
    "why":19,
    "but":19,
    "who":20,
    "so":20,
    "go":20,
    "max":20,
    "now":21,
    "got":22,
    "want":22,
    "all":22,
    "think":22,
    "claire":23,
    "up":23,
    "just":24,
    "they":24,
    "here":25,
    "were":26,
    "out":26,
    "going":26,
    "how":27,
    "can":28,
    "if":28,
    "job":28,
    "no":29,
    "jim":29,
    "him":30,
    "at":31,
    "know":31,
    "my":31,
    "youre":32,
    "get":32,
    "im":32,
    "about":32,
    "one":33,
    "are":33,
    "its":33,
    "list":33,
    "with":34,
    "be":34,
    "your":36,
    "do":37,
    "dont":39,
    "not":39,
    "he":39,
    "for":40,
    "that":41,
    "was":44,
    "ethan":46,
    "this":48,
    "on":50,
    "have":52,
    "we":57,
    "me":61,
    "what":62,
    "is":66,
    "of":87,
    "":92,
    "it":92,
    "and":96,
    "a":114,
    "in":114,
    "i":151,
    "to":160,
    "you":237,
    "the":297
}