{
    "interrupt":1,
    "program":1,
    "bring":1,
    "news":1,
    "bulletin":1,
    "ernest":1,
    "accomplices":1,
    "escaped":1,
    "maximumsecurity":1,
    "ward":1,
    "bellevue":1,
    "hospital":1,
    "last":1,
    "brutally":1,
    "stabbing":1,
    "nurses":1,
    "custodian":1,
    "death":1,
    "extremely":1,
    "unpredict":1,
    "halfopen":1,
    "closes":1,
    "little":1,
    "communication":1,
    "gap":1,
    "translates":1,
    "\u00abmore\u00bb":1,
    "trash":1,
    "fucking":1,
    "chekhov":1,
    "star":1,
    "victim":1,
    "stabbed":1,
    "spurting":1,
    "till":1,
    "christmas":1,
    "mmmm":1,
    "forgetting":1,
    "perfectly":1,
    "top":1,
    "holdup":1,
    "angry":1,
    "bearded":1,
    "speaks":1,
    "angrily":1,
    "awfully":1,
    "day":1,
    "redress":1,
    "closeup":1,
    "corpse":1,
    "thatll":1,
    "wrap":1,
    "slow":1,
    "puddle":1,
    "part":1,
    "dining":1,
    "room":1,
    "kneels":1,
    "ancientlooking":1,
    "wooden":1,
    "trunk":1,
    "madame":1,
    "olga":1,
    "sugar":1,
    "laughs":1,
    "kind":1,
    "cute":1,
    "months":1,
    "cold":1,
    "winter":1,
    "nights":1,
    "mom":1,
    "white":1,
    "six":1,
    "oclock":1,
    "strohbeckers":1,
    "dummy":1,
    "balcony":1,
    "monday":1,
    "fiesta":1,
    "famous":1,
    "chili":1,
    "con":1,
    "clarke":1,
    "near":1,
    "andys":1,
    "assistant":1,
    "producer":1,
    "opening":1,
    "tickets":1,
    "bolshoi":1,
    "ballet":1,
    "awake":1,
    "couldve":1,
    "thinking":1,
    "either":1,
    "ask":1,
    "mask":1,
    "tap":1,
    "workshop":1,
    "letter":1,
    "shushes":1,
    "hand":1,
    "hungry":1,
    "bye":1,
    "anyone":1,
    "electricians":1,
    "control":1,
    "hearing":1,
    "outside":1,
    "happen":1,
    "slipped":1,
    "fall":1,
    "poor":1,
    "doctor":1,
    "hold":1,
    "walk":1,
    "mustnt":1,
    "become":1,
    "paralyzed":1,
    "sweetie":1,
    "true":1,
    "stupid":1,
    "conversation":1,
    "taps":1,
    "karens":1,
    "arm":1,
    "\u00abhe":1,
    "wore":1,
    "stocking":1,
    "pulled":1,
    "head\u00bb":1,
    "\u00aband":1,
    "chased":1,
    "well\u00bb":1,
    "test":1,
    "much":1,
    "secret":1,
    "hurt":1,
    "feelings":1,
    "wouldve":1,
    "done":1,
    "tests":1,
    "runs":1,
    "expose":1,
    "unload":1,
    "without":1,
    "needing":1,
    "darkroom":1,
    "arkadis":1,
    "menacing":1,
    "weapon":1,
    "tastes":1,
    "actors":1,
    "mouths":1,
    "broke":1,
    "box":1,
    "used":1,
    "trick":1,
    "couldnt":1,
    "clearly":1,
    "else":1,
    "clear":1,
    "elevator":1,
    "soaked":1,
    "sheets":1,
    "afterwards":1,
    "head":1,
    "ah":1,
    "bags":1,
    "lift":1,
    "rubbish":1,
    "easy":1,
    "goes":1,
    "ive":1,
    "embarrassed":1,
    "entire":1,
    "life":1,
    "pro":1,
    "shed":1,
    "between":1,
    "gag":1,
    "point":1,
    "bought":1,
    "guy":1,
    "cutting":1,
    "believed":1,
    "because":1,
    "wuss":1,
    "slide":1,
    "offense":1,
    "id":1,
    "reshoot":1,
    "using":1,
    "whatever":1,
    "looked":1,
    "shut":1,
    "mine":1,
    "youll":1,
    "feel":1,
    "better":1,
    "pass":1,
    "salt":1,
    "effort":1,
    "stops":1,
    "drinking":1,
    "water":1,
    "soon":1,
    "learn":1,
    "often":1,
    "\u00abmakeup\u00bb":1,
    "wrong":1,
    "somebodys":1,
    "girls":1,
    "moment":1,
    "knew":1,
    "terror":1,
    "act":1,
    "closer":1,
    "wont":1,
    "bite":1,
    "course":1,
    "problem":1,
    "job":1,
    "informed":1,
    "nobody":1,
    "long":1,
    "witnesses":1,
    "each":1,
    "honestly":1,
    "couch":1,
    "\u00abill":1,
    "independent":1,
    "am\u00bb":1,
    "kicks":1,
    "calling":1,
    "embassy":1,
    "weekend":1,
    "closed":1,
    "duty":1,
    "direct":1,
    "number":1,
    "left":1,
    "case":1,
    "goodbye":1,
    "kiss":1,
    "enters":1,
    "answered":1,
    "complaint":1,
    "gentlemen":1,
    "ambassadors":1,
    "secretary":1,
    "asked":1,
    "correct":1,
    "investigation":1,
    "quite":1,
    "mother":1,
    "translator":1,
    "university":1,
    "kgb":1,
    "technician":1,
    "weve":1,
    "tracking":1,
    "gangsters":1,
    "running":1,
    "international":1,
    "pornography":1,
    "prostitution":1,
    "racket":1,
    "sit":1,
    "sold":1,
    "them":1,
    "world":1,
    "sex":1,
    "camera":1,
    "claims":1,
    "being":1,
    "ruthless":1,
    "surprised":1,
    "men":1,
    "easily":1,
    "tied":1,
    "tree":1,
    "alive":1,
    "while":1,
    "arms":1,
    "legs":1,
    "hard":1,
    "sick":1,
    "watch":1,
    "eyes":1,
    "sheer":1,
    "horror":1,
    "realize":1,
    "ambassador":1,
    "appreciate":1,
    "best":1,
    "told":1,
    "biggest":1,
    "piece":1,
    "ever":1,
    "hope":1,
    "werent":1,
    "sleeping":1,
    "am":1,
    "earlier":1,
    "straight":1,
    "bath":1,
    "bed":1,
    "doorbell":1,
    "first":1,
    "leave":1,
    "alone":1,
    "noise":1,
    "somethings":1,
    "swear":1,
    "923":1,
    "126":1,
    "kievsky":1,
    "prospekt":1,
    "telephone":1,
    "92095910":1,
    "kitchen":1,
    "digital":1,
    "voice":1,
    "computer":1,
    "patience":1,
    "intruder":1,
    "lock":1,
    "screw":1,
    "pops":1,
    "send":1,
    "somebody":1,
    "immediately":1,
    "wheres":1,
    "alexander":1,
    "clothes":1,
    "yet":1,
    "puts":1,
    "jacket":1,
    "backview":1,
    "mirror":1,
    "trashed":1,
    "livingroom":1,
    "someones":1,
    "ba":1,
    "boyfriend":1,
    "stole":1,
    "full":1,
    "names":1,
    "connections":1,
    "blackmailed":1,
    "any":1,
    "diskettes":1,
    "script":1,
    "went":1,
    "gone":1,
    "person":1,
    "undercover":1,
    "theyll":1,
    "keys":1,
    "cannot":1,
    "escape":1,
    "\u00abno\u00bb":1,
    "finger":1,
    "misunderstanding":1,
    "arrest":1,
    "arresting":1,
    "citizen":1,
    "directing":1,
    "bringing":1,
    "father":1,
    "knows":1,
    "people":1,
    "unlock":1,
    "wartschuk":1,
    "mmm":1,
    "does":1,
    "hel":1,
    "ours":1,
    "gotta":1,
    "should":1,
    "cops":1,
    "tries":1,
    "open":1,
    "child":1,
    "locks":1,
    "friends":1,
    "block":1,
    "entrances":1,
    "doing":1,
    "perfect":1,
    "exterior":1,
    "holy":1,
    "around":1,
    "jump":1,
    "lines":1,
    "helped":1,
    "witnessed":1,
    "live":1,
    "nice":1,
    "isnt":1,
    "taking":1,
    "piss":1,
    "watcher":1,
    "slowly":1,
    "reaches":1,
    "climbs":1,
    "catches":1,
    "watchers":1,
    "foot":1,
    "steps":1,
    "rolls":1,
    "unconscious":1,
    "ties":1,
    "wrist":1,
    "handcuff":1,
    "joins":1,
    "seems":1,
    "happy":1,
    "successful":1,
    "operation":1,
    "hell":1,
    "whoever":1,
    "stand":1,
    "genius":1,
    "tourists":1,
    "guess":1,
    "pal":1,
    "warning":1,
    "mouth":1,
    "\u00abim":1,
    "fine\u00bb":1,
    "shows":1,
    "effect":1,
    "device":1,
    "stomach":1,
    "comes":1,
    "takes":1,
    "shoulder":1,
    "few":1,
    "sign":1,
    "language":1,
    "next":1,
    "remote":1,
    "invitation":1,
    "sometime":1,
    "pleasure":1,
    "whoops":1,
    "ciao":1,
    "matter":1,
    "special":2,
    "strohbecker":2,
    "brutal":2,
    "brilliant":2,
    "natasha":2,
    "didnt":2,
    "pain":2,
    "flow":2,
    "squeezing":2,
    "bag":2,
    "elbow":2,
    "keep":2,
    "needs":2,
    "least":2,
    "today":2,
    "zoom":2,
    "behind":2,
    "front":2,
    "thought":2,
    "hi":2,
    "use":2,
    "dead":2,
    "ohh":2,
    "falls":2,
    "own":2,
    "alex":2,
    "damn":2,
    "dinner":2,
    "cinema":2,
    "second":2,
    "eating":2,
    "hey":2,
    "cabin":2,
    "shell":2,
    "promise":2,
    "janitor":2,
    "ambulance":2,
    "way":2,
    "trying":2,
    "excuse":2,
    "follow":2,
    "talking":2,
    "panic":2,
    "building":2,
    "sweet":2,
    "put":2,
    "stuff":2,
    "happened":2,
    "fast":2,
    "shaft":2,
    "show":2,
    "nothing":2,
    "shakes":2,
    "hands":2,
    "chief":2,
    "difference":2,
    "listen":2,
    "means":2,
    "expression":2,
    "condition":2,
    "theres":2,
    "other":2,
    "place":2,
    "dad":2,
    "gave":2,
    "officers":2,
    "waves":2,
    "blows":2,
    "sister":2,
    "lovett":2,
    "these":2,
    "policemen":2,
    "evening":2,
    "information":2,
    "made":2,
    "films":2,
    "victims":2,
    "great":2,
    "woman":2,
    "kept":2,
    "talk":2,
    "makes":2,
    "check":2,
    "had":2,
    "too":2,
    "thing":2,
    "careful":2,
    "emergency":2,
    "address":2,
    "answer":2,
    "hurry":2,
    "quick":2,
    "only":2,
    "trust":2,
    "delta":2,
    "ridiculous":2,
    "director":2,
    "key":2,
    "gun":2,
    "hit":2,
    "red":2,
    "square":2,
    "safety":2,
    "words":2,
    "cop":2,
    "tomorrow":2,
    "after":3,
    "dangerous":3,
    "harry":3,
    "walks":3,
    "when":3,
    "another":3,
    "by":3,
    "sure":3,
    "tell":3,
    "heard":3,
    "hear":3,
    "whats":3,
    "hes":3,
    "into":3,
    "wants":3,
    "some":3,
    "again":3,
    "three":3,
    "like":3,
    "body":3,
    "time":3,
    "believe":3,
    "making":3,
    "try":3,
    "stay":3,
    "been":3,
    "l":3,
    "meet":3,
    "quickly":3,
    "bad":3,
    "danger":3,
    "may":3,
    "really":3,
    "policeman":3,
    "their":3,
    "close":3,
    "very":3,
    "before":3,
    "need":3,
    "away":3,
    "has":3,
    "hausmann":3,
    "smoothly":3,
    "american":3,
    "girl":3,
    "or":3,
    "care":3,
    "theyre":3,
    "witness":3,
    "murdered":3,
    "sir":3,
    "give":3,
    "wanted":3,
    "da":3,
    "apartment":3,
    "thinks":3,
    "crazy":3,
    "lot":3,
    "shoot":3,
    "cowboy":3,
    "two":4,
    "door":4,
    "cut":4,
    "said":4,
    "die":4,
    "stop":4,
    "lets":4,
    "down":4,
    "moscow":4,
    "would":4,
    "more":4,
    "going":4,
    "shot":4,
    "forget":4,
    "still":4,
    "thank":4,
    "through":4,
    "billys":4,
    "interior":4,
    "worry":4,
    "speak":4,
    "must":4,
    "never":4,
    "fake":4,
    "then":4,
    "guys":4,
    "knife":4,
    "everything":4,
    "huh":4,
    "will":4,
    "even":4,
    "good":4,
    "movie":4,
    "our":4,
    "us":4,
    "help":4,
    "snuff":4,
    "speaking":4,
    "why":4,
    "from":5,
    "an":5,
    "make":5,
    "be":5,
    "saying":5,
    "says":5,
    "cant":5,
    "face":5,
    "off":5,
    "honey":5,
    "shit":5,
    "over":5,
    "arkadi":5,
    "name":5,
    "looks":5,
    "as":5,
    "could":5,
    "take":5,
    "seen":5,
    "buka":5,
    "money":5,
    "work":5,
    "ladder":5,
    "russian":6,
    "set":6,
    "youre":6,
    "gonna":6,
    "at":6,
    "thats":6,
    "got":6,
    "studio":6,
    "explain":6,
    "lyosha":6,
    "let":6,
    "move":6,
    "police":6,
    "english":6,
    "look":6,
    "larsen":6,
    "reaper":6,
    "mean":7,
    "big":7,
    "one":7,
    "coming":7,
    "out":7,
    "did":7,
    "up":7,
    "how":7,
    "understand":7,
    "mr":7,
    "write":7,
    "night":8,
    "can":8,
    "yeah":8,
    "so":8,
    "real":8,
    "his":8,
    "saw":8,
    "something":8,
    "ill":8,
    "murder":8,
    "kill":8,
    "call":8,
    "were":9,
    "for":9,
    "wait":9,
    "car":9,
    "come":9,
    "know":9,
    "if":9,
    "fine":9,
    "hughes":9,
    "think":10,
    "blood":10,
    "yes":10,
    "go":10,
    "tonight":10,
    "god":10,
    "back":10,
    "who":10,
    "want":11,
    "see":11,
    "with":11,
    "your":11,
    "man":11,
    "sorry":11,
    "shes":11,
    "there":11,
    "film":11,
    "where":11,
    "diskette":11,
    "him":12,
    "well":12,
    "karen":12,
    "just":13,
    "but":13,
    "say":13,
    "do":14,
    "about":14,
    "they":14,
    "all":15,
    "no":15,
    "please":15,
    "andy":16,
    "not":16,
    "oh":16,
    "right":16,
    "now":16,
    "hello":17,
    "was":17,
    "me":17,
    "have":18,
    "get":18,
    "he":18,
    "that":18,
    "are":18,
    "its":19,
    "dont":20,
    "my":20,
    "here":22,
    "on":22,
    "this":23,
    "of":25,
    "her":26,
    "she":27,
    "im":28,
    "okay":29,
    "we":34,
    "in":35,
    "and":42,
    "it":42,
    "to":43,
    "what":44,
    "billy":45,
    "a":49,
    "is":53,
    "i":69,
    "you":99,
    "the":145,
    "":231
}