{
    "august":1,
    "6":1,
    "2009":1,
    "talking":1,
    "sue":1,
    "describe":1,
    "attractive":1,
    "drink":1,
    "laughing":1,
    "bro":1,
    "sexual":1,
    "innuendo":1,
    "shouldnt":1,
    "offense":1,
    "possibly":1,
    "tits":1,
    "meal":1,
    "okayokay":1,
    "agree":1,
    "dental":1,
    "profession":1,
    "spell":1,
    "anesthesiologist":1,
    "womans":1,
    "complete":1,
    "fraud":1,
    "delusional":1,
    "hitting":1,
    "oral":1,
    "surgery":1,
    "calm":1,
    "hanging":1,
    "cry":1,
    "dropped":1,
    "feed":1,
    "hopeless":1,
    "squeeze":1,
    "corny":1,
    "smile":1,
    "until":1,
    "eighteen":1,
    "present":1,
    "sweetie":1,
    "believing":1,
    "catalogue":1,
    "brushes":1,
    "seconds":1,
    "lies":1,
    "tells":1,
    "whens":1,
    "grade":1,
    "pick":1,
    "job":1,
    "anyway":1,
    "cow":1,
    "bosses":1,
    "admire":1,
    "frank":1,
    "exchange":1,
    "flowers":1,
    "handmade":1,
    "card":1,
    "impossible":1,
    "grunt":1,
    "happy":1,
    "tear":1,
    "bigger":1,
    "person":1,
    "custody":1,
    "hearing":1,
    "scolding":1,
    "grows":1,
    "wedge":1,
    "abandoning":1,
    "detective":1,
    "quinn":1,
    "search":1,
    "premises":1,
    "arrested":1,
    "arrest":1,
    "gesas":1,
    "cuffs":1,
    "dream":1,
    "snake":1,
    "falling":1,
    "trick":1,
    "sams":1,
    "friend":1,
    "food":1,
    "swings":1,
    "toy":1,
    "ratbag":1,
    "reading":1,
    "letters":1,
    "bedtime":1,
    "building":1,
    "fort":1,
    "scared":1,
    "wave":1,
    "turkey":1,
    "butter":1,
    "bread":1,
    "vegetables":1,
    "swore":1,
    "apple":1,
    "desk":1,
    "miss":1,
    "phillips":1,
    "may":1,
    "district":1,
    "realtor":1,
    "excellent":1,
    "half":1,
    "stayed":1,
    "awake":1,
    "talked":1,
    "business":1,
    "months":1,
    "disappeared":1,
    "meyers":1,
    "investigator":1,
    "snagged":1,
    "pop":1,
    "must":1,
    "quite":1,
    "bankrupted":1,
    "handsome":1,
    "favor":1,
    "governor":1,
    "change":1,
    "conjugal":1,
    "visits":1,
    "twentyeight":1,
    "twentynine":1,
    "pulling":1,
    "recycle":1,
    "unless":1,
    "cap":1,
    "trash":1,
    "recyclable":1,
    "ok":1,
    "toad":1,
    "eat":1,
    "ruling":1,
    "pcra":1,
    "rejected":1,
    "submitted":1,
    "robbery":1,
    "stole":1,
    "theyd":1,
    "cards":1,
    "argue":1,
    "reallysucks":1,
    "decent":1,
    "lawyer":1,
    "indecent":1,
    "seen":1,
    "judge":1,
    "coworker":1,
    "sees":1,
    "victims":1,
    "fingerprints":1,
    "psychopath":1,
    "fights":1,
    "ended":1,
    "believed":1,
    "longer":1,
    "matters":1,
    "laras":1,
    "christs":1,
    "sake":1,
    "br":1,
    "visitors":1,
    "ridiculous":1,
    "attempted":1,
    "er":1,
    "keeps":1,
    "pretending":1,
    "insist":1,
    "kept":1,
    "hug":1,
    "kiki":1,
    "opossumy":1,
    "gonna":1,
    "hugs":1,
    "ohhh":1,
    "baby":1,
    "julie":1,
    "belief":1,
    "itself":1,
    "rational":1,
    "destroys":1,
    "soul":1,
    "triumph":1,
    "irrationality":1,
    "power":1,
    "course":1,
    "investigates":1,
    "matter":1,
    "cost":1,
    "dibs":1,
    "papillon":1,
    "smoking":1,
    "cut":1,
    "short":1,
    "precious":1,
    "balls":1,
    "airtight":1,
    "each":1,
    "break":1,
    "daily":1,
    "routine":1,
    "guards":1,
    "comfortable":1,
    "happens":1,
    "adapt":1,
    "mistakes":1,
    "ready":1,
    "escaping":1,
    "hardest":1,
    "part":1,
    "staying":1,
    "catch":1,
    "knows":1,
    "depends":1,
    "country":1,
    "tough":1,
    "bridges":1,
    "tunnels":1,
    "center":1,
    "sealed":1,
    "exact":1,
    "911":1,
    "homeland":1,
    "lockdown":1,
    "philly":1,
    "boston":1,
    "minneapolis":1,
    "dc":1,
    "within":1,
    "tollbooth":1,
    "interstate":1,
    "running":1,
    "rolling":1,
    "stops":1,
    "secondary":1,
    "roads":1,
    "photograph":1,
    "surrender":1,
    "sight":1,
    "along":1,
    "local":1,
    "identity":1,
    "fake":1,
    "harder":1,
    "passport":1,
    "rent":1,
    "deposit":1,
    "use":1,
    "persons":1,
    "third":1,
    "somewhere":1,
    "attract":1,
    "tourists":1,
    "newspapers":1,
    "yemen":1,
    "truck":1,
    "everythings":1,
    "expensive":1,
    "hotels":1,
    "travel":1,
    "information":1,
    "least":1,
    "fivesix":1,
    "seeing":1,
    "guard":1,
    "lady":1,
    "ground":1,
    "become":1,
    "caught":1,
    "tied":1,
    "untied":1,
    "met":1,
    "briefly":1,
    "byrdie":1,
    "lifson":1,
    "wifes":1,
    "regularly":1,
    "refusing":1,
    "sound":1,
    "dramatic":1,
    "form":1,
    "squirrel":1,
    "sweet":1,
    "potato":1,
    "deal":1,
    "kindergarten":1,
    "walk":1,
    "wash":1,
    "dinnerand":1,
    "knowing":1,
    "appeals":1,
    "exactly":1,
    "hoping":1,
    "bringing":1,
    "hates":1,
    "fault":1,
    "funny":1,
    "antiaging":1,
    "lawn":1,
    "sign":1,
    "allegheny":1,
    "built":1,
    "1995":1,
    "largest":1,
    "escape":1,
    "attempts":1,
    "alive":1,
    "landing":1,
    "small":1,
    "necessary":1,
    "column":1,
    "yard":1,
    "wide":1,
    "prince":1,
    "convinced":1,
    "man":1,
    "stood":1,
    "concealed":1,
    "distinguish":1,
    "adderall":1,
    "apiece":1,
    "forty":1,
    "piss":1,
    "uptown":1,
    "5th":1,
    "ave":1,
    "harv":1,
    "babysits":1,
    "eye":1,
    "showing":1,
    "neighborhood":1,
    "lord":1,
    "happened":1,
    "fell":1,
    "crack":1,
    "punch":1,
    "means":1,
    "stupidly":1,
    "loved":1,
    "bar":1,
    "deaf":1,
    "lips":1,
    "advance":1,
    "wednesday":1,
    "dons":1,
    "eckert":1,
    "bridge":1,
    "video":1,
    "game":1,
    "checkers":1,
    "eugenie":1,
    "offer":1,
    "utterly":1,
    "destroy":1,
    "into":1,
    "lock":1,
    "thumb":1,
    "moment":1,
    "poor":1,
    "ride":1,
    "sexy":1,
    "apologize":1,
    "eyes":1,
    "sofa":1,
    "water":1,
    "plants":1,
    "week":1,
    "operation":1,
    "serious":1,
    "misdiagnosed":1,
    "labs":1,
    "english":1,
    "catherine":1,
    "carl":1,
    "cover":1,
    "230":1,
    "goddamn":1,
    "red":1,
    "fuck":1,
    "point":1,
    "elevator":1,
    "kids":1,
    "pretend":1,
    "fall":1,
    "snoring":1,
    "open":1,
    "hungry":1,
    "daughter":1,
    "fathers":1,
    "memory":1,
    "afraid":1,
    "complicated":1,
    "cafe":1,
    "corner":1,
    "join":1,
    "prettyyou":1,
    "owe":1,
    "learned":1,
    "prepackage":1,
    "requires":1,
    "considerable":1,
    "amount":1,
    "machinery":1,
    "trade":1,
    "together":1,
    "missesall":1,
    "priorities":1,
    "invitation":1,
    "letter":1,
    "chocolate":1,
    "sometimes":1,
    "fixed":1,
    "doctors":1,
    "tests":1,
    "nono":1,
    "monday":1,
    "muncy":1,
    "weeks":1,
    "tomorrow":1,
    "title":1,
    "cleared":1,
    "almost":1,
    "distance":1,
    "hardship":1,
    "spending":1,
    "god":1,
    "fantasy":1,
    "longfaced":1,
    "apologizing":1,
    "gem":1,
    "perfect":1,
    "asked":1,
    "grabbed":1,
    "fire":1,
    "extinguisher":1,
    "neck":1,
    "snap":1,
    "threw":1,
    "river":1,
    "paid":1,
    "wallet":1,
    "girls":1,
    "gun":1,
    "release":1,
    "behind":1,
    "kneel":1,
    "twelve":1,
    "impress":1,
    "mouth":1,
    "wasting":1,
    "high":1,
    "alcohol":1,
    "content":1,
    "upstairs":1,
    "explode":1,
    "basement":1,
    "crater":1,
    "alex":1,
    "gaidar":1,
    "history":1,
    "violence":1,
    "drug":1,
    "trafficking":1,
    "neighbor":1,
    "surprise":1,
    "type":1,
    "bleeding":1,
    "zone":1,
    "gunshot":1,
    "victim":1,
    "transit":1,
    "bench":1,
    "tired":1,
    "kisses":1,
    "harvest":1,
    "festival":1,
    "kutztown":1,
    "clydesdales":1,
    "goodbye":1,
    "chase":1,
    "black":1,
    "alley":1,
    "debris":1,
    "opens":1,
    "carry":1,
    "minute":1,
    "matches":1,
    "20042009":1,
    "criminal":1,
    "socially":1,
    "responsible":1,
    "felons":1,
    "embezzlers":1,
    "white":1,
    "collar":1,
    "criminals":1,
    "pony":1,
    "wrap":1,
    "nine":1,
    "looked":1,
    "carefully":1,
    "help":1,
    "errands":1,
    "later":1,
    "hehe":1,
    "late":1,
    "wheelchair":1,
    "karma":1,
    "incarcerated":1,
    "town":1,
    "brennans":1,
    "bloodwork":1,
    "ambulance":1,
    "address":1,
    "being":1,
    "transferred":1,
    "escort":1,
    "less":1,
    "7725":1,
    "iv":1,
    "page":1,
    "dr":1,
    "becsey":1,
    "remove":1,
    "holsters":1,
    "lieutenant":1,
    "prisoner":1,
    "secure":1,
    "personnel":1,
    "1027":1,
    "code":1,
    "4":1,
    "squad":1,
    "entrance":1,
    "feet":1,
    "mouths":1,
    "choice":1,
    "waiting":1,
    "alone":1,
    "drop":1,
    "exit":1,
    "whos":1,
    "lobby":1,
    "grant":1,
    "hair":1,
    "platform":1,
    "port":1,
    "authority":1,
    "ring":1,
    "descriptions":1,
    "wouldve":1,
    "stopped":1,
    "brush":1,
    "moisturizer":1,
    "makeup":1,
    "hour":1,
    "wait":1,
    "estimated":1,
    "seventeen":1,
    "canvas":1,
    "boy":1,
    "theyve":1,
    "noticed":1,
    "few":1,
    "roadblock":1,
    "ahead":1,
    "taking":1,
    "pleasure":1,
    "flavor":1,
    "flavors":1,
    "sit":1,
    "stick":1,
    "traffic":1,
    "lanes":1,
    "tollbooths":1,
    "happening":1,
    "kpgh":1,
    "caller":1,
    "says":1,
    "moving":1,
    "commuters":1,
    "irate":1,
    "nod":1,
    "understandi":1,
    "young":1,
    "child":1,
    "ticket":1,
    "buffalo":1,
    "costs":1,
    "wider":1,
    "mile":1,
    "radius":1,
    "ohio":1,
    "maryland":1,
    "west":1,
    "york":1,
    "jersey":1,
    "michigan":1,
    "kentucky":1,
    "indiana":1,
    "places":1,
    "barely":1,
    "fax":1,
    "machines":1,
    "dialing":1,
    "prioritize":1,
    "closest":1,
    "lucky":1,
    "canadian":1,
    "border":1,
    "collero":1,
    "excuse":1,
    "coffee":1,
    "fugitive":1,
    "likely":1,
    "yearold":1,
    "flying":1,
    "ontario":1,
    "quebec":1,
    "count":1,
    "sending":1,
    "appreciate":1,
    "disseminate":1,
    "themhow":1,
    "terminals":1,
    "carryon":1,
    "lost":1,
    "bags":1,
    "decided":1,
    "george":1,
    "leaves":1,
    "absolutely":1,
    "checked":1,
    "websites":1,
    "tourist":1,
    "presidential":1,
    "palace":1,
    "cnn":1,
    "deposedwhatshisname":1,
    "begin":1,
    "boarding":1,
    "rows":1,
    "plane":1,
    "haiti":1,
    "starting":1,
    "rain":1,
    "fbi":1,
    "others":1,
    "switched":1,
    "belt":1,
    "caracas":1,
    "venezuela":1,
    "evening":1,
    "while":1,
    "asks":1,
    "community":1,
    "college":1,
    "raining":1,
    "searched":1,
    "crime":1,
    "ago":1,
    "act":1,
    "grab":1,
    "smart":2,
    "always":2,
    "threatened":2,
    "especially":2,
    "beautiful":2,
    "erit":2,
    "boss":2,
    "answer":2,
    "youd":2,
    "ass":2,
    "front":2,
    "wanted":2,
    "show":2,
    "bet":2,
    "wasnt":2,
    "allowed":2,
    "anywhere":2,
    "near":2,
    "such":2,
    "chair":2,
    "someones":2,
    "weekend":2,
    "tight":2,
    "morning":2,
    "everything":2,
    "hate":2,
    "brushing":2,
    "teeth":2,
    "papers":2,
    "yesterday":2,
    "probably":2,
    "useless":2,
    "kind":2,
    "sent":2,
    "year":2,
    "feel":2,
    "driving":2,
    "between":2,
    "touch":2,
    "elizabeth":2,
    "bad":2,
    "sleep":2,
    "bed":2,
    "wow":2,
    "hurt":2,
    "worry":2,
    "honey":2,
    "walked":2,
    "gave":2,
    "sandwich":2,
    "ate":2,
    "friends":2,
    "spoke":2,
    "trouble":2,
    "couple":2,
    "shell":2,
    "around":2,
    "appeal":2,
    "telling":2,
    "rule":2,
    "saw":2,
    "coat":2,
    "felt":2,
    "button":2,
    "blind":2,
    "lie":2,
    "twenty":2,
    "hows":2,
    "figured":2,
    "leaving":2,
    "parking":2,
    "supreme":2,
    "hasnt":2,
    "pleadings":2,
    "guilty":2,
    "scene":2,
    "weapon":2,
    "fight":2,
    "everyone":2,
    "done":2,
    "suicide":2,
    "asleep":2,
    "pengui":2,
    "turtley":2,
    "write":2,
    "soon":2,
    "quarter":2,
    "spend":2,
    "cottage":2,
    "virtue":2,
    "important":2,
    "drives":2,
    "free":2,
    "luck":2,
    "entire":2,
    "place":2,
    "block":2,
    "downtown":2,
    "thirtyfive":2,
    "cops":2,
    "description":2,
    "anyone":2,
    "far":2,
    "second":2,
    "cash":2,
    "theyll":2,
    "american":2,
    "load":2,
    "gas":2,
    "push":2,
    "myself":2,
    "wondering":2,
    "bedroom":2,
    "pocket":2,
    "insulin":2,
    "alright":2,
    "days":2,
    "play":2,
    "miracle":2,
    "tried":2,
    "county":2,
    "niche":2,
    "standing":2,
    "lose":2,
    "stupid":2,
    "head":2,
    "thinks":2,
    "buddy":2,
    "reason":2,
    "mistake":2,
    "street":2,
    "dad":2,
    "brought":2,
    "bump":2,
    "fits":2,
    "without":2,
    "picture":2,
    "close":2,
    "window":2,
    "hope":2,
    "blaming":2,
    "department":2,
    "feeling":2,
    "cop":2,
    "today":2,
    "middle":2,
    "worst":2,
    "date":2,
    "worse":2,
    "nicole":2,
    "true":2,
    "shed":2,
    "better":2,
    "most":2,
    "dearest":2,
    "wish":2,
    "sick":2,
    "knew":2,
    "moved":2,
    "shot":2,
    "traveling":2,
    "rest":2,
    "pissed":2,
    "bye":2,
    "knees":2,
    "hands":2,
    "dollars":2,
    "jesus":2,
    "meth":2,
    "die":2,
    "found":2,
    "neighbors":2,
    "taillight":2,
    "pockets":2,
    "prius":2,
    "registered":2,
    "eleven":2,
    "university":2,
    "vehicle":2,
    "safe":2,
    "units":2,
    "itll":2,
    "direction":2,
    "trains":2,
    "took":2,
    "favorite":2,
    "ice":2,
    "cake":2,
    "virginia":2,
    "hours":2,
    "calling":2,
    "flight":2,
    "flights":2,
    "seat":2,
    "full":3,
    "bitch":3,
    "either":3,
    "rather":3,
    "couldnt":3,
    "completely":3,
    "went":3,
    "office":3,
    "asshole":3,
    "stairs":3,
    "next":3,
    "read":3,
    "mother":3,
    "mr":3,
    "name":3,
    "these":3,
    "long":3,
    "side":3,
    "keep":3,
    "lunch":3,
    "teacher":3,
    "move":3,
    "day":3,
    "having":3,
    "heard":3,
    "court":3,
    "purse":3,
    "hell":3,
    "busy":3,
    "four":3,
    "oclock":3,
    "anymore":3,
    "credit":3,
    "case":3,
    "file":3,
    "ive":3,
    "blood":3,
    "clothes":3,
    "dinner":3,
    "hear":3,
    "pay":3,
    "else":3,
    "escaped":3,
    "seven":3,
    "times":3,
    "life":3,
    "tape":3,
    "plan":3,
    "easy":3,
    "ten":3,
    "bus":3,
    "stations":3,
    "airports":3,
    "ones":3,
    "airport":3,
    "drivers":3,
    "license":3,
    "social":3,
    "still":3,
    "check":3,
    "real":3,
    "destination":3,
    "killed":3,
    "doctor":3,
    "hey":3,
    "forgot":3,
    "watch":3,
    "live":3,
    "happen":3,
    "send":3,
    "cream":3,
    "left":3,
    "figure":3,
    "passports":3,
    "mouss":3,
    "photos":3,
    "bike":3,
    "our":3,
    "garage":3,
    "bag":3,
    "grandma":3,
    "face":3,
    "thousand":3,
    "phone":3,
    "light":3,
    "might":3,
    "cookies":3,
    "carries":3,
    "hospital":3,
    "care":3,
    "floor":3,
    "wheres":3,
    "burn":3,
    "six":3,
    "rapist":3,
    "murderer":3,
    "drive":3,
    "theres":3,
    "captain":3,
    "photographs":3,
    "women":4,
    "shit":4,
    "woman":4,
    "used":4,
    "than":4,
    "tonight":4,
    "husband":4,
    "try":4,
    "shut":4,
    "night":4,
    "understand":4,
    "trying":4,
    "supposed":4,
    "those":4,
    "things":4,
    "turn":4,
    "thirty":4,
    "after":4,
    "father":4,
    "birthday":4,
    "notice":4,
    "remember":4,
    "warrant":4,
    "murder":4,
    "same":4,
    "does":4,
    "looking":4,
    "new":4,
    "havent":4,
    "yet":4,
    "lets":4,
    "innocent":4,
    "somebody":4,
    "idea":4,
    "lots":4,
    "thought":4,
    "world":4,
    "key":4,
    "thing":4,
    "before":4,
    "pittsburgh":4,
    "fifteen":4,
    "security":4,
    "number":4,
    "ask":4,
    "yourself":4,
    "station":4,
    "nice":4,
    "old":4,
    "door":4,
    "talk":4,
    "told":4,
    "hard":4,
    "which":4,
    "five":4,
    "hundred":4,
    "house":4,
    "actually":4,
    "any":4,
    "both":4,
    "youve":4,
    "meet":4,
    "work":5,
    "another":5,
    "men":5,
    "id":5,
    "great":5,
    "people":5,
    "hello":5,
    "only":5,
    "son":5,
    "class":5,
    "doesnt":5,
    "police":5,
    "youll":5,
    "mean":5,
    "first":5,
    "meyer":5,
    "through":5,
    "evidence":5,
    "promise":5,
    "carrie":5,
    "wife":5,
    "getting":5,
    "big":5,
    "mind":5,
    "train":5,
    "parents":5,
    "start":5,
    "bring":5,
    "lab":5,
    "guess":5,
    "other":5,
    "zoo":5,
    "theyre":6,
    "isnt":6,
    "by":6,
    "problem":6,
    "little":6,
    "idiot":6,
    "over":6,
    "love":6,
    "last":6,
    "said":6,
    "made":6,
    "ever":6,
    "daddy":6,
    "dead":6,
    "already":6,
    "years":6,
    "run":6,
    "forget":6,
    "saying":6,
    "am":6,
    "prison":6,
    "city":6,
    "many":6,
    "state":6,
    "enough":6,
    "some":6,
    "guy":6,
    "let":6,
    "dog":6,
    "never":7,
    "nothing":7,
    "more":7,
    "hit":7,
    "very":7,
    "way":7,
    "got":7,
    "mom":7,
    "someone":7,
    "something":7,
    "school":7,
    "lot":7,
    "wont":7,
    "leave":7,
    "jail":7,
    "car":7,
    "kid":7,
    "thank":7,
    "as":8,
    "has":8,
    "coming":8,
    "party":8,
    "down":8,
    "three":8,
    "mommy":8,
    "us":8,
    "make":8,
    "been":8,
    "yes":8,
    "had":8,
    "kill":8,
    "two":8,
    "then":8,
    "shoot":8,
    "away":8,
    "money":8,
    "arent":8,
    "say":9,
    "under":9,
    "even":9,
    "believe":9,
    "stay":9,
    "hes":9,
    "brennan":9,
    "well":9,
    "kiss":9,
    "all":9,
    "or":9,
    "their":9,
    "could":9,
    "should":10,
    "like":10,
    "fine":10,
    "please":10,
    "look":10,
    "every":10,
    "wrong":10,
    "call":10,
    "anything":10,
    "minutes":10,
    "were":11,
    "stop":11,
    "who":11,
    "an":11,
    "again":11,
    "right":12,
    "thanks":12,
    "yeah":12,
    "hi":12,
    "sure":12,
    "off":12,
    "much":12,
    "really":12,
    "whats":12,
    "home":12,
    "think":13,
    "good":13,
    "one":13,
    "didnt":13,
    "would":14,
    "because":14,
    "too":14,
    "when":14,
    "see":14,
    "give":14,
    "why":15,
    "john":15,
    "put":15,
    "take":16,
    "cant":16,
    "his":16,
    "find":16,
    "go":16,
    "doing":16,
    "need":16,
    "tell":16,
    "sorry":16,
    "from":16,
    "shes":17,
    "come":17,
    "up":18,
    "lara":18,
    "did":18,
    "will":18,
    "about":18,
    "time":18,
    "oh":19,
    "them":19,
    "ill":19,
    "now":20,
    "youre":20,
    "luke":20,
    "but":21,
    "okay":21,
    "back":21,
    "with":23,
    "thats":23,
    "where":23,
    "he":25,
    "if":26,
    "at":26,
    "out":26,
    "here":27,
    "its":28,
    "want":28,
    "there":30,
    "they":30,
    "her":31,
    "just":32,
    "so":32,
    "be":32,
    "my":33,
    "she":33,
    "can":34,
    "not":35,
    "dont":35,
    "we":36,
    "know":37,
    "how":38,
    "was":38,
    "him":39,
    "get":39,
    "going":42,
    "":43,
    "this":43,
    "of":44,
    "im":45,
    "for":46,
    "me":51,
    "on":51,
    "that":53,
    "no":54,
    "do":56,
    "are":58,
    "your":58,
    "what":63,
    "have":66,
    "is":75,
    "and":77,
    "in":78,
    "it":85,
    "a":120,
    "i":177,
    "to":179,
    "the":193,
    "you":282
}