{
    "noise":1,
    "louder":1,
    "gaining":1,
    "altitude":1,
    "above":1,
    "rough":1,
    "weather":1,
    "speeding":1,
    "umokay":1,
    "damn":1,
    "nine":1,
    "ten":1,
    "cooking":1,
    "school":1,
    "payback":1,
    "stomach":1,
    "such":1,
    "mommas":1,
    "beginning":1,
    "speech":1,
    "assembly":1,
    "teenagers":1,
    "shack":1,
    "nothingyet":1,
    "mister":1,
    "gutter":1,
    "crawl":1,
    "drug":1,
    "addicts":1,
    "dope":1,
    "pushers":1,
    "youdo":1,
    "love":1,
    "course":1,
    "word":1,
    "lately":1,
    "unpack":1,
    "sandwich":1,
    "incredible":1,
    "plumbing":1,
    "case":1,
    "hardening":1,
    "arteries":1,
    "friend":1,
    "wife":1,
    "helping":1,
    "ids":1,
    "footing":1,
    "kick":1,
    "nest":1,
    "wagon":1,
    "rescue":1,
    "wheres":1,
    "upstate":1,
    "hundred":1,
    "miles":1,
    "hand":1,
    "jacobs":1,
    "luck":1,
    "died":1,
    "shes":1,
    "legal":1,
    "federal":1,
    "program":1,
    "bearings":1,
    "budgets":1,
    "tight":1,
    "turn":1,
    "four":1,
    "permanent":1,
    "arrangement":1,
    "community":1,
    "summer":1,
    "project":1,
    "eighty":1,
    "percent":1,
    "includes":1,
    "aspirin":1,
    "arguments":1,
    "straight":1,
    "dinner":1,
    "gang":1,
    "fix":1,
    "wesleys":1,
    "shower":1,
    "chrissakes":1,
    "central":1,
    "staying":1,
    "howd":1,
    "blockade":1,
    "beautiful":1,
    "hows":1,
    "barney":1,
    "rubble":1,
    "resident":1,
    "temporarily":1,
    "rooming":1,
    "value":1,
    "privacy":1,
    "honor":1,
    "company":1,
    "divorce":1,
    "custody":1,
    "settle":1,
    "curious":1,
    "cigarettes":1,
    "sick":1,
    "discipline":1,
    "front":1,
    "care":1,
    "beat":1,
    "fathers":1,
    "gun":1,
    "selfdefense":1,
    "tale":1,
    "hop":1,
    "indoor":1,
    "tennis":1,
    "courts":1,
    "fate":1,
    "lies":1,
    "balance":1,
    "loads":1,
    "full":1,
    "switching":1,
    "decaf":1,
    "touched":1,
    "personally":1,
    "hooker":1,
    "forced":1,
    "carry":1,
    "tradition":1,
    "terrible":1,
    "sorryi":1,
    "promise":1,
    "supervisors":1,
    "slacking":1,
    "fuckingoh":1,
    "gotten":1,
    "beauty":1,
    "looked":1,
    "physical":1,
    "sharks":1,
    "pump":1,
    "water":1,
    "gills":1,
    "moving":1,
    "breath":1,
    "shark":1,
    "forever":1,
    "neither":1,
    "haunts":1,
    "kills":1,
    "rates":1,
    "eleven":1,
    "meter":1,
    "listen":1,
    "crap":1,
    "voice":1,
    "rocks":1,
    "which":1,
    "swear":1,
    "blasted":1,
    "worst":1,
    "towns":1,
    "carrier":1,
    "deep":1,
    "loose":1,
    "notices":1,
    "heads":1,
    "physically":1,
    "ourselves":1,
    "feels":1,
    "thatd":1,
    "leaving":1,
    "desert":1,
    "lie":1,
    "feed":1,
    "snakes":1,
    "vultures":1,
    "mad":1,
    "running":1,
    "spray":1,
    "nooooooo":1,
    "nooooo":1,
    "overdose":1,
    "christ":1,
    "911":1,
    "set":1,
    "lift":1,
    "duty":1,
    "neighborhood":1,
    "poor":1,
    "babys":1,
    "homesick":1,
    "happy":1,
    "family":1,
    "recruit":1,
    "goddamnit":1,
    "alrightjust":1,
    "attitudes":1,
    "hello":1,
    "may":1,
    "butt":1,
    "recruited":1,
    "obvious":1,
    "shits":1,
    "discovered":1,
    "ripped":1,
    "hole":1,
    "amplified":1,
    "guysreally":1,
    "lucky":1,
    "instead":1,
    "quite":1,
    "fight":1,
    "traces":1,
    "alcohol":1,
    "blood":1,
    "couldve":1,
    "hold":1,
    "suffering":1,
    "extreme":1,
    "fatigue":1,
    "stress":1,
    "manifested":1,
    "itself":1,
    "anxiety":1,
    "attack":1,
    "major":1,
    "seizure":1,
    "keeping":1,
    "observation":1,
    "mr":1,
    "signed":1,
    "papers":1,
    "bound":1,
    "restraints":1,
    "nice":1,
    "movie":1,
    "ya":1,
    "mac":1,
    "fuck":1,
    "surgeon":1,
    "general":1,
    "noooooooo":1,
    "couch":1,
    "barely":1,
    "scorched":1,
    "burn":1,
    "explanation":1,
    "gossip":1,
    "rags":1,
    "spontaneous":1,
    "combustion":1,
    "bodies":1,
    "psychic":1,
    "called":1,
    "effect":1,
    "tiny":1,
    "usually":1,
    "slowly":1,
    "smolders":1,
    "blanket":1,
    "clothes":1,
    "skin":1,
    "starts":1,
    "bake":1,
    "fat":1,
    "begins":1,
    "melt":1,
    "liquefy":1,
    "fueling":1,
    "slow":1,
    "burning":1,
    "impossible":1,
    "burned":1,
    "cmon":1,
    "investigation":1,
    "weekend":1,
    "monday":1,
    "wasnt":1,
    "covered":1,
    "health":1,
    "stint":1,
    "hospital":1,
    "cost":1,
    "bundle":1,
    "lose":1,
    "victim":1,
    "hedire":1,
    "buy":1,
    "crazybut":1,
    "needing":1,
    "suck":1,
    "dressed":1,
    "side":1,
    "themselves":1,
    "meanlike":1,
    "cops":1,
    "patrolling":1,
    "dreamworld":1,
    "whyyet":1,
    "needs":1,
    "save":1,
    "accept":1,
    "handle":1,
    "loving":1,
    "supportive":1,
    "caring":1,
    "except":1,
    "fatal":1,
    "flow":1,
    "raised":1,
    "obey":1,
    "wedding":1,
    "vows":1,
    "jealous":1,
    "another":1,
    "without":1,
    "wanted":1,
    "herand":1,
    "drunk":1,
    "andshed":1,
    "nighti":1,
    "suddenly":1,
    "tat":1,
    "watched":1,
    "knocked":1,
    "stairs":1,
    "broke":1,
    "y":1,
    "became":1,
    "cried":1,
    "garage":1,
    "blew":1,
    "brains":1,
    "shotgun":1,
    "final":1,
    "straw":1,
    "shrinks":1,
    "blocked":1,
    "blank":1,
    "spot":1,
    "missing":1,
    "piece":1,
    "special":1,
    "inherited":1,
    "showed":1,
    "peoples":1,
    "buti":1,
    "compare":1,
    "notes":1,
    "purpose":1,
    "linking":1,
    "though":1,
    "wow":1,
    "knew":1,
    "helps":1,
    "romper":1,
    "gettin":1,
    "kinky":1,
    "umno":1,
    "idea":1,
    "brought":1,
    "chest":1,
    "destroyed":1,
    "watch":1,
    "mouth":1,
    "pal":1,
    "ahead":1,
    "tough":1,
    "cut":1,
    "flex":1,
    "muscle":1,
    "shoveling":1,
    "samaritan":1,
    "instincts":1,
    "limits":1,
    "tragedy":1,
    "making":1,
    "fantasies":1,
    "country":1,
    "america":1,
    "checking":1,
    "record":1,
    "runaway":1,
    "groups":1,
    "invisible":1,
    "sense":1,
    "troublemaking":1,
    "vanish":1,
    "offlimits":1,
    "council":1,
    "meeting":1,
    "scotts":1,
    "safe":1,
    "awhile":1,
    "appear":1,
    "coldbut":1,
    "ginas":1,
    "princess":1,
    "moms":1,
    "maniac":1,
    "whered":1,
    "thought":1,
    "difficult":1,
    "longer":1,
    "whatthere":1,
    "thrives":1,
    "ahalone":1,
    "earthquake":1,
    "pack":1,
    "bags":1,
    "kicking":1,
    "taking":1,
    "consider":1,
    "possibly":1,
    "unfit":1,
    "mess":1,
    "straightened":1,
    "calling":1,
    "accident":1,
    "pressing":1,
    "charges":1,
    "car":1,
    "most":1,
    "assigned":1,
    "afternoon":1,
    "talking":1,
    "regarding":1,
    "considered":1,
    "suspects":1,
    "willing":1,
    "afraid":1,
    "visit":1,
    "won":1,
    "looks":1,
    "hero":1,
    "gave":1,
    "exactly":1,
    "throw":1,
    "towel":1,
    "needed":1,
    "nothings":1,
    "worked":1,
    "spent":1,
    "wasted":1,
    "imim":1,
    "drop":1,
    "dreamland":1,
    "dude":1,
    "almost":1,
    "forgot":1,
    "sleepy":1,
    "squad":1,
    "stuff":1,
    "correctly":1,
    "whisk":1,
    "action":1,
    "both":1,
    "nights":1,
    "laugh":1,
    "disappointed":1,
    "sleeping":1,
    "girls":1,
    "dorm":1,
    "stomping":1,
    "ground":1,
    "pretty":1,
    "play":1,
    "ear":1,
    "til":1,
    "lights":1,
    "wild":1,
    "yonder":1,
    "sicko":1,
    "fried":1,
    "stick":1,
    "snoozing":1,
    "lovely":1,
    "neighbors":1,
    "yet":1,
    "bunch":1,
    "folks":1,
    "uhhuh":1,
    "friendly":1,
    "convinced":1,
    "bout":1,
    "being":1,
    "nope":1,
    "daytime":1,
    "draw":1,
    "bait":1,
    "essentially":1,
    "underage":1,
    "anyway":1,
    "driving":1,
    "whatll":1,
    "beer":1,
    "puts":1,
    "hair":1,
    "compliments":1,
    "favorite":1,
    "haunt":1,
    "losers":1,
    "takecharge":1,
    "shake":1,
    "trust":1,
    "hate":1,
    "snitch":1,
    "bone":1,
    "brain":1,
    "outside":1,
    "playing":1,
    "kincaid":1,
    "lid":1,
    "shouldnt":1,
    "exists":1,
    "destroy":1,
    "entirely":1,
    "unique":1,
    "wail":1,
    "doomsday":1,
    "am":1,
    "children":1,
    "original":1,
    "source":1,
    "present":1,
    "condition":1,
    "encompasses":1,
    "feeling":1,
    "mutual":1,
    "literally":1,
    "chopped":1,
    "rid":1,
    "second":1,
    "artist":1,
    "committed":1,
    "suicide":1,
    "pushing":1,
    "buttons":1,
    "pasts":1,
    "child":1,
    "hasnt":1,
    "lived":1,
    "decades":1,
    "once":1,
    "does":1,
    "dangerous":1,
    "nojacob":1,
    "loveha":1,
    "karendreampowers":1,
    "lady":1,
    "baby":1,
    "daddys":1,
    "girl":1,
    "honored":1,
    "bitch":1,
    "soul":1,
    "waiting":1,
    "frederick":1,
    "belong":1,
    "knowing":1,
    "goodbye":1,
    "sort":1,
    "excuse":2,
    "sound":2,
    "different":2,
    "freddys":2,
    "strong":2,
    "born":2,
    "alone":2,
    "fucker":2,
    "ride":2,
    "wants":2,
    "lighten":2,
    "couple":2,
    "questions":2,
    "assholes":2,
    "stronger":2,
    "eat":2,
    "road":2,
    "fixed":2,
    "money":2,
    "johnson":2,
    "david":2,
    "ross":2,
    "mary":2,
    "batch":2,
    "trouble":2,
    "came":2,
    "few":2,
    "guardian":2,
    "id":2,
    "goes":2,
    "works":2,
    "catch":2,
    "outta":2,
    "hours":2,
    "meet":2,
    "spare":2,
    "least":2,
    "story":2,
    "battle":2,
    "plain":2,
    "mellow":2,
    "give":2,
    "chance":2,
    "used":2,
    "dad":2,
    "those":2,
    "world":2,
    "thirteen":2,
    "sit":2,
    "whoa":2,
    "grip":2,
    "change":2,
    "arent":2,
    "says":2,
    "reason":2,
    "nuts":2,
    "keep":2,
    "awake":2,
    "scaring":2,
    "matter":2,
    "sounds":2,
    "went":2,
    "woke":2,
    "fall":2,
    "difference":2,
    "memory":2,
    "unless":2,
    "hurting":2,
    "either":2,
    "fucked":2,
    "yourself":2,
    "must":2,
    "gone":2,
    "nowhere":2,
    "finally":2,
    "blow":2,
    "terrific":2,
    "under":2,
    "every":2,
    "elm":2,
    "street":2,
    "wanna":2,
    "ask":2,
    "stupid":2,
    "fan":2,
    "fought":2,
    "many":2,
    "released":2,
    "juvenile":2,
    "hall":2,
    "werent":2,
    "tonight":2,
    "temporary":2,
    "might":2,
    "buddy":2,
    "gonna":2,
    "neck":2,
    "seen":2,
    "mind":2,
    "candle":2,
    "fire":2,
    "actually":2,
    "takes":2,
    "smoking":2,
    "waste":2,
    "start":2,
    "authorities":2,
    "finished":2,
    "plan":2,
    "order":2,
    "black":2,
    "seem":2,
    "hang":2,
    "wont":2,
    "shut":2,
    "imagine":2,
    "everything":2,
    "thinking":2,
    "hed":2,
    "made":2,
    "sometimes":2,
    "myself":2,
    "wonderful":2,
    "anybody":2,
    "picture":2,
    "person":2,
    "pieces":2,
    "half":2,
    "careful":2,
    "service":2,
    "rules":2,
    "homes":2,
    "very":2,
    "please":2,
    "hour":2,
    "able":2,
    "split":2,
    "same":2,
    "left":2,
    "tried":2,
    "end":2,
    "comes":2,
    "bedtime":2,
    "um":2,
    "deals":2,
    "bar":2,
    "mayor":2,
    "rage":2,
    "against":2,
    "evils":2,
    "times":2,
    "history":2,
    "answer":2,
    "past":2,
    "mommy":2,
    "young":2,
    "sir":3,
    "getting":3,
    "bit":3,
    "dreamed":3,
    "true":3,
    "leave":3,
    "boy":3,
    "clean":3,
    "act":3,
    "somewhere":3,
    "ever":3,
    "stand":3,
    "charge":3,
    "swell":3,
    "best":3,
    "days":3,
    "wrong":3,
    "whos":3,
    "state":3,
    "heard":3,
    "drugs":3,
    "hi":3,
    "fault":3,
    "wish":3,
    "later":3,
    "youve":3,
    "bullshit":3,
    "found":3,
    "die":3,
    "wes":3,
    "middle":3,
    "rosss":3,
    "crazy":3,
    "whole":3,
    "somehow":3,
    "soon":3,
    "show":3,
    "living":3,
    "gets":3,
    "lot":3,
    "god":3,
    "protect":3,
    "others":3,
    "join":3,
    "saw":3,
    "itll":3,
    "fucking":3,
    "friends":3,
    "aw":3,
    "body":3,
    "didnt":3,
    "kruegers":3,
    "between":3,
    "anymore":3,
    "danger":3,
    "anywhere":3,
    "morning":3,
    "human":3,
    "started":3,
    "cigarette":3,
    "fell":3,
    "would":3,
    "happen":3,
    "tomorrow":3,
    "rosedale":3,
    "remember":3,
    "knows":3,
    "taught":3,
    "link":3,
    "easy":3,
    "dreaming":3,
    "bet":3,
    "ah":3,
    "each":3,
    "wait":3,
    "drink":3,
    "minimum":3,
    "hear":4,
    "engines":4,
    "everythings":4,
    "coming":4,
    "again":4,
    "honey":4,
    "run":4,
    "worry":4,
    "couldnt":4,
    "free":4,
    "foster":4,
    "figure":4,
    "next":4,
    "much":4,
    "three":4,
    "someone":4,
    "everybody":4,
    "gina":4,
    "day":4,
    "killed":4,
    "everyone":4,
    "gotta":4,
    "doesnt":4,
    "jesus":4,
    "youd":4,
    "tired":4,
    "people":4,
    "own":4,
    "nightmares":4,
    "because":4,
    "nightmare":4,
    "inside":4,
    "thank":4,
    "by":4,
    "trying":4,
    "job":4,
    "weve":4,
    "powers":4,
    "hope":4,
    "years":4,
    "ago":4,
    "daddy":4,
    "happens":4,
    "asleep":4,
    "touch":4,
    "after":4,
    "power":4,
    "these":4,
    "telling":4,
    "scared":4,
    "deal":4,
    "kid":5,
    "relax":5,
    "better":5,
    "late":5,
    "old":5,
    "wake":5,
    "things":5,
    "bad":5,
    "parents":5,
    "havent":5,
    "guess":5,
    "house":5,
    "reality":5,
    "welcome":5,
    "part":5,
    "through":5,
    "smoke":5,
    "off":5,
    "nothing":5,
    "even":5,
    "wouldnt":5,
    "kill":5,
    "great":5,
    "theres":5,
    "convince":5,
    "thing":5,
    "hurt":5,
    "hard":5,
    "call":5,
    "first":5,
    "over":5,
    "hit":5,
    "souls":5,
    "lets":6,
    "has":6,
    "did":6,
    "thanks":6,
    "other":6,
    "while":6,
    "isnt":6,
    "work":6,
    "":6,
    "fun":6,
    "problem":6,
    "took":6,
    "should":6,
    "their":6,
    "stop":6,
    "night":6,
    "guy":6,
    "doing":6,
    "sure":6,
    "than":6,
    "until":6,
    "worse":6,
    "together":6,
    "two":7,
    "mom":7,
    "way":7,
    "kids":7,
    "done":7,
    "kind":7,
    "mother":7,
    "around":7,
    "father":7,
    "try":7,
    "good":7,
    "hey":7,
    "believe":7,
    "happened":7,
    "man":7,
    "always":7,
    "bring":7,
    "enough":7,
    "put":7,
    "supposed":7,
    "last":7,
    "away":8,
    "home":8,
    "time":8,
    "said":8,
    "say":8,
    "oh":8,
    "find":8,
    "alive":8,
    "karen":8,
    "make":8,
    "room":8,
    "down":8,
    "could":8,
    "maybe":8,
    "rest":8,
    "an":8,
    "bed":8,
    "guys":8,
    "wesley":8,
    "use":8,
    "really":8,
    "dreams":8,
    "krueger":8,
    "still":8,
    "well":8,
    "understand":8,
    "already":8,
    "sorry":8,
    "fine":9,
    "alright":9,
    "hell":9,
    "before":9,
    "else":9,
    "only":9,
    "where":9,
    "stay":9,
    "little":9,
    "dead":9,
    "scott":9,
    "new":9,
    "talk":9,
    "let":9,
    "real":9,
    "anything":10,
    "yes":10,
    "some":10,
    "look":10,
    "youll":10,
    "come":10,
    "had":10,
    "our":10,
    "any":10,
    "tell":10,
    "something":10,
    "shit":10,
    "mean":10,
    "police":10,
    "huh":11,
    "springwood":11,
    "place":11,
    "take":11,
    "ive":11,
    "town":11,
    "when":12,
    "theyre":12,
    "them":12,
    "who":12,
    "freddy":12,
    "into":12,
    "will":13,
    "never":13,
    "too":13,
    "told":13,
    "got":13,
    "more":13,
    "as":13,
    "or":14,
    "see":14,
    "her":14,
    "want":14,
    "help":14,
    "been":14,
    "there":14,
    "ill":14,
    "sleep":15,
    "whats":15,
    "at":15,
    "need":16,
    "right":16,
    "dream":16,
    "one":17,
    "back":17,
    "cant":17,
    "like":17,
    "think":17,
    "so":17,
    "now":17,
    "she":18,
    "about":18,
    "his":18,
    "hes":18,
    "how":19,
    "yeah":20,
    "why":20,
    "then":21,
    "from":22,
    "us":22,
    "if":22,
    "were":23,
    "him":23,
    "okay":24,
    "was":25,
    "go":25,
    "can":27,
    "thats":28,
    "with":28,
    "jacob":29,
    "not":30,
    "up":30,
    "they":30,
    "but":31,
    "for":32,
    "youre":33,
    "your":33,
    "out":34,
    "all":35,
    "on":36,
    "here":36,
    "my":37,
    "going":37,
    "are":38,
    "he":38,
    "know":39,
    "just":40,
    "do":42,
    "get":43,
    "that":48,
    "its":48,
    "im":49,
    "is":50,
    "no":53,
    "have":53,
    "me":55,
    "be":57,
    "in":59,
    "this":61,
    "dont":62,
    "we":63,
    "what":64,
    "of":74,
    "and":74,
    "it":81,
    "a":99,
    "i":148,
    "the":156,
    "to":198,
    "you":224
}