{
    "shots":1,
    "follow":1,
    "movements":1,
    "proceeds":1,
    "intricate":1,
    "identify":1,
    "created":1,
    "youthful":1,
    "artists":1,
    "representation":1,
    "tilts":1,
    "dress":1,
    "handful":1,
    "colored":1,
    "titles":1,
    "bare":1,
    "sway":1,
    "breeze":1,
    "blowing":1,
    "pensivelooking":1,
    "blonde":1,
    "ominous":1,
    "signs":1,
    "fear":1,
    "resolve":1,
    "angelic":1,
    "creating":1,
    "childish":1,
    "kneeling":1,
    "colorful":1,
    "sketch":1,
    "exaggerated":1,
    "cheerfulness":1,
    "awkwardly":1,
    "rendered":1,
    "welltended":1,
    "idyllic":1,
    "nothing":1,
    "subject":1,
    "peeling":1,
    "paint":1,
    "boardedup":1,
    "horribly":1,
    "rundown":1,
    "nobody":1,
    "lifts":1,
    "crudely":1,
    "easily":1,
    "recognizable":1,
    "sprinkle":1,
    "trickles":1,
    "scans":1,
    "nowhere":1,
    "splashing":1,
    "washing":1,
    "colors":1,
    "blend":1,
    "liquid":1,
    "direction":1,
    "structure":1,
    "somehow":1,
    "unsurprised":1,
    "uncontrollable":1,
    "urge":1,
    "thunder":1,
    "deliberately":1,
    "singing":1,
    "nursery":1,
    "spins":1,
    "pov":1,
    "sunday":1,
    "best":1,
    "bang":1,
    "determined":1,
    "dissolves":1,
    "doorknob":1,
    "resistance":1,
    "ease":1,
    "instead":1,
    "finding":1,
    "duplicate":1,
    "compares":1,
    "surroundings":1,
    "decaying":1,
    "stillopen":1,
    "exactly":1,
    "locked":1,
    "living":1,
    "floorboards":1,
    "eerie":1,
    "paintings":1,
    "playing":1,
    "graveyards":1,
    "rainwater":1,
    "drips":1,
    "flashes":1,
    "illuminate":1,
    "sights":1,
    "distinctive":1,
    "green":1,
    "striped":1,
    "awww":1,
    "motions":1,
    "unimpressed":1,
    "merely":1,
    "arature":1,
    "attachment":1,
    "scraping":1,
    "railing":1,
    "spooked":1,
    "chick":1,
    "footsteps":1,
    "echoing":1,
    "shadows":1,
    "shh":1,
    "dragging":1,
    "puttin":1,
    "dent":1,
    "glare":1,
    "chill":1,
    "kristenfreddys":1,
    "consecrated":1,
    "fred":1,
    "cmere":1,
    "leads":1,
    "iron":1,
    "ember":1,
    "howling":1,
    "beast":1,
    "managed":1,
    "animal":1,
    "clamps":1,
    "jaws":1,
    "joeys":1,
    "reorient":1,
    "mr":1,
    "ignores":1,
    "daughter":1,
    "slinking":1,
    "warily":1,
    "definite":1,
    "contrast":1,
    "easy":1,
    "especially":1,
    "kristenrickll":1,
    "tomatojuice":1,
    "spices":1,
    "hangover":1,
    "delight":1,
    "uhh":1,
    "wait":1,
    "shot":1,
    "concoction":1,
    "leaving":1,
    "porch":1,
    "console":1,
    "rustling":1,
    "shimmying":1,
    "upper":1,
    "surprising":1,
    "grace":1,
    "maneuvers":1,
    "smiling":1,
    "stairs":1,
    "dads":1,
    "popping":1,
    "aspiring":1,
    "popcorn":1,
    "reopens":1,
    "newspaper":1,
    "limo":1,
    "big":1,
    "noisy":1,
    "chuckle":1,
    "particularly":1,
    "inviting":1,
    "many":1,
    "arriving":1,
    "bikes":1,
    "variety":1,
    "motor":1,
    "vehicles":1,
    "vw":1,
    "convertible":1,
    "cross":1,
    "student":1,
    "attractive":1,
    "blasting":1,
    "radio":1,
    "sexy":1,
    "anybody":1,
    "conflict":1,
    "sad":1,
    "soapsll":1,
    "pulling":1,
    "darkhaired":1,
    "jordan":1,
    "mmmmmm":1,
    "nervous":1,
    "ttthanks":1,
    "earth":1,
    "spacing":1,
    "salvation":1,
    "battered":1,
    "sputtering":1,
    "vespa":1,
    "zipping":1,
    "riding":1,
    "nerdy":1,
    "thick":1,
    "style":1,
    "souped":1,
    "homemade":1,
    "gadgets":1,
    "attachments":1,
    "kopecky":1,
    "bike":1,
    "unstraps":1,
    "papers":1,
    "tons":1,
    "ride":1,
    "health":1,
    "hazard":1,
    "inherited":1,
    "condition":1,
    "read":1,
    "favorite":1,
    "sucking":1,
    "nozzle":1,
    "managing":1,
    "retort":1,
    "between":1,
    "needledick":1,
    "bet":1,
    "male":1,
    "suffering":1,
    "penis":1,
    "envy":1,
    "understanding":1,
    "insult":1,
    "cracks":1,
    "pats":1,
    "shoulders":1,
    "owe":1,
    "disgusted":1,
    "roach":1,
    "bug":1,
    "grinds":1,
    "enthusiastically":1,
    "supergirl":1,
    "class":1,
    "spinning":1,
    "dial":1,
    "lockers":1,
    "couple":1,
    "inches":1,
    "higuys":1,
    "talent":1,
    "bringing":1,
    "folks":1,
    "anymore":1,
    "regular":1,
    "sides":1,
    "knows":1,
    "stir":1,
    "team":1,
    "signed":1,
    "sealed":1,
    "wants":1,
    "because":1,
    "sleeve":1,
    "bloodstained":1,
    "bandage":1,
    "dick":1,
    "crazy":1,
    "approaching":1,
    "nights":1,
    "arrives":1,
    "comment":1,
    "total":1,
    "freak":1,
    "ponders":1,
    "forth":1,
    "amused":1,
    "lighten":1,
    "strokes":1,
    "cheek":1,
    "jason":1,
    "adjust":1,
    "sucker":1,
    "mutter":1,
    "panic":1,
    "dreamland":1,
    "pound":1,
    "ass":1,
    "shouldntve":1,
    "meim":1,
    "hesitate":1,
    "dreamer":1,
    "entered":1,
    "madly":1,
    "labyrinth":1,
    "weave":1,
    "maze":1,
    "piledup":1,
    "pauses":1,
    "catch":1,
    "sign":1,
    "piles":1,
    "tells":1,
    "idea":1,
    "round":1,
    "squeak":1,
    "super":1,
    "dreamstrength":1,
    "succeeds":1,
    "topples":1,
    "squashing":1,
    "flat":1,
    "victorious":1,
    "roof":1,
    "hood":1,
    "muthafucker":1,
    "kincaide":1,
    "horns":1,
    "honk":1,
    "flash":1,
    "wipers":1,
    "wipe":1,
    "sent":1,
    "knives":1,
    "tips":1,
    "sharp":1,
    "pop":1,
    "accented":1,
    "cruel":1,
    "fx":1,
    "downtwo":1,
    "gohahahah":1,
    "shoot":1,
    "clutches":1,
    "agony":1,
    "nuzzles":1,
    "oblivious":1,
    "tender":1,
    "unsuccessfully":1,
    "wind":1,
    "tickling":1,
    "chimes":1,
    "drew":1,
    "sighs":1,
    "hicaf":1,
    "cola":1,
    "waste":1,
    "joins":1,
    "rummages":1,
    "drawer":1,
    "nightstand":1,
    "swerving":1,
    "approach":1,
    "garbage":1,
    "positioned":1,
    "exercises":1,
    "electric":1,
    "uneasily":1,
    "nip":1,
    "self":1,
    "conscious":1,
    "sone":1,
    "scouts":1,
    "honor":1,
    "shuffles":1,
    "follows":1,
    "contractslets":1,
    "eat":1,
    "waited":1,
    "vegetation":1,
    "meal":1,
    "hour":1,
    "salad":1,
    "angrily":1,
    "sick":1,
    "speak":1,
    "foreign":1,
    "tongues":1,
    "daydreamer":1,
    "overdue":1,
    "aggravation":1,
    "virtually":1,
    "covered":1,
    "photos":1,
    "defeats":1,
    "purpose":1,
    "younger":1,
    "happier":1,
    "crossing":1,
    "shed":1,
    "half":1,
    "strict":1,
    "treat":1,
    "karate":1,
    "obeys":1,
    "kicking":1,
    "ricki":1,
    "entranced":1,
    "spreads":1,
    "hug":1,
    "heaven":1,
    "drift":1,
    "features":1,
    "clear":1,
    "swimming":1,
    "bobs":1,
    "wet":1,
    "youd":1,
    "concentrates":1,
    "response":1,
    "streets":1,
    "brat":1,
    "anywhere":1,
    "hate":1,
    "ones":1,
    "worse":1,
    "stamps":1,
    "deal":1,
    "taught":1,
    "sounds":1,
    "game":1,
    "fable":1,
    "guardian":1,
    "teddy":1,
    "growing":1,
    "happen":1,
    "phone":1,
    "howd":1,
    "kinda":1,
    "become":1,
    "expert":1,
    "sympathetic":1,
    "started":1,
    "complicated":1,
    "search":1,
    "party":1,
    "brysons":1,
    "teacher":1,
    "named":1,
    "bryson":1,
    "writes":1,
    "board":1,
    "stragglers":1,
    "meeting":1,
    "roomful":1,
    "drains":1,
    "tremble":1,
    "murmuring":1,
    "tortured":1,
    "weak":1,
    "mesmerized":1,
    "outburst":1,
    "glancing":1,
    "losing":1,
    "momentum":1,
    "slamming":1,
    "strikes":1,
    "nasty":1,
    "bump":1,
    "focus":1,
    "extreme":1,
    "urgency":1,
    "worry":1,
    "bleed":1,
    "soaks":1,
    "uniform":1,
    "saturating":1,
    "fabric":1,
    "horror":1,
    "instant":1,
    "draw":1,
    "nurses":1,
    "office":1,
    "snap":1,
    "ampule":1,
    "rock":1,
    "music":1,
    "soundtrack":1,
    "surprised":1,
    "stayed":1,
    "uhalice":1,
    "buns":1,
    "library":1,
    "hardly":1,
    "study":1,
    "shouldnt":1,
    "stuck":1,
    "tables":1,
    "cute":1,
    "exercise":1,
    "these":1,
    "fix":1,
    "teach":1,
    "priorities":1,
    "interested":1,
    "dissecting":1,
    "admiring":1,
    "hopeless":1,
    "appreciate":1,
    "motto":1,
    "gathers":1,
    "cleaning":1,
    "ladies":1,
    "kinds":1,
    "stories":1,
    "theyll":1,
    "comfort":1,
    "crying":1,
    "badass":1,
    "motherfucker":1,
    "heart":1,
    "gold":1,
    "oversexed":1,
    "concerned":1,
    "everybody":1,
    "everyone":1,
    "engrossed":1,
    "crowding":1,
    "aversion":1,
    "telegraph":1,
    "exploitation":1,
    "afternoon":1,
    "boarded":1,
    "respective":1,
    "surrounded":1,
    "weed":1,
    "infested":1,
    "lawn":1,
    "haunted":1,
    "meto":1,
    "babe":1,
    "normal":1,
    "nightmare":1,
    "doomed":1,
    "legend":1,
    "technicality":1,
    "pissed":1,
    "according":1,
    "hunted":1,
    "roasted":1,
    "says":1,
    "kills":1,
    "beginning":1,
    "endangered":1,
    "species":1,
    "falters":1,
    "forgot":1,
    "prayer":1,
    "realm":1,
    "commands":1,
    "shouts":1,
    "andele":1,
    "shoulder":1,
    "kisses":1,
    "cuisine":1,
    "appetite":1,
    "quickly":1,
    "dizzy":1,
    "steady":1,
    "distraught":1,
    "godnowhatd":1,
    "grainy":1,
    "sediment":1,
    "remaining":1,
    "bottom":1,
    "unsteady":1,
    "brace":1,
    "loses":1,
    "grip":1,
    "wobbling":1,
    "gait":1,
    "tennis":1,
    "pals":1,
    "torched":1,
    "keeping":1,
    "score":1,
    "fucking":1,
    "banquet":1,
    "went":1,
    "murdered":1,
    "goddamn":1,
    "med":1,
    "wear":1,
    "lying":1,
    "towel":1,
    "edge":1,
    "broad":1,
    "lake":1,
    "thanks":1,
    "near":1,
    "building":1,
    "kirsten":1,
    "glassy":1,
    "unexpectedly":1,
    "finlike":1,
    "objects":1,
    "rise":1,
    "surf":1,
    "shark":1,
    "clearly":1,
    "ascending":1,
    "height":1,
    "notice":1,
    "directly":1,
    "line":1,
    "continue":1,
    "cutting":1,
    "knifelike":1,
    "point":1,
    "changes":1,
    "squinting":1,
    "harsh":1,
    "sunlight":1,
    "raybans":1,
    "backlit":1,
    "towering":1,
    "sunken":1,
    "halfway":1,
    "preventing":1,
    "escape":1,
    "attack":1,
    "shadow":1,
    "burns":1,
    "blisters":1,
    "otherwise":1,
    "pale":1,
    "saunters":1,
    "unaffected":1,
    "quicksand":1,
    "struggle":1,
    "fills":1,
    "sinks":1,
    "below":1,
    "dining":1,
    "fours":1,
    "disoriented":1,
    "bearing":1,
    "crawls":1,
    "flings":1,
    "horrified":1,
    "fire":1,
    "steam":1,
    "catwalk":1,
    "grin":1,
    "defiant":1,
    "cartwheels":1,
    "tormentor":1,
    "caught":1,
    "guard":1,
    "stumbles":1,
    "backwards":1,
    "grating":1,
    "til":1,
    "dizzyhahahahaha":1,
    "neverim":1,
    "slash":1,
    "reflex":1,
    "enraged":1,
    "fresh":1,
    "meat":1,
    "slaps":1,
    "mistake":1,
    "sleeps":1,
    "energy":1,
    "causing":1,
    "smoldering":1,
    "emerges":1,
    "upright":1,
    "breathes":1,
    "bearings":1,
    "snapshot":1,
    "beaming":1,
    "inscription":1,
    "1988":1,
    "disintegrates":1,
    "startling":1,
    "hole":1,
    "reflective":1,
    "allows":1,
    "portion":1,
    "subtly":1,
    "altered":1,
    "enhanced":1,
    "kristins":1,
    "dancing":1,
    "orange":1,
    "blaze":1,
    "charred":1,
    "sunglasses":1,
    "mourning":1,
    "seated":1,
    "surrounds":1,
    "respectful":1,
    "mood":1,
    "letting":1,
    "finish":1,
    "sentence":1,
    "thirds":1,
    "fourths":1,
    "serious":1,
    "took":1,
    "abruptly":1,
    "minute":1,
    "shewell":1,
    "reminded":1,
    "werent":1,
    "moments":1,
    "striking":1,
    "match":1,
    "thumbnail":1,
    "eerily":1,
    "coughs":1,
    "violently":1,
    "faucet":1,
    "immediately":1,
    "splashes":1,
    "ohhhhbaby":1,
    "matching":1,
    "luggage":1,
    "points":1,
    "obvious":1,
    "cramming":1,
    "putting":1,
    "purse":1,
    "withdraws":1,
    "small":1,
    "neat":1,
    "unlike":1,
    "joy":1,
    "buzzer":1,
    "means":1,
    "emits":1,
    "highpitched":1,
    "whine":1,
    "afraid":1,
    "bugs":1,
    "ultra":1,
    "waves":1,
    "em":1,
    "antenna":1,
    "alrightyou":1,
    "forty":1,
    "luck":1,
    "acrobats":1,
    "including":1,
    "poised":1,
    "heavy":1,
    "droops":1,
    "pencil":1,
    "fill":1,
    "writing":1,
    "blinking":1,
    "letters":1,
    "words":1,
    "spell":1,
    "learning":1,
    "drop":1,
    "splatters":1,
    "leaking":1,
    "troubles":1,
    "reacts":1,
    "bar":1,
    "slips":1,
    "entrapping":1,
    "aisle":1,
    "wheeze":1,
    "dozens":1,
    "lift":1,
    "nylon":1,
    "sheetcovered":1,
    "vehicle":1,
    "burp":1,
    "siren":1,
    "part":1,
    "attackwhat":1,
    "17year":1,
    "crap":1,
    "tinker":1,
    "hefts":1,
    "sizes":1,
    "hesitantly":1,
    "photo":1,
    "prettier":1,
    "stronger":1,
    "downstairs":1,
    "investigate":1,
    "flicks":1,
    "warmly":1,
    "fault":1,
    "nah":1,
    "bends":1,
    "blocks":1,
    "view":1,
    "promise":1,
    "habit":1,
    "oversized":1,
    "martini":1,
    "worst":1,
    "alcoholic":1,
    "deterioration":1,
    "seeps":1,
    "burst":1,
    "vessels":1,
    "warped":1,
    "vomits":1,
    "dinner":1,
    "sweaty":1,
    "modified":1,
    "nastier":1,
    "thomas":1,
    "edison":1,
    "iswas":1,
    "zapper":1,
    "toast":1,
    "frame":1,
    "wires":1,
    "slept":1,
    "either":1,
    "miss":1,
    "ability":1,
    "use":1,
    "protect":1,
    "myself":1,
    "insane":1,
    "doin":1,
    "aback":1,
    "appearance":1,
    "lately":1,
    "double":1,
    "money":1,
    "offense":1,
    "anything":1,
    "swallow":1,
    "deaths":1,
    "argue":1,
    "assume":1,
    "whole":1,
    "mix":1,
    "emotions":1,
    "guilt":1,
    "shame":1,
    "anger":1,
    "exhaustion":1,
    "date":1,
    "polished":1,
    "cheerleader":1,
    "type":1,
    "danny":1,
    "drivein":1,
    "jealous":1,
    "hurries":1,
    "frustration":1,
    "boys":1,
    "suiting":1,
    "practice":1,
    "ninetythree":1,
    "worried":1,
    "season":1,
    "entering":1,
    "benches":1,
    "girlfriend":1,
    "asshole":1,
    "blaming":1,
    "feels":1,
    "thinking":1,
    "couldve":1,
    "stopped":1,
    "id":1,
    "listened":1,
    "safe":1,
    "anyway":1,
    "gallows":1,
    "humor":1,
    "bellows":1,
    "bozos":1,
    "society":1,
    "dating":1,
    "ancients":1,
    "regarding":1,
    "aristotle":1,
    "believed":1,
    "during":1,
    "roams":1,
    "skilled":1,
    "dreamers":1,
    "theory":1,
    "gates":1,
    "dreammaster":1,
    "guards":1,
    "protects":1,
    "fewer":1,
    "stall":1,
    "surprise":1,
    "rattle":1,
    "bunch":1,
    "cheerleading":1,
    "costume":1,
    "barge":1,
    "trousers":1,
    "transform":1,
    "change":1,
    "button":1,
    "13":1,
    "shoots":1,
    "astonished":1,
    "shove":1,
    "among":1,
    "pushing":1,
    "disappears":1,
    "ahead":1,
    "burned":1,
    "horrific":1,
    "mess":1,
    "evilly":1,
    "reels":1,
    "slam":1,
    "rocketed":1,
    "downward":1,
    "sequence":1,
    "blurry":1,
    "speaker":1,
    "warrior":1,
    "needs":1,
    "floored":1,
    "angry":1,
    "flails":1,
    "chicken":1,
    "ninja":1,
    "warriors":1,
    "wimpy":1,
    "connects":1,
    "victoriously":1,
    "harikari":1,
    "sayonara":1,
    "lecturers":1,
    "jolt":1,
    "incredible":1,
    "desk":1,
    "fist":1,
    "sending":1,
    "flying":1,
    "soulcrushing":1,
    "nooooo":1,
    "shatter":1,
    "tracks":1,
    "past":1,
    "stalls":1,
    "stopping":1,
    "lifeless":1,
    "tile":1,
    "names":1,
    "nancy":1,
    "donald":1,
    "roland":1,
    "joseph":1,
    "peterson":1,
    "parker":1,
    "victims":1,
    "rustles":1,
    "cemetery":1,
    "funeral":1,
    "mourners":1,
    "gather":1,
    "site":1,
    "disheveled":1,
    "unshaven":1,
    "wreck":1,
    "classmates":1,
    "clutching":1,
    "goof":1,
    "tear":1,
    "alicealice":1,
    "twice":1,
    "war":1,
    "pumps":1,
    "spend":1,
    "hours":1,
    "itll":1,
    "presses":1,
    "authorities":1,
    "trade":1,
    "death":1,
    "adults":1,
    "surety":1,
    "nunchucks":1,
    "happening":1,
    "den":1,
    "slumped":1,
    "soundless":1,
    "tv":1,
    "pathetic":1,
    "lush":1,
    "drunk":1,
    "softens":1,
    "lapses":1,
    "drunken":1,
    "monologue":1,
    "nope":1,
    "lose":1,
    "youyoure":1,
    "stayin":1,
    "becoming":1,
    "clumsily":1,
    "upstairs":1,
    "lamp":1,
    "america":1,
    "bermuda":1,
    "triangle":1,
    "outfitted":1,
    "serve":1,
    "gym":1,
    "equipped":1,
    "weights":1,
    "greets":1,
    "sweats":1,
    "yawns":1,
    "stoned":1,
    "campily":1,
    "cavort":1,
    "diners":1,
    "jukebox":1,
    "scene":1,
    "reefer":1,
    "madness":1,
    "sips":1,
    "adjusts":1,
    "film":1,
    "noooooo":1,
    "shoes":1,
    "shoe":1,
    "theatre":1,
    "zombielike":1,
    "deathlike":1,
    "displaying":1,
    "emotionless":1,
    "vacuums":1,
    "clap":1,
    "shape":1,
    "customers":1,
    "single":1,
    "barren":1,
    "settles":1,
    "slides":1,
    "tattered":1,
    "menu":1,
    "uneasy":1,
    "sixties":1,
    "worked":1,
    "streaked":1,
    "gray":1,
    "person":1,
    "whose":1,
    "passed":1,
    "completely":1,
    "whatll":1,
    "notes":1,
    "badge":1,
    "swivels":1,
    "startled":1,
    "patron":1,
    "service":1,
    "will":1,
    "brings":1,
    "piping":1,
    "hot":1,
    "pizza":1,
    "miniature":1,
    "usual":1,
    "shift":1,
    "horn":1,
    "awakens":1,
    "clearing":1,
    "barrels":1,
    "shaking":1,
    "driving":1,
    "crushing":1,
    "exerts":1,
    "heading":1,
    "weirdest":1,
    "weve":1,
    "puzzled":1,
    "circles":1,
    "crushes":1,
    "trap":1,
    "disgusting":1,
    "racing":1,
    "shock":1,
    "ivecollected":1,
    "others":1,
    "brightness":1,
    "incredibly":1,
    "headlights":1,
    "grow":1,
    "brighter":1,
    "impossibly":1,
    "defiantly":1,
    "middle":1,
    "maniacally":1,
    "oncoming":1,
    "gas":1,
    "punch":1,
    "ticket":1,
    "bears":1,
    "sneer":1,
    "invisible":1,
    "brick":1,
    "trucks":1,
    "totaled":1,
    "fly":1,
    "crumples":1,
    "stone":1,
    "world":1,
    "wrapped":1,
    "axles":1,
    "grill":1,
    "smears":1,
    "relaxes":1,
    "needle":1,
    "smacks":1,
    "hypo":1,
    "stays":1,
    "understand":1,
    "suspicion":1,
    "relents":1,
    "allergic":1,
    "shoulda":1,
    "said":1,
    "emergency":1,
    "intern":1,
    "difficult":1,
    "er":1,
    "operate":1,
    "surgery":1,
    "probably":1,
    "strapped":1,
    "wheel":1,
    "checks":1,
    "quarter":1,
    "forced":1,
    "cranks":1,
    "burning":1,
    "gear":1,
    "sideswipes":1,
    "parked":1,
    "sparks":1,
    "blasts":1,
    "liftgate":1,
    "skidding":1,
    "traffic":1,
    "darkness":1,
    "wheeled":1,
    "eight":1,
    "couldnt":1,
    "hurt":1,
    "pumpshotgun":1,
    "oxygen":1,
    "anesthesia":1,
    "hoses":1,
    "gauges":1,
    "register":1,
    "anesthesiologist":1,
    "preps":1,
    "protesting":1,
    "weakly":1,
    "painno":1,
    "gasno":1,
    "gashave":1,
    "fades":1,
    "trip":1,
    "express":1,
    "load":1,
    "inserting":1,
    "shell":1,
    "vicious":1,
    "precision":1,
    "cocks":1,
    "ends":1,
    "tokens":1,
    "collected":1,
    "improved":1,
    "neck":1,
    "wrist":1,
    "lastly":1,
    "amazonian":1,
    "hoists":1,
    "likes":1,
    "different":1,
    "effect":1,
    "confidant":1,
    "accept":1,
    "destiny":1,
    "forceful":1,
    "determination":1,
    "fuckin":1,
    "shotgun":1,
    "remains":1,
    "supernatural":1,
    "impressive":1,
    "weapon":1,
    "rambo":1,
    "clock":1,
    "surgical":1,
    "greens":1,
    "razorfingers":1,
    "cries":1,
    "dr":1,
    "seuss":1,
    "replaced":1,
    "sonofabitch":1,
    "diving":1,
    "headfirst":1,
    "welcome":1,
    "wonderland":1,
    "nooo":1,
    "doctors":1,
    "wildly":1,
    "hemorrhaging":1,
    "badly":1,
    "chant":1,
    "choir":1,
    "alicceeeee":1,
    "relax":1,
    "son":1,
    "rough":1,
    "ago":1,
    "changed":1,
    "crouches":1,
    "fingerblades":1,
    "flashing":1,
    "delivers":1,
    "perfect":1,
    "knocking":1,
    "lunges":1,
    "pew":1,
    "slashes":1,
    "pounding":1,
    "blows":1,
    "guarding":1,
    "ankle":1,
    "rag":1,
    "doll":1,
    "thrown":1,
    "length":1,
    "crashes":1,
    "confessional":1,
    "booth":1,
    "splintered":1,
    "cracking":1,
    "bones":1,
    "piece":1,
    "stained":1,
    "unbruised":1,
    "scoops":1,
    "chorus":1,
    "ghostly":1,
    "complete":1,
    "blast":1,
    "reflected":1,
    "screams":1,
    "zoom":1,
    "innards":1,
    "struggling":1,
    "break":1,
    "emerge":1,
    "pulsing":1,
    "ripping":1,
    "within":1,
    "tearing":1,
    "flesh":1,
    "erupting":1,
    "directions":1,
    "stretches":1,
    "rips":1,
    "doubles":1,
    "bulges":1,
    "surge":1,
    "upwards":1,
    "straightens":1,
    "swoop":1,
    "zooming":1,
    "dissolve":1,
    "healing":1,
    "bruises":1,
    "weeks":1,
    "walkway":2,
    "being":2,
    "trees":2,
    "lining":2,
    "although":2,
    "moving":2,
    "illustration":2,
    "live":2,
    "lives":2,
    "wheres":2,
    "visible":2,
    "crack":2,
    "sky":2,
    "area":2,
    "creaking":2,
    "noise":2,
    "menacing":2,
    "voices":2,
    "strange":2,
    "dozen":2,
    "young":2,
    "three":2,
    "lock":2,
    "without":2,
    "rushes":2,
    "widen":2,
    "dusty":2,
    "solid":2,
    "cool":2,
    "hall":2,
    "finds":2,
    "dark":2,
    "walls":2,
    "lined":2,
    "ceiling":2,
    "catches":2,
    "couch":2,
    "listen":2,
    "screeching":2,
    "continues":2,
    "word":2,
    "spin":2,
    "lurches":2,
    "thought":2,
    "buried":2,
    "won":2,
    "history":2,
    "touch":2,
    "pipes":2,
    "positions":2,
    "swings":2,
    "void":2,
    "even":2,
    "leaps":2,
    "knocks":2,
    "any":2,
    "vodka":2,
    "alone":2,
    "nearby":2,
    "tree":2,
    "quick":2,
    "avoidallcontactday":2,
    "club":2,
    "becomes":2,
    "rabbit":2,
    "listening":2,
    "tough":2,
    "trig":2,
    "semester":2,
    "dynasty":2,
    "drifts":2,
    "pickup":2,
    "far":2,
    "handsome":2,
    "climbs":2,
    "major":2,
    "league":2,
    "fox":2,
    "waist":2,
    "grows":2,
    "awkward":2,
    "glasses":2,
    "hair":2,
    "hip":2,
    "sense":2,
    "hops":2,
    "pour":2,
    "book":2,
    "speaking":2,
    "yo":2,
    "baby":2,
    "quite":2,
    "our":2,
    "laughing":2,
    "huge":2,
    "crawling":2,
    "stuff":2,
    "cuts":2,
    "center":2,
    "reveals":2,
    "startle":2,
    "telling":2,
    "forearm":2,
    "dogs":2,
    "drag":2,
    "wild":2,
    "boyfriend":2,
    "must":2,
    "pounds":2,
    "thin":2,
    "blue":2,
    "times":2,
    "starting":2,
    "aint":2,
    "squeezes":2,
    "breathing":2,
    "confused":2,
    "straining":2,
    "windshield":2,
    "farther":2,
    "blades":2,
    "dying":2,
    "boy":2,
    "name":2,
    "knees":2,
    "silent":2,
    "swig":2,
    "basket":2,
    "number":2,
    "empties":2,
    "jerks":2,
    "crosses":2,
    "position":2,
    "damn":2,
    "ten":2,
    "christ":2,
    "try":2,
    "taking":2,
    "lost":2,
    "sit":2,
    "would":2,
    "alive":2,
    "wouldnt":2,
    "stand":2,
    "fight":2,
    "arms":2,
    "tires":2,
    "dropping":2,
    "hows":2,
    "knew":2,
    "none":2,
    "charges":2,
    "cigarette":2,
    "show":2,
    "host":2,
    "bear":2,
    "fun":2,
    "used":2,
    "seats":2,
    "killed":2,
    "hold":2,
    "violent":2,
    "guess":2,
    "returns":2,
    "sets":2,
    "smelling":2,
    "salts":2,
    "scream":2,
    "passing":2,
    "nose":2,
    "roll":2,
    "order":2,
    "picks":2,
    "also":2,
    "shifts":2,
    "care":2,
    "closes":2,
    "killer":2,
    "physics":2,
    "works":2,
    "deb":2,
    "bodies":2,
    "skin":2,
    "leave":2,
    "excuse":2,
    "murder":2,
    "sweet":2,
    "tears":2,
    "seem":2,
    "town":2,
    "play":2,
    "neighborhood":2,
    "uncomfortable":2,
    "strong":2,
    "tight":2,
    "spaces":2,
    "seat":2,
    "meet":2,
    "told":2,
    "talk":2,
    "aside":2,
    "freed":2,
    "parents":2,
    "honking":2,
    "elaine":2,
    "gently":2,
    "tonight":2,
    "noticed":2,
    "milk":2,
    "chair":2,
    "case":2,
    "therapy":2,
    "youve":2,
    "sun":2,
    "broken":2,
    "fins":2,
    "shore":2,
    "beyond":2,
    "explodes":2,
    "pops":2,
    "pair":2,
    "burn":2,
    "upside":2,
    "hanging":2,
    "struggles":2,
    "manages":2,
    "discover":2,
    "realizes":2,
    "calls":2,
    "bolt":2,
    "pictures":2,
    "reads":2,
    "left":2,
    "ties":2,
    "tightly":2,
    "forehead":2,
    "suicide":2,
    "accident":2,
    "seconds":2,
    "awful":2,
    "restroom":2,
    "studies":2,
    "mirrors":2,
    "sticks":2,
    "reminiscent":2,
    "spot":2,
    "business":2,
    "made":2,
    "equations":2,
    "blinks":2,
    "yet":2,
    "pen":2,
    "choke":2,
    "didnt":2,
    "ambulance":2,
    "crowd":2,
    "teens":2,
    "breaks":2,
    "pockets":2,
    "gasps":2,
    "shrugs":2,
    "since":2,
    "fridge":2,
    "kick":2,
    "sweater":2,
    "bolts":2,
    "taken":2,
    "apart":2,
    "goes":2,
    "doing":2,
    "extra":2,
    "sink":2,
    "summer":2,
    "survive":2,
    "towns":2,
    "coach":2,
    "every":2,
    "theories":2,
    "positive":2,
    "negative":2,
    "toilet":2,
    "buttons":2,
    "hellish":2,
    "bathroom":2,
    "faster":2,
    "ricksan":2,
    "kicked":2,
    "glove":2,
    "entire":2,
    "bits":2,
    "wood":2,
    "twisted":2,
    "thompson":2,
    "grave":2,
    "nightstalker":2,
    "rubber":2,
    "wont":2,
    "least":2,
    "hangs":2,
    "places":2,
    "studded":2,
    "bracelet":2,
    "blinding":2,
    "rises":2,
    "may":2,
    "backs":2,
    "attic":2,
    "weight":2,
    "patrons":2,
    "balcony":2,
    "making":2,
    "pulled":2,
    "auditorium":2,
    "passes":2,
    "crave":2,
    "inn":2,
    "stool":2,
    "forever":2,
    "food":2,
    "hahaha":2,
    "pepperonis":2,
    "smash":2,
    "pressure":2,
    "bright":2,
    "spurt":2,
    "paramedic":2,
    "hands":2,
    "15":2,
    "gurney":2,
    "10":2,
    "dammit":2,
    "box":2,
    "shells":2,
    "mask":2,
    "pills":2,
    "travel":2,
    "ready":2,
    "minds":2,
    "evil":2,
    "itself":2,
    "shall":2,
    "advances":2,
    "whirls":2,
    "trapped":2,
    "series":3,
    "tiny":3,
    "lay":3,
    "while":3,
    "white":3,
    "residential":3,
    "teenager":3,
    "shows":3,
    "closer":3,
    "almost":3,
    "new":3,
    "yard":3,
    "windows":3,
    "home":3,
    "gasp":3,
    "drawn":3,
    "lightning":3,
    "rain":3,
    "glances":3,
    "gone":3,
    "opening":3,
    "seems":3,
    "though":3,
    "crashing":3,
    "entrance":3,
    "soon":3,
    "rhyme":3,
    "four":3,
    "expression":3,
    "doorway":3,
    "outside":3,
    "calm":3,
    "red":3,
    "shit":3,
    "beauty":3,
    "remember":3,
    "black":3,
    "glow":3,
    "once":3,
    "dog":3,
    "terrified":3,
    "nice":3,
    "pours":3,
    "morning":3,
    "brother":3,
    "ground":3,
    "gives":3,
    "kiss":3,
    "fathers":3,
    "embarrassed":3,
    "schools":3,
    "foot":3,
    "park":3,
    "along":3,
    "leaning":3,
    "trying":3,
    "shake":3,
    "those":3,
    "shy":3,
    "snaps":3,
    "group":3,
    "please":3,
    "scooter":3,
    "short":3,
    "pile":3,
    "smoke":3,
    "wonder":3,
    "asthma":3,
    "might":3,
    "jock":3,
    "sister":3,
    "things":3,
    "good":3,
    "enough":3,
    "reveal":3,
    "push":3,
    "hahahaha":3,
    "pushes":3,
    "final":3,
    "call":3,
    "tosses":3,
    "driveway":3,
    "garage":3,
    "bottle":3,
    "brought":3,
    "gave":3,
    "work":3,
    "am":3,
    "begin":3,
    "drink":3,
    "staring":3,
    "talking":3,
    "answer":3,
    "wake":3,
    "ever":3,
    "learn":3,
    "kicks":3,
    "fighting":3,
    "never":3,
    "longer":3,
    "asleep":3,
    "already":3,
    "find":3,
    "love":3,
    "could":3,
    "control":3,
    "silence":3,
    "make":3,
    "classroom":3,
    "man":3,
    "deep":3,
    "builds":3,
    "strength":3,
    "wasnt":3,
    "walk":3,
    "check":3,
    "save":3,
    "days":3,
    "than":3,
    "matter":3,
    "run":3,
    "weird":3,
    "feel":3,
    "sleeping":3,
    "shatters":3,
    "mother":3,
    "wearing":3,
    "beach":3,
    "slice":3,
    "turn":3,
    "reach":3,
    "raises":3,
    "claw":3,
    "mouth":3,
    "someone":3,
    "power":3,
    "flies":3,
    "bursts":3,
    "flames":3,
    "somethings":3,
    "did":3,
    "dance":3,
    "page":3,
    "paper":3,
    "finally":3,
    "bad":3,
    "paramedics":3,
    "ive":3,
    "using":3,
    "speaks":3,
    "thing":3,
    "true":3,
    "pretty":3,
    "buddy":3,
    "doors":3,
    "familiar":3,
    "force":3,
    "graves":3,
    "speed":3,
    "waits":3,
    "theater":3,
    "screen":3,
    "counter":3,
    "hospital":3,
    "chalk":4,
    "drawing":4,
    "camera":4,
    "holding":4,
    "end":4,
    "thats":4,
    "beautiful":4,
    "krueger":4,
    "drops":4,
    "together":4,
    "hears":4,
    "enters":4,
    "side":4,
    "same":4,
    "step":4,
    "moves":4,
    "feet":4,
    "say":4,
    "both":4,
    "cut":4,
    "large":4,
    "cold":4,
    "wakes":4,
    "himself":4,
    "lands":4,
    "springwood":4,
    "parking":4,
    "stop":4,
    "confusion":4,
    "guys":4,
    "people":4,
    "give":4,
    "died":4,
    "breath":4,
    "jumps":4,
    "lights":4,
    "chest":4,
    "first":4,
    "late":4,
    "long":4,
    "daydream":4,
    "smashes":4,
    "dad":4,
    "kind":4,
    "mom":4,
    "great":4,
    "water":4,
    "god":4,
    "sure":4,
    "nightmares":4,
    "bring":4,
    "getting":4,
    "mind":4,
    "enter":4,
    "cry":4,
    "throws":4,
    "balance":4,
    "feeling":4,
    "nurse":4,
    "stay":4,
    "laugh":4,
    "test":4,
    "guy":4,
    "youll":4,
    "rules":4,
    "why":4,
    "tired":4,
    "saw":4,
    "forward":4,
    "else":4,
    "appears":4,
    "beat":4,
    "bench":4,
    "oriental":4,
    "bandana":4,
    "minutes":4,
    "heard":4,
    "sudden":4,
    "voice":4,
    "gate":4,
    "road":4,
    "operating":4,
    "gun":4,
    "souls":4,
    "revealing":5,
    "leaves":5,
    "across":5,
    "sidewalk":5,
    "walking":5,
    "beside":5,
    "child":5,
    "second":5,
    "form":5,
    "empty":5,
    "very":5,
    "dressed":5,
    "opens":5,
    "old":5,
    "boiler":5,
    "holds":5,
    "figure":5,
    "way":5,
    "furnace":5,
    "yourself":5,
    "father":5,
    "maybe":5,
    "hear":5,
    "window":5,
    "waiting":5,
    "lot":5,
    "happened":5,
    "kill":5,
    "puts":5,
    "friends":5,
    "bit":5,
    "few":5,
    "books":5,
    "huh":5,
    "falls":5,
    "shakes":5,
    "locker":5,
    "faces":5,
    "got":5,
    "need":5,
    "rest":5,
    "keep":5,
    "still":5,
    "believe":5,
    "light":5,
    "gonna":5,
    "runs":5,
    "hard":5,
    "sitting":5,
    "much":5,
    "woman":5,
    "laughs":5,
    "notices":5,
    "oh":5,
    "leans":5,
    "working":5,
    "straight":5,
    "die":5,
    "soul":5,
    "havent":5,
    "each":5,
    "gadget":5,
    "hits":5,
    "hit":5,
    "diner":5,
    "doctor":5,
    "church":5,
    "sits":6,
    "towards":6,
    "which":6,
    "coming":6,
    "toward":6,
    "hallway":6,
    "children":6,
    "tries":6,
    "corner":6,
    "kincaids":6,
    "isnt":6,
    "arm":6,
    "hi":6,
    "sound":6,
    "alright":6,
    "had":6,
    "ya":6,
    "attention":6,
    "where":6,
    "wall":6,
    "mean":6,
    "tell":6,
    "come":6,
    "move":6,
    "whos":6,
    "top":6,
    "watching":6,
    "kitchen":6,
    "or":6,
    "want":6,
    "air":6,
    "surface":6,
    "last":6,
    "looking":6,
    "theyre":6,
    "begins":6,
    "smiles":6,
    "hurry":6,
    "real":6,
    "castle":6,
    "vanity":6,
    "eye":6,
    "free":6,
    "watch":6,
    "movie":6,
    "close":7,
    "image":7,
    "behind":7,
    "slowly":7,
    "seen":7,
    "above":7,
    "moment":7,
    "better":7,
    "take":7,
    "under":7,
    "yeah":7,
    "going":7,
    "whats":7,
    "wrong":7,
    "help":7,
    "heads":7,
    "theres":7,
    "until":7,
    "comes":7,
    "cars":7,
    "life":7,
    "gotta":7,
    "place":7,
    "later":7,
    "elevator":7,
    "too":8,
    "two":8,
    "stops":8,
    "after":8,
    "stares":8,
    "slams":8,
    "shut":8,
    "steps":8,
    "metal":8,
    "us":8,
    "right":8,
    "inside":8,
    "pull":8,
    "floor":8,
    "put":8,
    "okay":8,
    "something":8,
    "kids":8,
    "grabs":8,
    "honey":8,
    "students":8,
    "does":8,
    "hell":8,
    "stands":8,
    "body":8,
    "watches":8,
    "waitress":8,
    "next":8,
    "story":9,
    "their":9,
    "picture":9,
    "start":9,
    "onto":9,
    "only":9,
    "walks":9,
    "reaches":9,
    "other":9,
    "another":9,
    "time":9,
    "against":9,
    "master":9,
    "screaming":9,
    "girls":9,
    "high":9,
    "school":9,
    "lets":9,
    "more":9,
    "bed":9,
    "awake":9,
    "really":9,
    "some":9,
    "glass":9,
    "pulls":10,
    "blood":10,
    "joey":10,
    "hey":10,
    "gets":10,
    "let":10,
    "sorry":10,
    "cmon":10,
    "sand":10,
    "debbies":10,
    "hand":11,
    "dead":11,
    "makes":11,
    "standing":11,
    "youre":11,
    "sleep":11,
    "well":11,
    "ill":11,
    "doesnt":11,
    "dreams":11,
    "ricks":11,
    "head":11,
    "were":12,
    "sheilas":12,
    "little":13,
    "herself":13,
    "bedroom":13,
    "think":13,
    "reflection":13,
    "elm":14,
    "open":14,
    "eyes":14,
    "dans":14,
    "starts":14,
    "girl":15,
    "who":15,
    "sees":15,
    "how":15,
    "go":15,
    "so":15,
    "has":16,
    "do":16,
    "dream":16,
    "table":16,
    "truck":16,
    "car":17,
    "if":17,
    "sheila":17,
    "know":18,
    "mirror":18,
    "be":19,
    "front":19,
    "again":19,
    "about":19,
    "alices":19,
    "debbie":19,
    "face":20,
    "been":20,
    "kristens":20,
    "kincaid":20,
    "suddenly":20,
    "have":20,
    "cant":20,
    "street":21,
    "shes":21,
    "takes":21,
    "look":21,
    "there":21,
    "see":22,
    "here":22,
    "by":22,
    "before":22,
    "when":22,
    "just":23,
    "then":23,
    "them":23,
    "turns":24,
    "can":24,
    "im":24,
    "my":24,
    "get":24,
    "all":24,
    "house":25,
    "freddys":25,
    "away":25,
    "now":25,
    "ext":26,
    "day":26,
    "like":26,
    "one":26,
    "door":26,
    "room":26,
    "johnson":26,
    "no":26,
    "your":26,
    "through":27,
    "not":28,
    "dont":28,
    "was":29,
    "over":29,
    "an":30,
    "hes":31,
    "me":31,
    "off":31,
    "they":32,
    "from":32,
    "what":36,
    "this":37,
    "around":37,
    "down":39,
    "but":40,
    "we":41,
    "dan":41,
    "into":42,
    "that":44,
    "are":46,
    "his":46,
    "looks":47,
    "him":47,
    "its":48,
    "back":50,
    "int":54,
    "for":60,
    "freddy":60,
    "rick":60,
    "with":62,
    "night":62,
    "he":63,
    "at":64,
    "as":65,
    "up":65,
    "out":66,
    "on":83,
    "":85,
    "i":93,
    "kristen":101,
    "is":118,
    "it":121,
    "you":122,
    "she":125,
    "in":136,
    "alice":141,
    "her":176,
    "of":186,
    "to":210,
    "a":239,
    "and":261,
    "the":539
}