{
    "nineteen":1,
    "eightyone":1,
    "6er":1,
    "register":1,
    "quiches":1,
    "single":1,
    "jail":1,
    "which":1,
    "lays":1,
    "cot":1,
    "sportscenter":1,
    "tv":1,
    "sips":1,
    "walkway":1,
    "doorway":1,
    "oversized":1,
    "tshirt":1,
    "beautiful":1,
    "especially":1,
    "standards":1,
    "age":1,
    "hi\ufffdnew":1,
    "yearss":1,
    "resolutions":1,
    "shed":1,
    "launch":1,
    "ships":1,
    "harbor":1,
    "professional":1,
    "modest":1,
    "boxed":1,
    "height":1,
    "weight":1,
    "bony":1,
    "dyed":1,
    "blondes":1,
    "arent":1,
    "asleep":1,
    "stronger":1,
    "forced":1,
    "reeked":1,
    "kissed":1,
    "stripped":1,
    "naked":1,
    "kiss":1,
    "moan":1,
    "confused":1,
    "ripoed":1,
    "handcuffed":1,
    "jerked":1,
    "headboard":1,
    "babe":1,
    "a1il":1,
    "discarded":1,
    "clothes":1,
    "guiney":1,
    "tore":1,
    "speeding":1,
    "1985":1,
    "homecoming":1,
    "king":1,
    "built":1,
    "brick":1,
    "shithouse":1,
    "35":1,
    "hasbeens":1,
    "suit":1,
    "team":1,
    "write":1,
    "limits":1,
    "apply":1,
    "former":1,
    "quarterbacks":1,
    "unseen":1,
    "recognize":1,
    "flipping":1,
    "mans":1,
    "f\ufffd\ufffdns":1,
    "a\ufffdns":1,
    "knee":1,
    "moves":1,
    "rips":1,
    "warning":1,
    "seatbelt":1,
    "heels":1,
    "wondering":1,
    "bring":1,
    "stock":1,
    "launder":1,
    "che":1,
    "twothirty":1,
    "glumly":1,
    "crossing":1,
    "sash":1,
    "handheld":1,
    "shoot":1,
    "cfae":1,
    "chat":1,
    "sparsely":1,
    "filled":1,
    "collection":1,
    "knives":1,
    "odd":1,
    "pieces":1,
    "marked":1,
    "23432":1,
    "extradite":1,
    "radar":1,
    "shelf":1,
    "anyway":1,
    "print":1,
    "bumper":1,
    "stickers":1,
    "ye=s":1,
    "prick":1,
    "dies":1,
    "friday":1,
    "weekend":1,
    "nerve":1,
    "dent":1,
    "vii":1,
    "module":1,
    "activated":1,
    "map":1,
    "represented":1,
    "blinking":1,
    "blip":1,
    "screen":1,
    "cramped":1,
    "furniture":1,
    "scattered":1,
    "di":1,
    "plomas":1,
    "dominate":1,
    "mid":1,
    "30s":1,
    "plays":1,
    "bronze":1,
    "fingers":1,
    "whod":1,
    "piss":1,
    "dungeon":1,
    "studies":1,
    "bit":1,
    "setback":1,
    "cancers":1,
    "remission":1,
    "fact":1,
    "aggressively":1,
    "attacked":1,
    "liver":1,
    "lungs":1,
    "worse":1,
    "world":1,
    "crashing":1,
    "difficultann":1,
    "refuses":1,
    "counselor":1,
    "longer":1,
    "console":1,
    "extends":1,
    "staying":1,
    "notann":1,
    "appreciate":1,
    "pleaseann":1,
    "somethingfrieland":1,
    "toughest":1,
    "mayo":1,
    "clinic":1,
    "experimental":1,
    "treatments":1,
    "60":1,
    "alon\ufffd":1,
    "absorbing":1,
    "chin":1,
    "chest":1,
    "keys":1,
    "silence":1,
    "lost":1,
    "gambling":1,
    "doctorsann":1,
    "millions":1,
    "bet":1,
    "losing":1,
    "teams":1,
    "hers":1,
    "grade":1,
    "greens":1,
    "class":1,
    "panties":1,
    "anymore":1,
    "drag":1,
    "swings":1,
    "gently":1,
    "band\u00ad":1,
    "aid":1,
    "rt":1,
    "painful":1,
    "worst":1,
    "example":1,
    "fights":1,
    "urge":1,
    "turn":1,
    "falling":1,
    "obviously":1,
    "consideration":1,
    "deliveryman":1,
    "bouquet":1,
    "carries":1,
    "cubicle":1,
    "gumpopping":1,
    "hygienist":1,
    "haul":1,
    "oooh":1,
    "weak":1,
    "smile":1,
    "thinner":1,
    "dark":1,
    "circles":1,
    "signing":1,
    "wasyour":1,
    "questions":1,
    "pov":1,
    "happen":1,
    "abilities":1,
    "share":1,
    "gnight":1,
    "holler":1,
    "shuts":1,
    "binoculars":1,
    "pistons":1,
    "shrugs":1,
    "refill":1,
    "aint":1,
    "bribe":1,
    "beers":1,
    "snuck":1,
    "atlll":1,
    "count":1,
    "thumb":1,
    "buds":1,
    "scurried":1,
    "balls":1,
    "confront":1,
    "amy":1,
    "wifes":1,
    "shitty":1,
    "deserve":1,
    "hed":1,
    "rather":1,
    "near":1,
    "wrong":1,
    "threats":1,
    "peoples":1,
    "obligated":1,
    "lucky":1,
    "understands":1,
    "corning":1,
    "best":1,
    "willya":1,
    "dad":1,
    "rent":1,
    "lake":1,
    "writes":1,
    "\ufffdf":1,
    "plans":1,
    "bundle":1,
    "energy":1,
    "brownstone":1,
    "greeted":1,
    "tall":1,
    "impeccably":1,
    "salesman":1,
    "earth":1,
    "sell":1,
    "pleasure":1,
    "viatical":1,
    "settlement":1,
    "giving":1,
    "dreamed":1,
    "deserted":1,
    "hawaii":1,
    "bulls":1,
    "pompeii":1,
    "geography":1,
    "lesson":1,
    "limit":1,
    "imagination":1,
    "someones":1,
    "homework":1,
    "personally":1,
    "purchase":1,
    "collect":1,
    "however":1,
    "assure":1,
    "maximizing":1,
    "profits":1,
    "objective":1,
    "investment":1,
    "fell":1,
    "average":1,
    "mutual":1,
    "determine":1,
    "buyout":1,
    "consultation":1,
    "staff":1,
    "dependent":1,
    "variety":1,
    "many":1,
    "quote":1,
    "generally":1,
    "categoryann":1,
    "whose":1,
    "standard":1,
    "payout":1,
    "categoryis":1,
    "between":1,
    "seventy":1,
    "math":1,
    "move":1,
    "sleep":1,
    "itann":1,
    "mar":1,
    "ty":1,
    "practically":1,
    "floats":1,
    "loudest":1,
    "scream":1,
    "joy":1,
    "uniform":1,
    "employee":1,
    "magazine":1,
    "oogling":1,
    "expensive":1,
    "sports":1,
    "humvee":1,
    "attendant":1,
    "gurney":1,
    "boxes":1,
    "anywhere":1,
    "days":1,
    "provision":1,
    "daysmarty":1,
    "fixable":1,
    "broom":1,
    "dustpan":1,
    "gesture":1,
    "pisses":1,
    "clean":1,
    "messes":1,
    "sweeping":1,
    "ignored":1,
    "misdemeanor":1,
    "nope":1,
    "felony":1,
    "needed":1,
    "papers":1,
    "cantplease":1,
    "goingann":1,
    "youhelp":1,
    "follow":1,
    "dawns":1,
    "\ufffdolice":1,
    "smashed":1,
    "marks":1,
    "deposit":1,
    "box":1,
    "ut":1,
    "replace":1,
    "duffel":1,
    "arresting":1,
    "conclusion":1,
    "trial":1,
    "graveyard":1,
    "eleven":1,
    "maitty":1,
    "ready":1,
    "acting":1,
    "touch":1,
    "tickets":1,
    "rubs":1,
    "watch":1,
    "pacing":1,
    "tone":1,
    "accidents":1,
    "auls":1,
    "dawn":1,
    "halfasleep":1,
    "smash":1,
    "cut":1,
    "paulie":1,
    "debris":1,
    "stomp":1,
    "embers":1,
    "charred":1,
    "beyond":1,
    "recognition":1,
    "pukes":1,
    "chiefs":1,
    "boots":1,
    "remain":1,
    "composed":1,
    "ajlns":1,
    "propane":1,
    "jack":1,
    "problems":1,
    "lay":1,
    "1umb":1,
    "showing":1,
    "shoves":1,
    "storms":1,
    "lu\ufffdns":1,
    "load":1,
    "greeting":1,
    "offers":1,
    "owe":1,
    "fifty":1,
    "service":1,
    "uonly":1,
    "prevent":1,
    "forest":1,
    "fires":1,
    "+waving":1,
    "investigators":1,
    "sifting":1,
    "ashes":1,
    "hushed":1,
    "tones":1,
    "whistles":1,
    "caught":1,
    "yaeger":1,
    "dick":1,
    "twentyfour":1,
    "sherriff":1,
    "boys":1,
    "club":1,
    "trip":1,
    "men":1,
    "shop":1,
    "catch":1,
    "preoccupied":1,
    "yep":1,
    "wrote":1,
    "hightech":1,
    "prefer":1,
    "gay":1,
    "works":1,
    "allows":1,
    "track":1,
    "wherever":1,
    "useless":1,
    "sells":1,
    "use":1,
    "advertising":1,
    "local":1,
    "swear":1,
    "tracking":1,
    "doesn":1,
    "death":1,
    "despondent":1,
    "distracted":1,
    "seem":1,
    "shaken":1,
    "truly":1,
    "enemies":1,
    "troubles":1,
    "fifties":1,
    "oblivious":1,
    "activity":1,
    "quite":1,
    "sunk":1,
    "lazy":1,
    "bones":1,
    "hides":1,
    "spins":1,
    "sets":1,
    "feigning":1,
    "interest":1,
    "cown":1,
    "quit":1,
    "terminal":1,
    "behavior":1,
    "affair":1,
    "spin":1,
    "chewing":1,
    "gum":1,
    "warily":1,
    "talkative":1,
    "wed":1,
    "happening":1,
    "stories":1,
    "stuffmarty":1,
    "liking":1,
    "proof":1,
    "broke":1,
    "whips":1,
    "nancy":1,
    "onto":1,
    "onramp":1,
    "wan\ufffda":1,
    "shifts":1,
    "uncomfortably":1,
    "dropping":1,
    "hanging":1,
    "unless":1,
    "downed":1,
    "highlights":1,
    "plus":1,
    "doubles":1,
    "drop":1,
    "reason":1,
    "donovans":1,
    "office1":1,
    "vote":1,
    "third":1,
    "liar":1,
    "chauvinist":1,
    "knew":1,
    "invited":1,
    "\ufffdnns":1,
    "chose":1,
    "internist":1,
    "fmo":1,
    "directory":1,
    "exam":1,
    "patient":1,
    "puke":1,
    "steadies":1,
    "hard":1,
    "emerges":1,
    "basement":1,
    "comoletelv":1,
    "emotv":1,
    "daze":1,
    "bare":1,
    "used":1,
    "diplomas":1,
    "reduced":1,
    "firewood":1,
    "backs":1,
    "slumps":1,
    "ooener":1,
    "fiddling":1,
    "stomach":1,
    "catatonic":1,
    "betrayal":1,
    "sinking":1,
    "blow":1,
    "words":1,
    "trance":1,
    "results":1,
    "excuses":1,
    "twenty\u00ad":1,
    "answer":1,
    "mustve":1,
    "pure":1,
    "bumping":1,
    "realize":1,
    "turned":1,
    "drawing":1,
    "keeping":1,
    "scratching":1,
    "itch":1,
    "partially":1,
    "obscures":1,
    "general":1,
    "hack":1,
    "spared":1,
    "bells":1,
    "view":1,
    "synapses":1,
    "firing":1,
    "carol":1,
    "such":1,
    "young":1,
    "familiarmarty":1,
    "supermarket":1,
    "superrnarket":1,
    "tuesday":1,
    "thursday":1,
    "book":1,
    "mug":1,
    "shots":1,
    "corkboard":1,
    "seized":1,
    "15":1,
    "fifteenth":1,
    "womans":1,
    "harrisons":1,
    "technically":1,
    "millionaire":1,
    "believed":1,
    "recovery":1,
    "inception":1,
    "24th":1,
    "needless":1,
    "raps":1,
    "timeagent":1,
    "evidenc\ufffd":1,
    "yearagent":1,
    "clear":1,
    "ongoing":1,
    "cooperation":1,
    "fbi":1,
    "atf":1,
    "foreign":1,
    "governments":1,
    "shits":1,
    "rules":1,
    "menll":1,
    "themmarty":1,
    "curious":1,
    "outburst":1,
    "perfectly":1,
    "healthy":1,
    "pretended":1,
    "size":1,
    "pretend":1,
    "faster":1,
    "remind":1,
    "jig":1,
    "huddled":1,
    "deputies":1,
    "potential":1,
    "mocive":1,
    "havent":1,
    "crime":1,
    "holy":1,
    "chick":1,
    "walked":1,
    "beeping":1,
    "os":1,
    "telephone":1,
    "unloved":1,
    "faxed":1,
    "pissed":1,
    "emailed":1,
    "steals":1,
    "writers":1,
    "block":1,
    "jaywalking":1,
    "double":1,
    "beeps":1,
    "tray":1,
    "2482345853":1,
    "martin":1,
    "replaced":1,
    "2482345100":1,
    "pizza":1,
    "disappearing":1,
    "printer":1,
    "copying":1,
    "pasting":1,
    "deletes":1,
    "pages":1,
    "wiggle":1,
    "cord":1,
    "waah":1,
    "halfprinted":1,
    "read":1,
    "toners":1,
    "screwed":1,
    "ones":1,
    "charlie":1,
    "maroni":1,
    "extint":1,
    "carrying":1,
    "folder":1,
    "chirps":1,
    "american":1,
    "airlines":1,
    "eight":1,
    "hums":1,
    "dragnet":1,
    "theme":1,
    "piece":1,
    "database":1,
    "lines":1,
    "2343494":1,
    "lady":1,
    "saybaste":1,
    "leno":1,
    "conceal":1,
    "slips":1,
    "scrolling":1,
    "functions":1,
    "option":1,
    "function":1,
    "scrolls":1,
    "vibrate":1,
    "midring":1,
    "connections":1,
    "cellular":1,
    "customer":1,
    "unavailable":1,
    "traveled":1,
    "assigned":1,
    "list":1,
    "accounting":1,
    "sweating":1,
    "countychae":1,
    "paramedic":1,
    "games":1,
    "phones":1,
    "absorbs":1,
    "drinking":1,
    "buddies":1,
    "mentioned":1,
    "earlier":1,
    "bar":1,
    "friend":1,
    "valerie":1,
    "hanson":1,
    "live":1,
    "fallbrook":1,
    "5342348":1,
    "shell":1,
    "shouldve":1,
    "scene":1,
    "statement":1,
    "sleeping":1,
    "al\ufffd":1,
    "given":1,
    "autopsy":1,
    "trace":1,
    "trouble":1,
    "generous":1,
    "hair":1,
    "martylaughs":1,
    "wearily":1,
    "explain":1,
    "blew":1,
    "alibi":1,
    "matched":1,
    "military":1,
    "thirtysix":1,
    "fiske":1,
    "magaway":1,
    "tangled":1,
    "webs":1,
    "weave":1,
    "xray":1,
    "technician":1,
    "brakes":1,
    "opposite":1,
    "directions":1,
    "canadian":1,
    "border":1,
    "85":1,
    "miles":1,
    "bottom":1,
    "ninth":1,
    "zlnd":1,
    "play":1,
    "softball":1,
    "humor":1,
    "offer":1,
    "pina":1,
    "colada":1,
    "music":1,
    "stoos":1,
    "measuring":1,
    "odds":1,
    "corresponds":1,
    "term":1,
    "edges":1,
    "listed":1,
    "air":1,
    "stuffy":1,
    "downstairs":1,
    "beprocessed":1,
    "connect":1,
    "saturdays":1,
    "albany":1,
    "flicks":1,
    "clerks":1,
    "seats":1,
    "ot":1,
    "2":1,
    "giants":1,
    "game":1,
    "wheels":1,
    "bin":1,
    "bitch":1,
    "named":1,
    "ar1n":1,
    "sorting":1,
    "bins":1,
    "tearing":1,
    "envelopes":1,
    "martv":1,
    "rap":1,
    "outstanding":1,
    "lawabiding":1,
    "citizen":1,
    "wedged":1,
    "gas":1,
    "stationmarty":1,
    "joins":1,
    "outgoing":1,
    "dol":1,
    "banks":1,
    "cartel":1,
    "hundreds":1,
    "robbina":1,
    "fuckup":1,
    "warrant":1,
    "shouldnt":1,
    "flinches":1,
    "stole":1,
    "cold":1,
    "manager":1,
    "eat":1,
    "gone":1,
    "amherst":1,
    "complete":1,
    "idiot":1,
    "sympathetically":1,
    "happens":1,
    "wallets":1,
    "draws":1,
    "inserts":1,
    "electronic":1,
    "clicks":1,
    "probing":1,
    "nowhere":1,
    "exit":1,
    "shower":1,
    "curtain":1,
    "main":1,
    "wham":1,
    "eeeee":1,
    "red":1,
    "claws":1,
    "franklin":1,
    "yards":1,
    "abruptly":1,
    "se\ufffds":1,
    "escape":1,
    "elevators":1,
    "walksruns":1,
    "noticed":1,
    "ouick":1,
    "180":1,
    "leading":1,
    "footsteps":1,
    "pound":1,
    "rushing":1,
    "spread":1,
    "cart":1,
    "stairwell":1,
    "closes":1,
    "landing":1,
    "stashes":1,
    "r=ning":1,
    "downmarty":1,
    "retrieves":1,
    "bumps":1,
    "itslobby":1,
    "doors":1,
    "widen":1,
    "reveal":1,
    "standing":1,
    "visible":1,
    "burst":1,
    "dumpster":1,
    "tip":1,
    "nervously":1,
    "upstairs":1,
    "follows":1,
    "glimpse":1,
    "neck":1,
    "jacket":1,
    "handprints":1,
    "cops":1,
    "fingerprints":1,
    "disqualify":1,
    "pointed":1,
    "bath":1,
    "pretending":1,
    "smelling":1,
    "salts":1,
    "heading":1,
    "billy":1,
    "mention":1,
    "suspect":1,
    "exactly":1,
    "try":1,
    "prove":1,
    "innocencemarty":1,
    "selfdefense":1,
    "bangup":1,
    "needmy":1,
    "booth":1,
    "suspects":1,
    "involved":1,
    "recommends":1,
    "solving":1,
    "ulterior":1,
    "youalex":1,
    "forward":1,
    "stupid":1,
    "depends":1,
    "coyly":1,
    "stupidest":1,
    "blushes":1,
    "speaking":1,
    "taken":1,
    "frost":1,
    "regrets":1,
    "choice":1,
    "kingdom":1,
    "badly":1,
    "thinks":1,
    "weary":1,
    "mask":1,
    "comforted":1,
    "genuine":1,
    "affection":1,
    "interrupted":1,
    "buddy":1,
    "heaven":1,
    "control":1,
    "excitement":1,
    "possible":1,
    "lead":1,
    "ou\ufffd":1,
    "counts":1,
    "punches":1,
    "naturedly":1,
    "f\ufffdrst":1,
    "opening":1,
    "squeezes":1,
    "spot":1,
    "parked":1,
    "subtle":1,
    "postit":1,
    "shoe":1,
    "handwriting":1,
    "reaction":1,
    "wince":1,
    "breaks":1,
    "werentmarty":1,
    "girlfriend":1,
    "bore":1,
    "understand":1,
    "eventually":1,
    "ove\ufffd":1,
    "sent":1,
    "t\ufffde":1,
    "dentist":1,
    "+shakes":1,
    "statements":1,
    "hirn":1,
    "tells":1,
    "charade":1,
    "answers":1,
    "pause":1,
    "surprise":1,
    "tomarty":1,
    "funny":1,
    "laying":1,
    "frozen":1,
    "fiber":1,
    "switched":1,
    "similarities":1,
    "differences":1,
    "logical":1,
    "emotional":1,
    "sides":1,
    "war":1,
    "st\ufffdl\ufffd":1,
    "ge\ufffd":1,
    "ma\ufffd\ufffdy":1,
    "al+":1,
    "feverishly":1,
    "uncover":1,
    "tjlrty":1,
    "0":1,
    "3ut":1,
    "l":1,
    "hat":1,
    "entrance":1,
    "stall":1,
    "automated":1,
    "city":1,
    "listing":1,
    "seated":1,
    "thi\ufffdk":1,
    "anyth\ufffdng":1,
    "0\u00a3":1,
    "reoort":1,
    "th\ufffds":1,
    "died":1,
    "lmd":1,
    "spoke":1,
    "morning":1,
    "eleven\ufffdhirty":1,
    "thank":1,
    "knockknock":1,
    "finishing":1,
    "closer":1,
    "together":1,
    "fuller":1,
    "balder":1,
    "satisfied":1,
    "reached":1,
    "drawer":1,
    "dollars":1,
    "forget":1,
    "digests":1,
    "deal":1,
    "twentyfive":1,
    "nonchalantly":1,
    "finished":1,
    "blankly":1,
    "none":1,
    "\ufffdh":1,
    "buying":1,
    "scoops":1,
    "stons":1,
    "tonvs":1,
    "startslooking":1,
    "totally":1,
    "deflated":1,
    "groggy":1,
    "blaring":1,
    "whites":1,
    "duckwalks":1,
    "pries":1,
    "fg":1,
    "crawling":1,
    "crawls":1,
    "metallic":1,
    "deptjty":1,
    "listens":1,
    "ta":1,
    "1n":1,
    "roadblocks":1,
    "perimeter":1,
    "state":1,
    "major":1,
    "highways":1,
    "white":1,
    "re":1,
    "walst":1,
    "pop":1,
    "sir":1,
    "pops":1,
    "clutches":1,
    "gowers":1,
    "pond":1,
    "spend":1,
    "christi":1,
    "caring":1,
    "aljn":1,
    "smashes":1,
    "zum":1,
    "ahhhhhh":1,
    "nearly":1,
    "passes":1,
    "form":1,
    "amost":1,
    "source":1,
    "werent":1,
    "lose":1,
    "rest":1,
    "meann":1,
    "matter":1,
    "whoops":1,
    "bullets":1,
    "milrty":1,
    "afford":1,
    "locksmith":1,
    "a\ufffdn":1,
    "colder":1,
    "barrel":1,
    "hammer":1,
    "crashes":1,
    "revealing":1,
    "bullet":1,
    "pool":1,
    "blood":1,
    "knight":1,
    "shining":1,
    "armor":1,
    "acknowledge":1,
    "pulse":1,
    "finally":1,
    "smiling":1,
    "lowers":1,
    "handcuffs":1,
    "matching":1,
    "1eg":1,
    "birthday":1,
    "forgetting":1,
    "moneys":1,
    "heavy":1,
    "bleeding":1,
    "slings":1,
    "ushers":1,
    "fill":1,
    "details":1,
    "missing":1,
    "sweetly":1,
    "flights":1,
    "consolation":1,
    "mom":1,
    "foot":1,
    "snow":1,
    "motor":1,
    "shore":1,
    "airport":1,
    "inside":1,
    "whiteasaghost":1,
    "gaudy":1,
    "hawaiian":1,
    "f1e":1,
    "aowm":1,
    "nere":1,
    "ro":1,
    "brna":1,
    "mv":1,
    "did\ufffdt":1,
    "ruin":1,
    "electric":1,
    "including":1,
    "publishers":1,
    "clearinghouse":1,
    "sweepstakes":1,
    "envelope":1,
    "ooened":1,
    "alreadv":1,
    "1000000":1,
    "lower":1,
    "corner":1,
    "116423":1,
    "rack":2,
    "5":2,
    "note":2,
    "bud":2,
    "area":2,
    "kept":2,
    "couldnt":2,
    "least":2,
    "whether":2,
    "looked":2,
    "ugly":2,
    "windows":2,
    "pretends":2,
    "uhhuh":2,
    "continues":2,
    "fight":2,
    "glad":2,
    "am":2,
    "moved":2,
    "quichos":2,
    "kidding":2,
    "jay":2,
    "problem":2,
    "driver":2,
    "law":2,
    "speed":2,
    "everybody":2,
    "laughs":2,
    "lover":2,
    "barely":2,
    "pats":2,
    "leg":2,
    "falls":2,
    "consider":2,
    "welcome":2,
    "present":2,
    "fuck":2,
    "newspaper":2,
    "picture":2,
    "seven":2,
    "fund":2,
    "percent":2,
    "return":2,
    "dean":2,
    "ceae":2,
    "business":2,
    "loaded":2,
    "locker":2,
    "guns":2,
    "100":2,
    "bills":2,
    "tough":2,
    "asshole":2,
    "tired":2,
    "couch":2,
    "question":2,
    "diner":2,
    "ivy":2,
    "walls":2,
    "enter":2,
    "seems":2,
    "turning":2,
    "theyve":2,
    "fix":2,
    "brother":2,
    "shake":2,
    "afraid":2,
    "bullshit":2,
    "believe":2,
    "respond":2,
    "york":2,
    "deep":2,
    "stumbles":2,
    "locked":2,
    "laughing":2,
    "tears":2,
    "drives":2,
    "keeps":2,
    "stealing":2,
    "heart":2,
    "breaking":2,
    "feel":2,
    "chriss":2,
    "die":2,
    "wont":2,
    "exwife":2,
    "ours":2,
    "herself":2,
    "sheet":2,
    "dressed":2,
    "quickly":2,
    "might":2,
    "peeling":2,
    "r":2,
    "bandaid":2,
    "every":2,
    "health":2,
    "important":2,
    "brings":2,
    "flowers":2,
    "under":2,
    "yesterday":2,
    "honest":2,
    "lie":2,
    "howya":2,
    "prowler":2,
    "mind":2,
    "hit":2,
    "checking":2,
    "lights":2,
    "suck":2,
    "bartender":2,
    "tonight":2,
    "nobody":2,
    "leaving":2,
    "crazy":2,
    "trash":2,
    "garbage":2,
    "full":2,
    "fifteen":2,
    "times":2,
    "anyways":2,
    "though":2,
    "pussy":2,
    "unlike":2,
    "youd":2,
    "11":2,
    "lives":2,
    "deano":2,
    "does":2,
    "change":2,
    "downtown":2,
    "handinhand":2,
    "front":2,
    "must":2,
    "walking":2,
    "along":2,
    "beach":2,
    "point":2,
    "passed":2,
    "medical":2,
    "factors":2,
    "eighty":2,
    "flips":2,
    "cars":2,
    "body":2,
    "morgue":2,
    "unlocks":2,
    "somewhere":2,
    "glass":2,
    "cleaning":2,
    "touched":2,
    "boat":2,
    "leads":2,
    "shocked":2,
    "shaking":2,
    "worked":2,
    "kitchen":2,
    "stay":2,
    "possession":2,
    "department":2,
    "\ufffd":2,
    "drinks":2,
    "pm":2,
    "burned":2,
    "grab":2,
    "ya":2,
    "leans":2,
    "woke":2,
    "bucks":2,
    "bear":2,
    "stand":2,
    "wouldnt":2,
    "dashboard":2,
    "heres":2,
    "hayseeds":2,
    "speak":2,
    "system":2,
    "expecting":2,
    "loss":2,
    "side":2,
    "hesitates":2,
    "perfect":2,
    "marriage":2,
    "sheriffs":2,
    "pick":2,
    "quiet":2,
    "maty":2,
    "weird":2,
    "sometimes":2,
    "whispering":2,
    "nik":2,
    "dated":2,
    "weeks":2,
    "definitely":2,
    "send":2,
    "forms":2,
    "margaritas":2,
    "conference":2,
    "apologize":2,
    "usually":2,
    "wish":2,
    "miss":2,
    "donovan":2,
    "sense":2,
    "today":2,
    "staggers":2,
    "brain":2,
    "hurries":2,
    "empty":2,
    "kicking":2,
    "slides":2,
    "checkup":2,
    "pay":2,
    "pulling":2,
    "companys":2,
    "dragging":2,
    "women":2,
    "terror":2,
    "woman":2,
    "artist":2,
    "shows":2,
    "mam":2,
    "scrutinizes":2,
    "eyewitness":2,
    "blocks":2,
    "article":2,
    "bust":2,
    "2001":2,
    "digs":2,
    "bankrupt":2,
    "copy":2,
    "news":2,
    "scans":2,
    "miracle":2,
    "lab":2,
    "guess":2,
    "investigation":2,
    "sometime":2,
    "boss":2,
    "once":2,
    "hells":2,
    "these":2,
    "address":2,
    "hour":2,
    "hears":2,
    "bell":2,
    "atlantic":2,
    "incoming":2,
    "murder":2,
    "beep":2,
    "accidentally":2,
    "word":2,
    "land":2,
    "dial":2,
    "ringer":2,
    "supposed":2,
    "wouldve":2,
    "disbelief":2,
    "christ":2,
    "fucked":2,
    "motive":2,
    "dollar":2,
    "signs":2,
    "mile":2,
    "canadas":2,
    "preciate":2,
    "drive":2,
    "pissedoff":2,
    "equally":2,
    "huge":2,
    "searching":2,
    "receipt":2,
    "busy":2,
    "solve":2,
    "break":2,
    "murders":2,
    "fetzer":2,
    "215":2,
    "key":2,
    "pass":2,
    "hello":2,
    "emergency":2,
    "alarm":2,
    "floors":2,
    "4th":2,
    "knocks":2,
    "half":2,
    "pulled":2,
    "cautiously":2,
    "lies":2,
    "unconscious":2,
    "sticks":2,
    "wakes":2,
    "wants":2,
    "dusting":2,
    "howd":2,
    "radio":2,
    "killed":2,
    "cup":2,
    "neither":2,
    "helps":2,
    "step":2,
    "slight":2,
    "exaggeration":2,
    "thinking":2,
    "truth":2,
    "big":2,
    "production":2,
    "crawl":2,
    "honesty":2,
    "reflection":2,
    "talked":2,
    "locks":2,
    "twenty":2,
    "sirens":2,
    "hits":2,
    "cab":2,
    "stack":2,
    "kicks":2,
    "dresser":2,
    "twice":2,
    "fool":2,
    "hole":2,
    "drawn":2,
    "cash":3,
    "large":3,
    "watching":3,
    "league":3,
    "thousand":3,
    "less":3,
    "moving":3,
    "kinda":3,
    "type":3,
    "happened":3,
    "whatd":3,
    "top":3,
    "yours":3,
    "awful":3,
    "hops":3,
    "until":3,
    "tank":3,
    "football":3,
    "ticket":3,
    "changed":3,
    "new":3,
    "passenger":3,
    "laugh":3,
    "doctors":3,
    "appointment":3,
    "costa":3,
    "rica":3,
    "fishing":3,
    "guard":3,
    "sign":3,
    "kill":3,
    "interested":3,
    "case":3,
    "ignores":3,
    "chaes":3,
    "afternoon":3,
    "gps":3,
    "annie":3,
    "files":3,
    "nervous":3,
    "opener":3,
    "hi":3,
    "bob":3,
    "while":3,
    "file":3,
    "devastated":3,
    "part":3,
    "different":3,
    "start":3,
    "most":3,
    "mrs":3,
    "clutching":3,
    "arms":3,
    "pain":3,
    "already":3,
    "nikki":3,
    "lemme":3,
    "took":3,
    "stopped":3,
    "myself":3,
    "anderson":3,
    "ask":3,
    "trust":3,
    "reading":3,
    "woods":3,
    "years":3,
    "anybody":3,
    "telling":3,
    "feeling":3,
    "married":3,
    "voice":3,
    "except":3,
    "eye":3,
    "taps":3,
    "making":3,
    "serious":3,
    "street":3,
    "steps":3,
    "course":3,
    "below":3,
    "expectancy":3,
    "holding":3,
    "someone":3,
    "closet":3,
    "being":3,
    "dissolve":3,
    "660000":3,
    "youll":3,
    "worried":3,
    "hear":3,
    "fade":3,
    "black":3,
    "saying":3,
    "having":3,
    "ground":3,
    "smokey":3,
    "huh":3,
    "\u00ad":3,
    "arson":3,
    "happy":3,
    "til":3,
    "ride":3,
    "hicks":3,
    "gave":3,
    "idea":3,
    "either":3,
    "hasnt":3,
    "dentists":3,
    "coming":3,
    "snyder":3,
    "keep":3,
    "nah":3,
    "would":3,
    "highway":3,
    "will":3,
    "says":3,
    "frielands":3,
    "talks":3,
    "feet":3,
    "ring":3,
    "seen":3,
    "yet":3,
    "shame":3,
    "411":3,
    "drug":3,
    "may":3,
    "moment":3,
    "fast":3,
    "friends":3,
    "able":3,
    "warrants":3,
    "report":3,
    "enough":3,
    "behind":3,
    "calling":3,
    "whos":3,
    "million":3,
    "seat":3,
    "more":3,
    "close":3,
    "agents":3,
    "deputy":3,
    "pauses":3,
    "bursts":3,
    "guards":3,
    "mirror":3,
    "stare":3,
    "don":3,
    "trunk":3,
    "hut":3,
    "jesus":4,
    "getting":4,
    "bill":4,
    "wearing":4,
    "probably":4,
    "things":4,
    "man":4,
    "checks":4,
    "himself":4,
    "shirt":4,
    "finds":4,
    "cmon":4,
    "left":4,
    "actually":4,
    "instead":4,
    "seeing":4,
    "everything":4,
    "fine":4,
    "holds":4,
    "grand":4,
    "whole":4,
    "almost":4,
    "bag":4,
    "bunch":4,
    "pushes":4,
    "kind":4,
    "three":4,
    "sits":4,
    "hows":4,
    "great":4,
    "damn":4,
    "everywhere":4,
    "letter":4,
    "please":4,
    "sit":4,
    "listening":4,
    "job":4,
    "stuff":4,
    "drops":4,
    "arm":4,
    "both":4,
    "glances":4,
    "forgot":4,
    "dying":4,
    "mine":4,
    "real":4,
    "love":4,
    "first":4,
    "wanna":4,
    "always":4,
    "reaches":4,
    "card":4,
    "found":4,
    "remember":4,
    "told":4,
    "doing":4,
    "judy":4,
    "quick":4,
    "makes":4,
    "later":4,
    "gestures":4,
    "taking":4,
    "beer":4,
    "next":4,
    "respect":4,
    "wife":4,
    "cop":4,
    "finishes":4,
    "walsh":4,
    "lobby":4,
    "opportunity":4,
    "running":4,
    "name":4,
    "lock":4,
    "plan":4,
    "bank":4,
    "company":4,
    "table":4,
    "staring":4,
    "snaps":4,
    "shut":4,
    "picks":4,
    "waits":4,
    "went":4,
    "dental":4,
    "bout":4,
    "isnt":4,
    "hallway":4,
    "hold":4,
    "guys":4,
    "agent":4,
    "line":4,
    "past":4,
    "four":4,
    "slams":4,
    "cover":4,
    "paper":4,
    "numbers":4,
    "sprints":4,
    "end":4,
    "speakerphone":4,
    "points":4,
    "closed":4,
    "paul":4,
    "road":4,
    "credit":4,
    "mr":4,
    "above":4,
    "each":4,
    "small":5,
    "even":5,
    "hundred":5,
    "pull":5,
    "bad":5,
    "crowbar":5,
    "waiting":5,
    "since":5,
    "late":5,
    "buy":5,
    "stop":5,
    "wall":5,
    "leaves":5,
    "safe":5,
    "apartment":5,
    "god":5,
    "mercy":5,
    "toward":5,
    "working":5,
    "slowly":5,
    "shoulder":5,
    "because":5,
    "hours":5,
    "wasnt":5,
    "care":5,
    "started":5,
    "nice":5,
    "ago":5,
    "outside":5,
    "gimme":5,
    "guilette":5,
    "soon":5,
    "security":5,
    "tomorrow":5,
    "corpses":5,
    "week":5,
    "sec":5,
    "detective":5,
    "tonys":5,
    "hall":5,
    "alexs":5,
    "knows":5,
    "ringing":5,
    "prints":5,
    "stark":5,
    "center":5,
    "page":5,
    "dead":5,
    "work":5,
    "across":5,
    "roberts":5,
    "tosses":6,
    "throws":6,
    "quicho":6,
    "s":6,
    "much":6,
    "breath":6,
    "kisses":6,
    "really":6,
    "gives":6,
    "rings":6,
    "high":6,
    "town":6,
    "figure":6,
    "set":6,
    "lets":6,
    "sarcetti":6,
    "puts":6,
    "people":6,
    "wait":6,
    "catches":6,
    "ever":6,
    "check":6,
    "help":6,
    "nothing":6,
    "meet":6,
    "those":6,
    "cause":6,
    "cancer":6,
    "chair":6,
    "fire":6,
    "against":6,
    "wanted":6,
    "computer":6,
    "dea":6,
    "calls":6,
    "mail":6,
    "inn":6,
    "bathroom":6,
    "beepbeep":6,
    "made":7,
    "opens":7,
    "bed":7,
    "put":7,
    "alright":7,
    "better":7,
    "year":7,
    "school":7,
    "another":7,
    "home":7,
    "make":7,
    "met":7,
    "evidence":7,
    "talking":7,
    "palm":7,
    "done":7,
    "too":7,
    "saw":7,
    "living":7,
    "gift":7,
    "only":7,
    "beneficiary":7,
    "yes":7,
    "five":7,
    "watches":7,
    "dials":7,
    "talk":7,
    "pretty":7,
    "photo":7,
    "wheres":7,
    "sees":7,
    "old":8,
    "reads":8,
    "bullpen":8,
    "gets":8,
    "lot":8,
    "okay":8,
    "jumps":8,
    "gotta":8,
    "let":8,
    "else":8,
    "maybe":8,
    "parking":8,
    "ten":8,
    "very":8,
    "weve":8,
    "whats":8,
    "stops":8,
    "goes":8,
    "comes":8,
    "tries":8,
    "doesnt":8,
    "came":8,
    "us":8,
    "heard":8,
    "notices":8,
    "smiles":8,
    "somebody":8,
    "thought":8,
    "give":8,
    "listen":8,
    "coffee":8,
    "called":8,
    "excuse":8,
    "date":8,
    "judys":8,
    "operator":8,
    "cabots":8,
    "ramada":8,
    "hand":9,
    "again":9,
    "shit":9,
    "six":9,
    "place":9,
    "husband":9,
    "never":9,
    "processing":9,
    "sketch":9,
    "1":9,
    "than":10,
    "come":10,
    "said":10,
    "any":10,
    "walk":10,
    "hands":10,
    "desk":10,
    "id":10,
    "window":10,
    "youve":10,
    "doctor":10,
    "ive":10,
    "them":10,
    "heads":10,
    "fucking":10,
    "run":10,
    "briefcase":10,
    "has":10,
    "trying":10,
    "stairs":10,
    "before":11,
    "harrison":11,
    "could":11,
    "looking":11,
    "oh":11,
    "little":11,
    "take":11,
    "gun":11,
    "hell":11,
    "hey":11,
    "detroit":11,
    "frieland":11,
    "leave":11,
    "guy":11,
    "floor":11,
    "hotel":11,
    "shes":12,
    "face":12,
    "takes":12,
    "are":12,
    "open":12,
    "t":12,
    "hangs":12,
    "months":12,
    "second":12,
    "minutes":12,
    "eyes":12,
    "away":12,
    "find":12,
    "theyre":12,
    "runs":12,
    "machine":12,
    "stands":13,
    "their":13,
    "other":13,
    "ah":13,
    "our":13,
    "cant":13,
    "mother":13,
    "youre":14,
    "tony":14,
    "nods":14,
    "after":14,
    "turns":14,
    "anything":14,
    "truck":14,
    "through":14,
    "last":14,
    "way":14,
    "equity":14,
    "good":15,
    "who":15,
    "thanks":15,
    "should":15,
    "em":15,
    "mean":15,
    "uh":15,
    "hospital":15,
    "dr":15,
    "room":15,
    "pulls":15,
    "theres":15,
    "thats":15,
    "shakes":15,
    "stares":15,
    "had":15,
    "fax":15,
    "an":16,
    "look":16,
    "or":16,
    "say":16,
    "sure":16,
    "one":16,
    "where":16,
    "policy":16,
    "need":16,
    "cabot":16,
    "why":17,
    "call":17,
    "thing":17,
    "want":17,
    "time":17,
    "clerk":17,
    "night":18,
    "long":18,
    "when":18,
    "two":18,
    "grabs":18,
    "something":18,
    "insurance":18,
    "life":18,
    "ill":19,
    "couple":19,
    "continuous":19,
    "tell":19,
    "did":19,
    "gonna":19,
    "now":19,
    "go":19,
    "house":20,
    "hes":20,
    "sorry":20,
    "didnt":20,
    "chief":20,
    "car":20,
    "some":20,
    "been":20,
    "station":21,
    "there":21,
    "still":21,
    "money":21,
    "number":21,
    "records":21,
    "cell":22,
    "by":22,
    "how":22,
    "around":22,
    "going":22,
    "police":23,
    "think":23,
    "like":23,
    "down":23,
    "ext":24,
    "off":24,
    "see":24,
    "robert":24,
    "walks":25,
    "were":25,
    "beat":25,
    "anns":26,
    "do":26,
    "head":26,
    "all":26,
    "from":26,
    "know":28,
    "can":28,
    "have":29,
    "right":30,
    "if":30,
    "so":30,
    "starts":30,
    "baste":30,
    "got":31,
    "dont":31,
    "then":32,
    "office":33,
    "well":33,
    "get":34,
    "as":35,
    "about":35,
    "looks":36,
    "yeah":36,
    "my":36,
    "chris":36,
    "be":37,
    "door":39,
    "into":39,
    "no":39,
    "martys":40,
    "day":40,
    "chae":40,
    "back":41,
    "but":41,
    "they":41,
    "its":45,
    "not":45,
    "here":46,
    "your":47,
    "int":48,
    "we":48,
    "im":50,
    "was":51,
    "with":52,
    "what":53,
    "him":56,
    "just":57,
    "over":63,
    "phone":67,
    "she":77,
    "that":79,
    "this":80,
    "her":82,
    "up":84,
    "me":84,
    "on":92,
    "at":93,
    "is":94,
    "he":95,
    "alex":95,
    "out":97,
    "ann":102,
    "for":103,
    "it":117,
    "in":117,
    "and":122,
    "his":122,
    "of":145,
    "i":187,
    "you":222,
    "":242,
    "marty":250,
    "a":273,
    "to":277,
    "the":572
}