{
    "female":1,
    "hums":1,
    "sweet":1,
    "1944":1,
    "hidden":1,
    "fight":1,
    "regime":1,
    "established":1,
    "raspy":1,
    "breathe":1,
    "underground":1,
    "realm":1,
    "pupil\u00ad":1,
    "lies":1,
    "lived":1,
    "skies":1,
    "breeze":1,
    "sunshine":1,
    "castle":1,
    "shape":1,
    "tower":1,
    "turret":1,
    "lighted":1,
    "windows":1,
    "damp":1,
    "mildewed":1,
    "focus":1,
    "eluding":1,
    "keepers":1,
    "escaped":1,
    "womans":1,
    "silhouette":1,
    "crosses":1,
    "camera\u00ad":1,
    "brightness":1,
    "blinded":1,
    "erased":1,
    "memory":1,
    "staircase":1,
    "daylight":1,
    "image":1,
    "suffered":1,
    "sickness":1,
    "eventually":1,
    "half\u00addemolished":1,
    "falangist":1,
    "posters":1,
    "declare":1,
    "drew":1,
    "breath":1,
    "stopped":1,
    "turning\u2026":1,
    "ruined":1,
    "bentley":1,
    "view":1,
    "chrome":1,
    "fenders":1,
    "pass":1,
    "directly":1,
    "camera\u037e":1,
    "insignias":1,
    "flags":1,
    "gaze":1,
    "opposite":1,
    "28":1,
    "napping":1,
    "evidence":1,
    "advanced":1,
    "outdoors":1,
    "filling":1,
    "ask":1,
    "car\u00ad":1,
    "please\u00ad":1,
    "knocks":1,
    "partition":1,
    "sedan":1,
    "driver":1,
    "abdomen":1,
    "car":1,
    "solicitous":1,
    "feeling":1,
    "captains":1,
    "alongside":1,
    "road":1,
    "moving":1,
    "further":1,
    "surveys":1,
    "heavy":1,
    "tangled":1,
    "tapestry":1,
    "fog":1,
    "startles":1,
    "creature":1,
    "oh\u00ad":1,
    "fifteen":1,
    "widens":1,
    "describe":1,
    "dilapidated":1,
    "site":1,
    "consists":1,
    "corrugated":1,
    "roofs":1,
    "connected":1,
    "bridge":1,
    "wheel":1,
    "riverbed":1,
    "columns":1,
    "sculpted":1,
    "motifs":1,
    "odd":1,
    "carved":1,
    "reinforced":1,
    "hundreds":1,
    "sand\u00adbags":1,
    "pontoons":1,
    "preparing":1,
    "attack":1,
    "patiently":1,
    "bentleys":1,
    "building":1,
    "unload":1,
    "withy":1,
    "efficiency":1,
    "charge":1,
    "strict":1,
    "carmen\u00ad":1,
    "welcome\u00ad":1,
    "wheelchair":1,
    "pushed":1,
    "nervous":1,
    "sgt":1,
    "scholarly":1,
    "mid":1,
    "forties":1,
    "i\u00ad":1,
    "prefers":1,
    "exert":1,
    "n\u00adno":1,
    "whispers":1,
    "\u00adever":1,
    "softly\u00ad":1,
    "ear":1,
    "automobile":1,
    "greet":1,
    "wheeled":1,
    "awkward":1,
    "passes":1,
    "between":1,
    "curiously":1,
    "gazing":1,
    "at\u00ad":1,
    "\u00ada":1,
    "sandbags":1,
    "top\u00ad":1,
    "fans":1,
    "multiple":1,
    "stones":1,
    "theyve":1,
    "ray":1,
    "sunlight":1,
    "breaks":1,
    "clouds":1,
    "ruins":1,
    "shouts":1,
    "calling":1,
    "gesture":1,
    "goodbye":1,
    "vehemence":1,
    "labyrinths":1,
    "archway":1,
    "monitors":1,
    "sticking":1,
    "hard":1,
    "track":1,
    "standing":1,
    "lower\u00adranking":1,
    "officials":1,
    "surround":1,
    "pricks":1,
    "terrain":1,
    "force":1,
    "pins":1,
    "larger":1,
    "\u00adlets":1,
    "block":1,
    "access":1,
    "bearing":1,
    "tray":1,
    "set":1,
    "concealing":1,
    "avid":1,
    "dr":1,
    "turning":1,
    "attention":1,
    "pops":1,
    "starve":1,
    "four":1,
    "bedtime":1,
    "drinks":1,
    "weakly":1,
    "hesitate":1,
    "madame":1,
    "nurse":1,
    "grins":1,
    "wound\u00ad":1,
    "worse":1,
    "timidly":1,
    "wrapped":1,
    "paper":1,
    "neatly":1,
    "string":1,
    "sighs":1,
    "downstairs\u00ad":1,
    "downstairs":1,
    "upper":1,
    "\u00addiscovers":1,
    "attentively\u00ad":1,
    "jesus\u00ad":1,
    "feet\u00ad":1,
    "frozen":1,
    "timbers":1,
    "moan":1,
    "scared":1,
    "different":1,
    "city":1,
    "trains":1,
    "houses":1,
    "creaky":1,
    "utters":1,
    "deep":1,
    "rumbling":1,
    "noises":1,
    "speaking":1,
    "tomorrow":1,
    "married":1,
    "werent":1,
    "easy":1,
    "winces":1,
    "pain\u00ad":1,
    "brothers\u00ad":1,
    "acting":1,
    "calm":1,
    "voice\u00ad":1,
    "\u2026":1,
    "sad":1,
    "country\u2026":1,
    "limbo":1,
    "amniotic":1,
    "fluid":1,
    "whoever":1,
    "plucked":1,
    "immortal":1,
    "poison":1,
    "sky\u00ad":1,
    "amongst":1,
    "hushed":1,
    "eternal":1,
    "wilted":1,
    "unable":1,
    "bequeath":1,
    "gift":1,
    "anyone\u00ad\u00ad":1,
    "excitement":1,
    "top":1,
    "end":1,
    "time\u2026":1,
    "steel":1,
    "gears":1,
    "shine":1,
    "metallic":1,
    "stars":1,
    "swatch":1,
    "velvet":1,
    "tweezers":1,
    "\u00adput":1,
    "within":1,
    "workings":1,
    "using":1,
    "jewelers":1,
    "magnifying":1,
    "oils":1,
    "cupl\u00e9":1,
    "phonograph":1,
    "in\u00ad":1,
    "your\u00ad":1,
    "moment":1,
    "reason":1,
    "alarmed":1,
    "shouldnt":1,
    "traveled":1,
    "professional":1,
    "wherever":1,
    "fixedly":1,
    "8":1,
    "oclock":1,
    "detected":1,
    "activity":1,
    "southeastern":1,
    "sector":1,
    "captured":1,
    "suspect":1,
    "prisoner":1,
    "whos":1,
    "town":1,
    "decide":1,
    "hat":1,
    "gauge":1,
    "rifle":1,
    "weapon":1,
    "fired":1,
    "almanac":1,
    "inscription":1,
    "government":1,
    "master":1,
    "impatiently":1,
    "almanac\u037e":1,
    "half\u00adempty":1,
    "wine":1,
    "says":1,
    "so\u00ad":1,
    "bam":1,
    "boys":1,
    "bottom":1,
    "screams":1,
    "guts":1,
    "intervene":1,
    "bashes":1,
    "leveling":1,
    "bone":1,
    "cartilage":1,
    "spitting":1,
    "whistle":1,
    "calmly":1,
    "searches":1,
    "frisk":1,
    "mama":1,
    "scuttling":1,
    "skitters":1,
    "floor":1,
    "mother\u00ad":1,
    "impossible":1,
    "shifts":1,
    "ceiling":1,
    "searching":1,
    "scurries":1,
    "past":1,
    "goose":1,
    "comforter":1,
    "shocked":1,
    "h\u00adhello\u00ad":1,
    "follow":1,
    "mandibles":1,
    "regards":1,
    "curiosity":1,
    "look\u00ad":1,
    "scrutinizes":1,
    "upright":1,
    "transforming":1,
    "form":1,
    "striped":1,
    "hello":1,
    "clattering":1,
    "horse":1,
    "bull":1,
    "returned":1,
    "sibilance":1,
    "cloud":1,
    "hind":1,
    "quarters":1,
    "sinister":1,
    "backs":1,
    "speechless":1,
    "beg":1,
    "emerge":1,
    "pronounce":1,
    "colorful":1,
    "companions":1,
    "moonlight":1,
    "dapples":1,
    "coarse":1,
    "legs":1,
    "courtly":1,
    "underworld":1,
    "bore":1,
    "mark":1,
    "proves":1,
    "instinctively":1,
    "expression":1,
    "portals":1,
    "gestures":1,
    "essence":1,
    "intact":1,
    "become":1,
    "insure":1,
    "fulfill":1,
    "deposits":1,
    "bound":1,
    "crossroads":1,
    "absolutely":1,
    "starts\u00ad":1,
    "prepare":1,
    "animals\u00ad":1,
    "stew":1,
    "coffee\u00ad":1,
    "burnt":1,
    "taste":1,
    "unpleasant":1,
    "contact":1,
    "familiar":1,
    "bears":1,
    "into\u00ad":1,
    "table\u00ad":1,
    "stout":1,
    "cooks":1,
    "wash":1,
    "gigantic":1,
    "boiling":1,
    "agh\u00ad":1,
    "fussy":1,
    "dandy":1,
    "beef":1,
    "guests\u00ad":1,
    "paloma":1,
    "pluck":1,
    "peel":1,
    "supposed":1,
    "\u00adnot":1,
    "underwater":1,
    "giving":1,
    "party":1,
    "tonight\u2026":1,
    "ivory":1,
    "tulle":1,
    "fine":1,
    "reverie":1,
    "patent":1,
    "effort":1,
    "fooled\u00ad":1,
    "bath":1,
    "go\u00ad":1,
    "obeys\u00ad":1,
    "princess\u00ad":1,
    "cleaned":1,
    "properly":1,
    "beans":1,
    "sharp":1,
    "folds":1,
    "skillfully":1,
    "chops":1,
    "onion":1,
    "bustle":1,
    "feathers":1,
    "confetti":1,
    "dressed":1,
    "marvelous":1,
    "gorgeous":1,
    "pleased":1,
    "claps":1,
    "together\u00ad":1,
    "wasting":1,
    "honey":1,
    "eagerly":1,
    "step":1,
    "cow":1,
    "lot":1,
    "visited":1,
    "wasnt":1,
    "lots":1,
    "smelled":1,
    "warned":1,
    "wary":1,
    "fauns\u00ad":1,
    "flour":1,
    "salt":1,
    "oil":1,
    "bacon":1,
    "huh":1,
    "quantity":1,
    "checks":1,
    "ring":1,
    "nice":1,
    "strong":1,
    "carry":1,
    "calls":1,
    "horizon\u00ad":1,
    "plume":1,
    "smoke":1,
    "horizon":1,
    "grew":1,
    "wonder":1,
    "stood":1,
    "folk":1,
    "slept":1,
    "shadow":1,
    "trunk":1,
    "herself":1,
    "huge":1,
    "monstrous":1,
    "settled":1,
    "thrive":1,
    "five":1,
    "chestnuts":1,
    "rocks":1,
    "retrieve":1,
    "insides":1,
    "flourish":1,
    "partly":1,
    "puddle":1,
    "decides":1,
    "fancy":1,
    "including":1,
    "cotton":1,
    "slip":1,
    "gust":1,
    "flying":1,
    "discovers":1,
    "containers":1,
    "half\u00adburnt":1,
    "shit\u00ad":1,
    "rapt":1,
    "hefts":1,
    "trophy":1,
    "lucky":1,
    "six":1,
    "indeed":1,
    "serious":1,
    "hi\u00ad":1,
    "toads":1,
    "flicks":1,
    "trapping":1,
    "beetles":1,
    "chitinous":1,
    "shells":1,
    "crunch":1,
    "noisily":1,
    "slimy":1,
    "shudders":1,
    "stand":1,
    "clings":1,
    "observes":1,
    "unmoved":1,
    "eating":1,
    "fat":1,
    "fwapppp":1,
    "pink":1,
    "slides":1,
    "gelatinous":1,
    "goo":1,
    "checked":1,
    "garden":1,
    "louder":1,
    "may":1,
    "introduce":1,
    "wan":1,
    "greeting":1,
    "back\u00ad":1,
    "enchanted":1,
    "pleasure":1,
    "on\u00ad":1,
    "card":1,
    "peer":1,
    "family":1,
    "seated":1,
    "mayor":1,
    "priest":1,
    "stony\u00adfaced":1,
    "distraction":1,
    "enough":1,
    "eats":1,
    "losing":1,
    "today":1,
    "antibiotic":1,
    "vials":1,
    "already":1,
    "saved":1,
    "souls":1,
    "happens":1,
    "bodies":1,
    "you\u2019re":1,
    "choice\u00ad":1,
    "pauses":1,
    "wrong":1,
    "grow":1,
    "choose":1,
    "idea":1,
    "alike":1,
    "difference":1,
    "won":1,
    "agree":1,
    "raises":1,
    "toasts":1,
    "raise":1,
    "glasses":1,
    "wood":1,
    "kitchen":1,
    "downhill":1,
    "mercedes\u2019s":1,
    "seems":1,
    "uncomfortable":1,
    "used":1,
    "uniforms\u00ad":1,
    "\u00adand":1,
    "shop":1,
    "year":1,
    "finding":1,
    "indeed\u00ad":1,
    "forgive":1,
    "silly":1,
    "interesting":1,
    "others":1,
    "grows":1,
    "discreetly":1,
    "acquainted":1,
    "suppress":1,
    "grimace":1,
    "morocco":1,
    "great":1,
    "impression":1,
    "chews":1,
    "excellent":1,
    "soldier":1,
    "battalion":1,
    "battlefield":1,
    "smashed":1,
    "rock":1,
    "hour":1,
    "brave":1,
    "turn":1,
    "tub":1,
    "listening":1,
    "sometimes":1,
    "behave":1,
    "yes\u00ad":1,
    "faintest":1,
    "satisfaction":1,
    "labyrinth":1,
    "chewing":1,
    "chunk":1,
    "feeds":1,
    "succeeded":1,
    "chalk\u00ad":1,
    "patient":1,
    "dirty":1,
    "creeping":1,
    "strolling":1,
    "seven":1,
    "gardens":1,
    "palace":1,
    "true":1,
    "fauns":1,
    "light":1,
    "grin":1,
    "revealed\u00ad":1,
    "poor":1,
    "proceed":1,
    "logbook":1,
    "handout":1,
    "granary":1,
    "carrying":1,
    "baskets":1,
    "contained":1,
    "brown":1,
    "reciting":1,
    "daily":1,
    "safe":1,
    "reds":1,
    "united":1,
    "warm":1,
    "flipping":1,
    "bed\u037e":1,
    "lower":1,
    "completely":1,
    "disappears":1,
    "absolute":1,
    "sedated":1,
    "birth":1,
    "heal":1,
    "costs":1,
    "worry":1,
    "complicated":1,
    "helping":1,
    "freezes":1,
    "havent\u00ad":1,
    "happening":1,
    "remember":1,
    "sings":1,
    "we\u00ad":1,
    "me\u00ad\u00ad":1,
    "exhales":1,
    "sheer":1,
    "madness":1,
    "beat\u00ad":1,
    "trunks":1,
    "pedro\u00ad":1,
    "refused":1,
    "rail":1,
    "crow":1,
    "n\u00adno\u00ad":1,
    "negligence":1,
    "tattered":1,
    "plant":1,
    "being":1,
    "bowl":1,
    "revolted":1,
    "pets":1,
    "guide":1,
    "through\u00ad\u00ad":1,
    "chitter\u00adchatter":1,
    "dangerous":1,
    "sumptuous":1,
    "banquet":1,
    "depends":1,
    "cheese":1,
    "mail":1,
    "piloto":1,
    "divide":1,
    "bandaged":1,
    "let\u00abs":1,
    "american":1,
    "b\u00adb\u00adbritish":1,
    "c\u00adc":1,
    "canadian":1,
    "t\u00adt\u00adtroops":1,
    "disemb\u00adb\u00adbarked":1,
    "beach":1,
    "f\u00adf\u00adfrance\u00ad":1,
    "thin":1,
    "guy":1,
    "thirties":1,
    "ragged":1,
    "gimme":1,
    "stammering":1,
    "shit":1,
    "muscle\u00adbound":1,
    "150000":1,
    "dwight":1,
    "d":1,
    "eisenhower":1,
    "accept":1,
    "complete":1,
    "victory":1,
    "germany":1,
    "bandages":1,
    "frenchies":1,
    "save":1,
    "quiet\u00ad":1,
    "gulps":1,
    "anywhere":1,
    "hourglass":1,
    "guided":1,
    "fairies\u00ad":1,
    "draws":1,
    "outline":1,
    "wall":1,
    "onto":1,
    "hallway":1,
    "wearing":1,
    "grain":1,
    "sand":1,
    "\u00adshe":1,
    "adjoining":1,
    "jaca":1,
    "fifty":1,
    "screwed":1,
    "guns":1,
    "roof":1,
    "really":1,
    "cross":1,
    "border":1,
    "cause":1,
    "there\u2019s":1,
    "awaits":1,
    "nearby":1,
    "warehouse":1,
    "here\u2019s":1,
    "exactly":1,
    "wants\u00ad":1,
    "sonofabitch":1,
    "feeding":1,
    "cannot":1,
    "win":1,
    "fiercely":1,
    "harder":1,
    "bastard":1,
    "song":1,
    "cheer":1,
    "nearby\u00ad":1,
    "temperature":1,
    "fever":1,
    "sign\u00ad":1,
    "stares":1,
    "emotion":1,
    "mom":1,
    "unexpectedly":1,
    "asking":1,
    "hurt":1,
    "sounded":1,
    "whistle\u00ad":1,
    "tried":1,
    "late\u00ad":1,
    "derailed":1,
    "middle":1,
    "nowhere":1,
    "dozens":1,
    "patrol":1,
    "disaster":1,
    "engineer":1,
    "fireman":1,
    "burned":1,
    "dismount":1,
    "steal":1,
    "mess\u00ad":1,
    "wanted\u00ad":1,
    "realizes":1,
    "tricked":1,
    "nowhere\u00ad":1,
    "thoroughly":1,
    "looted":1,
    "jugs":1,
    "crates":1,
    "scattered":1,
    "everywhere":1,
    "of\u00ad":1,
    "stayed":1,
    "cliff\u00ad":1,
    "rifles":1,
    "weve":1,
    "c\u2019mon":1,
    "decent":1,
    "die":1,
    "leaps":1,
    "bullets":1,
    "whiz":1,
    "bury":1,
    "shooting":1,
    "wounding":1,
    "follows":1,
    "also":1,
    "to\u00ad":1,
    "boulders":1,
    "kneeling":1,
    "panting":1,
    "torn":1,
    "pieces":1,
    "gaping":1,
    "bleeds":1,
    "profusely":1,
    "pistol":1,
    "appalled":1,
    "reloads":1,
    "second":1,
    "shot":1,
    "temple":1,
    "useless\u00ad":1,
    "alive\u00ad":1,
    "one\u2019s":1,
    "storeroom":1,
    "darts":1,
    "guards":1,
    "drag":1,
    "i\u00adi":1,
    "needed":1,
    "guard":1,
    "dose":1,
    "drop\u00ad":1,
    "bedside":1,
    "conscious":1,
    "feel":1,
    "i\u2019m":1,
    "tobacco\u00ad":1,
    "offers":1,
    "puff":1,
    "f\u00adf\u00adf\u00adfuck":1,
    "sets":1,
    "chairs":1,
    "talks":1,
    "right\u00ad":1,
    "fancy\u00ad":1,
    "tool":1,
    "box":1,
    "needle\u00adnose":1,
    "leather\u00adworking":1,
    "trust":1,
    "shows":1,
    "relationship":1,
    "now\u00ad":1,
    "deal":1,
    "st\u00adt\u00adtuttering":1,
    "search":1,
    "answer":1,
    "there\u00ad":1,
    "tries\u00ad":1,
    "sweating\u00ad":1,
    "supreme":1,
    "effort\u00ad":1,
    "struggles":1,
    "a\u00ad":1,
    "but\u00ad":1,
    "t\u00ad\u00adt\u00adt\u00adt\u00ad":1,
    "imploring":1,
    "blur":1,
    "blow":1,
    "looms":1,
    "havent":1,
    "turned":1,
    "gold":1,
    "engraved":1,
    "lettering":1,
    "handle":1,
    "satyr":1,
    "hugging":1,
    "damaged":1,
    "perches":1,
    "chattering":1,
    "rules":1,
    "grapes":1,
    "notice\u00ad":1,
    "failed":1,
    "days":1,
    "ever":1,
    "flash":1,
    "lightning":1,
    "corner":1,
    "gone":1,
    "early":1,
    "advantages":1,
    "alcohol":1,
    "gauze":1,
    "wounds":1,
    "much\u00ad":1,
    "b\u00adb\u00adbut":1,
    "did\u00ad":1,
    "mans":1,
    "mess":1,
    "broken":1,
    "bones":1,
    "lacerations":1,
    "sorry\u00ad":1,
    "smoking":1,
    "unsurprised":1,
    "bitch\u00ad":1,
    "gratefully":1,
    "squeezes":1,
    "hesitation":1,
    "administers":1,
    "injection":1,
    "stare":1,
    "slowly":1,
    "ebbs":1,
    "stutters":1,
    "check":1,
    "upstairs":1,
    "moving\u00ad":1,
    "underneath":1,
    "dust":1,
    "ruffle\u00ad":1,
    "idiot":1,
    "rips":1,
    "plate":1,
    "nooo":1,
    "hit":1,
    "when\u00ad":1,
    "awakened":1,
    "hid":1,
    "ashen\u00adfaced":1,
    "disgusting":1,
    "trying":1,
    "sense":1,
    "junk":1,
    "done\u00ad":1,
    "speak":1,
    "darling":1,
    "wish":1,
    "pries":1,
    "cruel":1,
    "firelight":1,
    "cast":1,
    "sweaty":1,
    "throws":1,
    "noooo":1,
    "exist":1,
    "shoulders":1,
    "shaking":1,
    "inhuman":1,
    "squeal":1,
    "shriek":1,
    "horror":1,
    "humanoid":1,
    "writhes":1,
    "squeals":1,
    "flames":1,
    "doubles":1,
    "best":1,
    "obeyed":1,
    "cries":1,
    "commotion":1,
    "collects":1,
    "grips":1,
    "stopping":1,
    "understand\u00ad":1,
    "response":1,
    "seal":1,
    "fate":1,
    "thinking\u00ad":1,
    "that\u00ad":1,
    "do\u00ad":1,
    "vidal\u00ad":1,
    "urgent":1,
    "murmur":1,
    "troop":1,
    "paramedic":1,
    "dead\u00ad":1,
    "corridor":1,
    "priests":1,
    "eulogy":1,
    "informant":1,
    "imagine":1,
    "needle":1,
    "record":1,
    "dear":1,
    "monster":1,
    "quarter":1,
    "forgetting":1,
    "y\u00adyes":1,
    "somethings":1,
    "detail\u00ad":1,
    "storehouse":1,
    "explosives":1,
    "forced":1,
    "said\u00ad":1,
    "probably":1,
    "hovers":1,
    "dangerously":1,
    "sips":1,
    "shh":1,
    "child\u00ad":1,
    "something\u00ad":1,
    "intently":1,
    "nothing\u00ad":1,
    "surprised":1,
    "discover\u00ad":1,
    "surrounding":1,
    "gentlemanly":1,
    "gazes":1,
    "stepdaughter":1,
    "known":1,
    "slaps":1,
    "girl\u00ad":1,
    "laughed":1,
    "awaiting":1,
    "orders":1,
    "door\u00ad":1,
    "weeping":1,
    "attic":1,
    "meat\u00ad":1,
    "asked":1,
    "named":1,
    "roping":1,
    "same":1,
    "post":1,
    "gods":1,
    "sake":1,
    "leers":1,
    "rolls":1,
    "sleeves":1,
    "unbuttons":1,
    "shirt":1,
    "collar":1,
    "weakness":1,
    "arrogance":1,
    "perceptive":1,
    "we\u2019re":1,
    "busies":1,
    "truth":1,
    "straining":1,
    "reach":1,
    "suddenly\u00ad":1,
    "whack":1,
    "vidal\u2019s":1,
    "shudders\u00ad":1,
    "\u00adhe":1,
    "fingers":1,
    "prisoner\u00ad":1,
    "touch":1,
    "gutted":1,
    "brutal":1,
    "thrust":1,
    "slices":1,
    "gurgling":1,
    "uses":1,
    "winning":1,
    "numbers":1,
    "surreptitious":1,
    "spots":1,
    "shh\u00ad":1,
    "radio":1,
    "grunting":1,
    "crumples":1,
    "hey":1,
    "run":1,
    "readies":1,
    "bleeding":1,
    "covering":1,
    "shocked\u00ad":1,
    "goddamit":1,
    "uncovers":1,
    "slashed":1,
    "comply":1,
    "throat":1,
    "foolish":1,
    "sweetheart":1,
    "gunshot":1,
    "gunshots":1,
    "horsemen":1,
    "escape":1,
    "hail":1,
    "bullets\u037e":1,
    "manage":1,
    "blood\u00adspattered":1,
    "emerging":1,
    "forty":1,
    "sister":1,
    "finish":1,
    "decided":1,
    "chance":1,
    "promise":1,
    "question":1,
    "fast":1,
    "why\u00ad":1,
    "questions":1,
    "doors":1,
    "locked":1,
    "create":1,
    "quickly\u00ad":1,
    "hiding":1,
    "cradle":1,
    "sleeping":1,
    "shots":1,
    "fifty\u00ad":1,
    "least\u00ad":1,
    "none":1,
    "camp":1,
    "maybe":1,
    "math":1,
    "together":1,
    "wraps":1,
    "blanket":1,
    "soothe":1,
    "halfway":1,
    "footsteps":1,
    "nook":1,
    "remaining":1,
    "picket":1,
    "duty":1,
    "line\u00ad":1,
    "squad":1,
    "report":1,
    "followed":1,
    "edges":1,
    "explosion":1,
    "shatters":1,
    "trips":1,
    "barely":1,
    "shake":1,
    "majesty":1,
    "golden":1,
    "shed":1,
    "pin":1,
    "prick\u00ad":1,
    "drop":1,
    "blood\u00ad":1,
    "buzzes":1,
    "promised":1,
    "longer":1,
    "radiates":1,
    "stays":1,
    "sacred":1,
    "rights":1,
    "brat":1,
    "wish\u00ad":1,
    "recedes":1,
    "darkness":1,
    "bullet":1,
    "edge":1,
    "ignores":1,
    "spits":1,
    "streams":1,
    "son\u00ad":1,
    "father\u00ad":1,
    "died\u00ad":1,
    "understands":1,
    "situation":1,
    "smashes":1,
    "won\u2019t":1,
    "painful":1,
    "pale\u00ad":1,
    "arise":1,
    "worthy":1,
    "throne":1,
    "pillar":1,
    "smiling":1,
    "chose":1,
    "sit":1,
    "father\u2019s":1,
    "he\u2019s":1,
    "celebrating":1,
    "cheered":1,
    "hundred":1,
    "fathers":1,
    "kingdom\u00ad":1,
    "reigned":1,
    "justice":1,
    "kind":1,
    "centuries":1,
    "subjects":1,
    "traces":1,
    "flowering":1,
    "lullaby":2,
    "armed":2,
    "fascist":2,
    "raw":2,
    "struggling":2,
    "soft":2,
    "circular":2,
    "leads":2,
    "forgot":2,
    "fades":2,
    "white":2,
    "king":2,
    "perhaps":2,
    "francos":2,
    "buildings":2,
    "shiny":2,
    "bear":2,
    "seat":2,
    "pregnancy":2,
    "country":2,
    "plenty":2,
    "fresh":2,
    "air":2,
    "such":2,
    "nonsense":2,
    "pregnant":2,
    "brothers":2,
    "madam":2,
    "water\u00ad":2,
    "bit":2,
    "moss":2,
    "fairy\u00ad":2,
    "saw":2,
    "minutes":2,
    "late":2,
    "angle":2,
    "stone":2,
    "hangs":2,
    "beams":2,
    "celtic":2,
    "creatures":2,
    "luggage":2,
    "greets":2,
    "pleasant":2,
    "belly":2,
    "it\u00ad":2,
    "walk":2,
    "myself":2,
    "obeys":2,
    "sits":2,
    "holding":2,
    "close":2,
    "chest":2,
    "wifes":2,
    "room\u00ad":2,
    "pile":2,
    "catch":2,
    "escapes":2,
    "labyrinth\u00ad":2,
    "lost":2,
    "grey":2,
    "illuminates":2,
    "thank":2,
    "read":2,
    "away\u00ad":2,
    "doesnt":2,
    "girls":2,
    "atop":2,
    "sticks":2,
    "supplies":2,
    "command":2,
    "bastards":2,
    "vial":2,
    "him\u00ad":2,
    "tied":2,
    "sorry":2,
    "disappointed":2,
    "waiting":2,
    "bedroom":2,
    "quietly":2,
    "caresses":2,
    "creak":2,
    "nights":2,
    "series":2,
    "special":2,
    "then\u00ad":2,
    "older":2,
    "hasnt":2,
    "stories":2,
    "daughters":2,
    "floating":2,
    "rose":2,
    "dare":2,
    "thorns":2,
    "mortal":2,
    "death":2,
    "fear":2,
    "clicks":2,
    "jaws":2,
    "forgotten":2,
    "pocket":2,
    "while":2,
    "enter":2,
    "shell":2,
    "rest":2,
    "that\u2019s":2,
    "wife\u00ad":2,
    "opinion":2,
    "sergeant":2,
    "bayona":2,
    "found":2,
    "shut":2,
    "farmers":2,
    "reads":2,
    "nor":2,
    "propaganda":2,
    "uh":2,
    "warning":2,
    "flattens":2,
    "horrified":2,
    "killed":2,
    "bitch":2,
    "distant":2,
    "train":2,
    "scrawny":2,
    "motherfuckers":2,
    "bothering":2,
    "wake":2,
    "up\u00ad":2,
    "ears":2,
    "quick":2,
    "carefully":2,
    "size":2,
    "feet":2,
    "hides":2,
    "pulling":2,
    "illustration":2,
    "tiny":2,
    "foot":2,
    "pointing":2,
    "echo":2,
    "hooves":2,
    "aside":2,
    "figure":2,
    "afraid\u00ad":2,
    "wicker":2,
    "am":2,
    "earth":2,
    "bows":2,
    "strange":2,
    "moanna":2,
    "daughter":2,
    "allow":2,
    "tasks":2,
    "paces":2,
    "music":2,
    "tonight":2,
    "theyll":2,
    "places":2,
    "jacinta":2,
    "paz":2,
    "coffee":2,
    "chicken":2,
    "chickens":2,
    "potatoes":2,
    "etc":2,
    "doctors":2,
    "mayors":2,
    "pig":2,
    "wouldnt":2,
    "given":2,
    "apron":2,
    "begins":2,
    "believed":2,
    "tall":2,
    "dirt":2,
    "approach":2,
    "packet":2,
    "ration":2,
    "cards":2,
    "stunned":2,
    "padlock":2,
    "locks":2,
    "yanks":2,
    "binoculars":2,
    "took":2,
    "colossal":2,
    "home":2,
    "heart":2,
    "dying":2,
    "branches":2,
    "exposed":2,
    "itself":2,
    "hanging":2,
    "sends":2,
    "twenty":2,
    "dozen":2,
    "gave":2,
    "antibiotics":2,
    "upon":2,
    "sway":2,
    "mount":2,
    "ride":2,
    "invisible":2,
    "tongue":2,
    "couple":2,
    "speaks":2,
    "bug":2,
    "cheek":2,
    "am\u00ad":2,
    "ashamed":2,
    "living":2,
    "bugs":2,
    "dies":2,
    "against":2,
    "taking":2,
    "meet":2,
    "careful":2,
    "send":2,
    "pulls":2,
    "hardly":2,
    "matters":2,
    "we\u2019ll":2,
    "clean":2,
    "shivering":2,
    "went":2,
    "met":2,
    "thinks":2,
    "brief":2,
    "nervously":2,
    "general":2,
    "exact":2,
    "minute":2,
    "done":2,
    "hurts":2,
    "visible":2,
    "meat":2,
    "glad":2,
    "start":2,
    "wicked":2,
    "lie":2,
    "ready":2,
    "note":2,
    "legend":2,
    "our":2,
    "hunger":2,
    "single":2,
    "fire":2,
    "keeps":2,
    "bloody":2,
    "somewhere":2,
    "else":2,
    "stay":2,
    "having":2,
    "bad":2,
    "embrace":2,
    "softly":2,
    "words":2,
    "don\u2019t":2,
    "it\u2019s":2,
    "relieved":2,
    "least":2,
    "hugs":2,
    "morning":2,
    "waste":2,
    "brought":2,
    "trigo":2,
    "themselves":2,
    "frenchie\u00ad":2,
    "north":2,
    "horrible":2,
    "try":2,
    "use":2,
    "reinforcements":2,
    "what\u00ad":2,
    "loved":2,
    "staying":2,
    "coward":2,
    "making":2,
    "well\u00ad":2,
    "responding":2,
    "tears":2,
    "guardias":2,
    "talking":2,
    "whole":2,
    "knows":2,
    "grenades":2,
    "them\u00ad":2,
    "firing":2,
    "gasps":2,
    "pity":2,
    "empties":2,
    "alive":2,
    "happened":2,
    "rain":2,
    "bodega\u00ad":2,
    "cigarette":2,
    "stutterer":2,
    "happen":2,
    "tools":2,
    "count":2,
    "free":2,
    "terrible":2,
    "dissolve":2,
    "awake":2,
    "dagger":2,
    "accident":2,
    "immediately":2,
    "broke":2,
    "mistake":2,
    "spoke":2,
    "furious":2,
    "listen":2,
    "chimney":2,
    "watches":2,
    "clutching":2,
    "crying":2,
    "desk":2,
    "pours":2,
    "mercedes\u00ad":2,
    "letters":2,
    "me\u00ad":2,
    "ropes":2,
    "trust\u00ad":2,
    "sonofabitch\u00ad":2,
    "collapses":2,
    "injured":2,
    "hits":2,
    "dead":2,
    "highness":2,
    "study":2,
    "vidals":2,
    "down\u00ad":2,
    "portal":2,
    "innocent":2,
    "furiously":2,
    "voice":3,
    "war":3,
    "mountains":3,
    "new":3,
    "military":3,
    "posts":3,
    "child":3,
    "ago":3,
    "camera":3,
    "dreamt":3,
    "blue":3,
    "finally":3,
    "walls":3,
    "came":3,
    "always":3,
    "knew":3,
    "black":3,
    "enormous":3,
    "stomach":3,
    "tales":3,
    "window":3,
    "climbs":3,
    "approaches":3,
    "walks":3,
    "carmens":3,
    "mud":3,
    "pair":3,
    "dry":3,
    "front":3,
    "woman":3,
    "touches":3,
    "yourself":3,
    "leans":3,
    "perched":3,
    "\u00adthe":3,
    "wings":3,
    "twice":3,
    "captain\u2019s":3,
    "needs":3,
    "tailor":3,
    "sudden":3,
    "pretty":3,
    "sick":3,
    "every":3,
    "move":3,
    "guerillas":3,
    "dining":3,
    "maps":3,
    "enters":3,
    "olives":3,
    "cuts":3,
    "orujo":3,
    "briefly":3,
    "mouth":3,
    "call":3,
    "mountain":3,
    "getting":3,
    "watching":3,
    "whats":3,
    "noise":3,
    "much":3,
    "beat":3,
    "voices":3,
    "glass":3,
    "born":3,
    "fuck":3,
    "gunfire":3,
    "hunting":3,
    "damn":3,
    "printed":3,
    "page":3,
    "god":3,
    "red":3,
    "lifts":3,
    "heard":3,
    "learn":3,
    "gets":3,
    "hears":3,
    "shadows":3,
    "roots":3,
    "name":3,
    "names":3,
    "highness\u00ad":3,
    "real":3,
    "arm":3,
    "does":3,
    "work":3,
    "conchita":3,
    "eat":3,
    "enters\u00ad":3,
    "hurry":3,
    "everyone":3,
    "obey":3,
    "looking":3,
    "believe":3,
    "key\u00ad":3,
    "copy":3,
    "toad":3,
    "surrounded":3,
    "simple":3,
    "less":3,
    "remains":3,
    "drink":3,
    "guerrillas":3,
    "pill":3,
    "afraid":3,
    "guests":3,
    "manages":3,
    "guardia":3,
    "capitan":3,
    "itll":3,
    "people":3,
    "choice":3,
    "quickly":3,
    "see\u00ad":3,
    "curious":3,
    "pushes":3,
    "said":3,
    "trace":3,
    "chalk":3,
    "say":3,
    "closer":3,
    "lets":3,
    "bread":3,
    "shakes":3,
    "thought":3,
    "someone":3,
    "task":3,
    "startled":3,
    "newspaper":3,
    "frenchie":3,
    "neck":3,
    "freight":3,
    "wound":3,
    "finishes":3,
    "along":3,
    "pliers":3,
    "holds":3,
    "infant":3,
    "himself":3,
    "important":3,
    "stumbles":3,
    "sound":4,
    "dark":4,
    "human":4,
    "once":4,
    "cold":4,
    "died":4,
    "return":4,
    "wait":4,
    "until":4,
    "caravan":4,
    "understand":4,
    "hair":4,
    "stop":4,
    "woods":4,
    "which":4,
    "mothers":4,
    "covered":4,
    "wooden":4,
    "group":4,
    "servants":4,
    "smile":4,
    "points":4,
    "exits":4,
    "ofelia\u00ad":4,
    "find":4,
    "big":4,
    "even":4,
    "before":4,
    "makes":4,
    "isnt":4,
    "sleep":4,
    "package":4,
    "keep":4,
    "and\u00ad":4,
    "ofelias":4,
    "wind":4,
    "hear":4,
    "made":4,
    "lands":4,
    "told":4,
    "talk":4,
    "life":4,
    "pick":4,
    "excuse":4,
    "silent":4,
    "heads":4,
    "nose":4,
    "falls":4,
    "reaches":4,
    "puts":4,
    "beautiful":4,
    "youve":4,
    "twisted":4,
    "fairies":4,
    "trees":4,
    "steps":4,
    "dinner":4,
    "eye":4,
    "silk":4,
    "ribbon":4,
    "knife":4,
    "next":4,
    "hurries":4,
    "most":4,
    "empty":4,
    "lottery":4,
    "ticket":4,
    "arent":4,
    "leaving":4,
    "got":4,
    "way":4,
    "arms":4,
    "own":4,
    "half":4,
    "care":4,
    "guerrilla":4,
    "mandrake":4,
    "one\u00ad":4,
    "lock":4,
    "bodega":4,
    "able":4,
    "sir\u00ad":4,
    "spain":5,
    "pain":5,
    "world":5,
    "day":5,
    "bring":5,
    "many":5,
    "books":5,
    "book":5,
    "stops":5,
    "grabs":5,
    "behind":5,
    "side":5,
    "shoes":5,
    "soldiers":5,
    "here\u00ad":5,
    "ferreiro":5,
    "towards":5,
    "glances":5,
    "tries":5,
    "drops":5,
    "near":5,
    "house":5,
    "table":5,
    "few":5,
    "any":5,
    "liquor":5,
    "night":5,
    "leg":5,
    "almost":5,
    "never":5,
    "motions":5,
    "boy":5,
    "should":5,
    "thing":5,
    "pouch":5,
    "shoots":5,
    "basket":5,
    "gently":5,
    "milk":5,
    "food":5,
    "sees":5,
    "fig":5,
    "wont":5,
    "":5,
    "wounded":5,
    "piece":5,
    "still":5,
    "starts":5,
    "doing":5,
    "right":5,
    "hammer":5,
    "blade":5,
    "gun":5,
    "civil":6,
    "outside":6,
    "body":6,
    "place":6,
    "cars":6,
    "why":6,
    "had":6,
    "mother":6,
    "nods":6,
    "flies":6,
    "large":6,
    "stands":6,
    "other":6,
    "could":6,
    "their":6,
    "gives":6,
    "anything":6,
    "must":6,
    "closes":6,
    "picks":6,
    "hell":6,
    "listens":6,
    "baby":6,
    "magic":6,
    "weak":6,
    "leather":6,
    "these":6,
    "suddenly":6,
    "no\u00ad":6,
    "ive":6,
    "moon":6,
    "shoulder":6,
    "bag":6,
    "among":6,
    "everything":6,
    "tobacco":6,
    "let":6,
    "put":6,
    "anyone":6,
    "each":6,
    "soon":6,
    "stutter":6,
    "first":6,
    "princess":7,
    "water":7,
    "runs":7,
    "mill":7,
    "after":7,
    "cant":7,
    "those":7,
    "medicine":7,
    "three":7,
    "little":7,
    "give":7,
    "tell":7,
    "watch":7,
    "thats":7,
    "sure":7,
    "rabbits":7,
    "finds":7,
    "blood":7,
    "smiles":7,
    "left":7,
    "didnt":7,
    "dress":7,
    "things":7,
    "pedro":7,
    "time":8,
    "through":8,
    "youre":8,
    "wife":8,
    "forest":8,
    "theyre":8,
    "captain\u00ad":8,
    "help":8,
    "shes":8,
    "because":8,
    "bottle":8,
    "eyes":8,
    "key":8,
    "root":8,
    "kill":8,
    "think":8,
    "going":9,
    "silence":9,
    "stick":9,
    "insect":9,
    "hes":9,
    "did":9,
    "than":9,
    "room":9,
    "full":9,
    "theres":9,
    "without":9,
    "ground":9,
    "please":9,
    "under":9,
    "leave":9,
    "leaves":9,
    "or":10,
    "toward":10,
    "last":10,
    "has":10,
    "head":10,
    "man":10,
    "been":10,
    "better":10,
    "you\u00ad":10,
    "brother":10,
    "opens":10,
    "again":10,
    "good":10,
    "inside":10,
    "make":10,
    "another":11,
    "turns":11,
    "too":11,
    "old":11,
    "ill":11,
    "young":11,
    "take":11,
    "goes":11,
    "hands":11,
    "know":11,
    "two":11,
    "nothing":11,
    "alone":11,
    "son":11,
    "bed":11,
    "about":11,
    "face":11,
    "some":11,
    "where":12,
    "need":12,
    "hand":12,
    "youll":12,
    "very":12,
    "green":12,
    "want":12,
    "open":12,
    "around":12,
    "now":12,
    "were":13,
    "see":13,
    "us":13,
    "something":13,
    "would":14,
    "look":14,
    "down":14,
    "how":14,
    "only":14,
    "will":14,
    "tree":14,
    "who":15,
    "just":15,
    "off":15,
    "door":15,
    "im":15,
    "when":15,
    "more":15,
    "moves":16,
    "come":16,
    "small":16,
    "comes":16,
    "away":16,
    "fairy":16,
    "serrano":16,
    "do":16,
    "sir":16,
    "long":17,
    "if":17,
    "girl":17,
    "go":17,
    "looks":17,
    "men":18,
    "so":18,
    "yes":18,
    "over":19,
    "father":19,
    "back":19,
    "get":19,
    "faun":19,
    "there":20,
    "takes":20,
    "an":20,
    "like":20,
    "all":21,
    "can":21,
    "into":22,
    "by":22,
    "cut":23,
    "them":24,
    "garc\u00e9s":24,
    "then":25,
    "here":25,
    "\u00ad":25,
    "they":27,
    "dont":27,
    "carmen":27,
    "captain":27,
    "doctor":27,
    "we":27,
    "what":27,
    "no":28,
    "well":29,
    "was":29,
    "not":29,
    "from":32,
    "have":34,
    "but":35,
    "my":35,
    "for":36,
    "with":37,
    "one":38,
    "this":38,
    "be":39,
    "as":39,
    "up":40,
    "out":40,
    "its":40,
    "are":42,
    "at":44,
    "that":47,
    "me":47,
    "him":47,
    "your":50,
    "on":52,
    "mercedes":54,
    "she":66,
    "ofelia":70,
    "his":75,
    "it":75,
    "i":80,
    "vidal":84,
    "is":90,
    "he":92,
    "in":103,
    "her":111,
    "of":146,
    "you":159,
    "to":211,
    "and":223,
    "a":231,
    "the":517
}