{
    "exist":1,
    "spent":1,
    "talked":1,
    "enter":1,
    "visualize":1,
    "unfortunately":1,
    "toads":1,
    "dude":1,
    "meantime":1,
    "hoped":1,
    "seniors":1,
    "plastic":1,
    "spork":1,
    "bring":1,
    "silverware":1,
    "treasurer":1,
    "quarterback":1,
    "team":1,
    "played":1,
    "bright":1,
    "side":1,
    "drew":1,
    "callahans":1,
    "legendary":1,
    "goatee":1,
    "grease":1,
    "pencil":1,
    "toy":1,
    "learned":1,
    "nam":1,
    "68":1,
    "callahan":1,
    "sergeant":1,
    "gooks":1,
    "saigon":1,
    "whorehouse":1,
    "proud":1,
    "taking":1,
    "pattycakes":1,
    "impersonation":1,
    "safety":1,
    "guides":1,
    "surviving":1,
    "fascist":1,
    "useful":1,
    "advanced":1,
    "smartest":1,
    "trapper":1,
    "keeper":1,
    "teach":1,
    "america":1,
    "harper":1,
    "lees":1,
    "mockingbird":1,
    "genius":1,
    "pop":1,
    "shocked":1,
    "skip":1,
    "paperback":1,
    "british":1,
    "serial":1,
    "fact":1,
    "novel":1,
    "hanging":1,
    "cliff":1,
    "fingernails":1,
    "hence":1,
    "cliffhanger":1,
    "novels":1,
    "charles":1,
    "dickens":1,
    "however":1,
    "shakespeares":1,
    "cost":1,
    "4":1,
    "imagine":1,
    "metal":1,
    "ushers":1,
    "lock":1,
    "depot":1,
    "supplies":1,
    "final":1,
    "learn":1,
    "teachers":1,
    "sort":1,
    "depressing":1,
    "happily":1,
    "toad":1,
    "1384":1,
    "chicken":1,
    "paprikash":1,
    "delicious":1,
    "silly":1,
    "champ":1,
    "em":1,
    "nicer":1,
    "pussy":1,
    "cover":1,
    "handpainted":1,
    "reminded":1,
    "already":1,
    "devils":1,
    "woooooo":1,
    "pledges":1,
    "hows":1,
    "building":1,
    "boat":1,
    "waiting":1,
    "endless":1,
    "nightmare":1,
    "assholes":1,
    "broth":1,
    "question":1,
    "bathrooms":1,
    "mens":1,
    "shag":1,
    "tossing":1,
    "salad":1,
    "awww":1,
    "ass":1,
    "watering":1,
    "brandy":1,
    "iced":1,
    "tea":1,
    "breakup":1,
    "louder":1,
    "bombs":1,
    "dereks":1,
    "many":1,
    "levels":1,
    "record":1,
    "store":1,
    "watch":1,
    "shell":1,
    "joke":1,
    "slut":1,
    "falcon":1,
    "solve":1,
    "crimes":1,
    "stepbrother":1,
    "worthless":1,
    "married":1,
    "bitter":1,
    "mistake":1,
    "bulimic":1,
    "bulimist":1,
    "means":1,
    "believes":1,
    "paying":1,
    "problem":1,
    "deaf":1,
    "hair":1,
    "appointment":1,
    "contest":1,
    "saturday":1,
    "u":1,
    "columbia":1,
    "pitt":1,
    "mommy":1,
    "herself":1,
    "51":1,
    "dog":1,
    "egged":1,
    "helens":1,
    "boyfriends":1,
    "holy":1,
    "wore":1,
    "toasty":1,
    "piss":1,
    "tennessee":1,
    "tuxedo":1,
    "bobs":1,
    "paranoid":1,
    "sensitive":1,
    "tease":1,
    "marry":1,
    "patricks":1,
    "blessing":1,
    "hopeless":1,
    "stoner":1,
    "attends":1,
    "culinary":1,
    "institute":1,
    "touch\u00e9":1,
    "desperate":1,
    "women":1,
    "seat":1,
    "expect":1,
    "meaningful":1,
    "heartfelt":1,
    "jobs":1,
    "dick":1,
    "everywhere":1,
    "river":1,
    "meaner":1,
    "lucky":1,
    "brownie":1,
    "hungry":1,
    "darn":1,
    "bullshit":1,
    "nutrition":1,
    "center":1,
    "jackets":1,
    "98":1,
    "degrees":1,
    "marching":1,
    "sport":1,
    "regret":1,
    "haircut":1,
    "sounded":1,
    "compliment":1,
    "stoned":1,
    "brown":1,
    "deserves":1,
    "itself":1,
    "mirror":1,
    "drinker":1,
    "hated":1,
    "stuff":1,
    "may":1,
    "note":1,
    "stairs":1,
    "baked":1,
    "cake":1,
    "match":1,
    "laughed":1,
    "funny":1,
    "agreed":1,
    "later":1,
    "forward":1,
    "toast":1,
    "wallflower":1,
    "island":1,
    "misfit":1,
    "toys":1,
    "mama":1,
    "begging":1,
    "concede":1,
    "highness":1,
    "lying":1,
    "til":1,
    "hurts":1,
    "example":1,
    "ballads":1,
    "kitschy":1,
    "brilliant":1,
    "agree":1,
    "studying":1,
    "turns":1,
    "impressive":1,
    "working":1,
    "fanzine":1,
    "horror":1,
    "picture":1,
    "show":1,
    "interesting":1,
    "somehow":1,
    "acts":1,
    "vampires":1,
    "steals":1,
    "mall":1,
    "rich":1,
    "judgemental":1,
    "serious":1,
    "junior":1,
    "weekends":1,
    "fooled":1,
    "7":1,
    "loved":1,
    "sober":1,
    "upper":1,
    "classmen":1,
    "reputation":1,
    "judge":1,
    "based":1,
    "r":1,
    "k":1,
    "y":1,
    "spell":1,
    "fae":1,
    "wray":1,
    "delicate":1,
    "satin":1,
    "draped":1,
    "frame":1,
    "clung":1,
    "thigh":1,
    "cause":1,
    "absolute":1,
    "swim":1,
    "warm":1,
    "waters":1,
    "sins":1,
    "flesh":1,
    "erotic":1,
    "nightmares":1,
    "beyond":1,
    "measure":1,
    "sensual":1,
    "daydreams":1,
    "treasure":1,
    "gorgeous":1,
    "black":1,
    "white":1,
    "printing":1,
    "professor":1,
    "gave":1,
    "reasons":1,
    "idiots":1,
    "1150":1,
    "1490":1,
    "sat":1,
    "results":1,
    "studied":1,
    "mess":1,
    "study":1,
    "stereo":1,
    "couldnt":1,
    "searching":1,
    "top":1,
    "pearly":1,
    "dew":1,
    "drops":1,
    "across":1,
    "car":1,
    "wash":1,
    "dumb":1,
    "telling":1,
    "morbidly":1,
    "upbeat":1,
    "writes":1,
    "specific":1,
    "probabilities":1,
    "statistics":1,
    "20":1,
    "growing":1,
    "stain":1,
    "fail":1,
    "woo":1,
    "minus":1,
    "gentlemen":1,
    "1210":1,
    "applications":1,
    "multiple":1,
    "pairs":1,
    "blue":1,
    "receipt":1,
    "paid":1,
    "impossible":1,
    "touched":1,
    "connecticut":1,
    "weeks":1,
    "ones":1,
    "harmonica":1,
    "magnetic":1,
    "set":1,
    "harvey":1,
    "milk":1,
    "twice":1,
    "gay":1,
    "given":1,
    "despite":1,
    "distinct":1,
    "possibility":1,
    "drum":1,
    "roll":1,
    "socks":1,
    "pants":1,
    "shirt":1,
    "belt":1,
    "ordered":1,
    "bosses":1,
    "surprised":1,
    "writers":1,
    "suits":1,
    "towel":1,
    "rack":1,
    "delve":1,
    "facilities":1,
    "emerge":1,
    "star":1,
    "rules":1,
    "print":1,
    "display":1,
    "seen":1,
    "surprise":1,
    "application":1,
    "mood":1,
    "suit":1,
    "sexy":1,
    "checking":1,
    "innocent":1,
    "danger":1,
    "far":1,
    "2nd":1,
    "valentine":1,
    "11":1,
    "robert":1,
    "boss":1,
    "treated":1,
    "turned":1,
    "kisses":1,
    "merry":1,
    "luck":1,
    "born":1,
    "ma":1,
    "thin":1,
    "pounds":1,
    "weight":1,
    "watchers":1,
    "luminaria":1,
    "landing":1,
    "claus":1,
    "eye":1,
    "missed":1,
    "cooking":1,
    "beginning":1,
    "pizza":1,
    "liking":1,
    "brainiac":1,
    "bowl":1,
    "picturing":1,
    "shoveling":1,
    "snow":1,
    "driveway":1,
    "clean":1,
    "congratulate":1,
    "hour":1,
    "tree":1,
    "dragon":1,
    "shovel":1,
    "calm":1,
    "protect":1,
    "1098":1,
    "7654321":1,
    "older":1,
    "pressure":1,
    "pressured":1,
    "drugs":1,
    "officer":1,
    "ground":1,
    "morning":1,
    "feverish":1,
    "cold":1,
    "air":1,
    "sinatra":1,
    "jag":1,
    "times":1,
    "minutes":1,
    "health":1,
    "lsd":1,
    "emergency":1,
    "flaked":1,
    "grows":1,
    "pose":1,
    "oil":1,
    "fraction":1,
    "attraction":1,
    "friendly":1,
    "dirty":1,
    "thrill":1,
    "chill":1,
    "fulfill":1,
    "join":1,
    "cast":1,
    "alternate":1,
    "filled":1,
    "thatd":1,
    "sadie":1,
    "hawkins":1,
    "asks":1,
    "obviously":1,
    "sexist":1,
    "crumb":1,
    "normally":1,
    "dances":1,
    "torture":1,
    "macho":1,
    "cute":1,
    "ok":1,
    "closer":1,
    "compare":1,
    "blame":1,
    "jealous":1,
    "breathe":1,
    "expose":1,
    "films":1,
    "merlot":1,
    "fancy":1,
    "collects":1,
    "drink":1,
    "hosting":1,
    "cotillion":1,
    "racist":1,
    "fire":1,
    "lobbyist":1,
    "cape":1,
    "cod":1,
    "total":1,
    "disaster":1,
    "literally":1,
    "bra":1,
    "door":1,
    "opens":1,
    "scrambling":1,
    "dress":1,
    "sadies":1,
    "hurt":1,
    "feelings":1,
    "underneath":1,
    "hates":1,
    "almost":1,
    "anniversary":1,
    "double":1,
    "vegans":1,
    "butter":1,
    "mind":1,
    "sweaty":1,
    "admit":1,
    "upsetting":1,
    "touching":1,
    "makeout":1,
    "walden":1,
    "7th":1,
    "pond":1,
    "bus":1,
    "dairy":1,
    "sits":1,
    "walks":1,
    "christs":1,
    "sake":1,
    "became":1,
    "vegan":1,
    "mad":1,
    "interrupt":1,
    "hindsight":1,
    "picked":1,
    "breeder":1,
    "samantha":1,
    "gotten":1,
    "flowers":1,
    "waitlisted":1,
    "excuse":1,
    "missing":1,
    "hot":1,
    "fag":1,
    "goth":1,
    "fantasizing":1,
    "cancer":1,
    "prettiest":1,
    "lips":1,
    "charitably":1,
    "smoke":1,
    "bitches":1,
    "fucked":1,
    "history":1,
    "easter":1,
    "mass":1,
    "art":1,
    "hallowed":1,
    "kingdom":1,
    "daily":1,
    "bread":1,
    "trespasses":1,
    "trespass":1,
    "lead":1,
    "temptation":1,
    "deliver":1,
    "cd":1,
    "messed":1,
    "inside":1,
    "cares":1,
    "kindergarten":1,
    "ruined":1,
    "embarrassing":1,
    "goodbye":1,
    "mar":1,
    "somethings":1,
    "lebo":1,
    "north":1,
    "hills":1,
    "ape":1,
    "tripped":1,
    "pathetic":1,
    "fixation":1,
    "bruises":1,
    "parking":1,
    "pull":1,
    "faggo":1,
    "blind":1,
    "stopping":1,
    "saved":1,
    "psychos":1,
    "dating":1,
    "peter":1,
    "opinionated":1,
    "intellectual":1,
    "debates":1,
    "onesided":1,
    "glad":1,
    "miss":1,
    "movie":1,
    "pep":1,
    "karaoke":1,
    "card":1,
    "scene":1,
    "gotta":1,
    "fruit":1,
    "loop":1,
    "officially":1,
    "special":1,
    "miller":1,
    "classic":1,
    "parker":1,
    "lose":1,
    "proper":1,
    "packed":1,
    "picnic":1,
    "stole":1,
    "bottle":1,
    "realize":1,
    "forgot":1,
    "condoms":1,
    "sandwich":1,
    "bags":1,
    "ew":1,
    "train":1,
    "rolling":1,
    "legends":1,
    "named":1,
    "base":1,
    "stace":1,
    "4th":1,
    "mosquito":1,
    "bites":1,
    "promising":1,
    "legend":1,
    "cop":1,
    "listened":1,
    "wrote":1,
    "poem":1,
    "self":1,
    "esteem":1,
    "queer":1,
    "dollar":1,
    "bill":1,
    "basement":1,
    "town":1,
    "catches":1,
    "starts":1,
    "slap":1,
    "killing":1,
    "yells":1,
    "different":1,
    "spending":1,
    "begins":1,
    "destiny":1,
    "runs":1,
    "numb":1,
    "require":1,
    "session":1,
    "immediately":1,
    "following":1,
    "university":1,
    "washington":1,
    "near":1,
    "seattle":1,
    "organizing":1,
    "prank":1,
    "exciting":1,
    "pass":1,
    "copies":1,
    "gatsby":1,
    "dull":1,
    "roar":1,
    "appreciate":1,
    "blast":1,
    "vacations":1,
    "reading":1,
    "none":1,
    "business":1,
    "teaching":1,
    "running":1,
    "sunset":1,
    "few":1,
    "hours":1,
    "stag":1,
    "girlfriends":1,
    "hotel":1,
    "suite":1,
    "prom":1,
    "basically":1,
    "cheating":1,
    "railing":1,
    "suave":1,
    "angle":1,
    "belonged":1,
    "somewhere":1,
    "staying":1,
    "restaurant":1,
    "ye":1,
    "olde":1,
    "diner":1,
    "stickie":1,
    "tradition":1,
    "asking":1,
    "treat":1,
    "everybodys":1,
    "ahead":1,
    "yours":1,
    "counts":1,
    "crush":1,
    "speak":1,
    "youd":1,
    "meant":1,
    "alike":1,
    "each":1,
    "brothers":1,
    "died":1,
    "keeps":1,
    "police":1,
    "send":1,
    "die":1,
    "dr":1,
    "burton":1,
    "afford":1,
    "pain":1,
    "hurting":1,
    "insane":1,
    "walking":1,
    "detail":1,
    "unexpected":1,
    "visitors":1,
    "training":1,
    "camp":1,
    "string":1,
    "job":1,
    "thursday":1,
    "answers":1,
    "enough":1,
    "putting":1,
    "pieces":1,
    "bless":1,
    "food":1,
    "receive":1,
    "bounty":1,
    "lord":1,
    "christ":1,
    "amen":1,
    "allergic":1,
    "defense":1,
    "players":1,
    "puck":1,
    "stickies":1,
    "fall":1,
    "definitely":1,
    "breakdown":1,
    "scheduled":1,
    "october":1,
    "gets":1,
    "roommate":1,
    "katie":1,
    "busy":1,
    "helped":1,
    "16":1,
    "17":1,
    "moments":1,
    "story":1,
    "alive":1,
    "lights":1,
    "buildings":1,
    "wonder":1,
    "swear":1,
    "writing":2,
    "wouldnt":2,
    "family":2,
    "plan":2,
    "counted":2,
    "hop":2,
    "move":2,
    "1385":2,
    "worked":2,
    "rock":2,
    "susan":2,
    "middle":2,
    "hays":2,
    "football":2,
    "hed":2,
    "brads":2,
    "instead":2,
    "freshmen":2,
    "wasnt":2,
    "open":2,
    "chapter":2,
    "1":2,
    "needs":2,
    "excited":2,
    "start":2,
    "learning":2,
    "faggot":2,
    "shhh":2,
    "semester":2,
    "quiz":2,
    "author":2,
    "invented":2,
    "shakespeare":2,
    "else":2,
    "pennies":2,
    "box":2,
    "raise":2,
    "pet":2,
    "freak":2,
    "spaz":2,
    "sir":2,
    "both":2,
    "mrs":2,
    "starting":2,
    "smile":2,
    "cruisin":2,
    "bruisin":2,
    "gives":2,
    "week":2,
    "babe":2,
    "eyes":2,
    "suck":2,
    "virginity":2,
    "clock":2,
    "coming":2,
    "mine":2,
    "original":2,
    "disgusting":2,
    "hold":2,
    "waitress":2,
    "olive":2,
    "garden":2,
    "dates":2,
    "elizabeths":2,
    "caught":2,
    "game":2,
    "smiths":2,
    "works":2,
    "copy":2,
    "eides":2,
    "downtown":2,
    "popular":2,
    "forever":2,
    "jesus":2,
    "ago":2,
    "absolutely":2,
    "bulimia":2,
    "ride":2,
    "spend":2,
    "mamas":2,
    "bitch":2,
    "handle":2,
    "welcome":2,
    "dressed":2,
    "hit":2,
    "trust":2,
    "living":2,
    "routine":2,
    "freezing":2,
    "costume":2,
    "ready":2,
    "blow":2,
    "boring":2,
    "selfish":2,
    "sometimes":2,
    "carpet":2,
    "cafeteria":2,
    "letters":2,
    "photographs":2,
    "true":2,
    "likes":2,
    "deal":2,
    "word":2,
    "guessing":2,
    "michael":2,
    "parties":2,
    "shot":2,
    "wheres":2,
    "bathroom":2,
    "woah":2,
    "relax":2,
    "glasses":2,
    "cool":2,
    "perfect":2,
    "infinite":2,
    "written":2,
    "loser":2,
    "collection":2,
    "completely":2,
    "extra":2,
    "once":2,
    "wife":2,
    "jeans":2,
    "took":2,
    "monday":2,
    "wasted":2,
    "eventually":2,
    "able":2,
    "asked":2,
    "care":2,
    "making":2,
    "o":2,
    "c":2,
    "whatever":2,
    "pleasure":2,
    "color":2,
    "sats":2,
    "harvard":2,
    "face":2,
    "oops":2,
    "campus":2,
    "bit":2,
    "taste":2,
    "40":2,
    "drop":2,
    "someday":2,
    "step":2,
    "stops":2,
    "save":2,
    "tells":2,
    "accept":2,
    "work":2,
    "30":2,
    "terrible":2,
    "below":2,
    "average":2,
    "eve":2,
    "received":2,
    "myself":2,
    "clothes":2,
    "while":2,
    "knows":2,
    "visit":2,
    "scared":2,
    "hasnt":2,
    "kissed":2,
    "chance":2,
    "until":2,
    "moms":2,
    "heart":2,
    "honey":2,
    "strip":2,
    "feeling":2,
    "looking":2,
    "quiet":2,
    "happen":2,
    "passed":2,
    "tired":2,
    "walk":2,
    "supposed":2,
    "scare":2,
    "action":2,
    "wanna":2,
    "creature":2,
    "stupid":2,
    "sick":2,
    "having":2,
    "billie":2,
    "holiday":2,
    "foreign":2,
    "wine":2,
    "beating":2,
    "uhhuh":2,
    "hello":2,
    "front":2,
    "part":2,
    "makes":2,
    "two":2,
    "hands":2,
    "boobs":2,
    "pick":2,
    "found":2,
    "congratulations":2,
    "relationship":2,
    "dying":2,
    "notice":2,
    "late":2,
    "heaven":2,
    "against":2,
    "weve":2,
    "known":2,
    "hear":2,
    "jumped":2,
    "sweet":2,
    "lily":2,
    "suburban":2,
    "graduation":2,
    "without":2,
    "happening":2,
    "blacked":2,
    "1095":2,
    "kept":2,
    "came":2,
    "whole":2,
    "photo":2,
    "leaving":2,
    "grilled":2,
    "driving":2,
    "lives":2,
    "somebodys":2,
    "crying":2,
    "mayview":2,
    "doctor":2,
    "penguins":2,
    "biscuit":2,
    "stories":2,
    "sleep":3,
    "though":3,
    "met":3,
    "weird":3,
    "hospital":3,
    "havent":3,
    "tomorrow":3,
    "boys":3,
    "eat":3,
    "earth":3,
    "hi":3,
    "anymore":3,
    "kidding":3,
    "decided":3,
    "prick":3,
    "punch":3,
    "kill":3,
    "killed":3,
    "saying":3,
    "read":3,
    "wow":3,
    "wants":3,
    "which":3,
    "also":3,
    "end":3,
    "free":3,
    "paper":3,
    "participate":3,
    "today":3,
    "worse":3,
    "probably":3,
    "soon":3,
    "mmmm":3,
    "charlies":3,
    "find":3,
    "stand":3,
    "dads":3,
    "looks":3,
    "sit":3,
    "calling":3,
    "bob":3,
    "alone":3,
    "kings":3,
    "tape":3,
    "ruin":3,
    "writer":3,
    "girlfriend":3,
    "sams":3,
    "bye":3,
    "wake":3,
    "promise":3,
    "ladies":3,
    "looked":3,
    "cry":3,
    "comes":3,
    "use":3,
    "feels":3,
    "wear":3,
    "letter":3,
    "head":3,
    "sounds":3,
    "himself":3,
    "isnt":3,
    "idea":3,
    "york":3,
    "punk":3,
    "buddhist":3,
    "loves":3,
    "especially":3,
    "drunk":3,
    "thing":3,
    "months":3,
    "least":3,
    "ah":3,
    "same":3,
    "most":3,
    "nyu":3,
    "main":3,
    "much":3,
    "worst":3,
    "moment":3,
    "poetry":3,
    "fast":3,
    "choose":3,
    "date":3,
    "10":3,
    "presents":3,
    "must":3,
    "grade":3,
    "done":3,
    "minute":3,
    "lot":3,
    "chris":3,
    "knew":3,
    "theyll":3,
    "itll":3,
    "6":3,
    "believe":3,
    "honest":3,
    "tried":3,
    "other":3,
    "getting":3,
    "forgive":3,
    "thy":3,
    "become":3,
    "place":3,
    "pictures":3,
    "group":3,
    "damn":3,
    "dear":4,
    "figure":4,
    "nervous":4,
    "outside":4,
    "lunch":4,
    "club":4,
    "theres":4,
    "play":4,
    "shop":4,
    "english":4,
    "term":4,
    "anybody":4,
    "gone":4,
    "office":4,
    "hand":4,
    "tough":4,
    "someone":4,
    "ask":4,
    "wont":4,
    "kelmeckis":4,
    "huh":4,
    "real":4,
    "actually":4,
    "pony":4,
    "tail":4,
    "leave":4,
    "band":4,
    "asleep":4,
    "long":4,
    "left":4,
    "years":4,
    "boy":4,
    "shut":4,
    "stay":4,
    "shes":4,
    "saw":4,
    "playing":4,
    "dance":4,
    "milkshake":4,
    "youve":4,
    "wait":4,
    "through":4,
    "tunnel":4,
    "does":4,
    "phone":4,
    "listening":4,
    "books":4,
    "father":4,
    "film":4,
    "help":4,
    "hate":4,
    "youll":4,
    "everything":4,
    "forget":4,
    "small":4,
    "another":4,
    "dollars":4,
    "second":4,
    "kiss":4,
    "um":4,
    "fine":4,
    "touch":4,
    "schenley":4,
    "park":4,
    "son":4,
    "listen":5,
    "understand":5,
    "senior":5,
    "":5,
    "only":5,
    "teacher":5,
    "happened":5,
    "name":5,
    "felt":5,
    "kids":5,
    "book":5,
    "alright":5,
    "3":5,
    "truth":5,
    "sad":5,
    "always":5,
    "made":5,
    "yourself":5,
    "world":5,
    "every":5,
    "next":5,
    "life":5,
    "drive":5,
    "says":5,
    "course":5,
    "remember":5,
    "such":5,
    "crazy":5,
    "pretty":5,
    "wish":5,
    "alice":5,
    "talking":5,
    "started":5,
    "gimme":5,
    "deserve":5,
    "christmas":5,
    "present":5,
    "birthday":5,
    "guy":5,
    "beautiful":5,
    "dare":5,
    "person":6,
    "party":6,
    "please":6,
    "kid":6,
    "anyone":6,
    "summer":6,
    "around":6,
    "hard":6,
    "their":6,
    "thought":6,
    "went":6,
    "penn":6,
    "state":6,
    "together":6,
    "class":6,
    "being":6,
    "finally":6,
    "anderson":6,
    "by":6,
    "write":6,
    "those":6,
    "helen":6,
    "still":6,
    "yes":6,
    "way":6,
    "theyre":6,
    "called":6,
    "has":6,
    "wanted":6,
    "college":6,
    "santa":6,
    "might":7,
    "man":7,
    "room":7,
    "boyfriend":7,
    "old":7,
    "very":7,
    "fun":7,
    "whos":7,
    "brother":7,
    "guess":7,
    "used":7,
    "worry":7,
    "than":7,
    "parents":7,
    "mix":7,
    "house":7,
    "lets":7,
    "hell":7,
    "since":7,
    "any":7,
    "seeing":7,
    "girl":7,
    "try":8,
    "turn":8,
    "days":8,
    "candace":8,
    "let":8,
    "doesnt":8,
    "mr":8,
    "better":8,
    "off":8,
    "take":8,
    "aunt":8,
    "favorite":8,
    "told":8,
    "tonight":8,
    "meet":8,
    "song":8,
    "music":8,
    "mom":8,
    "home":8,
    "kind":8,
    "awhile":8,
    "thinking":8,
    "rocky":8,
    "keep":8,
    "break":8,
    "away":8,
    "hope":9,
    "freshman":9,
    "big":9,
    "id":9,
    "back":9,
    "before":9,
    "down":9,
    "heard":9,
    "bad":9,
    "give":9,
    "more":9,
    "shit":9,
    "whats":9,
    "wrong":9,
    "new":9,
    "ive":9,
    "high":10,
    "derek":10,
    "doing":10,
    "put":10,
    "call":10,
    "everyone":10,
    "tell":10,
    "where":10,
    "thank":10,
    "talk":10,
    "over":10,
    "into":10,
    "need":11,
    "day":11,
    "as":11,
    "sister":11,
    "best":11,
    "trying":11,
    "should":11,
    "his":11,
    "sure":11,
    "friends":11,
    "an":11,
    "these":11,
    "uh":11,
    "never":11,
    "after":11,
    "craig":11,
    "last":12,
    "hes":12,
    "happy":12,
    "too":12,
    "secret":12,
    "night":12,
    "stop":12,
    "am":13,
    "even":13,
    "year":13,
    "maybe":13,
    "brad":13,
    "nothing":13,
    "anything":13,
    "again":13,
    "been":13,
    "god":13,
    "friend":14,
    "then":14,
    "ever":14,
    "things":14,
    "some":14,
    "or":14,
    "great":14,
    "elizabeth":14,
    "mean":15,
    "us":15,
    "feel":15,
    "why":15,
    "oh":15,
    "dad":15,
    "something":15,
    "said":16,
    "people":16,
    "will":16,
    "from":16,
    "got":16,
    "nice":16,
    "right":16,
    "little":16,
    "him":16,
    "mary":16,
    "guys":17,
    "them":17,
    "make":18,
    "our":18,
    "thanks":18,
    "had":18,
    "ill":18,
    "come":18,
    "look":18,
    "well":19,
    "first":20,
    "say":20,
    "who":21,
    "thats":21,
    "when":21,
    "cant":21,
    "there":21,
    "because":22,
    "didnt":22,
    "see":22,
    "now":22,
    "here":22,
    "sorry":22,
    "school":23,
    "love":23,
    "did":23,
    "up":23,
    "could":24,
    "they":24,
    "good":24,
    "would":25,
    "were":25,
    "can":25,
    "patrick":26,
    "hey":26,
    "at":27,
    "one":27,
    "time":29,
    "if":30,
    "okay":31,
    "think":32,
    "all":32,
    "youre":32,
    "go":33,
    "out":34,
    "how":34,
    "sam":35,
    "yeah":36,
    "really":37,
    "get":37,
    "want":38,
    "not":38,
    "no":39,
    "going":40,
    "with":41,
    "like":41,
    "her":41,
    "we":41,
    "she":42,
    "do":45,
    "about":45,
    "he":46,
    "on":49,
    "are":50,
    "for":52,
    "dont":57,
    "your":57,
    "just":58,
    "its":58,
    "was":59,
    "im":61,
    "what":65,
    "in":66,
    "this":66,
    "so":66,
    "be":67,
    "but":68,
    "know":70,
    "my":72,
    "is":74,
    "of":74,
    "have":77,
    "charlie":81,
    "me":83,
    "that":92,
    "it":104,
    "and":154,
    "a":171,
    "the":183,
    "to":258,
    "you":315,
    "i":355
}