{
    "rocked":1,
    "mayhem":1,
    "spherical":1,
    "metal":1,
    "bigtop":1,
    "handsome":1,
    "heartthrobs":1,
    "motorcycles":1,
    "bursts":1,
    "revs":1,
    "lazy":1,
    "loops":1,
    "guides":1,
    "defies":1,
    "gravity":1,
    "weaving":1,
    "stunt":1,
    "deathdefying":1,
    "bravado":1,
    "drivers":1,
    "performs":1,
    "finale":1,
    "loop":1,
    "leaps":1,
    "facet":1,
    "wild":1,
    "rough":1,
    "folks":1,
    "youd":1,
    "fans":1,
    "tug":1,
    "clothing":1,
    "vying":1,
    "remembers":1,
    "thrill":1,
    "pack":1,
    "tires":1,
    "squealing":1,
    "blackening":1,
    "closing":1,
    "visible":1,
    "nobodys":1,
    "short":1,
    "peeks":1,
    "toys":1,
    "scattered":1,
    "relents":1,
    "longer":1,
    "unsure":1,
    "awkwardly":1,
    "diner":1,
    "forever":1,
    "secret":1,
    "tray":1,
    "flustered":1,
    "fling":1,
    "common":1,
    "courtesy":1,
    "boyfriend":1,
    "fuckin":1,
    "dismantle":1,
    "fuckelse":1,
    "whens":1,
    "period":1,
    "whatevers":1,
    "advances":1,
    "advance":1,
    "jack":1,
    "wad":1,
    "peels":1,
    "princess":1,
    "park":1,
    "nervously":1,
    "church":1,
    "disadvantage":1,
    "dressed":1,
    "baptismal":1,
    "frightened":1,
    "gestures":1,
    "concedes":1,
    "neck":1,
    "prince":1,
    "instead":1,
    "lived":1,
    "playing":1,
    "cheaper":1,
    "bout":1,
    "fortyfive":1,
    "market":1,
    "late":1,
    "pile":1,
    "temporarily":1,
    "transitionin":1,
    "service":1,
    "washout":1,
    "american":1,
    "worker":1,
    "seem":1,
    "flashes":1,
    "wry":1,
    "catch":1,
    "hours":1,
    "gigs":1,
    "poverty":1,
    "canopy":1,
    "ain\u2019t":1,
    "beats":1,
    "shithole":1,
    "helpful":1,
    "sucking":1,
    "cock":1,
    "coy":1,
    "postage":1,
    "stamps":1,
    "contraband":1,
    "they\u2019re":1,
    "gum":1,
    "infection":1,
    "ordered":1,
    "antibiotics":1,
    "warden":1,
    "postponement":1,
    "orders":1,
    "prison":1,
    "dentist":1,
    "near":1,
    "starved":1,
    "death":1,
    "smuggled":1,
    "penicillin":1,
    "pills":1,
    "punctuates":1,
    "clacking":1,
    "attica":1,
    "clean":1,
    "birds":1,
    "feather":1,
    "flock":1,
    "knock":1,
    "deep":1,
    "belly":1,
    "payday":1,
    "paltry":1,
    "sum":1,
    "area":1,
    "started":1,
    "earn":1,
    "asset":1,
    "chains":1,
    "bleed":1,
    "souping":1,
    "lowriders":1,
    "niggers":1,
    "spics":1,
    "spic":1,
    "south":1,
    "border":1,
    "toasts":1,
    "looooong":1,
    "throwing":1,
    "towel":1,
    "permission":1,
    "angles":1,
    "pardon":1,
    "misjudging":1,
    "convenience":1,
    "store":1,
    "flesh":1,
    "foresight":1,
    "failed":1,
    "considering":1,
    "children":1,
    "nature":1,
    "providing":1,
    "instinct":1,
    "feed":1,
    "sudden":1,
    "purpose":1,
    "laser":1,
    "competition":1,
    "disposal":1,
    "unique":1,
    "corny":1,
    "definitely":1,
    "existed":1,
    "marry":1,
    "excited":1,
    "carnac":1,
    "learn":1,
    "nothin":1,
    "soaks":1,
    "saving":1,
    "thinkin\u2019":1,
    "rv":1,
    "godforsaken":1,
    "style":1,
    "country":1,
    "neither":1,
    "150":1,
    "turned":1,
    "scans":1,
    "prospects":1,
    "swaddled":1,
    "rags":1,
    "slowly":1,
    "unwraps":1,
    "38":1,
    "snubnosed":1,
    "necessarily":1,
    "robbed":1,
    "note":1,
    "fiftyfifty":1,
    "risk":1,
    "goddamned":1,
    "lawyerly":1,
    "sixtyforty":1,
    "seventythirty":1,
    "sixtyfivethirtyfive":1,
    "tucks":1,
    "sweat":1,
    "power":1,
    "bought":1,
    "sweetheart":1,
    "account":1,
    "set":1,
    "wrapped":1,
    "elastic":1,
    "band":1,
    "three":1,
    "separate":1,
    "contains":1,
    "gentleman":1,
    "fastest":1,
    "witnessed":1,
    "clipped":1,
    "screams":1,
    "echo":1,
    "oblige":1,
    "slips":1,
    "female":1,
    "huddle":1,
    "squats":1,
    "haunches":1,
    "tosses":1,
    "raised":1,
    "attentive":1,
    "cooperation":1,
    "calmly":1,
    "phew":1,
    "dazed":1,
    "tired":1,
    "puked":1,
    "boots":1,
    "plants":1,
    "phoney":1,
    "kidding":1,
    "ate":1,
    "solid":1,
    "soft":1,
    "peeing":1,
    "blessing":1,
    "boring":1,
    "average":1,
    "whistles":1,
    "fingers":1,
    "delivery":1,
    "where\u2019s":1,
    "trunk":1,
    "slam":1,
    "uh":1,
    "hefting":1,
    "groceries":1,
    "needed":1,
    "huge":1,
    "worrying":1,
    "roll":1,
    "resigns":1,
    "herself":1,
    "spectator":1,
    "three\u2019s":1,
    "boxes":1,
    "peripherally":1,
    "provide":1,
    "anger":1,
    "building":1,
    "grab":1,
    "frame":1,
    "instant":1,
    "wrench":1,
    "springs":1,
    "cracks":1,
    "forehead":1,
    "crashes":1,
    "hitting":1,
    "past":1,
    "cradle":1,
    "appears":1,
    "911":1,
    "invisible":1,
    "unattainable":1,
    "scoops":1,
    "approaching":1,
    "posts":1,
    "date":1,
    "issues":1,
    "\u201ccriminal":1,
    "protection\u201d":1,
    "instructing":1,
    "2g":1,
    "1":1,
    "trustco":1,
    "national":1,
    "rotterdam":1,
    "warily":1,
    "trick":1,
    "realize":1,
    "lowly":1,
    "fumbles":1,
    "treat":1,
    "lunatic":1,
    "none":1,
    "diamond":1,
    "studded":1,
    "jeans":1,
    "wear":1,
    "makeup":1,
    "jewelry":1,
    "perfume":1,
    "penny":1,
    "sticks":1,
    "pisses":1,
    "owe":1,
    "sport":1,
    "honda":1,
    "superbike":1,
    "racing":1,
    "model":1,
    "changes":1,
    "balance":1,
    "nevermind":1,
    "lucite":1,
    "rises":1,
    "vault":1,
    "urgency":1,
    "instructed":1,
    "finishes":1,
    "ignoramus":1,
    "goddamnit":1,
    "spills":1,
    "impending":1,
    "siren":1,
    "corner":1,
    "leading":1,
    "ave":1,
    "possible":1,
    "adam21":1,
    "mile":1,
    "vale":1,
    "cemetery":1,
    "copy":1,
    "enroute":1,
    "neighborhoods":1,
    "heading":1,
    "flips":1,
    "uey":1,
    "accelerates":1,
    "converges":1,
    "hot":1,
    "aw":1,
    "nightstand":1,
    "listing":1,
    "operator":1,
    "checks":1,
    "sill":1,
    "legs":1,
    "number":1,
    "rings":1,
    "escaped":1,
    "backup":1,
    "shields":1,
    "carnage":1,
    "splatter":1,
    "curtain":1,
    "screaming":1,
    "\u201cluke\u201d":1,
    "speaker":1,
    "crawls":1,
    "using":1,
    "functional":1,
    "limbs":1,
    "prop":1,
    "splayed":1,
    "below":1,
    "contorted":1,
    "impossible":1,
    "distant":1,
    "frantically":1,
    "blankly":1,
    "sky":1,
    "nightmarish":1,
    "cars":1,
    "ambulances":1,
    "descend":1,
    "drones":1,
    "pronounce":1,
    "stunned":1,
    "announce":1,
    "squeezing":1,
    "bandaged":1,
    "propped":1,
    "pillow":1,
    "tingles":1,
    "loves":1,
    "squeezes":1,
    "balloons":1,
    "slight":1,
    "air":1,
    "conditioned":1,
    "morning":1,
    "visitors":1,
    "bedside":1,
    "treating":1,
    "pulling":1,
    "spoke":1,
    "blew":1,
    "friggin\u2019":1,
    "bagged":1,
    "disturbing":1,
    "soak":1,
    "realization":1,
    "war":1,
    "wounds":1,
    "rookie":1,
    "performance":1,
    "outstanding":1,
    "introduce":1,
    "bill":1,
    "spent":1,
    "pleasure":1,
    "questions":1,
    "paint":1,
    "dries":1,
    "knowwhatimean":1,
    "hat":1,
    "sounded":1,
    "seemed":1,
    "emotional":1,
    "howd":1,
    "announced":1,
    "kicked":1,
    "ledge":1,
    "holding":1,
    "dropped":1,
    "returned":1,
    "riddance":1,
    "triumphant":1,
    "ellis":1,
    "wheelchair":1,
    "dozens":1,
    "pd":1,
    "cheering":1,
    "state":1,
    "supreme":1,
    "thankful":1,
    "chose":1,
    "imposed":1,
    "graphic":1,
    "29":1,
    "yearold":1,
    "hadnt":1,
    "ran":1,
    "headon":1,
    "alleged":1,
    "pursued":1,
    "sofa":1,
    "elevated":1,
    "cast":1,
    "couch":1,
    "hobbles":1,
    "wheel":1,
    "radio":1,
    "hopefully":1,
    "results":1,
    "illuminated":1,
    "light":1,
    "fridge":1,
    "drinks":1,
    "six":1,
    "drifter":1,
    "stuntrider":1,
    "history":1,
    "moved":1,
    "forge":1,
    "trail":1,
    "destruction":1,
    "violence":1,
    "effects":1,
    "include":1,
    "fatherless":1,
    "crime":1,
    "shield":1,
    "stricken":1,
    "ed":1,
    "dague":1,
    "glanton\u2019s":1,
    "declined":1,
    "comment":1,
    "xx":1,
    "wnyt":1,
    "imagined":1,
    "unfortunately":1,
    "stuck":1,
    "crew":1,
    "bites":1,
    "sacrifice":1,
    "understands":1,
    "apologize":1,
    "agrees":1,
    "wishing":1,
    "lawyer\u2019s":1,
    "salary":1,
    "ironic":1,
    "celebrated":1,
    "gimp":1,
    "kisses":1,
    "cheek":1,
    "busts":1,
    "hungry":1,
    "spot":1,
    "we\u2019ve":1,
    "plenty":1,
    "insist":1,
    "intrude":1,
    "whatchu":1,
    "deluca\u2019s":1,
    "charm":1,
    "serves":1,
    "papa\u2019s":1,
    "underlying":1,
    "tension":1,
    "glass":1,
    "6":1,
    "clink":1,
    "speedy":1,
    "macaroni":1,
    "feeds":1,
    "relates":1,
    "grew":1,
    "\u201cpure":1,
    "protein":1,
    "8":1,
    "smack":1,
    "baseball\u201d":1,
    "wouldn\u2019t":1,
    "curfew":1,
    "active":1,
    "given":1,
    "green":1,
    "outmaneuvered":1,
    "violated":1,
    "sidesteps":1,
    "nodding":1,
    "safe":1,
    "lawyer":1,
    "relax":1,
    "matters":1,
    "piker":1,
    "10g":1,
    "peanuts":1,
    "covered":1,
    "fdic":1,
    "anyways":1,
    "offered":1,
    "boss":1,
    "concerned":1,
    "appearances":1,
    "harass":1,
    "wake":1,
    "haul":1,
    "flip":1,
    "whered":1,
    "ha":1,
    "perfect":1,
    "notice":1,
    "missing":1,
    "noticing":1,
    "fourteen":1,
    "grand":1,
    "lions":1,
    "share":1,
    "rearview":1,
    "mirror":1,
    "unofficial":1,
    "hazard":1,
    "disoriented":1,
    "conversation":1,
    "ultimately":1,
    "recommendation":1,
    "doctors":1,
    "properly":1,
    "bother":1,
    "therapy":1,
    "elaborate":1,
    "relearning":1,
    "sorted":1,
    "child":1,
    "celebrate":1,
    "member":1,
    "join":1,
    "action":1,
    "careful":1,
    "beams":1,
    "easier":1,
    "path":1,
    "spontaneously":1,
    "applauds":1,
    "lumbers":1,
    "officially":1,
    "affixes":1,
    "medal":1,
    "valor":1,
    "limps":1,
    "quell":1,
    "heroic":1,
    "fellow":1,
    "upon":1,
    "hesitate":1,
    "bullet":1,
    "safer":1,
    "simply":1,
    "solved":1,
    "glances":1,
    "situation":1,
    "differently":1,
    "imagine":1,
    "rather":1,
    "moments":1,
    "photo":1,
    "ops":1,
    "center":1,
    "motivated":1,
    "army":1,
    "truthfully":1,
    "planned":1,
    "orchestrated":1,
    "within":1,
    "calculation":1,
    "depends":1,
    "campaigning":1,
    "vote":1,
    "plus":1,
    "goldmine":1,
    "backfloat":1,
    "roosevelt":1,
    "received":1,
    "convey":1,
    "relief":1,
    "110":1,
    "states":1,
    "internal":1,
    "deemed":1,
    "lawful":1,
    "congratulations":1,
    "anytime":1,
    "effective":1,
    "cleareyed":1,
    "busting":1,
    "investigations":1,
    "paid":1,
    "education":1,
    "ideas":1,
    "division":1,
    "mighty":1,
    "entitlement":1,
    "trade":1,
    "fifteen":1,
    "fame":1,
    "meantime":1,
    "retire":1,
    "disability":1,
    "reassignment":1,
    "current":1,
    "rank":1,
    "clothes":1,
    "vice":1,
    "paired":1,
    "folder":1,
    "marijuana":1,
    "lockers":1,
    "cardboard":1,
    "spreads":1,
    "key":1,
    "pad":1,
    "booth":1,
    "contempt":1,
    "waitress":1,
    "venom":1,
    "pregnant":1,
    "stevens":1,
    "jabs":1,
    "ribs":1,
    "em":1,
    "starving":1,
    "sensitive":1,
    "private":1,
    "rage":1,
    "pours":1,
    "tuna":1,
    "melt":1,
    "iced":1,
    "gotten":1,
    "wide":1,
    "level":1,
    "pushers":1,
    "higherups":1,
    "convince":1,
    "legitimate":1,
    "insane":1,
    "adds":1,
    "sugars":1,
    "standup":1,
    "temporary":1,
    "access":1,
    "borrow":1,
    "involved":1,
    "periodically":1,
    "club":1,
    "openended":1,
    "thumb":1,
    "somebody":1,
    "trial":1,
    "fudge":1,
    "paper":1,
    "occasional":1,
    "report":1,
    "disorganized":1,
    "hedge":1,
    "surprises":1,
    "bribe":1,
    "bribes":1,
    "assurance":1,
    "selfrighteous":1,
    "everybody":1,
    "cmere":1,
    "disappeared":1,
    "earlier":1,
    "beckons":1,
    "anticipating":1,
    "adventure":1,
    "gimme":1,
    "dope":1,
    "jerks":1,
    "nostrils":1,
    "stall":1,
    "absolute":1,
    "telltale":1,
    "yanking":1,
    "joint":1,
    "shitbag":1,
    "petrified":1,
    "aside":1,
    "unspoken":1,
    "urges":1,
    "motherfucker":1,
    "whispers":1,
    "mortified":1,
    "defiance":1,
    "ultimate":1,
    "ghetto":1,
    "insult":1,
    "man\u2019s":1,
    "shoulder":1,
    "sake":1,
    "breathing":1,
    "bloodied":1,
    "apologies":1,
    "colleague":1,
    "learning":1,
    "crack":1,
    "cocaine":1,
    "flashlight":1,
    "taste":1,
    "interested":1,
    "learns":1,
    "guilt":1,
    "moron":1,
    "creeping":1,
    "enemy":1,
    "nothing\u2019s":1,
    "shuts":1,
    "excuse":1,
    "touch":1,
    "inappropriate":1,
    "entrap":1,
    "devil":1,
    "backs":1,
    "foot":1,
    "promotion":1,
    "houses":1,
    "during":1,
    "chiefs":1,
    "minute":1,
    "deposit":1,
    "unfucking":1,
    "believable":1,
    "tissues":1,
    "build":1,
    "shove":1,
    "figure":1,
    "increasing":1,
    "determination":1,
    "license":1,
    "registration":1,
    "thrown":1,
    "tol":1,
    "snapping":1,
    "game":1,
    "sayin":1,
    "week":1,
    "whatdaya":1,
    "rolls":1,
    "passenger":1,
    "precinct":1,
    "dump":1,
    "mood":1,
    "difficult":1,
    "comfortable":1,
    "testing":1,
    "vouching":1,
    "especially":1,
    "tests":1,
    "touchy":1,
    "nerves":1,
    "partner":1,
    "macinnis":1,
    "kilo":1,
    "clicks":1,
    "studies":1,
    "shown":1,
    "ia":1,
    "interest":1,
    "martyr":1,
    "silver":1,
    "platter":1,
    "button":1,
    "intercom":1,
    "receptionist":1,
    "answers":1,
    "knowledge":1,
    "therefore":1,
    "immunity":1,
    "third":1,
    "passed":1,
    "bar":1,
    "obviously":1,
    "candid":1,
    "proposition":1,
    "willing":1,
    "sandwich":1,
    "gazette":1,
    "tapes":1,
    "there\u2019ll":1,
    "material":1,
    "coat":1,
    "recording":1,
    "telling":1,
    "o\u2019clock":1,
    "craft":1,
    "parties":1,
    "revise":1,
    "specifics":1,
    "document":1,
    "willingly":1,
    "sole":1,
    "custody":1,
    "former":1,
    "relinquishing":1,
    "decisions":1,
    "parenting":1,
    "implications":1,
    "terms":1,
    "heartbroken":1,
    "defeated":1,
    "disillusioned":1,
    "ellipse":1,
    "albert":1,
    "strength":1,
    "aspects":1,
    "beautiful":1,
    "entire":1,
    "distinguished":1,
    "statesman":1,
    "16year":1,
    "extremely":1,
    "sympathetic":1,
    "expressions":1,
    "fathers":1,
    "tremendous":1,
    "judges":1,
    "super":1,
    "quality":1,
    "compassionate":1,
    "ferocious":1,
    "enemies":1,
    "coma":1,
    "dedicating":1,
    "shook":1,
    "leaned":1,
    "whisper":1,
    "win":1,
    "laugh":1,
    "depth":1,
    "composed":1,
    "ideal":1,
    "sadly":1,
    "totally":1,
    "unprepared":1,
    "guidance":1,
    "counselor":1,
    "cameras":1,
    "extra":1,
    "hormones":1,
    "chicken":1,
    "cuz":1,
    "developed":1,
    "n\u2019aw":1,
    "damnmy":1,
    "troy":1,
    "sucks":1,
    "worse":1,
    "distractions":1,
    "\u2018round":1,
    "wheres":1,
    "accident":1,
    "bud":1,
    "x":1,
    "k":1,
    "cranks":1,
    "runwalk":1,
    "shitty":1,
    "relatively":1,
    "package":1,
    "20":1,
    "tabs":1,
    "twice":1,
    "tab":1,
    "holy":1,
    "downstairs":1,
    "buying":1,
    "ecstasy":1,
    "arrested":1,
    "central":1,
    "district":1,
    "arresting":1,
    "vandalism":1,
    "aimless":1,
    "surprise":1,
    "mic":1,
    "fault":1,
    "shouldn\u2019t":1,
    "apology":1,
    "deaf":1,
    "wipe":1,
    "become":1,
    "quiver":1,
    "releases":1,
    "slightly":1,
    "resumes":1,
    "politician":1,
    "sleeve":1,
    "sweatshirt":1,
    "advise":1,
    "remain":1,
    "appointed":1,
    "swallows":1,
    "dart":1,
    "book":1,
    "kay":1,
    "innings":1,
    "bat":1,
    "swing":1,
    "bases":1,
    "16":1,
    "high":1,
    "strong":1,
    "prosecutor":1,
    "dismissed":1,
    "pleads":1,
    "misdameanor":1,
    "possession":1,
    "worst":1,
    "stacking":1,
    "folders":1,
    "approval":1,
    "slamming":1,
    "somehow":1,
    "laws":1,
    "land":1,
    "schools":1,
    "jails":1,
    "foster":1,
    "homes":1,
    "spoken":1,
    "mothers":1,
    "sons":1,
    "christian":1,
    "brothers":1,
    "academy":1,
    "deviate":1,
    "routine":1,
    "cadet":1,
    "training":1,
    "starting":1,
    "605":1,
    "formation":1,
    "advisory":1,
    "academics":1,
    "10":1,
    "pm":1,
    "cadets":1,
    "35":1,
    "per":1,
    "respected":1,
    "promptly":1,
    "retracted":1,
    "earned":1,
    "character":1,
    "individual":1,
    "fitting":1,
    "speaks":1,
    "resistance":1,
    "program":1,
    "typical":1,
    "cost":1,
    "tuition":1,
    "34":1,
    "aid":1,
    "assistance":1,
    "families":1,
    "funds":1,
    "allocated":1,
    "academic":1,
    "whatch":1,
    "everyone\u2019s":1,
    "passenger\u2019s":1,
    "sis":1,
    "fuckup":1,
    "tenderly":1,
    "vanessas":1,
    "downward":1,
    "motion":1,
    "four":1,
    "chin":1,
    "ups":1,
    "grounded":1,
    "linebacker":1,
    "friend":1,
    "enjoys":1,
    "when\u2019d":1,
    "momma":1,
    "playin":1,
    "serious":1,
    "temper":1,
    "b":1,
    "gang":1,
    "aback":1,
    "bringing":1,
    "surface":1,
    "conflicting":1,
    "emotions":1,
    "hate":1,
    "color":1,
    "haven\u2019t":1,
    "disappears":1,
    "spite":1,
    "rate":1,
    "enjoy":1,
    "moms":1,
    "grandma":1,
    "bad":1,
    "outlaw":1,
    "messed":1,
    "licks":1,
    "unmoved":1,
    "born":1,
    "murder":1,
    "der":1,
    "hook":1,
    "alright":1,
    "bays":1,
    "ford":1,
    "grease":1,
    "names":1,
    "hasnt":1,
    "registers":1,
    "however":1,
    "warmed":1,
    "17":1,
    "dusty":1,
    "newspaper":1,
    "stack":1,
    "above":1,
    "fold":1,
    "headline":1,
    "moto":1,
    "bandit":1,
    "schdy":1,
    "awe":1,
    "heart":1,
    "portrait":1,
    "pig":1,
    "tagged":1,
    "confused":1,
    "confront":1,
    "kills":1,
    "yneed":1,
    "appreciated":1,
    "attached":1,
    "appendage":1,
    "unfuckingbelievable":1,
    "beaming":1,
    "pride":1,
    "scrap":1,
    "rabbit":1,
    "hole":1,
    "changed":1,
    "loved":1,
    "hed":1,
    "slobbery":1,
    "felt":1,
    "drown":1,
    "dark":1,
    "wheelie":1,
    "rides":1,
    "freaking":1,
    "pop":1,
    "lollipop":1,
    "slaps":1,
    "slightest":1,
    "hint":1,
    "losing":1,
    "500":1,
    "bucks":1,
    "gone":1,
    "weekend":1,
    "seriously":1,
    "connection":1,
    "skittles":1,
    "correct":1,
    "hurry":1,
    "scrabble":1,
    "yells":1,
    "cigarette":1,
    "cordially":1,
    "anybody":1,
    "rent":1,
    "ushers":1,
    "bay":1,
    "snap":1,
    "snake":1,
    "professional":1,
    "fall":1,
    "reminiscing":1,
    "nostalgic":1,
    "dear":1,
    "daddy":1,
    "walked":1,
    "property":1,
    "oops":1,
    "wheels":1,
    "outrun":1,
    "woodchucks":1,
    "ensuring":1,
    "pats":1,
    "sends":1,
    "pedals":1,
    "wildly":1,
    "chases":1,
    "peddles":1,
    "mad":1,
    "hugs":1,
    "sweaty":1,
    "stink":1,
    "oxy":1,
    "oxycontin":1,
    "hoodie":1,
    "immediately":1,
    "handing":1,
    "goers":1,
    "somewhat":1,
    "receive":1,
    "candy":1,
    "mayor":1,
    "uneven":1,
    "menacing":1,
    "standing":1,
    "possessed":1,
    "madness":1,
    "punch":1,
    "clears":1,
    "stumbles":1,
    "knocking":1,
    "creating":1,
    "animosity":1,
    "desperately":1,
    "escape":1,
    "posse":1,
    "wave":1,
    "forming":1,
    "drivewayyard":1,
    "tripped":1,
    "patio":1,
    "flails":1,
    "lawn":1,
    "instantly":1,
    "attacker":1,
    "running":1,
    "backwards":1,
    "shitless":1,
    "terror":1,
    "angst":1,
    "knocks":1,
    "equilibrium":1,
    "shattered":1,
    "smashes":1,
    "exploding":1,
    "covers":1,
    "pavement":1,
    "curls":1,
    "fetal":1,
    "feet":1,
    "raging":1,
    "scatter":1,
    "nearly":1,
    "unconscious":1,
    "illuminate":1,
    "coiled":1,
    "bloody":1,
    "mess":1,
    "suffered":1,
    "contusions":1,
    "multiple":1,
    "fractures":1,
    "throughout":1,
    "broken":1,
    "lasting":1,
    "injuries":1,
    "hearing":1,
    "mention":1,
    "thatd":1,
    "doubt":1,
    "bounce":1,
    "magnitude":1,
    "wakes":1,
    "doctor":1,
    "heartfelt":1,
    "handed":1,
    "aa188":1,
    "focused":1,
    "rubbing":1,
    "mystery":1,
    "secrets":1,
    "fears":1,
    "misunderstandings":1,
    "liar":1,
    "emotionless":1,
    "devastated":1,
    "meanwhile":1,
    "try":1,
    "unreachable":1,
    "unexpected":1,
    "authorities":1,
    "unsupervised":1,
    "niskayuna":1,
    "amounts":1,
    "alcohol":1,
    "among":1,
    "teenagers":1,
    "questioning":1,
    "major":1,
    "disappointment":1,
    "mistake":1,
    "responsibility":1,
    "defined":1,
    "launched":1,
    "anonymous":1,
    "robber":1,
    "motobandit":1,
    "processes":1,
    "personally":1,
    "exposed":1,
    "massive":1,
    "corruption":1,
    "scandal":1,
    "unresponsive":1,
    "bench":1,
    "trance":1,
    "peanut":1,
    "benny":1,
    "disbelief":1,
    "freakish":1,
    "yo":1,
    "dri":1,
    "nigga":1,
    "killer":1,
    "protection":1,
    "\u2018bout":1,
    "recover":1,
    "garage":1,
    "entertain":1,
    "musings":1,
    "decides":1,
    "breathes":1,
    "insinuating":1,
    "revolver":1,
    "decided":1,
    "grow":1,
    "pair":1,
    "putting":1,
    "sniffs":1,
    "weakness":1,
    "conviction":1,
    "bottom":1,
    "lip":1,
    "settle":1,
    "stupidly":1,
    "tried":1,
    "sonofabitch":1,
    "wouldve":1,
    "y":1,
    "blame":1,
    "bastard":1,
    "urge":1,
    "cry":1,
    "embarrassment":1,
    "obvious":1,
    "chip":1,
    "arent":1,
    "gutless":1,
    "unarmed":1,
    "minding":1,
    "chickenshit":1,
    "realizing":1,
    "tragedy":1,
    "advice":1,
    "barrel":1,
    "trigger":1,
    "meeting":1,
    "hall":1,
    "towards":1,
    "sobs":1,
    "lies":1,
    "pleading":1,
    "moans":1,
    "hysterics":1,
    "sideways":1,
    "fires":1,
    "beside":1,
    "hardwood":1,
    "kicking":1,
    "cloud":1,
    "sawdust":1,
    "muzzle":1,
    "burns":1,
    "deafens":1,
    "deafness":1,
    "shoot":1,
    "glance":1,
    "woods":1,
    "stained":1,
    "flush":1,
    "overcomes":1,
    "setting":1,
    "alarm":1,
    "panic":1,
    "tricking":1,
    "gimmie":1,
    "gladly":1,
    "wings":1,
    "device":1,
    "nearest":1,
    "pine":1,
    "shatters":1,
    "hundred":1,
    "pieces":1,
    "collect":1,
    "gaze":1,
    "kill":1,
    "murmur":1,
    "preceding":1,
    "scenes":1,
    "tight":1,
    "race":1,
    "kellerman":1,
    "unprecedented":1,
    "looked":1,
    "threaten":1,
    "cross\u2019s":1,
    "election":1,
    "bid":1,
    "allegations":1,
    "underage":1,
    "drinking":1,
    "unidentified":1,
    "intruder":1,
    "hospitalized":1,
    "remarkably":1,
    "general":1,
    "seat":1,
    "slimmest":1,
    "margins":1,
    "congressman":1,
    "prepares":1,
    "address":1,
    "thunderous":1,
    "crowd\u2019s":1,
    "stillness":1,
    "ab220":1,
    "fancy":1,
    "suit":1,
    "aide":1,
    "breath":1,
    "noise":1,
    "surges":1,
    "finally":1,
    "quiets":1,
    "emailed":1,
    "early":1,
    "observant":1,
    "headed":1,
    "west":1,
    "destiny":1,
    "warm":1,
    "sunny":1,
    "led":1,
    "barn":1,
    "miles":1,
    "maintenance":1,
    "test":1,
    "er":1,
    "collateral":1,
    "straddles":1,
    "confidence":1,
    "ridden":1,
    "boys":2,
    "girls":2,
    "walls":2,
    "while":2,
    "easy":2,
    "attention":2,
    "plans":2,
    "hang":2,
    "tomorrow":2,
    "nights":2,
    "smoke":2,
    "hello":2,
    "gently":2,
    "werent":2,
    "times":2,
    "dick":2,
    "wet":2,
    "friday":2,
    "quit":2,
    "porch":2,
    "faces":2,
    "gown":2,
    "hesitates":2,
    "choice":2,
    "matter":2,
    "asks":2,
    "months":2,
    "suppose":2,
    "helping":2,
    "watching":2,
    "lift":2,
    "seen":2,
    "kindly":2,
    "passing":2,
    "road":2,
    "considers":2,
    "trailer":2,
    "parked":2,
    "forest":2,
    "you\u2019ve":2,
    "welcome":2,
    "locked":2,
    "doc":2,
    "weeks":2,
    "story":2,
    "ten":2,
    "probation":2,
    "whistle":2,
    "sir":2,
    "board":2,
    "dutch":2,
    "chance":2,
    "company":2,
    "regular":2,
    "remind":2,
    "aint":2,
    "chisler":2,
    "quiet":2,
    "deeply":2,
    "liquored":2,
    "knocked":2,
    "fair":2,
    "caught":2,
    "lack":2,
    "courage":2,
    "plan":2,
    "mostly":2,
    "animal":2,
    "goal":2,
    "focus":2,
    "edge":2,
    "talents":2,
    "what\u2019re":2,
    "brave":2,
    "smell":2,
    "freedom":2,
    "we\u2019ll":2,
    "dream":2,
    "digs":2,
    "places":2,
    "flannel":2,
    "pistol":2,
    "7":2,
    "banks":2,
    "wed":2,
    "reward":2,
    "rob":2,
    "wrist":2,
    "different":2,
    "youll":2,
    "appreciate":2,
    "vaults":2,
    "served":2,
    "drawer":2,
    "million":2,
    "kiss":2,
    "firsts":2,
    "chocolate":2,
    "tastes":2,
    "van":2,
    "sleeping":2,
    "bags":2,
    "bummed":2,
    "psyched":2,
    "enters":2,
    "screw":2,
    "bed":2,
    "space":2,
    "staring":2,
    "respect":2,
    "responding":2,
    "bust":2,
    "crib":2,
    "concussion":2,
    "shoves":2,
    "dials":2,
    "bail":2,
    "court":2,
    "thinkin":2,
    "truck":2,
    "person":2,
    "throws":2,
    "mine":2,
    "kept":2,
    "ceiling":2,
    "pass":2,
    "reluctantly":2,
    "sneaking":2,
    "bolts":2,
    "approach":2,
    "cruiser":2,
    "intersection":2,
    "pursuit":2,
    "suspect":2,
    "sharp":2,
    "searches":2,
    "direction":2,
    "upstairs":2,
    "information":2,
    "city":2,
    "connect":2,
    "request":2,
    "paramedics":2,
    "blows":2,
    "breeze":2,
    "uses":2,
    "image":2,
    "reach":2,
    "girl":2,
    "chair":2,
    "forget":2,
    "thanks":2,
    "human":2,
    "degree":2,
    "formality":2,
    "best":2,
    "presence":2,
    "known":2,
    "myself":2,
    "drop":2,
    "sitting":2,
    "fire":2,
    "fell":2,
    "hospital":2,
    "supporters":2,
    "talks":2,
    "reporters":2,
    "reporter":2,
    "plain":2,
    "simple":2,
    "slide":2,
    "mugshot":2,
    "sometime":2,
    "violent":2,
    "record":2,
    "details":2,
    "spring":2,
    "grief":2,
    "ducks":2,
    "scary":2,
    "lines":2,
    "honor":2,
    "talked":2,
    "christ":2,
    "yourselves":2,
    "supposedly":2,
    "ma\u2019am":2,
    "enter":2,
    "joke":2,
    "reads":2,
    "22":2,
    "pulled":2,
    "already":2,
    "recovery":2,
    "great":2,
    "meatball":2,
    "diet":2,
    "line":2,
    "steal":2,
    "evening":2,
    "may":2,
    "warrant":2,
    "quietly":2,
    "recognizes":2,
    "loss":2,
    "pal":2,
    "arrest":2,
    "politics":2,
    "regarding":2,
    "hoot":2,
    "theyll":2,
    "theyre":2,
    "although":2,
    "whether":2,
    "beyond":2,
    "bend":2,
    "such":2,
    "physical":2,
    "incident":2,
    "idea":2,
    "gathered":2,
    "joined":2,
    "department":2,
    "gordon":2,
    "audience":2,
    "uniform":2,
    "podium":2,
    "support":2,
    "clapping":2,
    "special":2,
    "officers":2,
    "women":2,
    "surrounded":2,
    "discussion":2,
    "justice":2,
    "problems":2,
    "found":2,
    "wishes":2,
    "applause":2,
    "later":2,
    "spotlight":2,
    "honestly":2,
    "couldnt":2,
    "world":2,
    "yesterday":2,
    "means":2,
    "limp":2,
    "patrol":2,
    "went":2,
    "jobs":2,
    "important":2,
    "lieutenant":2,
    "charge":2,
    "healthy":2,
    "sense":2,
    "4":2,
    "sergeant":2,
    "choices":2,
    "bite":2,
    "locker":2,
    "box":2,
    "picture":2,
    "eye":2,
    "notices":2,
    "finger":2,
    "stick":2,
    "startled":2,
    "waves":2,
    "large":2,
    "tea":2,
    "menu":2,
    "terrified":2,
    "sick":2,
    "whatd":2,
    "operation":2,
    "low":2,
    "lead":2,
    "sign":2,
    "list":2,
    "regulations":2,
    "arm":2,
    "arrange":2,
    "bathroom":2,
    "peter":2,
    "cover":2,
    "blow":2,
    "hair":2,
    "mans":2,
    "fight":2,
    "slams":2,
    "almost":2,
    "retreats":2,
    "humor":2,
    "trusts":2,
    "scare":2,
    "sometimes":2,
    "stacy":2,
    "conditions":2,
    "assistant":2,
    "straight":2,
    "divorce":2,
    "present":2,
    "documents":2,
    "mr":2,
    "signing":2,
    "giving":2,
    "rights":2,
    "disappointed":2,
    "impact":2,
    "far":2,
    "congress":2,
    "managed":2,
    "works":2,
    "senior":2,
    "eats":2,
    "parents":2,
    "nervous":2,
    "suddenly":2,
    "flash":2,
    "chill":2,
    "youth":2,
    "afford":2,
    "senatorial":2,
    "candidate":2,
    "local":2,
    "public":2,
    "courtroom":2,
    "signals":2,
    "older":2,
    "plead":2,
    "bargain":2,
    "acting":2,
    "shut":2,
    "apply":2,
    "countless":2,
    "chores":2,
    "shocked":2,
    "surprised":2,
    "financial":2,
    "control":2,
    "didn\u2019t":2,
    "busted":2,
    "punishment":2,
    "ridiculous":2,
    "rip":2,
    "plate":2,
    "dean":2,
    "change":2,
    "betray":2,
    "shame":2,
    "shouldnt":2,
    "truly":2,
    "sobbing":2,
    "cries":2,
    "slug":2,
    "ring":2,
    "sister":2,
    "dad\u2019s":2,
    "lost":2,
    "loud":2,
    "misty":2,
    "eyed":2,
    "breaks":2,
    "jumping":2,
    "bottle":2,
    "adoring":2,
    "dog":2,
    "fists":2,
    "flashing":2,
    "injury":2,
    "awake":2,
    "speak":2,
    "events":2,
    "tip":2,
    "wonder":2,
    "further":2,
    "lowers":2,
    "die":2,
    "step":2,
    "confusion":2,
    "shirt":2,
    "begins":2,
    "complies":2,
    "poor":2,
    "stage":2,
    "gentlemen":3,
    "stops":3,
    "drives":3,
    "riders":3,
    "guns":3,
    "slow":3,
    "somewhere":3,
    "riding":3,
    "let\u2019s":3,
    "least":3,
    "neighborhood":3,
    "mama":3,
    "truth":3,
    "accepts":3,
    "arms":3,
    "discuss":3,
    "second":3,
    "food":3,
    "returns":3,
    "except":3,
    "sounds":3,
    "crushed":3,
    "end":3,
    "days":3,
    "isn\u2019t":3,
    "white":3,
    "happen":3,
    "couple":3,
    "having":3,
    "fast":3,
    "thousand":3,
    "i\u2019ve":3,
    "you\u2019d":3,
    "staying":3,
    "naw":3,
    "busy":3,
    "promise":3,
    "distance":3,
    "solitary":3,
    "top":3,
    "block":3,
    "counts":3,
    "bit":3,
    "shop":3,
    "til":3,
    "duck":3,
    "stolen":3,
    "hope":3,
    "feelings":3,
    "ive":3,
    "who\u2019s":3,
    "bring":3,
    "sets":3,
    "split":3,
    "seems":3,
    "happy":3,
    "pants":3,
    "spend":3,
    "i\u2019d":3,
    "backpack":3,
    "3":3,
    "tellers":3,
    "jesus":3,
    "dollars":3,
    "eat":3,
    "trembling":3,
    "lives":3,
    "able":3,
    "shakes":3,
    "luke\u2019s":3,
    "calm":3,
    "dramatic":3,
    "aware":3,
    "ground":3,
    "doorway":3,
    "ambulance":3,
    "sound":3,
    "gives":3,
    "brandywine":3,
    "pussy":3,
    "robin\u2019s":3,
    "piece":3,
    "close":3,
    "those":3,
    "calling":3,
    "new":3,
    "calls":3,
    "cash":3,
    "empty":3,
    "slot":3,
    "adam22":3,
    "contact":3,
    "streets":3,
    "between":3,
    "jump":3,
    "weapon":3,
    "scene":3,
    "romina\u2019s":3,
    "voice":3,
    "pool":3,
    "leaves":3,
    "stand":3,
    "weirzbowski":3,
    "community":3,
    "anymore":3,
    "killed":3,
    "meet":3,
    "alive":3,
    "footage":3,
    "also":3,
    "tape":3,
    "dealing":3,
    "weird":3,
    "uncomfortable":3,
    "nobody":3,
    "whos":3,
    "wasn\u2019t":3,
    "everywhere":3,
    "how\u2019s":3,
    "jenny":3,
    "quick":3,
    "dinner":3,
    "raises":3,
    "laughter":3,
    "duty":3,
    "gift":3,
    "maam":3,
    "search":3,
    "supposed":3,
    "assume":3,
    "card":3,
    "gave":3,
    "count":3,
    "knee":3,
    "cory":3,
    "track":3,
    "wish":3,
    "rest":3,
    "called":3,
    "happens":3,
    "signed":3,
    "speech":3,
    "investigation":3,
    "5":3,
    "deserve":3,
    "deeper":3,
    "wallet":3,
    "coffee":3,
    "approaches":3,
    "tough":3,
    "case":3,
    "hoping":3,
    "listening":3,
    "their":3,
    "exactly":3,
    "asking":3,
    "assurances":3,
    "source":3,
    "asshole":3,
    "kind":3,
    "trouble":3,
    "junkie":3,
    "bitch":3,
    "presses":3,
    "desk":3,
    "career":3,
    "ears":3,
    "recorder":3,
    "christmas":3,
    "bullshit":3,
    "agreement":3,
    "closes":3,
    "fully":3,
    "afraid":3,
    "friends":3,
    "must":3,
    "died":3,
    "pops":3,
    "wiping":3,
    "attorney":3,
    "hit":3,
    "defender":3,
    "free":3,
    "jason\u2019s":3,
    "bro":3,
    "becomes":3,
    "dejected":3,
    "group":3,
    "driveway":3,
    "brain":3,
    "vanessa":3,
    "reason":3,
    "ladies":4,
    "motorcycle":4,
    "ahead":4,
    "isnt":4,
    "shes":4,
    "bus":4,
    "hi":4,
    "crying":4,
    "hide":4,
    "stare":4,
    "falls":4,
    "frozen":4,
    "might":4,
    "havent":4,
    "waiting":4,
    "school":4,
    "everyone":4,
    "pay":4,
    "cut":4,
    "taking":4,
    "sighs":4,
    "bills":4,
    "onto":4,
    "fact":4,
    "mind":4,
    "whoa":4,
    "town":4,
    "along":4,
    "buy":4,
    "actually":4,
    "offer":4,
    "awkward":4,
    "points":4,
    "teeth":4,
    "month":4,
    "2":4,
    "robins":4,
    "laughing":4,
    "raise":4,
    "each":4,
    "half":4,
    "drink":4,
    "ago":4,
    "tells":4,
    "dead":4,
    "once":4,
    "certainly":4,
    "wasnt":4,
    "true":4,
    "words":4,
    "pushes":4,
    "most":4,
    "picks":4,
    "drawers":4,
    "robbery":4,
    "shock":4,
    "id":4,
    "silent":4,
    "fear":4,
    "finds":4,
    "fill":4,
    "brought":4,
    "she\u2019s":4,
    "swings":4,
    "continues":4,
    "moves":4,
    "sirens":4,
    "return":4,
    "order":4,
    "pick":4,
    "heads":4,
    "done":4,
    "yours":4,
    "there\u2019s":4,
    "score":4,
    "hows":4,
    "goddamn":4,
    "which":4,
    "whatre":4,
    "leg":4,
    "clearly":4,
    "won\u2019t":4,
    "shake":4,
    "expect":4,
    "ask":4,
    "glad":4,
    "shot":4,
    "full":4,
    "file":4,
    "shooting":4,
    "kitchen":4,
    "living":4,
    "silence":4,
    "am":4,
    "wrong":4,
    "crowley":4,
    "men":4,
    "pretty":4,
    "produces":4,
    "proud":4,
    "soon":4,
    "ways":4,
    "minutes":4,
    "nose":4,
    "follows":4,
    "business":4,
    "office":4,
    "ass":4,
    "lights":4,
    "aj\u2019s":4,
    "wondering":4,
    "ajs":4,
    "crosss":4,
    "ride":5,
    "act":5,
    "tonight":5,
    "show":5,
    "street":5,
    "law":5,
    "heard":5,
    "cause":5,
    "leans":5,
    "forward":5,
    "pocket":5,
    "wow":5,
    "less":5,
    "watch":5,
    "question":5,
    "kofi\u2019s":5,
    "moving":5,
    "since":5,
    "use":5,
    "smile":5,
    "said":5,
    "jail":5,
    "feeling":5,
    "same":5,
    "live":5,
    "youve":5,
    "things":5,
    "shows":5,
    "mouth":5,
    "until":5,
    "making":5,
    "nice":5,
    "counter":5,
    "listen":5,
    "wall":5,
    "stairs":5,
    "stuff":5,
    "fit":5,
    "guilty":5,
    "gutierres":5,
    "says":5,
    "i\u2019ll":5,
    "every":5,
    "needs":5,
    "used":5,
    "barely":5,
    "position":5,
    "forms":5,
    "feels":5,
    "jennifer\u2019s":5,
    "chief":5,
    "lucky":5,
    "quite":5,
    "though":5,
    "moment":5,
    "news":5,
    "took":5,
    "wife":5,
    "came":5,
    "kinda":5,
    "together":5,
    "campaign":5,
    "drugs":5,
    "angry":5,
    "kids":5,
    "cokehead":5,
    "told":5,
    "fucked":5,
    "tree":5,
    "drive":5,
    "jacket":5,
    "word":5,
    "party":5,
    "pockets":5,
    "walking":5,
    "engine":6,
    "makes":6,
    "remember":6,
    "probably":6,
    "tears":6,
    "love":6,
    "table":6,
    "thought":6,
    "steps":6,
    "wants":6,
    "huh":6,
    "anyway":6,
    "reaches":6,
    "thinks":6,
    "station":6,
    "problem":6,
    "damn":6,
    "sit":6,
    "hurt":6,
    "very":6,
    "saying":6,
    "care":6,
    "leaving":6,
    "check":6,
    "front":6,
    "find":6,
    "runs":6,
    "keys":6,
    "quickly":6,
    "yet":6,
    "working":6,
    "stop":6,
    "hey":6,
    "made":6,
    "mother":6,
    "outta":6,
    "part":6,
    "worried":6,
    "mrs":6,
    "thinking":6,
    "worry":6,
    "both":6,
    "cool":6,
    "cankam":6,
    "ready":7,
    "cage":7,
    "crazy":7,
    "lukes":7,
    "fine":7,
    "starts":7,
    "hears":7,
    "whatever":7,
    "opens":7,
    "answer":7,
    "run":7,
    "stay":7,
    "knew":7,
    "believe":7,
    "wait":7,
    "play":7,
    "course":7,
    "blood":7,
    "talking":7,
    "left":7,
    "toward":7,
    "start":7,
    "teller":7,
    "cream":7,
    "what\u2019s":7,
    "judge":7,
    "maybe":7,
    "always":7,
    "last":7,
    "young":7,
    "al":7,
    "da":7,
    "avery\u2019s":7,
    "respond":7,
    "trying":7,
    "evidence":7,
    "getting":7,
    "without":7,
    "point":7,
    "keeps":7,
    "under":8,
    "inside":8,
    "crowd":8,
    "glanton":8,
    "wont":8,
    "few":8,
    "hold":8,
    "outside":8,
    "coming":8,
    "we\u2019re":8,
    "move":8,
    "saw":8,
    "years":8,
    "whole":8,
    "real":8,
    "feel":8,
    "bank":8,
    "open":8,
    "behind":8,
    "side":8,
    "scared":8,
    "comes":8,
    "night":8,
    "body":8,
    "yourself":8,
    "alone":8,
    "nods":8,
    "schenectady":8,
    "himself":8,
    "better":8,
    "because":8,
    "holds":8,
    "dude":8,
    "again":9,
    "after":9,
    "else":9,
    "guys":9,
    "enough":9,
    "family":9,
    "pull":9,
    "anyone":9,
    "yes":9,
    "big":9,
    "puts":9,
    "stares":9,
    "stupid":9,
    "understand":9,
    "our":9,
    "beat":9,
    "these":9,
    "ice":9,
    "cops":9,
    "deal":9,
    "turn":9,
    "force":9,
    "guess":9,
    "goes":10,
    "lets":10,
    "gotta":10,
    "wanted":10,
    "beer":10,
    "malena":10,
    "keep":10,
    "smiles":10,
    "knows":10,
    "watches":10,
    "walk":10,
    "place":10,
    "laughs":10,
    "put":10,
    "ever":10,
    "job":10,
    "hell":10,
    "against":10,
    "killcullen":10,
    "follow":10,
    "long":11,
    "didnt":11,
    "wanna":11,
    "whats":11,
    "help":11,
    "next":11,
    "own":11,
    "doesn\u2019t":11,
    "never":11,
    "should":11,
    "doesnt":11,
    "today":11,
    "being":11,
    "grabs":11,
    "phone":11,
    "hero":11,
    "happened":11,
    "averys":11,
    "sits":12,
    "leave":12,
    "year":12,
    "mom":12,
    "floor":12,
    "any":12,
    "waits":12,
    "too":12,
    "pulls":12,
    "us":12,
    "much":12,
    "thank":12,
    "please":12,
    "ill":12,
    "officer":12,
    "lot":13,
    "someone":13,
    "only":13,
    "name":13,
    "many":13,
    "would":13,
    "ya":13,
    "kid":13,
    "tv":13,
    "theres":13,
    "sure":13,
    "call":13,
    "does":13,
    "nothing":14,
    "let":14,
    "looking":14,
    "old":14,
    "hard":14,
    "that\u2019s":14,
    "bag":14,
    "window":14,
    "day":14,
    "cop":14,
    "baby":15,
    "stands":15,
    "he\u2019s":15,
    "than":15,
    "boy":15,
    "will":15,
    "hand":15,
    "life":15,
    "thing":15,
    "guy":15,
    "oh":16,
    "car":16,
    "did":16,
    "two":17,
    "where":17,
    "before":17,
    "even":17,
    "everything":17,
    "it\u2019s":17,
    "takes":17,
    "mean":17,
    "first":17,
    "sorry":17,
    "gun":17,
    "bike":18,
    "hear":18,
    "talk":18,
    "eyes":18,
    "people":18,
    "them":18,
    "another":19,
    "still":19,
    "hands":19,
    "had":19,
    "father":19,
    "home":20,
    "tries":20,
    "head":20,
    "sees":20,
    "can\u2019t":20,
    "shit":20,
    "thats":21,
    "anything":21,
    "door":21,
    "":21,
    "work":21,
    "gets":21,
    "little":21,
    "room":21,
    "more":21,
    "by":22,
    "other":22,
    "hes":22,
    "make":23,
    "cant":23,
    "then":23,
    "house":23,
    "doing":23,
    "off":23,
    "fuck":23,
    "face":23,
    "jennifer":23,
    "deluca":23,
    "through":24,
    "when":24,
    "really":24,
    "yeah":24,
    "cross":24,
    "give":25,
    "been":25,
    "turns":25,
    "dad":25,
    "police":25,
    "scott":25,
    "got":26,
    "tell":26,
    "good":26,
    "kofi":26,
    "has":26,
    "could":26,
    "you\u2019re":26,
    "money":26,
    "ok":26,
    "over":27,
    "man":27,
    "walks":27,
    "why":27,
    "way":28,
    "gonna":28,
    "they":28,
    "go":29,
    "look":30,
    "take":30,
    "think":31,
    "going":31,
    "okay":31,
    "see":32,
    "something":32,
    "say":32,
    "away":32,
    "some":32,
    "one":33,
    "well":33,
    "were":33,
    "there":33,
    "an":34,
    "who":34,
    "want":34,
    "aj":34,
    "how":35,
    "fucking":35,
    "around":36,
    "son":36,
    "i\u2019m":36,
    "don\u2019t":39,
    "time":39,
    "come":40,
    "right":40,
    "youre":41,
    "need":42,
    "robin":42,
    "or":44,
    "so":44,
    "down":44,
    "no":45,
    "as":45,
    "if":46,
    "now":47,
    "dont":47,
    "looks":48,
    "all":48,
    "into":49,
    "her":50,
    "its":50,
    "romina":51,
    "was":51,
    "are":58,
    "from":59,
    "she":59,
    "about":61,
    "get":62,
    "can":62,
    "back":63,
    "here":63,
    "be":64,
    "like":65,
    "but":66,
    "we":71,
    "im":73,
    "have":80,
    "my":80,
    "just":81,
    "out":89,
    "luke":90,
    "know":95,
    "up":97,
    "with":98,
    "do":98,
    "your":99,
    "not":106,
    "him":109,
    "at":110,
    "what":113,
    "avery":122,
    "this":131,
    "for":134,
    "that":137,
    "me":137,
    "jason":138,
    "on":149,
    "in":169,
    "is":176,
    "of":198,
    "his":199,
    "it":209,
    "he":219,
    "and":280,
    "i":315,
    "a":367,
    "to":458,
    "you":550,
    "the":620
}