{
    "gutwrenching":1,
    "looping":1,
    "ships":1,
    "multicolored":1,
    "aglow":1,
    "furcovered":1,
    "precise":1,
    "series":1,
    "digitally":1,
    "imaged":1,
    "startling":1,
    "fitted":1,
    "monitoring":1,
    "vest":1,
    "sentient":1,
    "harshly":1,
    "reenters":1,
    "fill":1,
    "slap":1,
    "wail":1,
    "tantrum":1,
    "or":1,
    "treat":1,
    "car":1,
    "primates":1,
    "mostly":1,
    "chimpanzees":1,
    "orangutans":1,
    "gibbons":1,
    "lowland":1,
    "various":1,
    "med":1,
    "specialists":1,
    "bg":1,
    "simple":1,
    "melody":1,
    "keyboard":1,
    "notes":1,
    "marked":1,
    "squares":1,
    "stamped":1,
    "serial":1,
    "number":1,
    "nickname":1,
    "scoots":1,
    "chief":1,
    "medical":1,
    "officer":1,
    "lt":1,
    "col":1,
    "grace":1,
    "homo":1,
    "sapien":1,
    "envy":1,
    "consider":1,
    "actual":1,
    "boyfriend":1,
    "enjoy":1,
    "miserable":1,
    "chimps":1,
    "counter":1,
    "cabinet":1,
    "biscuit":1,
    "bag":1,
    "treats":1,
    "chooses":1,
    "either":1,
    "squawks":1,
    "frustrate":1,
    "violent":1,
    "screeches":1,
    "rattles":1,
    "congratulations":1,
    "daddy":1,
    "smirk":1,
    "hey":1,
    "3":1,
    "thin":1,
    "wireless":1,
    "clicks":1,
    "mail":1,
    "code":1,
    "displays":1,
    "02072029":1,
    "mother":1,
    "safely":1,
    "picture":1,
    "interrupted":1,
    "wider":1,
    "entire":1,
    "animals":1,
    "screech":1,
    "shatter":1,
    "print":1,
    "gain":1,
    "access":1,
    "members":1,
    "karl":1,
    "majors":1,
    "santos":1,
    "cooper":1,
    "blackouts":1,
    "beautiful":1,
    "sos":1,
    "weird":1,
    "picking":1,
    "patterns":1,
    "tune":1,
    "including":1,
    "bars":1,
    "grids":1,
    "scene":1,
    "bonanza":1,
    "soccer":1,
    "game":1,
    "arabic":1,
    "bandstand":1,
    "quiz":1,
    "concentration":1,
    "walter":1,
    "cronkite":1,
    "cooking":1,
    "tom":1,
    "jerry":1,
    "cartoon":1,
    "bbc":1,
    "concert":1,
    "castro":1,
    "speechifying":1,
    "ally":1,
    "mcbeal":1,
    "public":1,
    "spanish":1,
    "mao":1,
    "waving":1,
    "incongruous":1,
    "audio":1,
    "simultaneously":1,
    "north":1,
    "korean":1,
    "cellular":1,
    "pilottower":1,
    "montage":1,
    "sucking":1,
    "satellite":1,
    "relays":1,
    "cell":1,
    "conversations":1,
    "broadcasts":1,
    "billion":1,
    "channels":1,
    "stillness":1,
    "settles":1,
    "display":1,
    "spooked":1,
    "pass":1,
    "initial":1,
    "radiation":1,
    "gamma":1,
    "ray":1,
    "readings":1,
    "pilots":1,
    "waste":1,
    "standard":1,
    "procedures":1,
    "lobbying":1,
    "manned":1,
    "flights":1,
    "safe":1,
    "canary":1,
    "coal":1,
    "mine":1,
    "deploys":1,
    "1600":1,
    "anxiously":1,
    "focusing":1,
    "secure":1,
    "finishes":1,
    "needing":1,
    "reassurance":1,
    "thumbs":1,
    "selects":1,
    "thumb":1,
    "sealed":1,
    "wipes":1,
    "rest":1,
    "team":1,
    "huddle":1,
    "aural":1,
    "boiler":1,
    "plate":1,
    "technical":1,
    "data":1,
    "pulses":1,
    "colors":1,
    "trace":1,
    "ellipses":1,
    "cluster":1,
    "image":1,
    "dull":1,
    "monotone":1,
    "obscures":1,
    "responding":1,
    "surge":1,
    "heart":1,
    "rate":1,
    "endless":1,
    "frantic":1,
    "activity":1,
    "monitors":1,
    "trained":1,
    "agony":1,
    "orders":1,
    "4":1,
    "davidson\u2019s":1,
    "risk":1,
    "immensity":1,
    "plots":1,
    "variations":1,
    "recognizes":1,
    "ok":1,
    "response":1,
    "trembles":1,
    "seals":1,
    "hiss":1,
    "instruments":1,
    "launched":1,
    "turbulence":1,
    "request":1,
    "instructions":1,
    "abort":1,
    "mission":1,
    "return":1,
    "5":1,
    "follows":1,
    "tsunami":1,
    "washes":1,
    "particles":1,
    "visual":1,
    "crests":1,
    "process":1,
    "note":1,
    "tidal":1,
    "viscous":1,
    "braces":1,
    "powerless":1,
    "drift":1,
    "increasing":1,
    "gasps":1,
    "flails":1,
    "horrifying":1,
    "unconscious":1,
    "bigger":1,
    "brighter":1,
    "pummels":1,
    "violently":1,
    "clock":1,
    "haywire":1,
    "shatters":1,
    "accelerates":1,
    "blue":1,
    "halo":1,
    "blues":1,
    "purples":1,
    "whistling":1,
    "generates":1,
    "friction":1,
    "metal":1,
    "licking":1,
    "tiles":1,
    "hot":1,
    "coats":1,
    "retros":1,
    "disabled":1,
    "manual":1,
    "engage":1,
    "engages":1,
    "hazy":1,
    "outlines":1,
    "land":1,
    "formations":1,
    "expanse":1,
    "dense":1,
    "fills":1,
    "recover":1,
    "steering":1,
    "shriek":1,
    "impact":1,
    "canopy":1,
    "entry":1,
    "hinge":1,
    "melted":1,
    "pours":1,
    "murky":1,
    "trips":1,
    "soundlessly":1,
    "sending":1,
    "bubbles":1,
    "strapped":1,
    "torpedo":1,
    "underwater":1,
    "gulps":1,
    "shore":1,
    "reeling":1,
    "6":1,
    "hunted":1,
    "bolt":1,
    "upright":1,
    "360":1,
    "degree":1,
    "jungle":1,
    "wobbly":1,
    "bearings":1,
    "bruised":1,
    "streaked":1,
    "idea":1,
    "cue":1,
    "military":1,
    "training":1,
    "wears":1,
    "armor":1,
    "chest":1,
    "glistens":1,
    "prodigious":1,
    "dash":1,
    "incredible":1,
    "walking":1,
    "leap":1,
    "terrified":1,
    "ditch":1,
    "roll":1,
    "cutting":1,
    "stocky":1,
    "rack":1,
    "gorillas":1,
    "plucks":1,
    "child":1,
    "swarm":1,
    "saplings":1,
    "ripping":1,
    "trees":1,
    "roots":1,
    "graceful":1,
    "unrestrained":1,
    "slight":1,
    "eludes":1,
    "feral":1,
    "agile":1,
    "hanging":1,
    "snags":1,
    "wrenches":1,
    "circles":1,
    "rescue":1,
    "slam":1,
    "bowled":1,
    "covers":1,
    "envelops":1,
    "stump":1,
    "drag":1,
    "brush":1,
    "dragging":1,
    "launches":1,
    "reins":1,
    "knocking":1,
    "flips":1,
    "forestlava":1,
    "plucked":1,
    "dangling":1,
    "dropped":1,
    "7":1,
    "upsidedown":1,
    "lava":1,
    "roundup":1,
    "clearing":1,
    "ornate":1,
    "loaded":1,
    "painted":1,
    "brightly":1,
    "symbols":1,
    "directing":1,
    "loading":1,
    "literally":1,
    "cart":1,
    "whos":1,
    "beaten":1,
    "severely":1,
    "binds":1,
    "bow":1,
    "heads":1,
    "cower":1,
    "enshrouds":1,
    "silhouette":1,
    "captives":1,
    "obvious":1,
    "pride":1,
    "success":1,
    "hunt":1,
    "gold":1,
    "uniform":1,
    "charger":1,
    "reactions":1,
    "glory":1,
    "contact":1,
    "lightning":1,
    "fury":1,
    "touching":1,
    "really":1,
    "drags":1,
    "hurling":1,
    "shouts":1,
    "collapses":1,
    "mothers":1,
    "separate":1,
    "pens":1,
    "amazed":1,
    "happening":1,
    "bites":1,
    "tosses":1,
    "helps":1,
    "gloves":1,
    "softening":1,
    "mounted":1,
    "tyrant":1,
    "toady":1,
    "hack":1,
    "unfortunately":1,
    "intact":1,
    "feisty":1,
    "talks":1,
    "suck":1,
    "raiding":1,
    "orchards":1,
    "country":1,
    "remedy":1,
    "fails":1,
    "gut":1,
    "string":1,
    "carcass":1,
    "rights":1,
    "faction":1,
    "nipping":1,
    "heels":1,
    "dogooders":1,
    "speech":1,
    "dumb":1,
    "live":1,
    "prove":1,
    "chain":1,
    "snaked":1,
    "offering":1,
    "act":1,
    "dared":1,
    "intensely":1,
    "frozen":1,
    "distracted":1,
    "started":1,
    "getting":1,
    "headache":1,
    "pressing":1,
    "raises":1,
    "oh":1,
    "wallops":1,
    "aggravation":1,
    "hefts":1,
    "choice":1,
    "crazy":1,
    "buy":1,
    "exchange":1,
    "scratches":1,
    "resist":1,
    "deliver":1,
    "brands":1,
    "10":1,
    "dinner":1,
    "evening":1,
    "darkens":1,
    "moons":1,
    "above":1,
    "highwalled":1,
    "gardens":1,
    "strung":1,
    "lanterns":1,
    "billow":1,
    "breeze":1,
    "pay":1,
    "chases":1,
    "pauper":1,
    "kneel":1,
    "groans":1,
    "bon":1,
    "wellgroomed":1,
    "nice":1,
    "robes":1,
    "master":1,
    "scowls":1,
    "meets":1,
    "savage":1,
    "sight":1,
    "especially":1,
    "exactly":1,
    "politics":1,
    "needed":1,
    "whispering":1,
    "fool":1,
    "wife":1,
    "half":1,
    "ourselves":1,
    "trite":1,
    "true":1,
    "youth":1,
    "wasted":1,
    "exhausted":1,
    "nights":1,
    "dream":1,
    "hurtling":1,
    "switch":1,
    "seats":1,
    "pull":1,
    "enormous":1,
    "hostility":1,
    "shoots":1,
    "which":1,
    "says":1,
    "rude":1,
    "stranger":1,
    "apologies":1,
    "senator":1,
    "stopped":1,
    "slipping":1,
    "spend":1,
    "troubled":1,
    "infest":1,
    "provinces":1,
    "cities":1,
    "encroach":1,
    "habitat":1,
    "breed":1,
    "grow":1,
    "affluence":1,
    "outnumber":1,
    "nova":1,
    "government":1,
    "simply":1,
    "sterilize":1,
    "cost":1,
    "prohibitive":1,
    "although":1,
    "scientists":1,
    "diseases":1,
    "burns":1,
    "examined":1,
    "prong":1,
    "fork":1,
    "slips":1,
    "shirt":1,
    "disgust":1,
    "towel":1,
    "laugh":1,
    "had":1,
    "cruel":1,
    "petty":1,
    "appetite":1,
    "embarrassment":1,
    "storms":1,
    "table":1,
    "gestures":1,
    "12":1,
    "thing":1,
    "bright":1,
    "skirting":1,
    "hangs":1,
    "men":1,
    "servant":1,
    "woman":1,
    "narrow":1,
    "carefully":1,
    "signify":1,
    "karubis":1,
    "end":1,
    "heavy":1,
    "wooden":1,
    "tool":1,
    "doorway":1,
    "wields":1,
    "merely":1,
    "deflect":1,
    "dazzling":1,
    "standing":1,
    "encircle":1,
    "tremble":1,
    "heartrending":1,
    "ineffectively":1,
    "exist":1,
    "talking":1,
    "sorcery":1,
    "science":1,
    "dropping":1,
    "nowhere":1,
    "belongs":1,
    "quietly":1,
    "emergency":1,
    "sidearm":1,
    "setting":1,
    "trigger":1,
    "rapid":1,
    "adjustment":1,
    "handlebirn":1,
    "shackle":1,
    "property":1,
    "invent":1,
    "horrible":1,
    "device":1,
    "within":1,
    "except":1,
    "depend":1,
    "depending":1,
    "frail":1,
    "completely":1,
    "gray":1,
    "insubstantial":1,
    "corporeality":1,
    "pitiful":1,
    "shell":1,
    "bloodline":1,
    "20":1,
    "rough":1,
    "steep":1,
    "struggle":1,
    "tend":1,
    "unsettled":1,
    "intimate":1,
    "sip":1,
    "canteen":1,
    "brushes":1,
    "questions":1,
    "ask":1,
    "zoos":1,
    "unfamiliar":1,
    "escaped":1,
    "bribed":1,
    "deny":1,
    "bribe":1,
    "grin":1,
    "things":1,
    "suicide":1,
    "attitude":1,
    "freedom":1,
    "gun":1,
    "altar":1,
    "woven":1,
    "tapestry":1,
    "candles":1,
    "illuminate":1,
    "emerging":1,
    "parting":1,
    "clouds":1,
    "waves":1,
    "bows":1,
    "whoosh":1,
    "bathed":1,
    "raining":1,
    "cocks":1,
    "ear":1,
    "stampeding":1,
    "dear":1,
    "extra":1,
    "dive":1,
    "stampede":1,
    "equipment":1,
    "crushed":1,
    "sheer":1,
    "arrogance":1,
    "veers":1,
    "answer":1,
    "barrage":1,
    "fireballs":1,
    "nicks":1,
    "whacks":1,
    "burning":1,
    "ignites":1,
    "dry":1,
    "grass":1,
    "whipped":1,
    "drive":1,
    "feels":1,
    "splashes":1,
    "big":1,
    "smile":1,
    "mane":1,
    "lagging":1,
    "rolling":1,
    "bank":1,
    "waters":1,
    "hesitate":1,
    "swim":1,
    "enter":1,
    "instinctual":1,
    "aversion":1,
    "strong":1,
    "kind":1,
    "change":1,
    "staggering":1,
    "dig":1,
    "potent":1,
    "contradicts":1,
    "reality":1,
    "strokes":1,
    "slaps":1,
    "wet":1,
    "wounds":1,
    "pretty":1,
    "rub":1,
    "deeply":1,
    "freaked":1,
    "rubs":1,
    "harder":1,
    "ow":1,
    "tingle":1,
    "feel":1,
    "dizzy":1,
    "growing":1,
    "everywhere":1,
    "healed":1,
    "teasing":1,
    "laughs":1,
    "jokes":1,
    "wickedly":1,
    "recovered":1,
    "males":1,
    "stare":1,
    "distinct":1,
    "spotted":1,
    "disappear":1,
    "22":1,
    "massed":1,
    "square":1,
    "ashamed":1,
    "crossed":1,
    "didnt":1,
    "carried":1,
    "hardly":1,
    "glares":1,
    "eternity":1,
    "anger":1,
    "essential":1,
    "leaping":1,
    "pulling":1,
    "overhead":1,
    "forceful":1,
    "carrying":1,
    "calms":1,
    "forgive":1,
    "angry":1,
    "embraces":1,
    "emotionally":1,
    "consoles":1,
    "direct":1,
    "descendents":1,
    "steadfast":1,
    "loyal":1,
    "composes":1,
    "lieutenants":1,
    "march":1,
    "shots":1,
    "buglers":1,
    "clarion":1,
    "drummers":1,
    "marching":1,
    "rhythm":1,
    "marches":1,
    "war":1,
    "campfire":1,
    "assumes":1,
    "guard":1,
    "question":1,
    "type":1,
    "prod":1,
    "poke":1,
    "gently":1,
    "reply":1,
    "tomorrow":1,
    "promised":1,
    "save":1,
    "shoving":1,
    "refined":1,
    "elegant":1,
    "eats":1,
    "pleases":1,
    "23":1,
    "dribbling":1,
    "nervously":1,
    "piece":1,
    "cloth":1,
    "disrobes":1,
    "ridge":1,
    "loudly":1,
    "bouncing":1,
    "precision":1,
    "expecting":1,
    "clean":1,
    "silent":1,
    "louder":1,
    "notion":1,
    "unable":1,
    "downward":1,
    "sharply":1,
    "digs":1,
    "clear":1,
    "skull":1,
    "bones":1,
    "scattered":1,
    "scrape":1,
    "frantically":1,
    "crumbles":1,
    "corridor":1,
    "circle":1,
    "revelation":1,
    "clipped":1,
    "section":1,
    "contours":1,
    "cavern":1,
    "matches":1,
    "remembers":1,
    "chips":1,
    "trembling":1,
    "faint":1,
    "glows":1,
    "spills":1,
    "warily":1,
    "middle":1,
    "regain":1,
    "thousands":1,
    "ago":1,
    "milliseconds":1,
    "5021946":1,
    "jumpy":1,
    "ripped":1,
    "binary":1,
    "tremulous":1,
    "searching":1,
    "guidance":1,
    "went":1,
    "couldnt":1,
    "punched":1,
    "received":1,
    "communications":1,
    "since":1,
    "landed":1,
    "uncharted":1,
    "uninhabited":1,
    "best":1,
    "helpful":1,
    "stronger":1,
    "smarter":1,
    "imagined":1,
    "scroll":1,
    "undamaged":1,
    "bits":1,
    "silver":1,
    "sixty":1,
    "distressed":1,
    "glaze":1,
    "battered":1,
    "siege":1,
    "fled":1,
    "mountains":1,
    "named":1,
    "raised":1,
    "myself":1,
    "brutal":1,
    "admit":1,
    "apt":1,
    "pupils":1,
    "four":1,
    "pure":1,
    "changes":1,
    "names":1,
    "missing":1,
    "action":1,
    "glisten":1,
    "console":1,
    "deaths":1,
    "gages":1,
    "rods":1,
    "longingly":1,
    "thousand":1,
    "24":1,
    "surrounding":1,
    "belongings":1,
    "homemade":1,
    "weaponslead":1,
    "distinctive":1,
    "scores":1,
    "villages":1,
    "defies":1,
    "homes":1,
    "among":1,
    "wildfire":1,
    "wedges":1,
    "cause":1,
    "whichever":1,
    "business":1,
    "continue":1,
    "families":1,
    "loners":1,
    "glare":1,
    "curious":1,
    "hostile":1,
    "crow":1,
    "galloping":1,
    "mood":1,
    "footsteps":1,
    "jolts":1,
    "identify":1,
    "hesitates":1,
    "seeing":1,
    "teacher":1,
    "defensive":1,
    "dare":1,
    "decision":1,
    "stepping":1,
    "race":1,
    "killed":1,
    "reason":1,
    "affected":1,
    "stalks":1,
    "saying":1,
    "trade":1,
    "proposing":1,
    "took":1,
    "stray":1,
    "indulged":1,
    "whim":1,
    "tenses":1,
    "fleck":1,
    "become":1,
    "else":1,
    "offer":1,
    "pose":1,
    "submissiveness":1,
    "feelings":1,
    "scarf":1,
    "branding":1,
    "iron":1,
    "cries":1,
    "calm":1,
    "possibility":1,
    "draw":1,
    "people":1,
    "absolutely":1,
    "bait":1,
    "till":1,
    "protest":1,
    "27":1,
    "dusty":1,
    "beside":1,
    "working":1,
    "sneaks":1,
    "taps":1,
    "doubt":1,
    "whatever":1,
    "planning":1,
    "anticipation":1,
    "kill":1,
    "gotta":1,
    "shock":1,
    "victorious":1,
    "defenseless":1,
    "ancient":1,
    "three":1,
    "hundred":1,
    "spartans":1,
    "held":1,
    "persians":1,
    "happened":1,
    "became":1,
    "legends":1,
    "28":1,
    "human\u2019s":1,
    "third":1,
    "relives":1,
    "odyssey":1,
    "thoughts":1,
    "gazing":1,
    "confidant":1,
    "fearsome":1,
    "movement":1,
    "high":1,
    "cliff":1,
    "calls":1,
    "hidden":1,
    "amongst":1,
    "expectantly":1,
    "part":1,
    "riders":1,
    "heading":1,
    "divide":1,
    "groups":1,
    "continuing":1,
    "check":1,
    "stumbles":1,
    "directly":1,
    "bearing":1,
    "frees":1,
    "closing":1,
    "spires":1,
    "radiates":1,
    "row":1,
    "vaporized":1,
    "beard":1,
    "incredulously":1,
    "prized":1,
    "giant":1,
    "formed":1,
    "survivors":1,
    "triedandtrue":1,
    "instincts":1,
    "scare":1,
    "mocking":1,
    "depths":1,
    "souls":1,
    "drowns":1,
    "fears":1,
    "surviving":1,
    "cannot":1,
    "defeat":1,
    "wondering":1,
    "worked":1,
    "crane":1,
    "emerges":1,
    "fearless":1,
    "poised":1,
    "daring":1,
    "played":1,
    "bluff":1,
    "done":1,
    "29":1,
    "strikes":1,
    "am":1,
    "horns":1,
    "stab":1,
    "handful":1,
    "stabs":1,
    "bumps":1,
    "approaching":1,
    "toss":1,
    "death":1,
    "below":1,
    "valiantly":1,
    "resolve":1,
    "fly":1,
    "knocked":1,
    "trouble":1,
    "arrives":1,
    "blocked":1,
    "mighty":1,
    "unstoppable":1,
    "wreaking":1,
    "havoc":1,
    "threatening":1,
    "dodge":1,
    "slashed":1,
    "30":1,
    "krull\u2019s":1,
    "handtohand":1,
    "crushes":1,
    "bare":1,
    "fangs":1,
    "locking":1,
    "embrace":1,
    "slash":1,
    "swords":1,
    "teeth":1,
    "match":1,
    "31":1,
    "prophecy":1,
    "fulfilled":1,
    "directions":1,
    "collide":1,
    "turning":1,
    "rout":1,
    "lifts":1,
    "joins":1,
    "managed":1,
    "horizon":1,
    "natural":1,
    "grows":1,
    "knee":1,
    "finish":1,
    "deafening":1,
    "react":1,
    "heard":1,
    "boom":1,
    "breaking":1,
    "contrail":1,
    "filters":1,
    "hues":1,
    "swirling":1,
    "whispers":1,
    "single":1,
    "strides":1,
    "positions":1,
    "cowards":1,
    "scatter":1,
    "vicious":1,
    "backhand":1,
    "sends":1,
    "sprawling":1,
    "shocked":1,
    "wherever":1,
    "wretched":1,
    "skitters":1,
    "32":1,
    "thade\u2019s":1,
    "laying":1,
    "defiantly":1,
    "retreats":1,
    "luring":1,
    "lopes":1,
    "glow":1,
    "clsoe":1,
    "examine":1,
    "pretends":1,
    "bends":1,
    "sniffs":1,
    "opportunity":1,
    "snaps":1,
    "happens":1,
    "obey":1,
    "believed":1,
    "lie":1,
    "anymore":1,
    "maneuvering":1,
    "buried":1,
    "beneath":1,
    "step":1,
    "forever":1,
    "\u2014":1,
    "33":1,
    "caged":1,
    "terrifying":1,
    "larger":1,
    "gripping":1,
    "wrists":1,
    "calmly":1,
    "firmly":1,
    "pray":1,
    "forcefully":1,
    "stares":1,
    "beats":1,
    "pound":1,
    "effect":1,
    "sophisticated":1,
    "trapped":1,
    "blood":1,
    "laboratory":1,
    "climbs":1,
    "known":1,
    "curls":1,
    "softly":1,
    "34":1,
    "toext":1,
    "places":1,
    "couldve":1,
    "protected":1,
    "care":1,
    "promise":1,
    "graves":1,
    "unmarked":1,
    "mourned":1,
    "together":1,
    "reacting":1,
    "coordinates":1,
    "contain":1,
    "everyone":1,
    "mind":1,
    "grooming":1,
    "theyll":1,
    "changed":1,
    "fairytale":1,
    "increases":1,
    "sprinting":1,
    "surprising":1,
    "sighs":1,
    "gonna":1,
    "wanted":1,
    "soemthing":1,
    "remember":1,
    "price":1,
    "worm":1,
    "moon":2,
    "past":2,
    "lcd":2,
    "finger":2,
    "tilt":2,
    "vision":2,
    "brown":2,
    "sequence":2,
    "simulator":2,
    "shield":2,
    "confusion":2,
    "freezes":2,
    "reflected":2,
    "davidson":2,
    "vocalizes":2,
    "quarters":2,
    "explosion":2,
    "noises":2,
    "specialist":2,
    "electronic":2,
    "repeat":2,
    "comforting":2,
    "rocket":2,
    "huge":2,
    "puts":2,
    "brings":2,
    "aggressive":2,
    "postcard":2,
    "eye":2,
    "finds":2,
    "sit":2,
    "real":2,
    "proud":2,
    "bangs":2,
    "reads":2,
    "service":2,
    "proof":2,
    "barrier":2,
    "uses":2,
    "slides":2,
    "gathered":2,
    "commander":2,
    "causing":2,
    "earth":2,
    "frequency":2,
    "tv":2,
    "color":2,
    "spot":2,
    "plays":2,
    "pieces":2,
    "phone":2,
    "chatter":2,
    "history":2,
    "communication":2,
    "returns":2,
    "core":2,
    "monkey":2,
    "ready":2,
    "pilot":2,
    "order":2,
    "launch":2,
    "platform":2,
    "suit":2,
    "concern":2,
    "understand":2,
    "deck":2,
    "set":2,
    "brilliant":2,
    "energy":2,
    "flickers":2,
    "wrong":2,
    "lever":2,
    "jesus":2,
    "thinks":2,
    "sequences":2,
    "later":2,
    "headset":2,
    "vasichs":2,
    "push":2,
    "dangerous":2,
    "swings":2,
    "position":2,
    "slightly":2,
    "lunges":2,
    "landing":2,
    "spaceint":2,
    "melts":2,
    "sweeping":2,
    "clears":2,
    "sets":2,
    "twists":2,
    "thick":2,
    "shakes":2,
    "viciously":2,
    "cold":2,
    "systems":2,
    "pitch":2,
    "tumble":2,
    "support":2,
    "almost":2,
    "pinning":2,
    "crushing":2,
    "eerie":2,
    "heat":2,
    "white":2,
    "smoke":2,
    "grease":2,
    "fumbles":2,
    "handle":2,
    "ejection":2,
    "tears":2,
    "swims":2,
    "free":2,
    "dissolve":2,
    "senses":2,
    "woods":2,
    "frightening":2,
    "cover":2,
    "hunting":2,
    "branches":2,
    "balance":2,
    "staggers":2,
    "closes":2,
    "flee":2,
    "girl":2,
    "chase":2,
    "knocks":2,
    "lead":2,
    "afraid":2,
    "listening":2,
    "closely":2,
    "attacks":2,
    "nature":2,
    "overwhelmed":2,
    "limb":2,
    "knees":2,
    "body":2,
    "catch":2,
    "bodies":2,
    "horseback":2,
    "rider":2,
    "grabbing":2,
    "swinging":2,
    "mount":2,
    "ride":2,
    "fiercely":2,
    "beyond":2,
    "dozen":2,
    "tossed":2,
    "riding":2,
    "reaction":2,
    "daughter":2,
    "male":2,
    "times":2,
    "followed":2,
    "used":2,
    "yes":2,
    "spots":2,
    "needs":2,
    "mouths":2,
    "whips":2,
    "yanks":2,
    "flies":2,
    "neck":2,
    "intently":2,
    "wraps":2,
    "maneuver":2,
    "handlers":2,
    "surround":2,
    "low":2,
    "intimacy":2,
    "startled":2,
    "realizes":2,
    "furiously":2,
    "keeps":2,
    "grab":2,
    "expensive":2,
    "mark":2,
    "tapestries":2,
    "voices":2,
    "kitchen":2,
    "floor":2,
    "different":2,
    "os":2,
    "guests":2,
    "bit":2,
    "weary":2,
    "soul":2,
    "leeta":2,
    "fortune":2,
    "nado":2,
    "gentle":2,
    "touch":2,
    "barely":2,
    "climb":2,
    "much":2,
    "friend":2,
    "carry":2,
    "embarrassed":2,
    "eave":2,
    "tired":2,
    "leading":2,
    "stay":2,
    "corner":2,
    "late":2,
    "theyve":2,
    "running":2,
    "warriors":2,
    "blow":2,
    "lays":2,
    "break":2,
    "stone":2,
    "against":2,
    "strength":2,
    "charging":2,
    "monkeys":2,
    "whole":2,
    "such":2,
    "most":2,
    "extremely":2,
    "die":2,
    "kalima":2,
    "mountain":2,
    "top":2,
    "bounds":2,
    "manner":2,
    "walk":2,
    "excited":2,
    "word":2,
    "flare":2,
    "kneeling":2,
    "closed":2,
    "blinding":2,
    "let":2,
    "log":2,
    "grips":2,
    "terror":2,
    "using":2,
    "fight":2,
    "building":2,
    "bola":2,
    "opposite":2,
    "enraged":2,
    "protect":2,
    "scrambles":2,
    "bring":2,
    "made":2,
    "doubts":2,
    "sprints":2,
    "worried":2,
    "shoulders":2,
    "cuts":2,
    "clump":2,
    "defiant":2,
    "crossing":2,
    "signals":2,
    "tribal":2,
    "soon":2,
    "headquarters":2,
    "entrance":2,
    "talk":2,
    "bear":2,
    "chandelier":2,
    "draws":2,
    "bursts":2,
    "mounts":2,
    "came":2,
    "leader":2,
    "always":2,
    "form":2,
    "divisions":2,
    "walks":2,
    "hell":2,
    "stars":2,
    "theyd":2,
    "youd":2,
    "heartbreak":2,
    "anyone":2,
    "mimics":2,
    "trail":2,
    "dawn":2,
    "dismounts":2,
    "gather":2,
    "streaks":2,
    "source":2,
    "thinking":2,
    "deeper":2,
    "round":2,
    "soil":2,
    "impossible":2,
    "brand":2,
    "oberons":2,
    "emblem":2,
    "hum":2,
    "emotions":2,
    "words":2,
    "scarred":2,
    "weve":2,
    "continues":2,
    "scrolls":2,
    "longer":2,
    "name":2,
    "story":2,
    "spreading":2,
    "crowd":2,
    "cheer":2,
    "taking":2,
    "furtively":2,
    "yourself":2,
    "caught":2,
    "gage":2,
    "does":2,
    "technology":2,
    "excellent":2,
    "seven":2,
    "alone":2,
    "nods":2,
    "lopers":2,
    "gallop":2,
    "underneath":2,
    "explode":2,
    "path":2,
    "wounded":2,
    "begin":2,
    "weapon":2,
    "listens":2,
    "destroy":2,
    "gallops":2,
    "straight":2,
    "rolls":2,
    "backs":2,
    "coming":2,
    "surrounded":2,
    "combat":2,
    "gains":2,
    "upper":2,
    "retreat":2,
    "dot":2,
    "swats":2,
    "lands":2,
    "tunnel":2,
    "hole":2,
    "grave":2,
    "good":2,
    "metallic":3,
    "punches":3,
    "buttons":3,
    "helmet":3,
    "command":3,
    "flustered":3,
    "view":3,
    "captain":3,
    "lose":3,
    "enough":3,
    "throw":3,
    "living":3,
    "sweep":3,
    "cages":3,
    "tech":3,
    "picks":3,
    "being":3,
    "focus":3,
    "thought":3,
    "actually":3,
    "works":3,
    "smiles":3,
    "quiet":3,
    "place":3,
    "date":3,
    "outside":3,
    "security":3,
    "id":3,
    "system":3,
    "hurries":3,
    "already":3,
    "found":3,
    "whats":3,
    "sun":3,
    "images":3,
    "show":3,
    "radio":3,
    "conversation":3,
    "ten":3,
    "every":3,
    "attention":3,
    "start":3,
    "gone":3,
    "soft":3,
    "checks":3,
    "leans":3,
    "speaks":3,
    "scared":3,
    "dead":3,
    "disappears":3,
    "faces":3,
    "waiting":3,
    "tight":3,
    "wait":3,
    "run":3,
    "did":3,
    "slowly":3,
    "massive":3,
    "crash":3,
    "glittering":3,
    "wave":3,
    "fear":3,
    "sweeps":3,
    "panic":3,
    "life":3,
    "opens":3,
    "flames":3,
    "cockpit":3,
    "fights":3,
    "rises":3,
    "surface":3,
    "crashes":3,
    "rage":3,
    "thrust":3,
    "cry":3,
    "party":3,
    "able":3,
    "breathing":3,
    "force":3,
    "boy":3,
    "drop":3,
    "breath":3,
    "attack":3,
    "markings":3,
    "thrown":3,
    "general":3,
    "wheels":3,
    "hair":3,
    "pen":3,
    "struggles":3,
    "reach":3,
    "handler":3,
    "children":3,
    "many":3,
    "wear":3,
    "worth":3,
    "ones":3,
    "taught":3,
    "foot":3,
    "growl":3,
    "locks":3,
    "youve":3,
    "sell":3,
    "both":3,
    "money":3,
    "deal":3,
    "shot":3,
    "rise":3,
    "age":3,
    "fast":3,
    "any":3,
    "doing":3,
    "wish":3,
    "why":3,
    "terrible":3,
    "soldier":3,
    "hits":3,
    "shapes":3,
    "appear":3,
    "canines":3,
    "hurls":3,
    "slams":3,
    "box":3,
    "wouldnt":3,
    "friends":3,
    "read":3,
    "slopes":3,
    "aside":3,
    "speak":3,
    "camp":3,
    "holding":3,
    "tents":3,
    "kicks":3,
    "surprise":3,
    "wind":3,
    "krulls":3,
    "races":3,
    "fierce":3,
    "herself":3,
    "attars":3,
    "isnt":3,
    "claws":3,
    "shes":3,
    "youll":3,
    "join":3,
    "call":3,
    "sword":3,
    "toward":3,
    "taken":3,
    "family":3,
    "maybe":3,
    "anything":3,
    "signal":3,
    "along":3,
    "fighting":3,
    "ecu":3,
    "everything":3,
    "slide":3,
    "burned":3,
    "brought":3,
    "truth":3,
    "fuel":3,
    "betrayed":3,
    "presses":3,
    "once":3,
    "safety":3,
    "birns":3,
    "stagger":3,
    "intercut":3,
    "roars":3,
    "charge":3,
    "throws":3,
    "battlefield":3,
    "speed":4,
    "lights":4,
    "reveal":4,
    "chimpanzee":4,
    "intense":4,
    "beep":4,
    "sounds":4,
    "faster":4,
    "black":4,
    "beeping":4,
    "immediately":4,
    "few":4,
    "gorilla":4,
    "work":4,
    "arms":4,
    "mean":4,
    "confused":4,
    "female":4,
    "between":4,
    "got":4,
    "monitor":4,
    "rushes":4,
    "enters":4,
    "hansen":4,
    "maria":4,
    "electromagnetic":4,
    "rushing":4,
    "til":4,
    "while":4,
    "strange":4,
    "send":4,
    "next":4,
    "hears":4,
    "lock":4,
    "alive":4,
    "figure":4,
    "leaves":4,
    "lost":4,
    "shut":4,
    "chair":4,
    "loud":4,
    "wash":4,
    "ive":4,
    "seen":4,
    "camera":4,
    "far":4,
    "spins":4,
    "green":4,
    "under":4,
    "bog":4,
    "cut":4,
    "net":4,
    "fall":4,
    "little":4,
    "group":4,
    "try":4,
    "kneels":4,
    "line":4,
    "edge":4,
    "carts":4,
    "tightly":4,
    "sense":4,
    "pain":4,
    "pulled":4,
    "keep":4,
    "points":4,
    "theres":4,
    "gate":4,
    "limbos":4,
    "use":4,
    "days":4,
    "because":4,
    "food":4,
    "sky":4,
    "leave":4,
    "same":4,
    "shadows":4,
    "walls":4,
    "told":4,
    "encampment":4,
    "icon":4,
    "leads":4,
    "carries":4,
    "spreads":4,
    "emerge":4,
    "should":4,
    "planet":4,
    "daenas":4,
    "cliffs":4,
    "until":4,
    "alike":4,
    "beacon":4,
    "caveoberon":4,
    "years":4,
    "pack":4,
    "weapons":4,
    "chance":4,
    "engines":4,
    "course":5,
    "controls":5,
    "deep":5,
    "red":5,
    "silence":5,
    "animal":5,
    "watches":5,
    "insert":5,
    "jumps":5,
    "room":5,
    "glass":5,
    "troops":5,
    "world":5,
    "watch":5,
    "sure":5,
    "lets":5,
    "gives":5,
    "sits":5,
    "pan":5,
    "several":5,
    "waits":5,
    "seat":5,
    "than":5,
    "blur":5,
    "shoulder":5,
    "stand":5,
    "wild":5,
    "growls":5,
    "haze":5,
    "turn":5,
    "put":5,
    "dirt":5,
    "wont":5,
    "make":5,
    "please":5,
    "hurt":5,
    "wide":5,
    "after":5,
    "drops":5,
    "leaps":5,
    "each":5,
    "battle":5,
    "steps":5,
    "lookout":5,
    "window":6,
    "flashes":6,
    "stops":6,
    "well":6,
    "stick":6,
    "pulls":6,
    "cage":6,
    "storm":6,
    "breaks":6,
    "open":6,
    "crew":6,
    "large":6,
    "digital":6,
    "sir":6,
    "hide":6,
    "home":6,
    "own":6,
    "beat":6,
    "stunned":6,
    "staring":6,
    "falls":6,
    "full":6,
    "explodes":6,
    "about":6,
    "tree":6,
    "new":6,
    "very":6,
    "onto":6,
    "arm":6,
    "house":6,
    "street":6,
    "roar":6,
    "last":6,
    "wall":6,
    "fur":6,
    "touches":6,
    "say":6,
    "rock":6,
    "panel":7,
    "long":7,
    "chimp":7,
    "begins":7,
    "second":7,
    "thats":7,
    "stop":7,
    "young":7,
    "left":7,
    "going":7,
    "saw":7,
    "appears":7,
    "frank":7,
    "rush":7,
    "ship":7,
    "take":7,
    "doesnt":7,
    "alpha":7,
    "looking":7,
    "makes":7,
    "fire":7,
    "where":7,
    "these":7,
    "pushes":7,
    "messenger":7,
    "plain":7,
    "ever":8,
    "reacts":8,
    "moment":8,
    "want":8,
    "been":8,
    "dark":8,
    "quick":8,
    "knows":8,
    "go":8,
    "could":8,
    "follow":8,
    "static":8,
    "side":8,
    "still":8,
    "feet":8,
    "front":8,
    "only":8,
    "never":8,
    "sees":8,
    "semos":8,
    "tent":8,
    "charges":8,
    "plains":8,
    "cave":8,
    "board":9,
    "flight":9,
    "know":9,
    "space":9,
    "even":9,
    "voice":9,
    "air":9,
    "power":9,
    "move":9,
    "finally":9,
    "head":9,
    "punch":9,
    "forward":9,
    "theyre":9,
    "some":9,
    "another":9,
    "so":9,
    "rocks":9,
    "forest":9,
    "day":9,
    "trying":9,
    "think":9,
    "rides":9,
    "comes":9,
    "army":9,
    "thades":9,
    "hold":9,
    "would":9,
    "city":9,
    "watching":9,
    "seems":10,
    "gets":10,
    "more":10,
    "goes":10,
    "moving":10,
    "nothing":10,
    "cloud":10,
    "hear":10,
    "sound":10,
    "moves":10,
    "inside":10,
    "find":10,
    "dont":10,
    "great":10,
    "horses":10,
    "suddenly":11,
    "continuous":11,
    "ill":11,
    "holds":11,
    "there":11,
    "us":11,
    "help":11,
    "gunnar":11,
    "hard":11,
    "angle":11,
    "our":11,
    "starts":12,
    "how":12,
    "do":12,
    "was":12,
    "right":12,
    "when":12,
    "father":12,
    "bridge":12,
    "first":12,
    "water":12,
    "stands":12,
    "ground":12,
    "tell":12,
    "who":12,
    "spear":12,
    "night":12,
    "here":12,
    "frame":13,
    "small":13,
    "hands":13,
    "youre":13,
    "himself":13,
    "like":13,
    "old":13,
    "if":13,
    "towards":13,
    "delta":13,
    "before":13,
    "two":13,
    "aris":13,
    "sandar":13,
    "river":13,
    "face":14,
    "again":14,
    "come":14,
    "screen":14,
    "too":14,
    "omit":14,
    "runs":14,
    "others":14,
    "control":15,
    "quickly":15,
    "tries":15,
    "widen":15,
    "door":15,
    "pov":15,
    "look":15,
    "grabs":15,
    "reaches":16,
    "alexander":16,
    "takes":16,
    "get":16,
    "time":16,
    "were":16,
    "im":16,
    "something":16,
    "tival":16,
    "closer":17,
    "light":17,
    "now":17,
    "not":17,
    "has":17,
    "soldiers":17,
    "cant":18,
    "turns":18,
    "will":18,
    "chapter":19,
    "karubi":19,
    "away":19,
    "off":20,
    "vasich":20,
    "other":20,
    "way":20,
    "human":21,
    "just":21,
    "int":22,
    "behind":22,
    "leos":22,
    "around":22,
    "birn":22,
    "what":23,
    "eyes":23,
    "oberon":23,
    "no":23,
    "my":23,
    "your":23,
    "hand":23,
    "that":23,
    "ruins":24,
    "its":25,
    "their":25,
    "dust":25,
    "pericles":26,
    "be":27,
    "across":27,
    "over":28,
    "horse":28,
    "she":29,
    "close":29,
    "hes":29,
    "all":30,
    "but":30,
    "me":31,
    "have":31,
    "an":33,
    "this":34,
    "krull":34,
    "looks":35,
    "can":35,
    "by":36,
    "through":37,
    "pod":37,
    "see":38,
    "humans":38,
    "down":39,
    "are":40,
    "apes":41,
    "calima":41,
    "one":42,
    "back":43,
    "they":44,
    "then":45,
    "we":47,
    "ape":49,
    "them":50,
    "daena":51,
    "limbo":52,
    "up":54,
    "her":55,
    "from":58,
    "out":61,
    "into":62,
    "ext":62,
    "for":64,
    "i":65,
    "as":76,
    "him":78,
    "attar":78,
    "at":82,
    "with":84,
    "is":86,
    "you":86,
    "it":95,
    "ari":99,
    "he":107,
    "in":110,
    "thade":111,
    "on":123,
    "of":147,
    "his":147,
    "and":174,
    "a":218,
    "to":262,
    "leo":271,
    "":335,
    "the":642
}