{
    "dipped":1,
    "forfuckingever":1,
    "bite":1,
    "delay":1,
    "phase":1,
    "eight":1,
    "dipshit":1,
    "freshmeat":1,
    "killers":1,
    "salt":1,
    "humping":1,
    "sara":1,
    "rs":1,
    "shame":1,
    "read":1,
    "nohow":1,
    "mumm":1,
    "sweetheart":1,
    "choke":1,
    "sky":1,
    "reports":1,
    "near":1,
    "buddhist":1,
    "temple":1,
    "passed":1,
    "hawkins":1,
    "rubber":1,
    "plantation":1,
    "peaches":1,
    "fruitcake":1,
    "cmon":1,
    "ham":1,
    "lima":1,
    "beans":1,
    "tricky":1,
    "game":1,
    "playing":1,
    "known":1,
    "bigger":1,
    "whiteboy":1,
    "watcha":1,
    "saved":1,
    "today":1,
    "shiteating":1,
    "reminds":1,
    "wipe":1,
    "shirt":1,
    "wrote":1,
    "impossibility":1,
    "hardest":1,
    "standing":1,
    "tired":1,
    "4":1,
    "pm":1,
    "allnight":1,
    "listening":1,
    "post":1,
    "scary":1,
    "tells":1,
    "unwritten":1,
    "rule":1,
    "isnt":1,
    "worth":1,
    "hasnt":1,
    "logic":1,
    "3hour":1,
    "guard":1,
    "hours":1,
    "boocoo":1,
    "3rd":1,
    "kliks":1,
    "north":1,
    "strung":1,
    "baad":1,
    "twozero":1,
    "oneills":1,
    "shengs":1,
    "chances":1,
    "zapped":1,
    "fuckface":1,
    "beauty":1,
    "prick":1,
    "everyday":1,
    "cochise":1,
    "rain":1,
    "grow":1,
    "mushrooms":1,
    "badass":1,
    "justice":1,
    "act":1,
    "brothers":1,
    "picture":1,
    "awaiting":1,
    "damn":1,
    "guns":1,
    "boss":1,
    "separated":1,
    "lost":1,
    "yell":1,
    "zzzs":1,
    "sling":1,
    "motherfucking":1,
    "scans":1,
    "scope":1,
    "pov":1,
    "blurred":1,
    "puts":1,
    "aside":1,
    "snoring":1,
    "shhh":1,
    "course":1,
    "respectable":1,
    "working":1,
    "200":1,
    "house":1,
    "drove":1,
    "wall":1,
    "street":1,
    "predetermined":1,
    "sheltered":1,
    "share":1,
    "grandpa":1,
    "towns":1,
    "pulaski":1,
    "brandon":1,
    "mississippi":1,
    "pork":1,
    "bend":1,
    "utah":1,
    "wampum":1,
    "pennsylvania":1,
    "schools":1,
    "factory":1,
    "unwanted":1,
    "america":1,
    "bottom":1,
    "barrel":1,
    "grunts":1,
    "backbone":1,
    "heart":1,
    "finally":1,
    "mud":1,
    "proud":1,
    "without":1,
    "fake":1,
    "very":1,
    "wake":1,
    "aaaaaghhh":1,
    "gardners":1,
    "scratch":1,
    "sleeping":1,
    "selfpreservations":1,
    "law":1,
    "shock":1,
    "worrying":1,
    "everythings":1,
    "hots":1,
    "sheets":1,
    "nurses":1,
    "blowjobs":1,
    "pay":1,
    "bitches":1,
    "save":1,
    "strength":1,
    "babytalk":1,
    "fell":1,
    "chink":1,
    "tall":1,
    "ours":1,
    "afterwards":1,
    "vampires":1,
    "blood":1,
    "keeps":1,
    "body":1,
    "returned":1,
    "lit":1,
    "core":1,
    "choppers":1,
    "lump":1,
    "oshit":1,
    "rmember":1,
    "firefight":1,
    "guarangoddamntee":1,
    "bodybag":1,
    "wired":1,
    "sonofabitch":1,
    "coppin":1,
    "zs":1,
    "personally":1,
    "interest":1,
    "seeing":1,
    "trouble":1,
    "excuses":1,
    "knock":1,
    "attention":1,
    "police":1,
    "extra":1,
    "frags":1,
    "hoyt":1,
    "whod":1,
    "hauling":1,
    "brother":1,
    "laying":1,
    "mand":1,
    "hed":1,
    "breeze":1,
    "beers":1,
    "stole":1,
    "supply":1,
    "stealing":1,
    "chucks":1,
    "gimmee":1,
    "doctor":1,
    "letup":1,
    "pinocchio":1,
    "fortytwo":1,
    "gone":1,
    "broke":1,
    "92":1,
    "april":1,
    "17":1,
    "deros":1,
    "summer":1,
    "waves":1,
    "surfins":1,
    "march":1,
    "pines":1,
    "crossmounted":1,
    "walkin":1,
    "hundred":1,
    "32":1,
    "count":1,
    "backwards":1,
    "40":1,
    "positive":1,
    "educated":1,
    "gain":1,
    "dropped":1,
    "infantry":1,
    "combat":1,
    "givin":1,
    "sense":1,
    "learning":1,
    "botherin":1,
    "thanks":1,
    "kills":1,
    "smell":1,
    "ydo":1,
    "starting":1,
    "introduce":1,
    "underworld":1,
    "resurrected":1,
    "shits":1,
    "baaaaah":1,
    "baaaaaaa":1,
    "least":1,
    "baaaaaaaaaaaaaaaa":1,
    "bah":1,
    "mouth":1,
    "definately":1,
    "turned":1,
    "feelin":1,
    "goods":1,
    "john":1,
    "gal":1,
    "nuff":1,
    "4f":1,
    "charlotte":1,
    "huge":1,
    "freckles":1,
    "weigh":1,
    "braid":1,
    "armpits":1,
    "highway":1,
    "limp":1,
    "bopping":1,
    "tony":1,
    "chick":1,
    "ago":1,
    "oooooh":1,
    "outasight":1,
    "slick":1,
    "looked":1,
    "plant":1,
    "texas":1,
    "stopped":1,
    "beating":1,
    "sticking":1,
    "pants":1,
    "bathing":1,
    "suit":1,
    "hutch":1,
    "regret":1,
    "natural":1,
    "picking":1,
    "hogs":1,
    "heat":1,
    "couldnt":1,
    "actually":1,
    "crossbreed":1,
    "chinese":1,
    "polish":1,
    "almond":1,
    "shaped":1,
    "tan":1,
    "leather":1,
    "sandals":1,
    "thongs":1,
    "musky":1,
    "mmmm":1,
    "smelled":1,
    "wrapped":1,
    "otherwise":1,
    "wouldve":1,
    "perfect":1,
    "woman":1,
    "susan":1,
    "tamara":1,
    "elizabeth":1,
    "patty":1,
    "inga":1,
    "jennifer":1,
    "connie":1,
    "redneck":1,
    "noise":1,
    "chicks":1,
    "losin":1,
    "der":1,
    "hos":1,
    "honky":1,
    "motown":1,
    "jams":1,
    "whaddaya":1,
    "das":1,
    "tryin":1,
    "string":1,
    "yoke":1,
    "kinda":1,
    "weird":1,
    "yhear":1,
    "chemicals":1,
    "become":1,
    "pacifists":1,
    "hopheads":1,
    "killer":1,
    "while":1,
    "indie":1,
    "yoself":1,
    "mirror":1,
    "uglier":1,
    "moren":1,
    "tween":1,
    "wills":1,
    "hows":1,
    "cards":1,
    "cheating":1,
    "kentucky":1,
    "windage":1,
    "raped":1,
    "saving":1,
    "jewish":1,
    "enjoy":1,
    "seeming":1,
    "fun":1,
    "cute":1,
    "substitute":1,
    "because":1,
    "permanent":1,
    "smile":1,
    "bit":1,
    "tracks":1,
    "tears":1,
    "1968":1,
    "staying":1,
    "neat":1,
    "cambodian":1,
    "border":1,
    "regiments":1,
    "firefights":1,
    "drop":1,
    "bombs":1,
    "napalm":1,
    "ghosts":1,
    "landscape":1,
    "pssst":1,
    "stuffs":1,
    "important":1,
    "corpsman":1,
    "understand":1,
    "holy":1,
    "crawling":1,
    "traps":1,
    "search":1,
    "somethings":1,
    "part":1,
    "saddle":1,
    "tubbs":1,
    "buchanan":1,
    "1000":1,
    "mystery":1,
    "stood":1,
    "thousand":1,
    "rage":1,
    "ahab":1,
    "fuckheads":1,
    "putem":1,
    "pen":1,
    "willy":1,
    "pete":1,
    "burn":1,
    "pa":1,
    "kettle":1,
    "hurt":1,
    "smiling":1,
    "dance":1,
    "chickenshit":1,
    "laughs":1,
    "blowing":1,
    "betcha":1,
    "runs":1,
    "helped":1,
    "mannys":1,
    "throat":1,
    "zap":1,
    "wounds":1,
    "bombing":1,
    "raid":1,
    "choice":1,
    "theirs":1,
    "nailed":1,
    "riverbank":1,
    "havent":1,
    "scout":1,
    "pop":1,
    "swears":1,
    "hates":1,
    "lying":1,
    "teeth":1,
    "pigs":1,
    "farmers":1,
    "crap":1,
    "daughter":1,
    "caca":1,
    "ado":1,
    "firing":1,
    "jail":1,
    "torch":1,
    "suspected":1,
    "cees":1,
    "shake":1,
    "growing":1,
    "garden":1,
    "beats":1,
    "burning":1,
    "hutches":1,
    "stoneds":1,
    "stupid":1,
    "reported":1,
    "include":1,
    "witness":1,
    "plenty":1,
    "eyewitnesses":1,
    "complex":1,
    "east":1,
    "might":1,
    "able":1,
    "prove":1,
    "troublemaker":1,
    "waterwalker":1,
    "washington":1,
    "hand":1,
    "tied":1,
    "courtroom":1,
    "howd":1,
    "thataway":1,
    "squeal":1,
    "fix":1,
    "investigation":1,
    "jawsd":1,
    "clacking":1,
    "hill":1,
    "took":1,
    "bullet":1,
    "survived":1,
    "baaad":1,
    "reup":1,
    "pee":1,
    "strange":1,
    "ways":1,
    "metal":1,
    "crazyn":1,
    "normal":1,
    "filled":1,
    "roaming":1,
    "jungles":1,
    "yellow":1,
    "devils":1,
    "devil":1,
    "gods":1,
    "heres":1,
    "preacher":1,
    "baaa":1,
    "busy":1,
    "naturally":1,
    "worked":1,
    "wells":1,
    "oklahoma":1,
    "washed":1,
    "actress":1,
    "lsd":1,
    "gurus":1,
    "turns":1,
    "cops":1,
    "drug":1,
    "rap":1,
    "meet":1,
    "jezebel":1,
    "reduced":1,
    "civilians":1,
    "animal":1,
    "worried":1,
    "money":1,
    "twilight":1,
    "zone":1,
    "sister":1,
    "started":1,
    "youall":1,
    "expect":1,
    "civilian":1,
    "phoney":1,
    "robots":1,
    "watchin":1,
    "drivin":1,
    "cars":1,
    "lyin":1,
    "parade":1,
    "respect":1,
    "battle":1,
    "wrestle":1,
    "angel":1,
    "shitbang":1,
    "hardly":1,
    "sack":1,
    "stars":1,
    "nice":1,
    "believes":1,
    "65":1,
    "todays":1,
    "beginning":1,
    "kicking":1,
    "peoples":1,
    "kicked":1,
    "decent":1,
    "thousands":1,
    "town":1,
    "persons":1,
    "twist":1,
    "cheapest":1,
    "starts":1,
    "glorifying":1,
    "puke":1,
    "selling":1,
    "used":1,
    "indian":1,
    "giant":1,
    "garbage":1,
    "whatever":1,
    "spin":1,
    "wheels":1,
    "reincarnation":1,
    "mes":1,
    "return":1,
    "ticket":1,
    "lookit":1,
    "glory":1,
    "paint":1,
    "jobs":1,
    "request":1,
    "circumcision":1,
    "rabbi":1,
    "girlfriends":1,
    "lovers":1,
    "bros":1,
    "chicago":1,
    "stretch":1,
    "dare":1,
    "worlds":1,
    "oyster":1,
    "firsts":1,
    "hamburger":1,
    "fries":1,
    "steaks":1,
    "soaked":1,
    "onions":1,
    "ketchup":1,
    "bell":1,
    "sore":1,
    "malaria":1,
    "lerners":1,
    "warrens":1,
    "rocket":1,
    "whos":1,
    "warren":1,
    "firepower":1,
    "gun":1,
    "spread":1,
    "log":1,
    "sixfour":1,
    "fourzerotwo":1,
    "direction":1,
    "sixonezerozero":1,
    "bunkers":1,
    "danger":1,
    "rog":1,
    "solid":1,
    "stand":1,
    "inbound":1,
    "sierra":1,
    "ifn":1,
    "kickin":1,
    "heavy":1,
    "spotted":1,
    "running":1,
    "lemme":1,
    "split":1,
    "doin":1,
    "chopped":1,
    "56":1,
    "spiderholes":1,
    "stream":1,
    "reinforce":1,
    "wide":1,
    "open":1,
    "snipers":1,
    "crossfire":1,
    "itll":1,
    "massacre":1,
    "happen":1,
    "66":1,
    "cavalry":1,
    "pouring":1,
    "suppressing":1,
    "hanging":1,
    "belong":1,
    "artys":1,
    "sheng":1,
    "idiot":1,
    "satchel":1,
    "charge":1,
    "care":1,
    "ignorant":1,
    "coordinates":1,
    "giving":1,
    "ah":1,
    "romeo":1,
    "registration":1,
    "effect":1,
    "stagger":1,
    "moves":1,
    "gotcha":1,
    "curtains":1,
    "along":1,
    "rear":1,
    "faster":1,
    "alone":1,
    "twenty":1,
    "tree":1,
    "push":1,
    "regroup":1,
    "needs":1,
    "cover":1,
    "practice":1,
    "ho":1,
    "chi":1,
    "minh":1,
    "sucks":1,
    "lung":1,
    "id":1,
    "tried":1,
    "article":1,
    "join":1,
    "leg":1,
    "deck":1,
    "gunships":1,
    "proof":1,
    "proofs":1,
    "frag":1,
    "sun":1,
    "candle":1,
    "human":1,
    "grave":1,
    "headache":1,
    "battles":1,
    "heaven":1,
    "sitting":1,
    "monkey":1,
    "smokin":1,
    "pains":1,
    "murderer":1,
    "admired":1,
    "7":1,
    "meant":1,
    "experts":1,
    "pussies":1,
    "hide":1,
    "allow":1,
    "none":1,
    "lonesome":1,
    "gainst":1,
    "o":1,
    "dinky":1,
    "dau":1,
    "enlisted":1,
    "climb":1,
    "walls":1,
    "sent":1,
    "2000":1,
    "sizeable":1,
    "force":1,
    "probed":1,
    "battalions":1,
    "werent":1,
    "ones":1,
    "knew":1,
    "bait":1,
    "lure":1,
    "entire":1,
    "141st":1,
    "maps":1,
    "fixed":1,
    "distances":1,
    "treelines":1,
    "wires":1,
    "provided":1,
    "wes":1,
    "referring":1,
    "terms":1,
    "yours":1,
    "begging":1,
    "pardon":1,
    "nobodyd":1,
    "bodies":1,
    "problems":1,
    "anymore":1,
    "use":1,
    "wishy":1,
    "washy":1,
    "glad":1,
    "hungry":1,
    "bummer":1,
    "etcetera":1,
    "ad":1,
    "infinitum":1,
    "bubble":1,
    "folks":1,
    "must":1,
    "smoking":1,
    "control":1,
    "straight":1,
    "powder":1,
    "wasted":1,
    "rules":1,
    "middle":1,
    "lips":1,
    "whoever":1,
    "superlifer":1,
    "orders":1,
    "jokin":1,
    "wowww":1,
    "lifers":1,
    "cuttin":1,
    "collect":1,
    "10":1,
    "ess":1,
    "mine":1,
    "address":1,
    "reach":1,
    "anytime":1,
    "postcard":1,
    "tapes":1,
    "guy":1,
    "jimi":1,
    "hendrix":1,
    "member":1,
    "nuthin":1,
    "keepin":1,
    "rumor":1,
    "tanks":1,
    "soviet":1,
    "t34s":1,
    "same":1,
    "boots":1,
    "martin":1,
    "mosquito":1,
    "repellent":1,
    "courtmartial":1,
    "nigger":1,
    "bust":1,
    "worst":1,
    "chuck":1,
    "centipede":1,
    "hairy":1,
    "orange":1,
    "crate":1,
    "speak":1,
    "minute":1,
    "patsy":1,
    "asked":1,
    "hoping":1,
    "asking":1,
    "sometime":1,
    "chaplains":1,
    "chaplain":1,
    "shouldna":1,
    "audie":1,
    "murphy":1,
    "pinned":1,
    "calm":1,
    "smokell":1,
    "radioman":1,
    "map":1,
    "spot":1,
    "key":1,
    "handset":1,
    "twice":1,
    "silence":1,
    "vague":1,
    "murmuring":1,
    "becoming":1,
    "vietnamese":1,
    "bashed":1,
    "sound":1,
    "thunder":1,
    "captains":1,
    "ear":1,
    "rto":1,
    "shocked":1,
    "wish":1,
    "memphis":1,
    "oooh":1,
    "flares":1,
    "identify":1,
    "strikes":1,
    "snake":1,
    "probing":1,
    "hurry":1,
    "wiped":1,
    "stoppin":1,
    "strike":1,
    "cav":1,
    "theyd":1,
    "yaaaaaaaaa":1,
    "yaaaaahhhh":1,
    "killlll":1,
    "dyin":1,
    "didiing":1,
    "gutless":1,
    "diiiiikaaeeeeeee":1,
    "negative":1,
    "contact":1,
    "raise":1,
    "nothin":1,
    "awful":1,
    "traffic":1,
    "clear":1,
    "net":1,
    "overrun":1,
    "plannin":1,
    "soonest":1,
    "zips":1,
    "wire":1,
    "hot":1,
    "trot":1,
    "packing":1,
    "snape":1,
    "bingo":1,
    "fuel":1,
    "record":1,
    "dump":1,
    "holding":1,
    "lovely":1,
    "cocked":1,
    "treetops":1,
    "echo":1,
    "pass":1,
    "expend":1,
    "remaining":1,
    "nooooooooo":1,
    "bozo":1,
    "faggots":1,
    "silver":1,
    "star":1,
    "booze":1,
    "122":1,
    "estimate":1,
    "victor":1,
    "22":1,
    "crews":1,
    "general":1,
    "timers":1,
    "highhigh":1,
    "yessir":1,
    "ride":1,
    "yes":1,
    "fought":1,
    "ourselves":1,
    "called":1,
    "born":1,
    "fathers":1,
    "obligation":1,
    "build":1,
    "teach":1,
    "others":1,
    "lives":1,
    "goodness":1,
    "meaning":1,
    "meat":2,
    "sin":2,
    "loi":2,
    "weve":2,
    "link":2,
    "jamming":2,
    "hells":2,
    "fall":2,
    "troop":2,
    "mother":2,
    "dere":2,
    "dear":2,
    "means":2,
    "chance":2,
    "set":2,
    "size":2,
    "ambushes":2,
    "full":2,
    "dark":2,
    "wolfe":2,
    "area":2,
    "ol":2,
    "reason":2,
    "laundry":2,
    "gig":2,
    "alright":2,
    "itself":2,
    "dis":2,
    "once":2,
    "feels":2,
    "already":2,
    "5":2,
    "jungle":2,
    "cares":2,
    "few":2,
    "suffer":2,
    "34":2,
    "movement":2,
    "claymores":2,
    "pieces":2,
    "mikes":2,
    "turn":2,
    "morehouse":2,
    "fu":2,
    "rr":2,
    "ready":2,
    "thinks":2,
    "crotch":2,
    "rappin":2,
    "change":2,
    "lucy":2,
    "jean":2,
    "real":2,
    "close":2,
    "position":2,
    "someplace":2,
    "case":2,
    "somethin":2,
    "happens":2,
    "minutes":2,
    "fast":2,
    "greasy":2,
    "unh":2,
    "shaddup":2,
    "dad":2,
    "family":2,
    "guess":2,
    "anonymous":2,
    "second":2,
    "generation":2,
    "most":2,
    "small":2,
    "society":2,
    "freedom":2,
    "themselves":2,
    "grunt":2,
    "having":2,
    "safety":2,
    "feed":2,
    "godamn":2,
    "lie":2,
    "nature":2,
    "pain":2,
    "gettin":2,
    "asleep":2,
    "walked":2,
    "cocksuckers":2,
    "gear":2,
    "dudes":2,
    "walking":2,
    "soon":2,
    "wants":2,
    "chicken":2,
    "ammo":2,
    "alive":2,
    "duty":2,
    "base":2,
    "tops":2,
    "whered":2,
    "beer":2,
    "awright":2,
    "dealing":2,
    "wakeup":2,
    "california":2,
    "sniff":2,
    "river":2,
    "332":2,
    "volunteered":2,
    "wasnt":2,
    "should":2,
    "crusader":2,
    "sounds":2,
    "sheeit":2,
    "rich":2,
    "lose":2,
    "such":2,
    "history":2,
    "heads":2,
    "ahead":2,
    "wind":2,
    "child":2,
    "worm":2,
    "has":2,
    "sold":2,
    "beautiful":2,
    "under":2,
    "wow":2,
    "gracie":2,
    "happened":2,
    "whorehouse":2,
    "beach":2,
    "tits":2,
    "swinging":2,
    "french":2,
    "legs":2,
    "hearts":2,
    "hardon":2,
    "myself":2,
    "after":2,
    "follow":2,
    "find":2,
    "married":2,
    "enuff":2,
    "blonde":2,
    "knees":2,
    "oil":2,
    "god":2,
    "please":2,
    "broken":2,
    "merle":2,
    "dey":2,
    "mans":2,
    "throw":2,
    "story":2,
    "grass":2,
    "theyse":2,
    "500":2,
    "than":2,
    "plate":2,
    "laid":2,
    "dies":2,
    "rodriguez":2,
    "play":2,
    "yourselves":2,
    "faces":2,
    "party":2,
    "joke":2,
    "loud":2,
    "hardy":2,
    "since":2,
    "girl":2,
    "closer":2,
    "trace":2,
    "bunker":2,
    "willya":2,
    "engineers":2,
    "klik":2,
    "downriver":2,
    "asap":2,
    "wait":2,
    "yards":2,
    "would":2,
    "loved":2,
    "la":2,
    "dai":2,
    "scared":2,
    "honcho":2,
    "crying":2,
    "apart":2,
    "old":2,
    "balls":2,
    "fo":2,
    "doesnt":2,
    "months":2,
    "saying":2,
    "talks":2,
    "shooting":2,
    "whew":2,
    "each":2,
    "brigade":2,
    "oughta":2,
    "ia":2,
    "drang":2,
    "baby":2,
    "japan":2,
    "hospital":2,
    "four":2,
    "seven":2,
    "lord":2,
    "works":2,
    "revenge":2,
    "movies":2,
    "possession":2,
    "el":2,
    "either":2,
    "nams":2,
    "everybodys":2,
    "dopey":2,
    "television":2,
    "survivors":2,
    "knowing":2,
    "cheap":2,
    "drunk":2,
    "fucks":2,
    "gives":2,
    "takes":2,
    "deer":2,
    "pecker":2,
    "gots":2,
    "flap":2,
    "drink":2,
    "beast":2,
    "incoming":2,
    "rpgs":2,
    "goin":2,
    "flanks":2,
    "niner":2,
    "dug":2,
    "adjust":2,
    "copy":2,
    "roll":2,
    "radio":2,
    "ok":2,
    "add":2,
    "crawford":2,
    "tellem":2,
    "cp":2,
    "saw":2,
    "cure":2,
    "suggest":2,
    "dugged":2,
    "cutting":2,
    "baaaaaaaaa":2,
    "bastard":2,
    "reality":2,
    "machine":2,
    "breaks":2,
    "kick":2,
    "binh":2,
    "somewhere":2,
    "friend":2,
    "vibes":2,
    "kidding":2,
    "squads":2,
    "writing":2,
    "dry":2,
    "gravy":2,
    "slack":2,
    "great":2,
    "chief":2,
    "rounds":2,
    "clearer":2,
    "rodriguezs":2,
    "medic":2,
    "air":2,
    "nape":2,
    "water":2,
    "advised":2,
    "leader":2,
    "roger":2,
    "kia":2,
    "counting":2,
    "felt":2,
    "enemy":2,
    "boys":3,
    "nam":3,
    "whiskey":3,
    "ants":3,
    "neck":3,
    "haul":3,
    "knows":3,
    "death":3,
    "fresh":3,
    "across":3,
    "cambodia":3,
    "blue":3,
    "platoons":3,
    "lt":3,
    "hump":3,
    "problem":3,
    "gimme":3,
    "turkey":3,
    "loaf":3,
    "cept":3,
    "hope":3,
    "thinking":3,
    "dog":3,
    "hate":3,
    "feet":3,
    "front":3,
    "camp":3,
    "foxhole":3,
    "name":3,
    "weeks":3,
    "believe":3,
    "pull":3,
    "year":3,
    "made":3,
    "mistake":3,
    "trees":3,
    "blew":3,
    "lieutenants":3,
    "thought":3,
    "nose":3,
    "sit":3,
    "trail":3,
    "mom":3,
    "hard":3,
    "making":3,
    "special":3,
    "live":3,
    "job":3,
    "poor":3,
    "best":3,
    "arm":3,
    "christ":3,
    "dumb":3,
    "truth":3,
    "shut":3,
    "fine":3,
    "enough":3,
    "yo":3,
    "dying":3,
    "trip":3,
    "goes":3,
    "brains":3,
    "carry":3,
    "didi":3,
    "report":3,
    "couple":3,
    "motherfuckah":3,
    "100":3,
    "college":3,
    "nah":3,
    "suck":3,
    "coward":3,
    "later":3,
    "lame":3,
    "waste":3,
    "crutcher":3,
    "hawaii":3,
    "living":3,
    "eyes":3,
    "listen":3,
    "yever":3,
    "putting":3,
    "sos":3,
    "bunch":3,
    "bet":3,
    "figger":3,
    "although":3,
    "deep":3,
    "youve":3,
    "another":3,
    "youll":3,
    "lot":3,
    "pos":3,
    "yourself":3,
    "looking":3,
    "which":3,
    "eye":3,
    "rice":3,
    "regiment":3,
    "bring":3,
    "forget":3,
    "weapons":3,
    "vee":3,
    "cee":3,
    "tomorrow":3,
    "lead":3,
    "politicians":3,
    "comes":3,
    "valley":3,
    "many":3,
    "wee":3,
    "baaaa":3,
    "lay":3,
    "sometimes":3,
    "home":3,
    "own":3,
    "hundreds":3,
    "killing":3,
    "trying":3,
    "den":3,
    "target":3,
    "behind":3,
    "redleg":3,
    "ripper":3,
    "actual":3,
    "mission":3,
    "grid":3,
    "lootenant":3,
    "arty":3,
    "flank":3,
    "church":3,
    "third":3,
    "caught":3,
    "metres":3,
    "try":3,
    "came":3,
    "pulling":3,
    "wounded":3,
    "yall":3,
    "jackson":3,
    "chopper":3,
    "son":3,
    "buddy":4,
    "waiting":4,
    "gardner":4,
    "matter":4,
    "half":4,
    "bunny":4,
    "youd":4,
    "moving":4,
    "before":4,
    "else":4,
    "eat":4,
    "start":4,
    "somebody":4,
    "week":4,
    "could":4,
    "being":4,
    "lucky":4,
    "battalion":4,
    "15":4,
    "captain":4,
    "francis":4,
    "sal":4,
    "run":4,
    "world":4,
    "cool":4,
    "together":4,
    "wid":4,
    "things":4,
    "politics":4,
    "chris":4,
    "show":4,
    "pretty":4,
    "stick":4,
    "tight":4,
    "uh":4,
    "claymore":4,
    "catch":4,
    "ten":4,
    "wanted":4,
    "country":4,
    "end":4,
    "heard":4,
    "tennessee":4,
    "high":4,
    "learn":4,
    "miss":4,
    "fuckers":4,
    "blow":4,
    "bullshit":4,
    "field":4,
    "dem":4,
    "face":4,
    "dinks":4,
    "both":4,
    "tough":4,
    "far":4,
    "told":4,
    "kids":4,
    "stuff":4,
    "whatd":4,
    "bread":4,
    "dawn":4,
    "everything":4,
    "gets":4,
    "gooks":4,
    "probably":4,
    "may":4,
    "inside":4,
    "goddamit":4,
    "ya":4,
    "dink":4,
    "ask":4,
    "talk":4,
    "till":4,
    "gator":4,
    "theyll":4,
    "shoot":4,
    "babe":4,
    "telling":4,
    "snakebite":4,
    "love":5,
    "point":5,
    "line":5,
    "other":5,
    "motherfucker":5,
    "sick":5,
    "check":5,
    "fool":5,
    "light":5,
    "tonight":5,
    "grandma":5,
    "ive":5,
    "3":5,
    "wouldnt":5,
    "yet":5,
    "stay":5,
    "shift":5,
    "asses":5,
    "getting":5,
    "hunh":5,
    "work":5,
    "call":5,
    "watch":5,
    "cocksucker":5,
    "leave":5,
    "dude":5,
    "said":5,
    "wont":5,
    "daisy":5,
    "mae":5,
    "feeling":5,
    "piece":5,
    "laughing":5,
    "ma":5,
    "sandy":5,
    "head":5,
    "these":5,
    "asshole":5,
    "every":5,
    "bob":5,
    "holes":5,
    "five":5,
    "sorry":6,
    "zero":6,
    "company":6,
    "squad":6,
    "harold":6,
    "give":6,
    "pig":6,
    "dig":6,
    "killed":6,
    "ever":6,
    "gook":6,
    "am":6,
    "put":6,
    "perimeter":6,
    "sleep":6,
    "tex":6,
    "break":6,
    "shes":6,
    "soul":6,
    "worry":6,
    "don":6,
    "hang":6,
    "remember":6,
    "whatcha":6,
    "dats":6,
    "smoke":6,
    "rhah":6,
    "hair":6,
    "dick":6,
    "rest":6,
    "kill":6,
    "jes":6,
    "village":6,
    "motherfuckers":6,
    "wanna":6,
    "ise":6,
    "charlie":6,
    "last":6,
    "black":7,
    "next":7,
    "hold":7,
    "bush":7,
    "bitch":7,
    "youse":7,
    "hell":7,
    "goddamn":7,
    "even":7,
    "better":7,
    "really":7,
    "short":7,
    "into":7,
    "round":7,
    "crazy":7,
    "boy":7,
    "everybody":7,
    "never":7,
    "seen":7,
    "those":7,
    "fucker":7,
    "feel":7,
    "away":7,
    "assholes":7,
    "pussy":7,
    "shot":7,
    "talking":7,
    "red":7,
    "people":7,
    "cut":7,
    "wrong":7,
    "fucked":8,
    "lerner":8,
    "nobody":8,
    "manny":8,
    "hole":8,
    "times":8,
    "around":8,
    "ambush":8,
    "whole":8,
    "platoon":8,
    "sergeant":8,
    "oneill":8,
    "men":8,
    "always":8,
    "does":8,
    "did":8,
    "nothing":8,
    "fighting":8,
    "found":8,
    "again":8,
    "bad":8,
    "more":8,
    "anyway":8,
    "yknow":8,
    "fight":8,
    "alpha":8,
    "says":9,
    "little":9,
    "any":9,
    "nva":9,
    "junior":9,
    "de":9,
    "let":9,
    "place":9,
    "only":9,
    "anything":9,
    "night":9,
    "jesus":9,
    "years":9,
    "white":9,
    "lias":9,
    "easy":9,
    "walk":9,
    "long":9,
    "mean":9,
    "still":9,
    "wheres":9,
    "well":10,
    "new":10,
    "whats":10,
    "king":10,
    "big":10,
    "day":10,
    "who":10,
    "send":10,
    "their":10,
    "looks":10,
    "by":10,
    "off":10,
    "die":10,
    "make":10,
    "lieutenant":10,
    "left":10,
    "much":11,
    "an":11,
    "will":11,
    "doing":11,
    "life":11,
    "keep":11,
    "doc":11,
    "outta":11,
    "cant":11,
    "through":11,
    "thing":12,
    "done":12,
    "first":12,
    "hear":12,
    "sarge":12,
    "dead":12,
    "guys":13,
    "maybe":13,
    "sure":13,
    "oh":13,
    "not":13,
    "theres":13,
    "days":13,
    "need":14,
    "gotta":14,
    "cause":14,
    "as":14,
    "hit":14,
    "had":14,
    "something":14,
    "our":14,
    "war":14,
    "bout":15,
    "coming":15,
    "why":15,
    "them":15,
    "see":15,
    "three":15,
    "fire":15,
    "where":15,
    "lets":16,
    "dat":16,
    "say":16,
    "her":16,
    "then":17,
    "ill":18,
    "six":18,
    "tell":18,
    "way":18,
    "have":18,
    "good":18,
    "sir":18,
    "hes":18,
    "bravo":19,
    "were":19,
    "didnt":19,
    "when":19,
    "going":20,
    "if":21,
    "been":21,
    "him":21,
    "think":22,
    "one":22,
    "look":22,
    "or":22,
    "how":22,
    "time":23,
    "take":23,
    "too":24,
    "fuckin":24,
    "are":25,
    "from":25,
    "now":25,
    "fucking":26,
    "down":26,
    "she":27,
    "want":27,
    "elias":27,
    "theyre":27,
    "okay":28,
    "move":28,
    "two":28,
    "but":28,
    "hey":28,
    "so":28,
    "about":28,
    "come":28,
    "us":28,
    "can":29,
    "thats":29,
    "at":30,
    "over":30,
    "his":30,
    "ass":31,
    "some":31,
    "taylor":32,
    "aint":33,
    "im":34,
    "was":34,
    "go":35,
    "youre":35,
    "its":35,
    "em":36,
    "just":36,
    "fuck":37,
    "barnes":37,
    "my":39,
    "back":41,
    "right":41,
    "with":42,
    "yeah":42,
    "no":43,
    "there":45,
    "do":46,
    "like":50,
    "is":51,
    "know":55,
    "all":56,
    "they":57,
    "be":59,
    "he":59,
    "for":63,
    "gonna":68,
    "out":68,
    "up":69,
    "we":69,
    "here":71,
    "got":73,
    "this":73,
    "what":75,
    "me":76,
    "your":78,
    "that":82,
    "on":86,
    "of":88,
    "dont":89,
    "shit":94,
    "":101,
    "get":102,
    "man":123,
    "in":127,
    "it":144,
    "to":146,
    "and":160,
    "a":174,
    "i":184,
    "the":261,
    "you":328
}