{
    "trevor":1,
    "hover":1,
    "coils":1,
    "pete":1,
    "lead":1,
    "slam":1,
    "shadowy":1,
    "steve\u2019s":1,
    "drowned":1,
    "rumbles":1,
    "grave":1,
    "site":1,
    "unless":1,
    "leaving":1,
    "wakes":1,
    "rude":1,
    "hun":1,
    "playfully":1,
    "frenzied":1,
    "zips":1,
    "freakedout":1,
    "boxer":1,
    "desperately":1,
    "scratch":1,
    "rump":1,
    "scratching":1,
    "cal":1,
    "date":1,
    "minutes":1,
    "special":1,
    "yawns":1,
    "fully":1,
    "awake":1,
    "asleep":1,
    "scenery":1,
    "becomes":1,
    "dominated":1,
    "gravestones":1,
    "casually":1,
    "windshield":1,
    "skids":1,
    "skeleton":1,
    "clumps":1,
    "brownish":1,
    "cling":1,
    "scattered":1,
    "neatly":1,
    "trimmed":1,
    "strewn":1,
    "fragments":1,
    "skulls":1,
    "spines":1,
    "hips":1,
    "mounds":1,
    "jami\u2019s":1,
    "recoils":1,
    "horror":1,
    "chases":1,
    "staggered":1,
    "handful":1,
    "tossed":1,
    "props":1,
    "elegant":1,
    "darkened":1,
    "agape":1,
    "stripped":1,
    "soundless":1,
    "throes":1,
    "cryscream":1,
    "faints":1,
    "soaking":1,
    "buttons":1,
    "ledge":1,
    "checking":1,
    "dust":1,
    "case":1,
    "kisses":1,
    "gently":1,
    "carefree":1,
    "youthful":1,
    "usual":1,
    "busy":1,
    "plows":1,
    "crowd":1,
    "protectively":1,
    "travis":1,
    "mess":1,
    "weird":1,
    "part":1,
    "flicking":1,
    "paperwork":1,
    "um":1,
    "richards":1,
    "desks":1,
    "various":1,
    "stages":1,
    "disarray":1,
    "fake":1,
    "halfsmile":1,
    "barges":1,
    "editors":1,
    "cleansing":1,
    "nerves":1,
    "styles":1,
    "joe":1,
    "90":1,
    "specs":1,
    "fixes":1,
    "wally":1,
    "dear":1,
    "coffees":1,
    "cutting":1,
    "midgripe":1,
    "copy":1,
    "vitamin":1,
    "she\u2019s":1,
    "gonna":1,
    "keepfitshit":1,
    "advice":1,
    "secretary":1,
    "grabber":1,
    "shocked":1,
    "hellwalter":1,
    "pick":1,
    "mag":1,
    "tab":1,
    "blame":1,
    "crap":1,
    "bin":1,
    "laden":1,
    "jack":1,
    "ripper":1,
    "snatcher\u2019":1,
    "strike":1,
    "interested":1,
    "gave":1,
    "google":1,
    "months":1,
    "hills":1,
    "cemeteries":1,
    "bodies\u2026":1,
    "yadayada":1,
    "skims":1,
    "walter\u2019s":1,
    "sips":1,
    "personal":1,
    "bastard":1,
    "walt":1,
    "overnight":1,
    "superhero":1,
    "bobcat":1,
    "narrowing":1,
    "weirdo":1,
    "sell":1,
    "babe\u2026":1,
    "pure":1,
    "superheros":1,
    "wish":1,
    "expenses":1,
    "cash":1,
    "cow":1,
    "storms":1,
    "littered":1,
    "headlines":1,
    "towns":1,
    "folk":1,
    "disappear":1,
    "vampires\u2026":1,
    "treat":1,
    "murders":1,
    "plague":1,
    "dates":1,
    "range":1,
    "40":1,
    "shines":1,
    "beam":1,
    "lowers":1,
    "investigating":1,
    "vandalism":1,
    "incident":1,
    "boss":1,
    "mentioned":1,
    "usually":1,
    "nights":1,
    "pitched":1,
    "fit":1,
    "weeks":1,
    "extra":1,
    "matter":1,
    "attempt":1,
    "joke":1,
    "dangerous":1,
    "whoever":1,
    "saygreg":1,
    "walking":1,
    "calling":1,
    "gregs":1,
    "concerned":1,
    "wander":1,
    "grubby":1,
    "underfed":1,
    "aged":1,
    "beyond":1,
    "swaggers":1,
    "ally":1,
    "heroin":1,
    "peter":1,
    "boys":1,
    "stick":1,
    "action":1,
    "stony":1,
    "couldnt":1,
    "losersabel":1,
    "willcutter":1,
    "play":1,
    "rules":1,
    "unto":1,
    "guideline":1,
    "kneels":1,
    "wipes":1,
    "scumbagass":1,
    "friend":1,
    "jeans":1,
    "holding":1,
    "doing":1,
    "school":1,
    "dabbing":1,
    "cards":1,
    "aunt":1,
    "mary":1,
    "glum":1,
    "ruffles":1,
    "money":1,
    "there\u2019s":1,
    "drawer":1,
    "youd":1,
    "i\u2019ll":1,
    "evening":1,
    "skips":1,
    "semiconscious":1,
    "trembles":1,
    "coughs":1,
    "sparse":1,
    "studentstyle":1,
    "crayon":1,
    "drawings":1,
    "blank":1,
    "walls":1,
    "seemingly":1,
    "content":1,
    "drinks":1,
    "sink":1,
    "creak":1,
    "closing":1,
    "investigate":1,
    "eighteen":1,
    "stained":1,
    "jacob":1,
    "grown":1,
    "i\u2019d":1,
    "intrigue":1,
    "formulate":1,
    "dropped":1,
    "talked":1,
    "persons":1,
    "motherjake":1,
    "nuts":1,
    "refrain":1,
    "count":1,
    "unnaturally":1,
    "somethings":1,
    "bares":1,
    "vibrating":1,
    "whos":1,
    "crouches":1,
    "alleyway":1,
    "intense":1,
    "descend":1,
    "dim":1,
    "letters":1,
    "rubbing":1,
    "thumb":1,
    "fore":1,
    "sniffs":1,
    "peer":1,
    "wreck":1,
    "bits":1,
    "mirror":1,
    "reduce":1,
    "haze":1,
    "needed":1,
    "puzzled":1,
    "mattress":1,
    "oddly":1,
    "shaped":1,
    "headed":1,
    "shard":1,
    "mans":1,
    "rustles":1,
    "lipped":1,
    "twitches":1,
    "hideous":1,
    "anguished":1,
    "moan":1,
    "blowing":1,
    "manages":1,
    "squirm":1,
    "twitch":1,
    "crosses":1,
    "clothes":1,
    "prods":1,
    "hurries":1,
    "cluster":1,
    "barriers":1,
    "paramedics":1,
    "chin":1,
    "matches":1,
    "contorts":1,
    "ambulances":1,
    "supposed":1,
    "corpses":1,
    "form":1,
    "hole":1,
    "speaking":1,
    "civilians":1,
    "closets":1,
    "beds":1,
    "rolled":1,
    "shower":1,
    "curtains":1,
    "rugs":1,
    "doublechecks":1,
    "medics":1,
    "confirmed":1,
    "vitals":1,
    "hell":1,
    "freakish":1,
    "muscle":1,
    "reflex":1,
    "wound":1,
    "trauma":1,
    "arrival":1,
    "cuts":1,
    "bruises":1,
    "occupant":1,
    "royal":1,
    "facilities":1,
    "handle":1,
    "stiffs":1,
    "ses":1,
    "disease":1,
    "poison":1,
    "cultlike":1,
    "panic":1,
    "coroner":1,
    "arrived":1,
    "minute":1,
    "witnesses":1,
    "gentlemen":1,
    "questionsabel":1,
    "given":1,
    "statements":1,
    "ask":1,
    "sergeant":1,
    "tells":1,
    "sixty":1,
    "apartments":1,
    "occupied":1,
    "racks":1,
    "brain":1,
    "shake":1,
    "glimpse":1,
    "pooling":1,
    "somehow":1,
    "cool":1,
    "pricked":1,
    "theyve":1,
    "exsanguinated":1,
    "sign":1,
    "haemorrhaging":1,
    "colleague":1,
    "perspective":1,
    "uniformed":1,
    "reacting":1,
    "sweep":1,
    "recognise":1,
    "creeping":1,
    "loose":1,
    "guide":1,
    "easy":1,
    "morgue":1,
    "frustrated":1,
    "doctor":1,
    "consults":1,
    "weary":1,
    "prep":1,
    "autopsy":1,
    "concentrates":1,
    "incision":1,
    "startles":1,
    "lightswitch":1,
    "snarls":1,
    "hunched":1,
    "tilts":1,
    "switch":1,
    "startled":1,
    "clawlike":1,
    "works":1,
    "tongue":1,
    "lips":1,
    "mark\u2019s":1,
    "blouse":1,
    "sleeve":1,
    "lurk":1,
    "spotlights":1,
    "dares":1,
    "smack":1,
    "ssshhhhhh":1,
    "lifted":1,
    "thrown":1,
    "replaced":1,
    "whose":1,
    "terrifying":1,
    "rabid":1,
    "rustling":1,
    "glittery":1,
    "dives":1,
    "fucpoliceman":1,
    "license":1,
    "lounge":1,
    "dinner":1,
    "bite":1,
    "reads":1,
    "husband":1,
    "midyawn":1,
    "smash":1,
    "midscream":1,
    "weekkyeema":1,
    "tilly":1,
    "kinky":1,
    "shrill":1,
    "attacking":1,
    "someones":1,
    "hurting":1,
    "facial":1,
    "floodlights":1,
    "baseball":1,
    "response":1,
    "dan\u2019s":1,
    "scene":1,
    "gods":1,
    "weight":1,
    "lightning":1,
    "speed":1,
    "react":1,
    "squats":1,
    "hisses":1,
    "sprints":1,
    "usain":1,
    "almighty":1,
    "beautifully":1,
    "megans":1,
    "series":1,
    "intercut":1,
    "clicks":1,
    "dislocated":1,
    "taps":1,
    "beats":1,
    "silence":1,
    "breathe":1,
    "drift":1,
    "candles":1,
    "semi":1,
    "marmerchant":1,
    "frame":1,
    "obscured":1,
    "robe":1,
    "tall":1,
    "muscular":1,
    "bows":1,
    "stronger":1,
    "changing":1,
    "existence":1,
    "remain":1,
    "secret":1,
    "spreads":1,
    "stitches":1,
    "carve":1,
    "legend":1,
    "annals":1,
    "borders":1,
    "predict":1,
    "threat":1,
    "rancall":1,
    "governed":1,
    "fools":1,
    "agreed":1,
    "rumours":1,
    "shift":1,
    "afford":1,
    "underestimate":1,
    "border":1,
    "patrols":1,
    "capable":1,
    "studio":1,
    "packet":1,
    "bottle":1,
    "vodka":1,
    "bedside":1,
    "story":1,
    "murmurs":1,
    "faint":1,
    "whimper":1,
    "splashes":1,
    "inhales":1,
    "lung":1,
    "widen":1,
    "writing":1,
    "words":1,
    "\u201cfollow":1,
    "master\u201d":1,
    "message":1,
    "spray":1,
    "paint":1,
    "bag":1,
    "sprays":1,
    "\u201cbeware":1,
    "killer\u201d":1,
    "buries":1,
    "tighter":1,
    "freezing":1,
    "glad":1,
    "talk":1,
    "unnatural":1,
    "backward":1,
    "trips":1,
    "cracks":1,
    "edge":1,
    "thrusts":1,
    "sustain":1,
    "vein":1,
    "drop":1,
    "precious":1,
    "gathers":1,
    "unmade":1,
    "card":1,
    "board":1,
    "boxes":1,
    "hardly":1,
    "recognized":1,
    "blaze":1,
    "favourite":1,
    "pupil":1,
    "thousand":1,
    "element":1,
    "surprise":1,
    "strength":1,
    "nightrolland":1,
    "orgy":1,
    "hunger":1,
    "celebration":1,
    "unlike":1,
    "amok":1,
    "they\u2019re":1,
    "blast":1,
    "furnaces":1,
    "gentle":1,
    "knockknock":1,
    "blinds":1,
    "drawn":1,
    "propped":1,
    "cups":1,
    "bottles":1,
    "alcohol":1,
    "couch":1,
    "television":1,
    "ignores":1,
    "hiss":1,
    "screen":1,
    "fromjami":1,
    "torn":1,
    "round":1,
    "youjami":1,
    "kitchen":1,
    "eyebrow":1,
    "explain":1,
    "shotgun":1,
    "wedding":1,
    "reenters":1,
    "smirks":1,
    "humour":1,
    "dozen":1,
    "catholic":1,
    "churches":1,
    "twenty":1,
    "kilometre":1,
    "radius":1,
    "gravity":1,
    "evils":1,
    "drug":1,
    "dealers":1,
    "beaters":1,
    "homicidal":1,
    "maniacs":1,
    "rapists":1,
    "inventing":1,
    "signs":1,
    "scale":1,
    "decades":1,
    "centuries":1,
    "notice":1,
    "means":1,
    "mothers":1,
    "longest":1,
    "moved":1,
    "lord":1,
    "older":1,
    "rambling":1,
    "swap":1,
    "glances":1,
    "died":1,
    "scrapbook":1,
    "townships":1,
    "resident":1,
    "upped":1,
    "plain":1,
    "disappeared":1,
    "eats":1,
    "breakfast":1,
    "heart":1,
    "decapitation":1,
    "jamie":1,
    "exchange":1,
    "murderer":1,
    "agitated":1,
    "obsessive":1,
    "possibly":1,
    "psychotic":1,
    "constant":1,
    "attack":1,
    "local":1,
    "photo\u2019s":1,
    "network":1,
    "scouting":1,
    "believe":1,
    "using":1,
    "entering":1,
    "willing":1,
    "devilish":1,
    "members":1,
    "parish":1,
    "whistles":1,
    "german":1,
    "shepherd":1,
    "hearted":1,
    "forth":1,
    "charges":1,
    "vehicle":1,
    "making":1,
    "tissue":1,
    "tied":1,
    "rubber":1,
    "band":1,
    "keeps":1,
    "wanted":1,
    "digs":1,
    "coat":1,
    "firmly":1,
    "strands":1,
    "hairwatch":1,
    "frigginwellgoing":1,
    "porsche":1,
    "airport":1,
    "ourselves":1,
    "resort":1,
    "possible":1,
    "become":1,
    "darkdan":1,
    "steering":1,
    "wheel":1,
    "wells":1,
    "maldives":1,
    "knackered":1,
    "neither":1,
    "impressed":1,
    "current":1,
    "predicament":1,
    "service":1,
    "seven":1,
    "eight":1,
    "steadily":1,
    "darker":1,
    "houses":1,
    "stepping":1,
    "nest":1,
    "protected":1,
    "inviting":1,
    "invasion":1,
    "suggesting":1,
    "nearly":1,
    "safe":1,
    "holster":1,
    "flight":1,
    "reply":1,
    "cursed":1,
    "occasionally":1,
    "brainwave":1,
    "staircase":1,
    "shutters":1,
    "handles":1,
    "hangs":1,
    "lift":1,
    "mission":1,
    "olivers":1,
    "mercedes":1,
    "yell":1,
    "charlie":1,
    "children":1,
    "rumble":1,
    "think\u2026":1,
    "streetlights":1,
    "mouthful":1,
    "killer":1,
    "lashes":1,
    "welltimed":1,
    "boot":1,
    "rib":1,
    "cage":1,
    "petrified":1,
    "cannot":1,
    "hellloooo":1,
    "rides":1,
    "blinks":1,
    "fuckin":1,
    "clothes\u2026":1,
    "garlic":1,
    "gaaaah":1,
    "ladies":1,
    "painfully":1,
    "ages":1,
    "sizes":1,
    "briefs":1,
    "chimes":1,
    "mutter":1,
    "line":1,
    "deathly":1,
    "pierces":1,
    "mandell":1,
    "fiona":1,
    "fioonnnaaaaaa":1,
    "appeared":1,
    "faster":1,
    "flit":1,
    "feels":1,
    "alvins":1,
    "alvin":1,
    "daughter":1,
    "remaining":1,
    "john":1,
    "send":1,
    "girls":1,
    "pane":1,
    "bearings":1,
    "sobs":1,
    "busts":1,
    "standing":1,
    "rings":1,
    "limply":1,
    "wide":1,
    "warned":1,
    "crucifixes":1,
    "hurt":1,
    "dealer":1,
    "vicious":1,
    "arc":1,
    "though":1,
    "clean":1,
    "crumples":1,
    "withers":1,
    "husk":1,
    "carries":1,
    "grabbing":1,
    "stonestreet\u2019s":1,
    "twisting":1,
    "fluid":1,
    "sets":1,
    "pulling":1,
    "what\u2019s":1,
    "attached":1,
    "beating":1,
    "tired":1,
    "confused":1,
    "reports":1,
    "panicking":1,
    "mostly":1,
    "werolland":1,
    "troops":1,
    "patrol":1,
    "escapes":1,
    "excuses":1,
    "gaps":1,
    "immediately":1,
    "command":1,
    "fifteen":1,
    "stays":1,
    "mesmerized":1,
    "happens":1,
    "crawling":1,
    "started":1,
    "canberra":1,
    "pillows":1,
    "kicked":1,
    "ripped":1,
    "nooooo":1,
    "tumbles":1,
    "grandfatherly":1,
    "cautiously":1,
    "womans":1,
    "boogies":1,
    "loses":1,
    "fractions":1,
    "jams":1,
    "tip":1,
    "breaches":1,
    "reels":1,
    "shouldve":1,
    "hours":1,
    "huddled":1,
    "pew":1,
    "blanket":1,
    "shoulders":1,
    "aboriginal":1,
    "halfsmiles":1,
    "verge":1,
    "wounds":1,
    "winces":1,
    "pain":1,
    "brightening":1,
    "herabel":1,
    "build":1,
    "calm":1,
    "dream":1,
    "acknowledges":1,
    "slight":1,
    "west":1,
    "lovely":1,
    "tank":1,
    "load":1,
    "return":1,
    "tend":1,
    "cry":1,
    "best":1,
    "ease":1,
    "attend":1,
    "injured":1,
    "elderly":1,
    "lady":1,
    "appreciate":1,
    "expect":1,
    "guys":1,
    "alive\u2026":1,
    "needs":1,
    "helpers":1,
    "huh":1,
    "rover\u2019s":1,
    "changes":1,
    "gears":1,
    "zip":1,
    "dashboard":1,
    "aeroplane":1,
    "cockpit":1,
    "helping":1,
    "negotiate":1,
    "abandoned":1,
    "progress":1,
    "horn":1,
    "frustration":1,
    "sunset":1,
    "further":1,
    "quicker":1,
    "thoughtful":1,
    "backpack":1,
    "cross":1,
    "roads":1,
    "footpaths":1,
    "stopping":1,
    "meters":1,
    "stacked":1,
    "dock\u2026":1,
    "least":1,
    "reverses":1,
    "flutters":1,
    "expose":1,
    "points":1,
    "size":1,
    "football":1,
    "field":1,
    "whips":1,
    "sliding":1,
    "forklift":1,
    "absolutely":1,
    "thousands":1,
    "spotted":1,
    "crossed":1,
    "whisper":1,
    "soft":1,
    "lean":1,
    "faded":1,
    "pasty":1,
    "gray":1,
    "either":1,
    "flips":1,
    "violently":1,
    "twisted":1,
    "shoves":1,
    "hurtles":1,
    "struggle":1,
    "shudders":1,
    "hammers":1,
    "animal":1,
    "wider":1,
    "noises":1,
    "bloated":1,
    "snaps":1,
    "fluids":1,
    "bubble":1,
    "explode":1,
    "shrivels":1,
    "frail":1,
    "vomits":1,
    "tailgate":1,
    "fuel":1,
    "jammed":1,
    "belt":1,
    "blasts":1,
    "pants":1,
    "handy":1,
    "catch":1,
    "brisk":1,
    "also":1,
    "gear":1,
    "hike":1,
    "smaller":1,
    "sudden":1,
    "reddish":1,
    "split":1,
    "collie":1,
    "theyll":1,
    "straightens":1,
    "forbidding":1,
    "biggest":1,
    "surrounds":1,
    "obstacle":1,
    "tangle":1,
    "barbed":1,
    "wire":1,
    "climbs":1,
    "boosts":1,
    "eyelid":1,
    "camera":1,
    "reveal":1,
    "realizes":1,
    "echoes":1,
    "chatter":1,
    "silences":1,
    "hurried":1,
    "thunder":1,
    "starting":1,
    "disquieted":1,
    "narrow":1,
    "stairway":1,
    "curves":1,
    "bolted":1,
    "bank":1,
    "glowing":1,
    "security":1,
    "cameras":1,
    "covering":1,
    "journey":1,
    "normal":1,
    "slink":1,
    "grounds":1,
    "touched":1,
    "scurries":1,
    "monitor":1,
    "intruders":1,
    "inward":1,
    "collect":1,
    "fright":1,
    "meanspirited":1,
    "items":1,
    "equipment":1,
    "vehicles":1,
    "roller":1,
    "thick":1,
    "stench":1,
    "vomit":1,
    "gag":1,
    "smell":1,
    "passage":1,
    "arch":1,
    "emerge":1,
    "rubbish":1,
    "gutted":1,
    "leading":1,
    "freezes":1,
    "hundreds":1,
    "stir":1,
    "filter":1,
    "cries":1,
    "creaks":1,
    "we\u2019re":1,
    "continue":1,
    "washing":1,
    "told":1,
    "funny":1,
    "wildly":1,
    "prayed":1,
    "brassknuckle":1,
    "clad":1,
    "expression":1,
    "mighty":1,
    "punch":1,
    "factorys":1,
    "expected":1,
    "gloom":1,
    "awe":1,
    "whistle":1,
    "feeding":1,
    "whine":1,
    "bark":1,
    "herself":1,
    "vans":1,
    "bull":1,
    "dozer":1,
    "throw":1,
    "snarl":1,
    "whacks":1,
    "curls":1,
    "scrapes":1,
    "dirt":1,
    "quite":1,
    "easily":1,
    "bless":1,
    "gap":1,
    "hanging":1,
    "iron":1,
    "pulleys":1,
    "louder":1,
    "blow":1,
    "yelps":1,
    "food":1,
    "reach":1,
    "headlong":1,
    "clips":1,
    "vice":1,
    "cuffs":1,
    "sleeves":1,
    "madly":1,
    "pins":1,
    "knee":1,
    "nip":1,
    "pitches":1,
    "stone":1,
    "thud":1,
    "gasps":1,
    "chew":1,
    "ears":1,
    "yelp":1,
    "fever":1,
    "pitch":1,
    "material":1,
    "tearing":1,
    "wet":1,
    "splatters":1,
    "clever":1,
    "crouch":1,
    "admires":1,
    "alexander":1,
    "possessed":1,
    "entire":1,
    "fell":1,
    "crossing":1,
    "lacked":1,
    "modern":1,
    "made":1,
    "witness":1,
    "marmerchants":1,
    "retched":1,
    "grimy":1,
    "join":1,
    "promise":1,
    "nor":1,
    "risked":1,
    "fascinating":1,
    "referring":1,
    "shown":1,
    "courage":1,
    "worthy":1,
    "additions":1,
    "preacher":1,
    "locking":1,
    "planning":1,
    "unafraid":1,
    "arrogant":1,
    "fool":1,
    "sweeping":1,
    "motion":1,
    "nails":1,
    "break":1,
    "twist":1,
    "indeed":1,
    "staring":1,
    "loosens":1,
    "bursts":1,
    "pushed":1,
    "following":1,
    "stagger":1,
    "used":1,
    "centre":1,
    "carrying":1,
    "pack":1,
    "kit":1,
    "intensely":1,
    "frightened":1,
    "lover":1,
    "veins":1,
    "interest":1,
    "assuming":1,
    "death":1,
    "lucky":1,
    "mistake":1,
    "random":1,
    "event":1,
    "conversation":1,
    "excites":1,
    "control":1,
    "sydney":1,
    "melbourne":1,
    "perth":1,
    "falling":1,
    "rule":1,
    "natural":1,
    "order":1,
    "restored":1,
    "survive":1,
    "knocking":1,
    "bones":1,
    "crashes":1,
    "chairs":1,
    "widely":1,
    "sweeps":1,
    "yanks":1,
    "enjoy":1,
    "turning":1,
    "blonde":1,
    "damage":1,
    "excellent":1,
    "hesitates":1,
    "talking":1,
    "infiltrated":1,
    "possession":1,
    "victims":1,
    "filth":1,
    "follows":1,
    "sings":1,
    "baby":1,
    "puddle":1,
    "seeps":1,
    "stumbles":1,
    "twofoot":1,
    "club":1,
    "deadlylooking":1,
    "splintered":1,
    "exposed":1,
    "fingernails":1,
    "dig":1,
    "sockets":1,
    "balls":1,
    "liquid":1,
    "cheeks":1,
    "twists":1,
    "thrash":1,
    "maniacally":1,
    "raging":1,
    "flames":1,
    "engulf":1,
    "combust":1,
    "ash":1,
    "marches":1,
    "hides":1,
    "holes":1,
    "humanity\u2019s":1,
    "ramblings":1,
    "madman":1,
    "leader":1,
    "enjoys":1,
    "gasping":1,
    "ice":1,
    "nay":1,
    "creatures":1,
    "brassknuckles":1,
    "respect":1,
    "hit":1,
    "failing":1,
    "comprehend":1,
    "basic":1,
    "facts":1,
    "reaction":1,
    "ragged":1,
    "splinters":1,
    "screaming":1,
    "bared":1,
    "hooks":1,
    "delivers":1,
    "blows":1,
    "couldn\u2019t":1,
    "agree":1,
    "depends":1,
    "towards":1,
    "bump":1,
    "panicked":1,
    "frenzy":1,
    "sniff":1,
    "washes":1,
    "flee":1,
    "slayer":1,
    "bay":1,
    "retrace":1,
    "outstretched":1,
    "closely":1,
    "mayhem":1,
    "ties":1,
    "sprint":1,
    "key":1,
    "ignition":1,
    "tear":1,
    "apart":1,
    "odd":1,
    "wail":1,
    "subdued":1,
    "hasnt":1,
    "days":1,
    "rout":1,
    "organized":1,
    "thoughts":1,
    "supplies":1,
    "surrounding":1,
    "await":1,
    "opportunity":1,
    "headless":1,
    "chickens":1,
    "receptionist":1,
    "seductively":1,
    "waist":1,
    "tad":1,
    "exposes":1,
    "increases":1,
    "volume":1,
    "eachother":1,
    "commanded":1,
    "bike":1,
    "fires":1,
    "1":1,
    "montage":1,
    "mass":1,
    "pour":1,
    "forming":1,
    "removal":2,
    "parked":2,
    "beside":2,
    "lock":2,
    "bars":2,
    "glares":2,
    "meet":2,
    "rear":2,
    "lone":2,
    "considered":2,
    "monday":2,
    "feeling":2,
    "punches":2,
    "clawing":2,
    "somewhere":2,
    "near":2,
    "swats":2,
    "continues":2,
    "growls":2,
    "claws":2,
    "unbolts":2,
    "done":2,
    "hot":2,
    "change":2,
    "wear":2,
    "year":2,
    "wonder":2,
    "waiting":2,
    "trees":2,
    "green":2,
    "grass":2,
    "breaks":2,
    "halt":2,
    "shattered":2,
    "headstones":2,
    "turned":2,
    "graves":2,
    "dug":2,
    "earth":2,
    "slows":2,
    "aside":2,
    "cardboard":2,
    "corpse":2,
    "rotting":2,
    "itself":2,
    "weak":2,
    "roll":2,
    "shock":2,
    "shirt":2,
    "getting":2,
    "distant":2,
    "picture":2,
    "beautiful":2,
    "frantic":2,
    "desk":2,
    "partner":2,
    "phone":2,
    "idea":2,
    "reporter":2,
    "passing":2,
    "cruiser":2,
    "apparently":2,
    "actually":2,
    "that\u2019s":2,
    "spits":2,
    "hang":2,
    "courier":2,
    "four":2,
    "rush":2,
    "main":2,
    "straight":2,
    "office":2,
    "steel":2,
    "goatee":2,
    "ponytail":2,
    "situation":2,
    "intercom":2,
    "answers":2,
    "lays":2,
    "pops":2,
    "pills":2,
    "page":2,
    "lives":2,
    "dutton":2,
    "park":2,
    "bald":2,
    "christ":2,
    "gotten":2,
    "rip":2,
    "strong":2,
    "knows":2,
    "anyway":2,
    "papers":2,
    "fucking":2,
    "whatever":2,
    "locked":2,
    "gates":2,
    "checks":2,
    "scrap":2,
    "books":2,
    "newspaper":2,
    "years":2,
    "ago":2,
    "erik\u2019s":2,
    "shows":2,
    "badge":2,
    "earlier":2,
    "greg":2,
    "safety":2,
    "listen":2,
    "remember":2,
    "speaks":2,
    "signals":2,
    "excitedly":2,
    "box":2,
    "dad":2,
    "playing":2,
    "while":2,
    "today":2,
    "fall":2,
    "better":2,
    "pop":2,
    "later":2,
    "leaf":2,
    "warn":2,
    "living":2,
    "colour":2,
    "opening":2,
    "emits":2,
    "glass":2,
    "harvey":2,
    "youve":2,
    "forgotten":2,
    "looked":2,
    "listening":2,
    "went":2,
    "cops":2,
    "afraid":2,
    "completely":2,
    "bloody":2,
    "murder":2,
    "halfway":2,
    "teeth":2,
    "shrugs":2,
    "leap":2,
    "he\u2019s":2,
    "quiet":2,
    "thinking":2,
    "fourth":2,
    "barely":2,
    "level":2,
    "big":2,
    "between":2,
    "hall":2,
    "written":2,
    "stuck":2,
    "tightly":2,
    "does":2,
    "son":2,
    "closet":2,
    "bottom":2,
    "pile":2,
    "moments":2,
    "uneasily":2,
    "sun":2,
    "hideously":2,
    "loaded":2,
    "entrance":2,
    "wheres":2,
    "third":2,
    "bullet":2,
    "motions":2,
    "pulled":2,
    "nine":2,
    "rigor":2,
    "mortis":2,
    "briefly":2,
    "checked":2,
    "nearest":2,
    "leaves":2,
    "surveys":2,
    "lived":2,
    "saying":2,
    "heavily":2,
    "dr":2,
    "laddy":2,
    "sense":2,
    "late":2,
    "doorway":2,
    "lose":2,
    "notices":2,
    "thirsty":2,
    "spins":2,
    "heaven":2,
    "unsure":2,
    "chart":2,
    "can\u2019t":2,
    "muffled":2,
    "ankle":2,
    "staggers":2,
    "flick":2,
    "amongst":2,
    "grin":2,
    "launches":2,
    "forces":2,
    "hauls":2,
    "animals":2,
    "picking":2,
    "shaking":2,
    "puts":2,
    "book":2,
    "piercing":2,
    "serious":2,
    "happening":2,
    "shagging":2,
    "tracks":2,
    "yard":2,
    "features":2,
    "flies":2,
    "bangs":2,
    "attention":2,
    "brings":2,
    "bolt":2,
    "seconds":2,
    "swing":2,
    "connects":2,
    "shot":2,
    "helps":2,
    "scramble":2,
    "creeps":2,
    "scared":2,
    "hood":2,
    "glow":2,
    "grow":2,
    "history":2,
    "rapidly":2,
    "show":2,
    "true":2,
    "dominant":2,
    "species":2,
    "south":2,
    "tosses":2,
    "single":2,
    "thoroughly":2,
    "shaken":2,
    "jakes":2,
    "harder":2,
    "lifts":2,
    "forever":2,
    "wrist":2,
    "wraps":2,
    "piles":2,
    "fireplace":2,
    "grows":2,
    "planet":2,
    "shuts":2,
    "blankets":2,
    "shouts":2,
    "speak":2,
    "locks":2,
    "seat":2,
    "clearly":2,
    "nailed":2,
    "knock":2,
    "i\u2019ve":2,
    "exist":2,
    "havent":2,
    "careful":2,
    "real":2,
    "seem":2,
    "you\u2019ve":2,
    "trapped":2,
    "remains":2,
    "hope":2,
    "caves":2,
    "factories":2,
    "removes":2,
    "directly":2,
    "opposite":2,
    "nervously":2,
    "paces":2,
    "bags":2,
    "plane":2,
    "fast":2,
    "carry":2,
    "slips":2,
    "yours":2,
    "daniel":2,
    "traffic":2,
    "beach":2,
    "week":2,
    "happen":2,
    "parking":2,
    "lot":2,
    "since":2,
    "dusk":2,
    "blocks":2,
    "hello":2,
    "huddle":2,
    "worried":2,
    "exactly":2,
    "climb":2,
    "rope":2,
    "important":2,
    "anywhere":2,
    "die":2,
    "fewer":2,
    "running":2,
    "jog":2,
    "ramp":2,
    "escape":2,
    "biker":2,
    "fighting":2,
    "hog":2,
    "holy":2,
    "forget":2,
    "keeping":2,
    "headlights":2,
    "follow":2,
    "grab":2,
    "person":2,
    "among":2,
    "ushers":2,
    "bends":2,
    "places":2,
    "realize":2,
    "dazed":2,
    "don\u2019t":2,
    "survivors":2,
    "riders":2,
    "tomorrow":2,
    "sunrise":2,
    "rolland\u2019s":2,
    "dawn":2,
    "mean":2,
    "state":2,
    "plus":2,
    "wardrobe":2,
    "haired":2,
    "balance":2,
    "crawls":2,
    "fault":2,
    "excuse":2,
    "nod":2,
    "collar":2,
    "save":2,
    "hug":2,
    "mine":2,
    "ahead":2,
    "slow":2,
    "clear":2,
    "screeches":2,
    "ditched":2,
    "upon":2,
    "tarpaulin":2,
    "caskets":2,
    "warehouses":2,
    "coffin":2,
    "sick":2,
    "drag":2,
    "end":2,
    "gaze":2,
    "angle":2,
    "metal":2,
    "streams":2,
    "leaks":2,
    "knew":2,
    "knees":2,
    "wrenches":2,
    "leg":2,
    "ribs":2,
    "shoots":2,
    "letting":2,
    "howl":2,
    "howls":2,
    "throughout":2,
    "cave":2,
    "monitors":2,
    "watching":2,
    "wood":2,
    "strains":2,
    "strides":2,
    "sort":2,
    "pair":2,
    "howling":2,
    "bastards":2,
    "squeezes":2,
    "market":2,
    "tightens":2,
    "square":2,
    "tighten":2,
    "toys":2,
    "unstoppable":2,
    "existed":2,
    "hide":2,
    "three":2,
    "private":2,
    "thrust":2,
    "plunges":2,
    "burst":2,
    "ride":2,
    "walters":2,
    "flashlight":3,
    "shack":3,
    "ben":3,
    "unlocks":3,
    "figures":3,
    "figure":3,
    "softly":3,
    "frantically":3,
    "five":3,
    "dressed":3,
    "mind":3,
    "dress":3,
    "broken":3,
    "sides":3,
    "backwards":3,
    "brief":3,
    "mongrel":3,
    "station":3,
    "spread":3,
    "several":3,
    "blue":3,
    "pretty":3,
    "fucked":3,
    "fresh":3,
    "pushes":3,
    "word":3,
    "piece":3,
    "themselves":3,
    "clippings":3,
    "child":3,
    "family":3,
    "trick":3,
    "torch":3,
    "disappears":3,
    "pregnant":3,
    "nearby":3,
    "alley":3,
    "dealing":3,
    "nose":3,
    "protect":3,
    "give":3,
    "chance":3,
    "such":3,
    "cutters":3,
    "forehead":3,
    "pizza":3,
    "care":3,
    "drags":3,
    "reason":3,
    "alive":3,
    "quarters":3,
    "bit":3,
    "share":3,
    "elliot":3,
    "being":3,
    "wouldnt":3,
    "finds":3,
    "mrs":3,
    "thin":3,
    "brown":3,
    "sleeps":3,
    "raises":3,
    "low":3,
    "growl":3,
    "quietly":3,
    "opened":3,
    "scratches":3,
    "graffiti":3,
    "landing":3,
    "above":3,
    "newspapers":3,
    "pale":3,
    "rips":3,
    "cloth":3,
    "rubs":3,
    "bare":3,
    "once":3,
    "cocoon":3,
    "call":3,
    "arent":3,
    "times":3,
    "shifts":3,
    "waits":3,
    "stretcher":3,
    "skin":3,
    "agony":3,
    "flashes":3,
    "weve":3,
    "thirty":3,
    "problem":3,
    "moving":3,
    "type":3,
    "yourself":3,
    "upstairs":3,
    "fifty":3,
    "approach":3,
    "north":3,
    "corridor":3,
    "less":3,
    "because":3,
    "hospital":3,
    "jerks":3,
    "background":3,
    "covered":3,
    "yearwood":3,
    "else":3,
    "shape":3,
    "courtyard":3,
    "shadows":3,
    "lit":3,
    "bushes":3,
    "oliver":3,
    "short":3,
    "crack":3,
    "chest":3,
    "beneath":3,
    "smile":3,
    "news":3,
    "power":3,
    "double":3,
    "sleeping":3,
    "spots":3,
    "crucifix":3,
    "tight":3,
    "yellow":3,
    "slide":3,
    "sinks":3,
    "finished":3,
    "love":3,
    "solid":3,
    "empty":3,
    "stuff":3,
    "nice":3,
    "stakes":3,
    "map":3,
    "heads":3,
    "pocket":3,
    "jacket":3,
    "direction":3,
    "fine":3,
    "highway":3,
    "peers":3,
    "lights":3,
    "returns":3,
    "tower":3,
    "ringing":3,
    "lands":3,
    "saddle":3,
    "human":3,
    "picks":3,
    "lunges":3,
    "heavy":3,
    "feed":3,
    "finish":3,
    "imagine":3,
    "stake":3,
    "struggles":3,
    "am":3,
    "anger":3,
    "row":3,
    "voice":3,
    "loading":3,
    "fallen":3,
    "45":3,
    "fence":3,
    "wants":3,
    "begin":3,
    "pockets":3,
    "hagens":3,
    "massive":3,
    "nowhere":3,
    "guard":4,
    "men":4,
    "closed":4,
    "six":4,
    "fingers":4,
    "himself":4,
    "kind":4,
    "mother":4,
    "never":4,
    "wont":4,
    "morning":4,
    "drives":4,
    "probably":4,
    "mum":4,
    "turn":4,
    "lies":4,
    "skull":4,
    "eye":4,
    "silent":4,
    "lost":4,
    "thought":4,
    "along":4,
    "finger":4,
    "touches":4,
    "second":4,
    "doors":4,
    "everything":4,
    "sally":4,
    "bring":4,
    "free":4,
    "snatcher":4,
    "guy":4,
    "total":4,
    "insert":4,
    "town":4,
    "called":4,
    "bet":4,
    "sir":4,
    "said":4,
    "smiles":4,
    "new":4,
    "boy":4,
    "cold":4,
    "understand":4,
    "water":4,
    "moment":4,
    "instantly":4,
    "leads":4,
    "basement":4,
    "kicks":4,
    "gives":4,
    "stare":4,
    "wind":4,
    "fifth":4,
    "rises":4,
    "might":4,
    "sheet":4,
    "watches":4,
    "lay":4,
    "which":4,
    "writhes":4,
    "saw":4,
    "taken":4,
    "shall":4,
    "looking":4,
    "say":4,
    "without":4,
    "than":4,
    "wake":4,
    "marks":4,
    "tears":4,
    "makes":4,
    "faces":4,
    "fight":4,
    "snap":4,
    "each":4,
    "cut":4,
    "shapes":4,
    "girl":4,
    "bat":4,
    "race":4,
    "fades":4,
    "warm":4,
    "fire":4,
    "hundred":4,
    "chair":4,
    "damn":4,
    "alone":4,
    "put":4,
    "filled":4,
    "wooden":4,
    "cars":4,
    "took":4,
    "casket":4,
    "strikes":4,
    "council":4,
    "chamber":4,
    "laughs":4,
    "great":4,
    "stitchs":4,
    "yeah":5,
    "closer":5,
    "forward":5,
    "push":5,
    "within":5,
    "stops":5,
    "stand":5,
    "totally":5,
    "pull":5,
    "watch":5,
    "bright":5,
    "check":5,
    "hair":5,
    "everywhere":5,
    "jesus":5,
    "wait":5,
    "jamis":5,
    "flesh":5,
    "brookman":5,
    "stopped":5,
    "breath":5,
    "paper":5,
    "hey":5,
    "evil":5,
    "area":5,
    "anyone":5,
    "own":5,
    "should":5,
    "slightly":5,
    "female":5,
    "enter":5,
    "set":5,
    "coming":5,
    "white":5,
    "sit":5,
    "kelly":5,
    "gone":5,
    "windows":5,
    "tenement":5,
    "exit":5,
    "onto":5,
    "air":5,
    "theyre":5,
    "falls":5,
    "grey":5,
    "foot":5,
    "corner":5,
    "catches":5,
    "walks":5,
    "theres":5,
    "leave":5,
    "streets":5,
    "feel":5,
    "until":5,
    "rolls":5,
    "miss":5,
    "hard":5,
    "neck":5,
    "soon":5,
    "humans":5,
    "rollands":5,
    "hear":5,
    "abels":5,
    "knocks":5,
    "movement":5,
    "trying":5,
    "army":5,
    "killed":5,
    "intext":5,
    "distance":5,
    "youll":5,
    "bikers":5,
    "chain":5,
    "those":5,
    "group":5,
    "bikes":5,
    "staff":5,
    "grip":5,
    "hammer":5,
    "truck":6,
    "reaches":6,
    "grins":6,
    "much":6,
    "backs":6,
    "half":6,
    "could":6,
    "it\u2019s":6,
    "already":6,
    "anything":6,
    "shes":6,
    "next":6,
    "van":6,
    "slams":6,
    "police":6,
    "officer":6,
    "oh":6,
    "street":6,
    "comes":6,
    "enters":6,
    "heard":6,
    "hits":6,
    "bad":6,
    "same":6,
    "fuck":6,
    "full":6,
    "scans":6,
    "doesnt":6,
    "starts":6,
    "shakes":6,
    "wrong":6,
    "others":6,
    "left":6,
    "taking":6,
    "almost":6,
    "came":6,
    "longer":6,
    "together":6,
    "noise":6,
    "wrapped":6,
    "found":6,
    "loud":6,
    "brisbane":6,
    "id":6,
    "leans":6,
    "grips":6,
    "shoulder":6,
    "things":6,
    "throat":6,
    "rushes":6,
    "drops":6,
    "fear":6,
    "mr":6,
    "always":6,
    "country":6,
    "stay":6,
    "may":6,
    "swings":6,
    "trucks":6,
    "dock":6,
    "lid":6,
    "thats":7,
    "someone":7,
    "darkness":7,
    "life":7,
    "deep":7,
    "sounds":7,
    "calvin":7,
    "appears":7,
    "must":7,
    "hurry":7,
    "drive":7,
    "huge":7,
    "pass":7,
    "hold":7,
    "ill":7,
    "coffee":7,
    "reece":7,
    "coffins":7,
    "hears":7,
    "seen":7,
    "work":7,
    "thing":7,
    "missing":7,
    "world":7,
    "try":7,
    "light":7,
    "sheets":7,
    "teal":7,
    "sure":7,
    "start":7,
    "thank":7,
    "whole":7,
    "leaps":7,
    "suddenly":7,
    "black":7,
    "slides":7,
    "priest":7,
    "enough":7,
    "factory":7,
    "young":8,
    "name":8,
    "arm":8,
    "shut":8,
    "against":8,
    "screams":8,
    "sorry":8,
    "hallway":8,
    "yet":8,
    "road":8,
    "legs":8,
    "jumps":8,
    "after":8,
    "walk":8,
    "bedroom":8,
    "sunlight":8,
    "ready":8,
    "seems":8,
    "rest":8,
    "place":8,
    "red":8,
    "happened":8,
    "tell":8,
    "isnt":8,
    "crazy":8,
    "tonight":8,
    "ever":8,
    "stonestreet":8,
    "didnt":8,
    "top":8,
    "burn":8,
    "far":8,
    "quick":8,
    "every":8,
    "throws":8,
    "gun":8,
    "everyone":8,
    "bell":8,
    "rover":8,
    "warehouse":8,
    "cemetery":9,
    "step":9,
    "hes":9,
    "really":9,
    "shit":9,
    "arms":9,
    "old":9,
    "mouth":9,
    "home":9,
    "couple":9,
    "leon":9,
    "june":9,
    "goes":9,
    "only":9,
    "even":9,
    "sound":9,
    "under":9,
    "scream":9,
    "closes":9,
    "nothing":9,
    "past":9,
    "hands":9,
    "table":9,
    "fangs":9,
    "eriks":9,
    "steve":10,
    "pulls":10,
    "good":10,
    "dark":10,
    "little":10,
    "runs":10,
    "sits":10,
    "sleep":10,
    "last":10,
    "whats":10,
    "did":10,
    "stares":10,
    "captain":10,
    "our":10,
    "dans":10,
    "land":10,
    "outside":11,
    "let":11,
    "wall":11,
    "keep":11,
    "sees":11,
    "ground":11,
    "walter":11,
    "nods":11,
    "side":11,
    "any":11,
    "megan":11,
    "lair":11,
    "would":12,
    "close":12,
    "stop":12,
    "behind":12,
    "need":12,
    "wife":12,
    "kill":12,
    "youre":12,
    "well":12,
    "dog":12,
    "move":12,
    "first":12,
    "vampires":12,
    "large":13,
    "gate":13,
    "takes":13,
    "way":13,
    "maybe":13,
    "across":13,
    "many":13,
    "run":13,
    "house":13,
    "bodies":13,
    "got":13,
    "cutter":13,
    "had":13,
    "blood":13,
    "church":13,
    "too":13,
    "time":14,
    "us":14,
    "small":14,
    "tries":14,
    "was":14,
    "long":14,
    "woman":14,
    "stands":14,
    "ive":14,
    "find":14,
    "or":14,
    "help":14,
    "why":14,
    "these":14,
    "gets":14,
    "another":14,
    "stairs":14,
    "two":15,
    "okay":15,
    "dead":15,
    "lets":15,
    "both":15,
    "when":15,
    "opens":16,
    "very":16,
    "yes":16,
    "window":16,
    "their":16,
    "please":16,
    "cant":16,
    "so":16,
    "god":16,
    "building":16,
    "make":16,
    "bed":16,
    "steps":17,
    "moves":17,
    "before":17,
    "want":17,
    "been":17,
    "city":17,
    "more":17,
    "take":17,
    "feet":17,
    "vampire":17,
    "master":17,
    "other":18,
    "quickly":18,
    "about":18,
    "body":18,
    "apartment":18,
    "grabs":19,
    "ext":19,
    "slowly":19,
    "inside":19,
    "still":19,
    "who":19,
    "people":19,
    "car":20,
    "few":20,
    "mark":21,
    "right":21,
    "im":22,
    "look":23,
    "room":23,
    "were":23,
    "face":24,
    "think":24,
    "toward":24,
    "jake":24,
    "man":25,
    "again":25,
    "turns":25,
    "an":25,
    "hand":25,
    "father":25,
    "something":25,
    "if":26,
    "eyes":26,
    "some":26,
    "stitch":26,
    "open":27,
    "away":27,
    "dogs":27,
    "hagen":27,
    "front":28,
    "through":28,
    "has":28,
    "come":29,
    "day":30,
    "see":30,
    "head":30,
    "going":31,
    "here":31,
    "then":31,
    "floor":31,
    "kyeema":31,
    "will":32,
    "go":33,
    "just":33,
    "rolland":33,
    "how":34,
    "my":34,
    "now":34,
    "over":35,
    "int":35,
    "one":35,
    "not":35,
    "where":35,
    "can":36,
    "there":36,
    "by":37,
    "that":37,
    "dont":38,
    "its":38,
    "around":39,
    "know":41,
    "like":41,
    "looks":41,
    "off":42,
    "no":43,
    "me":43,
    "your":43,
    "down":44,
    "all":44,
    "night":45,
    "get":48,
    "have":53,
    "into":53,
    "be":55,
    "but":57,
    "do":58,
    "from":58,
    "jami":58,
    "what":58,
    "them":61,
    "this":62,
    "him":64,
    "for":64,
    "are":66,
    "erik":71,
    "door":73,
    "up":73,
    "we":74,
    "back":74,
    "she":75,
    "with":79,
    "out":84,
    "at":85,
    "dan":87,
    "abel":95,
    "her":97,
    "":98,
    "as":106,
    "it":108,
    "is":109,
    "they":109,
    "on":118,
    "i":125,
    "he":127,
    "his":171,
    "in":182,
    "you":204,
    "of":215,
    "a":329,
    "to":329,
    "and":392,
    "the":781
}