{
    "dilella":1,
    "ny1\u2019s":1,
    "\u201celeanor":1,
    "musical\u201d":1,
    "starring":1,
    "incomparable":1,
    "interview":1,
    "glamorous":1,
    "legend":1,
    "powerful":1,
    "charismatic":1,
    "homely":1,
    "nods":1,
    "hack":1,
    "stepped":1,
    "fdr\u2019s":1,
    "wheelchair":1,
    "epiphany":1,
    "president":1,
    "united":1,
    "weighty":1,
    "responsibility":1,
    "process":1,
    "stagger":1,
    "stammer":1,
    "sob":1,
    "audiences":1,
    "depressed":1,
    "job\u201d":1,
    "passes":1,
    "\u201ceach":1,
    "artist":1,
    "wig":1,
    "prosthetic":1,
    "rapt":1,
    "overacts":1,
    "\u201cby":1,
    "tuberculosis":1,
    "coughs":1,
    "wheels":1,
    "exuberance":1,
    "\u201ceven":1,
    "shout":1,
    "\u2018bravo\u201d":1,
    "cue\u201d":1,
    "\u201cbravo\u201d":1,
    "jersey":1,
    "ledger":1,
    "rave":1,
    "mixedpositive":1,
    "cross":1,
    "vamps":1,
    "sardis":1,
    "adoring":1,
    "\u201calso":1,
    "de":1,
    "force":1,
    "tour\u201d":1,
    "\u201celeanor\u201d":1,
    "blinking":1,
    "framed":1,
    "waiters":1,
    "plucked":1,
    "\u201chello":1,
    "dolly\u201d":1,
    "lifting":1,
    "\u201ccheers":1,
    "inspiring":1,
    "predict":1,
    "notice":1,
    "\u201cthat\u2019s":1,
    "strives":1,
    "nightly":1,
    "associated":1,
    "shitty":1,
    "sales":1,
    "hip":1,
    "hop":1,
    "god\u2019s":1,
    "highlights":1,
    "\u201cbarry":1,
    "glickman\u2019s":1,
    "insultingly":1,
    "offensive":1,
    "laughable":1,
    "reviewer":1,
    "squirming":1,
    "misfortune":1,
    "endure\u201d":1,
    "\u201cwatching":1,
    "allen\u2019s":1,
    "croaking":1,
    "heavyhanded":1,
    "activism":1,
    "shove":1,
    "syrupsoaked":1,
    "flag":1,
    "throat\u201d":1,
    "criticism":1,
    "attack":1,
    "considering":1,
    "ticket":1,
    "heavy":1,
    "rope":1,
    "yourself\u201d":1,
    "likable":1,
    "narrative":1,
    "nonstop":1,
    "condolences":1,
    "gigs":1,
    "adrift":1,
    "passions":1,
    "fueled":1,
    "gentle":1,
    "sculpt":1,
    "soul":1,
    "fishing":1,
    "earring":1,
    "chocolate":1,
    "soliloquize":1,
    "prick":1,
    "bleed":1,
    "hamlet":1,
    "beloved":1,
    "90s":1,
    "sitcom":1,
    "meaning":1,
    "existence":1,
    "leggy":1,
    "chorine":1,
    "welcome":1,
    "unemployed":1,
    "ginger":1,
    "\u201cgilligan\u2019s":1,
    "island\u201d":1,
    "alive":1,
    "gathering":1,
    "gymnasium":1,
    "bangs":1,
    "announcing":1,
    "motion":1,
    "passed":1,
    "steadicam":1,
    "reporters":1,
    "accepted":1,
    "set":1,
    "concerning":1,
    "nonrevealing":1,
    "men":1,
    "suits":1,
    "tuxes":1,
    "chooses":1,
    "sex":1,
    "ban":1,
    "advised":1,
    "repercussions":1,
    "prevented":1,
    "attending":1,
    "rack":1,
    "focus":1,
    "causing":1,
    "leaning":1,
    "wall":1,
    "sympathetic":1,
    "foursome":1,
    "several":1,
    "martini":1,
    "downed":1,
    "rose":1,
    "ruminate":1,
    "boat":1,
    "\u201cmisery":1,
    "acquaints":1,
    "bedfellows\u201d":1,
    "tempest\u201d":1,
    "refuse":1,
    "celebrities":1,
    "castrated":1,
    "\u201caging":1,
    "narcissists\u201d":1,
    "decent":1,
    "activists":1,
    "avoids":1,
    "celebre":1,
    "causes":1,
    "umpoverty":1,
    "hunger":1,
    "abolished":1,
    "exercise":1,
    "assume":1,
    "created":1,
    "smaller":1,
    "federalist":1,
    "votes":1,
    "received":1,
    "bored":1,
    "daunting":1,
    "injustice":1,
    "trending":1,
    "apeshit":1,
    "addresses":1,
    "corp":1,
    "contact":1,
    "case":1,
    "betting":1,
    "bigots":1,
    "cold":1,
    "pisses":1,
    "modern":1,
    "break":1,
    "loose":1,
    "ears":1,
    "urgency":1,
    "raise":1,
    "whatever\u2019s":1,
    "checks":1,
    "boxes":1,
    "bonus":1,
    "relate":1,
    "carry":1,
    "tag":1,
    "milf":1,
    "age":1,
    "crime":1,
    "\u201cat":1,
    "time\u201d":1,
    "legendary":1,
    "\u201cfirst":1,
    "distressed\u201d":1,
    "distraught\u201d":1,
    "necks":1,
    "dentistry":1,
    "world\u201d":1,
    "stephen":1,
    "\u201cgodspell\u201d":1,
    "\u201cles":1,
    "miz\u201d":1,
    "phd":1,
    "psych":1,
    "kowtow":1,
    "biz\u201d":1,
    "pc":1,
    "\u201closers":1,
    "inbred":1,
    "wives":1,
    "\u201conce":1,
    "dyke":1,
    "threat":1,
    "road":1,
    "intelligent":1,
    "lingers":1,
    "bear":1,
    "laws":1,
    "violating":1,
    "privacy":1,
    "threatening":1,
    "\u201cthank":1,
    "emma\u201d":1,
    "cancelling":1,
    "lay":1,
    "grade":1,
    "unlike":1,
    "social":1,
    "speedos":1,
    "accost":1,
    "pool":1,
    "shivering":1,
    "wrapping":1,
    "towel":1,
    "lesbo":1,
    "dude":1,
    "swim":1,
    "cap":1,
    "\u201cnote":1,
    "greyhound":1,
    "full\u201d":1,
    "atom":1,
    "whod":1,
    "beach":1,
    "golden":1,
    "sand":1,
    "xanax":1,
    "bullying":1,
    "throws":1,
    "surprise":1,
    "\u201ctry":1,
    "journaling":1,
    "blog":1,
    "monologue":1,
    "seethe":1,
    "suspected":1,
    "rosa":1,
    "parks":1,
    "chattanooga":1,
    "deals":1,
    "sec":1,
    "relax":1,
    "wistfully":1,
    "oxygen":1,
    "injust":1,
    "nod":1,
    "jerks":1,
    "namaste":1,
    "rented":1,
    "loud":1,
    "unpleasant":1,
    "lap":1,
    "busy":1,
    "awkwardly":1,
    "harmonized":1,
    "version":1,
    "shifting":1,
    "uncomfortably":1,
    "block":1,
    "teamsters":1,
    "cavalry":1,
    "glitter":1,
    "christ\u2019s":1,
    "finished":1,
    "gratingly":1,
    "breakfast":1,
    "included":1,
    "\u201cwaffle":1,
    "shed\u201d":1,
    "mink":1,
    "blanket":1,
    "snuggles":1,
    "buses":1,
    "associations":1,
    "cheer":1,
    "tonys":1,
    "politics":1,
    "tarnished":1,
    "infamous":1,
    "tirade":1,
    "longacre":1,
    "theater":1,
    "wash":1,
    "project":1,
    "greedy":1,
    "deader":1,
    "andre":1,
    "andy":1,
    "frozen":1,
    "caught":1,
    "sells":1,
    "st":1,
    "goddamn":1,
    "tshirt":1,
    "disgusting":1,
    "puking":1,
    "rejection":1,
    "worthy":1,
    "chubby":1,
    "0":1,
    "percent":1,
    "body":1,
    "fat":1,
    "abs":1,
    "grate":1,
    "cheese":1,
    "rabbits":1,
    "bile":1,
    "retching":1,
    "business":1,
    "doubted":1,
    "teachers":1,
    "forcing":1,
    "reflects":1,
    "values":1,
    "1":1,
    "son":1,
    "upset":1,
    "organization":1,
    "purview":1,
    "council":1,
    "obviously":1,
    "celebration":1,
    "tearing":1,
    "freedom":1,
    "intervention":1,
    "unfamiliar":1,
    "stood":1,
    "mewho":1,
    "broadway\u2019s":1,
    "wigs":1,
    "etc":1,
    "liberals":1,
    "pry":1,
    "tiny":1,
    "dramatic":1,
    "entrance":1,
    "stopping":1,
    "podium":1,
    "whatwhat":1,
    "threequarters":1,
    "worker\u201d":1,
    "blind":1,
    "deaf":1,
    "\u201clisten":1,
    "bigoted":1,
    "stealing":1,
    "lgbq":1,
    "google":1,
    "letters":1,
    "\u201cemma\u201d":1,
    "\u201cfor":1,
    "plea":1,
    "heres":1,
    "dilemma":1,
    "belt":1,
    "threaten":1,
    "faze":1,
    "townfolk":1,
    "\u201cbeauty":1,
    "beast":1,
    "stranger":1,
    "slander":1,
    "equality":1,
    "countrys":1,
    "taker":1,
    "photography":1,
    "instagram":1,
    "hashtag":1,
    "yokels":1,
    "storm":1,
    "aches":1,
    "intervene":1,
    "songs":1,
    "breaks\u201d":1,
    "rich":1,
    "neednt":1,
    "backwoods":1,
    "ignoramus":1,
    "fighting":1,
    "softer":1,
    "about\u201d":1,
    "hurling":1,
    "insults":1,
    "emerges":1,
    "justuh":1,
    "gaypositive":1,
    "icons":1,
    "flesh":1,
    "jewish":1,
    "wellthis":1,
    "reinstate":1,
    "disrupted":1,
    "stabby":1,
    "surprising":1,
    "usual":1,
    "demographic":1,
    "fairytale":1,
    "won":1,
    "top":1,
    "chills":1,
    "haste":1,
    "larger":1,
    "inbreds":1,
    "tip":1,
    "disarm":1,
    "stronger":1,
    "fuels":1,
    "ego":1,
    "poster":1,
    "they\u2019ve":1,
    "wake":1,
    "gone":1,
    "mother\u2019s":1,
    "ballistic":1,
    "blaze":1,
    "trail":1,
    "symbol":1,
    "oppose":1,
    "song\u201d":1,
    "production":1,
    "streamers":1,
    "confetti":1,
    "go\u201d":1,
    "\u201call":1,
    "stares":1,
    "swaying":1,
    "anybodys":1,
    "guess\u201d":1,
    "unpretentious":1,
    "clerk":1,
    "quieter":1,
    "\u201cday":1,
    "day\u201d":1,
    "killed":1,
    "under":1,
    "dickinson":1,
    "varying":1,
    "sizes":1,
    "reflect":1,
    "hierarchy":1,
    "uhno":1,
    "suites":1,
    "surely":1,
    "foosball":1,
    "murdered":1,
    "stuffed":1,
    "orbitz":1,
    "stars":1,
    "bottle":1,
    "liquor":1,
    "reaches":1,
    "slaps":1,
    "vomited":1,
    "basement":1,
    "sewing":1,
    "giant":1,
    "centipede":1,
    "suppose":1,
    "artistry":1,
    "itself":1,
    "9":1,
    "kind\u201d":1,
    "sheldon\u2019s":1,
    "sondheimy":1,
    "misled":1,
    "representation":1,
    "clever":1,
    "rousing":1,
    "humane":1,
    "costumes":1,
    "rhymed":1,
    "\u201cbigotry\u201d":1,
    "\u201cbig":1,
    "linmanuel":1,
    "miranda":1,
    "throw":1,
    "cans":1,
    "tugs":1,
    "heartstrings":1,
    "pageantry":1,
    "except":1,
    "ye":1,
    "knees":1,
    "worth":1,
    "system":1,
    "sight":1,
    "lines":1,
    "2500":1,
    "guaranteed":1,
    "antebellum":1,
    "opera":1,
    "arena":1,
    "\u201ca":1,
    "rally\u201d":1,
    "truckosaurus":1,
    "careating":1,
    "dinosaur":1,
    "entertainment":1,
    "center":1,
    "intro":1,
    "graduate":1,
    "roars":1,
    "aughts":1,
    "arc":1,
    "\u201cgrey\u2019s":1,
    "anatomy\u201d":1,
    "dr":1,
    "julio":1,
    "rodriguez":1,
    "hispanic":1,
    "surgeon":1,
    "whose":1,
    "growing":1,
    "cocaine":1,
    "addiction":1,
    "threatens":1,
    "professional":1,
    "preparing":1,
    "occurred":1,
    "collective":1,
    "sameness":1,
    "nicer":1,
    "\u201cflowers":1,
    "rain":1,
    "mothers":1,
    "breast":1,
    "hard\u201d":1,
    "\u201chere\u2019s":1,
    "juilliar":1,
    "\u201cacorns":1,
    "sun":1,
    "mighty":1,
    "oaks":1,
    "sperm":1,
    "whales":1,
    "fresh":1,
    "sea":1,
    "theyll":1,
    "year\u201d":1,
    "flap":1,
    "soontobedead":1,
    "wings\u201d":1,
    "dicks":1,
    "bigotrys":1,
    "\u201cooh":1,
    "true\u201d":1,
    "\u201caccept":1,
    "\u201cmake":1,
    "say\u201d":1,
    "following":1,
    "verses":1,
    "goddess":1,
    "costume":1,
    "acceptance\u201d":1,
    "boo":1,
    "bottles":1,
    "debris":1,
    "tossed":1,
    "retreat":1,
    "pit":1,
    "drowning":1,
    "sorrow":1,
    "junk":1,
    "helpyourselfbar":1,
    "rip":1,
    "fail":1,
    "spinning":1,
    "\u201ccarrie\u201d":1,
    "tow":1,
    "ones":1,
    "youthanks":1,
    "attorney\u2019s":1,
    "vessel":1,
    "acted":1,
    "selflessly":1,
    "lawyer":1,
    "awww":1,
    "victory":1,
    "four":1,
    "vintage":1,
    "tops":1,
    "mmmmmmm":1,
    "kkkkkkkkk":1,
    "tammy":1,
    "wynette":1,
    "collection":1,
    "closet":1,
    "emergencies":1,
    "fashion":1,
    "dressing":1,
    "spoken":1,
    "gays\u201d":1,
    "olds\u201d":1,
    "hungry":1,
    "bar":1,
    "rough":1,
    "gathered":1,
    "werewell":1,
    "ugly":1,
    "restaurant":1,
    "plates":1,
    "cutlery":1,
    "umthere\u2019s":1,
    "commotion":1,
    "stops":1,
    "nicks":1,
    "promposal":1,
    "bouquet":1,
    "roses":1,
    "male":1,
    "films":1,
    "wanders":1,
    "\u201csince":1,
    "jv":1,
    "adored":1,
    "campus":1,
    "routine":1,
    "prayed":1,
    "idiot":1,
    "\u201cthere\u2019s":1,
    "subject":1,
    "walked":1,
    "spanish":1,
    "pounding":1,
    "nocause":1,
    "bueno\u201d":1,
    "shelby\u201d":1,
    "se\u00f1or":1,
    "promposals":1,
    "kissing":1,
    "impossible":1,
    "she\u2019ll":1,
    "\u201cnow":1,
    "track":1,
    "mess":1,
    "honest":1,
    "confess\u201d":1,
    "lonely":1,
    "wreck":1,
    "hopeless":1,
    "doublecheck\u201d":1,
    "\u201csomething":1,
    "publicly":1,
    "slyly":1,
    "yes\u201d":1,
    "puts":1,
    "bell":1,
    "rings":1,
    "pinkies":1,
    "barely":1,
    "clock":1,
    "booth":1,
    "choking":1,
    "voice":1,
    "uncanny":1,
    "internet":1,
    "type":1,
    "myers":1,
    "whoever":1,
    "clinton\u2019s":1,
    "secretary":1,
    "ignorance":1,
    "justified":1,
    "winning":1,
    "suggest":1,
    "stick":1,
    "acting":1,
    "compelling":1,
    "personality":1,
    "tells":1,
    "town\u2019s":1,
    "auto":1,
    "factory":1,
    "outsourcing":1,
    "families":1,
    "powerless":1,
    "excuses":1,
    "frustrating":1,
    "musicals":1,
    "secondary":1,
    "administration":1,
    "typed":1,
    "dating":1,
    "website":1,
    "popped":1,
    "matches":1,
    "ever\u201d":1,
    "goodlooking":1,
    "liked":1,
    "nascar":1,
    "fit":1,
    "20":1,
    "miles":1,
    "alien":1,
    "lucky":1,
    "zelienople":1,
    "pa":1,
    "dirt":1,
    "sold":1,
    "aquarium":1,
    "glittering":1,
    "magical":1,
    "icon":1,
    "invented":1,
    "deep":1,
    "host":1,
    "lasted":1,
    "heartpulverizing":1,
    "parasite":1,
    "bleeding":1,
    "dry":1,
    "moneysucking":1,
    "guts":1,
    "commendable":1,
    "relationships":1,
    "6month":1,
    "expiration":1,
    "touring":1,
    "concerts":1,
    "loser":1,
    "sides":1,
    "imagine":1,
    "sometimes":1,
    "memos":1,
    "calls":1,
    "wincing":1,
    "grammar":1,
    "written":1,
    "bathroom":1,
    "supplies":1,
    "budget":1,
    "size":1,
    "wading":1,
    "tape":1,
    "escape\u201d":1,
    "theatre\u2019s":1,
    "distractionis":1,
    "distraction":1,
    "momentary":1,
    "escape":1,
    "helps":1,
    "marveling":1,
    "excitement":1,
    "reveals":1,
    "soulcrushing":1,
    "jobs":1,
    "emasculating":1,
    "pay\u201d":1,
    "hopes":1,
    "whisk":1,
    "someplace":1,
    "worlds":1,
    "create":1,
    "sad\u201d":1,
    "rises":1,
    "revealing":1,
    "ovation":1,
    "glisten":1,
    "applebee\u2019s":1,
    "standard":1,
    "logic":1,
    "unison":1,
    "extremes\u201d":1,
    "guarantee":1,
    "typical":1,
    "midwestern":1,
    "finds":1,
    "department":1,
    "chain":1,
    "tray":1,
    "backdrop":1,
    "clouds":1,
    "flying":1,
    "proof":1,
    "sears":1,
    "portrait":1,
    "sour":1,
    "candies":1,
    "tolerance":1,
    "value":1,
    "pot":1,
    "a\u2019s":1,
    "h":1,
    "kelley":1,
    "mba":1,
    "ta":1,
    "married":1,
    "\u201cwhat":1,
    "handle\u201d":1,
    "\u201creality\u201d":1,
    "offer":1,
    "baltimore":1,
    "200":1,
    "expenses":1,
    "toll":1,
    "ordeal":1,
    "broken":1,
    "progeny":1,
    "quietly":1,
    "emotional":1,
    "kicked":1,
    "welli":1,
    "lifts":1,
    "thatwere":1,
    "woodstock":1,
    "altamont":1,
    "barrylife":1,
    "barrel":1,
    "laughs":1,
    "flight":1,
    "attendant":1,
    "kosovo":1,
    "airlines":1,
    "official":1,
    "approved":1,
    "knowthis":1,
    "matching":1,
    "turquoise":1,
    "cummerbund":1,
    "tie":1,
    "contacts":1,
    "eye":1,
    "color":1,
    "aqua":1,
    "blue":1,
    "mystery":1,
    "resplendent":1,
    "blasts":1,
    "hetero":1,
    "couples":1,
    "particularly":1,
    "posse":1,
    "crush":1,
    "beas":1,
    "bravest":1,
    "planet":1,
    "spraying":1,
    "tans":1,
    "whitening":1,
    "garbage":1,
    "\u201cwhore\u201d":1,
    "spraypainted":1,
    "whores":1,
    "glow":1,
    "wary":1,
    "count":1,
    "uncle":1,
    "butchie":1,
    "shakeup":1,
    "borrow":1,
    "makeup":1,
    "pair":1,
    "spanx":1,
    "currently":1,
    "\u201ctreat":1,
    "runway":1,
    "fierce":1,
    "flip":1,
    "cher":1,
    "do\u201d":1,
    "lazuras":1,
    "smearing":1,
    "lipstick":1,
    "shades":1,
    "lips":1,
    "rude":1,
    "attitude":1,
    "dsw":1,
    "jamming":1,
    "extracts":1,
    "pump":1,
    "inch":1,
    "heel":1,
    "grimaces":1,
    "courtyard":1,
    "refuel":1,
    "choose":1,
    "demonstrate":1,
    "disconcerting":1,
    "ol\u2019":1,
    "flirting":1,
    "bat":1,
    "smize":1,
    "grin\u201d":1,
    "agenda\u201d":1,
    "elphie":1,
    "galinda\u201d":1,
    "makeover":1,
    "burdened":1,
    "dozen":1,
    "bags":1,
    "ruined":1,
    "strike":1,
    "thus\u201d":1,
    "suburban":1,
    "emerge":1,
    "limos":1,
    "variations":1,
    "classic":1,
    "tuxedo":1,
    "female":1,
    "smoothing":1,
    "fiddling":1,
    "mirror":1,
    "spoil":1,
    "worked":1,
    "messes":1,
    "fixing":1,
    "problems":1,
    "superstar":1,
    "car\u201d":1,
    "\u201ctonight":1,
    "beautifully":1,
    "expertly":1,
    "shy":1,
    "trot":1,
    "search":1,
    "hesitates":1,
    "decorations":1,
    "limply":1,
    "distressed":1,
    "dumbfounded":1,
    "piecing":1,
    "something\u2019s":1,
    "theme":1,
    "\u201cdeath":1,
    "row\u201d":1,
    "arriving":1,
    "welldecorated":1,
    "venues":1,
    "hangs":1,
    "address":1,
    "everything\u2019s":1,
    "required":1,
    "resistance":1,
    "knowledge":1,
    "organized":1,
    "proms":1,
    "elks":1,
    "gymint":1,
    "split":1,
    "realizing":1,
    "onejust":1,
    "shock":1,
    "texts":1,
    "lying":1,
    "lied":1,
    "liar":1,
    "betrayal":1,
    "secret":1,
    "cruel":1,
    "scandal":1,
    "career":1,
    "unfortunately":1,
    "condemn":1,
    "weve":1,
    "belonged":1,
    "them\u201d":1,
    "swear":1,
    "committee":1,
    "figured":1,
    "fixes":1,
    "person\u2019s":1,
    "intensity":1,
    "smash":1,
    "statement":1,
    "result":1,
    "reported":1,
    "parentteachers":1,
    "association":1,
    "safe":1,
    "allowed":1,
    "offended":1,
    "arrangement":1,
    "ideal":1,
    "action":1,
    "available":1,
    "attempts":1,
    "questions":1,
    "homophobic":1,
    "excluding":1,
    "protect":1,
    "meto":1,
    "paper":1,
    "spokesperson":1,
    "privileged":1,
    "villains":1,
    "wrap":1,
    "cockeyed":1,
    "optimist":1,
    "nelly":1,
    "forbush":1,
    "south":1,
    "pacific":1,
    "buti":1,
    "agree":1,
    "justwhen":1,
    "performer":1,
    "worrying":1,
    "game":1,
    "controlling":1,
    "drinking":1,
    "smiles":1,
    "seems":1,
    "low":1,
    "ok":1,
    "resilient":1,
    "guts\u201d":1,
    "loving":1,
    "dries":1,
    "lawn":1,
    "opens":1,
    "c\u2019mon":1,
    "brought":1,
    "fancy":1,
    "awesome":1,
    "spun":1,
    "shop":1,
    "barn":1,
    "disinfect":1,
    "national":1,
    "prime":1,
    "months":1,
    "ace":1,
    "hole":1,
    "calling":1,
    "bastard":1,
    "cruises":1,
    "dust":1,
    "buster":1,
    "leech":1,
    "cutaway":1,
    "millions":1,
    "rid":1,
    "extension":1,
    "nation":1,
    "cancer":1,
    "indianapolis":1,
    "kansas":1,
    "orlando":1,
    "naval":1,
    "base":1,
    "guantanamo":1,
    "bay":1,
    "venture":1,
    "forth":1,
    "seek":1,
    "converse":1,
    "rap":1,
    "nonmusical":1,
    "communication":1,
    "anon":1,
    "fright":1,
    "jeez":1,
    "louis":1,
    "eaten":1,
    "pint":1,
    "lecture":1,
    "antelope":1,
    "legs":1,
    "\u201cgypsies\u201d":1,
    "previews":1,
    "flu":1,
    "history":1,
    "ballbuster":1,
    "paces":1,
    "petrified":1,
    "routines":1,
    "foss":1,
    "\u201chey":1,
    "notes":1,
    "baby\u201d":1,
    "shed":1,
    "immediately":1,
    "crushed":1,
    "bloody":1,
    "murder":1,
    "finding":1,
    "strength":1,
    "challenge":1,
    "lies":1,
    "filled":1,
    "dread":1,
    "scurry":1,
    "style":1,
    "plus":1,
    "corny":1,
    "kitsch":1,
    "fence":1,
    "fear":1,
    "bitch":1,
    "hurry":1,
    "razzmatazz":1,
    "jazz":1,
    "doesnt":1,
    "awkward":1,
    "concept":1,
    "\u201cdo":1,
    "bossy":1,
    "bob":1,
    "hed":1,
    "hurry\u201d":1,
    "\u201clike":1,
    "prone":1,
    "covered":1,
    "light":1,
    "facial":1,
    "product":1,
    "friend\u2019s":1,
    "wedding\u201d":1,
    "restless":1,
    "shouldn\u2019t":1,
    "sacred":1,
    "plane":1,
    "law":1,
    "korean":1,
    "skin":1,
    "reluctantly":1,
    "bedside":1,
    "applaud":1,
    "villain":1,
    "push":1,
    "movie":1,
    "afterwards":1,
    "comedian":1,
    "picked":1,
    "watch":1,
    "considers":1,
    "pleasant":1,
    "irritating":1,
    "mostly":1,
    "putz":1,
    "bought":1,
    "nothing\u201d":1,
    "over\u201d":1,
    "\u201cshe\u2019s":1,
    "meaningless\u201d":1,
    "promise\u201d":1,
    "6":1,
    "7":1,
    "trucks":1,
    "unemployment":1,
    "nyc":1,
    "lights":1,
    "dimmed":1,
    "sharpe\u2019s":1,
    "premiere":1,
    "showing":1,
    "guyswhat\u2019s":1,
    "today\u2019s":1,
    "wisdom":1,
    "prenup":1,
    "squashed":1,
    "againi":1,
    "nope":1,
    "thoroughly":1,
    "bummed":1,
    "searches":1,
    "remote":1,
    "kleenex":1,
    "remove":1,
    "tender":1,
    "rom":1,
    "com":1,
    "irradiate":1,
    "pretends":1,
    "fall":1,
    "falling":1,
    "heartstopping":1,
    "yellow":1,
    "cape":1,
    "cute":1,
    "boots":1,
    "principal\u2019s":1,
    "curiosity":1,
    "object":1,
    "wideeyed":1,
    "slobbering":1,
    "gaze":1,
    "experienced":1,
    "poking":1,
    "finger":1,
    "stillbeating":1,
    "thinkhe":1,
    "vicariously":1,
    "glickmanyou\u2019re":1,
    "partner":1,
    "poked":1,
    "tens":1,
    "perpetual":1,
    "eating":1,
    "struggle":1,
    "wrinkles":1,
    "judge":1,
    "california":1,
    "planes":1,
    "fly":1,
    "presumably":1,
    "waste":1,
    "driving":1,
    "they\u2019d":1,
    "therapy":1,
    "ellen":1,
    "grace":1,
    "nome":1,
    "frasier":1,
    "gayest":1,
    "brother":1,
    "televisions":1,
    "bursting":1,
    "flames":1,
    "inherently":1,
    "unlovable":1,
    "unworthy":1,
    "painful":1,
    "unresolved":1,
    "adolescent":1,
    "issues":1,
    "shall":1,
    "remain":1,
    "wise":1,
    "knowledgeable":1,
    "pride":1,
    "parade":1,
    "grand":1,
    "marshal":1,
    "sash":1,
    "stat":1,
    "madonna":1,
    "shared":1,
    "1993":1,
    "continue":1,
    "correspond":1,
    "secondly":1,
    "late":1,
    "regret":1,
    "regrets":1,
    "sixteen":1,
    "yearold":1,
    "earth":1,
    "opportunity":1,
    "shaken":1,
    "wrestling":1,
    "team":1,
    "ate":1,
    "knocks":1,
    "spectacular":1,
    "research":1,
    "poisonous":1,
    "incident":1,
    "wandering":1,
    "sight\u201d":1,
    "bottom":1,
    "worship":1,
    "week":1,
    "wining":1,
    "dining":1,
    "speaking":1,
    "opportunist":1,
    "fingers":1,
    "dominic":1,
    "props":1,
    "colossally":1,
    "disappointing":1,
    "swallow":1,
    "moon":1,
    "joyful":1,
    "fictional":1,
    "sang":1,
    "troy":1,
    "gibson":1,
    "admitting":1,
    "fire":1,
    "circus":1,
    "humility":1,
    "dignity":1,
    "actress":1,
    "reality":1,
    "reappears":1,
    "nope\u201d":1,
    "range":1,
    "expanding":1,
    "edges":1,
    "sanding":1,
    "appeal":1,
    "gloats":1,
    "standards":1,
    "notes\u201d":1,
    "segues":1,
    "twirls":1,
    "\u201cthere":1,
    "fret":1,
    "unsettling":1,
    "\u201ceverybody":1,
    "kinks":1,
    "ill":1,
    "inclined":1,
    "aptitude":1,
    "climb":1,
    "doubts":1,
    "disbeliefs":1,
    "behind\u201d":1,
    "removing":1,
    "doubt":1,
    "charms":1,
    "bound":1,
    "discover":1,
    "\u201cdont":1,
    "admit":1,
    "premium":1,
    "prices":1,
    "pro":1,
    "bono":1,
    "charging":1,
    "apology":1,
    "fuck":1,
    "people\u2019s":1,
    "deprogrammed":1,
    "unlearn":1,
    "shoving":1,
    "smiling":1,
    "tipping":1,
    "cnn":1,
    "\u201cedgewater":1,
    "overflows":1,
    "bigotry\u201d":1,
    "fox":1,
    "van":1,
    "enjoying":1,
    "fetid":1,
    "scent":1,
    "americana":1,
    "interested":1,
    "escalator":1,
    "sitting":1,
    "below":1,
    "ideological":1,
    "divide":1,
    "bridge":1,
    "instrument":1,
    "forged":1,
    "furnace":1,
    "institution":1,
    "explains":1,
    "general":1,
    "empathy":1,
    "prepare":1,
    "teenager":1,
    "church":1,
    "teachings":1,
    "separate":1,
    "occasions":1,
    "crucified":1,
    "twelve":1,
    "include":1,
    "jc":1,
    "gays":1,
    "homosexuality":1,
    "cherrypick":1,
    "choosing":1,
    "\u201ckaylee":1,
    "taboo":1,
    "pits":1,
    "hell\u201d":1,
    "\u201cshelby":1,
    "virginity":1,
    "stoning":1,
    "well\u201d":1,
    "slightly":1,
    "convenience":1,
    "beers":1,
    "nonsense":1,
    "confuse":1,
    "says\u2026":1,
    "divorce":1,
    "nono\u2026":1,
    "\u201cnot":1,
    "oversimplify":1,
    "imply":1,
    "hows":1,
    "plans":1,
    "violate":1,
    "masturbate":1,
    "alllove":1,
    "neighbor\u201d":1,
    "\u201ctime":1,
    "lift":1,
    "wheel":1,
    "steer":1,
    "spirit":1,
    "\u201call\u201d":1,
    "cafeteria":1,
    "nervously":1,
    "afraid":1,
    "bff\u2019s":1,
    "mention":1,
    "piss":1,
    "knowing":1,
    "pig\u2019s":1,
    "fell":1,
    "\u201cas\u201d":1,
    "debate":1,
    "debateyoull":1,
    "camp":1,
    "pure":1,
    "endless":1,
    "horse":1,
    "riding":1,
    "jumps":1,
    "obstacles":1,
    "stallion":1,
    "\u201ctrophies":1,
    "ribbons":1,
    "bluetheres":1,
    "competition":1,
    "hoops":1,
    "wistful":1,
    "crowned":1,
    "convertibles":1,
    "kings":1,
    "\u201cyour":1,
    "sacrifices":1,
    "criticized":1,
    "shits":1,
    "lifetime":1,
    "\u201cbe":1,
    "brave\u201d":1,
    "cave":1,
    "weighs":1,
    "writes":1,
    "lb":1,
    "loss":1,
    "phony":1,
    "beams":1,
    "formation":1,
    "players":1,
    "practice":1,
    "pompoms":1,
    "youd":1,
    "reach":1,
    "eighteen":1,
    "\u201cimprove":1,
    "points":1,
    "betweenyour":1,
    "lie":1,
    "\u201cyoure":1,
    "fade":1,
    "eagerly":1,
    "box":1,
    "sunk":1,
    "blew":1,
    "board":1,
    "kissed":1,
    "zip":1,
    "arranged":1,
    "appearance":1,
    "feed":1,
    "station":1,
    "ex":1,
    "wife":1,
    "energy":1,
    "suns":1,
    "decade":1,
    "numerous":1,
    "threats":1,
    "expect":1,
    "agenda":1,
    "easing":1,
    "else\u2019s":1,
    "burden":1,
    "incredibly":1,
    "weekday":1,
    "saved":1,
    "support":1,
    "lunges":1,
    "leap":1,
    "restrain":1,
    "shields":1,
    "wrestle":1,
    "travel":1,
    "kicking":1,
    "background":1,
    "tv\u2019s":1,
    "bit":1,
    "smarter":1,
    "scrape":1,
    "regardless":1,
    "fatwhen":1,
    "wore":1,
    "renovations":1,
    "goin\u2019":1,
    "\u201cim":1,
    "oddly":1,
    "machine":1,
    "seventeen":1,
    "limo":1,
    "uncork":1,
    "dom":1,
    "twentynine":1,
    "cards":1,
    "nine":1,
    "yards":1,
    "calm":1,
    "crying":1,
    "\u201cit":1,
    "better\u201d":1,
    "twirl\u201d":1,
    "twirl":1,
    "match":1,
    "rug":1,
    "shunned":1,
    "\u201cbarry\u2019s":1,
    "theto":1,
    "friggin\u2019":1,
    "showbiz":1,
    "thrill":1,
    "divine":1,
    "overdue":1,
    "waitings":1,
    "too\u201d":1,
    "barrys":1,
    "plops":1,
    "frame":1,
    "dial":1,
    "slow":1,
    "pan":1,
    "propped":1,
    "presses":1,
    "17yearold":1,
    "awfulness":1,
    "stories":1,
    "accompanying":1,
    "\u201csome":1,
    "hearts":1,
    "conform":1,
    "fitting":1,
    "flaunting":1,
    "seei":1,
    "be\u201d":1,
    "began":1,
    "overflow":1,
    "having":1,
    "conceal":1,
    "fear\u2019s":1,
    "see\u201d":1,
    "killing":1,
    "reunited":1,
    "lion":1,
    "cub":1,
    "6548208":1,
    "folk":1,
    "reacting":1,
    "tide":1,
    "especially":1,
    "when\u2019s":1,
    "crisis":1,
    "noticed":1,
    "mickey":1,
    "sleeves":1,
    "bare":1,
    "decorate":1,
    "sanctioned":1,
    "rental":1,
    "fee":1,
    "400":1,
    "dj":1,
    "lightingi\u2019d":1,
    "30000":1,
    "charge":1,
    "10000":1,
    "declare":1,
    "bankruptcy":1,
    "selfproduced":1,
    "\u201cnotes":1,
    "scandal\u201d":1,
    "10":1,
    "abstract":1,
    "speechifying":1,
    "concrete":1,
    "add":1,
    "500":1,
    "express":1,
    "baby":1,
    "23":1,
    "dollar":1,
    "fully":1,
    "financed":1,
    "weakly":1,
    "pressing":1,
    "overlooked":1,
    "gem":1,
    "lifebarry":1,
    "password":1,
    "guessed":1,
    "9481":1,
    "beyonce\u2019s":1,
    "birthday":1,
    "nowherevera":1,
    "hour":1,
    "interstate":1,
    "hung":1,
    "handled":1,
    "drove":1,
    "therapist":1,
    "ago":1,
    "hardly":1,
    "we\u2019d":1,
    "haunting":1,
    "\u201cshould":1,
    "barbra":1,
    "streisand":1,
    "prince":1,
    "tides\u201d":1,
    "\u2018normal\u2019":1,
    "prayers":1,
    "forgiveness":1,
    "someday":1,
    "soonhe":1,
    "bursts":1,
    "falls":1,
    "arms":1,
    "wounded":1,
    "wonder":1,
    "chaperone":1,
    "personto":1,
    "guard":1,
    "tired":1,
    "somebody\u2019s":1,
    "plate":1,
    "rumor":1,
    "washington":1,
    "avoiding":1,
    "ideas":1,
    "hoosier":1,
    "pie":1,
    "blasted":1,
    "bold":1,
    "font":1,
    "building":1,
    "habitat":1,
    "humanity":1,
    "dumb":1,
    "hundreds":1,
    "permission":1,
    "consulted":1,
    "obliged":1,
    "pta\u2019s":1,
    "approval":1,
    "ignores":1,
    "possibly":1,
    "defamation":1,
    "jerk":1,
    "deserve":1,
    "hugs":1,
    "passion":1,
    "stoked":1,
    "centuries":1,
    "definitely":1,
    "gather":1,
    "warning":1,
    "tend":1,
    "pontificate":1,
    "represent":1,
    "warned":1,
    "impressionable":1,
    "expose":1,
    "inappropriate":1,
    "behavior":1,
    "world\u2019s":1,
    "settle":1,
    "confused":1,
    "pauses":1,
    "everybodylet\u2019s":1,
    "drift":1,
    "goers":1,
    "arrived":1,
    "angle":1,
    "dazzling":1,
    "amazed":1,
    "creation":1,
    "wave":1,
    "entire":1,
    "debating":1,
    "gokids":1,
    "guest":1,
    "request":1,
    "is\u201d":1,
    "loves\u201d":1,
    "whips":1,
    "lgbtq":1,
    "races":1,
    "embraces":1,
    "shingles":1,
    "producers":1,
    "to\u201d":1,
    "atta":1,
    "redeye":1,
    "up\u201d":1,
    "vision":1,
    "blue\u201d":1,
    "\u2018fessed":1,
    "\u201cmaybe":1,
    "tiara":1,
    "\u201cget":1,
    "showtime":1,
    "sparkly":1,
    "effort":1,
    "overwhelmed":1,
    "dream":1,
    "prefer":1,
    "orchids":1,
    "corsage":1,
    "romantic":1,
    "smitten":1,
    "destroy":1,
    "cue":1,
    "drums":1,
    "floor\u2019s":1,
    "bass":1,
    "repeat":1,
    "frank":2,
    "opening":2,
    "roles":2,
    "drew":2,
    "possible":2,
    "whether":2,
    "lady":2,
    "here\u2019s":2,
    "brilliant":2,
    "difference":2,
    "states":2,
    "character":2,
    "pain":2,
    "inside":2,
    "thrives":2,
    "teeth":2,
    "dead":2,
    "\u201cwill":2,
    "review":2,
    "pause":2,
    "reads":2,
    "phones":2,
    "sardi\u2019s":2,
    "others":2,
    "forced":2,
    "marquee":2,
    "perfectly":2,
    "floor":2,
    "window":2,
    "eternity":2,
    "dancing":2,
    "apparently":2,
    "revival":2,
    "appear":2,
    "moving":2,
    "thing\u201d":2,
    "ten":2,
    "rest":2,
    "advance":2,
    "opened":2,
    "sake":2,
    "misguided":2,
    "paying":2,
    "drag":2,
    "personal":2,
    "\u201cif":2,
    "buy":2,
    "hang":2,
    "narcissist":2,
    "waiter":2,
    "five":2,
    "shows":2,
    "touch":2,
    "taught":2,
    "fountain":2,
    "question":2,
    "\u201cchicago\u201d":2,
    "quit":2,
    "twenty":2,
    "wouldn\u2019t":2,
    "tina":2,
    "louise":2,
    "raises":2,
    "hits":2,
    "followed":2,
    "dresses":2,
    "bring":2,
    "legal":2,
    "breaks":2,
    "controversy":2,
    "glasses":2,
    "wasting":2,
    "themselves":2,
    "ourselves":2,
    "beings":2,
    "handle":2,
    "biggest":2,
    "explain":2,
    "allow":2,
    "amount":2,
    "kanye":2,
    "cancelled":2,
    "civil":2,
    "pressure":2,
    "picket":2,
    "tshirts":2,
    "prove":2,
    "isnt":2,
    "\u201cthen":2,
    "anthem":2,
    "sondheim":2,
    "write":2,
    "sweeney":2,
    "todd":2,
    "nonequity":2,
    "last":2,
    "death":2,
    "cancel":2,
    "side":2,
    "furious":2,
    "suck":2,
    "pray":2,
    "\u201cwho":2,
    "bomb":2,
    "shelby\u2019s":2,
    "hallway":2,
    "inner":2,
    "interrupting":2,
    "issue":2,
    "absolutely":2,
    "involved":2,
    "glad":2,
    "ready":2,
    "classroom":2,
    "\u201cjust":2,
    "works":2,
    "green":2,
    "struggling":2,
    "seat":2,
    "scaring":2,
    "sounds":2,
    "delicious":2,
    "brand":2,
    "cell":2,
    "middle":2,
    "held":2,
    "clean":2,
    "shot":2,
    "life\u2019s":2,
    "performing":2,
    "surrounded":2,
    "eat":2,
    "screw":2,
    "america\u2019s":2,
    "parent":2,
    "homosexual":2,
    "attend":2,
    "apart":2,
    "courts":2,
    "frightening":2,
    "fact":2,
    "honor":2,
    "closer":2,
    "homosexuals":2,
    "shocked":2,
    "where\u2019s":2,
    "city":2,
    "save":2,
    "banners":2,
    "choreography":2,
    "minds":2,
    "strides":2,
    "whats":2,
    "miracle":2,
    "teen":2,
    "far":2,
    "raw":2,
    "dealt":2,
    "whos":2,
    "\u201cher":2,
    "\u201cgo":2,
    "dear":2,
    "eva":2,
    "peron":2,
    "emmas":2,
    "damn":2,
    "norm":2,
    "local":2,
    "famous":2,
    "\u201cthis":2,
    "running":2,
    "poppas":2,
    "convinced":2,
    "\u201cswallow":2,
    "moon\u201d":2,
    "improving\u201d":2,
    "situation":2,
    "backing":2,
    "flattery":2,
    "frantically":2,
    "pictures":2,
    "everybody\u2019s":2,
    "fault":2,
    "simple":2,
    "wanting":2,
    "air":2,
    "spend":2,
    "\u201cno":2,
    "follows":2,
    "sings":2,
    "\u201ctwo":2,
    "slowly":2,
    "doors":2,
    "contingent":2,
    "arrives":2,
    "yesterday":2,
    "company":2,
    "spa":2,
    "near":2,
    "cabins":2,
    "guests":2,
    "speaks":2,
    "working":2,
    "quite":2,
    "anger":2,
    "screwed":2,
    "key":2,
    "faith":2,
    "amazing":2,
    "halftime":2,
    "monster":2,
    "truck":2,
    "robot":2,
    "hello":2,
    "grow":2,
    "another\u201d":2,
    "winner":2,
    "total":2,
    "fight":2,
    "sister":2,
    "\u201clet\u2019s":2,
    "stunned":2,
    "onto":2,
    "duck":2,
    "quickly":2,
    "conversation":2,
    "complete":2,
    "disaster":2,
    "original":2,
    "kill":2,
    "sell":2,
    "sweetheart":2,
    "saks":2,
    "party":2,
    "fedexed":2,
    "meet":2,
    "haven\u2019t":2,
    "direction":2,
    "pickup":2,
    "drink":2,
    "boy":2,
    "highway":2,
    "threw":2,
    "apples":2,
    "bees":2,
    "sort":2,
    "planned":2,
    "reveal":2,
    "forward":2,
    "happened\u201d":2,
    "kaylee\u201d":2,
    "pass":2,
    "s\u00ed":2,
    "six":2,
    "kiss":2,
    "hiding":2,
    "soon":2,
    "share":2,
    "drops":2,
    "note":2,
    "\u201d":2,
    "\u201csaid":2,
    "grins":2,
    "summer":2,
    "ms":2,
    "appreciate":2,
    "happens":2,
    "job":2,
    "passionate":2,
    "zero":2,
    "smart":2,
    "grew":2,
    "poor":2,
    "loves":2,
    "divorced":2,
    "older":2,
    "glamour":2,
    "writing":2,
    "walls":2,
    "heal":2,
    "curtain":2,
    "emotion":2,
    "feels":2,
    "apply":2,
    "store":2,
    "booze":2,
    "bullshit":2,
    "republican":2,
    "alan":2,
    "golf":2,
    "child":2,
    "offered":2,
    "month":2,
    "hug":2,
    "glass":2,
    "swig":2,
    "wearing":2,
    "sees":2,
    "arm":2,
    "kidding":2,
    "stride":2,
    "queens":2,
    "waves":2,
    "\u201cits":2,
    "it\u201d":2,
    "hot":2,
    "enjoy":2,
    "normal":2,
    "entirely":2,
    "comfortable":2,
    "girly":2,
    "wheres":2,
    "nervous":2,
    "tight":2,
    "empty":2,
    "screen":2,
    "weight":2,
    "elaborate":2,
    "humiliate":2,
    "madison":2,
    "uncomfortable":2,
    "stopped":2,
    "2":2,
    "3":2,
    "cannot":2,
    "staying":2,
    "tears":2,
    "haagendazs":2,
    "ice":2,
    "cream":2,
    "victim":2,
    "matters":2,
    "leaving":2,
    "jimmy":2,
    "fallon":2,
    "return":2,
    "hamptons":2,
    "book":2,
    "rather":2,
    "magic":2,
    "file":2,
    "towards":2,
    "rock":2,
    "understanding":2,
    "spoons":2,
    "begin":2,
    "kick":2,
    "yours":2,
    "1975":2,
    "theyre":2,
    "cover":2,
    "snap":2,
    "steps":2,
    "screaming":2,
    "fucking":2,
    "ahead":2,
    "zazz\u201d":2,
    "confidence":2,
    "contest":2,
    "bluff":2,
    "strut":2,
    "stuff":2,
    "chick":2,
    "hands\u201d":2,
    "it\u2019ll":2,
    "fake":2,
    "tear":2,
    "\u201ctheres":2,
    "bam\u201d":2,
    "faces":2,
    "cheetos":2,
    "dinner":2,
    "paid":2,
    "observation":2,
    "owe":2,
    "words":2,
    "blueberry":2,
    "somebody":2,
    "roberts":2,
    "experiment":2,
    "arrive":2,
    "roll":2,
    "weren\u2019t":2,
    "sue":2,
    "bite":2,
    "bye":2,
    "urinal":2,
    "cakes":2,
    "fantasy":2,
    "ladys":2,
    "free":2,
    "yet\u201d":2,
    "selfless":2,
    "interests":2,
    "learn":2,
    "somewhere":2,
    "talked":2,
    "able":2,
    "program":2,
    "cheerleader":2,
    "christians":2,
    "christ":2,
    "breaking":2,
    "tattoo":2,
    "\u201cor":2,
    "common":2,
    "rule":2,
    "crap":2,
    "stepdad":2,
    "scripture":2,
    "moms":2,
    "greene\u201d":2,
    "outta":2,
    "luck":2,
    "tried":2,
    "clears":2,
    "throat":2,
    "burning":2,
    "generous":2,
    "til":2,
    "whoa":2,
    "cafe":2,
    "perhaps":2,
    "prom\u201d":2,
    "wasnt":2,
    "rational":2,
    "laptop":2,
    "interweb":2,
    "nolan":2,
    "decided":2,
    "fading":2,
    "mine\u201d":2,
    "turning":2,
    "deserves":2,
    "cost":2,
    "event":2,
    "limit":2,
    "card":2,
    "\u2018starlight":2,
    "express\u2019":2,
    "number":2,
    "fair":2,
    "punch":2,
    "bowl":2,
    "attention":2,
    "credibility":2,
    "space":2,
    "joins":2,
    "lose":2,
    "till":2,
    "gardenias":2,
    "choice":3,
    "fdr":3,
    "shoes":3,
    "realized":3,
    "\u201cwhen":3,
    "insane":3,
    "reporter":3,
    "unless":3,
    "standing":3,
    "table":3,
    "\u201cwe\u2019re":3,
    "means":3,
    "tour":3,
    "\u201cthat":3,
    "reviews":3,
    "post":3,
    "most":3,
    "performance":3,
    "message":3,
    "american":3,
    "buying":3,
    "feet":3,
    "oliver":3,
    "shut":3,
    "known":3,
    "drinks":3,
    "closed":3,
    "chorus":3,
    "roxie":3,
    "hart":3,
    "playing":3,
    "gavel":3,
    "vote":3,
    "against":3,
    "couple":3,
    "opposite":3,
    "although":3,
    "year":3,
    "lives":3,
    "become":3,
    "major":3,
    "america":3,
    "electoral":3,
    "college":3,
    "twitter":3,
    "girlfriend":3,
    "intercut":3,
    "rights":3,
    "seriously":3,
    "word":3,
    "mad":3,
    "holy":3,
    "since":3,
    "signs":3,
    "venue":3,
    "bet":3,
    "\u201cwere":3,
    "teach":3,
    "group":3,
    "girls":3,
    "third":3,
    "exchange":3,
    "exit":3,
    "self":3,
    "asking":3,
    "dad":3,
    "grabs":3,
    "ball":3,
    "heads":3,
    "thinks":3,
    "excited":3,
    "who\u2019s":3,
    "ride":3,
    "pathetic":3,
    "notices":3,
    "responsible":3,
    "james":3,
    "sick":3,
    "short":3,
    "boys":3,
    "telling":3,
    "inclusive":3,
    "name":3,
    "bucket":3,
    "open":3,
    "monsters":3,
    "silence":3,
    "riot":3,
    "fiery":3,
    "strangers":3,
    "leaves":3,
    "blood":3,
    "scary":3,
    "black":3,
    "lady\u2019s":3,
    "delicate":3,
    "photo":3,
    "freaking":3,
    "public":3,
    "books":3,
    "scapegoat":3,
    "runs":3,
    "fears":3,
    "counter":3,
    "correct":3,
    "suite":3,
    "desk":3,
    "doctor":3,
    "awful":3,
    "huh":3,
    "beer":3,
    "sound":3,
    "intolerance":3,
    "begins":3,
    "early":3,
    "handsome":3,
    "born":3,
    "learned":3,
    "\u201clets":3,
    "lets":3,
    "dreams":3,
    "sign":3,
    "area":3,
    "food":3,
    "failing":3,
    "um":3,
    "kmart":3,
    "grandmother":3,
    "cool":3,
    "16":3,
    "parts":3,
    "cheers":3,
    "ive":3,
    "\u201cmy":3,
    "obvious":3,
    "\u2018cause":3,
    "ring":3,
    "\u2018em":3,
    "missed":3,
    "stand":3,
    "drop":3,
    "single":3,
    "15":3,
    "present":3,
    "choices":3,
    "easy":3,
    "keep":3,
    "continues":3,
    "answer":3,
    "simply":3,
    "taken":3,
    "living":3,
    "ah":3,
    "club":3,
    "guitar":3,
    "raised":3,
    "yep":3,
    "course":3,
    "waiting":3,
    "feeling":3,
    "various":3,
    "anyone":3,
    "kept":3,
    "pr":3,
    "camera":3,
    "head":3,
    "holding":3,
    "fast":3,
    "dare":3,
    "waits":3,
    "chance":3,
    "knows":3,
    "whatll":3,
    "hick":3,
    "shaking":3,
    "bed":3,
    "romcom":3,
    "mask":3,
    "reason":3,
    "starting":3,
    "believed":3,
    "8":3,
    "younger":3,
    "ohio":3,
    "shit":3,
    "delores":3,
    "improving":3,
    "sir":3,
    "hidden":3,
    "anything":3,
    "homecoming":3,
    "father":3,
    "woodruff":3,
    "pbs":3,
    "thousand":3,
    "define":3,
    "video":3,
    "failed":3,
    "\u201cbuild":3,
    "blares":3,
    "roosevelt":4,
    "brave":4,
    "heard":4,
    "needs":4,
    "middleaged":4,
    "moves":4,
    "line":4,
    "celebrity":4,
    "role":4,
    "full":4,
    "hit":4,
    "street":4,
    "run":4,
    "almost":4,
    "happening":4,
    "aging":4,
    "queen":4,
    "suddenly":4,
    "terrible":4,
    "hurts":4,
    "human":4,
    "play":4,
    "walks":4,
    "strange":4,
    "wrote":4,
    "narcissists":4,
    "drive":4,
    "trump":4,
    "isn\u2019t":4,
    "march":4,
    "rally":4,
    "along":4,
    "red":4,
    "lack":4,
    "truly":4,
    "huge":4,
    "booked":4,
    "folks":4,
    "behind":4,
    "kevin":4,
    "breathe":4,
    "meth":4,
    "meeting":4,
    "smile":4,
    "else":4,
    "hotel":4,
    "award":4,
    "happy":4,
    "also":4,
    "horrible":4,
    "important":4,
    "within":4,
    "asked":4,
    "beliefs":4,
    "news":4,
    "old":4,
    "actors":4,
    "\u201cbut":4,
    "publicity":4,
    "burst":4,
    "speak":4,
    "nightmare":4,
    "freak":4,
    "hide":4,
    "melt":4,
    "convince":4,
    "hanging":4,
    "anybody":4,
    "4":4,
    "rooms":4,
    "uh":4,
    "started":4,
    "without":4,
    "they\u2019ll":4,
    "houses":4,
    "gentlemen":4,
    "resume":4,
    "outside":4,
    "strong":4,
    "\u201clet":4,
    "rainbow":4,
    "pull":4,
    "begging":4,
    "check":4,
    "bedroom":4,
    "applebees":4,
    "football":4,
    "turned":4,
    "finally":4,
    "promise":4,
    "sad":4,
    "you\u2019d":4,
    "whatever":4,
    "clearly":4,
    "putting":4,
    "truth":4,
    "seeing":4,
    "bea\u2019s":4,
    "needed":4,
    "mine":4,
    "couldn\u2019t":4,
    "silver":4,
    "courage":4,
    "barry\u2019s":4,
    "\u201cone":4,
    "universal":4,
    "lifes":4,
    "rehearsal":4,
    "pose":4,
    "alyssa\u2019s":4,
    "wonderful":4,
    "aren\u2019t":4,
    "already":4,
    "broke":4,
    "continuous":4,
    "door":4,
    "thinking":4,
    "lead":4,
    "snaps":4,
    "found":4,
    "friday":4,
    "julia":4,
    "beat":4,
    "stay":4,
    "somehow":4,
    "feelings":4,
    "proud":4,
    "children":4,
    "forgive":4,
    "wish":4,
    "field":4,
    "judy":4,
    "white":5,
    "singing":5,
    "says":5,
    "follow":5,
    "enter":5,
    "second":5,
    "next":5,
    "actor":5,
    "changing":5,
    "wow":5,
    "close":5,
    "read":5,
    "jesus":5,
    "approaches":5,
    "juilliard":5,
    "pay":5,
    "car":5,
    "ladies":5,
    "principal":5,
    "cut":5,
    "front":5,
    "same":5,
    "man":5,
    "minute":5,
    "completely":5,
    "government":5,
    "stands":5,
    "live":5,
    "attorney":5,
    "\u201cwe":5,
    "angry":5,
    "join":5,
    "nice":5,
    "looking":5,
    "nick":5,
    "today":5,
    "picture":5,
    "appears":5,
    "deal":5,
    "state":5,
    "bag":5,
    "gives":5,
    "loved":5,
    "hope":5,
    "supposed":5,
    "taking":5,
    "hi":5,
    "cant":5,
    "shes":5,
    "scene":5,
    "idea":5,
    "miss":5,
    "straight":5,
    "parking":5,
    "hair":5,
    "three":5,
    "different":5,
    "die":5,
    "\u201cso":5,
    "tux":5,
    "doesn\u2019t":5,
    "left":5,
    "watching":5,
    "many":5,
    "used":5,
    "surprised":5,
    "sharpe":5,
    "thats":5,
    "seem":5,
    "hawkins\u2019":5,
    "eyes":5,
    "lemonade":5,
    "elk\u2019s":5,
    "step":5,
    "meant":5,
    "theres":5,
    "giving":5,
    "move":5,
    "stupid":5,
    "teacher":5,
    "bible":5,
    "hurt":5,
    "stage":6,
    "gave":6,
    "woman":6,
    "glickman":6,
    "moment":6,
    "between":6,
    "both":6,
    "power":6,
    "theatre":6,
    "sit":6,
    "favor":6,
    "million":6,
    "likes":6,
    "makes":6,
    "friend":6,
    "days":6,
    "played":6,
    "\u201ctalk":6,
    "hand\u201d":6,
    "these":6,
    "hands":6,
    "rules":6,
    "problem":6,
    "less":6,
    "dee\u2019s":6,
    "ass":6,
    "sing":6,
    "until":6,
    "gotta":6,
    "herself":6,
    "anyway":6,
    "class":6,
    "crazy":6,
    "making":6,
    "enough":6,
    "tony":6,
    "win":6,
    "matter":6,
    "lobby":6,
    "wants":6,
    "hear":6,
    "tomorrow":6,
    "wont":6,
    "past":6,
    "use":6,
    "half":6,
    "starts":6,
    "saw":6,
    "helping":6,
    "drama":6,
    "i\u2019d":6,
    "actually":6,
    "trust":6,
    "audience":6,
    "office":6,
    "fine":6,
    "perfect":6,
    "ensemble":6,
    "such":6,
    "hand":6,
    "met":6,
    "home":6,
    "real":6,
    "each":6,
    "family":6,
    "daughter":6,
    "emma\u2019s":6,
    "sense":6,
    "blown":6,
    "belongs":6,
    "oo":6,
    "lodge":6,
    "cry":6,
    "worst":6,
    "care":6,
    "you\u2019ll":6,
    "honey":6,
    "lost":6,
    "fosse":6,
    "took":6,
    "hated":6,
    "build":6,
    "press":7,
    "crowd":7,
    "watches":7,
    "while":7,
    "music":7,
    "across":7,
    "we\u2019ve":7,
    "exits":7,
    "remember":7,
    "friends":7,
    "dressed":7,
    "must":7,
    "sweet":7,
    "mr":7,
    "state\u2019s":7,
    "lesbian":7,
    "gonna":7,
    "hell":7,
    "walk":7,
    "pretty":7,
    "pulls":7,
    "fun":7,
    "sits":7,
    "worry":7,
    "shame":7,
    "\u201cit\u2019s":7,
    "tom":7,
    "room":7,
    "seen":7,
    "cast":7,
    "wasn\u2019t":7,
    "point":7,
    "money":7,
    "grandma":7,
    "bea":7,
    "youve":7,
    "true":8,
    "everything":8,
    "star":8,
    "may":8,
    "coming":8,
    "york":8,
    "instead":8,
    "nobody":8,
    "try":8,
    "once":8,
    "went":8,
    "won\u2019t":8,
    "act":8,
    "yet":8,
    "pta":8,
    "student":8,
    "least":8,
    "hard":8,
    "end":8,
    "long":8,
    "students":8,
    "community":8,
    "ask":8,
    "excuse":8,
    "me\u201d":8,
    "\u201cyou":8,
    "song":8,
    "you\u201d":8,
    "motel":8,
    "though":8,
    "felt":8,
    "eddie":8,
    "listen":8,
    "\u201clove":8,
    "those":9,
    "comes":9,
    "few":9,
    "thanks":9,
    "edgewater":9,
    "young":9,
    "date":9,
    "person":9,
    "kind":9,
    "cause":9,
    "exactly":9,
    "hey":9,
    "small":9,
    "wanted":9,
    "gets":9,
    "happen":9,
    "worse":9,
    "face":9,
    "unruly":9,
    "godspell":9,
    "takes":9,
    "plan":9,
    "cares":9,
    "after":9,
    "beautiful":9,
    "part":9,
    "getting":9,
    "another":10,
    "told":10,
    "you\u2019ve":10,
    "bad":10,
    "everybody":10,
    "thank":10,
    "very":10,
    "start":10,
    "wear":10,
    "understand":10,
    "called":10,
    "better":10,
    "which":10,
    "being":10,
    "bus":10,
    "guess":10,
    "saying":10,
    "than":10,
    "hold":10,
    "alone":10,
    "myself":10,
    "came":10,
    "always":10,
    "turn":10,
    "scared":10,
    "trumps":10,
    "allen":11,
    "turns":11,
    "done":11,
    "find":11,
    "we\u2019ll":11,
    "times":11,
    "hate":11,
    "help":11,
    "guy":11,
    "knew":11,
    "they\u2019re":11,
    "trying":11,
    "clear":11,
    "wanna":11,
    "please":11,
    "own":11,
    "mall":11,
    "someone":11,
    "zazz":11,
    "eleanor":12,
    "ever":12,
    "put":12,
    "new":12,
    "years":12,
    "only":12,
    "\u201cthe":12,
    "phone":12,
    "goes":12,
    "guys":12,
    "best":12,
    "nothing":12,
    "anymore":12,
    "believe":12,
    "dress":12,
    "tv":12,
    "great":13,
    "story":13,
    "again":13,
    "wait":13,
    "shelby":13,
    "maybe":13,
    "call":13,
    "kid":13,
    "does":13,
    "change":14,
    "first":14,
    "talking":14,
    "mean":14,
    "talk":14,
    "yourself":14,
    "looks":14,
    "mother":14,
    "any":14,
    "place":14,
    "kaylee":14,
    "enters":15,
    "ext":15,
    "two":15,
    "i\u2019ll":15,
    "together":15,
    "wrong":15,
    "stop":15,
    "fan":15,
    "sure":15,
    "around":15,
    "things":15,
    "mom":15,
    "im":15,
    "tonight":15,
    "feel":16,
    "every":16,
    "over":16,
    "even":16,
    "little":16,
    "gay":16,
    "other":16,
    "made":16,
    "accept":16,
    "leave":17,
    "there\u2019s":17,
    "before":17,
    "what\u2019s":17,
    "happened":17,
    "kids":17,
    "work":17,
    "away":17,
    "said":17,
    "should":17,
    "where":18,
    "he\u2019s":18,
    "thought":18,
    "doing":18,
    "lot":18,
    "house":18,
    "more":19,
    "everyone":19,
    "too":19,
    "indiana":19,
    "parents":19,
    "yeah":19,
    "let\u2019s":20,
    "might":20,
    "youre":20,
    "dance":21,
    "did":21,
    "god":21,
    "greene":21,
    "town":21,
    "dont":21,
    "broadway":22,
    "didn\u2019t":22,
    "let":22,
    "mrs":22,
    "she\u2019s":22,
    "him":22,
    "whole":22,
    "down":23,
    "by":23,
    "heart":23,
    "their":23,
    "through":23,
    "still":23,
    "gym":23,
    "back":23,
    "off":23,
    "big":23,
    "would":23,
    "its":23,
    "his":23,
    "am":24,
    "much":24,
    "sheldon":24,
    "good":24,
    "life":24,
    "\u201cand":24,
    "tell":25,
    "give":25,
    "thing":25,
    "take":25,
    "never":25,
    "need":26,
    "into":26,
    "then":26,
    "been":26,
    "sorry":26,
    "can\u2019t":26,
    "right":26,
    "neighbor":26,
    "world":27,
    "i\u2019ve":27,
    "show":27,
    "\u201ci":27,
    "say":27,
    "way":28,
    "why":28,
    "high":28,
    "because":28,
    "thy":28,
    "really":29,
    "see":29,
    "girl":29,
    "yes":30,
    "had":30,
    "will":30,
    "could":30,
    "has":31,
    "hawkins":31,
    "something":31,
    "come":31,
    "angie":32,
    "okay":34,
    "our":34,
    "were":35,
    "or":36,
    "trent":36,
    "alyssa":36,
    "school":37,
    "we\u2019re":38,
    "time":39,
    "that\u2019s":39,
    "oh":39,
    "some":39,
    "think":40,
    "day":40,
    "make":41,
    "them":43,
    "here":44,
    "night":44,
    "love":44,
    "get":45,
    "want":45,
    "he":47,
    "when":47,
    "got":47,
    "an":48,
    "from":50,
    "there":50,
    "look":50,
    "as":51,
    "one":52,
    "go":52,
    "int":53,
    "now":54,
    "how":54,
    "us":55,
    "up":57,
    "can":58,
    "if":61,
    "well":63,
    "who":64,
    "people":65,
    "out":66,
    "you\u2019re":67,
    "going":69,
    "at":70,
    "like":76,
    "prom":76,
    "she":78,
    "don\u2019t":79,
    "they":85,
    "barry":87,
    "about":87,
    "her":89,
    "no":94,
    "so":94,
    "but":94,
    "be":96,
    "your":97,
    "do":97,
    "just":97,
    "all":97,
    "it\u2019s":98,
    "was":101,
    "for":106,
    "emma":106,
    "know":113,
    "i\u2019m":120,
    "with":121,
    "on":121,
    "have":121,
    "are":123,
    "my":130,
    "not":133,
    "what":135,
    "dee":160,
    "me":164,
    "we":173,
    "":174,
    "in":175,
    "this":194,
    "that":210,
    "of":214,
    "it":231,
    "is":246,
    "and":417,
    "a":445,
    "i":475,
    "to":496,
    "you":496,
    "the":560
}