{
    "blob":1,
    "model":1,
    "walls":1,
    "hot":1,
    "hurries":1,
    "socks":1,
    "butcher":1,
    "block":1,
    "empty":1,
    "bottle":1,
    "sink":1,
    "tied":1,
    "headboard":1,
    "unties":1,
    "complicated":1,
    "knot":1,
    "swallows":1,
    "throwup":1,
    "locks":1,
    "weeks":1,
    "nicest":1,
    "magnificent":1,
    "seductively":1,
    "paid":1,
    "extra":1,
    "darn":1,
    "straightens":1,
    "jacket":1,
    "jillian":1,
    "sometime":1,
    "glances":1,
    "jillians":1,
    "sharpie":1,
    "consult":1,
    "nightmare":1,
    "roth":1,
    "mccourt":1,
    "russo":1,
    "chabon":1,
    "practically":1,
    "whores":1,
    "common":1,
    "pulitzer":1,
    "twenty":1,
    "crime":1,
    "genius":1,
    "literature":1,
    "morning":1,
    "nod":1,
    "conference":1,
    "staff":1,
    "nine":1,
    "sent":1,
    "praise":1,
    "bored":1,
    "distractions":1,
    "cylinders":1,
    "hearts":1,
    "suit":1,
    "wore":1,
    "magically":1,
    "unwrinkle":1,
    "sprayed":1,
    "wrinkles":1,
    "buy":1,
    "note":1,
    "represent":1,
    "personal":1,
    "sharp":1,
    "fearless":1,
    "leader":1,
    "liege":1,
    "lettin":1,
    "pardon":1,
    "repeatedly":1,
    "impossible":1,
    "buts":1,
    "dropped":1,
    "ball":1,
    "resigned":1,
    "civilized":1,
    "competition":1,
    "lazy":1,
    "entitled":1,
    "incompetent":1,
    "ridiculous":1,
    "bow":1,
    "tie":1,
    "bar":1,
    "security":1,
    "thrown":1,
    "perfectly":1,
    "trip":1,
    "ninetieth":1,
    "volunteered":1,
    "wrap":1,
    "bye":1,
    "damage":1,
    "planet":1,
    "rescheduled":1,
    "charge":1,
    "cattle":1,
    "prod":1,
    "congrats":1,
    "pw":1,
    "announcements":1,
    "expect":1,
    "dandelions":1,
    "desire":1,
    "manuscript":1,
    "legend":1,
    "worst":1,
    "fever":1,
    "900":1,
    "offensive":1,
    "pointless":1,
    "30":1,
    "characters":1,
    "disability":1,
    "paraplegic":1,
    "pornographer":1,
    "stuttering":1,
    "scientist":1,
    "asthmatic":1,
    "chapter":1,
    "entirely":1,
    "language":1,
    "glossary":1,
    "memory":1,
    "dickens":1,
    "nom":1,
    "de":1,
    "plumes":1,
    "paces":1,
    "seated":1,
    "loss":1,
    "feelings":1,
    "obviously":1,
    "spending":1,
    "writing":1,
    "channel":1,
    "coat":1,
    "pocket":1,
    "services":1,
    "deporting":1,
    "lived":1,
    "1981":1,
    "applying":1,
    "stack":1,
    "reject":1,
    "paperwork":1,
    "investigate":1,
    "whether":1,
    "disposed":1,
    "order":1,
    "happiness":1,
    "investigation":1,
    "deported":1,
    "case":1,
    "winds":1,
    "system":1,
    "allowed":1,
    "enter":1,
    "ahhhh":1,
    "shame":1,
    "becomes":1,
    "published":1,
    "sixtyone":1,
    "ish":1,
    "rope":1,
    "bureaucrat":1,
    "brings":1,
    "lunchable":1,
    "brothers":1,
    "garage":1,
    "desperate":1,
    "blackmail":1,
    "spent":1,
    "preparing":1,
    "pacing":1,
    "happily":1,
    "bursts":1,
    "acting":1,
    "emergency":1,
    "management":1,
    "inspires":1,
    "grin":1,
    "fight":1,
    "visit":1,
    "snuggles":1,
    "truly":1,
    "puckers":1,
    "begin":1,
    "dry":1,
    "chickens":1,
    "kisses":1,
    "hair":1,
    "dollar":1,
    "prove":1,
    "notes":1,
    "detail":1,
    "color":1,
    "encourages":1,
    "thinly":1,
    "veiled":1,
    "choice":1,
    "smokier":1,
    "flower":1,
    "tulips":1,
    "season":1,
    "pet":1,
    "mittens":1,
    "least":1,
    "convenient":1,
    "surprising":1,
    "90th":1,
    "hometown":1,
    "bs":1,
    "forcing":1,
    "conveniently":1,
    "prepare":1,
    "official":1,
    "account":1,
    "paper":1,
    "cross":1,
    "dot":1,
    "ruse":1,
    "jesus":1,
    "inconvenient":1,
    "react":1,
    "schedule":1,
    "sip":1,
    "outstretched":1,
    "scene":1,
    "reception":1,
    "privileges":1,
    "broom":1,
    "dumbstruck":1,
    "phones":1,
    "psychotic":1,
    "rather":1,
    "poke":1,
    "pretend":1,
    "sometimes":1,
    "canadians":1,
    "jail":1,
    "kindness":1,
    "employee":1,
    "orientation":1,
    "hr":1,
    "rep":1,
    "mention":1,
    "fifteen":1,
    "ruin":1,
    "shittiest":1,
    "orphan":1,
    "upper":1,
    "shake":1,
    "hidea":1,
    "staying":1,
    "hotels":1,
    "huts":1,
    "teepees":1,
    "poop":1,
    "bucket":1,
    "otherwise":1,
    "seasons":1,
    "press":1,
    "release":1,
    "bullet":1,
    "kept":1,
    "minx":1,
    "gate":1,
    "amused":1,
    "attempt":1,
    "humor":1,
    "boarding":1,
    "hustles":1,
    "favorites":1,
    "roman":1,
    "concubines":1,
    "exgirlfriend":1,
    "closet":1,
    "romantic":1,
    "lumbers":1,
    "lap":1,
    "untangles":1,
    "bag":1,
    "indignantly":1,
    "record":1,
    "indispensable":1,
    "awfully":1,
    "agrees":1,
    "blanches":1,
    "white":1,
    "contact":1,
    "banner":1,
    "tough":1,
    "pleads":1,
    "prefer":1,
    "annnie":1,
    "government":1,
    "gilber":1,
    "technicality":1,
    "neither":1,
    "secrecy":1,
    "cancelled":1,
    "reservation":1,
    "also":1,
    "kit":1,
    "caboodle":1,
    "gilbersomething":1,
    "souls":1,
    "friends":1,
    "engagement":1,
    "tonight":1,
    "midnight":1,
    "witches":1,
    "quaint":1,
    "luck":1,
    "sold":1,
    "grandchilds":1,
    "die":1,
    "cheers":1,
    "plans":1,
    "car":1,
    "mile":1,
    "tentatively":1,
    "yacht":1,
    "practical":1,
    "sling":1,
    "myself":1,
    "fathers":1,
    "stiff":1,
    "\u00e2\u0080\u0098ya":1,
    "youd":1,
    "occasion":1,
    "settled":1,
    "shoots":1,
    "stride":1,
    "illusions":1,
    "novels":1,
    "epididymitis":1,
    "circles":1,
    "pointer":1,
    "fingers":1,
    "illustrate":1,
    "understanding":1,
    "reaction":1,
    "husky":1,
    "anatomic":1,
    "marvel":1,
    "deserved":1,
    "eagles":1,
    "snatch":1,
    "rehabilitation":1,
    "hungry":1,
    "shrine":1,
    "illusion":1,
    "upset":1,
    "grandchild":1,
    "gotten":1,
    "reverts":1,
    "self":1,
    "15":1,
    "bitch":1,
    "accomplice":1,
    "c":1,
    "felony":1,
    "decent":1,
    "darkside":1,
    "ourselves":1,
    "whatve":1,
    "titan":1,
    "yammering":1,
    "scrappy":1,
    "fought":1,
    "soccer":1,
    "scholarships":1,
    "prep":1,
    "anti":1,
    "antirich":1,
    "worse":1,
    "money":1,
    "earned":1,
    "penny":1,
    "material":1,
    "promote":1,
    "went":1,
    "union":1,
    "upstate":1,
    "liberal":1,
    "arts":1,
    "fetch":1,
    "wedges":1,
    "elbows":1,
    "side":1,
    "graduated":1,
    "counting":1,
    "sixteen":1,
    "seventeen":1,
    "numbers":1,
    "seven":1,
    "may":1,
    "20th":1,
    "taurus":1,
    "protein":1,
    "crab":1,
    "bidding":1,
    "leash":1,
    "whistle":1,
    "host":1,
    "tow":1,
    "benefit":1,
    "surprised":1,
    "remembers":1,
    "tenderly":1,
    "thurman":1,
    "grace":1,
    "kelly":1,
    "patagonia":1,
    "timberland":1,
    "adding":1,
    "insult":1,
    "injury":1,
    "eyeliner":1,
    "snaps":1,
    "tonic":1,
    "shirt":1,
    "peeved":1,
    "chemistry":1,
    "forgotten":1,
    "completely":1,
    "live":1,
    "baranof":1,
    "husband":1,
    "rude":1,
    "bride":1,
    "curse":1,
    "item":1,
    "dismisses":1,
    "reminiscence":1,
    "ancient":1,
    "history":1,
    "groups":1,
    "deer":1,
    "headlights":1,
    "ugly":1,
    "crumble":1,
    "riser":1,
    "anniversary":1,
    "jog":1,
    "park":1,
    "drawn":1,
    "halfway":1,
    "shhhh":1,
    "jogging":1,
    "most":1,
    "mute":1,
    "riding":1,
    "sweaty":1,
    "princess":1,
    "tavern":1,
    "green":1,
    "sunrise":1,
    "knowing":1,
    "luckiest":1,
    "wife":1,
    "mary":1,
    "collective":1,
    "ahh":1,
    "richy":1,
    "hugs":1,
    "agent":1,
    "sniffing":1,
    "honestly":1,
    "lawyers":1,
    "dealing":1,
    "apologizes":1,
    "wink":1,
    "ringing":1,
    "quietly":1,
    "tone":1,
    "exits":1,
    "french":1,
    "glass":1,
    "backyard":1,
    "cliche":1,
    "wishy":1,
    "washy":1,
    "writer":1,
    "ignores":1,
    "yapping":1,
    "barking":1,
    "against":1,
    "chest":1,
    "pouts":1,
    "picture":1,
    "delicious":1,
    "dingo":1,
    "information":1,
    "backed":1,
    "laptop":1,
    "switch":1,
    "works":1,
    "crotch":1,
    "millimeters":1,
    "remains":1,
    "faced":1,
    "definitely":1,
    "encourage":1,
    "wiggling":1,
    "ends":1,
    "splits":1,
    "thrilled":1,
    "standing":1,
    "ovation":1,
    "plays":1,
    "warm":1,
    "blindfolds":1,
    "scarf":1,
    "shy":1,
    "tip":1,
    "appreciate":1,
    "assets":1,
    "aged":1,
    "threadbare":1,
    "thong":1,
    "thin":1,
    "mustache":1,
    "latin":1,
    "theme":1,
    "blindfold":1,
    "inch":1,
    "ahhh":1,
    "frightens":1,
    "initial":1,
    "scare":1,
    "wags":1,
    "found":1,
    "ecoballs":1,
    "dissolve":1,
    "stopped":1,
    "owning":1,
    "airline":1,
    "game":1,
    "pussies":1,
    "maguires":1,
    "stepping":1,
    "january":1,
    "handing":1,
    "matty":1,
    "hows":1,
    "opening":1,
    "japan":1,
    "operation":1,
    "global":1,
    "golf":1,
    "jobs":1,
    "pisses":1,
    "immediately":1,
    "listening":1,
    "butt":1,
    "doctor":1,
    "built":1,
    "dramatic":1,
    "dicking":1,
    "antichrist":1,
    "explanation":1,
    "banged":1,
    "mommy":1,
    "complex":1,
    "cosby":1,
    "drops":1,
    "club":1,
    "overwhelming":1,
    "tan":1,
    "raging":1,
    "clock":1,
    "pretty":1,
    "missed":1,
    "neimans":1,
    "starbucks":1,
    "escalators":1,
    "likes":1,
    "elementary":1,
    "teach":1,
    "dads":1,
    "seniors":1,
    "bought":1,
    "freaked":1,
    "spot":1,
    "hope":1,
    "rejected":1,
    "imagine":1,
    "courage":1,
    "ocean":1,
    "whispers":1,
    "watching":1,
    "dumb":1,
    "uncomfortable":1,
    "answering":1,
    "showdown":1,
    "intensifies":1,
    "excuses":1,
    "growls":1,
    "voice":1,
    "bubble":1,
    "gum":1,
    "oil":1,
    "graciously":1,
    "genuinely":1,
    "unnerved":1,
    "curtain":1,
    "miniature":1,
    "unabsorbent":1,
    "decorative":1,
    "charlene":1,
    "undressed":1,
    "kings":1,
    "aint":1,
    "ears":1,
    "perk":1,
    "disaster":1,
    "dripped":1,
    "everywhere":1,
    "incredibly":1,
    "absorbent":1,
    "egyptian":1,
    "cotton":1,
    "cracks":1,
    "sound":1,
    "nowhere":1,
    "startles":1,
    "slips":1,
    "kicks":1,
    "retreats":1,
    "vengeful":1,
    "rail":1,
    "yard":1,
    "shorts":1,
    "starting":1,
    "badly":1,
    "guards":1,
    "doorway":1,
    "bout":1,
    "barks":1,
    "ceramic":1,
    "baseball":1,
    "bat":1,
    "strike":1,
    "intimidated":1,
    "growl":1,
    "hit":1,
    "spots":1,
    "saunters":1,
    "paw":1,
    "sliding":1,
    "wham":1,
    "holding":1,
    "buck":1,
    "separate":1,
    "rapid":1,
    "forth":1,
    "ensues":1,
    "tackled":1,
    "blaming":1,
    "forgets":1,
    "shrieks":1,
    "covers":1,
    "flashing":1,
    "brain":1,
    "positions":1,
    "desperation":1,
    "entire":1,
    "comforter":1,
    "wraps":1,
    "suspiciously":1,
    "tryin":1,
    "seduce":1,
    "flatter":1,
    "mmmhmmm":1,
    "sneaking":1,
    "thatd":1,
    "sexual":1,
    "harassment":1,
    "pillows":1,
    "cushions":1,
    "blankets":1,
    "create":1,
    "makeshift":1,
    "lights":1,
    "bright":1,
    "shining":1,
    "motorized":1,
    "blinds":1,
    "sunlight":1,
    "blocked":1,
    "pitch":1,
    "black":1,
    "settles":1,
    "dark":1,
    "ceiling":1,
    "kinda":1,
    "locker":1,
    "lay":1,
    "animal":1,
    "trophies":1,
    "adorn":1,
    "pastries":1,
    "fruit":1,
    "bedside":1,
    "edge":1,
    "buzzing":1,
    "excitement":1,
    "energy":1,
    "fitting":1,
    "lots":1,
    "sweetly":1,
    "biggest":1,
    "food":1,
    "pig":1,
    "dig":1,
    "granted":1,
    "disgust":1,
    "bottom":1,
    "sense":1,
    "become":1,
    "trust":1,
    "exasperated":1,
    "hour":1,
    "slams":1,
    "plate":1,
    "suitcase":1,
    "younger":1,
    "warehouse":1,
    "machine":1,
    "decapitator":1,
    "fed":1,
    "bellies":1,
    "slit":1,
    "pulled":1,
    "vegetarian":1,
    "workers":1,
    "cleaning":1,
    "frozen":1,
    "speed":1,
    "expertly":1,
    "demonstrates":1,
    "gentle":1,
    "bruise":1,
    "tilt":1,
    "grain":1,
    "quick":1,
    "stokes":1,
    "organs":1,
    "gimme":1,
    "challenge":1,
    "distance":1,
    "summers":1,
    "earn":1,
    "stripes":1,
    "nah":1,
    "nobody":1,
    "scrapes":1,
    "glop":1,
    "blood":1,
    "vein":1,
    "sends":1,
    "confidence":1,
    "creepy":1,
    "teenage":1,
    "proposal":1,
    "crushed":1,
    "pieces":1,
    "scheduling":1,
    "pilates":1,
    "editing":1,
    "kid":1,
    "realized":1,
    "cuckoos":1,
    "22":1,
    "spend":1,
    "finding":1,
    "ape":1,
    "dare":1,
    "forsake":1,
    "crawling":1,
    "daddy":1,
    "disbelieving":1,
    "petty":1,
    "trustworthy":1,
    "lashing":1,
    "gutting":1,
    "hola":1,
    "mi":1,
    "amo":1,
    "recognizes":1,
    "shop":1,
    "fill":1,
    "cases":1,
    "depends":1,
    "smaller":1,
    "checkout":1,
    "charged":1,
    "flirty":1,
    "wave":1,
    "awkwardly":1,
    "steal":1,
    "handy":1,
    "prude":1,
    "access":1,
    "imagined":1,
    "ugg":1,
    "boot":1,
    "searches":1,
    "signal":1,
    "disco":1,
    "lessons":1,
    "sixth":1,
    "y":1,
    "1":1,
    "0":1,
    "concert":1,
    "woodstock":1,
    "won":1,
    "fair":1,
    "whatd":1,
    "sing":1,
    "oc":1,
    "trash":1,
    "allergic":1,
    "pine":1,
    "nuts":1,
    "penguins":1,
    "7":1,
    "nasty":1,
    "mortified":1,
    "hurts":1,
    "slow":1,
    "booty":1,
    "aces":1,
    "define":1,
    "listens":1,
    "message":1,
    "internet":1,
    "aye":1,
    "lassie":1,
    "cyber":1,
    "seas":1,
    "t1":1,
    "clipper":1,
    "ship":1,
    "hurricane":1,
    "ye":1,
    "needing":1,
    "scrawl":1,
    "sheet":1,
    "computers":1,
    "taken":1,
    "booker":1,
    "prize":1,
    "winning":1,
    "demanding":1,
    "email":1,
    "explaining":1,
    "publishing":1,
    "speaking":1,
    "chinese":1,
    "arrgh":1,
    "list":1,
    "pirates":1,
    "flowers":1,
    "cool":1,
    "minute":1,
    "corner":1,
    "graders":1,
    "transfixed":1,
    "shorthanded":1,
    "living":1,
    "forest":1,
    "wolves":1,
    "hypnotized":1,
    "classroom":1,
    "patrick":1,
    "eyeballs":1,
    "marcia":1,
    "excused":1,
    "directs":1,
    "traffic":1,
    "patricks":1,
    "eggs":1,
    "smelled":1,
    "matanuska":1,
    "thunderfuck":1,
    "defend":1,
    "shot":1,
    "smiled":1,
    "clicks":1,
    "teeth":1,
    "mimic":1,
    "tom":1,
    "cruise":1,
    "impressed":1,
    "nothings":1,
    "somethings":1,
    "apologizing":1,
    "coulda":1,
    "rewind":1,
    "timing":1,
    "pace":1,
    "interruption":1,
    "lies":1,
    "apparently":1,
    "accustomed":1,
    "smoke":1,
    "mysterious":1,
    "drumbeat":1,
    "discovers":1,
    "tremendous":1,
    "loin":1,
    "wears":1,
    "carved":1,
    "tribal":1,
    "centuries":1,
    "tuakjuk":1,
    "qangani":1,
    "takujumagaluam":1,
    "qangalan":1,
    "uarm":1,
    "hides":1,
    "tree":1,
    "trance":1,
    "lungs":1,
    "exhausted":1,
    "vicinity":1,
    "carefully":1,
    "makeup":1,
    "kevin":1,
    "join":1,
    "minded":1,
    "southerners":1,
    "amuse":1,
    "fan":1,
    "blazes":1,
    "besmirch":1,
    "deny":1,
    "piss":1,
    "accept":1,
    "contorting":1,
    "effort":1,
    "chagrin":1,
    "pleased":1,
    "speeds":1,
    "painfully":1,
    "chants":1,
    "chanting":1,
    "\u00e2\u0080\u0098lil":1,
    "john":1,
    "singing":1,
    "eighth":1,
    "heritage":1,
    "helping":1,
    "sweetie":1,
    "cleaned":1,
    "boom":1,
    "box":1,
    "hidden":1,
    "extinguisher":1,
    "1929":1,
    "fit":1,
    "buttoning":1,
    "enthusiastically":1,
    "fantastic":1,
    "boobs":1,
    "snug":1,
    "share":1,
    "collects":1,
    "crying":1,
    "agreement":1,
    "tears":1,
    "rid":1,
    "stunning":1,
    "lays":1,
    "needed":1,
    "chances":1,
    "hematite":1,
    "diamonds":1,
    "ones":1,
    "rare":1,
    "grandfather":1,
    "grandmother":1,
    "russian":1,
    "howd":1,
    "admire":1,
    "stealing":1,
    "yours":1,
    "grandmothers":1,
    "grandchildren":1,
    "complete":1,
    "fraud":1,
    "deliberates":1,
    "tight":1,
    "seams":1,
    "easy":1,
    "marks":1,
    "tailors":1,
    "chalk":1,
    "fix":1,
    "couldnt":1,
    "freaking":1,
    "demands":1,
    "jumping":1,
    "maintenance":1,
    "driving":1,
    "wheel":1,
    "matter":1,
    "horizon":1,
    "north":1,
    "pole":1,
    "tracys":1,
    "navigated":1,
    "fields":1,
    "died":1,
    "reluctantly":1,
    "aside":1,
    "steer":1,
    "issues":1,
    "sociopath":1,
    "drove":1,
    "engine":1,
    "ignorant":1,
    "thirteen":1,
    "necklaces":1,
    "scared":1,
    "diaphragmatic":1,
    "eventually":1,
    "write":1,
    "apologize":1,
    "sentence":1,
    "direction":1,
    "rules":1,
    "broken":1,
    "bridge":1,
    "happens":1,
    "doctors":1,
    "er":1,
    "gunshot":1,
    "victim":1,
    "bleeding":1,
    "careful":1,
    "stable":1,
    "surrounded":1,
    "whose":1,
    "armpits":1,
    "probably":1,
    "boob":1,
    "lifts":1,
    "strong":1,
    "threshold":1,
    "hole":1,
    "safe":1,
    "comfortably":1,
    "gratefully":1,
    "camera":1,
    "spark":1,
    "whoah":1,
    "expecting":1,
    "thoughts":1,
    "near":1,
    "regain":1,
    "composure":1,
    "hunched":1,
    "blanket":1,
    "drives":1,
    "storms":1,
    "beginning":1,
    "guesthouse":1,
    "converted":1,
    "folding":1,
    "flew":1,
    "scott":1,
    "behalf":1,
    "recently":1,
    "storm":1,
    "evil":1,
    "king":1,
    "dick":1,
    "mightve":1,
    "ended":1,
    "winks":1,
    "chairs":1,
    "guests":1,
    "via":1,
    "tuxedo":1,
    "lock":1,
    "mouths":1,
    "brag":1,
    "matches":1,
    "reveal":1,
    "sneakers":1,
    "thosell":1,
    "whisper":1,
    "gorgeous":1,
    "gazebo":1,
    "awaits":1,
    "gathers":1,
    "foreigner":1,
    "announcement":1,
    "sham":1,
    "victoriously":1,
    "pumps":1,
    "fist":1,
    "blame":1,
    "band":1,
    "dingy":1,
    "taking":1,
    "bouquet":1,
    "confidently":1,
    "distractedly":1,
    "tour":1,
    "collecting":1,
    "strip":1,
    "messy":1,
    "able":1,
    "survive":1,
    "dignity":1,
    "department":1,
    "hating":1,
    "realizing":1,
    "beer":1,
    "determined":1,
    "grinning":1,
    "practicing":1,
    "waddya":1,
    "whore":1,
    "ashamed":1,
    "check":1,
    "options":1,
    "kick":1,
    "bitchs":1,
    "polite":1,
    "mood":1,
    "joke":1,
    "jokes":1,
    "yet":1,
    "collect":1,
    "hearing":1,
    "tear":1,
    "cry":1,
    "melancholy":1,
    "approval":1,
    "violated":1,
    "violate":1,
    "slows":1,
    "explains":1,
    "breaks":1,
    "hurry":1,
    "buying":1,
    "goddamn":1,
    "asking":1,
    "permission":1,
    "panic":1,
    "flashes":1,
    "across":1,
    "annies":1,
    "steady":1,
    "causing":1,
    "loud":1,
    "crash":1,
    "hospital":1,
    "fast":1,
    "gay":1,
    "heads":1,
    "oxygen":1,
    "fighting":1,
    "regret":1,
    "stand":1,
    "agree":1,
    "harder":1,
    "peaceful":1,
    "squabbling":1,
    "helicopter":1,
    "quickest":1,
    "promised":1,
    "maam":1,
    "authorized":1,
    "larry":1,
    "ferris":1,
    "launch":1,
    "soiree":1,
    "nevsky":1,
    "monastery":1,
    "st":1,
    "petersberg":1,
    "blankly":1,
    "dostoyevsky":1,
    "buried":1,
    "numb":1,
    "pain":1,
    "takeoff":1,
    "roger":1,
    "intercut":1,
    "bailing":1,
    "solid":1,
    "brother":1,
    "brohan":1,
    "faa":1,
    "holes":1,
    "jobby":1,
    "delivered":1,
    "topic":1,
    "celebrities":1,
    "invite":1,
    "bill":1,
    "clintons":1,
    "paris":1,
    "hiltons":1,
    "defeated":1,
    "crystal":1,
    "consider":1,
    "keeping":1,
    "planes":1,
    "unbuckles":1,
    "cb":1,
    "cockpit":1,
    "rebuckles":1,
    "slice":1,
    "cut":1,
    "chica":1,
    "loose":1,
    "shed":1,
    "mic":1,
    "seattle":1,
    "reached":1,
    "cruising":1,
    "altitude":1,
    "30000":1,
    "timell":1,
    "hed":1,
    "loudspeaker":1,
    "meanwhile":1,
    "acts":1,
    "certainly":1,
    "baring":1,
    "strangers":1,
    "mike":1,
    "felt":1,
    "progress":1,
    "relieved":1,
    "panics":1,
    "ordering":1,
    "return":1,
    "sweetheart":1,
    "cocktail":1,
    "buzz":1,
    "zap":1,
    "400000":1,
    "volts":1,
    "electricity":1,
    "surge":1,
    "twitches":1,
    "violently":1,
    "stun":1,
    "marshall":1,
    "arrest":1,
    "disobeying":1,
    "crew":1,
    "member":1,
    "assault":1,
    "intoxication":1,
    "plants":1,
    "dazed":1,
    "arrested":1,
    "retort":1,
    "hug":1,
    "cheer":1,
    "beneath":2,
    "baby":2,
    "wrapped":2,
    "mouth":2,
    "pushing":2,
    "sell":2,
    "books":2,
    "piece":2,
    "chance":2,
    "slightest":2,
    "immigration":2,
    "lawyer":2,
    "cancel":2,
    "backs":2,
    "cute":2,
    "wicked":2,
    "magic":2,
    "promoting":2,
    "focused":2,
    "prop":2,
    "month":2,
    "third":2,
    "sealed":2,
    "peek":2,
    "threaten":2,
    "drunk":2,
    "grandmas":2,
    "gammy":2,
    "desk":2,
    "quit":2,
    "explained":2,
    "person":2,
    "werent":2,
    "times":2,
    "needs":2,
    "admit":2,
    "doubt":2,
    "pages":2,
    "alien":2,
    "caught":2,
    "pass":2,
    "letter":2,
    "stays":2,
    "hurt":2,
    "passion":2,
    "badge":2,
    "behavior":2,
    "united":2,
    "sovereignty":2,
    "threat":2,
    "unfortunately":2,
    "file":2,
    "edited":2,
    "fifty":2,
    "industry":2,
    "author":2,
    "everyday":2,
    "lives":2,
    "difficult":2,
    "risk":2,
    "sight":2,
    "anywhere":2,
    "playing":2,
    "afraid":2,
    "thousand":2,
    "relents":2,
    "plum":2,
    "purple":2,
    "childhood":2,
    "decided":2,
    "scandal":2,
    "pathetic":2,
    "questions":2,
    "located":2,
    "sitka":2,
    "cover":2,
    "silence":2,
    "interview":2,
    "stories":2,
    "match":2,
    "ts":2,
    "shuts":2,
    "heres":2,
    "boyfriend":2,
    "travel":2,
    "justice":2,
    "peace":2,
    "cold":2,
    "lost":2,
    "receptionist":2,
    "shocked":2,
    "arrives":2,
    "during":2,
    "mine":2,
    "sleeping":2,
    "bears":2,
    "bringing":2,
    "hate":2,
    "reading":2,
    "motion":2,
    "overhead":2,
    "compartment":2,
    "fly":2,
    "sucks":2,
    "avoid":2,
    "calling":2,
    "winces":2,
    "hold":2,
    "ways":2,
    "checking":2,
    "wed":2,
    "met":2,
    "exit":2,
    "lead":2,
    "mad":2,
    "women":2,
    "rest":2,
    "thinks":2,
    "solstice":2,
    "alaskan":2,
    "planned":2,
    "clincher":2,
    "speak":2,
    "thumbs":2,
    "crowd":2,
    "wonder":2,
    "devil":2,
    "mark":2,
    "balzacs":2,
    "understand":2,
    "born":2,
    "figured":2,
    "center":2,
    "towels":2,
    "slept":2,
    "shrugs":2,
    "shoulders":2,
    "breathing":2,
    "seconds":2,
    "officer":2,
    "forty":2,
    "downstairs":2,
    "poor":2,
    "hi":2,
    "totally":2,
    "nineteen":2,
    "wow":2,
    "push":2,
    "waiter":2,
    "watches":2,
    "spilling":2,
    "chicago":2,
    "instant":2,
    "moved":2,
    "quite":2,
    "instantly":2,
    "recovered":2,
    "seeing":2,
    "normal":2,
    "horse":2,
    "carriage":2,
    "tux":2,
    "ran":2,
    "arrive":2,
    "sun":2,
    "above":2,
    "trees":2,
    "light":2,
    "silent":2,
    "boy":2,
    "proud":2,
    "except":2,
    "interrupted":2,
    "notices":2,
    "quiet":2,
    "girls":2,
    "boys":2,
    "calls":2,
    "eat":2,
    "franks":2,
    "relax":2,
    "somewhere":2,
    "along":2,
    "cheek":2,
    "ladies":2,
    "pot":2,
    "belly":2,
    "ramones":2,
    "oblivious":2,
    "smell":2,
    "falls":2,
    "scream":2,
    "composes":2,
    "jumps":2,
    "dancer":2,
    "hang":2,
    "yells":2,
    "whys":2,
    "\u00e2\u0080\u0098bout":2,
    "free":2,
    "tickets":2,
    "awkward":2,
    "father":2,
    "congratulations":2,
    "fell":2,
    "moments":2,
    "\u00e2\u0080\u0098til":2,
    "actually":2,
    "growing":2,
    "total":2,
    "broke":2,
    "ring":2,
    "bet":2,
    "guilty":2,
    "honest":2,
    "wood":2,
    "death":2,
    "reaches":2,
    "enters":2,
    "sings":2,
    "foot":2,
    "deck":2,
    "attached":2,
    "manages":2,
    "angrily":2,
    "tank":2,
    "ipod":2,
    "crashes":2,
    "realize":2,
    "aaaaahhhhhhhhhh":2,
    "spastically":2,
    "jump":2,
    "stink":2,
    "metal":2,
    "awake":2,
    "breakfast":2,
    "tray":2,
    "special":2,
    "exact":2,
    "pay":2,
    "bite":2,
    "someone":2,
    "20":2,
    "passes":2,
    "bek":2,
    "necessary":2,
    "handcuffed":2,
    "gut":2,
    "puller":2,
    "intestines":2,
    "final":2,
    "city":2,
    "spine":2,
    "huge":2,
    "guts":2,
    "forget":2,
    "squeezes":2,
    "break":2,
    "seem":2,
    "catch":2,
    "screwed":2,
    "lesbian":2,
    "letting":2,
    "kool":2,
    "gang":2,
    "radio":2,
    "saw":2,
    "fake":2,
    "ha":2,
    "faster":2,
    "notch":2,
    "throttle":2,
    "shell":2,
    "catches":2,
    "bell":2,
    "recess":2,
    "fault":2,
    "dangerous":2,
    "cuts":2,
    "breaking":2,
    "meant":2,
    "act":2,
    "soon":2,
    "bonfire":2,
    "cloth":2,
    "mask":2,
    "yaitakuju":2,
    "magaluam":2,
    "uksu":2,
    "lingm":2,
    "ik":2,
    "pifiksailiriju":2,
    "m":2,
    "1k":2,
    "yell":2,
    "breath":2,
    "clearing":2,
    "closed":2,
    "willing":2,
    "higher":2,
    "circle":2,
    "worried":2,
    "tlingit":2,
    "style":2,
    "unsure":2,
    "fits":2,
    "bigger":2,
    "woulda":2,
    "neck":2,
    "patiently":2,
    "reply":2,
    "thisll":2,
    "kidding":2,
    "stupid":2,
    "biggie":2,
    "feet":2,
    "carry":2,
    "seemed":2,
    "having":2,
    "squash":2,
    "defending":2,
    "attack":2,
    "guess":2,
    "aisle":2,
    "dreamed":2,
    "air":2,
    "leans":2,
    "yup":2,
    "million":2,
    "bit":2,
    "beth":2,
    "cable":2,
    "report":2,
    "stockholm":2,
    "syndrome":2,
    "throw":2,
    "1601":2,
    "sad":2,
    "captain":2,
    "warning":2,
    "sheets":3,
    "answers":3,
    "late":3,
    "champagne":3,
    "shoes":3,
    "belt":3,
    "dressed":3,
    "whatever":3,
    "amazing":3,
    "body":3,
    "funny":3,
    "today":3,
    "use":3,
    "runs":3,
    "itll":3,
    "world":3,
    "decision":3,
    "news":3,
    "elevator":3,
    "quickly":3,
    "papers":3,
    "sign":3,
    "eight":3,
    "grab":3,
    "pad":3,
    "calmly":3,
    "firing":3,
    "wrinkled":3,
    "yesterday":3,
    "professional":3,
    "fired":3,
    "asked":3,
    "talked":3,
    "pick":3,
    "soul":3,
    "chair":3,
    "birthday":3,
    "pissed":3,
    "sorta":3,
    "control":3,
    "rings":3,
    "set":3,
    "four":3,
    "promotion":3,
    "already":3,
    "dream":3,
    "dante":3,
    "else":3,
    "citizenship":3,
    "canada":3,
    "mistake":3,
    "monday":3,
    "states":3,
    "protect":3,
    "awhile":3,
    "laughed":3,
    "publish":3,
    "suddenly":3,
    "whos":3,
    "tried":3,
    "touch":3,
    "real":3,
    "favorite":3,
    "interrupts":3,
    "enough":3,
    "story":3,
    "ten":3,
    "days":3,
    "play":3,
    "notice":3,
    "week":3,
    "hello":3,
    "words":3,
    "shouts":3,
    "plan":3,
    "sack":3,
    "supposed":3,
    "came":3,
    "town":3,
    "stuck":3,
    "hotel":3,
    "secret":3,
    "naughty":3,
    "folks":3,
    "many":3,
    "guys":3,
    "computer":3,
    "straight":3,
    "keeps":3,
    "explain":3,
    "toward":3,
    "silently":3,
    "called":3,
    "dragon":3,
    "hasnt":3,
    "whole":3,
    "trouble":3,
    "hadnt":3,
    "surprises":3,
    "far":3,
    "few":3,
    "changes":3,
    "lucky":3,
    "either":3,
    "towards":3,
    "later":3,
    "puppy":3,
    "armoire":3,
    "calm":3,
    "selfish":3,
    "hours":3,
    "lied":3,
    "wouldnt":3,
    "fun":3,
    "blah":3,
    "anyway":3,
    "mirror":3,
    "drink":3,
    "lime":3,
    "son":3,
    "short":3,
    "hits":3,
    "hitting":3,
    "grade":3,
    "divorced":3,
    "proposed":3,
    "full":3,
    "attention":3,
    "loves":3,
    "early":3,
    "knee":3,
    "cell":3,
    "follow":3,
    "window":3,
    "moves":3,
    "often":3,
    "middle":3,
    "dance":3,
    "joins":3,
    "lord":3,
    "balls":3,
    "conversation":3,
    "serious":3,
    "fall":3,
    "player":3,
    "feeling":3,
    "chopping":3,
    "shower":3,
    "clean":3,
    "once":3,
    "bath":3,
    "leaving":3,
    "cinnamon":3,
    "rolls":3,
    "start":3,
    "slime":3,
    "possible":3,
    "comfortable":3,
    "changed":3,
    "freak":3,
    "nest":3,
    "kill":3,
    "asshole":3,
    "teacher":3,
    "waves":3,
    "holy":3,
    "pirate":3,
    "deep":3,
    "though":3,
    "whoa":3,
    "dancing":3,
    "ut":3,
    "sand":3,
    "speaks":3,
    "blue":3,
    "forgot":3,
    "stands":3,
    "court":3,
    "quack":3,
    "perfect":3,
    "tower":3,
    "favor":3,
    "clothes":4,
    "simone":4,
    "kitchen":4,
    "finds":4,
    "seen":4,
    "guy":4,
    "number":4,
    "written":4,
    "ya":4,
    "tomorrow":4,
    "doors":4,
    "waits":4,
    "hears":4,
    "lose":4,
    "thirty":4,
    "meeting":4,
    "point":4,
    "own":4,
    "walk":4,
    "affect":4,
    "chief":4,
    "pop":4,
    "picks":4,
    "busy":4,
    "silly":4,
    "arent":4,
    "trying":4,
    "believe":4,
    "must":4,
    "bad":4,
    "looking":4,
    "turn":4,
    "ins":4,
    "male":4,
    "nope":4,
    "true":4,
    "holds":4,
    "prison":4,
    "federal":4,
    "telling":4,
    "send":4,
    "marry":4,
    "girlfriend":4,
    "button":4,
    "wanna":4,
    "sounds":4,
    "shouldnt":4,
    "annoyed":4,
    "almost":4,
    "points":4,
    "\u00e2\u0080\u0098em":4,
    "between":4,
    "onto":4,
    "class":4,
    "walking":4,
    "saying":4,
    "kind":4,
    "sick":4,
    "surprise":4,
    "wait":4,
    "everything":4,
    "finally":4,
    "stares":4,
    "small":4,
    "none":4,
    "worry":4,
    "under":4,
    "sleep":4,
    "rich":4,
    "maybe":4,
    "college":4,
    "turned":4,
    "salmon":4,
    "geoffreys":4,
    "gert":4,
    "water":4,
    "teaching":4,
    "feels":4,
    "wearing":4,
    "waiting":4,
    "finger":4,
    "smiling":4,
    "table":4,
    "beautiful":4,
    "moment":4,
    "step":4,
    "friend":4,
    "continues":4,
    "eagle":4,
    "saved":4,
    "song":4,
    "stage":4,
    "damn":4,
    "okay":4,
    "such":4,
    "started":4,
    "tired":4,
    "wish":4,
    "gone":4,
    "toilet":4,
    "reason":4,
    "mat":4,
    "paxton":4,
    "leads":4,
    "knife":4,
    "cause":4,
    "arms":4,
    "mockingbird":4,
    "megher":4,
    "gun":4,
    "drum":4,
    "finish":4,
    "necklace":4,
    "glacier":4,
    "boat":4,
    "chuck":4,
    "passengers":4,
    "pants":5,
    "floor":5,
    "anymore":5,
    "pull":5,
    "welcome":5,
    "havent":5,
    "wrote":5,
    "hangs":5,
    "mind":5,
    "embarrassed":5,
    "word":5,
    "working":5,
    "um":5,
    "minutes":5,
    "read":5,
    "remember":5,
    "hundred":5,
    "theres":5,
    "honey":5,
    "course":5,
    "yourself":5,
    "couple":5,
    "anyone":5,
    "party":5,
    "parents":5,
    "island":5,
    "pushes":5,
    "watch":5,
    "lie":5,
    "heart":5,
    "question":5,
    "dating":5,
    "home":5,
    "sir":5,
    "stare":5,
    "happy":5,
    "huh":5,
    "eye":5,
    "used":5,
    "starts":5,
    "part":5,
    "listen":5,
    "crazy":5,
    "steps":5,
    "roll":5,
    "ear":5,
    "maguire":5,
    "inside":5,
    "yap":5,
    "teammates":5,
    "loved":5,
    "year":5,
    "cart":5,
    "mrs":5,
    "whiting":5,
    "happened":5,
    "seat":5,
    "half":6,
    "cup":6,
    "close":6,
    "publicity":6,
    "himself":6,
    "until":6,
    "care":6,
    "frank":6,
    "lips":6,
    "shut":6,
    "five":6,
    "those":6,
    "figure":6,
    "knows":6,
    "place":6,
    "ago":6,
    "worked":6,
    "excited":6,
    "without":6,
    "laughs":6,
    "ms":6,
    "throws":6,
    "boss":6,
    "confused":6,
    "secretary":6,
    "uhhuh":6,
    "arm":6,
    "lying":6,
    "miss":6,
    "sweet":6,
    "happen":6,
    "front":6,
    "meet":6,
    "bags":6,
    "bring":6,
    "awful":6,
    "always":6,
    "kids":6,
    "might":6,
    "high":6,
    "business":6,
    "wet":6,
    "closes":6,
    "try":6,
    "any":6,
    "ice":6,
    "shaman":6,
    "job":7,
    "ass":7,
    "hard":7,
    "naked":7,
    "shakes":7,
    "exactly":7,
    "thinking":7,
    "ask":7,
    "night":7,
    "wont":7,
    "stuff":7,
    "months":7,
    "gave":7,
    "clear":7,
    "stay":7,
    "weird":7,
    "last":7,
    "idea":7,
    "marrying":7,
    "slowly":7,
    "wheres":7,
    "wants":7,
    "attendant":7,
    "hands":7,
    "sit":7,
    "truth":7,
    "group":7,
    "airport":7,
    "help":7,
    "wanted":7,
    "bathroom":7,
    "mother":7,
    "york":7,
    "feel":7,
    "towel":7,
    "coffee":8,
    "sits":8,
    "end":8,
    "running":8,
    "name":8,
    "hell":8,
    "change":8,
    "move":8,
    "bob":8,
    "office":8,
    "talking":8,
    "through":8,
    "than":8,
    "even":8,
    "problem":8,
    "deal":8,
    "":8,
    "mills":8,
    "nothing":8,
    "every":8,
    "both":8,
    "says":8,
    "follows":8,
    "six":8,
    "lady":8,
    "plane":8,
    "girl":8,
    "smile":8,
    "promise":8,
    "took":8,
    "same":8,
    "wrong":8,
    "grabs":8,
    "open":8,
    "hank":8,
    "fire":8,
    "leave":8,
    "line":8,
    "chant":8,
    "gotta":9,
    "three":9,
    "begins":9,
    "since":9,
    "gonna":9,
    "editor":9,
    "opens":9,
    "before":9,
    "god":9,
    "better":9,
    "very":9,
    "woman":9,
    "cmon":9,
    "theyre":9,
    "run":9,
    "alone":9,
    "handsome":9,
    "show":9,
    "dog":9,
    "behind":9,
    "dear":9,
    "am":9,
    "dress":9,
    "much":10,
    "ever":10,
    "best":10,
    "done":10,
    "book":10,
    "answer":10,
    "making":10,
    "their":10,
    "isnt":10,
    "whats":10,
    "richards":10,
    "tries":10,
    "after":10,
    "each":10,
    "lot":10,
    "excuse":10,
    "face":10,
    "ready":10,
    "room":10,
    "beat":10,
    "left":10,
    "id":10,
    "thanks":10,
    "keep":10,
    "heard":10,
    "wasnt":10,
    "outside":10,
    "fish":10,
    "flight":10,
    "thank":11,
    "knew":11,
    "youve":11,
    "other":11,
    "while":11,
    "house":11,
    "kiss":11,
    "top":11,
    "alaska":11,
    "coming":11,
    "put":12,
    "nice":12,
    "day":12,
    "ah":12,
    "assistant":12,
    "margarets":12,
    "wedding":12,
    "old":12,
    "next":13,
    "sees":13,
    "eyes":13,
    "give":13,
    "being":13,
    "these":13,
    "does":13,
    "stops":13,
    "or":13,
    "life":13,
    "had":13,
    "find":13,
    "new":13,
    "mom":13,
    "thought":13,
    "something":13,
    "first":13,
    "shit":13,
    "school":13,
    "herself":13,
    "again":13,
    "some":14,
    "lets":14,
    "call":14,
    "our":14,
    "only":14,
    "nods":14,
    "anything":14,
    "could":14,
    "weekend":14,
    "dad":14,
    "weve":14,
    "leaves":14,
    "please":14,
    "comes":15,
    "bed":15,
    "hear":15,
    "walks":15,
    "youll":15,
    "makes":15,
    "said":15,
    "big":15,
    "pulls":15,
    "let":15,
    "still":15,
    "second":15,
    "thing":15,
    "where":16,
    "another":16,
    "fine":16,
    "would":16,
    "people":16,
    "long":16,
    "more":16,
    "love":16,
    "made":16,
    "should":17,
    "will":17,
    "doing":17,
    "together":17,
    "hand":17,
    "family":17,
    "ramone":17,
    "puts":18,
    "because":18,
    "everyone":18,
    "who":18,
    "gets":18,
    "told":18,
    "stop":18,
    "married":18,
    "mr":18,
    "balzac":18,
    "too":19,
    "head":19,
    "talk":19,
    "years":19,
    "hey":19,
    "shes":19,
    "away":19,
    "them":20,
    "by":20,
    "never":20,
    "sure":20,
    "take":20,
    "goes":20,
    "has":20,
    "cant":21,
    "things":21,
    "mean":21,
    "why":21,
    "look":21,
    "grandma":21,
    "gives":22,
    "over":22,
    "ok":22,
    "sorry":24,
    "little":24,
    "work":24,
    "yes":24,
    "into":24,
    "uh":24,
    "turns":24,
    "man":24,
    "door":25,
    "ill":25,
    "takes":25,
    "right":27,
    "off":28,
    "phone":28,
    "great":28,
    "say":28,
    "then":28,
    "us":28,
    "been":29,
    "yeah":29,
    "make":30,
    "getting":30,
    "debbie":30,
    "think":31,
    "ive":31,
    "want":31,
    "thats":31,
    "time":31,
    "one":31,
    "gilbertson":31,
    "did":31,
    "around":32,
    "hes":32,
    "way":32,
    "annie":32,
    "can":33,
    "an":33,
    "smiles":33,
    "how":33,
    "two":33,
    "really":34,
    "go":34,
    "there":34,
    "come":35,
    "as":36,
    "didnt":36,
    "looks":37,
    "tell":37,
    "good":37,
    "see":37,
    "if":38,
    "got":38,
    "from":38,
    "need":39,
    "doesnt":40,
    "they":41,
    "gertrude":42,
    "down":43,
    "oh":43,
    "now":44,
    "when":44,
    "geoffrey":45,
    "all":50,
    "him":52,
    "get":55,
    "well":55,
    "like":57,
    "its":57,
    "were":57,
    "have":58,
    "back":58,
    "here":59,
    "going":59,
    "just":63,
    "his":68,
    "youre":68,
    "be":68,
    "about":71,
    "at":75,
    "dont":75,
    "do":76,
    "so":76,
    "not":80,
    "no":80,
    "know":82,
    "she":83,
    "we":85,
    "was":86,
    "out":87,
    "are":88,
    "but":88,
    "he":93,
    "with":94,
    "my":95,
    "up":95,
    "your":95,
    "on":106,
    "what":110,
    "for":116,
    "im":126,
    "her":126,
    "of":131,
    "me":132,
    "in":141,
    "this":154,
    "is":158,
    "that":167,
    "it":178,
    "richard":240,
    "margaret":301,
    "i":320,
    "a":335,
    "and":370,
    "you":474,
    "to":476,
    "the":571
}