{
    "thirty":1,
    "drives":1,
    "coldconvicts":1,
    "broadly":1,
    "striped":1,
    "frayed":1,
    "hard":1,
    "branded":1,
    "shorn":1,
    "broken":1,
    "ferocity":1,
    "aggression":1,
    "nihilistic":1,
    "edge":1,
    "spirits":1,
    "surrender":1,
    "beaten":1,
    "alcatraz":1,
    "leavenworth":1,
    "visored":1,
    "caps":1,
    "patent":1,
    "leather":1,
    "browne":1,
    "belts":1,
    "threefoot":1,
    "billy":1,
    "poised":1,
    "unleash":1,
    "violence":1,
    "factory":1,
    "afternoon":1,
    "adjacent":1,
    "yard":1,
    "cage":1,
    "locks":1,
    "bolts":1,
    "fabric":1,
    "klaxon":1,
    "stacks":1,
    "box":1,
    "x":1,
    "crayoned":1,
    "thread":1,
    "approached":1,
    "control":1,
    "jim":1,
    "leslie":1,
    "earl":1,
    "adams":1,
    "makeshift":1,
    "spivs":1,
    "paroled":1,
    "insubordination":1,
    "puzzles":1,
    "turnkey":1,
    "submachine":1,
    "cuffs":1,
    "fell":1,
    "poker\u00e2\u00b0players":1,
    "share":1,
    "liquor":1,
    "ammunition":1,
    "keyed":1,
    "followed":1,
    "escapees":1,
    "undress":1,
    "undressed":1,
    "conceals":1,
    "lawn":1,
    "shousei":1,
    "killings":1,
    "begun":1,
    "meters":1,
    "dainards":1,
    "knocked":1,
    "pools":1,
    "siren":1,
    "screams":1,
    "ponc":1,
    "complete":1,
    "disguises":1,
    "halfdressed":1,
    "gua":1,
    "ds":1,
    "crash":1,
    "grass":1,
    "neck":1,
    "tower":1,
    "grab":1,
    "hesparalyzed":1,
    "boafd":1,
    "dietrichshcpeful":1,
    "glaze":1,
    "screwed":1,
    "bastard":1,
    "wouldnt":1,
    "pete":1,
    "abject":1,
    "mood":1,
    "lowers":1,
    "cheekbone":1,
    "smashing":1,
    "orbital":1,
    "socket":1,
    "dozen":1,
    "egg":1,
    "wrapped":1,
    "edwin":1,
    "charming":1,
    "daughter":1,
    "thatll":1,
    "retrieves":1,
    "brother":1,
    "crawled":1,
    "peels":1,
    "12":1,
    "lotof":1,
    "grateful":1,
    "passes":1,
    "plymouth":1,
    "kid":1,
    "halt":1,
    "mauser":1,
    "perfect":1,
    "zigzags":1,
    "misses":1,
    "splinter":1,
    "nearby":1,
    "branches":1,
    "fultz":1,
    "seek":1,
    "works":1,
    "bolt":1,
    "chambers":1,
    "forest":1,
    "kneels":1,
    "upraised":1,
    "braces":1,
    "hi":1,
    "inhales":1,
    "squeeze":1,
    "ha":1,
    "tway":1,
    "exhale":1,
    "floyds":1,
    "flies":1,
    "punched":1,
    "consciousness":1,
    "floyd`s":1,
    "lung":1,
    "liver":1,
    "sky":1,
    "rot":1,
    "sonofabitch":1,
    "lapses":1,
    "dies":1,
    "jus":1,
    "cradles":1,
    "switchout":1,
    "shorts":1,
    "gals":1,
    "jammed":1,
    "springs":1,
    "coil":1,
    "rides":1,
    "chrysler":1,
    "terraplane":1,
    "rubber":1,
    "banded":1,
    "bills":1,
    "welldressed":1,
    "kisses":1,
    "cheek":1,
    "christmas":1,
    "early":1,
    "extra":1,
    "cakes":1,
    "halstead":1,
    "town":1,
    "haven":1,
    "support":1,
    "resupply":1,
    "network":1,
    "sugar":1,
    "radio":1,
    "breed":1,
    "mobile":1,
    "jurisdiction":1,
    "highways":1,
    "whom":1,
    "physically":1,
    "dynamic":1,
    "dapper":1,
    "patrician":1,
    "believes":1,
    "elites":1,
    "completely":1,
    "selfdoubt":1,
    "youthful":1,
    "33":1,
    "mckellar":1,
    "i\u00ef\u00bf\u00bdchairman":1,
    "senate":1,
    "appropriations":1,
    "sub":1,
    "committeehes":1,
    "avuncular":1,
    "62":1,
    "budget":1,
    "increase":1,
    "tally":1,
    "spends":1,
    "taxpayers":1,
    "stole":1,
    "ridiculous":1,
    "robbers":1,
    "stolen":1,
    "criminals":1,
    "arraigned":1,
    "213":1,
    "felons":1,
    "administered":1,
    "administrator":1,
    "chairman":1,
    "required":1,
    "expanded":1,
    "question":1,
    "person":1,
    "fit":1,
    "clyde":1,
    "barrow":1,
    "barkers":1,
    "flourish":1,
    "unabated":1,
    "1919":1,
    "prostitutes":1,
    "peppy":1,
    "`tuf":1,
    "=rii\u00e2\u0080\u009einchell":1,
    "mckellars":1,
    "neanderthal":1,
    "o7a":1,
    "vendetta":1,
    "destroy":1,
    "spotted":1,
    "hammond":1,
    "sighting":1,
    "fun":1,
    "congratulations":1,
    "commendation":1,
    "gratitude":1,
    "charge":1,
    "corporate":1,
    "designed":1,
    "albrecht":1,
    "speer":1,
    "metal":1,
    "desks":1,
    "identically":1,
    "effects":1,
    "individual":1,
    "reduced":1,
    "component":1,
    "gleaming":1,
    "defeated":1,
    "visionary":1,
    "leadership":1,
    "je":1,
    "shake":1,
    "mob":1,
    "microphones":1,
    "interview":1,
    "awed":1,
    "anointed":1,
    "crimebuster":1,
    "claimed":1,
    "asks":1,
    "expect":1,
    "overcome":1,
    "doubt":1,
    "anxiety":1,
    "spin":1,
    "dial":1,
    "stopwatch":1,
    "shouts":1,
    "drawers":1,
    "shovel":1,
    "twin":1,
    "holsters":1,
    "grover":1,
    "forehead":1,
    "weylands":1,
    "scramble":1,
    "gut":1,
    "pedestrians":1,
    "draw":1,
    "blowing":1,
    "yessir":1,
    "customers":1,
    "loves":1,
    "appreciation":1,
    "creating":1,
    "human":1,
    "wylies":1,
    "crew":1,
    "wylie":1,
    "deer":1,
    "eardrum":1,
    "blown":1,
    "bleeds":1,
    "cmere":1,
    "buicks":1,
    "faster":1,
    "nexto":1,
    "roars":1,
    "2":1,
    "barn":1,
    "gallon":1,
    "milk":1,
    "jars":1,
    "roofing":1,
    "scatter":1,
    "finish":1,
    "dissuading":1,
    "pursue":1,
    "shivering":1,
    "plops":1,
    "nervously":1,
    "thrilled":1,
    "depends":1,
    "bout":1,
    "cook":1,
    "uh":1,
    "hoot":1,
    "h\u00e2\u00b1l":1,
    "iious":1,
    "scout":1,
    "really":1,
    "harder":1,
    "binds":1,
    "loosely":1,
    "freeze":1,
    "worm":1,
    "late":1,
    "abandoned":1,
    "patzke":1,
    "manufactured":1,
    "identifying":1,
    "stores":1,
    "sold":1,
    "clegg":1,
    "secretary":1,
    "post":1,
    "alabama":1,
    "midscene":1,
    "crossreference":1,
    "member":1,
    "associate":1,
    "locale":1,
    "such":1,
    "hungry":1,
    "careful":1,
    "outlive":1,
    "including":1,
    "retire":1,
    "torremolinos":1,
    "spain":1,
    "everyones":1,
    "snatch":1,
    "fellas":1,
    "paul":1,
    "banker":1,
    "bremer":1,
    "kidnapping":1,
    "robbing":1,
    "tougher":1,
    "likes":1,
    "hide":1,
    "hermits":1,
    "six":1,
    "hate":1,
    "cities":1,
    "pinched":1,
    "getem":1,
    "reserve":1,
    "shipment":1,
    "brazil":1,
    "worryin":1,
    "ought":1,
    "lock":1,
    "pros":1,
    "anymore":1,
    "shut":1,
    "yap":1,
    "stayin":1,
    "rules":1,
    "reappears":1,
    "rule":1,
    "`stayed":1,
    "stir":1,
    "invented":1,
    "whores":1,
    "escorts":1,
    "finishes":1,
    "erect":1,
    "humor":1,
    "edges":1,
    "unexpectedly":1,
    "friend":1,
    "wellmade":1,
    "paradoxes":1,
    "easily":1,
    "talks":1,
    "hustler":1,
    "buy":1,
    "girlfriend":1,
    "changes":1,
    "blackbird":1,
    "easy":1,
    "twostep":1,
    "languorous":1,
    "difficulty":1,
    "smell":1,
    "perfume":1,
    "deaf":1,
    "outh":1,
    "indians":1,
    "likelier":1,
    "mommas":1,
    "bird":1,
    "song":1,
    "ironic":1,
    "courteously":1,
    "waist":1,
    "steers":1,
    "menu":1,
    "welli":1,
    "regards":1,
    "story":1,
    "studies":1,
    "ats":1,
    "havent":1,
    "youve":1,
    "finding":1,
    "persuasive":1,
    "blonde":1,
    "elegant":1,
    "ice":1,
    "depressionera":1,
    "important":1,
    "irresistible":1,
    "waya":1,
    "intercepts":1,
    "solid":1,
    "smiling":1,
    "gil":1,
    "sober":1,
    "educated":1,
    "direction":1,
    "barber":1,
    "everytime":1,
    "read":1,
    "jobs":1,
    "crack":1,
    "noise":1,
    "words":1,
    "recording":1,
    "floorboard":1,
    "desoto":1,
    "interiors":1,
    "voice":1,
    "dealership":1,
    "supplies":1,
    "capone":1,
    "switching":1,
    "ran":1,
    "`you":1,
    "standing":1,
    "swear":1,
    "brown":1,
    "overcoat":1,
    "promise":1,
    "jailhouse":1,
    "lethally":1,
    "tells":1,
    "tip":1,
    "peoples":1,
    "hats":1,
    "either":1,
    "smarter":1,
    "baseball":1,
    "watched":1,
    "phonograph":1,
    "louder":1,
    "robe":1,
    "drinking":1,
    "romance":1,
    "pollyanna":1,
    "kati":1,
    "bother":1,
    "we`rob":1,
    "`cause":1,
    "500":1,
    "thousand":1,
    "chances":1,
    "apologies":1,
    "lookin":1,
    "somebody":1,
    "problem":1,
    "egyptian":1,
    "cotton":1,
    "finest":1,
    "stuff":1,
    "nowhere":1,
    "packed":1,
    "heartbeat":1,
    "married":1,
    "handy":1,
    "fists":1,
    "divorced":1,
    "mistake":1,
    "marrying":1,
    "mugging":1,
    "mailman":1,
    "mastermind":1,
    "reservation":1,
    "nothin":1,
    "babyyoure":1,
    "exciting":1,
    "meant":1,
    "gently":1,
    "spreads":1,
    "lips":1,
    "tailed":1,
    "talked":1,
    "neighbor":1,
    "montrose":1,
    "blocking":1,
    "vehicles":1,
    "merely":1,
    "exchanges":1,
    "fiance":1,
    "fiances":1,
    "perfectly":1,
    "identification":1,
    "licence":1,
    "sums":1,
    "reluctant":1,
    "forkful":1,
    "shoes":1,
    "wallet":1,
    "bow":1,
    "samples":1,
    "enjoy":1,
    "hiback":1,
    "carrolls":1,
    "flicker":1,
    "slight":1,
    "reacting":1,
    "final":1,
    "moments":1,
    "purvis`":1,
    "bartons":1,
    "drift":1,
    "impels":1,
    "action":1,
    "headed":1,
    "gunfire":1,
    "fucked":1,
    "lester":1,
    "gillis":1,
    "sinks":1,
    "twenty":1,
    "teller":1,
    "staring":1,
    "cal":1,
    "barrel":1,
    "vaults":1,
    "divider":1,
    "trains":1,
    "detailed":1,
    "map":1,
    "bags":1,
    "foreground":1,
    "miserable":1,
    "piece":1,
    "responsibility":1,
    "hire":1,
    "qualifications":1,
    "understood":1,
    "doingbuilding":1,
    "professional":1,
    "investigators":1,
    "accounting":1,
    "degrees":1,
    "families":1,
    "whatd":1,
    "looked":1,
    "platform":1,
    "hardware":1,
    "terse":1,
    "reply":1,
    "garrulous":1,
    "spots":1,
    "shoeshine":1,
    "shine":1,
    "polish":1,
    "western":1,
    "startled":1,
    "bithe":1,
    "knife":1,
    "sheath":1,
    "boot":1,
    "wcrk":1,
    "union":1,
    "ominous":1,
    "roar":1,
    "pack":1,
    "cumulous":1,
    "clouds":1,
    "palm":1,
    "streamline":1,
    "deco":1,
    "begin":1,
    "patton":1,
    "adonis":1,
    "parking":1,
    "concessions":1,
    "maintenance":1,
    "service":1,
    "feeding":1,
    "gimmick":1,
    "scratch":1,
    "sheet":1,
    "pricks":1,
    "shouting":1,
    "greyhounds":1,
    "tall":1,
    "privileged":1,
    "wins":1,
    "theirs":1,
    "separately":1,
    "gulf":1,
    "coast":1,
    "66":1,
    "denver":1,
    "phoenix":1,
    "25th":1,
    "wore":1,
    "dya":1,
    "track":1,
    "gc":1,
    "lonial":1,
    "steaks":1,
    "guests":1,
    "bets":1,
    "sad":1,
    "surprised":1,
    "expectations":1,
    "passing":1,
    "worse":1,
    "gave":1,
    "herself":1,
    "sullivan":1,
    "bay":1,
    "wd":1,
    "journey":1,
    "\u00e2\u0080\u00a2":1,
    "ng":1,
    "beer":1,
    "swell":1,
    "jc":1,
    "davies":1,
    "shopping":1,
    "bellhop":1,
    "company":1,
    "wets":1,
    "shampoo":1,
    "rubs":1,
    "irregularly":1,
    "stock":1,
    "knees":1,
    "naked":1,
    "haul":1,
    "semiconscious":1,
    "cuff":1,
    "hotel":1,
    "firemen":1,
    "found":1,
    "laid":1,
    "shanghaied":1,
    "thentheyre":1,
    "bus":1,
    "card":1,
    "deputies":1,
    "lounge":1,
    "ease":1,
    "coffee":1,
    "contact":1,
    "fellow":1,
    "nights":1,
    "xray":1,
    "confident":1,
    "bu":1,
    "group\u00e2\u00b0":1,
    "outnumbered":1,
    "mayhem":1,
    "goodbye":1,
    "joking":1,
    "comfortable":1,
    "`where":1,
    "diminutive":1,
    "greet":1,
    "reception":1,
    "per":1,
    "daily":1,
    "diction":1,
    "instances":1,
    "interviewers":1,
    "poise":1,
    "hint":1,
    "hardness":1,
    "evidence":1,
    "save":1,
    "alert":1,
    "policemen":1,
    "spent":1,
    "formative":1,
    "sneer":1,
    "timeheiates":1,
    "specimen":1,
    "imaginative":1,
    "manacles":1,
    "pop":1,
    "fluster":1,
    "props":1,
    "prosecutors":1,
    "broad":1,
    "complies":1,
    "pals":1,
    "foolish":1,
    "grocery":1,
    "shoulda":1,
    "morgan":1,
    "sentenced":1,
    "theft":1,
    "las":1,
    "chigan":1,
    "sympathetic":1,
    "champ":1,
    "york":1,
    "version":1,
    "return":1,
    "prodigal":1,
    "minute":1,
    "seconds":1,
    "press":1,
    "conference":1,
    "fraternizing":1,
    "scheduled":1,
    "prosecute":1,
    "former":1,
    "bartender":1,
    "ganglands":1,
    "melodramatic":1,
    "mouthpiece":1,
    "escorted":1,
    "jailor":1,
    "lewis":1,
    "highly":1,
    "recommended":1,
    "dil":1,
    "lingers":1,
    "cocky":1,
    "joie":1,
    "de":1,
    "vivre":1,
    "thaws":1,
    "accord":1,
    "laws":1,
    "nation":1,
    "permitted":1,
    "incite":1,
    "atmosphere":1,
    "prejudice":1,
    "reeks":1,
    "rancor":1,
    "intolerant":1,
    "malice":1,
    "clanging":1,
    "minds":1,
    "dungeons":1,
    "czars":1,
    "flagbedecked":1,
    "liberty":1,
    "american":1,
    "courtroom":1,
    "direct":1,
    "removed":1,
    "forthwith":1,
    "dangerous":1,
    "safeguarding":1,
    "remove":1,
    "relocate":1,
    "concur":1,
    "strongest":1,
    "embarrass":1,
    "defense":1,
    "prepare":1,
    "itself":1,
    "legal":1,
    "lad":1,
    "murder":1,
    "observe":1,
    "apologize":1,
    "respect":1,
    "putting":1,
    "ripples":1,
    "12th":1,
    "reapplied":1,
    "whispers":1,
    "atta":1,
    "counsel":1,
    "roam":1,
    "soap":1,
    "dutch":1,
    "cleanser":1,
    "jabs":1,
    "cahoons":1,
    "glimpse":1,
    "small":1,
    "cpme":1,
    "hulking":1,
    "ipe":1,
    "materializes":1,
    "ushers":1,
    "locking":1,
    "lew":1,
    "raises":1,
    "plug":1,
    "tying":1,
    "pistol":1,
    "fastest":1,
    "v8":1,
    "wow":1,
    "rearview":1,
    "mirror":1,
    "speedometer":1,
    "impressed":1,
    "write":1,
    "dear":1,
    "damned":1,
    "yours":1,
    "truly":1,
    "relax":1,
    "ajoys":1,
    "speed":1,
    "hum":1,
    "wellhe":1,
    "sang":1,
    "halfsings":1,
    "escaped":1,
    "jailhe":1,
    "immune":1,
    "commenting":1,
    "fireside":1,
    "5th":1,
    "rocked":1,
    "fdr":1,
    "saying":1,
    "mocked":1,
    "emperor":1,
    "haile":1,
    "selassie":1,
    "promised":1,
    "hudson":1,
    "sport":1,
    "howre":1,
    "carole":1,
    "moved":1,
    "newport":1,
    "kentucky":1,
    "sports":1,
    "orders":1,
    "demonstrates":1,
    "palms":1,
    "smart":1,
    "rests":1,
    "zarkovichs":1,
    "soupedup":1,
    "351":1,
    "winchester":1,
    "backyard":1,
    "faints":1,
    "relief":1,
    "bel":1,
    "wornlooking":1,
    "answers":1,
    "harriet":1,
    "oscaris":1,
    "lieboldt":1,
    "accidentally":1,
    "tools":1,
    "repairing":1,
    "mat":1,
    "kept":1,
    "soldier":1,
    "kidney":1,
    "jaw":1,
    "sweeps":1,
    "dumps":1,
    "ass":1,
    "ounce":1,
    "crushing":1,
    "larynx":1,
    "thompsons":1,
    "concealed":1,
    "straps":1,
    "relaxed":1,
    "k":1,
    "independent":1,
    "services":1,
    "letting":1,
    "won":1,
    "third":1,
    "sportmans":1,
    "park":1,
    "ours":1,
    "general":1,
    "october20":1,
    "robbed":1,
    "castle":1,
    "74802":1,
    "1496040":1,
    "river":1,
    "flowing":1,
    "deeper":1,
    "wider":1,
    "unless":1,
    "popular":1,
    "obsolescence":1,
    "policy":1,
    "messenger":1,
    "tide":1,
    "okaybut":1,
    "favor":1,
    "mark":1,
    "hero":1,
    "assholes":1,
    "z\u00ef\u00bf\u00bd":1,
    "united":1,
    "allowing":1,
    "silver":1,
    "lining":1,
    "given":1,
    "motivate":1,
    "create":1,
    "informants":1,
    "suspects":1,
    "interrogated":1,
    "vigorously":1,
    "grilled":1,
    "misplaced":1,
    "sentimentality":1,
    "italy":1,
    "elsewhere":1,
    "daystake":1,
    "gloves":1,
    "dismissed":1,
    "35":1,
    "1215":1,
    "voltage":1,
    "enthusiasm":1,
    "suddenly":1,
    "imbues":1,
    "cameras":1,
    "picked":1,
    "gauntlet":1,
    "flung":1,
    "wanton":1,
    "murderers":1,
    "fighters":1,
    "color":1,
    "desaturates":1,
    "kno":1,
    "\u00e2\u00b0why":1,
    "bust":1,
    "national":1,
    "apprehend":1,
    "seat":1,
    "jesus":1,
    "hamiltn":1,
    "searching":1,
    "desperadoes":1,
    "exposure":1,
    "outrageous":1,
    "grips":1,
    "his45":1,
    "houselights":1,
    "darken":1,
    "finally":1,
    "looney":1,
    "tunes":1,
    "daffy":1,
    "duck":1,
    "parents":1,
    "pet":1,
    "sioux":1,
    "forgot":1,
    "iats":1,
    "choice":1,
    "holdup":1,
    "turning":1,
    "circus":1,
    "terrified":1,
    "presses":1,
    "button":1,
    "rings":1,
    "loudly":1,
    "traffic":1,
    "powers":1,
    "surprises":1,
    "classical":1,
    "motorcycle":1,
    "hale":1,
    "keith":1,
    "scrambles":1,
    "advances":1,
    "jewelry":1,
    "vest":1,
    "sprays":1,
    "bystander":1,
    "jacob":1,
    "solomon":1,
    "stomach":1,
    "crumples":1,
    "delay":1,
    "knocking":1,
    "lift":1,
    "gushes":1,
    "sixteen":1,
    "joe":1,
    "pawlowski":1,
    "fueled":1,
    "adrenaline":1,
    "pure":1,
    "chaos":1,
    "surges":1,
    "proceeds":1,
    "intersection":1,
    "mon":1,
    "thegit":1,
    "goddamnit":1,
    "wanetka":1,
    "uneasy":1,
    "trusts":1,
    "worry":1,
    "nobodys":1,
    "atropine":1,
    "sulphate":1,
    "clean":1,
    "8000":1,
    "wind":1,
    "reno":1,
    "lies":1,
    "sound":1,
    "calling":1,
    "doc":1,
    "begging":1,
    "until":1,
    "skull":1,
    "unbearable":1,
    "god":1,
    "harrowing":1,
    "hurries":1,
    "blocks":1,
    "patient":1,
    "h":1,
    "bullet":1,
    "resting":1,
    "brain":1,
    "swelling":1,
    "suffering":1,
    "sedate":1,
    "interfere":1,
    "remains":1,
    "steadfast":1,
    "soul":1,
    "wisconsin":1,
    "nearest":1,
    "airport":1,
    "rhinelander":1,
    "plane":1,
    "fifteen":1,
    "below":1,
    "lit":1,
    "positions":1,
    "winchester351":1,
    "autoloader":1,
    "stiffly":1,
    "northwest":1,
    "barroom":1,
    "o":1,
    "estate":1,
    "forem":1,
    "blockade":1,
    "risk":1,
    "humiliating":1,
    "southwest":1,
    "accept":1,
    "framed":1,
    "doorwa":1,
    "shatters":1,
    "explode":1,
    "zing":1,
    "promptly":1,
    "drunk":1,
    "unload":1,
    "targets":1,
    "darts":1,
    "leaps":1,
    "porch":1,
    "strike":1,
    "fleeing":1,
    "parallel":1,
    "further":1,
    "100":1,
    "pumpaction":1,
    "rolling":1,
    "10gauge":1,
    "loading":1,
    "bringing":1,
    "glimpses":1,
    "beneath":1,
    "brow":1,
    "reloads":1,
    "signals":1,
    "crossed":1,
    "higher":1,
    "contoured":1,
    "landscape":1,
    "thetexans":1,
    "possibilities":1,
    "whrthe":1,
    "level":1,
    "addition":1,
    "whoever":1,
    "advantage":1,
    "legs":1,
    "hauls":1,
    "stain":1,
    "blooms":1,
    "belt":1,
    "felled":1,
    "vests":1,
    "manages":1,
    "ofte":1,
    "fraction":1,
    "baums":1,
    "blastsraway":1,
    "cjimbing":1,
    "pulling":1,
    "shoreline":1,
    "slows":1,
    "birds":1,
    "letem":1,
    "`aster":1,
    "engine":1,
    "veer":1,
    "hurtles":1,
    "screeches":1,
    "skids":1,
    "sideways":1,
    "ripping":1,
    "madalas":1,
    "same":1,
    "double":1,
    "odd":1,
    "tear":1,
    "slam":1,
    "wife":1,
    "bullshit":1,
    "flash":1,
    "anger":1,
    "desperately":1,
    "searches":1,
    "dillinger`s":1,
    "response":1,
    "squeezes":1,
    "grimaces":1,
    "pain":1,
    "a7`gasp":1,
    "grip":1,
    "relaxes":1,
    "tcgiance":1,
    "lying":1,
    "motionless":1,
    "covered":1,
    "dishevelled":1,
    "distraught":1,
    "restarts":1,
    "empties":1,
    "lye":1,
    "pharmacy":1,
    "shovelling":1,
    "earth":1,
    "body":1,
    "impassive":1,
    "cruises":1,
    "glancing":1,
    "west":1,
    "stab":1,
    "glare":1,
    "517am":1,
    "grim":1,
    "reactions":1,
    "lost":1,
    "colleagues":1,
    "california":1,
    "bunch":1,
    "instead":1,
    "sidewalks":1,
    "revelers":1,
    "someday":1,
    "innocent":1,
    "bystanders":1,
    "shooting":1,
    "example":1,
    "number":1,
    "push":1,
    "congress":1,
    "enterprise":1,
    "nittis":1,
    "dials":1,
    "earpiece":1,
    "okie":1,
    "inbred":1,
    "sonsabitches":1,
    "backwoods":1,
    "cocksuckers":1,
    "syphilitic":1,
    "idiot":1,
    "babyface":1,
    "v":1,
    "missed":1,
    "=axrrested":1,
    "fbi":1,
    "headphones":1,
    "noting":1,
    "conversation":1,
    "steno":1,
    "pad":1,
    "stenographers":1,
    "listens":1,
    "austin":1,
    "eve":1,
    "concerned":1,
    "rather":1,
    "however":1,
    "turned":1,
    "everythings":1,
    "different":1,
    "glows":1,
    "tangible":1,
    "caracas":1,
    "rio":1,
    "pan":1,
    "oanliner":1,
    "singapore":1,
    "f6reignlooking":1,
    "lotta":1,
    "anytime":1,
    "predawn":1,
    "sides":1,
    "niece":1,
    "kodak":1,
    "brownie":1,
    "breakfast":1,
    "myras":1,
    "diner":1,
    "theyve":1,
    "hanging":1,
    "troubles":1,
    "laughing":1,
    "after\u00e2\u0080\u009e":1,
    "touches":1,
    "motherless":1,
    "comfort":1,
    "truth":1,
    "gotten":1,
    "truthful":1,
    "land":1,
    "fields":1,
    "eartenders":1,
    "larry":1,
    "streng":1,
    "`w":1,
    "re":1,
    "s":1,
    "oakley":1,
    "potomac":1,
    "buys":1,
    "tavern":1,
    "disappeared":1,
    "taxi":1,
    "lap":1,
    "sea":1,
    "blue":1,
    "2030":1,
    "surround":1,
    "hauled":1,
    "tips":1,
    "bounces":1,
    "pillar":1,
    "tears":1,
    "stream":1,
    "cried":1,
    "et":1,
    "piss":1,
    "bugs":1,
    "rats":1,
    "evelids":1,
    "drifts":1,
    "awake":1,
    "denied":1,
    "humiliation":1,
    "embarrassed":1,
    "urinates":1,
    "squaw":1,
    "stinking":1,
    "slaps":1,
    "collapse":1,
    "meetat":1,
    "addison":1,
    "1148":1,
    "dust":1,
    "sister":1,
    "vacantly":1,
    "bruised":1,
    "filthy":1,
    "ripped":1,
    "sordid":1,
    "hookers":1,
    "drunks":1,
    "dykes":1,
    "laceup":1,
    "liane":1,
    "tow":1,
    "sent":1,
    "goose":1,
    "chase":1,
    "abuse":1,
    "interrogation":1,
    "slapped":1,
    "fatboy":1,
    "square":1,
    "resists":1,
    "nearly":1,
    "uncuff":1,
    "smaller":1,
    "steel":1,
    "cable":1,
    "uncuffs":1,
    "restrooms":1,
    "utp":1,
    "restroom":1,
    "embarrassment":1,
    "agitated":1,
    "lure":1,
    "fine":1,
    "romania":1,
    "crooked":1,
    "annas":1,
    "chin":1,
    "plus":1,
    "25000":1,
    "reward":1,
    "oneills":1,
    "splits":1,
    "deportation":1,
    "deep":1,
    "pool":1,
    "shadow":1,
    "concealing":1,
    "aid":1,
    "apprehending":1,
    "influence":1,
    "socialize":1,
    "cooperate":1,
    "boat":1,
    "48":1,
    "hours":1,
    "games":1,
    "caves":1,
    "piayin`":1,
    "plenty":1,
    "speeches":1,
    "screw":1,
    "mail":1,
    "whack":1,
    "ship":1,
    "payroll":1,
    "factories":1,
    "rockford":1,
    "11":1,
    "handles":1,
    "include":1,
    "ruddy":1,
    "bodied":1,
    "barker":1,
    "prohsco":1,
    "strong":1,
    "pole":1,
    "jimmie":1,
    "15":1,
    "million":1,
    "300000":1,
    "feeling":1,
    "ghosts":1,
    "hothead":1,
    "liked":1,
    "reason":1,
    "minority":1,
    "czernakys":1,
    "interrupts":1,
    "diilinger":1,
    "letter":1,
    "guarded":1,
    "milan":1,
    "someplace":1,
    "distracted":1,
    "20000":1,
    "quit":1,
    "wednesday":1,
    "varadero":1,
    "beach":1,
    "havana":1,
    "plans":1,
    "understand":1,
    "harbored":1,
    "alexander":1,
    "sink":1,
    "refrigeration":1,
    "goin":1,
    "downtown":1,
    "waitressing":1,
    "butter":1,
    "chicken":1,
    "slide":1,
    "tap":1,
    "hung":1,
    "biographs":1,
    "fullerton":1,
    "11th":1,
    "sunlight":1,
    "gaps":1,
    "downtowns":1,
    "skyscrapers":1,
    "illuminates":1,
    "licenses":1,
    "examination":1,
    "8th":1,
    "6th":1,
    "glasses":1,
    "moustache":1,
    "boards":1,
    "bail":1,
    "bondsmen":1,
    "civilian":1,
    "workers":1,
    "thr4gh":1,
    "strolls":1,
    "lions":1,
    "den":1,
    "hunters":1,
    "audacity":1,
    "elevates":1,
    "triumph":1,
    "resources":1,
    "technology`and":1,
    "organization":1,
    "glove":1,
    "gratification":1,
    "internal":1,
    "absurdity":1,
    "history":1,
    "ghost":1,
    "pass":1,
    "needed":1,
    "test":1,
    "whichever":1,
    "shows":1,
    "lighting":1,
    "blouse":1,
    "excuse":1,
    "hadnt":1,
    "occurred":1,
    "marbroa":1,
    "moptop":1,
    "starring":1,
    "manhattan":1,
    "melodrama":1,
    "sergeant":1,
    "thin":1,
    "showtime":1,
    "nears":1,
    "noshow":1,
    "eviscerating":1,
    "memo":1,
    "brush":1,
    "sweep":1,
    "latecomers":1,
    "rushing":1,
    "started":1,
    "3":1,
    "attorney":1,
    "referring":1,
    "session":1,
    "robert":1,
    "irony":1,
    "inspired":1,
    "hollywood":1,
    "75":1,
    "spot":1,
    "rearviewyou":1,
    "shots":1,
    "basfement":1,
    "trash":1,
    "the=two":1,
    "groups":1,
    "closes":1,
    "int":1,
    "managks":1,
    "comin":1,
    "essaness":1,
    "manager":1,
    "pretend":1,
    "nothings":1,
    "receipts":1,
    "37":1,
    "sheffield":1,
    "avenue":1,
    "stakeout":1,
    "fuck":1,
    "surans":1,
    "barrels":1,
    "mesmerized":1,
    "hyper":1,
    "reality":1,
    "thee":1,
    "satin":1,
    "tones":1,
    "screen":1,
    "myrna":1,
    "loys":1,
    "insouciancelike":1,
    "speaks":1,
    "actual":1,
    "celluloid":1,
    "lived":1,
    "startle":1,
    "message":1,
    "count":1,
    "inwards":1,
    "them=e":1,
    "freighter":1,
    "title":1,
    "stirring":1,
    "seems":1,
    "liberated":1,
    "released":1,
    "somehow":1,
    "thoughts":1,
    "match":1,
    "recognize":1,
    "walking":1,
    "zarkovich`s":1,
    "closer":1,
    "sweat":1,
    "theory":1,
    "gunfighter":1,
    "beatup":1,
    "passerwinstead":1,
    "raising":1,
    "9mm":1,
    "browning":1,
    "stalls":1,
    "riveted":1,
    "lacks":1,
    "power":1,
    "slammed":1,
    "lethal":1,
    "intent":1,
    "focuses":1,
    "milliseconds":1,
    "safety":1,
    "fumbles":1,
    "hhalt":1,
    "slowed":1,
    "bumps":1,
    "pedestrian":1,
    "ella":1,
    "natasky":1,
    "millisecond":1,
    "gentleman":1,
    "impulse":1,
    "punches":1,
    "dillingersbrain":1,
    "stem":1,
    "underneath":1,
    "frame":1,
    "lens":1,
    "eyeglasses":1,
    "breathes":1,
    "speak":1,
    "automatic":1,
    "speech":1,
    "charles":1,
    "unloads":1,
    "stress":1,
    "couldnt":1,
    "washington":1,
    "zarkovich`houlders":1,
    "gathering":1,
    "s=and":1,
    "glazing":1,
    "diflingers":1,
    "dreamy":1,
    "marquee":1,
    "trolley":1,
    "cobblestone":1,
    "hundreds":1,
    "locus":1,
    "straightens":1,
    "collar":1,
    "lint":1,
    "pants":1,
    "leg":1,
    "freezes":1,
    "demonstrate":1,
    "instantly":1,
    "thatthey":1,
    "intend":1,
    "roofto":1,
    "is\u00e2\u00b0":1,
    "snipers":1,
    "objective":1,
    "wide":1,
    "sawedoff":1,
    "aimed":1,
    "squarely":1,
    "alvins":1,
    "displaying":1,
    "warily":1,
    "stepbystep":1,
    "inches":1,
    "extexas":1,
    "ranger":1,
    "gunfighters":1,
    "triggertime":1,
    "breathe":1,
    "roof":1,
    "someones":1,
    "yelling":1,
    "canada":1,
    "mostly":1,
    "fort":1,
    "worth":1,
    "thereabouts":1,
    "tyler":1,
    "planned":1,
    "needing":1,
    "pointed":1,
    "thewahpeton":1,
    "robbery":1,
    "waves":1,
    "composure":1,
    "fishing":1,
    "prowess":1,
    "myself":1,
    "marlin":1,
    "thinking":1,
    "partner":1,
    "tie":1,
    "questions":1,
    "placed":1,
    "=":1,
    "eier":1,
    "reached":1,
    "rzf":1,
    "le":1,
    "stare":1,
    "medical":1,
    "student":1,
    "morgue":1,
    "reminder":1,
    "continue":1,
    "punks":1,
    "hoodlums":1,
    "golden":1,
    "despise":1,
    "outlaw":1,
    "adversary":1,
    "punk":1,
    "hoodlum":1,
    "lawyerspecial":1,
    "dealing":1,
    "cigarette":1,
    "mats":1,
    "damage":1,
    "asked":1,
    "closely":1,
    "herbert":2,
    "uniforms":2,
    "nose":2,
    "shirts":2,
    "clubs":2,
    "lam":2,
    "shirt":2,
    "flashes":2,
    "badge":2,
    "poker":2,
    "entrance":2,
    "convicts":2,
    "enter":2,
    "labeled":2,
    "ed":2,
    "cons":2,
    "mister":2,
    "bat":2,
    "swing":2,
    "covers":2,
    "stunned":2,
    "tight":2,
    "food":2,
    "cmon":2,
    "thinks":2,
    "shoots":2,
    "arrives":2,
    "position":2,
    "east":2,
    "walters":2,
    "drag":2,
    "pal":2,
    "fear":2,
    "snaps":2,
    "butt":2,
    "center":2,
    "brings":2,
    "fried":2,
    "sandwiches":2,
    "newspaper":2,
    "norris":2,
    "maam":2,
    "lopsided":2,
    "eight":2,
    "toddler":2,
    "bill":2,
    "struggling":2,
    "fool":2,
    "hasnt":2,
    "lifts":2,
    "weapons":2,
    "form":2,
    "wildly":2,
    "range":2,
    "elbow":2,
    "regains":2,
    "massive":2,
    "shit":2,
    "pulled":2,
    "main":2,
    "auto":2,
    "widen":2,
    "port":2,
    "rises":2,
    "essex":2,
    "cicero":2,
    "dealer":2,
    "madam":2,
    "coming":2,
    "marty":2,
    "later":2,
    "sit":2,
    "listen":2,
    "flee":2,
    "crossing":2,
    "must":2,
    "wage":2,
    "war":2,
    "free":2,
    "depression":2,
    "build":2,
    "crooks":2,
    "bureaus":2,
    "apprehended":2,
    "kidnappers":2,
    "weve":2,
    "mean":2,
    "personally":2,
    "field":2,
    "experience":2,
    "silent":2,
    "wild":2,
    "soft":2,
    "use":2,
    "feed":2,
    "yesterday":2,
    "highway":2,
    "ohio":2,
    "heading":2,
    "cincinnati":2,
    "hells":2,
    "task":2,
    "absolutely":2,
    "imbued":2,
    "follow":2,
    "grey":2,
    "suits":2,
    "ties":2,
    "machine":2,
    "staircase":2,
    "techniques":2,
    "photographers":2,
    "newsmen":2,
    "purpose":2,
    "hoovers":2,
    "struggles":2,
    "forces":2,
    "flashbulbs":2,
    "gable":2,
    "president":2,
    "alarm":2,
    "job":2,
    "cash":2,
    "canvas":2,
    "bag":2,
    "disarms":2,
    "uses":2,
    "shield":2,
    "backs":2,
    "appreciate":2,
    "hiding":2,
    "desk":2,
    "calm":2,
    "shop":2,
    "windows":2,
    "detectives":2,
    "board":2,
    "boyard":2,
    "miles":2,
    "6":2,
    "bridge":2,
    "rear":2,
    "nails":2,
    "tires":2,
    "patzkes":2,
    "shock":2,
    "fashion":2,
    "tree":2,
    "reaches":2,
    "snatches":2,
    "freeman":2,
    "note":2,
    "doris":2,
    "known":2,
    "hows":2,
    "cunning":2,
    "everyone":2,
    "failure":2,
    "ma":2,
    "farms":2,
    "lawyer":2,
    "named":2,
    "needs":2,
    "today":2,
    "tomorrow":2,
    "doin":2,
    "forever":2,
    "steady":2,
    "learned":2,
    "arent":2,
    "dancing":2,
    "skin":2,
    "feel":2,
    "suit":2,
    "world":2,
    "frechette":2,
    "bar":2,
    "french":2,
    "fathers":2,
    "harris":2,
    "bye":2,
    "dance":2,
    "shoulders":2,
    "inch":2,
    "distant":2,
    "slow":2,
    "italian":2,
    "menominee":2,
    "indian":2,
    "steuben":2,
    "club":2,
    "meeting":2,
    "flattery":2,
    "cool":2,
    "returns":2,
    "girlfriends":2,
    "rob":2,
    "whyd":2,
    "carefully":2,
    "met":2,
    "youd":2,
    "also":2,
    "child":2,
    "nice":2,
    "restaurant":2,
    "dollar":2,
    "somebodys":2,
    "michigan":2,
    "indicates":2,
    "interest":2,
    "luck":2,
    "listening":2,
    "plays":2,
    "drop":2,
    "bermans":2,
    "sidewalk":2,
    "customer":2,
    "counter":2,
    "lady":2,
    "thru":2,
    "half":2,
    "finds":2,
    "raised":2,
    "mooresville":2,
    "daddy":2,
    "raise":2,
    "dumb":2,
    "clothes":2,
    "else":2,
    "bedroom":2,
    "kitchen":2,
    "laughter":2,
    "drinks":2,
    "caught":2,
    "making":2,
    "heat":2,
    "rolls":2,
    "slowly":2,
    "sherone":2,
    "apartments":2,
    "wilson":2,
    "scott":2,
    "mchenry":2,
    "drivers":2,
    "travel":2,
    "ladies":2,
    "vi":2,
    "license":2,
    "carry":2,
    "thanks":2,
    "apt":2,
    "302":2,
    "spins":2,
    "railing":2,
    "everybody":2,
    "getaway":2,
    "lookout":2,
    "calms":2,
    "request":2,
    "college":2,
    "type":2,
    "porter":2,
    "gentlemen":2,
    "salesmen":2,
    "mens":2,
    "begins":2,
    "boots":2,
    "built":2,
    "brim":2,
    "station":2,
    "excited":2,
    "almost":2,
    "filled":2,
    "wire":2,
    "300":2,
    "bookies":2,
    "warm":2,
    "sunglasses":2,
    "wearing":2,
    "straw":2,
    "dog":2,
    "midwest":2,
    "whatever":2,
    "florida":2,
    "somewhere":2,
    "tired":2,
    "checking":2,
    "crystal":2,
    "allows":2,
    "prospect":2,
    "green":2,
    "send":2,
    "mine":2,
    "already":2,
    "carries":2,
    "stretches":2,
    "reach":2,
    "hears":2,
    "burst":2,
    "bloody":2,
    "deputy":2,
    "reacts":2,
    "reads":2,
    "guy":2,
    "death":2,
    "toe":2,
    "wed":2,
    "bring":2,
    "area":2,
    "news":2,
    "amazing":2,
    "penitentiary":2,
    "ofthe":2,
    "charismatic":2,
    "bob":2,
    "prosecutor":2,
    "held":2,
    "50":2,
    "t":2,
    "helped":2,
    "times":2,
    "flat":2,
    "reveal":2,
    "cellblock":2,
    "electric":2,
    "hearing":2,
    "shackles":2,
    "responsible":2,
    "course":2,
    "afraid":2,
    "staying":2,
    "relieved":2,
    "days":2,
    "trial":2,
    "lynching":2,
    "states":2,
    "march":2,
    "length":2,
    "guard":2,
    "lever":2,
    "prisoners":2,
    "trustees":2,
    "toilet":2,
    "emerges":2,
    "1934":2,
    "america":2,
    "roundup":2,
    "appears":2,
    "welcome":2,
    "enough":2,
    "sight":2,
    "34":2,
    "accident":2,
    "lay":2,
    "balance":2,
    "em":2,
    "nationwide":2,
    "pay":2,
    "sign":2,
    "cowboys":2,
    "system":2,
    "means":2,
    "cloud":2,
    "escaping":2,
    "chance":2,
    "word":2,
    "aged":2,
    "gmen":2,
    "junior":2,
    "surrounded":2,
    "audience":2,
    "photo":2,
    "rise":2,
    "sitting":2,
    "heads":2,
    "loud":2,
    "til":2,
    "blows":2,
    "roger":2,
    "arrive":2,
    "plate":2,
    "scream":2,
    "loose":2,
    "berg":2,
    "bulletproof":2,
    "dives":2,
    "nelsons":2,
    "screaming":2,
    "nobody":2,
    "frustrated":2,
    "pressure":2,
    "becomes":2,
    "mother":2,
    "doctor":2,
    "soon":2,
    "bohemia":2,
    "manitowish":2,
    "fly":2,
    "anyway":2,
    "chevrolet":2,
    "passenger":2,
    "enemies":2,
    "figure":2,
    "races":2,
    "figures":2,
    "above":2,
    "giving":2,
    "bastards":2,
    "wear":2,
    "shakes":2,
    "packard":2,
    "wheel":2,
    "happens":2,
    "quickly":2,
    "continues":2,
    "picks":2,
    "interstate":2,
    "wake":2,
    "week":2,
    "manila":2,
    "carefree":2,
    "loved":2,
    "5000":2,
    "dart":2,
    "supposed":2,
    "17":2,
    "happen":2,
    "wrist":2,
    "hall":2,
    "stumbles":2,
    "hesitate":2,
    "cast":2,
    "sunday":2,
    "large":2,
    "campbell":2,
    "cuts":2,
    "together":2,
    "reminded":2,
    "hed":2,
    "wrists":2,
    "brushes":2,
    "jacket":2,
    "passed":2,
    "signal":2,
    "orange":2,
    "skirt":2,
    "shirley":2,
    "temple":2,
    "booth":2,
    "hour":2,
    "district":2,
    "gerry":2,
    "janitor":2,
    "shapiro":2,
    "blackie":2,
    "sudden":2,
    "instant":2,
    "target":2,
    "doorway":2,
    "senses":2,
    "paralyzed":2,
    "trigger":2,
    "380":2,
    "attention":2,
    "mouth":2,
    "gunhandling":2,
    "seem":2,
    "focus":2,
    "curb":3,
    "backseat":3,
    "sing":3,
    "watch":3,
    "older":3,
    "barred":3,
    "entered":3,
    "sounds":3,
    "address":3,
    "dainard":3,
    "throw":3,
    "pontiac":3,
    "weapon":3,
    "smooth":3,
    "crosses":3,
    "tracks":3,
    "far":3,
    "fire":3,
    "bitch":3,
    "swings":3,
    "20":3,
    "viola":3,
    "whos":3,
    "1933":3,
    "heard":3,
    "aims":3,
    "yards":3,
    "crashes":3,
    "wound":3,
    "believe":3,
    "hey":3,
    "oscar":3,
    "hold":3,
    "twice":3,
    "illinois":3,
    "syndicate":3,
    "hiya":3,
    "roll":3,
    "ya":3,
    "envelope":3,
    "outlaws":3,
    "lines":3,
    "government":3,
    "short":3,
    "presence":3,
    "suydam":3,
    "middle":3,
    "catching":3,
    "catch":3,
    "arrested":3,
    "wanted":3,
    "ive":3,
    "lincoln":3,
    "ask":3,
    "henry":3,
    "+":3,
    "future":3,
    "dressed":3,
    "modern":3,
    "pushes":3,
    "aside":3,
    "step":3,
    "game":3,
    "seven":3,
    "vault":3,
    "weyland":3,
    "draws":3,
    "cracks":3,
    "between":3,
    "stays":3,
    "angry":3,
    "rushes":3,
    "buick":3,
    "blow":3,
    "detective":3,
    "hostages":3,
    "rounds":3,
    "remember":3,
    "laugh":3,
    "true":3,
    "movies":3,
    "st":3,
    "louis":3,
    "rogers":3,
    "brought":3,
    "every":3,
    "family":3,
    "heart":3,
    "ones":3,
    "damn":3,
    "hole":3,
    "grew":3,
    "goddamn":3,
    "farm":3,
    "crowds":3,
    "train":3,
    "set":3,
    "guys":3,
    "kind":3,
    "score":3,
    "cuba":3,
    "yet":3,
    "top":3,
    "desperate":3,
    "best":3,
    "might":3,
    "music":3,
    "ends":3,
    "drink":3,
    "beautiful":3,
    "5":3,
    "foot":3,
    "straight":3,
    "playing":3,
    "nervous":3,
    "glad":3,
    "cross":3,
    "e":3,
    "jack":3,
    "smiles":3,
    "dakota":3,
    "check":3,
    "howd":3,
    "exactly":3,
    "living":3,
    "lie":3,
    "serious":3,
    "thing":3,
    "places":3,
    "hot":3,
    "dress":3,
    "catena":3,
    "frank":3,
    "dropped":3,
    "keys":3,
    "bought":3,
    "alone":3,
    "ticket":3,
    "waiting":3,
    "rage":3,
    "mans":3,
    "boxes":3,
    "morning":3,
    "trying":3,
    "bed":3,
    "went":3,
    "happened":3,
    "please":3,
    "carrying":3,
    "suitcases":3,
    "deployed":3,
    "leonard":3,
    "pocket":3,
    "joke":3,
    "show":3,
    "shoe":3,
    "wasnt":3,
    "talking":3,
    "phil":3,
    "dandrea":3,
    "arizona":3,
    "meet":3,
    "tucson":3,
    "catches":3,
    "weeks":3,
    "ball":3,
    "anywhere":3,
    "mrs":3,
    "case":3,
    "clerk":3,
    "hits":3,
    "act":3,
    "probably":3,
    "oh":3,
    "30":3,
    "reporters":3,
    "less":3,
    "none":3,
    "estill":3,
    "store":3,
    "clown":3,
    "baker":3,
    "court":3,
    "alright":3,
    "care":3,
    "block":3,
    "bryant":3,
    "opening":3,
    "cells":3,
    "14":3,
    "corridor":3,
    "cahoon":3,
    "paper":3,
    "belly":3,
    "following":3,
    "watching":3,
    "says":3,
    "frozen":3,
    "took":3,
    "telephone":3,
    "gimme":3,
    "split":3,
    "bad":3,
    "business":3,
    "high":3,
    "800000":3,
    "carroll":3,
    "jumps":3,
    "answer":3,
    "moves":3,
    "happy":3,
    "driver":3,
    "unarmed":3,
    "bullets":3,
    "gauge":3,
    "ravine":3,
    "drops":3,
    "idea":3,
    "womans":3,
    "tough":3,
    "immigration":3,
    "tuesday":3,
    "exits":3,
    "theater":3,
    "cigar":3,
    "playin":3,
    "charlie":3,
    "reineckes":3,
    "clarence":3,
    "parked":4,
    "hair":4,
    "guards":4,
    "play":4,
    "wants":4,
    "side":4,
    "open":4,
    "others":4,
    "checks":4,
    "route":4,
    "clear":4,
    "hurry":4,
    "rifle":4,
    "empty":4,
    "heavy":4,
    "40":4,
    "change":4,
    "coats":4,
    "45s":4,
    "round":4,
    "knee":4,
    "ground":4,
    "arrest":4,
    "exit":4,
    "killed":4,
    "full":4,
    "steps":4,
    "tosses":4,
    "j":4,
    "edgar":4,
    "great":4,
    "anybody":4,
    "most":4,
    "f":4,
    "personal":4,
    "himself":4,
    "clark":4,
    "stand":4,
    "hesitates":4,
    "shoulder":4,
    "cops":4,
    "glass":4,
    "should":4,
    "shoot":4,
    "without":4,
    "ahead":4,
    "past":4,
    "city":4,
    "police":4,
    "throws":4,
    "being":4,
    "dinner":4,
    "rice":4,
    "freddie":4,
    "gives":4,
    "among":4,
    "someone":4,
    "piquett":4,
    "mind":4,
    "grin":4,
    "follows":4,
    "flandreau":4,
    "couple":4,
    "could":4,
    "used":4,
    "things":4,
    "gilbert":4,
    "walks":4,
    "matter":4,
    "doors":4,
    "everything":4,
    "died":4,
    "apartment":4,
    "criminal":4,
    "live":4,
    "sheridan":4,
    "carter":4,
    "seen":4,
    "rest":4,
    "help":4,
    "part":4,
    "stop":4,
    "walk":4,
    "girls":4,
    "awhile":4,
    "tonight":4,
    "house":4,
    "quiet":4,
    "wont":4,
    "guns":4,
    "taking":4,
    "sheriff":4,
    "holley":4,
    "fix":4,
    "break":4,
    "stick":4,
    "very":4,
    "air":4,
    "handcuffs":4,
    "guarantee":4,
    "crown":4,
    "mockery":4,
    "corner":4,
    "still":4,
    "home":4,
    "1":4,
    "justice":4,
    "hamiltons":4,
    "kill":4,
    "alive":4,
    "winsteads":4,
    "probasco":4,
    "polly":4,
    "jimmy":4,
    "mexico":4,
    "gangster":4,
    "taken":4,
    "sam":5,
    "shoves":5,
    "five":5,
    "meter":5,
    "join":5,
    "escape":5,
    "johnnie":5,
    "wall":5,
    "table":5,
    "once":5,
    "blood":5,
    "firing":5,
    "try":5,
    "pull":5,
    "shouses":5,
    "cause":5,
    "told":5,
    "ready":5,
    "dollars":5,
    "cover":5,
    "melvin":5,
    "safe":5,
    "crime":5,
    "many":5,
    "director":5,
    "pretty":5,
    "special":5,
    "white":5,
    "own":5,
    "tellers":5,
    "keeps":5,
    "folks":5,
    "along":5,
    "even":5,
    "youll":5,
    "ten":5,
    "doll":5,
    "holds":5,
    "rorer":5,
    "dock":5,
    "yeah":5,
    "having":5,
    "approaches":5,
    "south":5,
    "leans":5,
    "chair":5,
    "lot":5,
    "nitti":5,
    "since":5,
    "glances":5,
    "done":5,
    "hurt":5,
    "much":5,
    "always":5,
    "wrong":5,
    "night":5,
    "race":5,
    "elevator":5,
    "madala":5,
    "law":5,
    "hear":5,
    "cell":5,
    "close":5,
    "honor":5,
    "prisoner":5,
    "isnt":5,
    "youngblood":5,
    "warden":5,
    "talk":5,
    "ways":5,
    "enemy":5,
    "woods":5,
    "water":5,
    "fall":5,
    "both":5,
    "beast":5,
    "waits":6,
    "cold":6,
    "end":6,
    "van":6,
    "armed":6,
    "months":6,
    "ago":6,
    "women":6,
    "id":6,
    "kicks":6,
    "shotgun":6,
    "chest":6,
    "son":6,
    "breaks":6,
    "smile":6,
    "keep":6,
    "sorry":6,
    "arm":6,
    "department":6,
    "sage":6,
    "baby":6,
    "find":6,
    "moment":6,
    "enters":6,
    "low":6,
    "road":6,
    "laughs":6,
    "little":6,
    "big":6,
    "young":6,
    "four":6,
    "tries":6,
    "stands":6,
    "crowd":6,
    "made":6,
    "comes":6,
    "love":6,
    "ford":6,
    "picture":6,
    "jail":6,
    "day":6,
    "marbro":6,
    "arms":7,
    "walter":7,
    "makley":7,
    "die":7,
    "floor":7,
    "falls":7,
    "slams":7,
    "miss":7,
    "honey":7,
    "floyd":7,
    "10":7,
    "sits":7,
    "investigation":7,
    "berman":7,
    "wanna":7,
    "zarkovich":7,
    "those":7,
    "drive":7,
    "while":7,
    "north":7,
    "boys":7,
    "because":7,
    "state":7,
    "years":7,
    "first":7,
    "country":7,
    "does":7,
    "office":7,
    "agents":7,
    "cannot":7,
    "called":7,
    "minutes":7,
    "cop":7,
    "fast":7,
    "turn":7,
    "beat":7,
    "puts":7,
    "start":7,
    "each":7,
    "just":7,
    "alvin":7,
    "leave":7,
    "holding":7,
    "group":7,
    "billies":7,
    "woman":7,
    "better":7,
    "stares":7,
    "ever":7,
    "before":7,
    "stops":7,
    "came":7,
    "watches":7,
    "thought":7,
    "trees":7,
    "old":8,
    "line":8,
    "prison":8,
    "dietrich":8,
    "wait":8,
    "inside":8,
    "room":8,
    "thompson":8,
    "window":8,
    "grabs":8,
    "takes":8,
    "reds":8,
    "running":8,
    "moving":8,
    "dellinger":8,
    "baum":8,
    "barton":8,
    "harry":8,
    "tolson":8,
    "bank":8,
    "which":8,
    "second":8,
    "lights":8,
    "lets":8,
    "eye":8,
    "cars":8,
    "banks":8,
    "ear":8,
    "doing":8,
    "makes":8,
    "leaves":8,
    "cowley":8,
    "getting":8,
    "federal":8,
    "month":8,
    "said":8,
    "wheres":8,
    "life":8,
    "give":8,
    "again":8,
    "alley":8,
    "tommy":8,
    "gone":8,
    "movie":8,
    "nods":9,
    "forward":9,
    "black":9,
    "meanwhile":9,
    "shouse":9,
    "few":9,
    "yes":9,
    "friends":9,
    "gotta":9,
    "doesnt":9,
    "against":9,
    "hands":9,
    "outside":9,
    "feet":9,
    "thank":9,
    "did":9,
    "boy":9,
    "another":9,
    "dark":9,
    "public":9,
    "real":9,
    "maybe":9,
    "any":9,
    "name":9,
    "biograph":9,
    "year":10,
    "why":10,
    "nothing":10,
    "didnt":10,
    "sir":10,
    "shes":10,
    "anything":10,
    "sure":10,
    "stay":10,
    "new":10,
    "run":10,
    "indiana":10,
    "our":10,
    "hat":10,
    "girl":10,
    "reinecke":10,
    "behind":11,
    "last":11,
    "45":11,
    "cut":11,
    "hit":11,
    "cant":11,
    "towards":11,
    "fires":11,
    "shot":11,
    "gonna":11,
    "anna":11,
    "may":11,
    "move":11,
    "only":11,
    "some":11,
    "would":11,
    "make":11,
    "had":11,
    "point":11,
    "place":12,
    "opens":12,
    "face":12,
    "onto":12,
    "front":12,
    "looking":12,
    "left":12,
    "under":12,
    "aint":12,
    "tell":12,
    "hell":12,
    "than":12,
    "bureau":12,
    "knows":12,
    "never":13,
    "work":13,
    "hamilton":13,
    "goes":13,
    "gun":13,
    "across":13,
    "street":13,
    "put":13,
    "something":13,
    "whats":13,
    "gets":13,
    "these":14,
    "long":14,
    "pulls":14,
    "money":14,
    "dead":14,
    "let":14,
    "chicago":14,
    "more":14,
    "people":14,
    "think":14,
    "karpis":14,
    "call":15,
    "pierpont":15,
    "hand":15,
    "runs":15,
    "coat":15,
    "ill":15,
    "time":16,
    "homer":16,
    "johnny":16,
    "agent":16,
    "turns":16,
    "starts":17,
    "next":17,
    "three":17,
    "okay":17,
    "way":17,
    "need":17,
    "mr":17,
    "after":17,
    "theres":18,
    "other":18,
    "hoover":18,
    "nelson":18,
    "take":18,
    "am":18,
    "red":19,
    "men":19,
    "head":19,
    "good":19,
    "us":19,
    "winstead":19,
    "sees":20,
    "theyre":20,
    "say":20,
    "look":21,
    "too":21,
    "around":21,
    "door":22,
    "been":22,
    "or":22,
    "john":23,
    "want":23,
    "going":23,
    "come":24,
    "well":24,
    "when":24,
    "eyes":25,
    "has":25,
    "thats":26,
    "off":26,
    "if":26,
    "were":27,
    "through":27,
    "youre":27,
    "them":28,
    "two":28,
    "over":28,
    "there":28,
    "man":29,
    "im":29,
    "then":30,
    "can":30,
    "got":30,
    "their":31,
    "down":31,
    "about":31,
    "dillingers":31,
    "how":31,
    "billie":31,
    "see":32,
    "away":32,
    "car":33,
    "by":33,
    "an":33,
    "hes":33,
    "where":33,
    "one":33,
    "have":34,
    "into":34,
    "looks":34,
    "all":35,
    "my":36,
    "like":37,
    "who":37,
    "so":38,
    "now":40,
    "no":40,
    "its":41,
    "":41,
    "but":42,
    "back":42,
    "go":42,
    "do":44,
    "know":45,
    "your":46,
    "dont":47,
    "was":47,
    "will":48,
    "as":49,
    "here":50,
    "be":50,
    "not":50,
    "right":52,
    "from":53,
    "purvis":53,
    "she":55,
    "me":58,
    "get":59,
    "what":61,
    "her":63,
    "are":71,
    "for":71,
    "this":75,
    "we":76,
    "up":81,
    "they":84,
    "with":85,
    "that":85,
    "out":89,
    "at":94,
    "it":104,
    "him":104,
    "on":118,
    "dillinger":140,
    "his":144,
    "i":165,
    "is":171,
    "of":190,
    "he":220,
    "in":221,
    "you":274,
    "a":302,
    "and":317,
    "to":322,
    "the":666
}