{
    "wake":1,
    "sleeping":1,
    "bear":1,
    "breakfast":1,
    "further":1,
    "coffee":1,
    "goes":1,
    "quiet":1,
    "abroad":1,
    "year":1,
    "looks":1,
    "terrible":1,
    "boys":1,
    "argue":1,
    "remind":1,
    "michaels":1,
    "fifteen":1,
    "scarlet":1,
    "fever":1,
    "several":1,
    "contagious":1,
    "sheets":1,
    "isolation":1,
    "minimum":1,
    "feeling":1,
    "street":1,
    "address":1,
    "flowers":1,
    "boring":1,
    "bothered":1,
    "walk":1,
    "hall":1,
    "while":1,
    "change":1,
    "buckets":1,
    "downstairs":1,
    "fill":1,
    "ridiculous":1,
    "clothes":1,
    "run":1,
    "trousers":1,
    "wash":1,
    "towel":1,
    "inconvenienced":1,
    "scared":1,
    "walks":1,
    "castle":1,
    "ended":1,
    "sportsfield":1,
    "opposite":1,
    "directions":1,
    "none":1,
    "wants":1,
    "hmm":1,
    "`hanna":1,
    "notion":1,
    "secrecy":1,
    "central":1,
    "western":1,
    "whole":1,
    "character":1,
    "fiction":1,
    "defined":1,
    "holding":1,
    "specific":1,
    "perverse":1,
    "noble":1,
    "scelesti":1,
    "ruitis":1,
    "aut":1,
    "cur":1,
    "dexteris":1,
    "aptantur":1,
    "enses":1,
    "conditi":1,
    "horace":1,
    "greek":1,
    "ippeon":1,
    "stroton":1,
    "pesedon":1,
    "da":1,
    "naon":1,
    "phais":1,
    "epi":1,
    "gan":1,
    "malainan":1,
    "emmenai":1,
    "kalliston":1,
    "ego":1,
    "ken":1,
    "otto":1,
    "tis":1,
    "eratai":1,
    "means":1,
    "essay":1,
    "writer":1,
    "gotthold":1,
    "ephraim":1,
    "lessing":1,
    "plays":1,
    "emilia":1,
    "galotti":1,
    "listen":1,
    "act":1,
    "scene":1,
    "setting":1,
    "princes":1,
    "chambers":1,
    "prince":1,
    "goodness":1,
    "sake":1,
    "envy":1,
    "smiling":1,
    "430":1,
    "specially":1,
    "poor":1,
    "baby":1,
    "thirty":1,
    "totally":1,
    "ignored":1,
    "slightest":1,
    "sit":1,
    "thanks":1,
    "power":1,
    "kills":1,
    "sat":1,
    "kiss":1,
    "intrigue":1,
    "friedrich":1,
    "schiller":1,
    "sets":1,
    "pleasures":1,
    "golden":1,
    "sands":1,
    "crystal":1,
    "brooks":1,
    "silken":1,
    "lights":1,
    "silver":1,
    "hooks":1,
    "poked":1,
    "aways":1,
    "encountered":1,
    "patch":1,
    "bedroom":1,
    "hung":1,
    "vines":1,
    "asleep":1,
    "jinks":1,
    "jim":1,
    "chatterley":1,
    "felt":1,
    "naked":1,
    "flesh":1,
    "inside":1,
    "borrowed":1,
    "`blistering":1,
    "barnacles":1,
    "thundering":1,
    "typhoon":1,
    "water":1,
    "`but":1,
    "expect":1,
    "`whisky":1,
    "captain":1,
    "wondering":1,
    "bicycling":1,
    "days":1,
    "guidebook":1,
    "route":1,
    "obstacles":1,
    "theyll":1,
    "mountains":1,
    "fly":1,
    "suffer":1,
    "danger":1,
    "increase":1,
    "sharpen":1,
    "spice":1,
    "angel":1,
    "arm":1,
    "luise":1,
    "dancing":1,
    "through":1,
    "entered":1,
    "heaven":1,
    "`only":1,
    "soul":1,
    "having":1,
    "same":1,
    "hope":1,
    "enjoyed":1,
    "meal":1,
    "poem":1,
    "hurry":1,
    "behave":1,
    "students":1,
    "treat":1,
    "courtesy":1,
    "names":1,
    "sophie":1,
    "believes":1,
    "homers":1,
    "subject":1,
    "homecoming":1,
    "attain":1,
    "distract":1,
    "sophia":1,
    "waters":1,
    "fantastic":1,
    "allowed":1,
    "lake":1,
    "loud":1,
    "stores":1,
    "mankind":1,
    "fun":1,
    "leaves":1,
    "promote":1,
    "office":1,
    "congratulations":1,
    "leaving":1,
    "sophies":1,
    "promised":1,
    "stop":1,
    "nothings":1,
    "bother":1,
    "terms":1,
    "peace":1,
    "stayed":1,
    "eat":1,
    "eventually":1,
    "eight":1,
    "oclock":1,
    "berlin":1,
    "seen":1,
    "paris":1,
    "anywhere":1,
    "difficult":1,
    "distant":1,
    "assumed":1,
    "dinner":1,
    "car":1,
    "system":1,
    "third":1,
    "reich":1,
    "professor":1,
    "rohl":1,
    "select":1,
    "unique":1,
    "thanking":1,
    "whove":1,
    "chosen":1,
    "list":1,
    "police":1,
    "demonstrators":1,
    "both":1,
    "photographers":1,
    "motions":1,
    "louder":1,
    "born":1,
    "october":1,
    "21st":1,
    "1922":1,
    "hermannstadt":1,
    "43":1,
    "1943":1,
    "joining":1,
    "factory":1,
    "offered":1,
    "promotion":1,
    "ascertain":1,
    "freely":1,
    "free":1,
    "jobs":1,
    "recruiting":1,
    "expected":1,
    "looking":1,
    "applied":1,
    "moved":1,
    "smaller":1,
    "near":1,
    "cracow":1,
    "socalled":1,
    "marches":1,
    "correct":1,
    "impression":1,
    "yesterday":1,
    "conscience":1,
    "coverup":1,
    "theyd":1,
    "hide":1,
    "liars":1,
    "implicated":1,
    "dieters":1,
    "themselves":1,
    "speaking":1,
    "waffen":1,
    "million":1,
    "emotional":1,
    "purpose":1,
    "societies":1,
    "morality":1,
    "merely":1,
    "8000":1,
    "precisely":1,
    "19":1,
    "convicted":1,
    "6":1,
    "intent":1,
    "suspect":1,
    "tend":1,
    "miss":1,
    "familiar":1,
    "parts":1,
    "child":1,
    "describes":1,
    "end":1,
    "labour":1,
    "sixty":1,
    "inmates":1,
    "selected":1,
    "satellite":1,
    "specifically":1,
    "realise":1,
    "sending":1,
    "deaths":1,
    "arrivals":1,
    "arriving":1,
    "picking":1,
    "`you":1,
    "longer":1,
    "use":1,
    "certain":1,
    "number":1,
    "favourites":1,
    "girls":1,
    "mostly":1,
    "remarked":1,
    "gave":1,
    "food":1,
    "evening":1,
    "making":1,
    "aloud":1,
    "sensitive":1,
    "human":1,
    "often":1,
    "sick":1,
    "seemed":1,
    "protecting":1,
    "dispatched":1,
    "marched":1,
    "closed":1,
    "dying":1,
    "snow":1,
    "half":1,
    "less":1,
    "gallop":1,
    "lucky":1,
    "roof":1,
    "heads":1,
    "arrived":1,
    "village":1,
    "best":1,
    "quarters":1,
    "priests":1,
    "bombing":1,
    "raid":1,
    "middle":1,
    "steeple":1,
    "beams":1,
    "began":1,
    "crash":1,
    "outside":1,
    "burned":1,
    "survive":1,
    "needed":1,
    "panicking":1,
    "impossible":1,
    "towards":1,
    "side":1,
    "level":1,
    "saved":1,
    "country":1,
    "testify":1,
    "telling":1,
    "started":1,
    "believing":1,
    "`they":1,
    "evil":1,
    "brilliant":1,
    "`who":1,
    "`what":1,
    "`how":1,
    "`why":1,
    "staring":1,
    "gun":1,
    "shoot":1,
    "victims":1,
    "deserve":1,
    "copies":1,
    "approved":1,
    "immediately":1,
    "event":1,
    "claim":1,
    "obviously":1,
    "escaped":1,
    "blamed":1,
    "charged":1,
    "executed":1,
    "opened":1,
    "chaos":1,
    "restored":1,
    "happening":1,
    "choice":1,
    "die":1,
    "risk":1,
    "discussed":1,
    "sample":1,
    "establish":1,
    "appropriate":1,
    "nearly":1,
    "gone":1,
    "somebody":1,
    "compare":1,
    "counsel":1,
    "approach":1,
    "bench":1,
    "skipping":1,
    "seminars":1,
    "concerning":1,
    "admitting":1,
    "perfectly":1,
    "moral":1,
    "obligation":1,
    "favourable":1,
    "case":1,
    "affect":1,
    "outcome":1,
    "certainly":1,
    "sentencing":1,
    "secret":1,
    "spoken":1,
    "important":1,
    "utterly":1,
    "unimportant":1,
    "visitor":1,
    "jointly":1,
    "aiding":1,
    "abetting":1,
    "follows":1,
    "serve":1,
    "total":1,
    "sentence":1,
    "view":1,
    "admissions":1,
    "role":1,
    "category":1,
    "imprisonment":1,
    "hasnt":1,
    "since":1,
    "shouldnt":1,
    "unannounced":1,
    "whys":1,
    "angry":1,
    "afraid":1,
    "knows":1,
    "daddys":1,
    "fathers":1,
    "funeral":1,
    "easy":1,
    "unhappy":1,
    "mustnt":1,
    "worry":1,
    "anyway":1,
    "prosecutor":1,
    "earns":1,
    "mummy":1,
    "grew":1,
    "god":1,
    "granny":1,
    "tv":1,
    "bet":1,
    "impulse":1,
    "reestablish":1,
    "succeed":1,
    "intelligent":1,
    "hard":1,
    "receive":1,
    "123":1,
    "ah":1,
    "shameless":1,
    "mortals":1,
    "blame":1,
    "gods":1,
    "miseries":1,
    "city":1,
    "wonderstruck":1,
    "drank":1,
    "drugs":1,
    "bewitched":1,
    "zeus":1,
    "king":1,
    "hated":1,
    "race":1,
    "atreus":1,
    "vengeance":1,
    "story":1,
    "release":1,
    "family":1,
    "gets":1,
    "frightening":1,
    "modern":1,
    "world":1,
    "future":1,
    "louisa":1,
    "brenner":1,
    "warn":1,
    "purposeful":1,
    "few":1,
    "canteen":1,
    "finishing":1,
    "lunch":1,
    "whos":1,
    "tailor":1,
    "makes":1,
    "suits":1,
    "youll":1,
    "social":1,
    "programmes":1,
    "cultural":1,
    "stuff":1,
    "sign":1,
    "public":1,
    "library":1,
    "close":1,
    "married":1,
    "deal":1,
    "marriage":1,
    "spent":1,
    "sounds":1,
    "fuss":1,
    "care":1,
    "pack":1,
    "intended":1,
    "message":1,
    "bit":1,
    "concerns":1,
    "alongside":1,
    "7000":1,
    "marks":1,
    "bank":1,
    "brings":1,
    "united":1,
    "states":1,
    "conference":1,
    "boston":1,
    "lawyer":1,
    "intrigued":1,
    "letter":1,
    "wholly":1,
    "understood":1,
    "attended":1,
    "student":1,
    "israel":1,
    "simple":1,
    "illiterate":1,
    "greater":1,
    "explanation":1,
    "behaviour":1,
    "excuse":1,
    "taught":1,
    "tapes":1,
    "nature":1,
    "friendship":1,
    "sixteen":1,
    "lasted":1,
    "acknowledge":1,
    "effect":1,
    "worse":1,
    "werent":1,
    "therapy":1,
    "universities":1,
    "becomes":1,
    "forgiveness":1,
    "advice":1,
    "theatre":1,
    "catharsis":1,
    "comes":1,
    "wantedwhat":1,
    "girl":1,
    "teatin":1,
    "treasures":1,
    "cyrillic":1,
    "lettering":1,
    "sentimental":1,
    "tickets":1,
    "operas":1,
    "contents":1,
    "itself":1,
    "valuable":1,
    "associated":1,
    "extermination":1,
    "absolution":1,
    "neither":1,
    "position":1,
    "grant":1,
    "encourage":1,
    "literacy":1,
    "surprised":1,
    "organisation":1,
    "illiteracy":1,
    "hannas":1,
    "15":1,
    "truth":2,
    "boiled":2,
    "egg":2,
    "hardly":2,
    "stay":2,
    "find":2,
    "head":2,
    "tonight":2,
    "seeing":2,
    "kept":2,
    "peter":2,
    "responsibility":2,
    "lives":2,
    "bed":2,
    "least":2,
    "complete":2,
    "earlier":2,
    "weak":2,
    "before":2,
    "incredibly":2,
    "wont":2,
    "hair":2,
    "lost":2,
    "late":2,
    "town":2,
    "lies":2,
    "dad":2,
    "decided":2,
    "says":2,
    "another":2,
    "havent":2,
    "literature":2,
    "may":2,
    "various":2,
    "reasons":2,
    "sometimes":2,
    "determined":2,
    "disclose":2,
    "languages":2,
    "latin":2,
    "quo":2,
    "de":2,
    "writing":2,
    "perhaps":2,
    "complaints":2,
    "petitions":2,
    "actually":2,
    "arent":2,
    "holidays":2,
    "surprise":2,
    "tram":2,
    "mine":2,
    "speak":2,
    "carriage":2,
    "second":2,
    "without":2,
    "might":2,
    "forgive":2,
    "morning":2,
    "changing":2,
    "cities":2,
    "minds":2,
    "pains":2,
    "suffered":2,
    "heartsick":2,
    "sea":2,
    "fighting":2,
    "save":2,
    "comrades":2,
    "around":2,
    "disgusting":2,
    "someone":2,
    "earth":2,
    "thunder":2,
    "sort":2,
    "arms":2,
    "happy":2,
    "show":2,
    "ready":2,
    "pretend":2,
    "ladies":2,
    "gentlemen":2,
    "dream":2,
    "summer":2,
    "americans":2,
    "held":2,
    "appeared":2,
    "promenade":2,
    "news":2,
    "else":2,
    "am":2,
    "happens":2,
    "fight":2,
    "war":2,
    "carla":2,
    "boy":2,
    "mr":2,
    "suppose":2,
    "aware":2,
    "nervous":2,
    "silly":2,
    "soon":2,
    "favour":2,
    "pick":2,
    "those":2,
    "legal":2,
    "clearly":2,
    "seriously":2,
    "lawyers":2,
    "pen":2,
    "joined":2,
    "recently":2,
    "prefer":2,
    "join":2,
    "rephrase":2,
    "until":2,
    "prisoners":2,
    "west":2,
    "winter":2,
    "dieter":2,
    "obvious":2,
    "cowardice":2,
    "left":2,
    "theyve":2,
    "alone":2,
    "father":2,
    "germans":2,
    "exactly":2,
    "point":2,
    "nor":2,
    "getting":2,
    "state":2,
    "operate":2,
    "`was":2,
    "laws":2,
    "narrow":2,
    "hand":2,
    "kill":2,
    "ilana":2,
    "month":2,
    "picked":2,
    "far":2,
    "denied":2,
    "though":2,
    "ms":2,
    "chose":2,
    "differently":2,
    "places":2,
    "kinder":2,
    "plan":2,
    "house":2,
    "burning":2,
    "floor":2,
    "rushed":2,
    "locked":2,
    "nobody":2,
    "screaming":2,
    "stand":2,
    "led":2,
    "upper":2,
    "defend":2,
    "gallery":2,
    "diversion":2,
    "thousands":2,
    "answer":2,
    "written":2,
    "escape":2,
    "letting":2,
    "allegation":2,
    "charge":2,
    "write":2,
    "paper":2,
    "clear":2,
    "help":2,
    "problem":2,
    "taken":2,
    "finds":2,
    "rita":2,
    "beckhart":2,
    "karolina":2,
    "steinhof":2,
    "regina":2,
    "kreutz":2,
    "angela":2,
    "zieber":2,
    "andrea":2,
    "luhmann":2,
    "sentences":2,
    "accused":2,
    "different":2,
    "grown":2,
    "visit":2,
    "gertrud":2,
    "lets":2,
    "mind":2,
    "strange":2,
    "honest":2,
    "goodbye":2,
    "testing":2,
    "somewhere":2,
    "nice":2,
    "thinking":2,
    "past":2,
    "dead":2,
    "next":2,
    "week":2,
    "shall":2,
    "send":2,
    "affair":2,
    "fit":2,
    "stolen":2,
    "organization":2,
    "tea":3,
    "does":3,
    "ever":3,
    "long":3,
    "enough":3,
    "fine":3,
    "yourself":3,
    "doesnt":3,
    "hes":3,
    "burn":3,
    "brought":3,
    "put":3,
    "down":3,
    "two":3,
    "bring":3,
    "bath":3,
    "came":3,
    "times":3,
    "fault":3,
    "business":3,
    "lying":3,
    "tomorrow":3,
    "weeks":3,
    "must":3,
    "yours":3,
    "idea":3,
    "learn":3,
    "wonderful":3,
    "oi":3,
    "men":3,
    "german":3,
    "play":3,
    "imagine":3,
    "reading":3,
    "planning":3,
    "four":3,
    "upset":3,
    "weve":3,
    "together":3,
    "order":3,
    "things":3,
    "journey":3,
    "sing":3,
    "muse":3,
    "twists":3,
    "turns":3,
    "driven":3,
    "again":3,
    "once":3,
    "plundered":3,
    "hallowed":3,
    "heights":3,
    "troy":3,
    "saw":3,
    "learned":3,
    "prove":3,
    "into":3,
    "big":3,
    "against":3,
    "still":3,
    "whisky":3,
    "serious":3,
    "maybe":3,
    "worked":3,
    "frightened":3,
    "welcome":3,
    "sausages":3,
    "hear":3,
    "special":3,
    "fellow":3,
    "fact":3,
    "great":3,
    "anton":3,
    "chekhov":3,
    "face":3,
    "birthday":3,
    "giving":3,
    "party":3,
    "apologize":3,
    "noone":3,
    "last":3,
    "decide":3,
    "ten":3,
    "seminar":3,
    "group":3,
    "room":3,
    "seem":3,
    "cases":3,
    "reason":3,
    "siemens":3,
    "trying":3,
    "kind":3,
    "1944":3,
    "exciting":3,
    "justice":3,
    "bad":3,
    "done":3,
    "signed":3,
    "young":3,
    "already":3,
    "mather":3,
    "selection":3,
    "happen":3,
    "six":3,
    "wed":3,
    "ones":3,
    "made":3,
    "guard":3,
    "almost":3,
    "march":3,
    "died":3,
    "coming":3,
    "jews":3,
    "hundred":3,
    "unlock":3,
    "piece":3,
    "ago":3,
    "defendant":3,
    "prison":3,
    "liked":3,
    "daddy":3,
    "lot":3,
    "went":3,
    "contact":3,
    "willing":3,
    "friend":3,
    "learnt":3,
    "quietly":3,
    "tin":3,
    "shed":3,
    "jewish":3,
    "sleep":4,
    "doing":4,
    "hey":4,
    "worried":4,
    "him":4,
    "doctor":4,
    "away":4,
    "day":4,
    "helped":4,
    "wait":4,
    "beautiful":4,
    "anyone":4,
    "studying":4,
    "called":4,
    "rather":4,
    "working":4,
    "myself":4,
    "homer":4,
    "off":4,
    "place":4,
    "found":4,
    "moment":4,
    "ashamed":4,
    "today":4,
    "trip":4,
    "over":4,
    "than":4,
    "ok":4,
    "everything":4,
    "early":4,
    "really":4,
    "asked":4,
    "friends":4,
    "happened":4,
    "knew":4,
    "admit":4,
    "quite":4,
    "small":4,
    "start":4,
    "every":4,
    "job":4,
    "death":4,
    "expecting":4,
    "remember":4,
    "law":4,
    "guilty":4,
    "murder":4,
    "process":4,
    "sent":4,
    "being":4,
    "choose":4,
    "fire":4,
    "asking":4,
    "trial":4,
    "handwriting":4,
    "twenty":4,
    "feel":4,
    "surprises":4,
    "any":5,
    "hell":5,
    "live":5,
    "after":5,
    "old":5,
    "keep":5,
    "meant":5,
    "said":5,
    "school":5,
    "information":5,
    "heard":5,
    "too":5,
    "wanted":5,
    "matter":5,
    "odyssey":5,
    "leave":5,
    "thing":5,
    "hello":5,
    "talk":5,
    "money":5,
    "move":5,
    "julia":5,
    "parents":5,
    "each":5,
    "question":5,
    "auschwitz":5,
    "camp":5,
    "understand":5,
    "killed":5,
    "church":5,
    "camps":5,
    "herself":5,
    "own":6,
    "months":6,
    "better":6,
    "way":6,
    "would":6,
    "true":6,
    "theyre":6,
    "which":6,
    "anything":6,
    "much":6,
    "mean":6,
    "course":6,
    "open":6,
    "new":6,
    "everyone":6,
    "sure":6,
    "wrong":6,
    "night":6,
    "part":6,
    "ss":6,
    "guards":6,
    "who":6,
    "wrote":6,
    "or":7,
    "saying":7,
    "home":7,
    "these":7,
    "couldnt":7,
    "mother":7,
    "some":7,
    "told":7,
    "whats":7,
    "name":7,
    "make":7,
    "his":7,
    "lady":7,
    "should":7,
    "only":7,
    "berg":7,
    "dog":7,
    "ask":7,
    "wasnt":7,
    "defendants":7,
    "other":7,
    "court":7,
    "doors":7,
    "woman":8,
    "three":8,
    "oh":8,
    "work":8,
    "first":8,
    "book":8,
    "man":8,
    "life":8,
    "youd":8,
    "our":8,
    "report":8,
    "nothing":9,
    "daughter":9,
    "sorry":9,
    "their":9,
    "theres":9,
    "little":9,
    "years":9,
    "has":9,
    "youve":10,
    "give":10,
    "where":10,
    "got":10,
    "many":10,
    "something":10,
    "us":10,
    "took":10,
    "please":10,
    "women":10,
    "shes":11,
    "love":11,
    "thank":11,
    "look":11,
    "even":11,
    "let":12,
    "because":12,
    "id":12,
    "take":12,
    "read":12,
    "get":12,
    "well":12,
    "one":12,
    "time":12,
    "cant":13,
    "from":13,
    "an":13,
    "very":13,
    "need":13,
    "come":13,
    "always":13,
    "just":13,
    "when":13,
    "thought":13,
    "as":13,
    "people":14,
    "never":14,
    "right":14,
    "back":14,
    "will":14,
    "schmitz":14,
    "could":15,
    "here":15,
    "tell":15,
    "isnt":15,
    "didnt":16,
    "out":16,
    "kid":16,
    "up":16,
    "see":17,
    "good":17,
    "ive":17,
    "more":17,
    "michael":17,
    "hanna":17,
    "say":18,
    "ill":18,
    "now":18,
    "youre":18,
    "can":18,
    "like":18,
    "had":18,
    "think":18,
    "if":19,
    "go":19,
    "been":20,
    "he":20,
    "them":20,
    "there":20,
    "thats":20,
    "going":21,
    "then":21,
    "":22,
    "want":23,
    "no":23,
    "they":23,
    "about":25,
    "how":25,
    "by":25,
    "my":27,
    "why":27,
    "but":29,
    "be":30,
    "did":30,
    "yes":30,
    "so":30,
    "know":30,
    "this":31,
    "are":32,
    "that":32,
    "all":34,
    "with":35,
    "on":35,
    "dont":36,
    "at":36,
    "not":37,
    "she":41,
    "her":44,
    "your":45,
    "for":46,
    "we":47,
    "have":48,
    "me":49,
    "do":49,
    "were":50,
    "is":50,
    "im":51,
    "its":54,
    "and":70,
    "was":74,
    "in":76,
    "of":78,
    "what":85,
    "it":95,
    "a":118,
    "to":191,
    "i":191,
    "the":225,
    "you":284
}