{
    "bite":1,
    "above":1,
    "children\u2019s":1,
    "playground":1,
    "scream":1,
    "alerts":1,
    "mothers":1,
    "nannies":1,
    "bolt":1,
    "nanny":1,
    "scanning":1,
    "circumstance":1,
    "assistant":1,
    "mid":1,
    "born":1,
    "raised":1,
    "softened":1,
    "slight":1,
    "scrappy":1,
    "fighter":1,
    "defendant\u2019s":1,
    "character":1,
    "decency":1,
    "everyone":1,
    "education":1,
    "opportunities":1,
    "employment":1,
    "rates":1,
    "excuses":1,
    "hide":1,
    "deciding":1,
    "francis":1,
    "mitchell":1,
    "fifteenth":1,
    "tie":1,
    "shove":1,
    "belongings":1,
    "25":1,
    "tats":1,
    "disrespect":1,
    "client\u2019s":1,
    "hole":1,
    "nobody\u2019s":1,
    "anyone\u2019s":1,
    "mitchell\u2019s":1,
    "fellow":1,
    "ada":1,
    "doughy":1,
    "handsome":1,
    "deniro":1,
    "golden":1,
    "adjourn":1,
    "deliberate":1,
    "settle":1,
    "snacks":1,
    "missed":1,
    "telling":1,
    "chocolate":1,
    "stuart\u2019s":1,
    "snickers":1,
    "grins":1,
    "\u201cahha\u201d":1,
    "busted":1,
    "emergencies":1,
    "sugar":1,
    "buzzes":1,
    "jury\u2019s":1,
    "mckenna\u2019s":1,
    "soft":1,
    "educationally":1,
    "challenged":1,
    "esteemed":1,
    "finish":1,
    "labor":1,
    "aisle":1,
    "doors":1,
    "treelined":1,
    "kids":1,
    "skateboard":1,
    "modest":1,
    "twostory":1,
    "starterhome":1,
    "study":1,
    "photograph":1,
    "six":1,
    "dominates":1,
    "oddly":1,
    "photos":1,
    "groaning":1,
    "clunk":1,
    "shakes":1,
    "bedroom":1,
    "29":1,
    "50s":1,
    "heavy":1,
    "german":1,
    "urges":1,
    "sparse":1,
    "medical":1,
    "equipment":1,
    "birth":1,
    "crowning":1,
    "keep":1,
    "pushing":1,
    "strains":1,
    "pained":1,
    "gasp":1,
    "wraps":1,
    "clever":1,
    "aims":1,
    "cord":1,
    "scissors":1,
    "hesitates":1,
    "expression":1,
    "toasted":1,
    "anyway":1,
    "bastard":1,
    "frank":1,
    "awesome":1,
    "soak":1,
    "collect":1,
    "inmate":1,
    "concord":1,
    "penitentiary":1,
    "accept":1,
    "demeanor":1,
    "sobers":1,
    "hurl":1,
    "round":1,
    "shows":1,
    "congrat\u2019s":1,
    "forgotten":1,
    "snicker\u2019s":1,
    "dials":1,
    "admiring":1,
    "harvard":1,
    "cabs":1,
    "fearless":1,
    "zaps":1,
    "escalade\u2019s":1,
    "firm":1,
    "hanging":1,
    "screw":1,
    "windshield":1,
    "tuns":1,
    "wipers":1,
    "green":1,
    "center":1,
    "tin":1,
    "mints":1,
    "mirror":1,
    "vanishes":1,
    "seatbelt":1,
    "release":1,
    "crumpled":1,
    "fifteen":1,
    "leg":1,
    "twisted":1,
    "impossible":1,
    "angle":1,
    "bubbling":1,
    "pale":1,
    "lips":1,
    "matting":1,
    "recognize":1,
    "unpicks":1,
    "jams":1,
    "she\u2019d":1,
    "newspaper":1,
    "neighbor":1,
    "truck":1,
    "drove":1,
    "promising":1,
    "dui":1,
    "kiss":1,
    "goodbye":1,
    "father":1,
    "chances":1,
    "squeak":1,
    "agrees":1,
    "subject":1,
    "doorbell":1,
    "that\u2019ll":1,
    "frau":1,
    "strudel":1,
    "schultze":1,
    "mass":1,
    "hi":1,
    "taps":1,
    "nervously":1,
    "admissions":1,
    "midnight":1,
    "caucasian":1,
    "midtwenties":1,
    "doorway":1,
    "waits":1,
    "sinai":1,
    "spillover":1,
    "staff":1,
    "meeting":1,
    "favor":1,
    "local":1,
    "hospitals":1,
    "clinics":1,
    "connected":1,
    "bottle":1,
    "tylenol":1,
    "\u201cnot":1,
    "good\u201d":1,
    "everywhere":1,
    "admitted":1,
    "named":1,
    "\u201cout\u201d":1,
    "wants":1,
    "postit":1,
    "miss":1,
    "apart":1,
    "dating":1,
    "bubba":1,
    "most":1,
    "decade":1,
    "having":1,
    "\u201center":1,
    "here\u201d":1,
    "tattooed":1,
    "asscheeks":1,
    "kidding":1,
    "sweat":1,
    "drunken":1,
    "hitched":1,
    "seven":1,
    "thirteen":1,
    "newbie":1,
    "screensaver":1,
    "baby\u2019s":1,
    "cute":1,
    "proud":1,
    "staying":1,
    "offering":1,
    "crashing":1,
    "halfway":1,
    "reintegration":1,
    "program":1,
    "cardiff":1,
    "wrote":1,
    "roof":1,
    "anything\u2019s":1,
    "popes":1,
    "hill":1,
    "refill":1,
    "fixed":1,
    "money":1,
    "interviews":1,
    "student":1,
    "loans":1,
    "mortgage":1,
    "payments":1,
    "ain\u2019t":1,
    "spot":1,
    "stashed":1,
    "ma\u2019s":1,
    "government":1,
    "bonds":1,
    "appear":1,
    "fresh":1,
    "happy":1,
    "definitely":1,
    "routine":1,
    "traffic":1,
    "turned":1,
    "gruesome":1,
    "investigation":1,
    "pd":1,
    "impound":1,
    "climbing":1,
    "vehicle":1,
    "dripping":1,
    "demanded":1,
    "discovered":1,
    "parolee":1,
    "somerville":1,
    "held":1,
    "reports":1,
    "remain":1,
    "nameless":1,
    "dying":1,
    "apparent":1,
    "merely":1,
    "jeff":1,
    "wallet":1,
    "money\u2019s":1,
    "arrange":1,
    "tops":1,
    "departure":1,
    "stung":1,
    "uhhuh":1,
    "chomps":1,
    "sandwich":1,
    "expecting":1,
    "blake":1,
    "48":1,
    "tied":1,
    "typing":1,
    "perched":1,
    "tip":1,
    "huntandpeck":1,
    "typer":1,
    "many":1,
    "tees":1,
    "committed":1,
    "paperwork":1,
    "touch":1,
    "gum":1,
    "quick":1,
    "interested":1,
    "assigned":1,
    "provisional":1,
    "enquiry":1,
    "fortynine":1,
    "trade":1,
    "charges":1,
    "relatives":1,
    "raining":1,
    "kid\u2019s":1,
    "decide":1,
    "convict":1,
    "handcuffed":1,
    "chair":1,
    "middle":1,
    "unassuming":1,
    "thin":1,
    "large":1,
    "stained":1,
    "dry":1,
    "ones":1,
    "\u201cthis":1,
    "one\u201d":1,
    "keywords":1,
    "database":1,
    "torture":1,
    "flagged":1,
    "string":1,
    "caseload":1,
    "high":1,
    "\u2018em":1,
    "unsolveds":1,
    "books":1,
    "boss":1,
    "\u201cgood":1,
    "samaritan\u201d":1,
    "commotion":1,
    "arguing":1,
    "beckon":1,
    "closer":1,
    "unmoving":1,
    "calm":1,
    "leaving":1,
    "reflection":1,
    "faces":1,
    "interchangeable":1,
    "dog":1,
    "hungover":1,
    "slapped":1,
    "cap":1,
    "bud":1,
    "lite":1,
    "customer":1,
    "tab":1,
    "fix":1,
    "illegal":1,
    "kinda":1,
    "friend":1,
    "twelve":1,
    "blamed":1,
    "ouch":1,
    "choices":1,
    "fess":1,
    "downs":1,
    "personally":1,
    "choose":1,
    "prosecutors":1,
    "signals":1,
    "pal":1,
    "request":1,
    "defenders":1,
    "printed":1,
    "crossed":1,
    "seats":1,
    "briefcases":1,
    "mister":1,
    "accurately":1,
    "hold\u2019s":1,
    "absolutely":1,
    "drink":1,
    "write":1,
    "ink":1,
    "support":1,
    "meetings":1,
    "helps":1,
    "arrest":1,
    "gaze":1,
    "uncomfortable":1,
    "sheet":1,
    "registered":1,
    "sex":1,
    "offender":1,
    "statutory":1,
    "rape":1,
    "humanity":1,
    "connection":1,
    "weapon":1,
    "weapons":1,
    "plural":1,
    "coroner":1,
    "also":1,
    "significant":1,
    "amounts":1,
    "grit":1,
    "corroborates":1,
    "vic\u2019s":1,
    "dna":1,
    "explainable":1,
    "transference":1,
    "bam":1,
    "aggravated":1,
    "ticket":1,
    "negate":1,
    "fact":1,
    "tireiron":1,
    "hospitalized":1,
    "concerning":1,
    "pedophile":1,
    "raped":1,
    "knocks":1,
    "enters":1,
    "worried":1,
    "slots":1,
    "cassette":1,
    "static":1,
    "breathing":1,
    "hint":1,
    "rule":1,
    "documents":1,
    "we\u2019d":1,
    "man\u2019s":1,
    "potentially":1,
    "damaging":1,
    "conclusive":1,
    "crank":1,
    "laugh":1,
    "conviction":1,
    "pardon":1,
    "pun":1,
    "redhanded":1,
    "physical":1,
    "documented":1,
    "history":1,
    "violence":1,
    "kind":1,
    "decision":1,
    "silent":1,
    "sink":1,
    "gather":1,
    "pats":1,
    "faith":1,
    "honorable":1,
    "presiding":1,
    "seated":1,
    "counsel":1,
    "versus":1,
    "entered":1,
    "ahead":1,
    "facts":1,
    "examined":1,
    "cause":1,
    "blunt":1,
    "force":1,
    "badly":1,
    "crushed":1,
    "narrow":1,
    "item":1,
    "marks":1,
    "seem":1,
    "\u201cseem\u201d":1,
    "talks":1,
    "abrasions":1,
    "impact":1,
    "defence":1,
    "argue":1,
    "indicate":1,
    "transport":1,
    "wrecker\u2019s":1,
    "remember":1,
    "correctly":1,
    "axle":1,
    "leaf":1,
    "springs":1,
    "suspension":1,
    "interior":1,
    "struggle":1,
    "environment":1,
    "trace":1,
    "identify":1,
    "one\u2019s":1,
    "reaction":1,
    "disgusted":1,
    "monster":1,
    "swayed":1,
    "younger":1,
    "happier":1,
    "forced":1,
    "horrible":1,
    "gunned":1,
    "next":1,
    "consensus":1,
    "shower":1,
    "straw":1,
    "mommy":1,
    "ella\u2019s":1,
    "sparkle":1,
    "played":1,
    "speakers":1,
    "cake":1,
    "idea":1,
    "onboard":1,
    "familiar":1,
    "pause":1,
    "accurate":1,
    "linguistics":1,
    "extremely":1,
    "perfection":1,
    "happen":1,
    "science":1,
    "follows":1,
    "sliding":1,
    "scale":1,
    "witness\u2019":1,
    "respond":1,
    "withdraw":1,
    "question":1,
    "stated":1,
    "genuine":1,
    "complicated":1,
    "medium":1,
    "build":1,
    "tried":1,
    "soften":1,
    "unlike":1,
    "strict":1,
    "roman":1,
    "catholic":1,
    "upbringing":1,
    "inaudible":1,
    "mumbles":1,
    "operator":1,
    "cool":1,
    "pressure":1,
    "personal":1,
    "details":1,
    "forethought":1,
    "heightened":1,
    "emotional":1,
    "tells":1,
    "background":1,
    "psychological":1,
    "traits":1,
    "professions":1,
    "surprisingly":1,
    "realm":1,
    "establish":1,
    "devry":1,
    "taught":1,
    "cross":1,
    "examination":1,
    "shuts":1,
    "bullshitter":1,
    "practically":1,
    "defense\u2019s":1,
    "intention":1,
    "credibility":1,
    "mistrial":1,
    "ways":1,
    "crap":1,
    "heard":1,
    "booth":1,
    "panicked":1,
    "stayed":1,
    "blame":1,
    "ef\u2019":1,
    "adas":1,
    "ambiguous":1,
    "paint":1,
    "railroaded":1,
    "ease":1,
    "win":1,
    "idiot":1,
    "schmuck":1,
    "pen\u2019s":1,
    "joking":1,
    "stake":1,
    "hawk":1,
    "confess":1,
    "answers":1,
    "linguist":1,
    "gave":1,
    "compelling":1,
    "testimony":1,
    "beep":1,
    "lawyers":1,
    "paranoid":1,
    "uneasy":1,
    "babe":1,
    "champ":1,
    "wink":1,
    "rise":1,
    "bench":1,
    "suddenly":1,
    "pile":1,
    "tolerate":1,
    "tardiness":1,
    "development":1,
    "informed":1,
    "aware":1,
    "identity":1,
    "relevance":1,
    "opportunity":1,
    "validate":1,
    "brown\u2019s":1,
    "lab":1,
    "analysis":1,
    "overnight":1,
    "96":1,
    "match":1,
    "barely":1,
    "breathe":1,
    "fast":1,
    "scraping":1,
    "voices":1,
    "mumble":1,
    "chatter":1,
    "order":1,
    "inclined":1,
    "allow":1,
    "calls":1,
    "refuses":1,
    "eye":1,
    "mic":1,
    "softens":1,
    "twist":1,
    "events":1,
    "ended":1,
    "mowed":1,
    "ford":1,
    "explorer":1,
    "municipal":1,
    "emptying":1,
    "gathered":1,
    "skills":1,
    "samaritan":1,
    "despite":1,
    "logan\u2019s":1,
    "initial":1,
    "reluctance":1,
    "due":1,
    "comfort":1,
    "founded":1,
    "entirely":1,
    "gross":1,
    "limelight":1,
    "congratulate":1,
    "pinches":1,
    "snaps":1,
    "lighter":1,
    "draws":1,
    "risk":1,
    "test":1,
    "grew":1,
    "schools":1,
    "relying":1,
    "jam":1,
    "welcome":1,
    "drugs":1,
    "begged":1,
    "payroll":1,
    "accessory":1,
    "weren\u2019t":1,
    "shouldn\u2019t":1,
    "guard":1,
    "walked":1,
    "always":1,
    "means":1,
    "matters":1,
    "stepbrother":1,
    "legally":1,
    "tough":1,
    "met":1,
    "graduating":1,
    "application":1,
    "form":1,
    "officially":1,
    "figured":1,
    "ties":1,
    "lied":1,
    "forms":1,
    "different":1,
    "rail":1,
    "anymore":1,
    "cabin":1,
    "curses":1,
    "drinks":1,
    "towel":1,
    "babymonitor":1,
    "counter":1,
    "demanding":1,
    "crying":1,
    "shirt":1,
    "it\u2019ll":1,
    "tense":1,
    "helped":1,
    "deeper":1,
    "raincheck":1,
    "apology":1,
    "heads":1,
    "rach\u2019":1,
    "coke":1,
    "river":1,
    "floating":1,
    "north":1,
    "saturday":1,
    "stunned":1,
    "messages":1,
    "asks":1,
    "morgue":1,
    "neck":1,
    "kneels":1,
    "metallic":1,
    "darkness":1,
    "dark":1,
    "lit":1,
    "daylight":1,
    "dumpsters":1,
    "piles":1,
    "affords":1,
    "site":1,
    "ground":1,
    "torn":1,
    "tears":1,
    "renewed":1,
    "energy":1,
    "sheltered":1,
    "fireescape":1,
    "smear":1,
    "places":1,
    "print":1,
    "striding":1,
    "plate":1,
    "sniffing":1,
    "dumps":1,
    "times":1,
    "buying":1,
    "slap":1,
    "looked":1,
    "autopsy":1,
    "results":1,
    "beckons":1,
    "prepares":1,
    "path":1,
    "explains":1,
    "forensics":1,
    "confusing":1,
    "appreciate":1,
    "enthusiasm":1,
    "heading":1,
    "guessing":1,
    "impeccable":1,
    "record":1,
    "advice":1,
    "pickup":1,
    "trucks":1,
    "shapes":1,
    "sizes":1,
    "repaired":1,
    "primed":1,
    "fender":1,
    "beyond":1,
    "mechanics":1,
    "clock":1,
    "ducks":1,
    "gasping":1,
    "throws":1,
    "crosses":1,
    "bassinet":1,
    "paperboy":1,
    "cycles":1,
    "spill":1,
    "quickly":1,
    "gathers":1,
    "slips":1,
    "space":1,
    "tenses":1,
    "jacked":1,
    "hydraulic":1,
    "v8":1,
    "winched":1,
    "\u201869":1,
    "breakroom":1,
    "near":1,
    "knocking":1,
    "suppose":1,
    "ace":1,
    "peers":1,
    "double":1,
    "jeopardy":1,
    "pass":1,
    "expose":1,
    "showing":1,
    "such":1,
    "conscience":1,
    "moment":1,
    "questioned":1,
    "expert":1,
    "planning":1,
    "impressive":1,
    "game":1,
    "locked":1,
    "who\u2019ll":1,
    "precious":1,
    "protect":1,
    "offer":1,
    "flashes":1,
    "hell\u2019s":1,
    "drunk":1,
    "matched":1,
    "proved":1,
    "blow":1,
    "disbarred":1,
    "prove":1,
    "strangler":1,
    "explain":1,
    "pathologists":1,
    "thinks":1,
    "eight":1,
    "runin":1,
    "law":1,
    "hospitalizing":1,
    "courage":1,
    "bob":1,
    "smith":1,
    "random":1,
    "control":1,
    "molester":1,
    "others":1,
    "records":1,
    "remind":1,
    "graves":1,
    "slit":1,
    "miracle":1,
    "survived":1,
    "absently":1,
    "touches":1,
    "stubble":1,
    "target":1,
    "specific":1,
    "numbers":1,
    "reading":1,
    "binders":1,
    "containing":1,
    "newspapers":1,
    "thumbs":1,
    "settles":1,
    "microfiche":1,
    "reads":1,
    "\u201cgas":1,
    "shooting\u201d":1,
    "areas":1,
    "text":1,
    "\u201ccareer":1,
    "criminal\u201d":1,
    "\u201cin":1,
    "prison\u201d":1,
    "\u201crecently":1,
    "paroled\u201d":1,
    "microfish":1,
    "skims":1,
    "insert":1,
    "\u201crecent":1,
    "parolee\u201d":1,
    "huh":1,
    "crate":1,
    "stocking":1,
    "fridge":1,
    "anybody\u2019s":1,
    "freed":1,
    "slows":1,
    "threatened":1,
    "reason":1,
    "guilt":1,
    "begging":1,
    "forgetting":1,
    "perjured":1,
    "scene":1,
    "manipulated":1,
    "trail":1,
    "proof":1,
    "retried":1,
    "deal":1,
    "oath":1,
    "logical":1,
    "targeted":1,
    "overlooked":1,
    "breaking":1,
    "aiding":1,
    "abetting":1,
    "fucker":1,
    "sleeping":1,
    "rent":1,
    "shift":1,
    "locks":1,
    "deadbolt":1,
    "grey":1,
    "dodge":1,
    "end":1,
    "growls":1,
    "sweet":1,
    "rented":1,
    "scratch":1,
    "collision":1,
    "waiver":1,
    "plenty":1,
    "chill":1,
    "pauses":1,
    "scare":1,
    "ya\u2019":1,
    "nah":1,
    "microwave":1,
    "meals":1,
    "bear":1,
    "reminded":1,
    "basement":1,
    "tying":1,
    "calendar":1,
    "schedule":1,
    "sleeps":1,
    "tailing":1,
    "signs":1,
    "billowing":1,
    "read":1,
    "weeds":1,
    "overgrowing":1,
    "boarded":1,
    "graffiti":1,
    "scarred":1,
    "spends":1,
    "unpadlocks":1,
    "masochistic":1,
    "search":1,
    "empty":1,
    "rooms":1,
    "daughter\u2019s":1,
    "girly":1,
    "wallpaper":1,
    "\u201chave":1,
    "to\u201d":1,
    "conditions":1,
    "ordered":1,
    "keeps":1,
    "swung":1,
    "offs":1,
    "stopping":1,
    "happening":1,
    "floorboard":1,
    "backsteps":1,
    "cavity":1,
    "etc":1,
    "deserted":1,
    "air":1,
    "rounds":1,
    "leading":1,
    "roadside":1,
    "conversation":1,
    "calmly":1,
    "drizzle":1,
    "fall":1,
    "stem":1,
    "bleeding":1,
    "dial":1,
    "disconnects":1,
    "frustration":1,
    "builds":1,
    "scoops":1,
    "floorstairwell":1,
    "upper":1,
    "footfall":1,
    "excruciating":1,
    "distant":1,
    "sirens":1,
    "needs":1,
    "demand":1,
    "charged":1,
    "ridiculous":1,
    "lady":1,
    "unhappy":1,
    "pad":1,
    "fairer":1,
    "surgery":1,
    "prognosis":1,
    "hopeful":1,
    "relationship":1,
    "stepbrothers":1,
    "parents":1,
    "purger":1,
    "blackmailing":1,
    "using":1,
    "stole":1,
    "prints":1,
    "yours":1,
    "wore":1,
    "gloves":1,
    "sake":1,
    "deny":1,
    "toolbox":1,
    "types":1,
    "admission":1,
    "link":1,
    "logically":1,
    "scapegoat":1,
    "cuffed":1,
    "fists":1,
    "targeting":1,
    "parolees":1,
    "plant":1,
    "given":1,
    "stone":1,
    "banging":1,
    "honest":1,
    "lawyer\u2019s":1,
    "uncuffs":1,
    "sonofabitch":1,
    "waited":1,
    "continue":1,
    "raping":1,
    "grabbed":1,
    "funny":1,
    "custody":1,
    "they\u2019d":1,
    "acknowledge":1,
    "moved":1,
    "parting":1,
    "gift":1,
    "hits":1,
    "garagedoor":1,
    "remote":1,
    "hooks":1,
    "wrist":1,
    "grimaces":1,
    "plants":1,
    "strength":1,
    "shoot":1,
    "exit":1,
    "sign":1,
    "key":1,
    "lockbox":1,
    "indicates":1,
    "valetstyle":1,
    "cupboard":1,
    "shooting":1,
    "woman":1,
    "manning":1,
    "monitors":1,
    "monitor":1,
    "clambering":1,
    "concrete":1,
    "moving":1,
    "repeat":1,
    "armed":1,
    "dangerous":1,
    "armory":1,
    "grab":1,
    "m16s":1,
    "rack":1,
    "crazy":1,
    "ranting":1,
    "brody\u2019s":1,
    "swat":1,
    "tactical":1,
    "im":1,
    "youve":1,
    "arrested":1,
    "thats":1,
    "trouble":1,
    "faucet":1,
    "living":1,
    "leather":1,
    "toolroll":1,
    "unties":1,
    "rolls":1,
    "chisels":1,
    "blades":1,
    "screwdrivers":1,
    "theres":1,
    "ice":1,
    "steadies":1,
    "guns":1,
    "drop":1,
    "trigger":1,
    "palms":1,
    "kick":1,
    "towards":1,
    "straighten":1,
    "ax":1,
    "temple":1,
    "freezes":1,
    "alibi\u2019s":1,
    "terrible":1,
    "you\u2019ll":1,
    "trips":1,
    "fire":1,
    "watched":1,
    "coward":1,
    "horror":1,
    "cared":1,
    "saving":1,
    "flesh":1,
    "goading":1,
    "prison":1,
    "system\u2019s":1,
    "system":1,
    "deserves":1,
    "roars":1,
    "swings":1,
    "barrel":1,
    "chest":1,
    "blazing":1,
    "murderous":1,
    "anger":1,
    "pussy":1,
    "relieved":1,
    "clip":1,
    "bone":1,
    "family\u2019s":1,
    "expect":1,
    "understood":1,
    "hadn\u2019t":1,
    "bars":1,
    "recovery":1,
    "grateful":1,
    "niece":1,
    "doyles":1,
    "gurgles":1,
    "smiles\u2026":1,
    "catching":1,
    "dawn":1,
    "rising":1,
    "sun":1,
    "ball":2,
    "step":2,
    "afraid":2,
    "focus":2,
    "figure":2,
    "appears":2,
    "rises":2,
    "franklin":2,
    "park":2,
    "emma\u2019s":2,
    "children":2,
    "accused":2,
    "attorney":2,
    "30s":2,
    "edge":2,
    "honesty":2,
    "lack":2,
    "backbone":2,
    "common":2,
    "low":2,
    "world":2,
    "fate":2,
    "nor":2,
    "gloria":2,
    "irish":2,
    "total":2,
    "verdict":2,
    "chairs":2,
    "wait":2,
    "breakfast":2,
    "diet":2,
    "hidden":2,
    "nobody":2,
    "associate":2,
    "congratulations":2,
    "rear":2,
    "zooms":2,
    "suburban":2,
    "driveway":2,
    "year":2,
    "seeing":2,
    "half":2,
    "crushes":2,
    "push":2,
    "shoulders":2,
    "clears":2,
    "nose":2,
    "mouth":2,
    "blanket":2,
    "mess":2,
    "daddy":2,
    "won":2,
    "joe":2,
    "smile":2,
    "smiles":2,
    "pair":2,
    "laughs":2,
    "toast":2,
    "tequila":2,
    "career":2,
    "friends":2,
    "press":2,
    "clearly":2,
    "knows":2,
    "bring":2,
    "hope":2,
    "driving":2,
    "hugs":2,
    "owe":2,
    "keys":2,
    "flash":2,
    "climbs":2,
    "intersection":2,
    "sight":2,
    "relief":2,
    "stabs":2,
    "staggers":2,
    "runs":2,
    "skids":2,
    "blinks":2,
    "opening":2,
    "screen":2,
    "cecil\u2019s":2,
    "fingers":2,
    "since":2,
    "quiet":2,
    "waves":2,
    "catch":2,
    "tiny":2,
    "rings":2,
    "general":2,
    "following":2,
    "brought":2,
    "five":2,
    "track":2,
    "thanks":2,
    "bacon":2,
    "simple":2,
    "how\u2019ve":2,
    "bro":2,
    "clean":2,
    "hook":2,
    "died":2,
    "yeah":2,
    "image":2,
    "brick":2,
    "worked":2,
    "cup":2,
    "they\u2019ve":2,
    "walls":2,
    "between":2,
    "faced":2,
    "replaced":2,
    "excuse":2,
    "sound":2,
    "started":2,
    "fence":2,
    "tail":2,
    "comes":2,
    "claims":2,
    "innocence":2,
    "hospital":2,
    "reporting":2,
    "live":2,
    "bay":2,
    "covers":2,
    "kanon\u2019s":2,
    "report":2,
    "computer":2,
    "glasses":2,
    "words":2,
    "worst":2,
    "nicorette":2,
    "suspect\u2019s":2,
    "mechanic":2,
    "assault":2,
    "news":2,
    "mention":2,
    "sheets":2,
    "interview":2,
    "taken":2,
    "wrapped":2,
    "staring":2,
    "unsolved":2,
    "homicides":2,
    "pulling":2,
    "serial":2,
    "he\u2019ll":2,
    "consider":2,
    "fly":2,
    "bartender":2,
    "writes":2,
    "buddy":2,
    "mine":2,
    "freedom":2,
    "anybody":2,
    "hail":2,
    "marys":2,
    "grave":2,
    "rap":2,
    "screwed":2,
    "asshole":2,
    "throw":2,
    "prosecutor":2,
    "surprise":2,
    "cases":2,
    "further":2,
    "terry":2,
    "lundgren\u2019s":2,
    "written":2,
    "cards":2,
    "questions":2,
    "4th":2,
    "answer":2,
    "possible":2,
    "earlier":2,
    "finished":2,
    "groups":2,
    "hold":2,
    "counts":2,
    "loss":2,
    "exact":2,
    "lifted":2,
    "fit":2,
    "tape\u2019s":2,
    "presses":2,
    "fills":2,
    "recognition":2,
    "click":2,
    "ends":2,
    "matches":2,
    "possibility":2,
    "sounds":2,
    "bottom":2,
    "caught":2,
    "alibi":2,
    "defender":2,
    "eats":2,
    "says":2,
    "session":2,
    "prosecution":2,
    "makes":2,
    "client":2,
    "plea":2,
    "statement":2,
    "professional":2,
    "opinion":2,
    "death":2,
    "trauma":2,
    "skull":2,
    "caused":2,
    "correct":2,
    "grease":2,
    "yard":2,
    "covered":2,
    "violent":2,
    "easier":2,
    "use":2,
    "inch":2,
    "dining":2,
    "entire":2,
    "spread":2,
    "snap":2,
    "grips":2,
    "leans":2,
    "she\u2019s":2,
    "field":2,
    "dr":2,
    "brown":2,
    "black":2,
    "object":2,
    "assume":2,
    "voice":2,
    "state":2,
    "actually":2,
    "similar":2,
    "shut":2,
    "guess":2,
    "sick":2,
    "shake":2,
    "playing":2,
    "whole":2,
    "taking":2,
    "ready":2,
    "crucify":2,
    "checking":2,
    "tomorrow":2,
    "recording":2,
    "begins":2,
    "clutching":2,
    "objection":2,
    "soon":2,
    "bangs":2,
    "gavel":2,
    "stand":2,
    "bible":2,
    "swear":2,
    "prosecution\u2019s":2,
    "against":2,
    "seems":2,
    "finally":2,
    "aside":2,
    "1":2,
    "zippo":2,
    "happens":2,
    "closed":2,
    "myself":2,
    "place":2,
    "gone":2,
    "processed":2,
    "married":2,
    "disappears":2,
    "kitchen":2,
    "pours":2,
    "justice":2,
    "cry":2,
    "shore":2,
    "victor":2,
    "alive":2,
    "feeling":2,
    "strides":2,
    "slowly":2,
    "trash":2,
    "floor":2,
    "kicks":2,
    "bends":2,
    "fuller\u2019s":2,
    "auto":2,
    "repair":2,
    "shop":2,
    "pull":2,
    "bays":2,
    "carries":2,
    "mustang":2,
    "passes":2,
    "ackerman\u2019s":2,
    "reveal":2,
    "wheels":2,
    "brakes":2,
    "knew":2,
    "balls":2,
    "ruin":2,
    "id":2,
    "links":2,
    "picking":2,
    "who\u2019s":2,
    "mo":2,
    "stu":2,
    "child":2,
    "butchered":2,
    "throat":2,
    "beneath":2,
    "excons":2,
    "stacks":2,
    "pages":2,
    "coat":2,
    "fuck":2,
    "break":2,
    "warn":2,
    "ride":2,
    "intext":2,
    "reach":2,
    "except":2,
    "selfhelp":2,
    "cement":2,
    "cemex":2,
    "gate":2,
    "obviously":2,
    "intercut":2,
    "admit":2,
    "they\u2019ll":2,
    "foot":2,
    "creaks":2,
    "noise":2,
    "holding":2,
    "cold":2,
    "fault":2,
    "option":2,
    "insane":2,
    "connect":2,
    "prius":2,
    "cuff":2,
    "backwards":2,
    "suspect":2,
    "mrs":2,
    "didnt":2,
    "water":2,
    "bend":2,
    "bullets":2,
    "small":3,
    "where\u2019s":3,
    "neither":3,
    "society":3,
    "each":3,
    "arm":3,
    "shoes":3,
    "kemp":3,
    "close":3,
    "days":3,
    "free":3,
    "ma\u2019":3,
    "framed":3,
    "garage":3,
    "open":3,
    "midwife":3,
    "great":3,
    "might":3,
    "girl":3,
    "beautiful":3,
    "already":3,
    "raises":3,
    "kills":3,
    "cab":3,
    "give":3,
    "best":3,
    "corner":3,
    "lights":3,
    "waiting":3,
    "fires":3,
    "thunder":3,
    "rumbles":3,
    "sky":3,
    "light":3,
    "straight":3,
    "sigh":3,
    "feet":3,
    "red":3,
    "jesus":3,
    "location":3,
    "20th":3,
    "they\u2019re":3,
    "jacket":3,
    "involved":3,
    "four":3,
    "start":3,
    "morning":3,
    "front":3,
    "serious":3,
    "rubs":3,
    "ever":3,
    "second":3,
    "pen":3,
    "male":3,
    "try":3,
    "sometimes":3,
    "conference":3,
    "pocket":3,
    "how\u2019s":3,
    "gives":3,
    "none":3,
    "wouldn\u2019t":3,
    "contact":3,
    "things":3,
    "ass":3,
    "da\u2019":3,
    "though":3,
    "done":3,
    "officer":3,
    "sips":3,
    "part":3,
    "gestures":3,
    "set":3,
    "couple":3,
    "bit":3,
    "christ":3,
    "tv":3,
    "waitress":3,
    "stopped":3,
    "chainlink":3,
    "camera":3,
    "24":3,
    "must":3,
    "gotta":3,
    "twenty":3,
    "let\u2019s":3,
    "big":3,
    "working":3,
    "important":3,
    "finger":3,
    "sit":3,
    "job":3,
    "type":3,
    "stack":3,
    "true":3,
    "guy\u2019s":3,
    "every":3,
    "hall":3,
    "priest":3,
    "sighs":3,
    "steps":3,
    "mistake":3,
    "until":3,
    "hasn\u2019t":3,
    "glass":3,
    "whatever":3,
    "scotch":3,
    "prayer":3,
    "along":3,
    "public":3,
    "ask":3,
    "worry":3,
    "notices":3,
    "church":3,
    "sleep":3,
    "months":3,
    "consistent":3,
    "machine":3,
    "motor":3,
    "invasion":3,
    "motive":3,
    "opposite":3,
    "picked":3,
    "payphone":3,
    "came":3,
    "without":3,
    "weighs":3,
    "prosecute":3,
    "present":3,
    "note":3,
    "wish":3,
    "huge":3,
    "misinterpretation":3,
    "doctor":3,
    "ago":3,
    "watch":3,
    "milk":3,
    "piece":3,
    "sense":3,
    "forensic":3,
    "moves":3,
    "ten":3,
    "probably":3,
    "legal":3,
    "closes":3,
    "bullshit":3,
    "onto":3,
    "full":3,
    "watching":3,
    "options":3,
    "hears":3,
    "stairs":3,
    "logan":3,
    "forward":3,
    "make":3,
    "die":3,
    "side":3,
    "filter":3,
    "cigarette":3,
    "puts":3,
    "third":3,
    "fine":3,
    "cars":3,
    "dream":3,
    "business":3,
    "exactly":3,
    "fucking":3,
    "killed":3,
    "parks":3,
    "flowers":3,
    "tortured":3,
    "library":3,
    "running":3,
    "afternoon":3,
    "continuous":3,
    "factory":3,
    "works":3,
    "continues":3,
    "reoffend":3,
    "making":3,
    "ids":3,
    "knees":3,
    "husband":3,
    "lawyer":3,
    "pain":3,
    "patrol":3,
    "courtroom":4,
    "accent":4,
    "broken":4,
    "mulligan":4,
    "told":4,
    "saying":4,
    "victim":4,
    "seat":4,
    "early":4,
    "leaves":4,
    "rachel\u2019s":4,
    "briefcase":4,
    "digs":4,
    "finds":4,
    "guilty":4,
    "leave":4,
    "hurries":4,
    "play":4,
    "picture":4,
    "approach":4,
    "late":4,
    "needed":4,
    "kisses":4,
    "god":4,
    "number":4,
    "our":4,
    "meet":4,
    "drives":4,
    "falls":4,
    "cop":4,
    "sitting":4,
    "lifts":4,
    "glances":4,
    "lying":4,
    "young":4,
    "darby":4,
    "arms":4,
    "oil":4,
    "south":4,
    "sir":4,
    "hang":4,
    "its":4,
    "lost":4,
    "hangs":4,
    "find":4,
    "drinking":4,
    "city":4,
    "better":4,
    "either":4,
    "nods":4,
    "hours":4,
    "slides":4,
    "too":4,
    "paper":4,
    "maybe":4,
    "wanted":4,
    "papers":4,
    "parts":4,
    "dead":4,
    "clothes":4,
    "plastic":4,
    "charge":4,
    "scared":4,
    "ran":4,
    "approaches":4,
    "may":4,
    "haven\u2019t":4,
    "word":4,
    "feels":4,
    "couldn\u2019t":4,
    "much":4,
    "parking":4,
    "took":4,
    "attorney\u2019s":4,
    "tape":4,
    "shoulder":4,
    "very":4,
    "isn\u2019t":4,
    "criminal":4,
    "lucky":4,
    "once":4,
    "course":4,
    "hallway":4,
    "he\u2019d":4,
    "mind":4,
    "standing":4,
    "attention":4,
    "kept":4,
    "never":4,
    "soda":4,
    "mall":4,
    "corridor":4,
    "alley":4,
    "view":4,
    "graveyard":4,
    "broke":4,
    "pretty":5,
    "looking":5,
    "district":5,
    "we\u2019re":5,
    "face":5,
    "dorchester":5,
    "am":5,
    "beside":5,
    "nice":5,
    "grabs":5,
    "drops":5,
    "shot":5,
    "emergency":5,
    "desk":5,
    "lets":5,
    "holds":5,
    "iphone":5,
    "perfect":5,
    "parked":5,
    "kid":5,
    "pops":5,
    "bloody":5,
    "ambulance":5,
    "hurry":5,
    "bad":5,
    "stay":5,
    "drive":5,
    "happened":5,
    "da\u2019s":5,
    "sure":5,
    "thank":5,
    "should":5,
    "card":5,
    "minutes":5,
    "reporter":5,
    "officers":5,
    "more":5,
    "driver":5,
    "work":5,
    "daughter":5,
    "both":5,
    "we\u2019ve":5,
    "files":5,
    "killer":5,
    "thought":5,
    "yet":5,
    "group":5,
    "under":5,
    "three":5,
    "far":5,
    "story":5,
    "caller":5,
    "used":5,
    "hell":5,
    "anyone":5,
    "people":5,
    "smell":5,
    "courthouse":5,
    "trial":5,
    "anything":5,
    "truth":5,
    "thinking":5,
    "cops":5,
    "long":5,
    "beat":5,
    "tries":5,
    "gonzales":5,
    "these":5,
    "levys":5,
    "challenger":5,
    "won\u2019t":6,
    "believe":6,
    "today":6,
    "choice":6,
    "stares":6,
    "well":6,
    "rest":6,
    "few":6,
    "bar":6,
    "lose":6,
    "went":6,
    "counselor":6,
    "starts":6,
    "pushes":6,
    "head":6,
    "hands":6,
    "little":6,
    "opens":6,
    "hey":6,
    "us":6,
    "change":6,
    "breathes":6,
    "stop":6,
    "move":6,
    "real":6,
    "slams":6,
    "coming":6,
    "while":6,
    "you\u2019d":6,
    "everything":6,
    "point":6,
    "years":6,
    "listen":6,
    "almost":6,
    "turn":6,
    "saw":6,
    "brother":6,
    "tools":6,
    "alone":6,
    "victims":6,
    "table":6,
    "himself":6,
    "wasn\u2019t":6,
    "mckenna":6,
    "those":6,
    "eyes":6,
    "carrying":6,
    "listening":6,
    "goes":6,
    "kill":6,
    "abandoned":6,
    "dont":6,
    "emma":7,
    "walk":7,
    "parole":7,
    "judge":7,
    "window":7,
    "hello":7,
    "picks":7,
    "engine":7,
    "past":7,
    "across":7,
    "road":7,
    "i\u2019d":7,
    "trying":7,
    "watches":7,
    "called":7,
    "outside":7,
    "da":7,
    "station":7,
    "doyle\u2019s":7,
    "hard":7,
    "line":7,
    "stupid":7,
    "else":7,
    "being":7,
    "own":7,
    "innocent":7,
    "jones":7,
    "wounds":7,
    "bag":7,
    "travis":7,
    "stands":8,
    "jury":8,
    "home":8,
    "shit":8,
    "bed":8,
    "old":8,
    "breath":8,
    "guys":8,
    "body":8,
    "hair":8,
    "stops":8,
    "911":8,
    "okay":8,
    "please":8,
    "new":8,
    "really":8,
    "murder":8,
    "thing":8,
    "murdered":8,
    "enough":8,
    "which":8,
    "understand":8,
    "same":8,
    "toward":9,
    "cecil":9,
    "court":9,
    "there\u2019s":9,
    "yourself":9,
    "sits":9,
    "their":9,
    "any":9,
    "phone":9,
    "oh":9,
    "escalade":9,
    "turns":9,
    "hand":9,
    "pulls":9,
    "photo":9,
    "hurt":9,
    "coffee":9,
    "secretary":9,
    "good":9,
    "you\u2019ve":9,
    "than":9,
    "because":9,
    "life":9,
    "talk":9,
    "gets":9,
    "warehouse":9,
    "first":9,
    "evening":10,
    "put":10,
    "before":10,
    "inside":10,
    "gun":10,
    "where":10,
    "will":10,
    "i\u2019ve":10,
    "rain":10,
    "somebody":10,
    "hear":10,
    "way":10,
    "guy":10,
    "police":10,
    "detective":10,
    "evidence":10,
    "does":10,
    "wall":10,
    "another":11,
    "hammer":11,
    "defense":11,
    "still":11,
    "after":11,
    "other":11,
    "talking":11,
    "doesn\u2019t":11,
    "accident":11,
    "had":11,
    "run":11,
    "said":11,
    "made":11,
    "found":11,
    "i\u2019ll":11,
    "men":11,
    "lot":11,
    "witness":11,
    "takes":12,
    "doing":12,
    "over":12,
    "something":12,
    "left":12,
    "some":12,
    "white":12,
    "tobias":12,
    "nothing":13,
    "blood":13,
    "two":13,
    "baby":13,
    "look":13,
    "mr":13,
    "right":13,
    "help":13,
    "hit":13,
    "family":13,
    "yes":13,
    "say":13,
    "even":13,
    "come":14,
    "behind":14,
    "boston":14,
    "last":14,
    "go":14,
    "let":14,
    "off":14,
    "mean":14,
    "lundgren":14,
    "levy\u2019s":14,
    "would":15,
    "or":15,
    "has":15,
    "time":15,
    "door":15,
    "room":15,
    "name":16,
    "here":16,
    "take":16,
    "around":16,
    "brody":16,
    "case":16,
    "honor":16,
    "only":16,
    "car":16,
    "think":16,
    "again":16,
    "by":16,
    "ext":17,
    "when":17,
    "want":17,
    "sorry":17,
    "wife":17,
    "street":17,
    "through":17,
    "office":17,
    "sees":17,
    "she":18,
    "them":18,
    "what\u2019s":19,
    "can\u2019t":19,
    "need":19,
    "walks":20,
    "how":20,
    "man":20,
    "away":20,
    "tell":20,
    "could":20,
    "stuart":21,
    "then":21,
    "cut":21,
    "ella":21,
    "they":21,
    "didn\u2019t":21,
    "who":22,
    "see":22,
    "ackerman":22,
    "van":22,
    "did":24,
    "why":25,
    "now":25,
    "been":25,
    "be":26,
    "house":26,
    "down":26,
    "one":26,
    "can":26,
    "were":26,
    "all":27,
    "like":27,
    "going":28,
    "there":29,
    "get":29,
    "about":30,
    "rachel":30,
    "if":31,
    "mitch\u2019s":31,
    "that\u2019s":32,
    "an":32,
    "day":32,
    "you\u2019re":32,
    "got":32,
    "he\u2019s":33,
    "as":33,
    "int":34,
    "call":34,
    "into":34,
    "don\u2019t":35,
    "night":35,
    "it\u2019s":37,
    "so":37,
    "back":38,
    "we":38,
    "kanon":38,
    "are":39,
    "know":40,
    "her":41,
    "no":42,
    "looks":43,
    "from":47,
    "not":47,
    "just":47,
    "my":48,
    "up":49,
    "have":51,
    "with":53,
    "but":56,
    "do":56,
    "i\u2019m":57,
    "doyle":58,
    "out":60,
    "this":62,
    "for":64,
    "him":66,
    "at":66,
    "your":69,
    "levy":74,
    "what":79,
    "me":80,
    "that":91,
    "was":91,
    "is":102,
    "on":103,
    "his":111,
    "he":123,
    "it":126,
    "in":139,
    "":169,
    "of":170,
    "mitch":207,
    "i":212,
    "and":251,
    "to":265,
    "you":286,
    "a":303,
    "the":548
}