{
    "seemed":1,
    "violent":1,
    "choking":1,
    "makeshift":1,
    "keeping":1,
    "afloat":1,
    "tattered":1,
    "basketball":1,
    "yet":1,
    "doggedly":1,
    "cling":1,
    "shared":1,
    "conspiring":1,
    "alive":1,
    "welcome":1,
    "eighthour":1,
    "promise":1,
    "younger":1,
    "slipping":1,
    "losing":1,
    "tender":1,
    "grasp":1,
    "older":1,
    "desperate":1,
    "lunge":1,
    "great":1,
    "shine":1,
    "bright":1,
    "drags":1,
    "hours":1,
    "naked":1,
    "truly":1,
    "matchcut":1,
    "3":1,
    "sheer":1,
    "mass":1,
    "threatening":1,
    "shred":1,
    "fabric":1,
    "hugo":1,
    "boss":1,
    "suit":1,
    "credits":1,
    "hypnotic":1,
    "easternflavored":1,
    "courses":1,
    "cabin":1,
    "feeding":1,
    "machines":1,
    "handguns":1,
    "withdrawn":1,
    "fortune":1,
    "500":1,
    "firearms":1,
    "sw":1,
    "40s":1,
    "sigsauer":1,
    "380s":1,
    "pair":1,
    "mp5s":1,
    "measure":1,
    "clips":1,
    "thumbedfor":1,
    "grips":1,
    "fitted":1,
    "protection":1,
    "loud":1,
    "cherry":1,
    "top":1,
    "may":1,
    "someone":1,
    "deaf":1,
    "danceseductivelybefore":1,
    "female":1,
    "companions":1,
    "startlingly":1,
    "salacious":1,
    "coupling":1,
    "asians":1,
    "roorvtful":1,
    "blackgamblersand":1,
    "dancersdagger":1,
    "staff":1,
    "approaches":1,
    "badass":1,
    "leave":1,
    "twenty":1,
    "crawl":1,
    "fuck":1,
    "outta":1,
    "dies":1,
    "leaving":1,
    "searing":1,
    "wake":1,
    "almost":1,
    "indifference":1,
    "bra":1,
    "simply":1,
    "friends":1,
    "problem":1,
    "patrons":1,
    "smackfuel":1,
    "byebye":1,
    "psychologist":1,
    "angry":1,
    "steamrolls":1,
    "flatout":1,
    "knocking":1,
    "aside":1,
    "hardcore":1,
    "counterparts":1,
    "thought":1,
    "continued":1,
    "van":1,
    "damme":1,
    "crapping":1,
    "pants":1,
    "minute":1,
    "reflects":1,
    "canted":1,
    "attitude":1,
    "em":1,
    "shrugs":1,
    "stands":1,
    "microphone":1,
    "holding":1,
    "weapon":1,
    "sole":1,
    "proprietor":1,
    "ak47":1,
    "toting":1,
    "bodyguards":1,
    "cover":1,
    "guns":1,
    "lethal":1,
    "decided":1,
    "liven":1,
    "party":1,
    "whatever":1,
    "belong":1,
    "anywhere":1,
    "fucks":1,
    "sharply":1,
    "orders":1,
    "responsibility":1,
    "throws":1,
    "blackonblack":1,
    "austinmartin":1,
    "climbs":1,
    "abruptlyguns":1,
    "en":1,
    "vanish":1,
    "gets":1,
    "disperse":1,
    "glimpse":1,
    "late":1,
    "wondering":1,
    "missed":1,
    "filthy":1,
    "kind":1,
    "breakfast":1,
    "eat":1,
    "lifes":1,
    "hen":1,
    "horrible":1,
    "prognosis":1,
    "ends":1,
    "death":1,
    "pout":1,
    "lips":1,
    "mess":1,
    "struck":1,
    "dignified":1,
    "selfpossessed":1,
    "officer":1,
    "words":1,
    "ruin":1,
    "golden":1,
    "silence":1,
    "nose":1,
    "explodes":1,
    "snatched":1,
    "whiplashed":1,
    "blur":1,
    "head":1,
    "chest":1,
    "guards":1,
    "descend":1,
    "dogpile":1,
    "opens":1,
    "th\u00a7":1,
    "rests":1,
    "corridor":1,
    "alarmssounding":1,
    "flashing":1,
    "mercifully":1,
    "key":1,
    "throgh":1,
    "jumps":1,
    "skids":1,
    "lifts":1,
    "abruptly":1,
    "striped":1,
    "barbers":1,
    "pole":1,
    "spiraling":1,
    "entrance":1,
    "barbersshare":1,
    "gossip":1,
    "customersinside":1,
    "saunter":1,
    "obscure":1,
    "whispers":1,
    "await":1,
    "severalother":1,
    "decent":1,
    "vacationclutter":1,
    "background":1,
    "touch":1,
    "detectors":1,
    "honest":1,
    "metal":1,
    "keeps":1,
    "cross":1,
    "course":1,
    "rarely":1,
    "steadily":1,
    "i\u00a7":1,
    "brains":1,
    "high":1,
    "payroll":1,
    "civilian":1,
    "groupof":1,
    "thempeer":1,
    "caged":1,
    "bird":1,
    "monsters":1,
    "funk":1,
    "fix":1,
    "coworker":1,
    "unsleeves":1,
    "meters":1,
    "rare":1,
    "exceedingly":1,
    "funky":1,
    "rejuvenation":1,
    "leaps":1,
    "platter":1,
    "grooving":1,
    "childlike":1,
    "bust":1,
    "familiar":1,
    "sight":1,
    "errands":1,
    "serpentine":1,
    "smooth":1,
    "kool":1,
    "gang":1,
    "jam":1,
    "wind":1,
    "doin":1,
    "heatin":1,
    "escort":1,
    "dad":1,
    "itll":1,
    "trunk":1,
    "dogooding":1,
    "melts":1,
    "suddenly":1,
    "centered":1,
    "years":1,
    "handwritten":1,
    "american":1,
    "address":1,
    "story":1,
    "pal":1,
    "adaenglish":1,
    "engine":1,
    "satisfied":1,
    "qil":1,
    "duty":1,
    "meter":1,
    "cabs":1,
    "women":1,
    "board":1,
    "cinder":1,
    "horse":1,
    "corner":1,
    "profession":1,
    "stealing":1,
    "cars":1,
    "fit":1,
    "giveaway":1,
    "perpetually":1,
    "sls":1,
    "hows":1,
    "acquisition":1,
    "comin":1,
    "g":1,
    "convincing":1,
    "presentation":1,
    "nonnegotiable":1,
    "graphite":1,
    "shafts":1,
    "save":1,
    "excuses":1,
    "heavy":1,
    "investors":1,
    "leaning":1,
    "tolerate":1,
    "wait":1,
    "simple":1,
    "dave":1,
    "s":1,
    "popular":1,
    "term":1,
    "cheddar":1,
    "making":1,
    "clear":1,
    "youd":1,
    "somethin":1,
    "anyway":1,
    "wanna":1,
    "bullshit":1,
    "jesus":1,
    "hurry":1,
    "seeing":1,
    "pretending":1,
    "also":1,
    "gangster":1,
    "drugs":1,
    "strongarm":1,
    "grow":1,
    "opened":1,
    "murdered":1,
    "cause":1,
    "searches":1,
    "expertly":1,
    "letters":1,
    "checkbook":1,
    "brief":1,
    "rifles":1,
    "medicine":1,
    "cabinet":1,
    "systematically":1,
    "dumping":1,
    "prescription":1,
    "bottles":1,
    "sink":1,
    "rooting":1,
    "rainbow":1,
    "pills":1,
    "ride":1,
    "fancy":1,
    "button":1,
    "digital":1,
    "display":1,
    "parking":1,
    "job":1,
    "mo":1,
    "plain":1,
    "pulled":1,
    "yesterday":1,
    "popped":1,
    "style":1,
    "clue":1,
    "starters":1,
    "facade":1,
    "icyhearted":1,
    "bgirl":1,
    "saving":1,
    "tv":1,
    "errand":1,
    "ess":1,
    "sold":1,
    "realized":1,
    "hopelessly":1,
    "closes":1,
    "wanders":1,
    "peeking":1,
    "alley":1,
    "slack":1,
    "amazement":1,
    "identity":1,
    "hello":1,
    "criminal":1,
    "ladder":1,
    "grand":1,
    "theft":1,
    "auto":1,
    "trespassing":1,
    "crosses":1,
    "idea":1,
    "unwavering":1,
    "gaze":1,
    "truthfulness":1,
    "possibility":1,
    "calls":1,
    "sometimes":1,
    "mostly":1,
    "rm":1,
    "flags":1,
    "bounding":1,
    "finds":1,
    "bothering":1,
    "ms":1,
    "delivery":1,
    "kept":1,
    "answer":1,
    "started":1,
    "wheels":1,
    "spinning":1,
    "worrying":1,
    "am":1,
    "neither":1,
    "wheres":1,
    "fuckin":1,
    "hey":1,
    "twoothers":1,
    "belowmove":1,
    "o":1,
    "element":1,
    "insure":1,
    "ain":1,
    "t":1,
    "eases":1,
    "fighting":1,
    "stance":1,
    "gap":1,
    "lowwhistle":1,
    "showsoff":1,
    "suddenlysquealsup":1,
    "twomoredogs":1,
    "hop":1,
    "belts":1,
    "clothing":1,
    "assembled":1,
    "attackers":1,
    "defeat":1,
    "ultimately":1,
    "chainlink":1,
    "fence":1,
    "honorable":1,
    "laotzu":1,
    "assassination":1,
    "month":1,
    "grocer":1,
    "ts":1,
    "shop":1,
    "firebombed":1,
    "wife":1,
    "respect":1,
    "done":1,
    "blacks":1,
    "honor":1,
    "overlord":1,
    "news":1,
    "filnc":1,
    "wiped":1,
    "driving":1,
    "protected":1,
    "against":1,
    "newlysigned":1,
    "alliance":1,
    "laotzus":1,
    "least":1,
    "strike":1,
    "harder":1,
    "strength":1,
    "serves":1,
    "communists":1,
    "claim":1,
    "successor":1,
    "honored":1,
    "properly":1,
    "enforcer":1,
    "lose":1,
    "china":1,
    "justice":1,
    "wears":1,
    "row":1,
    "club":1,
    "bailed":1,
    "panoramic":1,
    "view":1,
    "thick":1,
    "blanket":1,
    "homes":1,
    "buildings":1,
    "flatlands":1,
    "hsingkang":1,
    "resting":1,
    "soft":1,
    "ice":1,
    "cream":1,
    "truck":1,
    "park":1,
    "balance":1,
    "halfdozen":1,
    "cones":1,
    "materialized":1,
    "beside":1,
    "appetite":1,
    "hold":1,
    "coming":1,
    "fuse":1,
    "cool":1,
    "glance":1,
    "exchange":1,
    "took":1,
    "mos":1,
    "whip":1,
    "met":1,
    "playing":1,
    "easier":1,
    "breathing":1,
    "shoots":1,
    "extreme":1,
    "grass":1,
    "kick":1,
    "fucking":1,
    "follow":1,
    "stand":1,
    "field":1,
    "recruit":1,
    "lottstyle":1,
    "defenders":1,
    "smaacck":1,
    "broke":1,
    "arm":1,
    "tackler":1,
    "sidelines":1,
    "reaches":1,
    "cloth":1,
    "respecting":1,
    "manhood":1,
    "urn":1,
    "hum":1,
    "doorbuzzes":1,
    "tym":1,
    "busy":1,
    "corning":1,
    "girlfriend":1,
    "viewhole":1,
    "sornethin":1,
    "hardcut":1,
    "explodingout":1,
    "colins":1,
    "apartment":1,
    "maelstrom":1,
    "sickening":1,
    "cornes":1,
    "tied":1,
    "hallmarks":1,
    "beating":1,
    "ladies":1,
    "guess":1,
    "furtherstill":1,
    "unveil":1,
    "boats":1,
    "circled":1,
    "corpse":1,
    "eased":1,
    "boat":1,
    "shore":1,
    "followed":1,
    "aerial":1,
    "cruiser":1,
    "mixed":1,
    "dealings":1,
    "yqy":1,
    "dying":1,
    "igm":1,
    "world":1,
    "concern":1,
    "nobody":1,
    "responsible":1,
    "might":1,
    "listen":1,
    "squealsup":1,
    "hurries":1,
    "wrinkled":1,
    "piece":1,
    "either":1,
    "oneway":1,
    "ticket":1,
    "apocalypse":1,
    "saw":1,
    "earlier":1,
    "carnage":1,
    "frame":1,
    "shattered":1,
    "surface":1,
    "print":1,
    "deeply":1,
    "scarred":1,
    "picks":1,
    "shards":1,
    "spill":1,
    "absentlyonto":1,
    "still":1,
    "crooked":1,
    "walls":1,
    "blonde":1,
    "astride":1,
    "model":1,
    "clearly":1,
    "fingers":1,
    "ferret":1,
    "ring":1,
    "springs":1,
    "finishes":1,
    "empties":1,
    "glove":1,
    "compartment":1,
    "ashtray":1,
    "sun":1,
    "visors":1,
    "during":1,
    "entire":1,
    "cop":1,
    "fast":1,
    "thorough":1,
    "completely":1,
    "focused":1,
    "ducks":1,
    "lays":1,
    "seat":1,
    "threw":1,
    "thoughtd":1,
    "funny":1,
    "hid":1,
    "ran":1,
    "mom":1,
    "hed":1,
    "hurt":1,
    "came":1,
    "running":1,
    "supposed":1,
    "jump":1,
    "wed":1,
    "mother":1,
    "gentlemen":1,
    "officially":1,
    "approved":1,
    "bid":1,
    "hour":1,
    "frank":1,
    "bids":1,
    "contention":1,
    "offered":1,
    "prime":1,
    "bridge":1,
    "designed":1,
    "barry":1,
    "caviar":1,
    "crackers":1,
    "cameraslowlydrifts":1,
    "discover":1,
    "forces":1,
    "perspective":1,
    "magnify":1,
    "illusion":1,
    "built":1,
    "below":1,
    "bearing":1,
    "teams":1,
    "elegant":1,
    "logo":1,
    "casually":1,
    "displayed":1,
    "silent":1,
    "fruit":1,
    "ivans":1,
    "detailed":1,
    "longrunning":1,
    "planning":1,
    "smile":1,
    "downwind":1,
    "feet":1,
    "coals":1,
    "misery":1,
    "loves":1,
    "company":1,
    "theatrics":1,
    "drag":1,
    "longer":1,
    "wrapping":1,
    "cradles":1,
    "studies":1,
    "shadow":1,
    "questioning":1,
    "chessboard":1,
    "ones":1,
    "jotted":1,
    "plays":1,
    "alone":1,
    "sidewalk":1,
    "shades":1,
    "offer":1,
    "stick":1,
    "gum":1,
    "army":1,
    "everyones":1,
    "seen":1,
    "policeman":1,
    "worlds":1,
    "common":1,
    "pitch":1,
    "sunlight":1,
    "floods":1,
    "gaffed":1,
    "overhead":1,
    "rafters":1,
    "tidy":1,
    "bullet":1,
    "hole":1,
    "forehead":1,
    "floats":1,
    "intersection":1,
    "jerks":1,
    "wheel":1,
    "lucky":1,
    "being":1,
    "hurled":1,
    "bike":1,
    "collide":1,
    "wider":1,
    "angle":1,
    "tucks":1,
    "cement":1,
    "circle":1,
    "helmet":1,
    "rider":1,
    "follows":1,
    "fight":1,
    "drilling":1,
    "killshot":1,
    "maids":1,
    "voice":1,
    "rising":1,
    "bark":1,
    "bursts":1,
    "singsong":1,
    "seems":1,
    "gotten":1,
    "excited":1,
    "loyalty":1,
    "unrivaled":1,
    "informed":1,
    "contracted":1,
    "trying":1,
    "provoke":1,
    "type":1,
    "dissent":1,
    "concerned":1,
    "daughters":1,
    "fool":1,
    "charms":1,
    "distorting":1,
    "thinking":1,
    "cannot":1,
    "afford":1,
    "ninetyfive":1,
    "mercedes":1,
    "trickedout":1,
    "badasses":1,
    "emerge":1,
    "carrying":1,
    "gym":1,
    "bags":1,
    "goddamned":1,
    "barge":1,
    "treat":1,
    "downtown":1,
    "kais":1,
    "unzip":1,
    "tip":1,
    "watchin":1,
    "horror":1,
    "stumbles":1,
    "fully":1,
    "ablaze":1,
    "bedside":1,
    "pulls":1,
    "knotted":1,
    "turned":1,
    "bigger":1,
    "reason":1,
    "excuse":1,
    "heard":1,
    "song":1,
    "morn":1,
    "died":1,
    "ready":1,
    "sign":1,
    "pay":1,
    "deed":1,
    "restaurant":1,
    "nods":1,
    "nap":1,
    "fortyforty":1,
    "driggs":1,
    "twentytwo":1,
    "anymore":1,
    "sheltering":1,
    "herself":1,
    "shyly":1,
    "towel":1,
    "impatiently":1,
    "cold":1,
    "meeting":1,
    "heart":1,
    "gasps":1,
    "harshly":1,
    "mouth":1,
    "push":1,
    "terror":1,
    "descendson":1,
    "themnext":1,
    "peacefully":1,
    "lilll":1,
    "remain":1,
    "territory":1,
    "collective":1,
    "throat":1,
    "strains":1,
    "regards":1,
    "detached":1,
    "sliding":1,
    "sexy":1,
    "urgent":1,
    "flow":1,
    "djs":1,
    "house":1,
    "lessons":1,
    "however":1,
    "moving":1,
    "rhythm":1,
    "gilbert":1,
    "godfrey":1,
    "laughsas":1,
    "helps":1,
    "backside":1,
    "potentially":1,
    "process":1,
    "saying":1,
    "yours":1,
    "targeted":1,
    "burned":1,
    "disturbing":1,
    "m":1,
    "glad":1,
    "brought":1,
    "attention":1,
    "likes":1,
    "moves":1,
    "office":1,
    "damned":1,
    "havent":1,
    "nearly":1,
    "impressive":1,
    "barely":1,
    "speaks":1,
    "language":1,
    "unsigned":1,
    "knowing":1,
    "offers":1,
    "stuttersteps":1,
    "forward":1,
    "pins":1,
    "macs":1,
    "gun":1,
    "foot":1,
    "lowers":1,
    "boom":1,
    "savageforearmto":1,
    "temple":1,
    "grabs":1,
    "mistake":1,
    "intercepts":1,
    "severely":1,
    "torqueshis":1,
    "wrist":1,
    "windmillshim":1,
    "highvoltage":1,
    "cattleprod":1,
    "thrustsout":1,
    "fluid":1,
    "motion":1,
    "strip":1,
    "prod":1,
    "drive":1,
    "zaaap":1,
    "fella":1,
    "danced":1,
    "spastic":1,
    "twitch":1,
    "quick":1,
    "realizes":1,
    "theyll":1,
    "backtrack":1,
    "gamblerssees":1,
    "profit":1,
    "disaster":1,
    "changes":1,
    "stopped":1,
    "tables":1,
    "toforce":1,
    "scale":1,
    "heels":1,
    "openmouthed":1,
    "dj":1,
    "service":1,
    "sickeningly":1,
    "silks":1,
    "forced":1,
    "roof":1,
    "safety":1,
    "allow":1,
    "enter":1,
    "estate":1,
    "magnate":1,
    "rises":1,
    "warmly":1,
    "greet":1,
    "champagnes":1,
    "tray":1,
    "live":1,
    "crystal":1,
    "desk":1,
    "digging":1,
    "aid":1,
    "kit":1,
    "kitchenette":1,
    "hot":1,
    "bothered":1,
    "slow":1,
    "okay":1,
    "values":1,
    "dropping":1,
    "most":1,
    "country":1,
    "stenciled":1,
    "perfectly":1,
    "overlay":1,
    "kosher":1,
    "pagoda":1,
    "encounter":1,
    "serve":1,
    "farewell":1,
    "pleasure":1,
    "ballgame":1,
    "filtering":1,
    "shotguns":1,
    "hip":1,
    "princess":1,
    "finished":1,
    "share":1,
    "assured":1,
    "promised":1,
    "doubt":1,
    "worked":1,
    "surprised":1,
    "lucrative":1,
    "except":1,
    "unexpected":1,
    "casualty":1,
    "casualities":1,
    "matter":1,
    "else":1,
    "entirely":1,
    "dogs":1,
    "chained":1,
    "support":1,
    "column":1,
    "unpleasant":1,
    "sadistic":1,
    "methodical":1,
    "resonate":1,
    "emotional":1,
    "anguish":1,
    "tashiro":1,
    "mifunes":1,
    "dimantling":1,
    "yoiimbo":1,
    "nighty":1,
    "drawers":1,
    "romeo":1,
    "shoot":1,
    "crew":1,
    "1":1,
    "dawg":1,
    "throw":1,
    "maurices":1,
    "body":1,
    "absorbs":1,
    "full":1,
    "impact":1,
    "groaning":1,
    "limply":1,
    "flat":1,
    "pancake":1,
    "valise":1,
    "straightaway":1,
    "attorney":1,
    "offense":1,
    "david":1,
    "review":1,
    "particularly":1,
    "details":1,
    "taken":1,
    "excellent":1,
    "spirits":1,
    "shortly":1,
    "youll":1,
    "order":1,
    "wonderful":1,
    "identical":1,
    "given":1,
    "belongs":1,
    "per":1,
    "agreement":1,
    "11":1,
    "ve":1,
    "ry":1,
    "pleased":1,
    "afraid":1,
    "hightime":1,
    "task":1,
    "used":1,
    "luxurybox":1,
    "shitty":1,
    "bloodsucker":1,
    "carried":1,
    "streets":1,
    "oh":1,
    "part":1,
    "nobodys":1,
    "dealing":1,
    "bank":1,
    "forgettin":1,
    "broad":1,
    "alright":1,
    "killin":1,
    "standing":1,
    "said":1,
    "misty":1,
    "eyed":1,
    "ouickly":1,
    "suited":1,
    "stomach":1,
    "necessary":1,
    "balls":1,
    "naturally":1,
    "settle":1,
    "former":1,
    "kinship":1,
    "hatred":1,
    "outwardly":1,
    "stronger":1,
    "sickly":1,
    "compassion":1,
    "strangers":1,
    "outsiders":1,
    "above":1,
    "scare":1,
    "assume":1,
    "vengeance":1,
    "cutto":1,
    "wehard":1,
    "fade":1,
    "sea":2,
    "dancing":2,
    "swell":2,
    "raft":2,
    "dream":2,
    "love":2,
    "keep":2,
    "survival":2,
    "sees":2,
    "lights":2,
    "helicopter":2,
    "reveal":2,
    "ahead":2,
    "riding":2,
    "mans":2,
    "conclude":2,
    "watchthe":2,
    "four":2,
    "safe":2,
    "fresh":2,
    "case":2,
    "because":2,
    "serious":2,
    "working":2,
    "themselves":2,
    "theyre":2,
    "stares":2,
    "security":2,
    "drinks":2,
    "music":2,
    "worries":2,
    "waiting":2,
    "pretty":2,
    "table":2,
    "doors":2,
    "pound":2,
    "bit":2,
    "tense":2,
    "walks":2,
    "point":2,
    "sunglasses":2,
    "eyes":2,
    "bad":2,
    "next":2,
    "owner":2,
    "casino":2,
    "room":2,
    "kill":2,
    "steps":2,
    "stairs":2,
    "stop":2,
    "bury":2,
    "war":2,
    "cane":2,
    "backseat":2,
    "past":2,
    "driver":2,
    "young":2,
    "old":2,
    "leaves":2,
    "within":2,
    "seconds":2,
    "hate":2,
    "quiet":2,
    "stupid":2,
    "rush":2,
    "ground":2,
    "end":2,
    "runs":2,
    "tries":2,
    "keys":2,
    "luck":2,
    "third":2,
    "proudly":2,
    "three":2,
    "families":2,
    "everybody":2,
    "increasingly":2,
    "found":2,
    "truth":2,
    "equation":2,
    "drops":2,
    "trust":2,
    "please":2,
    "smiling":2,
    "store":2,
    "sent":2,
    "fine":2,
    "choice":2,
    "figure":2,
    "points":2,
    "whats":2,
    "exactly":2,
    "true":2,
    "knows":2,
    "id":2,
    "dangerous":2,
    "can":2,
    "pushes":2,
    "calling":2,
    "roth":2,
    "property":2,
    "rest":2,
    "aint":2,
    "stuff":2,
    "waste":2,
    "different":2,
    "thrown":2,
    "wrong":2,
    "try":2,
    "lot":2,
    "since":2,
    "dude":2,
    "yourself":2,
    "door":2,
    "front":2,
    "sarne":2,
    "works":2,
    "register":2,
    "while":2,
    "ringin":2,
    "nah":2,
    "dim":2,
    "sum":2,
    "uses":2,
    "left":2,
    "jacket":2,
    "less":2,
    "apart":2,
    "such":2,
    "dear":2,
    "passing":2,
    "best":2,
    "enough":2,
    "threats":2,
    "made":2,
    "bay":2,
    "short":2,
    "check":2,
    "fellas":2,
    "pass":2,
    "handle":2,
    "baby":2,
    "watchas":2,
    "flying":2,
    "chair":2,
    "wearing":2,
    "several":2,
    "police":2,
    "deck":2,
    "bought":2,
    "himself":2,
    "sits":2,
    "floor":2,
    "immediately":2,
    "taking":2,
    "picture":2,
    "sequence":2,
    "hands":2,
    "once":2,
    "surprise":2,
    "laugh":2,
    "loved":2,
    "nfl":2,
    "god":2,
    "couldnt":2,
    "perfect":2,
    "mountain":2,
    "yes":2,
    "remaining":2,
    "deeds":2,
    "side":2,
    "addresses":2,
    "kid":2,
    "moved":2,
    "weve":2,
    "brothers":2,
    "cyclist":2,
    "victor":2,
    "shes":2,
    "risk":2,
    "partner":2,
    "slip":2,
    "brings":2,
    "crackhead":2,
    "fall":2,
    "says":2,
    "money":2,
    "checking":2,
    "yo":2,
    "shoulder":2,
    "fantastic":2,
    "passes":2,
    "grab":2,
    "number":2,
    "cash":2,
    "water":2,
    "everythings":2,
    "heres":2,
    "briefcase":2,
    "deal":2,
    "everything":2,
    "personal":2,
    "tonight":2,
    "play":2,
    "bro":2,
    "hope":2,
    "wasnt":2,
    "weak":2,
    "interests":2,
    "ruined":2,
    "together":3,
    "each":3,
    "far":3,
    "hong":3,
    "kong":3,
    "day":3,
    "shot":3,
    "muscle":3,
    "start":3,
    "looking":3,
    "doing":3,
    "realize":3,
    "lead":3,
    "talk":3,
    "friend":3,
    "motherfucker":3,
    "talking":3,
    "crowd":3,
    "half":3,
    "guys":3,
    "every":3,
    "hard":3,
    "hand":3,
    "outside":3,
    "second":3,
    "ever":3,
    "those":3,
    "chance":3,
    "work":3,
    "mind":3,
    "long":3,
    "theres":3,
    "arriving":3,
    "car":3,
    "others":3,
    "must":3,
    "takes":3,
    "drop":3,
    "overlords":3,
    "arrives":3,
    "nice":3,
    "dead":3,
    "enters":3,
    "line":3,
    "atop":3,
    "lori":3,
    "give":3,
    "run":3,
    "fire":3,
    "thanks":3,
    "blood":3,
    "does":3,
    "ago":3,
    "rolls":3,
    "another":3,
    "seem":3,
    "lives":3,
    "myself":3,
    "knew":3,
    "call":3,
    "worry":3,
    "lost":3,
    "wanted":3,
    "better":3,
    "anything":3,
    "told":3,
    "ive":3,
    "woman":3,
    "maybe":3,
    "name":3,
    "whoa":3,
    "evening":3,
    "cut":3,
    "daughter":3,
    "close":3,
    "hanging":3,
    "none":3,
    "expect":3,
    "leads":3,
    "isaaks":3,
    "football":3,
    "motions":3,
    "game":3,
    "ball":3,
    "two":3,
    "gotta":3,
    "glass":3,
    "many":3,
    "times":3,
    "much":3,
    "bring":3,
    "sure":3,
    "last":3,
    "open":3,
    "life":4,
    "starts":4,
    "makes":4,
    "help":4,
    "men":4,
    "turns":4,
    "mean":4,
    "let":4,
    "few":4,
    "big":4,
    "boy":4,
    "watch":4,
    "watches":4,
    "stay":4,
    "sung":4,
    "goes":4,
    "onto":4,
    "lets":4,
    "small":4,
    "days":4,
    "absolutely":4,
    "son":4,
    "come":4,
    "how":4,
    "comes":4,
    "kids":4,
    "huh":4,
    "wont":4,
    "hear":4,
    "looks":4,
    "window":4,
    "should":4,
    "land":4,
    "understand":4,
    "meet":4,
    "father":4,
    "too":4,
    "yeah":4,
    "real":4,
    "isnt":4,
    "own":4,
    "after":4,
    "show":4,
    "care":4,
    "hit":4,
    "stadium":4,
    "ivan":4,
    "silk":4,
    "has":5,
    "never":5,
    "more":5,
    "nothing":5,
    "other":5,
    "put":5,
    "before":5,
    "need":5,
    "going":5,
    "oday":5,
    "man":5,
    "always":5,
    "across":5,
    "say":5,
    "cant":5,
    "ahkbar":5,
    "see":5,
    "find":5,
    "make":5,
    "did":5,
    "involved":5,
    "than":5,
    "family":5,
    "street":5,
    "thing":5,
    "who":5,
    "maurice":5,
    "business":5,
    "again":5,
    "waterfront":5,
    "hell":5,
    "look":5,
    "new":6,
    "away":6,
    "night":6,
    "us":6,
    "doesnt":6,
    "place":6,
    "these":6,
    "guy":6,
    "would":6,
    "youve":6,
    "something":6,
    "tell":6,
    "ass":6,
    "believe":6,
    "behind":6,
    "little":6,
    "ill":6,
    "girl":6,
    "very":6,
    "really":6,
    "didnt":6,
    "hans":6,
    "when":6,
    "could":6,
    "gonna":6,
    "were":7,
    "any":7,
    "people":7,
    "face":7,
    "kai":7,
    "things":7,
    "well":7,
    "around":7,
    "there":7,
    "some":7,
    "killed":7,
    "why":7,
    "time":7,
    "already":7,
    "brother":8,
    "through":8,
    "same":8,
    "shit":8,
    "down":8,
    "only":8,
    "first":8,
    "take":8,
    "youre":8,
    "black":8,
    "chu":8,
    "been":8,
    "their":9,
    "will":9,
    "even":9,
    "inside":9,
    "beat":9,
    "go":9,
    "an":9,
    "or":9,
    "way":9,
    "chinese":10,
    "hes":10,
    "colin":10,
    "by":10,
    "had":10,
    "off":11,
    "good":11,
    "thats":11,
    "now":11,
    "if":11,
    "want":11,
    "so":11,
    "think":11,
    "her":11,
    "then":12,
    "isaak":12,
    "about":12,
    "po":13,
    "over":13,
    "one":13,
    "its":14,
    "im":14,
    "know":14,
    "right":14,
    "our":14,
    "do":14,
    "be":14,
    "but":15,
    "back":15,
    "like":15,
    "was":15,
    "get":15,
    "got":15,
    "she":15,
    "trish":15,
    "where":16,
    "not":17,
    "here":17,
    "into":17,
    "up":17,
    "all":18,
    "on":19,
    "at":19,
    "just":19,
    "mac":19,
    "they":20,
    "are":20,
    "no":20,
    "them":21,
    "we":21,
    "your":21,
    "that":26,
    "what":26,
    "from":27,
    "my":28,
    "dont":29,
    "out":29,
    "me":29,
    "have":32,
    "him":35,
    "with":36,
    "for":38,
    "his":38,
    "in":39,
    "is":39,
    "this":43,
    "he":45,
    "as":46,
    "it":50,
    "han":63,
    "of":66,
    "i":68,
    "and":73,
    "you":96,
    "to":116,
    "a":116,
    "":159,
    "the":253
}