{
    "loves":1,
    "fond":1,
    "hundred":1,
    "helmets":1,
    "kevlar":1,
    "spear":1,
    "quarterback":1,
    "hitting":1,
    "dirty":1,
    "spitting":1,
    "anumberone":1,
    "absolute":1,
    "faggots":1,
    "trusts":1,
    "gig":1,
    "contractor":1,
    "definitely":1,
    "freight":1,
    "anonymous":1,
    "proposition":1,
    "party":1,
    "sides":1,
    "whatre":1,
    "talking":1,
    "blondie":1,
    "knock":1,
    "prevent":1,
    "unpleasantness":1,
    "unpleasant":1,
    "eyes":1,
    "faith":1,
    "undertaking":1,
    "likely":1,
    "inch":1,
    "profit":1,
    "oriented":1,
    "meaning":1,
    "credit":1,
    "cards":1,
    "bank":1,
    "accounts":1,
    "ten":1,
    "percent":1,
    "tech":1,
    "electronic":1,
    "surveillance":1,
    "runs":1,
    "weapons":1,
    "states":1,
    "cleared":1,
    "sync":1,
    "stomach":1,
    "works":1,
    "satifactory":1,
    "cheaper":1,
    "phones":1,
    "intend":1,
    "wired":1,
    "encryption":1,
    "chip":1,
    "instant":1,
    "satalink":1,
    "recognition":1,
    "custom":1,
    "hardware":1,
    "appointed":1,
    "czar":1,
    "health":1,
    "few":1,
    "pounds":1,
    "smarter":1,
    "calling":1,
    "dickless":1,
    "fuckers":1,
    "plays":1,
    "clock":1,
    "schedule":1,
    "gave":1,
    "permission":1,
    "charge":1,
    "parking":1,
    "spoke":1,
    "speaking":1,
    "universal":1,
    "hand":1,
    "young":1,
    "judo":1,
    "jujitsu":1,
    "similar":1,
    "difference":1,
    "smokes":1,
    "packandahalf":1,
    "day":1,
    "worse":1,
    "damned":1,
    "pleasurable":1,
    "moments":1,
    "cancer":1,
    "warm":1,
    "body":1,
    "threatening":1,
    "conversational":1,
    "possibilities":1,
    "candidate":1,
    "exspook":1,
    "stasi":1,
    "kgb":1,
    "seriously":1,
    "dangerous":1,
    "she":1,
    "truly":1,
    "wondered":1,
    "answers":1,
    "forces":1,
    "airborne":1,
    "ranger":1,
    "navy":1,
    "seal":1,
    "rode":1,
    "shotgun":1,
    "el":1,
    "salvador":1,
    "afghanistan":1,
    "mercenary":1,
    "competitive":1,
    "market":1,
    "nearly":1,
    "hardly":1,
    "pays":1,
    "anyhow":1,
    "comes":1,
    "couldnt":1,
    "afford":1,
    "somebodys":1,
    "nose":1,
    "certainly":1,
    "priceless":1,
    "lovely":1,
    "key":1,
    "york":1,
    "reacted":1,
    "heres":1,
    "yours":1,
    "slight":1,
    "powered":1,
    "sporting":1,
    "rifle":1,
    "throat":1,
    "heart":1,
    "death":1,
    "inevitable":1,
    "decided":1,
    "pulled":1,
    "popular":1,
    "whenever":1,
    "catch":1,
    "inside":1,
    "trustworthy":1,
    "pointed":1,
    "nodded":1,
    "pointing":1,
    "rare":1,
    "shrub":1,
    "easy":1,
    "presence":1,
    "share":1,
    "spoils":1,
    "hazard":1,
    "piece":1,
    "thrilled":1,
    "wandered":1,
    "enter":1,
    "dragon":1,
    "teach":1,
    "tonight":1,
    "pissed":1,
    "perk":1,
    "bonus":1,
    "belong":1,
    "occurs":1,
    "deceit":1,
    "subterfuge":1,
    "naturally":1,
    "ulterior":1,
    "motive":1,
    "forget":1,
    "satisfaction":1,
    "bother":1,
    "knew":1,
    "dealing":1,
    "explain":1,
    "given":1,
    "deemed":1,
    "necessary":1,
    "setting":1,
    "blackmail":1,
    "enlightened":1,
    "feminist":1,
    "organization":1,
    "duty":1,
    "access":1,
    "telecommunications":1,
    "satellite":1,
    "pin":1,
    "location":1,
    "moves":1,
    "relaying":1,
    "route":1,
    "reached":1,
    "attack":1,
    "squag":1,
    "which":1,
    "fatboy":1,
    "slowly":1,
    "artillery":1,
    "driver":1,
    "bodyguard":1,
    "blast":1,
    "lead":1,
    "oblivion":1,
    "cars":1,
    "rendezvous":1,
    "cleaned":1,
    "broad":1,
    "patience":1,
    "virtue":1,
    "corners":1,
    "west":1,
    "tubby":1,
    "enjoy":1,
    "justi":1,
    "sonof":1,
    "crossed":1,
    "cocktail":1,
    "mostly":1,
    "demerol":1,
    "cut":1,
    "crank":1,
    "awake":1,
    "future":1,
    "property":1,
    "putting":1,
    "hands":1,
    "literal":1,
    "finding":1,
    "whole":1,
    "started":1,
    "clear":1,
    "hit":1,
    "ground":1,
    "chill":1,
    "boss":1,
    "figure":1,
    "mess":1,
    "mystery":1,
    "believed":1,
    "sitting":1,
    "idea":1,
    "capital":1,
    "finance":1,
    "insurance":1,
    "ours":1,
    "neutral":1,
    "mustve":1,
    "riding":1,
    "bought":1,
    "contract":1,
    "penny":1,
    "especially":1,
    "expensive":1,
    "tastes":1,
    "check":1,
    "recently":1,
    "spy":1,
    "lived":1,
    "prince":1,
    "eastern":1,
    "bloc":1,
    "wall":1,
    "apartment":1,
    "stores":1,
    "western":1,
    "video":1,
    "bet":1,
    "dollars":1,
    "surprised":1,
    "beautiful":1,
    "years":1,
    "relax":1,
    "blue":1,
    "dress":1,
    "lost":1,
    "splatter":1,
    "sidewalk":1,
    "hour":1,
    "deaf":1,
    "trained":1,
    "disappointment":1,
    "doubt":1,
    "shouldnt":1,
    "decency":1,
    "concern":1,
    "tilt":1,
    "favor":1,
    "woke":1,
    "chances":1,
    "including":1,
    "sneak":1,
    "took":1,
    "pack":1,
    "please":1,
    "many":1,
    "borrowed":1,
    "coursewhenever":1,
    "start":1,
    "lie":1,
    "singular":1,
    "hood":1,
    "thief":1,
    "small":1,
    "king":1,
    "prize":1,
    "hoods":1,
    "legend":1,
    "bits":1,
    "starting":1,
    "thrown":1,
    "walked":1,
    "downstairs":1,
    "asking":1,
    "somewhat":1,
    "north":1,
    "aix":1,
    "en":1,
    "provence":1,
    "necessarily":1,
    "routes":1,
    "indirect":1,
    "waste":1,
    "otherwise":1,
    "hed":1,
    "festival":1,
    "henry":1,
    "meant":1,
    "phantom":1,
    "andrew":1,
    "lloyd":1,
    "weber":1,
    "cats":1,
    "thisthis":1,
    "incredible":1,
    "europe":1,
    "italy":1,
    "instance":1,
    "britain":1,
    "uk":1,
    "fancier":1,
    "deepfried":1,
    "bar":1,
    "egg":1,
    "foods":1,
    "unbridled":1,
    "gall":1,
    "mention":1,
    "sentence":1,
    "rabbit":1,
    "piss":1,
    "whatta":1,
    "every":1,
    "civilized":1,
    "child":1,
    "drinks":1,
    "guinness":1,
    "interrupt":1,
    "conversation":1,
    "cultural":1,
    "depth":1,
    "motor":1,
    "gentleman":1,
    "touched":1,
    "caliber":1,
    "underestimating":1,
    "trying":1,
    "consulting":1,
    "allowed":1,
    "material":1,
    "asshole":1,
    "technical":1,
    "lasted":1,
    "trouble":1,
    "choice":1,
    "winning":1,
    "item":1,
    "post":1,
    "box":1,
    "internation":1,
    "copyoure":1,
    "copi":1,
    "vienna":1,
    "coursei":1,
    "cocking":1,
    "sufficed":1,
    "doublecrossing":1,
    "risked":1,
    "noi":1,
    "hospital":1,
    "hospitals":1,
    "busted":1,
    "able":1,
    "involve":1,
    "guarantee":1,
    "fold":1,
    "affected":1,
    "living":1,
    "note":1,
    "glory":1,
    "grown":1,
    "attached":1,
    "charade":1,
    "playing":1,
    "insult":1,
    "testing":1,
    "agreed":1,
    "home":1,
    "beneath":1,
    "surface":1,
    "boozepains":1,
    "control":1,
    "douse":1,
    "wound":1,
    "alcohol":1,
    "sponge":1,
    "wipe":1,
    "blood":1,
    "peel":1,
    "skin":1,
    "attach":1,
    "clearly":1,
    "forceps":1,
    "routine":1,
    "twenty":1,
    "vital":1,
    "organs":1,
    "major":1,
    "muscles":1,
    "arteries":1,
    "souvenir":1,
    "stitch":1,
    "worry":1,
    "pass":1,
    "sams":1,
    "eh":1,
    "cannot":1,
    "parties":1,
    "concerned":1,
    "intrusion":1,
    "affairs":1,
    "connected":1,
    "suspect":1,
    "owes":1,
    "sees":1,
    "differently":1,
    "suffered":1,
    "agonizing":1,
    "avoided":1,
    "declaring":1,
    "law":1,
    "ordinary":1,
    "criminal":1,
    "extensive":1,
    "military":1,
    "medical":1,
    "expertise":1,
    "pieces":1,
    "puzzle":1,
    "government":1,
    "agency":1,
    "test":1,
    "reckoning":1,
    "forged":1,
    "steel":1,
    "sword":1,
    "extraordinary":1,
    "afraid":1,
    "burden":1,
    "code":1,
    "bushido":1,
    "warrior":1,
    "killer":1,
    "tomorrow":1,
    "human":1,
    "blow":1,
    "ease":1,
    "manim":1,
    "checking":1,
    "level":1,
    "sign":1,
    "afternoon":1,
    "delivery":1,
    "later":1,
    "study":1,
    "action":1,
    "filmmaker":1,
    "latest":1,
    "wondering":1,
    "flick":1,
    "hearing":1,
    "cool":1,
    "story":1,
    "international":1,
    "several":1,
    "peoples":1,
    "criminals":1,
    "experts":1,
    "preeminent":1,
    "plot":1,
    "bed":1,
    "boy":1,
    "across":1,
    "homes":1,
    "overpaying":1,
    "second":1,
    "generation":1,
    "pirates":1,
    "mix":1,
    "depends":1,
    "whether":1,
    "version":1,
    "whys":1,
    "film":1,
    "rep":1,
    "players":1,
    "auteur":1,
    "firebrand":1,
    "thinks":1,
    "moderate":1,
    "filmmaking":1,
    "brethren":1,
    "turned":1,
    "peaceloving":1,
    "pussies":1,
    "picture":1,
    "overcharge":1,
    "moan":1,
    "settle":1,
    "somewhere":1,
    "outside":1,
    "representative":1,
    "thorough":1,
    "continue":1,
    "possible":1,
    "extinct":1,
    "breed":1,
    "operations":1,
    "wet":1,
    "kidnaping":1,
    "assassination":1,
    "ugly":1,
    "zen":1,
    "claim":1,
    "behind":1,
    "door":1,
    "tried":1,
    "shooting":1,
    "mr":1,
    "misjudged":1,
    "pleaseyoure":1,
    "holy":1,
    "mission":1,
    "patriate":1,
    "pretending":1,
    "mighty":1,
    "halfway":1,
    "seatbelt":1,
    "thems":1,
    "fellahs":1,
    "managed":1,
    "line":1,
    "boyo":1,
    "gimme":1,
    "roads":1,
    "jokers":1,
    "keeps":1,
    "positions":1,
    "reversed":1,
    "minute":1,
    "heads":1,
    "examined":1,
    "careful":1,
    "wear":1,
    "badge":1,
    "flesh":1,
    "thinking":1,
    "superior":1,
    "officer":1,
    "understood":1,
    "repeat":1,
    "half":1,
    "forest":1,
    "six":1,
    "months":1,
    "wake":1,
    "morning":1,
    "force":1,
    "handle":1,
    "perform":1,
    "surgery":1,
    "anesthesia":1,
    "true":1,
    "act":1,
    "surely":1,
    "realize":1,
    "hold":1,
    "deserve":1,
    "wish":1,
    "terrible":1,
    "insisted":1,
    "ahh":1,
    "moment":1,
    "mafia":1,
    "bosses":1,
    "hoped":1,
    "thieving":1,
    "found":1,
    "completely":1,
    "useless":1,
    "fight":1,
    "each":1,
    "odd":1,
    "looking":1,
    "precaution":1,
    "wiring":1,
    "opens":1,
    "deactivate":1,
    "figures":1,
    "decide":1,
    "importantly":1,
    "destroy":1,
    "agreement":1,
    "mutual":1,
    "interest":1,
    "building":1,
    "wing":1,
    "finishing":1,
    "damn":1,
    "slow":1,
    "hard":1,
    "breathe":1,
    "afterlife":1,
    "christs":1,
    "stinking":1,
    "gods":1,
    "usyou":1,
    "born":1,
    "bred":1,
    "nature":1,
    "cmon":1,
    "sick":1,
    "bastard":1,
    "rigged":1,
    "open":1,
    "prick":1,
    "ahead":1,
    "anway":1,
    "traitorous":1,
    "freezing":1,
    "allow":1,
    "di":1,
    "stepped":1,
    "except":1,
    "bunch":1,
    "plan":1,
    "anytime":1,
    "destroyed":1,
    "lake":1,
    "shot":1,
    "finished":1,
    "sacrificed":1,
    "alone":1,
    "types":1,
    "smoked":1,
    "cigarettes":1,
    "patriots":1,
    "bullets":1,
    "thinkingmaybe":1,
    "become":1,
    "clouds":1,
    "judgement":1,
    "shes":1,
    "available":1,
    "does":1,
    "doctors":1,
    "pound":2,
    "fast":2,
    "wanna":2,
    "game":2,
    "lock":2,
    "whoever":2,
    "hiring":2,
    "involved":2,
    "orders":2,
    "surprise":2,
    "remains":2,
    "chance":2,
    "others":2,
    "tries":2,
    "such":2,
    "cash":2,
    "needs":2,
    "front":2,
    "soldier":2,
    "everybody":2,
    "far":2,
    "targets":2,
    "signature":2,
    "follow":2,
    "stake":2,
    "reputation":2,
    "often":2,
    "eat":2,
    "worried":2,
    "shed":2,
    "dumb":2,
    "blonde":2,
    "expect":2,
    "block":2,
    "oughta":2,
    "using":2,
    "ones":2,
    "painful":2,
    "side":2,
    "limited":2,
    "brought":2,
    "seem":2,
    "wonder":2,
    "special":2,
    "end":2,
    "big":2,
    "must":2,
    "new":2,
    "fucked":2,
    "bad":2,
    "english":2,
    "high":2,
    "screw":2,
    "willing":2,
    "wheres":2,
    "francois":2,
    "seems":2,
    "saw":2,
    "weapon":2,
    "begin":2,
    "team":2,
    "split":2,
    "kept":2,
    "simple":2,
    "instead":2,
    "went":2,
    "either":2,
    "onto":2,
    "set":2,
    "consider":2,
    "probably":2,
    "imagine":2,
    "hadnt":2,
    "pleasure":2,
    "goodbye":2,
    "wrong":2,
    "patriot":2,
    "send":2,
    "less":2,
    "night":2,
    "shall":2,
    "until":2,
    "leads":2,
    "leaving":2,
    "step":2,
    "drop":2,
    "making":2,
    "taking":2,
    "clean":2,
    "whatevers":2,
    "near":2,
    "fine":2,
    "partner":2,
    "mob":2,
    "ask":2,
    "stuff":2,
    "spook":2,
    "everything":2,
    "tapes":2,
    "arrogant":2,
    "stupid":2,
    "street":2,
    "rush":2,
    "important":2,
    "brains":2,
    "middle":2,
    "saving":2,
    "least":2,
    "hope":2,
    "table":2,
    "buying":2,
    "havent":2,
    "alive":2,
    "another":2,
    "number":2,
    "places":2,
    "thank":2,
    "nicely":2,
    "twice":2,
    "mikhi":2,
    "double":2,
    "staying":2,
    "swear":2,
    "office":2,
    "hey":2,
    "sonofabitch":2,
    "doctor":2,
    "ago":2,
    "close":2,
    "looks":2,
    "group":2,
    "spent":2,
    "lass":2,
    "forgive":2,
    "play":2,
    "vincents":2,
    "clamp":2,
    "respect":2,
    "taken":2,
    "soon":2,
    "oldest":2,
    "sense":2,
    "carry":2,
    "character":2,
    "healthy":2,
    "created":2,
    "modern":2,
    "anyone":2,
    "hire":2,
    "survival":2,
    "lying":2,
    "straight":2,
    "amazing":2,
    "matter":2,
    "unlikely":2,
    "copy":2,
    "gotta":2,
    "gaelic":2,
    "production":2,
    "address":2,
    "boys":2,
    "tony":2,
    "within":2,
    "feint":2,
    "answer":2,
    "ops":2,
    "sort":2,
    "fucker":2,
    "goddamn":2,
    "plastic":2,
    "surgeon":2,
    "mark":2,
    "turn":2,
    "ever":2,
    "closest":2,
    "shocked":2,
    "explode":2,
    "seconds":2,
    "stay":2,
    "sake":2,
    "dressing":2,
    "god":3,
    "three":3,
    "face":3,
    "late":3,
    "cops":3,
    "thanks":3,
    "knows":3,
    "waiting":3,
    "none":3,
    "whos":3,
    "interesting":3,
    "paid":3,
    "cross":3,
    "takes":3,
    "name":3,
    "show":3,
    "days":3,
    "computer":3,
    "drive":3,
    "coordinate":3,
    "though":3,
    "happen":3,
    "quite":3,
    "cost":3,
    "trace":3,
    "anywhere":3,
    "died":3,
    "food":3,
    "stand":3,
    "aint":3,
    "gentlemen":3,
    "ride":3,
    "park":3,
    "pretty":3,
    "their":3,
    "suppose":3,
    "huh":3,
    "whatd":3,
    "asked":3,
    "move":3,
    "since":3,
    "week":3,
    "calls":3,
    "smart":3,
    "cold":3,
    "war":3,
    "steal":3,
    "keep":3,
    "under":3,
    "needed":3,
    "price":3,
    "bullshit":3,
    "figured":3,
    "pull":3,
    "heavy":3,
    "supposed":3,
    "werent":3,
    "leave":3,
    "light":3,
    "feel":3,
    "being":3,
    "killing":3,
    "means":3,
    "sleep":3,
    "sometimes":3,
    "someone":3,
    "target":3,
    "stop":3,
    "car":3,
    "seat":3,
    "learn":3,
    "hello":3,
    "today":3,
    "youll":3,
    "truth":3,
    "gone":3,
    "russians":3,
    "came":3,
    "trust":3,
    "nobody":3,
    "against":3,
    "liked":3,
    "local":3,
    "telling":3,
    "paris":3,
    "unless":3,
    "opera":3,
    "serious":3,
    "budweiser":3,
    "poor":3,
    "excuse":3,
    "drink":3,
    "hear":3,
    "happens":3,
    "sent":3,
    "bitch":3,
    "jeanpierre":3,
    "couple":3,
    "pain":3,
    "himself":3,
    "honor":3,
    "cause":3,
    "case":3,
    "tape":3,
    "five":3,
    "cover":3,
    "already":3,
    "dark":3,
    "slept":3,
    "lose":3,
    "yet":3,
    "besides":3,
    "briefcase":3,
    "made":4,
    "next":4,
    "things":4,
    "best":4,
    "nothing":4,
    "makes":4,
    "meet":4,
    "police":4,
    "anybody":4,
    "most":4,
    "paying":4,
    "mine":4,
    "between":4,
    "once":4,
    "wasnt":4,
    "country":4,
    "gets":4,
    "known":4,
    "language":4,
    "cell":4,
    "says":4,
    "oh":4,
    "bring":4,
    "along":4,
    "tough":4,
    "woman":4,
    "kind":4,
    "cia":4,
    "guns":4,
    "theyd":4,
    "problem":4,
    "word":4,
    "information":4,
    "always":4,
    "debt":4,
    "part":4,
    "used":4,
    "nobodys":4,
    "bit":4,
    "men":4,
    "feeling":4,
    "last":4,
    "getting":4,
    "ass":4,
    "sit":4,
    "easier":4,
    "gregors":4,
    "wouldnt":4,
    "driving":4,
    "mistake":4,
    "smoking":4,
    "times":4,
    "beer":4,
    "partners":4,
    "save":4,
    "fix":4,
    "reilly":4,
    "agent":4,
    "friends":4,
    "hell":4,
    "movies":4,
    "quit":4,
    "walk":4,
    "speak":4,
    "guys":5,
    "run":5,
    "use":5,
    "into":5,
    "help":5,
    "perhaps":5,
    "question":5,
    "understand":5,
    "both":5,
    "shut":5,
    "little":5,
    "running":5,
    "talk":5,
    "goes":5,
    "again":5,
    "mean":5,
    "saying":5,
    "own":5,
    "guess":5,
    "let":5,
    "anything":5,
    "those":5,
    "smoke":5,
    "christ":5,
    "somebody":5,
    "still":5,
    "head":5,
    "ready":5,
    "killed":5,
    "while":5,
    "hate":5,
    "particularly":5,
    "saved":5,
    "without":5,
    "care":5,
    "weve":5,
    "road":5,
    "happened":5,
    "seen":5,
    "anymore":5,
    "bloody":5,
    "edvard":5,
    "interpol":5,
    "bullet":5,
    "heard":5,
    "irish":5,
    "yes":6,
    "sorry":6,
    "else":6,
    "only":6,
    "yeah":6,
    "pay":6,
    "these":6,
    "larry":6,
    "swede":6,
    "watch":6,
    "youd":6,
    "french":6,
    "wanted":6,
    "mind":6,
    "remember":6,
    "wait":6,
    "theyre":6,
    "finish":6,
    "down":7,
    "cigarette":7,
    "am":7,
    "working":7,
    "point":7,
    "great":7,
    "deal":7,
    "rest":7,
    "place":7,
    "long":7,
    "by":7,
    "wont":7,
    "shit":7,
    "nice":7,
    "die":7,
    "around":7,
    "after":7,
    "real":7,
    "company":7,
    "told":7,
    "over":7,
    "together":7,
    "believe":7,
    "russian":7,
    "her":7,
    "field":7,
    "samurai":7,
    "football":8,
    "lets":8,
    "through":8,
    "lot":8,
    "different":8,
    "off":8,
    "two":8,
    "youve":8,
    "ira":8,
    "whatever":8,
    "course":8,
    "live":8,
    "id":8,
    "yourself":8,
    "exactly":8,
    "goddamned":8,
    "left":8,
    "very":8,
    "said":8,
    "find":8,
    "try":8,
    "doesnt":8,
    "owe":8,
    "come":8,
    "gonna":8,
    "dead":8,
    "away":8,
    "american":9,
    "really":9,
    "maybe":9,
    "has":9,
    "put":9,
    "girl":9,
    "call":9,
    "business":9,
    "look":9,
    "never":9,
    "guy":10,
    "isnt":10,
    "hired":10,
    "money":10,
    "because":10,
    "deirdre":10,
    "shoot":10,
    "myself":10,
    "friend":10,
    "or":10,
    "will":10,
    "first":10,
    "world":10,
    "before":10,
    "fuck":11,
    "gun":11,
    "same":11,
    "should":11,
    "alright":11,
    "phone":11,
    "thought":11,
    "even":11,
    "too":12,
    "doing":12,
    "our":12,
    "much":12,
    "give":12,
    "them":12,
    "way":13,
    "other":13,
    "say":13,
    "from":13,
    "make":13,
    "work":13,
    "enough":13,
    "better":13,
    "whats":13,
    "need":13,
    "seamus":13,
    "ill":14,
    "good":14,
    "done":14,
    "well":14,
    "package":14,
    "cop":15,
    "how":15,
    "than":15,
    "been":15,
    "any":15,
    "something":15,
    "ive":15,
    "fucking":16,
    "life":16,
    "his":16,
    "tell":16,
    "right":16,
    "didnt":17,
    "some":17,
    "people":17,
    "theres":17,
    "might":17,
    "sure":17,
    "as":17,
    "time":17,
    "where":17,
    "more":18,
    "go":18,
    "had":18,
    "got":19,
    "an":19,
    "going":19,
    "did":19,
    "cant":19,
    "there":20,
    "can":20,
    "us":20,
    "back":20,
    "thing":20,
    "at":20,
    "why":21,
    "could":21,
    "want":21,
    "sam":21,
    "kill":21,
    "take":22,
    "hes":23,
    "man":23,
    "see":23,
    "now":24,
    "gregor":24,
    "vincent":24,
    "they":25,
    "up":25,
    "then":26,
    "when":26,
    "thats":26,
    "think":27,
    "out":27,
    "would":28,
    "job":28,
    "get":29,
    "youre":30,
    "about":30,
    "all":32,
    "here":33,
    "no":34,
    "who":34,
    "were":35,
    "just":35,
    "so":35,
    "be":36,
    "one":36,
    "are":36,
    "on":37,
    "him":37,
    "":39,
    "your":43,
    "my":43,
    "was":44,
    "he":44,
    "its":45,
    "with":45,
    "if":46,
    "like":48,
    "but":49,
    "not":55,
    "we":62,
    "im":64,
    "know":65,
    "for":69,
    "have":72,
    "in":73,
    "dont":75,
    "what":75,
    "this":82,
    "me":85,
    "is":95,
    "do":96,
    "that":121,
    "of":124,
    "and":149,
    "it":161,
    "a":194,
    "to":222,
    "i":275,
    "the":276,
    "you":388
}