{
    "table":1,
    "teach":1,
    "startsto":1,
    "fold":1,
    "handbut":1,
    "chancetheres":1,
    "skill":1,
    "concentrating":1,
    "concentrate":1,
    "winning":1,
    "chance":1,
    "flipped":1,
    "coin":1,
    "called":1,
    "fuckthis":1,
    "honest":1,
    "hire":1,
    "havent":1,
    "books":1,
    "canterbury":1,
    "tales":1,
    "examines":1,
    "discard":1,
    "reciting":1,
    "world":1,
    "nys":1,
    "thurghfare":1,
    "ful":1,
    "wo":1,
    "pilgrymes":1,
    "fro":1,
    "deeth":1,
    "ende":1,
    "worldly":1,
    "soore":1,
    "flushed":1,
    "deck":1,
    "singsong":1,
    "fashion":1,
    "king":1,
    "lived":1,
    "castle":1,
    "house":1,
    "ignore":1,
    "pingponging":1,
    "queen":1,
    "lonely":1,
    "blocking":1,
    "inmiediately":1,
    "earrings":1,
    "missing":1,
    "fleas":1,
    "earring":1,
    "bath":1,
    "cold":1,
    "medicine":1,
    "kind":1,
    "died":1,
    "cards":1,
    "chairs":1,
    "sailing":1,
    "yesterday":1,
    "cozumel":1,
    "seven":1,
    "huge":1,
    "flock":1,
    "somebody":1,
    "swimming":1,
    "lobsters":1,
    "sea":1,
    "urchins":1,
    "snorkeling":1,
    "complicated":1,
    "hang":1,
    "absurd":1,
    "amyhe":1,
    "gifts":1,
    "trombone":1,
    "prize":1,
    "amused":1,
    "seriously":1,
    "drains":1,
    "prizes":1,
    "mom":1,
    "room":1,
    "built":1,
    "trophies":1,
    "ribbons":1,
    "plaques":1,
    "accomplished":1,
    "handto":1,
    "grass":1,
    "cement":1,
    "carpet":1,
    "type":1,
    "wood":1,
    "rare":1,
    "wobbly":1,
    "disappointment":1,
    "kidding":1,
    "med":1,
    "whaddya":1,
    "residency":1,
    "sleepless":1,
    "miserable":1,
    "earlier":1,
    "asmuch":1,
    "brushes":1,
    "healthy":1,
    "wealthy":1,
    "wise":1,
    "hotel":1,
    "staggers":1,
    "dancers":1,
    "group":1,
    "drinking":1,
    "tall":1,
    "insistent":1,
    "surrenders":1,
    "oblivious":1,
    "drinks":1,
    "boatshe":1,
    "bumps":1,
    "boats":1,
    "partners":1,
    "intimate":1,
    "gap":1,
    "narrowing":1,
    "altogether":1,
    "grief":1,
    "subtly":1,
    "pas":1,
    "deux":1,
    "haired":1,
    "friends":1,
    "early":1,
    "sheet":1,
    "paragraph":1,
    "scrawled":1,
    "names":1,
    "valladolid":1,
    "tizimin":1,
    "digan":1,
    "archaeological":1,
    "examine":1,
    "flight":1,
    "hope":1,
    "trusting":1,
    "runs":1,
    "searches":1,
    "remember":1,
    "impetuous":1,
    "responsible":1,
    "lives":1,
    "jeffslides":1,
    "pyramids":1,
    "oro":1,
    "0":1,
    "plata":1,
    "m":1,
    "ap":1,
    "feasibility":1,
    "luck":1,
    "wavering":1,
    "approaches":1,
    "coughing":1,
    "coughs":1,
    "spits":1,
    "helpful":1,
    "nightfall":1,
    "raising":1,
    "mirror":1,
    "slept":1,
    "tub":1,
    "mistake":1,
    "sink":1,
    "minifridge":1,
    "guy":1,
    "shopping":1,
    "fridge":1,
    "traveling":1,
    "somewhere":1,
    "language":1,
    "honestly":1,
    "thisll":1,
    "adventure":1,
    "gohiking":1,
    "unmoving":1,
    "swayed":1,
    "rather":1,
    "knocking":1,
    "hall":1,
    "thoughts":1,
    "miss":1,
    "gather":1,
    "cab":1,
    "eighteen":1,
    "hikefour":1,
    "cabs":1,
    "eases":1,
    "crunching":1,
    "gravel":1,
    "yellow":1,
    "pickup":1,
    "taxi":1,
    "handpainted":1,
    "heavyset":1,
    "glasses":1,
    "dozing":1,
    "engineis":1,
    "windows":1,
    "growling":1,
    "leap":1,
    "shrieking":1,
    "muttsmall":1,
    "attached":1,
    "cinder":1,
    "block":1,
    "chain":1,
    "slobbering":1,
    "snapping":1,
    "laugh":1,
    "nervously":1,
    "roused":1,
    "hola":1,
    "somber":1,
    "habla":1,
    "ingles":1,
    "usted":1,
    "drive":1,
    "accented":1,
    "simple":1,
    "explain":1,
    "mission":1,
    "promise":1,
    "pyramid":1,
    "huy":1,
    "grande":1,
    "happy":1,
    "thicklooking":1,
    "gums":1,
    "pay":1,
    "dollars":1,
    "angry":1,
    "insulted":1,
    "conciliatory":1,
    "tone":1,
    "su":1,
    "hermano":1,
    "el":1,
    "gracias":1,
    "senor":1,
    "came":1,
    "unslings":1,
    "dogs":1,
    "guidebook":1,
    "always":1,
    "flag":1,
    "buses":1,
    "obvious":1,
    "fit":1,
    "hitch":1,
    "cars":1,
    "driving":1,
    "musthave":1,
    "access":1,
    "ask":1,
    "stranded":1,
    "mile":1,
    "seeitll":1,
    "hooks":1,
    "sothere":1,
    "piano":1,
    "signed":1,
    "lessons":1,
    "afford":1,
    "fired":1,
    "late":1,
    "annoying":1,
    "prostitute":1,
    "tedious":1,
    "boring":1,
    "fell":1,
    "client":1,
    "cross":1,
    "marry":1,
    "branching":1,
    "married":1,
    "begged":1,
    "divorce":1,
    "conditioning":1,
    "wife":1,
    "dips":1,
    "studded":1,
    "boulders":1,
    "bank":1,
    "straightaway":1,
    "sniffs":1,
    "latrine":1,
    "noses":1,
    "crosses":1,
    "hopping":1,
    "yelping":1,
    "turnoff":1,
    "dense":1,
    "foliage":1,
    "unbroken":1,
    "materialized":1,
    "shirtless":1,
    "scrawny":1,
    "handlebars":1,
    "seat":1,
    "guide":1,
    "wary":1,
    "whisper":1,
    "noticing":1,
    "fronds":1,
    "easily":1,
    "arranging":1,
    "newly":1,
    "fainter":1,
    "handdrawn":1,
    "valuable":1,
    "emeralds":1,
    "silver":1,
    "whatever":1,
    "anyone":1,
    "rob":1,
    "convinced":1,
    "theory":1,
    "silly":1,
    "answers":1,
    "feels":1,
    "weird":1,
    "suppress":1,
    "impatience":1,
    "mosquito":1,
    "bloody":1,
    "smear":1,
    "bare":1,
    "pathleading":1,
    "slipping":1,
    "slightest":1,
    "hesitation":1,
    "boywhos":1,
    "expressionand":1,
    "spooked":1,
    "ancient":1,
    "graveyard":1,
    "thin":1,
    "columns":1,
    "hazed":1,
    "marijuana":1,
    "field":1,
    "pot":1,
    "rode":1,
    "curves":1,
    "intense":1,
    "biting":1,
    "delighted":1,
    "cap":1,
    "pictures":1,
    "thudding":1,
    "instinctively":1,
    "horseman":1,
    "bursts":1,
    "unsubtitled":1,
    "lathered":1,
    "rears":1,
    "halffalls":1,
    "halfjumps":1,
    "tothe":1,
    "gain":1,
    "gallops":1,
    "crashing":1,
    "shines":1,
    "toll":1,
    "proffered":1,
    "bill":1,
    "billowing":1,
    "halfducking":1,
    "horsemen":1,
    "twenties":1,
    "mounts":1,
    "whiteeyed":1,
    "horses":1,
    "interrogate":1,
    "unsling":1,
    "nocking":1,
    "capture":1,
    "scene":1,
    "thoughand":1,
    "raise":1,
    "spearing":1,
    "urgently":1,
    "dismayed":1,
    "protesting":1,
    "draw":1,
    "freezes":1,
    "frown":1,
    "implacablethey":1,
    "arguing":1,
    "gesturingand":1,
    "aims":1,
    "herding":1,
    "watcheshis":1,
    "tearsas":1,
    "obediently":1,
    "vinecovered":1,
    "henrichi":1,
    "shielding":1,
    "arrived":1,
    "dressed":1,
    "straw":1,
    "appear":1,
    "bicycles":1,
    "slung":1,
    "addresses":1,
    "newcomers":1,
    "junglethe":1,
    "whod":1,
    "watched":1,
    "discover":1,
    "camouflaged":1,
    "excite":1,
    "kid":1,
    "silences":1,
    "ericsilences":1,
    "henrich1":1,
    "hello":1,
    "rubble":1,
    "greenery":1,
    "worn":1,
    "stelae":1,
    "folds":1,
    "forming":1,
    "knolllike":1,
    "profusions":1,
    "unzip":1,
    "stoop":1,
    "zip":1,
    "camping":1,
    "sticks":1,
    "gathered":1,
    "rectangularten":1,
    "six":1,
    "feetand":1,
    "constructed":1,
    "welded":1,
    "coiled":1,
    "hangs":1,
    "straddling":1,
    "fumbles":1,
    "nervous":1,
    "closes":1,
    "survey":1,
    "empty":1,
    "ends":1,
    "nocks":1,
    "resume":1,
    "march":1,
    "slick":1,
    "winded":1,
    "jogging":1,
    "bearded":1,
    "heavier":1,
    "rifle":1,
    "isolated":1,
    "island":1,
    "thempeering":1,
    "intently":1,
    "clearingslowly":1,
    "edging":1,
    "brings":1,
    "parting":1,
    "stalk":1,
    "tennis":1,
    "shoe":1,
    "sock":1,
    "stiff":1,
    "dried":1,
    "slender":1,
    "impaled":1,
    "mathiassshoulder":1,
    "grimfaced":1,
    "raw":1,
    "meat":1,
    "bet":1,
    "distraught":1,
    "deepens":1,
    "collect":1,
    "burnedlooking":1,
    "9":1,
    "nd":1,
    "pours":1,
    "plants":1,
    "sapit":1,
    "rubs":1,
    "butteff":1,
    "capping":1,
    "cloudless":1,
    "vote":1,
    "gallon":1,
    "minimum":1,
    "total":1,
    "until":1,
    "rains":1,
    "days":1,
    "worth":1,
    "grudging":1,
    "organized":1,
    "spend":1,
    "armed":1,
    "sends":1,
    "surrounding":1,
    "struggle":1,
    "absorb":1,
    "allowed":1,
    "findsus":1,
    "palmup":1,
    "shrug":1,
    "peoplell":1,
    "worry":1,
    "return":1,
    "supposed":1,
    "friday":1,
    "talkingwhat":1,
    "shoot":1,
    "chirping":1,
    "quite":1,
    "hearing":1,
    "definitely":1,
    "network":1,
    "local":1,
    "knotting":1,
    "closely":1,
    "position":1,
    "leaning":1,
    "dangles":1,
    "groaning":1,
    "mount":1,
    "reverse":1,
    "letting":1,
    "spool":1,
    "descentten":1,
    "creaks":1,
    "strain":1,
    "unspools":1,
    "angles":1,
    "hasnt":1,
    "grasped":1,
    "happening":1,
    "anxiously":1,
    "unraveling":1,
    "swaps":1,
    "freeof":1,
    "distant":1,
    "hollowsounding":1,
    "pop":1,
    "shattering":1,
    "inaudible":1,
    "unspool":1,
    "looping":1,
    "circles":1,
    "chimney":1,
    "replaced":1,
    "rattles":1,
    "conviction":1,
    "hug":1,
    "lean":1,
    "clings":1,
    "relinquish":1,
    "shell":1,
    "thenwith":1,
    "act":1,
    "willshe":1,
    "wave":1,
    "squawk":1,
    "echo":1,
    "quessthe":1,
    "distance":1,
    "reappears":1,
    "lengthen":1,
    "swaying":1,
    "shriek":1,
    "fading":1,
    "blew":1,
    "ties":1,
    "knotted":1,
    "bundle":1,
    "lands":1,
    "taken":1,
    "root":1,
    "depth":1,
    "translucence":1,
    "perpendicularly":1,
    "roof":1,
    "supported":1,
    "intricately":1,
    "carved":1,
    "investigate":1,
    "winces":1,
    "glass":1,
    "imbedded":1,
    "size":1,
    "concavedark":1,
    "safe":1,
    "higherpitched":1,
    "uncertain":1,
    "stacysvoice":1,
    "pressure":1,
    "raspy":1,
    "reassuringly":1,
    "hey":1,
    "angle":1,
    "doll":1,
    "carelessly":1,
    "tossed":1,
    "debating":1,
    "braid":1,
    "themthree":1,
    "section":1,
    "broke":1,
    "bowels":1,
    "bladder":1,
    "frames":1,
    "builda":1,
    "hint":1,
    "exasperation":1,
    "incredulous":1,
    "retreating":1,
    "may":1,
    "nock":1,
    "unholsters":1,
    "andas":1,
    "trailraises":1,
    "breathless":1,
    "scaredlooking":1,
    "palmsup":1,
    "someones":1,
    "quickened":1,
    "panic":1,
    "tug":1,
    "usi":1,
    "expressionless":1,
    "tightens":1,
    "wake":1,
    "wed":1,
    "roughly":1,
    "ydq":1,
    "forced":1,
    "understands":1,
    "allows":1,
    "led":1,
    "wrenches":1,
    "stumbles":1,
    "grabbing":1,
    "roots":1,
    "stupefied":1,
    "keening":1,
    "weapon":1,
    "stones":1,
    "throw":1,
    "grenades":1,
    "throwing":1,
    "silenced":1,
    "strip":1,
    "suddenlya":1,
    "suppressed":1,
    "elbows":1,
    "knowwell":1,
    "snare":1,
    "better":1,
    "hobbles":1,
    "dims":1,
    "lamps":1,
    "examining":1,
    "lights":1,
    "grown":1,
    "itt":1,
    "climbs":1,
    "haggard":1,
    "ashen":1,
    "hips":1,
    "mathis":1,
    "scenarios":1,
    "dwindling":1,
    "favoring":1,
    "count":1,
    "twothree":1,
    "sags":1,
    "thrash":1,
    "set":1,
    "pee":1,
    "pees":1,
    "rustling":1,
    "draught":1,
    "binds":1,
    "thighs":1,
    "waits":1,
    "buttoning":1,
    "working":1,
    "fight":1,
    "carry":1,
    "leaking":1,
    "urine":1,
    "rig":1,
    "liter":1,
    "swig":1,
    "shift":1,
    "lifted":1,
    "herunderwear":1,
    "huddle":1,
    "ankle":1,
    "hip":1,
    "ofdenim":1,
    "dies":1,
    "poisoningsomething":1,
    "boxers":1,
    "morning":1,
    "pour":1,
    "tie":1,
    "among":1,
    "drapes":1,
    "hungry":1,
    "stubbled":1,
    "opposite":1,
    "urinate":1,
    "wading":1,
    "part":1,
    "skull":1,
    "loose":1,
    "tumble":1,
    "inhales":1,
    "sharply":1,
    "recoiling":1,
    "gaining":1,
    "shine":1,
    "assumes":1,
    "dawnthere":1,
    "shining":1,
    "slickly":1,
    "beginning":1,
    "tossing":1,
    "halfawake":1,
    "widening":1,
    "thrusting":1,
    "jesusits":1,
    "breaks":1,
    "snagged":1,
    "knifes":1,
    "stir":1,
    "scoops":1,
    "ducks":1,
    "blades":1,
    "hesitating":1,
    "unquestionably":1,
    "contracting":1,
    "expanding":1,
    "worm":1,
    "shrieks":1,
    "crouching":1,
    "cries":1,
    "jerk":1,
    "somethings":1,
    "thicksounding":1,
    "straining":1,
    "quieted":1,
    "showme":1,
    "flowering":1,
    "twitching":1,
    "funguslike":1,
    "infantile":1,
    "version":1,
    "shirts":1,
    "arranges":1,
    "nuts":1,
    "miners":1,
    "liquids":1,
    "coke":1,
    "cleared":1,
    "quarantined":1,
    "spread":1,
    "tuna":1,
    "unwraps":1,
    "elsei":1,
    "religious":1,
    "sacrifice":1,
    "responds":1,
    "knocked":1,
    "heleaps":1,
    "calming":1,
    "squares":1,
    "tendon":1,
    "ropy":1,
    "clots":1,
    "gray":1,
    "distracted":1,
    "fingertip":1,
    "atient":1,
    "pops":1,
    "theirs":1,
    "forgotten":1,
    "glassyeyed":1,
    "worried":1,
    "puffy":1,
    "swelling":1,
    "natural":1,
    "happens":1,
    "itscap":1,
    "apiece":1,
    "distressed":1,
    "care":1,
    "shushing":1,
    "fluidfilled":1,
    "unconscious":1,
    "transformed":1,
    "pair":1,
    "joking":1,
    "anaesthesia":1,
    "lose":1,
    "tourniquets":1,
    "scoffs":1,
    "flames":1,
    "stood":1,
    "fashioned":1,
    "wild":1,
    "fast":1,
    "hospital":1,
    "squeezing":1,
    "blinks":1,
    "remove":1,
    "sundown":1,
    "dying":1,
    "audible":1,
    "doit":1,
    "painfully":1,
    "amber":1,
    "liquid":1,
    "poured":1,
    "shaped":1,
    "ax":1,
    "splashes":1,
    "bite":1,
    "case":1,
    "belts":1,
    "clamps":1,
    "gripping":1,
    "cracking":1,
    "glowing":1,
    "adeep":1,
    "shutting":1,
    "shaky":1,
    "stopstop":1,
    "smashes":1,
    "bucking":1,
    "christ":1,
    "felt":1,
    "telling":1,
    "slack":1,
    "loosen":1,
    "tourniquet":1,
    "amputated":1,
    "bloodstained":1,
    "held":1,
    "remaining":1,
    "cords":1,
    "asecond":1,
    "slash":1,
    "swoops":1,
    "backs":1,
    "thevine":1,
    "directions":1,
    "stomping":1,
    "severed":1,
    "larger":1,
    "duct":1,
    "dribbling":1,
    "saturating":1,
    "length":1,
    "checking":1,
    "signs":1,
    "weakness":1,
    "worst":1,
    "greasy":1,
    "vehemence":1,
    "winch":1,
    "wind":1,
    "ropes":1,
    "terrifie":1,
    "headed":1,
    "divert":1,
    "anger":1,
    "intervene":1,
    "willing":1,
    "baby":1,
    "selfish":1,
    "forcing":1,
    "hut":1,
    "bigger":1,
    "stronger":1,
    "palpable":1,
    "apart":1,
    "tense":1,
    "incredulity":1,
    "thinking":1,
    "load":1,
    "lay":1,
    "pure":1,
    "contempt":1,
    "magically":1,
    "helping":1,
    "confirm":1,
    "protest":1,
    "stacyis":1,
    "shamed":1,
    "11":1,
    "makeshift":1,
    "blows":1,
    "trembles":1,
    "within":1,
    "shadowed":1,
    "passageway":1,
    "plucks":1,
    "jumpy":1,
    "aretrembling":1,
    "clothing":1,
    "pole":1,
    "alcohol":1,
    "fluttering":1,
    "cloud":1,
    "weakly":1,
    "deeper":1,
    "passage":1,
    "eerily":1,
    "exact":1,
    "unison":1,
    "stamens":1,
    "miniature":1,
    "tuning":1,
    "forks":1,
    "plant":1,
    "deadends":1,
    "blank":1,
    "sixth":1,
    "quickening":1,
    "torchlight":1,
    "seventh":1,
    "punch":1,
    "balances":1,
    "flutters":1,
    "pales":1,
    "dangling":1,
    "dragging":1,
    "monkeylike":1,
    "safety":1,
    "shadow":1,
    "dimly":1,
    "curled":1,
    "wallshe":1,
    "stirs":1,
    "invaded":1,
    "fleshits":1,
    "sockets":1,
    "hollow":1,
    "churning":1,
    "whistling":1,
    "whip":1,
    "lashes":1,
    "wraps":1,
    "torchs":1,
    "handle":1,
    "smothering":1,
    "discernible":1,
    "cackling":1,
    "eerie":1,
    "childlike":1,
    "amoy":1,
    "embrace":1,
    "creak":1,
    "shuts":1,
    "dividing":1,
    "pilesits":1,
    "tooconcentrating":1,
    "kneels":1,
    "uncontrollably":1,
    "wanner":1,
    "gamecan":1,
    "huh":1,
    "pilot":1,
    "nodprodding":1,
    "speech":1,
    "heights":1,
    "lifeguard":1,
    "wanting":1,
    "refuse":1,
    "hardens":1,
    "relents":1,
    "wore":1,
    "life":1,
    "vest":1,
    "encouraging":1,
    "yeah":1,
    "laughed":1,
    "raina":1,
    "heavy":1,
    "skyward":1,
    "downpour":1,
    "deluge":1,
    "trap":1,
    "swung":1,
    "clouds":1,
    "drumming":1,
    "anythingin":1,
    "toiletry":1,
    "kit":1,
    "row":1,
    "rushes":1,
    "tilts":1,
    "shivering":1,
    "drenched":1,
    "backspattered":1,
    "abruptly":1,
    "slacken":1,
    "reemerges":1,
    "thermos":1,
    "pointless":1,
    "stopping":1,
    "meager":1,
    "receptacles":1,
    "less":1,
    "muddylooking":1,
    "guard":1,
    "todayjust":1,
    "today":1,
    "track":1,
    "stunned":1,
    "games":1,
    "thirst":1,
    "paces":1,
    "dismembered":1,
    "muddy":1,
    "spoiled":1,
    "portions":1,
    "justwell":1,
    "tough":1,
    "strengthening":1,
    "confidence":1,
    "returning":1,
    "wouldve":1,
    "overpower":1,
    "entire":1,
    "spasming":1,
    "watery":1,
    "spattered":1,
    "eating":1,
    "weary":1,
    "agitated":1,
    "pacing":1,
    "hefting":1,
    "hershirt":1,
    "fingertips":1,
    "slit":1,
    "crests":1,
    "sweeps":1,
    "soaking":1,
    "waistband":1,
    "thought":1,
    "tumbling":1,
    "prying":1,
    "increasing":1,
    "hiding":1,
    "pokes":1,
    "il":1,
    "h\u00ef\u00bf\u00bd":1,
    "f":1,
    "hed":1,
    "used":1,
    "heated":1,
    "balls":1,
    "yell":1,
    "dehydrateher":1,
    "q":1,
    "inasinside":1,
    "yourself":1,
    "fuzzed":1,
    "quality":1,
    "theopposite":1,
    "switching":1,
    "locations":1,
    "float":1,
    "tracking":1,
    "noits":1,
    "mimicking":1,
    "ses":1,
    "crouched":1,
    "chorus":1,
    "deepened":1,
    "obscuring":1,
    "sculpt":1,
    "staresfor":1,
    "lie":1,
    "button":1,
    "forty":1,
    "minutes":1,
    "mind":1,
    "illuminating":1,
    "breeze":1,
    "flapping":1,
    "soundloud":1,
    "wet":1,
    "painfuland":1,
    "turn\u00e2\u0080\u00a2peering":1,
    "gaunt":1,
    "form":1,
    "sitting":1,
    "deals":1,
    "teaching":1,
    "wantjust":1,
    "job":1,
    "horrible":1,
    "wh":1,
    "building":1,
    "climax":1,
    "squinting":1,
    "whispering":1,
    "blind":1,
    "mimics":1,
    "sex":1,
    "creeping":1,
    "ay":1,
    "purpose":1,
    "thinks":1,
    "weakestbecause":1,
    "push":1,
    "cheated":1,
    "angelic":1,
    "secrets":1,
    "shi":1,
    "slithered":1,
    "nose":1,
    "senior":1,
    "year":1,
    "bitch":1,
    "cunt":1,
    "venomous":1,
    "slut":1,
    "twice":1,
    "guys":1,
    "grips":1,
    "hers":1,
    "stoll":1,
    "sees":1,
    "resist":1,
    "mortifie":1,
    "godoh":1,
    "neck":1,
    "pulse":1,
    "sorryim":1,
    "salted":1,
    "mattered":1,
    "confused":1,
    "gesturing":1,
    "reluctant":1,
    "straddles":1,
    "armpits":1,
    "intent":1,
    "resisting":1,
    "snagging":1,
    "wrestle":1,
    "shove":1,
    "perspiration":1,
    "starfish":1,
    "implanted":1,
    "inching":1,
    "snakelike":1,
    "lump":1,
    "inner":1,
    "placed":1,
    "seemsas":1,
    "smooth":1,
    "tensing":1,
    "reveals":1,
    "clotted":1,
    "pries":1,
    "arching":1,
    "backward":1,
    "hyperventilating":1,
    "vehemently":1,
    "roll":1,
    "hitches":1,
    "starfishshaped":1,
    "incisions":1,
    "shape":1,
    "asterisk":1,
    "rigid":1,
    "astonishing":1,
    "amount":1,
    "slimy":1,
    "bandages":1,
    "moisture":1,
    "vineat":1,
    "calf":1,
    "unless":1,
    "tucks":1,
    "scoots":1,
    "scalp":1,
    "jumping":1,
    "strokes":1,
    "quieter":1,
    "encourages":1,
    "slicing":1,
    "peeling":1,
    "bloodstreaked":1,
    "wildeyed":1,
    "abdominals":1,
    "glint":1,
    "stern":1,
    "stays":1,
    "matted":1,
    "alonel":1,
    "cradling":1,
    "fend":1,
    "punches":1,
    "sternum":1,
    "midsentence":1,
    "convulse":1,
    "yanking":1,
    "zipper":1,
    "immense":1,
    "cascades":1,
    "closing":1,
    "calling":1,
    "writhes":1,
    "spasmodically":1,
    "coiling":1,
    "uncoiling":1,
    "perfectly":1,
    "unsuccessfully":1,
    "punctuated":1,
    "strings":1,
    "dragged":1,
    "torso":1,
    "strides":1,
    "energy":1,
    "weaker":1,
    "nobodys":1,
    "daylight":1,
    "passed":1,
    "peak":1,
    "despite":1,
    "bites":1,
    "mutely":1,
    "eatsilent":1,
    "snakes":1,
    "snot":1,
    "react":1,
    "believe":1,
    "bandage":1,
    "gash":1,
    "mouthlike":1,
    "probably":1,
    "tree":1,
    "name":1,
    "darkly":1,
    "stained":1,
    "killing":1,
    "clearings":1,
    "youve":1,
    "fucks":1,
    "cocks":1,
    "loudly":1,
    "several":1,
    "emerged":1,
    "fly":1,
    "throat":1,
    "misses":1,
    "strike":1,
    "hurried":1,
    "wide":1,
    "bowmen":1,
    "sprint":1,
    "women":1,
    "griefstricken":1,
    "crawl":1,
    "frothing":1,
    "pinkly":1,
    "flagged":1,
    "tour":1,
    "collapsed":1,
    "brightly":1,
    "stillforms":1,
    "patients":1,
    "ivs":1,
    "beds":1,
    "revived":1,
    "brought":1,
    "shapeseverely":1,
    "dehydrated":1,
    "traumatized":1,
    "shock":1,
    "sedate":1,
    "manila":1,
    "folder":1,
    "color":1,
    "digital":1,
    "photo":1,
    "torn":1,
    "uniformed":1,
    "chair":1,
    "reading":1,
    "newspaper":1,
    "passport":1,
    "stirred":1,
    "wrist":1,
    "herpulse":1,
    "limply":1,
    "grasp":1,
    "war":2,
    "game":2,
    "involved":2,
    "played":2,
    "exactly":2,
    "wheres":2,
    "win":2,
    "sometimes":2,
    "course":2,
    "heads":2,
    "sweetie":2,
    "read":2,
    "ever":2,
    "passing":2,
    "pink":2,
    "slightly":2,
    "pained":2,
    "really":2,
    "decided":2,
    "voices":2,
    "gave":2,
    "caught":2,
    "glancing":2,
    "wrong":2,
    "joins":2,
    "thank":2,
    "swim":2,
    "cooler":2,
    "fish":2,
    "nurse":2,
    "sharks":2,
    "dangerous":2,
    "frowning":2,
    "wasnt":2,
    "story":2,
    "smiling":2,
    "rhythm":2,
    "won":2,
    "sand":2,
    "fool":2,
    "years":2,
    "grinding":2,
    "night":2,
    "wish":2,
    "heading":2,
    "bonfire":2,
    "blond":2,
    "laughs":2,
    "becoming":2,
    "bodies":2,
    "disappearing":2,
    "de":2,
    "disengages":2,
    "standing":2,
    "paper":2,
    "german":2,
    "cancun":2,
    "x":2,
    "west":2,
    "bored":2,
    "tomorrow":2,
    "word":2,
    "those":2,
    "instead":2,
    "retching":2,
    "hungover":2,
    "ankles":2,
    "ceiling":2,
    "iced":2,
    "tea":2,
    "vanished":2,
    "vanish":2,
    "protein":2,
    "bars":2,
    "raisins":2,
    "grapes":2,
    "youd":2,
    "zipping":2,
    "having":2,
    "neither":2,
    "groan":2,
    "brothers":2,
    "note":2,
    "shorter":2,
    "westward":2,
    "kilometers":2,
    "therell":2,
    "slings":2,
    "trucks":2,
    "taps":2,
    "window":2,
    "burst":2,
    "movement":2,
    "rear":2,
    "springs":2,
    "muscular":2,
    "rolls":2,
    "warily":2,
    "halfnods":2,
    "halfshrugs":2,
    "heavily":2,
    "barring":2,
    "dollar":2,
    "puzzled":2,
    "wallet":2,
    "disappeared":2,
    "dinero":2,
    "slap":2,
    "insect":2,
    "repellent":2,
    "spray":2,
    "faintly":2,
    "pauses":2,
    "pass":2,
    "snaps":2,
    "must":2,
    "slide":2,
    "became":2,
    "impossible":2,
    "love":2,
    "asked":2,
    "uphill":2,
    "brown":2,
    "gingerly":2,
    "boulder":2,
    "catches":2,
    "balance":2,
    "final":2,
    "instant":2,
    "starting":2,
    "extends":2,
    "eye":2,
    "sixty":2,
    "darkhaired":2,
    "expressions":2,
    "bush":2,
    "soil":2,
    "tugs":2,
    "slips":2,
    "pushed":2,
    "fifth":2,
    "squeaking":2,
    "sense":2,
    "hidden":2,
    "dug":2,
    "appears":2,
    "pocket":2,
    "fighting":2,
    "whos":2,
    "argue":2,
    "anxious":2,
    "walking":2,
    "sunlight":2,
    "leads":2,
    "guns":2,
    "hesitate":2,
    "beautiful":2,
    "realize":2,
    "development":2,
    "cocked":2,
    "gallop":2,
    "rearing":2,
    "rolling":2,
    "reins":2,
    "diminishing":2,
    "forehead":2,
    "gun":2,
    "holster":2,
    "shooing":2,
    "cups":2,
    "gently":2,
    "hike":2,
    "flinches":2,
    "closer":2,
    "mustache":2,
    "arrow":2,
    "retreat":2,
    "bit":2,
    "swinging":2,
    "shot":2,
    "retreats":2,
    "surprise":2,
    "talk":2,
    "aiming":2,
    "bullet":2,
    "reach":2,
    "stricken":2,
    "white":2,
    "glimpse":2,
    "places":2,
    "upon":2,
    "mounds":2,
    "tangled":2,
    "everywhere":2,
    "horizontal":2,
    "holes":2,
    "absentmindedly":2,
    "falling":2,
    "draws":2,
    "wanna":2,
    "grasps":2,
    "shin":2,
    "tshirt":2,
    "turned":2,
    "scarred":2,
    "flexes":2,
    "wincing":2,
    "sneak":2,
    "reep":2,
    "hardly":2,
    "dazed":2,
    "stroking":2,
    "grimacing":2,
    "thirsty":2,
    "perfect":2,
    "decide":2,
    "survive":2,
    "gallons":2,
    "meet":2,
    "hour":2,
    "choice":2,
    "fresh":2,
    "possible":2,
    "gets":2,
    "live":2,
    "certain":2,
    "electronic":2,
    "believing":2,
    "pick":2,
    "girds":2,
    "muscles":2,
    "reclaiming":2,
    "eaten":2,
    "hemp":2,
    "spinning":2,
    "wildly":2,
    "weight":2,
    "thump":2,
    "instantly":2,
    "echoes":2,
    "listen":2,
    "laying":2,
    "drop":2,
    "stepping":2,
    "kisses":2,
    "lunges":2,
    "jerks":2,
    "conscious":2,
    "longer":2,
    "softly":2,
    "archway":2,
    "playing":2,
    "flickering":2,
    "shoes":2,
    "put":2,
    "odd":2,
    "sections":2,
    "strength":2,
    "scare":2,
    "jostle":2,
    "send":2,
    "elbow":2,
    "smeared":2,
    "told":2,
    "needs":2,
    "did":2,
    "fault":2,
    "stepped":2,
    "hadnt":2,
    "kicks":2,
    "clot":2,
    "bloodied":2,
    "wrap":2,
    "shudders":2,
    "blow":2,
    "twists":2,
    "bend":2,
    "arch":2,
    "wounded":2,
    "sliding":2,
    "groans":2,
    "whispers":2,
    "shelter":2,
    "single":2,
    "uncaps":2,
    "build":2,
    "pats":2,
    "clean":2,
    "jeans":2,
    "soiled":2,
    "infection":2,
    "knows":2,
    "dead":2,
    "sweatstained":2,
    "zips":2,
    "hillside":2,
    "clinging":2,
    "tear":2,
    "burn":2,
    "hurry":2,
    "digs":2,
    "soothe":2,
    "fights":2,
    "lower":2,
    "completely":2,
    "yank":2,
    "volume":2,
    "afraid":2,
    "equal":2,
    "accepts":2,
    "square":2,
    "blackened":2,
    "terribly":2,
    "chews":2,
    "swallows":2,
    "swallow":2,
    "rasp":2,
    "finished":2,
    "feeling":2,
    "saw":2,
    "sterilize":2,
    "cauterize":2,
    "pulled":2,
    "it11":2,
    "hoarse":2,
    "barely":2,
    "metal":2,
    "strikes":2,
    "flame":2,
    "center":2,
    "screaming":2,
    "seeing":2,
    "stumps":2,
    "slithers":2,
    "claim":2,
    "faster":2,
    "stillness":2,
    "echoing":2,
    "wrapped":2,
    "tied":2,
    "top":2,
    "massaging":2,
    "gaze":2,
    "such":2,
    "disgust":2,
    "fury":2,
    "slight":2,
    "materializing":2,
    "vibrating":2,
    "pace":2,
    "revealing":2,
    "kicking":2,
    "manage":2,
    "retrieves":2,
    "surges":2,
    "highpitched":2,
    "hysterical":2,
    "rests":2,
    "increases":2,
    "peel":2,
    "wailing":2,
    "rocking":2,
    "words":2,
    "trails":2,
    "frisbee":2,
    "containers":2,
    "managed":2,
    "inch":2,
    "furious":2,
    "matter":2,
    "parents":2,
    "fruit":2,
    "peels":2,
    "abeat":2,
    "gasps":2,
    "consciousness":2,
    "snatches":2,
    "probes":2,
    "shoves":2,
    "sticking":2,
    "infected":2,
    "rasping":2,
    "soaked":2,
    "grows":2,
    "briefly":2,
    "panting":2,
    "tangle":2,
    "made":2,
    "slither":2,
    "leanto":2,
    "gagging":2,
    "spring":2,
    "darts":2,
    "tattered":2,
    "twisting":2,
    "oozing":2,
    "thickly":2,
    "pumping":2,
    "grab":2,
    "begging":2,
    "clutches":2,
    "shreds":2,
    "hurts":2,
    "sprinting":2,
    "treeline":2,
    "corridor":2,
    "rooms":2,
    "printout":2,
    "policeman":2,
    "cause":3,
    "id":3,
    "english":3,
    "every":3,
    "shoulders":3,
    "notice":3,
    "because":3,
    "interrupts":3,
    "speaking":3,
    "wanted":3,
    "beach":3,
    "ears":3,
    "bought":3,
    "went":3,
    "thirty":3,
    "school":3,
    "met":3,
    "true":3,
    "high":3,
    "cup":3,
    "everything":3,
    "teak":3,
    "bed":3,
    "sit":3,
    "shadows":3,
    "drifts":3,
    "continue":3,
    "between":3,
    "sweaty":3,
    "drawn":3,
    "dig":3,
    "camp":3,
    "spanish":3,
    "frowns":3,
    "wiping":3,
    "outside":3,
    "brush":3,
    "sunburned":3,
    "lies":3,
    "bottles":3,
    "somehow":3,
    "arent":3,
    "clearly":3,
    "wants":3,
    "never":3,
    "revealed":3,
    "black":3,
    "thick":3,
    "wheel":3,
    "heat":3,
    "barking":3,
    "clutching":3,
    "frantic":3,
    "money":3,
    "smile":3,
    "slaps":3,
    "climb":3,
    "spraying":3,
    "supplies":3,
    "moan":3,
    "tired":3,
    "weve":3,
    "gradually":3,
    "smells":3,
    "covering":3,
    "bicycle":3,
    "frond":3,
    "narrow":3,
    "winding":3,
    "covered":3,
    "shields":3,
    "dimness":3,
    "mine":3,
    "follows":3,
    "vanishes":3,
    "sacred":3,
    "shifting":3,
    "bright":3,
    "stopped":3,
    "noise":3,
    "hoofbeats":3,
    "approaching":3,
    "handful":3,
    "halt":3,
    "control":3,
    "shouting":3,
    "waving":3,
    "fabric":3,
    "sky":3,
    "jump":3,
    "immediately":3,
    "reflexively":3,
    "drawing":3,
    "shake":3,
    "raises":3,
    "beyond":3,
    "shout":3,
    "expression":3,
    "run":3,
    "yards":3,
    "straight":3,
    "draft":3,
    "gesture":3,
    "mound":3,
    "easy":3,
    "squeezes":3,
    "moans":3,
    "manages":3,
    "fingers":3,
    "drink":3,
    "considering":3,
    "week":3,
    "appalled":3,
    "else":3,
    "notices":3,
    "silencing":3,
    "checks":3,
    "different":3,
    "vanishing":3,
    "tightly":3,
    "pushing":3,
    "creaking":3,
    "terrified":3,
    "fall":3,
    "horrified":3,
    "jesus":3,
    "reveal":3,
    "trembling":3,
    "motionless":3,
    "trapped":3,
    "pale":3,
    "hold":3,
    "catching":3,
    "circle":3,
    "mylegs":3,
    "pain":3,
    "worse":3,
    "beseeching":3,
    "faces":3,
    "increasingly":3,
    "woman":3,
    "cuts":3,
    "limps":3,
    "squints":3,
    "reached":3,
    "broken":3,
    "imagining":3,
    "remain":3,
    "food":3,
    "done":3,
    "next":3,
    "doing":3,
    "slices":3,
    "happen":3,
    "aluminum":3,
    "ragged":3,
    "approach":3,
    "seeming":3,
    "glow":3,
    "panicky":3,
    "shocked":3,
    "dirty":3,
    "rise":3,
    "muscle":3,
    "mustve":3,
    "pretzels":3,
    "prodding":3,
    "caps":3,
    "mortified":3,
    "blade":3,
    "spot":3,
    "incision":3,
    "flesh":3,
    "wounds":3,
    "limbs":3,
    "snaking":3,
    "slashes":3,
    "tearing":3,
    "mass":3,
    "soon":3,
    "lit":3,
    "directly":3,
    "coil":3,
    "writhing":3,
    "hits":3,
    "sobs":3,
    "astonishment":3,
    "regain":3,
    "palm":3,
    "teresa":3,
    "fun":4,
    "card":4,
    "lays":4,
    "sure":4,
    "losing":4,
    "ive":4,
    "hot":4,
    "forth":4,
    "lost":4,
    "beer":4,
    "foot":4,
    "sort":4,
    "considers":4,
    "dancing":4,
    "snorting":4,
    "floor":4,
    "shifts":4,
    "direction":4,
    "save":4,
    "day":4,
    "returns":4,
    "question":4,
    "henrich":4,
    "old":4,
    "mining":4,
    "follow":4,
    "carries":4,
    "answer":4,
    "whatre":4,
    "towel":4,
    "teeth":4,
    "mosquitoes":4,
    "khakis":4,
    "plastic":4,
    "getting":4,
    "full":4,
    "ruins":4,
    "loud":4,
    "miles":4,
    "eleven":4,
    "road":4,
    "running":4,
    "tight":4,
    "throws":4,
    "offers":4,
    "removes":4,
    "resumes":4,
    "couldnt":4,
    "honey":4,
    "farther":4,
    "says":4,
    "rising":4,
    "sign":4,
    "fourth":4,
    "speaks":4,
    "people":4,
    "leaving":4,
    "digging":4,
    "louder":4,
    "horse":4,
    "yelling":4,
    "response":4,
    "fires":4,
    "younger":4,
    "taut":4,
    "check":4,
    "sweating":4,
    "below":4,
    "either":4,
    "rush":4,
    "low":4,
    "barrel":4,
    "bow":4,
    "downward":4,
    "carrying":4,
    "started":4,
    "sun":4,
    "sob":4,
    "tiny":4,
    "burned":4,
    "themselves":4,
    "home":4,
    "sounds":4,
    "hurries":4,
    "shafts":4,
    "visibly":4,
    "moaning":4,
    "strong":4,
    "able":4,
    "visible":4,
    "sounding":4,
    "respond":4,
    "knee":4,
    "backpacks":4,
    "knot":4,
    "nylon":4,
    "strips":4,
    "emerges":4,
    "poles":4,
    "tape":4,
    "hell":4,
    "spins":4,
    "upset":4,
    "sobbing":4,
    "scrambling":4,
    "sap":4,
    "corpse":4,
    "touch":4,
    "birds":4,
    "yells":4,
    "dozen":4,
    "inches":4,
    "gotta":4,
    "rest":4,
    "bone":4,
    "probing":4,
    "break":4,
    "canteen":4,
    "bleeding":4,
    "match":4,
    "wrapping":4,
    "though":4,
    "laughter":4,
    "weeping":4,
    "turning":4,
    "stupid":4,
    "thigh":4,
    "banana":4,
    "mean":5,
    "shit":5,
    "pile":5,
    "fine":5,
    "burning":5,
    "presses":5,
    "focused":5,
    "quickly":5,
    "covers":5,
    "pool":5,
    "idea":5,
    "many":5,
    "four":5,
    "call":5,
    "short":5,
    "drag":5,
    "followed":5,
    "slides":5,
    "leaves":5,
    "same":5,
    "sweat":5,
    "pants":5,
    "isnt":5,
    "ready":5,
    "line":5,
    "struggles":5,
    "also":5,
    "cell":5,
    "flips":5,
    "archaeologists":5,
    "twenty":5,
    "boys":5,
    "kill":5,
    "slow":5,
    "use":5,
    "past":5,
    "calls":5,
    "frightened":5,
    "earth":5,
    "last":5,
    "listening":5,
    "yet":5,
    "belt":5,
    "whats":5,
    "goes":5,
    "mans":5,
    "nearly":5,
    "alone":5,
    "quick":5,
    "green":5,
    "weapons":5,
    "arrows":5,
    "killed":5,
    "happened":5,
    "lips":5,
    "talking":5,
    "hilltop":5,
    "ration":5,
    "remains":5,
    "understand":5,
    "faint":5,
    "carefully":5,
    "show":5,
    "grip":5,
    "upward":5,
    "steady":5,
    "cutting":5,
    "piece":5,
    "breath":5,
    "bad":5,
    "shouldnt":5,
    "touches":5,
    "scream":5,
    "sleeping":5,
    "pressing":5,
    "sandwich":5,
    "stomach":5,
    "bent":5,
    "reaching":5,
    "rib":5,
    "cage":5,
    "mud":5,
    "doctor":5,
    "play":6,
    "ten":6,
    "brother":6,
    "tosses":6,
    "speak":6,
    "nod":6,
    "say":6,
    "gone":6,
    "sleep":6,
    "work":6,
    "hair":6,
    "bus":6,
    "door":6,
    "waist":6,
    "knapsack":6,
    "point":6,
    "sighs":6,
    "pointing":6,
    "air":6,
    "continues":6,
    "five":6,
    "gestures":6,
    "finishes":6,
    "signal":6,
    "guess":6,
    "walk":6,
    "puts":6,
    "stream":6,
    "village":6,
    "small":6,
    "searching":6,
    "opening":6,
    "does":6,
    "ground":6,
    "few":6,
    "bows":6,
    "without":6,
    "unzips":6,
    "passes":6,
    "sawhorse":6,
    "third":6,
    "god":6,
    "lift":6,
    "quietly":6,
    "till":6,
    "stay":6,
    "theyll":6,
    "ringing":6,
    "matches":6,
    "oil":6,
    "heard":6,
    "making":6,
    "hurt":6,
    "begun":6,
    "die":6,
    "knees":6,
    "bulge":6,
    "calm":6,
    "hugging":6,
    "had":7,
    "sets":7,
    "base":7,
    "peer":7,
    "":7,
    "waiting":7,
    "thing":7,
    "sip":7,
    "dance":7,
    "smiles":7,
    "startled":7,
    "shorts":7,
    "pulling":7,
    "steadily":7,
    "join":7,
    "above":7,
    "coba":7,
    "large":7,
    "where":7,
    "glance":7,
    "motion":7,
    "behind":7,
    "each":7,
    "fifteen":7,
    "being":7,
    "holding":7,
    "dropping":7,
    "boy":7,
    "trying":7,
    "quiet":7,
    "camera":7,
    "erics":7,
    "ignores":7,
    "screams":7,
    "raised":7,
    "than":7,
    "clear":7,
    "flap":7,
    "blue":7,
    "crank":7,
    "crouch":7,
    "give":7,
    "light":7,
    "end":7,
    "sorry":7,
    "yanks":7,
    "hard":7,
    "lifting":7,
    "itll":7,
    "tequila":7,
    "fire":7,
    "wouldnt":8,
    "fuck":8,
    "peers":8,
    "picks":8,
    "lying":8,
    "girl":8,
    "jeffs":8,
    "young":8,
    "pushes":8,
    "girls":8,
    "men":8,
    "together":8,
    "begin":8,
    "catch":8,
    "our":8,
    "things":8,
    "will":8,
    "someone":8,
    "red":8,
    "box":8,
    "finger":8,
    "pack":8,
    "truck":8,
    "side":8,
    "driver":8,
    "tell":8,
    "figure":8,
    "hat":8,
    "wipes":8,
    "front":8,
    "dark":8,
    "seem":8,
    "trees":8,
    "while":8,
    "lowers":8,
    "close":8,
    "wall":8,
    "hanging":8,
    "tents":8,
    "breathing":8,
    "rain":8,
    "darkness":8,
    "might":8,
    "backboard":8,
    "tears":8,
    "would":9,
    "watches":9,
    "dog":9,
    "whole":9,
    "deep":9,
    "own":9,
    "aside":9,
    "place":9,
    "under":9,
    "drops":9,
    "any":9,
    "half":9,
    "against":9,
    "peering":9,
    "youll":9,
    "shoulder":9,
    "itself":9,
    "theyve":9,
    "pistol":9,
    "flowers":9,
    "struggling":9,
    "coming":9,
    "enough":9,
    "sling":9,
    "bones":9,
    "got":10,
    "opens":10,
    "second":10,
    "feel":10,
    "sits":10,
    "bottom":10,
    "before":10,
    "good":10,
    "after":10,
    "amys":10,
    "along":10,
    "path":10,
    "suddenly":10,
    "shouts":10,
    "stone":10,
    "crying":10,
    "grabs":10,
    "clothes":10,
    "torch":10,
    "been":11,
    "please":11,
    "move":11,
    "left":11,
    "stops":11,
    "these":11,
    "eat":11,
    "saying":11,
    "nothing":11,
    "your":11,
    "time":11,
    "fucking":11,
    "moment":11,
    "shirt":11,
    "moves":11,
    "which":11,
    "hear":11,
    "arms":11,
    "jungle":11,
    "already":11,
    "dirt":11,
    "shaking":11,
    "oh":11,
    "skin":12,
    "didnt":12,
    "everyone":12,
    "lets":12,
    "onto":12,
    "far":12,
    "wont":12,
    "moving":12,
    "slowly":12,
    "jumps":12,
    "tendrils":12,
    "cry":12,
    "let":12,
    "ring":12,
    "tendril":12,
    "ill":13,
    "only":13,
    "going":13,
    "wait":13,
    "shrugs":13,
    "makes":13,
    "sound":13,
    "herself":13,
    "stands":13,
    "crouches":13,
    "growing":13,
    "orange":13,
    "try":13,
    "step":13,
    "vines":13,
    "scared":13,
    "beneath":13,
    "hole":13,
    "shh":13,
    "leave":13,
    "maybe":14,
    "said":14,
    "about":14,
    "rises":14,
    "watch":14,
    "bag":14,
    "little":14,
    "start":14,
    "trail":14,
    "edge":14,
    "inside":14,
    "legs":14,
    "when":15,
    "bends":15,
    "map":15,
    "could":15,
    "hesitates":15,
    "stare":15,
    "points":15,
    "begins":15,
    "make":15,
    "chest":15,
    "three":15,
    "windlass":15,
    "need":15,
    "wound":15,
    "who":16,
    "himself":16,
    "free":16,
    "mouth":16,
    "help":16,
    "arm":16,
    "find":17,
    "silence":17,
    "looking":17,
    "falls":17,
    "once":17,
    "something":17,
    "pull":17,
    "leg":17,
    "even":18,
    "keep":18,
    "why":18,
    "much":18,
    "finally":19,
    "comes":19,
    "seems":19,
    "almost":19,
    "watching":19,
    "tries":19,
    "keeps":19,
    "face":19,
    "open":19,
    "cut":19,
    "want":20,
    "some":20,
    "beside":20,
    "water":20,
    "theyre":20,
    "mayan":20,
    "first":20,
    "lamp":20,
    "think":21,
    "across":21,
    "hill":21,
    "blood":21,
    "bottle":21,
    "waves":22,
    "silent":22,
    "take":23,
    "an":23,
    "gives":23,
    "stop":23,
    "turn":23,
    "very":23,
    "through":23,
    "two":23,
    "stand":23,
    "should":24,
    "both":24,
    "or":24,
    "long":24,
    "shut":24,
    "way":24,
    "okay":24,
    "mathiass":24,
    "rope":24,
    "leans":25,
    "nods":25,
    "come":25,
    "holds":25,
    "do":25,
    "looks":25,
    "phone":25,
    "thats":26,
    "my":26,
    "were":26,
    "me":26,
    "mayans":26,
    "staring":26,
    "bald":26,
    "voice":26,
    "body":26,
    "glances":27,
    "here":27,
    "gonna":27,
    "other":27,
    "knife":27,
    "doesnt":28,
    "tent":28,
    "shaft":28,
    "stacys":28,
    "stares":29,
    "lifts":30,
    "was":30,
    "by":30,
    "away":30,
    "us":30,
    "takes":31,
    "shakes":31,
    "eyes":31,
    "go":31,
    "know":32,
    "hands":32,
    "beat":32,
    "over":32,
    "im":33,
    "now":33,
    "like":33,
    "pulls":33,
    "well":33,
    "reaches":34,
    "feet":34,
    "shes":34,
    "get":34,
    "youre":35,
    "cant":35,
    "another":35,
    "forward":35,
    "around":35,
    "hes":35,
    "more":36,
    "how":36,
    "right":37,
    "their":37,
    "still":37,
    "man":38,
    "vine":38,
    "steps":39,
    "see":41,
    "clearing":41,
    "look":43,
    "off":45,
    "that":46,
    "others":48,
    "not":49,
    "be":49,
    "hand":50,
    "turns":51,
    "there":53,
    "dont":54,
    "starts":54,
    "this":55,
    "too":56,
    "what":56,
    "are":56,
    "if":57,
    "no":59,
    "again":59,
    "so":62,
    "has":63,
    "head":64,
    "as":65,
    "can":67,
    "theres":68,
    "one":69,
    "all":69,
    "for":73,
    "have":75,
    "down":77,
    "just":79,
    "mathias":87,
    "back":91,
    "with":92,
    "out":93,
    "on":94,
    "up":103,
    "but":104,
    "from":106,
    "into":108,
    "them":122,
    "they":127,
    "toward":132,
    "i":133,
    "is":134,
    "then":134,
    "him":138,
    "its":139,
    "we":140,
    "eric":148,
    "in":151,
    "you":176,
    "she":185,
    "stacy":191,
    "at":198,
    "amy":208,
    "of":232,
    "his":249,
    "he":289,
    "and":299,
    "it":326,
    "jeff":329,
    "her":374,
    "a":379,
    "to":484,
    "the":1086
}