{
    "21":1,
    "dykstra":1,
    "3":1,
    "dykstra\u2019s":1,
    "singled":1,
    "fielder\u2019s":1,
    "playbyplay":1,
    "ruddy":1,
    "irish":1,
    "roughened":1,
    "broken":1,
    "heavyweight":1,
    "boxer":1,
    "throw":1,
    "glow":1,
    "steers":1,
    "curb":1,
    "consigliere":1,
    "savagely":1,
    "loyal":1,
    "type":1,
    "leader":1,
    "ace":1,
    "sharp":1,
    "penny":1,
    "playfully":1,
    "slaps":1,
    "approach":1,
    "gentlemanly":1,
    "four":1,
    "stainless":1,
    "steel":1,
    "acp":1,
    "fusty":1,
    "antiquated":1,
    "decor":1,
    "paintings":1,
    "mary":1,
    "crucifix":1,
    "jjimmy":1,
    "ii\u2019ve":1,
    "strangely":1,
    "holes":1,
    "billy\u2019s":1,
    "flops":1,
    "fish":1,
    "gasping":1,
    "horribly":1,
    "airbut":1,
    "serves":1,
    "tickled":1,
    "wakes":1,
    "breathless":1,
    "flush":1,
    "ebb":1,
    "marlboros":1,
    "sucks":1,
    "soothing":1,
    "forties":1,
    "hitman":1,
    "kind":1,
    "scraggly":1,
    "fourday":1,
    "exhaustion":1,
    "glassy":1,
    "toomuch":1,
    "decorated":1,
    "burl":1,
    "ives":1,
    "\u2018holly":1,
    "christmas\u2019":1,
    "jukebox":1,
    "rough":1,
    "profane":1,
    "irishmen":1,
    "ages":1,
    "breeze":1,
    "toss":1,
    "dorsey":1,
    "arrogant":1,
    "bruiser":1,
    "stool":1,
    "fartin\u2019":1,
    "sleepin\u2019":1,
    "geriatric":1,
    "diapers":1,
    "snicker":1,
    "mothers":1,
    "bud":1,
    "gulps":1,
    "spits":1,
    "beer":1,
    "huge":1,
    "spray":1,
    "motherfuckin\u2019":1,
    "brash":1,
    "irresponsible":1,
    "plainclothes":1,
    "jason":1,
    "boyishly":1,
    "wiry":1,
    "duck":1,
    "how\u2019s":1,
    "tits":1,
    "bigger":1,
    "envelopes":1,
    "thick":1,
    "\u2018preciate":1,
    "shave":1,
    "date":1,
    "sniff":1,
    "mistletoe":1,
    "introducin\u2019":1,
    "agrees":1,
    "tossing":1,
    "glare":1,
    "dumps":1,
    "razorblades":1,
    "snorts":1,
    "bump":1,
    "restless":1,
    "edgy":1,
    "startled":1,
    "handout":1,
    "disgust":1,
    "annuity":1,
    "summin\u2019":1,
    "fifty":1,
    "type\u2019a":1,
    "canonized":1,
    "\u2018about":1,
    "hundred\u2019":1,
    "reconsidering":1,
    "earn":1,
    "claus":1,
    "costume":1,
    "mccauley\u2019s":1,
    "cancelled":1,
    "fair":1,
    "int\u2019l":1,
    "baggage":1,
    "claim":1,
    "afternoon":1,
    "wrapped":1,
    "circle":1,
    "carousel":1,
    "arriving":1,
    "college":1,
    "students":1,
    "welcomed":1,
    "goodlooking":1,
    "athletic":1,
    "chauffeur":1,
    "except":1,
    "placard":1,
    "m":1,
    "gruff":1,
    "colleague":1,
    "interceptions":1,
    "target":1,
    "bought":1,
    "kiddo":1,
    "repko":1,
    "canned":1,
    "bette":1,
    "midler":1,
    "batshit":1,
    "filed":1,
    "pushin\u2019":1,
    "ballpark":1,
    "biggest":1,
    "sundays":1,
    "wearin\u2019":1,
    "snap":1,
    "iphone":1,
    "vick\u2019s":1,
    "texting":1,
    "placed":1,
    "justpurchased":1,
    "sharpie":1,
    "andy":1,
    "roxborough":1,
    "reacts":1,
    "embarrassedly":1,
    "haters":1,
    "town":1,
    "generous":1,
    "nicer":1,
    "prince":1,
    "places":1,
    "mahogany":1,
    "aged":1,
    "sounds":1,
    "sat":1,
    "known":1,
    "impeccably":1,
    "serbian":1,
    "arrangement":1,
    "course":1,
    "upfront":1,
    "receive":1,
    "product":1,
    "99":1,
    "pure":1,
    "mulls":1,
    "seemingly":1,
    "impressed":1,
    "changed":1,
    "mob\u2019s":1,
    "arrested":1,
    "gambino":1,
    "driving":1,
    "shortstays":1,
    "collected":1,
    "hourly":1,
    "rate":1,
    "scores":1,
    "grinder":1,
    "lay":1,
    "fuckyou":1,
    "applebee\u2019s":1,
    "because":1,
    "adapt":1,
    "drugs":1,
    "enlighten":1,
    "whore\u2019s":1,
    "pimps":1,
    "poison":1,
    "guineas":1,
    "peddling":1,
    "underage":1,
    "econo":1,
    "lodge":1,
    "anxious":1,
    "observation":1,
    "silently":1,
    "livid":1,
    "whoever":1,
    "dismisses":1,
    "annual":1,
    "crowded":1,
    "senior":1,
    "scattered":1,
    "makeshift":1,
    "boyle":1,
    "28":1,
    "bornbad":1,
    "roughneck":1,
    "tattooed":1,
    "toestoneck":1,
    "tenth":1,
    "anotha":1,
    "referring":1,
    "fuckhead":1,
    "accept":1,
    "return":1,
    "payment":1,
    "paid":1,
    "guarantee":1,
    "rather":1,
    "guinea":1,
    "pimp":1,
    "kujovic\u2019s":1,
    "angry":1,
    "marches":1,
    "walked":1,
    "wished":1,
    "safe":1,
    "travels":1,
    "backs":1,
    "weight":1,
    "listened":1,
    "anne\u2019s":1,
    "crumbs":1,
    "mice":1,
    "stifles":1,
    "highball":1,
    "seriously":1,
    "deep":1,
    "kids\u2019re":1,
    "labors":1,
    "erases":1,
    "gulp":1,
    "modest":1,
    "cozy":1,
    "festooned":1,
    "homespun":1,
    "ornaments":1,
    "monogrammed":1,
    "stockings":1,
    "mantel":1,
    "stomps":1,
    "shoes":1,
    "6":1,
    "4":1,
    "excitement":1,
    "chickened":1,
    "planned":1,
    "stuffed":1,
    "beam":1,
    "wrestle":1,
    "they\u2019ve":1,
    "elated":1,
    "understated":1,
    "beauty":1,
    "waitress":1,
    "wow":1,
    "special":1,
    "ok":1,
    "washing":1,
    "machine":1,
    "broke":1,
    "tim":1,
    "borzell":1,
    "sale":1,
    "sears":1,
    "600":1,
    "shifts":1,
    "chicken":1,
    "casserole":1,
    "string":1,
    "beans":1,
    "crescent":1,
    "passed":1,
    "mischievously":1,
    "adorably":1,
    "monster":1,
    "congregated":1,
    "fireplace":1,
    "including":1,
    "beautiful":1,
    "50s":1,
    "fallingdown":1,
    "disclosing":1,
    "lists":1,
    "attractive":1,
    "daughter":1,
    "santa\u2019s":1,
    "muffled":1,
    "add":1,
    "cornered":1,
    "bitch":1,
    "bends":1,
    "teeters":1,
    "catching":1,
    "blazing":1,
    "burns":1,
    "oww":1,
    "muttering":1,
    "curses":1,
    "assists":1,
    "break":1,
    "whatcha":1,
    "santa\u2019ll":1,
    "reindeer":1,
    "upstairs":1,
    "pains":1,
    "oldest":1,
    "fit":1,
    "resists":1,
    "mumbling":1,
    "getchyour":1,
    "futile":1,
    "gasps":1,
    "sinking":1,
    "girls\u2019":1,
    "bunk":1,
    "beds":1,
    "arranging":1,
    "baby":1,
    "entitled":1,
    "\u2018us":1,
    "you\u2019":1,
    "prom":1,
    "mixed":1,
    "holy":1,
    "communion":1,
    "gaze":1,
    "fits":1,
    "completely":1,
    "\u201871":1,
    "jenny":1,
    "blake":1,
    "redhead\u2019s":1,
    "maureen":1,
    "galvin":1,
    "voice":1,
    "fuck\u2019s":1,
    "drinkin\u2019":1,
    "smacked":1,
    "herself":1,
    "remembering":1,
    "twin":1,
    "rosie":1,
    "ah":1,
    "smoke\u2019s":1,
    "castaway":1,
    "jerkoff":1,
    "seein\u2019":1,
    "dreams":1,
    "an\u2019":1,
    "laughin\u2019":1,
    "burke":1,
    "amato":1,
    "pederast":1,
    "fields":1,
    "askin\u2019":1,
    "parents\u2019":1,
    "george":1,
    "martin\u2019s":1,
    "hadn\u2019t":1,
    "perfunctorily":1,
    "lately":1,
    "weighing":1,
    "friend\u2019s":1,
    "often":1,
    "sons":1,
    "whereever":1,
    "philadelphiaschuylkill":1,
    "skyline":1,
    "beyond":1,
    "garden":1,
    "shimmer":1,
    "schuylkill":1,
    "bees":1,
    "hotfoot":1,
    "upenn":1,
    "coeds":1,
    "scuttle":1,
    "prostitutes":1,
    "juniata":1,
    "fishnet":1,
    "faux":1,
    "mink":1,
    "promises":1,
    "funnel":1,
    "wells":1,
    "fargo":1,
    "arena":1,
    "cruisers":1,
    "cecil":1,
    "b":1,
    "moore":1,
    "blaring":1,
    "\u2018players\u2019":1,
    "junk":1,
    "fairhill":1,
    "720":1,
    "airline":1,
    "united":1,
    "greasy":1,
    "spoon":1,
    "downandouters":1,
    "reviewing":1,
    "football":1,
    "odds":1,
    "section":1,
    "heavily":1,
    "burn":1,
    "cat":1,
    "dragged":1,
    "hardnosed":1,
    "seenitall":1,
    "inured":1,
    "lonely":1,
    "godawfulshitty":1,
    "jose":1,
    "35":1,
    "freshfaced":1,
    "promoted":1,
    "expecting":1,
    "spend":1,
    "patrons":1,
    "gravedigger":1,
    "retired":1,
    "atlantic":1,
    "spends":1,
    "weekends":1,
    "blowin\u2019":1,
    "pension":1,
    "working":1,
    "da":1,
    "seeing":1,
    "murderers":1,
    "shoulda":1,
    "taken":1,
    "bite":1,
    "pie":1,
    "wearing":1,
    "when\u2019s":1,
    "lots":1,
    "unresolved":1,
    "jogger":1,
    "pennypack":1,
    "creek":1,
    "frontal":1,
    "lobe":1,
    "yours":1,
    "signature":1,
    "bullet":1,
    "clean":1,
    "forehead":1,
    "blowing":1,
    "kingdom":1,
    "ring":1,
    "bell":1,
    "godfather":1,
    "cavetto\u2019s":1,
    "whisper":1,
    "relieve":1,
    "longheld":1,
    "burden":1,
    "partner\u2019s":1,
    "crotch":1,
    "ticklin\u2019":1,
    "assholes":1,
    "appetite":1,
    "slide":1,
    "card":1,
    "nightmares":1,
    "wondering":1,
    "reached":1,
    "grabbin\u2019":1,
    "weapon":1,
    "pussyslayer":1,
    "businessman":1,
    "limoext":1,
    "daily":1,
    "youth":1,
    "iverson":1,
    "12":1,
    "keen":1,
    "attention":1,
    "tap":1,
    "customer":1,
    "ridin\u2019":1,
    "nights":1,
    "watchin\u2019":1,
    "least":1,
    "pity":1,
    "letcha":1,
    "beams":1,
    "awed":1,
    "touching":1,
    "spaceship":1,
    "planet":1,
    "gangsta":1,
    "kanye":1,
    "style":1,
    "erry\u2019one":1,
    "hiphop":1,
    "dances":1,
    "\u2018star\u2019":1,
    "ceiling":1,
    "stoned":1,
    "bobbing":1,
    "reenters":1,
    "duffle":1,
    "unzips":1,
    "count":1,
    "filled":1,
    "pile":1,
    "monopoly":1,
    "park":1,
    "instant":1,
    "addled":1,
    "violence":1,
    "stereo":1,
    "stone":1,
    "leaking":1,
    "spreading":1,
    "jamming":1,
    "maintain":1,
    "professionalism":1,
    "tinted":1,
    "creases":1,
    "recognition":1,
    "taptaptap":1,
    "raps":1,
    "uhwhat\u2019s":1,
    "afraid":1,
    "shade":1,
    "glimpses":1,
    "dripping":1,
    "awaits":1,
    "hop":1,
    "bmx":1,
    "pedal":1,
    "opportunity":1,
    "goran\u2019s":1,
    "thwoomp":1,
    "drilled":1,
    "lowered":1,
    "bleeding":1,
    "gash":1,
    "draws":1,
    "trains":1,
    "instructions":1,
    "cursing":1,
    "partially":1,
    "cracked":1,
    "thinks":1,
    "jagged":1,
    "ahh":1,
    "fence":1,
    "growling":1,
    "doberman":1,
    "mouthful":1,
    "pant":1,
    "chasing":1,
    "approaching":1,
    "emerge":1,
    "everywhere":1,
    "checking":1,
    "console":1,
    "license":1,
    "leonard":1,
    "pallid":1,
    "raccoons":1,
    "attic":1,
    "ducts":1,
    "nasty":1,
    "critters":1,
    "door\u2019s":1,
    "y\u2019got":1,
    "bagel":1,
    "pretzels":1,
    "salty":1,
    "starvin\u2019":1,
    "clutter":1,
    "shine":1,
    "kit":1,
    "service":1,
    "decorating":1,
    "cookies":1,
    "rivulet":1,
    "napkin":1,
    "dabs":1,
    "clients":1,
    "drove":1,
    "murdered":1,
    "stuff":1,
    "capable":1,
    "letting":1,
    "foreheads":1,
    "touch":1,
    "everything\u2019s":1,
    "\u2018til":1,
    "wrap":1,
    "maggie":1,
    "slow":1,
    "plastic":1,
    "solo":1,
    "60":1,
    "portly":1,
    "redfaced":1,
    "drinking":1,
    "french":1,
    "rich":1,
    "mustached":1,
    "ratfaced":1,
    "prosecutor":1,
    "describe":1,
    "entered":1,
    "specific":1,
    "counselor":1,
    "blonde":1,
    "hammering":1,
    "brunette":1,
    "tickling":1,
    "prostate":1,
    "atop":1,
    "\u2018shawn":1,
    "partaking":1,
    "yuletide":1,
    "speak":1,
    "scribbles":1,
    "address":1,
    "notepad":1,
    "thoughts":1,
    "fasten":1,
    "minivan":1,
    "kisses":1,
    "van":1,
    "dusty":1,
    "cringes":1,
    "coughs":1,
    "nearly":1,
    "pukes":1,
    "91":1,
    "vacillating":1,
    "boomboomboom":1,
    "peephole":1,
    "guardedly":1,
    "figured":1,
    "sent":1,
    "keepin\u2019":1,
    "theresa":1,
    "hating":1,
    "vibrating":1,
    "\u2018pat":1,
    "cleaned":1,
    "inserts":1,
    "click":1,
    "y\u2019sure":1,
    "all\u2019a":1,
    "takin\u2019":1,
    "besides":1,
    "track":1,
    "stalk":1,
    "limping":1,
    "ducking":1,
    "cellar":1,
    "taps":1,
    "gazes":1,
    "lighten":1,
    "argue":1,
    "appreciation":1,
    "grace":1,
    "stick":1,
    "jab":1,
    "faucet":1,
    "dries":1,
    "shocked":1,
    "sight":1,
    "bracing":1,
    "uncomfortably":1,
    "alive":1,
    "twisted":1,
    "question":1,
    "mark":1,
    "bee":1,
    "circling":1,
    "seeps":1,
    "unlit":1,
    "topples":1,
    "fanning":1,
    "beneath":1,
    "lighter":1,
    "cloud":1,
    "figuring":1,
    "forgets":1,
    "poor":1,
    "longest":1,
    "wherever":1,
    "changes":1,
    "asking":1,
    "fists":1,
    "squeezes":1,
    "crackles":1,
    "area":1,
    "share":1,
    "responding":1,
    "cedar":1,
    "peers":1,
    "shoving":1,
    "applying":1,
    "hell\u2019s":1,
    "explain":1,
    "jams":1,
    "word":1,
    "blow":1,
    "prod":1,
    "ra":1,
    "en":1,
    "route":1,
    "northbound":1,
    "lehigh":1,
    "ambulance":1,
    "siren":1,
    "deceased":1,
    "arrived":1,
    "blue":1,
    "6\u20191\u2019":1,
    "armed":1,
    "secured":1,
    "premises":1,
    "and\u2019re":1,
    "locate":1,
    "savings":1,
    "retirement":1,
    "plan":1,
    "dismiss":1,
    "beggin\u2019":1,
    "yous":1,
    "wife\u2019s":1,
    "9th":1,
    "\u2018knows\u2019":1,
    "assumed":1,
    "drills":1,
    "gas":1,
    "ancient":1,
    "growls":1,
    "shudders":1,
    "scrapes":1,
    "shuddering":1,
    "straighten":1,
    "shatter":1,
    "rains":1,
    "slings":1,
    "chaos":1,
    "unfold":1,
    "swerving":1,
    "insane":1,
    "dance":1,
    "windshield":1,
    "smash":1,
    "truck":1,
    "swerves":1,
    "veers":1,
    "highway":1,
    "lanes":1,
    "boosh":1,
    "explosion":1,
    "slowmotion":1,
    "flipping":1,
    "upside":1,
    "resumes":1,
    "thoomp\u2014":1,
    "lands":1,
    "skids":1,
    "halts":1,
    "gape":1,
    "wreckage":1,
    "trio":1,
    "samaritans":1,
    "survivors":1,
    "goddmanit":1,
    "snaps":1,
    "stupor":1,
    "localizes":1,
    "noise":1,
    "leaning":1,
    "awakening":1,
    "lifeonly":1,
    "carbon":1,
    "fiber":1,
    "handcuff":1,
    "quartermile":1,
    "leap":1,
    "weave":1,
    "person":1,
    "earth":1,
    "gunfire":1,
    "fills":1,
    "hit":1,
    "staggering":1,
    "managed":1,
    "weakly":1,
    "instinct":1,
    "focuses":1,
    "pillars":1,
    "travelers":1,
    "scuttling":1,
    "crush":1,
    "pedestrians":1,
    "urgency":1,
    "picking":1,
    "pace":1,
    "shopping":1,
    "bags":1,
    "nearing":1,
    "struggle":1,
    "pummeled":1,
    "deflecting":1,
    "blows":1,
    "manages":1,
    "grasp":1,
    "lock":1,
    "bawoomp":1,
    "backward":1,
    "barreling":1,
    "shiteating":1,
    "grin":1,
    "moans":1,
    "crawl":1,
    "writhes":1,
    "enjoying":1,
    "kick":1,
    "swallow":1,
    "twelve":1,
    "appreciates":1,
    "moxie":1,
    "delivers":1,
    "palehorse":1,
    "punch":1,
    "trash":1,
    "bloodied":1,
    "garrotte":1,
    "bull":1,
    "wheeling":1,
    "inferno":1,
    "whiten":1,
    "clench":1,
    "tighter":1,
    "mining":1,
    "ounce":1,
    "wearied":1,
    "wanes":1,
    "resistance":1,
    "flags":1,
    "verge":1,
    "collapse":1,
    "steady":1,
    "avoids":1,
    "surveys":1,
    "throng":1,
    "hiss":1,
    "grizzled":1,
    "clam":1,
    "frantically":1,
    "disappears":1,
    "flares":1,
    "tape":1,
    "backed":1,
    "impatient":1,
    "whalen\u2019s":1,
    "lifeless":1,
    "\u2018you":1,
    "this\u2019":1,
    "learn":1,
    "registered":1,
    "edward":1,
    "responded":1,
    "homeowner":1,
    "frosty":1,
    "snowman":1,
    "conlon\u2019s":1,
    "unmarked":1,
    "victoria":1,
    "we\u2019ve":1,
    "ourselves":1,
    "blueribbon":1,
    "shitshow":1,
    "deck":1,
    "curve":1,
    "gladly":1,
    "stuck":1,
    "resentment":1,
    "vitals":1,
    "health":1,
    "emts":1,
    "zilch":1,
    "family\u2019s":1,
    "makin\u2019":1,
    "arrangements":1,
    "brotherinlaw\u2019s":1,
    "borrow":1,
    "beach":1,
    "caribbean":1,
    "eagerly":1,
    "awaiting":1,
    "knockin\u2019":1,
    "someone\u2019s":1,
    "push":1,
    "searching":1,
    "cower":1,
    "connect":1,
    "muster":1,
    "closeups":1,
    "sober":1,
    "boiling":1,
    "impotent":1,
    "motivation":1,
    "pins":1,
    "corkboard":1,
    "em":1,
    "husband":1,
    "dozens":1,
    "killers":1,
    "jury\u2019s":1,
    "angles":1,
    "blackandwhites":1,
    "prowls":1,
    "flashlights":1,
    "sweep":1,
    "alleys":1,
    "comb":1,
    "stations":1,
    "public":1,
    "restrooms":1,
    "thugs":1,
    "ransack":1,
    "destroying":1,
    "inch":1,
    "forget":1,
    "somewhere":1,
    "storage":1,
    "folding":1,
    "mess":1,
    "stabbed":1,
    "uhuh":1,
    "relieved":1,
    "furiously":1,
    "times":1,
    "widen":1,
    "shock":1,
    "horror":1,
    "contorts":1,
    "anguish":1,
    "palm":1,
    "deeper":1,
    "slumps":1,
    "swirls":1,
    "drain":1,
    "rinses":1,
    "glimpse":1,
    "rourke":1,
    "available":1,
    "suburban":1,
    "bryn":1,
    "mawr":1,
    "colonial":1,
    "leafy":1,
    "beethoven\u2019s":1,
    "\u2018allegretto":1,
    "c":1,
    "minor\u2019":1,
    "residence":1,
    "andrew":1,
    "speaking":1,
    "memo":1,
    "pad":1,
    "writes":1,
    "perfect":1,
    "penmanship":1,
    "2":1,
    "100000":1,
    "walkin":1,
    "closetbedroom":1,
    "aluminum":1,
    "top":1,
    "shelf":1,
    "lid":1,
    "fn":1,
    "laser":1,
    "sights":1,
    "holster":1,
    "ll":1,
    "bean":1,
    "field":1,
    "servers":1,
    "crashed":1,
    "eleven":1,
    "o\u2019clock":1,
    "skim":1,
    "milk":1,
    "eggs":1,
    "engrossed":1,
    "garageint":1,
    "a7":1,
    "arranges":1,
    "scanner":1,
    "chatter":1,
    "reverses":1,
    "dog":1,
    "outmoded":1,
    "55":1,
    "tall":1,
    "hardy":1,
    "broad":1,
    "iams":1,
    "sickly":1,
    "labrador":1,
    "sniffs":1,
    "lab":1,
    "moseys":1,
    "disinterested":1,
    "christ\u2019s":1,
    "hobbling":1,
    "roofer\u2019s":1,
    "jimmyand":1,
    "ed":1,
    "olderbrothermode":1,
    "batch":1,
    "peroxide":1,
    "ken":1,
    "hunt":1,
    "identified":1,
    "appear":1,
    "veteran":1,
    "during":1,
    "deadly":1,
    "footage":1,
    "wreck":1,
    "sheets":1,
    "covering":1,
    "unable":1,
    "proffer":1,
    "resignation":1,
    "flabby":1,
    "plagued":1,
    "tattoos":1,
    "boyhood":1,
    "braveries":1,
    "cartoonish":1,
    "flesh":1,
    "clothes":1,
    "spics":1,
    "ave":1,
    "neighborhood\u2019s":1,
    "what\u2019ve":1,
    "figure":1,
    "bringing":1,
    "bringin\u2019":1,
    "handle":1,
    "meetin\u2019":1,
    "decades":1,
    "betrayal":1,
    "disappointment":1,
    "surface":1,
    "den":1,
    "tense":1,
    "faceoff":1,
    "brothers":1,
    "dissolves":1,
    "wrapping":1,
    "animal":1,
    "belongs":1,
    "cage":1,
    "judge":1,
    "helluva\u2019n":1,
    "endorsement":1,
    "pang":1,
    "guilt":1,
    "swear":1,
    "ta":1,
    "refuse":1,
    "saltencrusted":1,
    "flannel":1,
    "pack":1,
    "malboro":1,
    "reds":1,
    "rifles":1,
    "slipped":1,
    "fractured":1,
    "pelvis":1,
    "bruised":1,
    "overnight":1,
    "bless":1,
    "manager\u2019s":1,
    "chainsmoking":1,
    "workaholic":1,
    "thinning":1,
    "slicked":1,
    "scalp":1,
    "choked":1,
    "invoices":1,
    "receipts":1,
    "antacids":1,
    "700":1,
    "rittenouse":1,
    "passengers":1,
    "airlines":1,
    "employee":1,
    "complaint":1,
    "ulcers":1,
    "size\u2019a":1,
    "shitheads":1,
    "pills":1,
    "alkaseltzer":1,
    "saturday":1,
    "greasehead":1,
    "losin\u2019":1,
    "realizing":1,
    "shangrila":1,
    "tried":1,
    "booked":1,
    "rest\u2019a":1,
    "rottin\u2019":1,
    "fourbysix":1,
    "witnesses":1,
    "related":1,
    "weird":1,
    "hunted":1,
    "object":1,
    "regularly":1,
    "none":1,
    "sense":1,
    "replaying":1,
    "granddaughters":1,
    "peeking":1,
    "coats":1,
    "caps":1,
    "faintly":1,
    "days":1,
    "awkwardly":1,
    "wary":1,
    "strangers":1,
    "nobody":1,
    "loaded":1,
    "suv":1,
    "smokes":1,
    "pensively":1,
    "carolers":1,
    "security":1,
    "cutbacks":1,
    "staff":1,
    "drivin\u2019":1,
    "mortgage":1,
    "feed":1,
    "month":1,
    "buck":1,
    "peace":1,
    "shitty":1,
    "happier":1,
    "playing":1,
    "sayin\u2019":1,
    "ball\u2019s\u2019d":1,
    "skipppin\u2019":1,
    "bust":1,
    "use\u2019ta":1,
    "outfield":1,
    "asshole":1,
    "kid\u2019s":1,
    "lou":1,
    "gehrig":1,
    "easily":1,
    "solid":1,
    "tear":1,
    "different":1,
    "tryout":1,
    "minor":1,
    "league":1,
    "club":1,
    "doovers":1,
    "silent":1,
    "1060":1,
    "newsradio":1,
    "anchor":1,
    "plummeting":1,
    "temperatures":1,
    "suggested":1,
    "middle":1,
    "weren\u2019t":1,
    "stupid":1,
    "care":1,
    "crossed":1,
    "weighed":1,
    "pounds":1,
    "promised":1,
    "kept":1,
    "promise":1,
    "alone":1,
    "hate":1,
    "hated":1,
    "750":1,
    "inquirer":1,
    "1995":1,
    "stunning":1,
    "\u2018the":1,
    "gravedigger\u2019":1,
    "acquitted":1,
    "hugging":1,
    "expartner":1,
    "apoplectic":1,
    "weirdly":1,
    "nostalgic":1,
    "dredging":1,
    "cleaner":1,
    "rogers":1,
    "pulled":1,
    "reverie":1,
    "priors":1,
    "enrolled":1,
    "courses":1,
    "latenightnoholiday":1,
    "hacking":1,
    "reclines":1,
    "copkilling":1,
    "rampage":1,
    "lemme":1,
    "troubled":1,
    "gently":1,
    "memorize":1,
    "features":1,
    "cafeteria":1,
    "sip":1,
    "papers":1,
    "contemplative":1,
    "\u2018no\u2019":1,
    "richie":1,
    "conners":1,
    "pullin\u2019":1,
    "types":1,
    "given":1,
    "boss":1,
    "recklessly":1,
    "boldly":1,
    "hurting":1,
    "ones":1,
    "loves":1,
    "blessed":1,
    "cursed":1,
    "equal":1,
    "measure":1,
    "parties":1,
    "thrown":1,
    "celebrate":1,
    "rejoice":1,
    "toast":1,
    "pat\u2019s":1,
    "explanation":1,
    "dilapidated":1,
    "graffitiplagued":1,
    "fifteenstory":1,
    "housing":1,
    "authority":1,
    "riffraff":1,
    "dope":1,
    "mangeridden":1,
    "amble":1,
    "pleading":1,
    "30":1,
    "cowers":1,
    "chain":1,
    "name\u2019s":1,
    "hahnemann":1,
    "preferably":1,
    "lags":1,
    "breathing":1,
    "labored":1,
    "avail":1,
    "nervously":1,
    "slightly":1,
    "ajar":1,
    "tiptoes":1,
    "911":1,
    "paces":1,
    "failed":1,
    "notify":1,
    "apprehended":1,
    "rulebook":1,
    "936":1,
    "colon":1,
    "pileup":1,
    "mud":1,
    "frunna":1,
    "commissioner":1,
    "investigations":1,
    "bet":1,
    "mo":1,
    "turnin\u2019":1,
    "you\u2019ve":1,
    "stranded":1,
    "brethren":1,
    "strikes":1,
    "tension":1,
    "1":1,
    "2350":1,
    "tremont":1,
    "towers":1,
    "i676":1,
    "tac":1,
    "assist":1,
    "uturns":1,
    "opposing":1,
    "squeal":1,
    "718":1,
    "terrell":1,
    "bang":1,
    "xbox":1,
    "controllers":1,
    "eviscerating":1,
    "posthumans":1,
    "firstperson":1,
    "shooter":1,
    "doorbell":1,
    "attitude":1,
    "controller":1,
    "named":1,
    "suck":1,
    "slap":1,
    "shithead":1,
    "slappin\u2019":1,
    "blocks":1,
    "terrell\u2019s":1,
    "hovering":1,
    "overhead":1,
    "probing":1,
    "covey":1,
    "pour":1,
    "surrounded":1,
    "puzzling":1,
    "detail":1,
    "shots":1,
    "dragon":1,
    "bulletproof":1,
    "vest":1,
    "vision":1,
    "goggles":1,
    "rowdy":1,
    "rubberneckers":1,
    "bay":1,
    "bypasses":1,
    "further":1,
    "guard":1,
    "medication":1,
    "medication\u2019s":1,
    "dangerous":1,
    "fugitives":1,
    "dear":1,
    "317":1,
    "kabar":1,
    "hell\u2019re":1,
    "chasin\u2019":1,
    "vet":1,
    "smirks":1,
    "flings":1,
    "march":1,
    "storm":1,
    "scour":1,
    "bedrooms":1,
    "showers":1,
    "barking":1,
    "spooked":1,
    "halfasleep":1,
    "evacuate":1,
    "order":1,
    "flip":1,
    "unknowingly":1,
    "candle":1,
    "ignites":1,
    "rug":1,
    "flames":1,
    "lick":1,
    "shines":1,
    "maglite":1,
    "electrical":1,
    "panel":1,
    "locates":1,
    "main":1,
    "circuit":1,
    "breaker":1,
    "evacuating":1,
    "getting":1,
    "bowling":1,
    "liberty":1,
    "arcade":1,
    "likes":1,
    "sw":1,
    "waist":1,
    "putting":1,
    "fools":1,
    "eric\u2019s":1,
    "plea":1,
    "sprint":1,
    "flights":1,
    "bounds":1,
    "trap":1,
    "muzzle":1,
    "brutal":1,
    "efficient":1,
    "onlookers":1,
    "\u2014boom":1,
    "explodes":1,
    "billows":1,
    "10th":1,
    "rages":1,
    "15th":1,
    "chainlocked":1,
    "swell":1,
    "frightened":1,
    "carrying":1,
    "treasured":1,
    "possessions":1,
    "hauls":1,
    "flatscreen":1,
    "exodus":1,
    "heads":1,
    "descend":1,
    "glares":1,
    "pushing":1,
    "current":1,
    "orange":1,
    "scream":1,
    "amid":1,
    "mayhem":1,
    "fleeing":1,
    "grabbing":1,
    "resident":1,
    "brushes":1,
    "ahab":1,
    "desperate":1,
    "filling":1,
    "handles":1,
    "scouring":1,
    "escape":1,
    "routes":1,
    "shittin\u2019":1,
    "gliding":1,
    "retreat":1,
    "railing":1,
    "gauging":1,
    "steels":1,
    "obscures":1,
    "landed":1,
    "jump":1,
    "tumbling":1,
    "veil":1,
    "eddying":1,
    "versus":1,
    "gulping":1,
    "silhouettes":1,
    "stumble":1,
    "abandoned":1,
    "naked":1,
    "pipes":1,
    "wires":1,
    "clambers":1,
    "\u2018down\u2019":1,
    "emergency":1,
    "giving":1,
    "rare":1,
    "sock":1,
    "blueblack":1,
    "badly":1,
    "swollen":1,
    "bumping":1,
    "scraping":1,
    "smashing":1,
    "falling":1,
    "bumper":1,
    "mirrors":1,
    "hubcaps":1,
    "sonofa":1,
    "audi\u2019s":1,
    "thwoot":1,
    "shredding":1,
    "shimmies":1,
    "where\u2019re":1,
    "unraveling":1,
    "burnt":1,
    "roar":1,
    "notes":1,
    "tightens":1,
    "whoosh":1,
    "\u2014and":1,
    "dives":1,
    "fishtails":1,
    "squealing":1,
    "\u2014errrrr":1,
    "column":1,
    "hisses":1,
    "liquids":1,
    "leak":1,
    "reduced":1,
    "metallic":1,
    "scribble":1,
    "crookedly":1,
    "bloodcoated":1,
    "harder":1,
    "trigger":1,
    "pentup":1,
    "sending":1,
    "permanent":1,
    "caught":1,
    "action":1,
    "recognizes":1,
    "panics":1,
    "settle":1,
    "nuthin\u2019":1,
    "writhing":1,
    "snitch":1,
    "stale":1,
    "recalling":1,
    "rubs":1,
    "rebroadcast":1,
    "bucks":1,
    "sixers":1,
    "playoffs":1,
    "fallen":1,
    "remembers":1,
    "proof":1,
    "yourselves":1,
    "believes":1,
    "callin":1,
    "you\u2019d\u2019a":1,
    "helluva":1,
    "answer":1,
    "145":1,
    "shift\u2019s":1,
    "colleagues":1,
    "helpful":1,
    "punches":1,
    "squadroom":1,
    "immediately":1,
    "nudges":1,
    "student":1,
    "overslept":1,
    "exam":1,
    "clears":1,
    "yawns":1,
    "rose\u2019s":1,
    "wedding":1,
    "drunken":1,
    "groomsman":1,
    "restaurant":1,
    "others\u2019":1,
    "baseball":1,
    "9":1,
    "idolized":1,
    "gazing":1,
    "reflectively":1,
    "walls":1,
    "perhaps":1,
    "robbie":1,
    "headin\u2019":1,
    "timmy":1,
    "obediently":1,
    "godfuckin\u2019":1,
    "awful":1,
    "part":1,
    "reflects":1,
    "adrenaline":1,
    "ebbing":1,
    "forever":1,
    "rocks":1,
    "gone":1,
    "corridor":1,
    "nurses":1,
    "milling":1,
    "patient":1,
    "rooms":1,
    "noticing":1,
    "\u2018getwell\u2019":1,
    "flowers":1,
    "surrounding":1,
    "patients":1,
    "emptyhanded":1,
    "poinsettia":1,
    "checkin":1,
    "tucking":1,
    "stopping":1,
    "70s":1,
    "thin":1,
    "frail":1,
    "iv":1,
    "bruises":1,
    "squints":1,
    "broughtcha":1,
    "windowsill":1,
    "feelin\u2019":1,
    "fell":1,
    "ears":1,
    "peeling":1,
    "fixes":1,
    "searches":1,
    "patient\u2019s":1,
    "needs":1,
    "visiting":1,
    "\u2018specially":1,
    "throwin\u2019":1,
    "salt":1,
    "chrissakes":1,
    "priests":1,
    "fun":1,
    "elephants":1,
    "giraffes":1,
    "zebras":1,
    "dementia":1,
    "riding":1,
    "wonderful":1,
    "afterward":1,
    "fireworks":1,
    "aunt":1,
    "joan":1,
    "peggy":1,
    "hastings":1,
    "imaginary":1,
    "disappointed":1,
    "supposed":1,
    "platforms":1,
    "hookers":1,
    "counting":1,
    "night\u2019s":1,
    "twists":1,
    "boot":1,
    "raising":1,
    "callin\u2019":1,
    "bound":1,
    "loyalty":1,
    "jogs":1,
    "eerily":1,
    "alert":1,
    "darting":1,
    "slightest":1,
    "blink":1,
    "animated":1,
    "bartop":1,
    "repeating":1,
    "hohoho":1,
    "refrain":1,
    "fear":1,
    "uncertainty":1,
    "imperceptible":1,
    "turning":1,
    "fatal":1,
    "mistake":1,
    "misses":1,
    "chance":1,
    "fumbling":1,
    "clear":1,
    "pauses":1,
    "regard":1,
    "blame":1,
    "would\u2019ve":1,
    "han":1,
    "pistol\u2019s":1,
    "echoes":1,
    "react":1,
    "seep":1,
    "blotch":1,
    "crumples":1,
    "pavement":1,
    "shallow":1,
    "darkness":1,
    "narrow":1,
    "interview":1,
    "yard":1,
    "germantown":1,
    "match":1,
    "validation":1,
    "thinkin\u2019":1,
    "dealt":1,
    "shittier":1,
    "man\u2019ll":1,
    "court":1,
    "convicted":1,
    "fountain":1,
    "dips":1,
    "effort":1,
    "angela":1,
    "showed":1,
    "ya\u2019":1,
    "sec":1,
    "guy\u2019s":1,
    "claimin\u2019":1,
    "neighborhood":1,
    "northeast":1,
    "sipping":1,
    "corner":1,
    "digital":1,
    "reaching":1,
    "sheet":1,
    "paper":1,
    "worn":1,
    "age":1,
    "settles":1,
    "ray":1,
    "davies":1,
    "smalltime":1,
    "deposit":1,
    "slots":1,
    "score":1,
    "newark":1,
    "series":1,
    "cuts":1,
    "dawn":1,
    "confessions":1,
    "needed":1,
    "display":1,
    "tracking":1,
    "lighting":1,
    "crushing":1,
    "mugs":1,
    "refilled":1,
    "crossing":1,
    "strip":1,
    "mall":1,
    "nature":1,
    "preserve":1,
    "miles\u2019a":1,
    "forest":1,
    "dumped":1,
    "awhile":1,
    "shaking":1,
    "seizure":1,
    "murder":1,
    "thirtyfive":1,
    "graduated":1,
    "academy":1,
    "redhead":1,
    "olney":1,
    "information":1,
    "bright":1,
    "sun":1,
    "reclaim":1,
    "ashtray":1,
    "brims":1,
    "packets":1,
    "litter":1,
    "tabletop":1,
    "ordered":1,
    "correct":1,
    "patrick":1,
    "reasons":1,
    "state":1,
    "forgot":1,
    "started":1,
    "matthew":1,
    "december":1,
    "22":1,
    "2011":1,
    "611":1,
    "stretches":1,
    "adjusting":1,
    "grandkids":1,
    "sara":1,
    "warming":1,
    "mug":1,
    "tea":1,
    "worried":1,
    "slept":1,
    "windy":1,
    "buffets":1,
    "rattle":1,
    "gravel":1,
    "rushes":1,
    "entering":1,
    "slackens":1,
    "cry":1,
    "grudgingly":1,
    "warily":1,
    "uninvited":1,
    "coyly":1,
    "buries":1,
    "shy":1,
    "arentcha":1,
    "jr":1,
    "teach":1,
    "realization":1,
    "cannot":1,
    "atoned":1,
    "thirsty":1,
    "catelyn\u2019s":1,
    "birth":1,
    "lily\u2019s":1,
    "birthdays":1,
    "costumes":1,
    "rides":1,
    "lifetime":1,
    "breaks":1,
    "pieces":1,
    "quakes":1,
    "echo":1,
    "gunshots":1,
    "upward":1,
    "coolly":1,
    "wooded":1,
    "lake":1,
    "fulfill":1,
    "charge":1,
    "bloody":1,
    "leaving":1,
    "streak":1,
    "grunting":1,
    "unbearable":1,
    "classic":1,
    "descent":1,
    "308":1,
    "winchester":1,
    "cartridges":1,
    "staggers":1,
    "steadies":1,
    "focus":1,
    "dazed":1,
    "narrows":1,
    "kingfisher":1,
    "birds":1,
    "eruption":1,
    "falters":1,
    "prodigious":1,
    "pine":1,
    "gaping":1,
    "exposed":1,
    "tendons":1,
    "bone":1,
    "flaccid":1,
    "noodle":1,
    "undaunted":1,
    "scurry":1,
    "steep":1,
    "levels":1,
    "tumbles":1,
    "headlong":1,
    "rockribbed":1,
    "slab":1,
    "rock":1,
    "source":1,
    "crest":1,
    "barely":1,
    "audible":1,
    "gust":1,
    "tousles":1,
    "howls":1,
    "screams":1,
    "frost":1,
    "blankets":1,
    "entryway":1,
    "plugs":1,
    "bats":1,
    "shivers":1,
    "pot":1,
    "littered":1,
    "textbooks":1,
    "law":1,
    "accounting":1,
    "finance":1,
    "session":1,
    "texts":1,
    "melange":1,
    "emotions":1,
    "anger":1,
    "regret":1,
    "absence":1,
    "cartoons":1,
    "\u2018blankee\u2019":1,
    "folds":1,
    "squarepants":1,
    "pancakes":1,
    "weather":1,
    "sore":1,
    "throat":1,
    "hurts":1,
    "gave":1,
    "robitussin":1,
    "yuk":1,
    "studying":1,
    "credits":1,
    "tests":1,
    "pancake":1,
    "mix":1,
    "adds":1,
    "goofy":1,
    "wanting":1,
    "sips":1,
    "families":1,
    "grounded":2,
    "wheel":2,
    "dangling":2,
    "lips":2,
    "towel":2,
    "deville":2,
    "suits":2,
    "handsome":2,
    "anywhere":2,
    "knock":2,
    "helps":2,
    "cruises":2,
    "stubs":2,
    "gloves":2,
    "glove":2,
    "compartment":2,
    "virgin":2,
    "phillies":2,
    "tub":2,
    "bones":2,
    "racing":2,
    "rip":2,
    "joke":2,
    "haven\u2019t":2,
    "beard":2,
    "stung":2,
    "booze":2,
    "holidays":2,
    "sings":2,
    "jolly":2,
    "pool":2,
    "shoot":2,
    "bar":2,
    "base":2,
    "crew":2,
    "bulky":2,
    "try":2,
    "bottle":2,
    "full":2,
    "butts":2,
    "27":2,
    "detectives":2,
    "waits":2,
    "finishes":2,
    "boyfriend":2,
    "beats":2,
    "client":2,
    "nine":2,
    "fellas":2,
    "noticed":2,
    "cocaine":2,
    "mornin\u2019":2,
    "furnace":2,
    "blew":2,
    "smirk":2,
    "curling":2,
    "points":2,
    "hanging":2,
    "freeze":2,
    "dick":2,
    "20s":2,
    "uniform":2,
    "placards":2,
    "tony":2,
    "60s":2,
    "weekend":2,
    "stopped":2,
    "dogs":2,
    "anybody":2,
    "fans":2,
    "should":2,
    "evening":2,
    "mouths":2,
    "sports":2,
    "stealing":2,
    "blackberry":2,
    "alongside":2,
    "pen":2,
    "caller":2,
    "becomes":2,
    "prominent":2,
    "luxury":2,
    "highrise":2,
    "rittenhouse":2,
    "tip":2,
    "luck":2,
    "wheels":2,
    "lobby":2,
    "50":2,
    "shouldn\u2019t":2,
    "stevan":2,
    "bodyguard":2,
    "40":2,
    "stacks":2,
    "percent":2,
    "allow":2,
    "safely":2,
    "jacket":2,
    "associates":2,
    "week":2,
    "feds":2,
    "sex":2,
    "mostly":2,
    "games":2,
    "shop":2,
    "bank":2,
    "ways":2,
    "worse":2,
    "meeting":2,
    "threat":2,
    "probably":2,
    "many":2,
    "tomorrow":2,
    "support":2,
    "ends":2,
    "storms":2,
    "what\u2019d":2,
    "listen":2,
    "our":2,
    "pull":2,
    "brought":2,
    "saint":2,
    "shatters":2,
    "flinch":2,
    "waitin\u2019":2,
    "single":2,
    "richmond":2,
    "knit":2,
    "cap":2,
    "signed":2,
    "pregnant":2,
    "dollars":2,
    "kiss":2,
    "tickle":2,
    "crazy":2,
    "lap":2,
    "knee":2,
    "amused":2,
    "guest":2,
    "whispers":2,
    "uncomfortable":2,
    "slug":2,
    "gift":2,
    "pitches":2,
    "unsure":2,
    "manage":2,
    "sadness":2,
    "shove":2,
    "bath":2,
    "fighting":2,
    "master":2,
    "cutting":2,
    "collage":2,
    "pov":2,
    "high":2,
    "halloween":2,
    "photo":2,
    "dontcha":2,
    "dad\u2019s":2,
    "knocked":2,
    "chuckles":2,
    "she\u2019ll":2,
    "able":2,
    "conceding":2,
    "\u2018member":2,
    "gotten":2,
    "deserved":2,
    "believed":2,
    "demons":2,
    "fathers":2,
    "believing":2,
    "bridge":2,
    "worker":2,
    "bars":2,
    "prowl":2,
    "shouting":2,
    "cheap":2,
    "avenue":2,
    "sirens":2,
    "pm":2,
    "tip\u2019s":2,
    "controlled":2,
    "brand":2,
    "igoudala":2,
    "crosscourt":2,
    "backseat":2,
    "bandaged":2,
    "john":2,
    "partner":2,
    "killing":2,
    "loud":2,
    "meetcha":2,
    "ignores":2,
    "ginzo":2,
    "craps":2,
    "maguire\u2019s":2,
    "payroll":2,
    "history":2,
    "nineteen":2,
    "friday":2,
    "woods":2,
    "ernest":2,
    "hayes":2,
    "ted":2,
    "grady":2,
    "glenn":2,
    "cavetto":2,
    "stream":2,
    "balls":2,
    "change":2,
    "whoa":2,
    "chief":2,
    "catch":2,
    "reading":2,
    "banks":2,
    "circles":2,
    "returns":2,
    "backpack":2,
    "shoulders":2,
    "buddy":2,
    "interior":2,
    "block":2,
    "whadda":2,
    "rubber":2,
    "sofucking":2,
    "directly":2,
    "armchair":2,
    "buy":2,
    "somuch":2,
    "lift":2,
    "crouches":2,
    "process":2,
    "knuckles":2,
    "lowers":2,
    "slumped":2,
    "slams":2,
    "airborne":2,
    "crashes":2,
    "hops":2,
    "emerges":2,
    "footfalls":2,
    "nothing":2,
    "peering":2,
    "hiding":2,
    "eat":2,
    "askance":2,
    "shoe":2,
    "clips":2,
    "pockets":2,
    "trust":2,
    "tilts":2,
    "brother\u2019s":2,
    "exhausted":2,
    "dressup":2,
    "department":2,
    "district":2,
    "squad":2,
    "mode":2,
    "wine":2,
    "poured":2,
    "story":2,
    "brawny":2,
    "gentlemen":2,
    "having":2,
    "women":2,
    "vibrates":2,
    "calling\u2019":2,
    "whaddaya":2,
    "stays":2,
    "exact":2,
    "seats":2,
    "reverse":2,
    "cabinet":2,
    "drinks":2,
    "startles":2,
    "charily":2,
    "yet":2,
    "lets":2,
    "silence":2,
    "marching":2,
    "orders":2,
    "corvette":2,
    "dashboard":2,
    "id":2,
    "parked":2,
    "clip":2,
    "chances":2,
    "gettin\u2019":2,
    "quietly":2,
    "final":2,
    "expert":2,
    "mine":2,
    "part\u2019a":2,
    "lucky":2,
    "absorbs":2,
    "goodbye":2,
    "reflection":2,
    "suddenly":2,
    "smart":2,
    "rises":2,
    "child":2,
    "important":2,
    "advice":2,
    "sobbing":2,
    "sshh":2,
    "eastbound":2,
    "104":2,
    "linoleum":2,
    "driver":2,
    "reservation":2,
    "excuse":2,
    "glock":2,
    "feel":2,
    "escort":2,
    "unit":2,
    "neighbor":2,
    "shouts":2,
    "pay":2,
    "neighboring":2,
    "lane":2,
    "sparks":2,
    "fly":2,
    "fights":2,
    "interstate":2,
    "aims":2,
    "freight":2,
    "possible":2,
    "sky":2,
    "rest":2,
    "horrible":2,
    "bursts":2,
    "near":2,
    "worst":2,
    "nance\u2019s":2,
    "belt":2,
    "clutches":2,
    "concourse":2,
    "burst":2,
    "stepping":2,
    "decides":2,
    "ribs":2,
    "kicking":2,
    "pain":2,
    "grimaces":2,
    "prick":2,
    "backwards":2,
    "pulling":2,
    "stalls":2,
    "strength":2,
    "sinks":2,
    "joins":2,
    "contact":2,
    "jabs":2,
    "winter":2,
    "676":2,
    "miles":2,
    "horns":2,
    "job":2,
    "yards":2,
    "road":2,
    "\u2018head":2,
    "ran":2,
    "dispatcher":2,
    "surprised":2,
    "might":2,
    "whale":2,
    "coulda":2,
    "soon":2,
    "ticket":2,
    "riders":2,
    "t\u2019fuck":2,
    "dozen":2,
    "pounding":2,
    "sarah\u2019s":2,
    "closets":2,
    "et":2,
    "al":2,
    "kids":2,
    "coworkers":2,
    "without":2,
    "vics":2,
    "various":2,
    "watched":2,
    "hunting":2,
    "kneels":2,
    "suffer":2,
    "kinna":2,
    "finish":2,
    "surging":2,
    "forth":2,
    "limply":2,
    "catches":2,
    "nose":2,
    "fiveseven":2,
    "hon":2,
    "food":2,
    "bowl":2,
    "sake":2,
    "trudges":2,
    "gathers":2,
    "towels":2,
    "bandages":2,
    "suspects":2,
    "whirls":2,
    "chase":2,
    "presence":2,
    "registers":2,
    "skin":2,
    "washes":2,
    "wound":2,
    "cottman":2,
    "cigarettes":2,
    "wasn\u2019t":2,
    "rising":2,
    "it\u2019ll":2,
    "ice":2,
    "jefferson":2,
    "hair":2,
    "pickup":2,
    "long\u2019s":2,
    "silver":2,
    "fresh":2,
    "give":2,
    "died":2,
    "hugs":2,
    "trained":2,
    "happen":2,
    "honest":2,
    "assessment":2,
    "though":2,
    "couldn\u2019t":2,
    "player":2,
    "she\u2019d":2,
    "sick":2,
    "verdict":2,
    "cu":2,
    "courtroom":2,
    "guilty":2,
    "scanning":2,
    "memories":2,
    "son\u2019s":2,
    "log":2,
    "pocket":2,
    "jobs":2,
    "enemies":2,
    "they\u2019ll":2,
    "wonder":2,
    "curiously":2,
    "teenage":2,
    "6th":2,
    "minute":2,
    "handcuffed":2,
    "nerve":2,
    "positive":2,
    "code":2,
    "marcus":2,
    "horde":2,
    "prolly":2,
    "spotlight":2,
    "rush":2,
    "appraises":2,
    "miss":2,
    "didja":2,
    "mattress":2,
    "tucked":2,
    "panic":2,
    "flashes":2,
    "reach":2,
    "landing":2,
    "keeping":2,
    "dense":2,
    "view":2,
    "firing":2,
    "careful":2,
    "balcony":2,
    "ankle":2,
    "elevator":2,
    "button":2,
    "rowland":2,
    "fading":2,
    "loads":2,
    "magazine":2,
    "walks":2,
    "bandage":2,
    "dull":2,
    "vivaldi":2,
    "laughing":2,
    "awake":2,
    "center":2,
    "truth":2,
    "transfer":2,
    "frames":2,
    "waste":2,
    "such":2,
    "leaps":2,
    "smaller":2,
    "plant":2,
    "snatches":2,
    "scans":2,
    "doing":2,
    "blanket":2,
    "movement":2,
    "must":2,
    "crimson":2,
    "breaths":2,
    "crosses":2,
    "brave":2,
    "someplace":2,
    "stockton\u2019s":2,
    "record":2,
    "etc":2,
    "laid":2,
    "tire":2,
    "iron":2,
    "grandfather":2,
    "glad":2,
    "hold":2,
    "kimber":2,
    "quieter":2,
    "spongebob":2,
    "chocolate":2,
    "low":3,
    "choice":3,
    "listens":3,
    "red":3,
    "cadillac":3,
    "mullen":3,
    "tough":3,
    "you\u2019d":3,
    "set":3,
    "cheek":3,
    "duplex":3,
    "couple":3,
    "man\u2019s":3,
    "sw1911":3,
    "strides":3,
    "backyard":3,
    "plays":3,
    "television":3,
    "die":3,
    "instead":3,
    "hole":3,
    "maniacally":3,
    "fishtown":3,
    "nightmare":3,
    "box":3,
    "drag":3,
    "worked":3,
    "darts":3,
    "among":3,
    "group":3,
    "roughnecks":3,
    "oughta":3,
    "case":3,
    "realizes":3,
    "sweatshirt":3,
    "40s":3,
    "terry":3,
    "telling":3,
    "drawer":3,
    "hot":3,
    "busy":3,
    "hasn\u2019t":3,
    "baggy":3,
    "knocks":3,
    "myself":3,
    "whaddayou":3,
    "loan":3,
    "roll":3,
    "matters":3,
    "uh":3,
    "means":3,
    "offers":3,
    "actually":3,
    "girl":3,
    "excitedly":3,
    "jumps":3,
    "drivers":3,
    "holding":3,
    "reads":3,
    "tone":3,
    "cause":3,
    "exactly":3,
    "sign":3,
    "asked":3,
    "farina":3,
    "wake":3,
    "jersey":3,
    "screen":3,
    "overcoat":3,
    "pictures":3,
    "luggage":3,
    "drives":3,
    "rearview":3,
    "shift":3,
    "bum":3,
    "lotta":3,
    "bit":3,
    "party":3,
    "underway":3,
    "grew":3,
    "guests":3,
    "nearby":3,
    "either":3,
    "million":3,
    "briefcase":3,
    "port":3,
    "world":3,
    "half":3,
    "butcher":3,
    "bring":3,
    "d\u2019you":3,
    "understand":3,
    "space":3,
    "gang":3,
    "tosses":3,
    "vodka":3,
    "talkin\u2019":3,
    "he\u2019d":3,
    "burning":3,
    "study":3,
    "mad":3,
    "livin\u2019":3,
    "scotch":3,
    "shoots":3,
    "pours":3,
    "whiskey":3,
    "hang":3,
    "guys":3,
    "earlier":3,
    "wraps":3,
    "vince":3,
    "join":3,
    "copying":3,
    "sister":3,
    "copy":3,
    "kirsten":3,
    "isn\u2019t":3,
    "male":3,
    "whose":3,
    "fire":3,
    "knees":3,
    "clutching":3,
    "off\u2019a":3,
    "asleep":3,
    "photos":3,
    "workin\u2019":3,
    "covers":3,
    "won\u2019t":3,
    "boom":3,
    "jumped":3,
    "done":3,
    "somethin\u2019":3,
    "cross":3,
    "wide":3,
    "seen":3,
    "30th":3,
    "spill":3,
    "76ers":3,
    "patrol":3,
    "clock":3,
    "mayfair":3,
    "bullshit":3,
    "guy":3,
    "tables":3,
    "free":3,
    "ruined":3,
    "how\u2019d":3,
    "ear":3,
    "decision":3,
    "seems":3,
    "pats":3,
    "grip":3,
    "siddown":3,
    "plane":3,
    "news":3,
    "aint":3,
    "works":3,
    "a\u2019posed":3,
    "sidewalk":3,
    "dial":3,
    "damn":3,
    "couch":3,
    "bag":3,
    "funny":3,
    "happens":3,
    "driver\u2019s":3,
    "presses":3,
    "temple":3,
    "freezes":3,
    "breathe":3,
    "arrive":3,
    "edge":3,
    "races":3,
    "past":3,
    "flies":3,
    "stabs":3,
    "wallet":3,
    "thomas":3,
    "hours":3,
    "chips":3,
    "pushes":3,
    "revealing":3,
    "packed":3,
    "uncle":3,
    "cut":3,
    "these":3,
    "witness":3,
    "calling":3,
    "vacant":3,
    "sweetheart":3,
    "2nd":3,
    "cup":3,
    "tells":3,
    "short":3,
    "intercut":3,
    "waves":3,
    "driveway":3,
    "portable":3,
    "dials":3,
    "locks":3,
    "awkward":3,
    "staring":3,
    "anyway":3,
    "mom\u2019s":3,
    "funeral":3,
    "fingers":3,
    "knowing":3,
    "calmly":3,
    "picks":3,
    "apart":3,
    "units":3,
    "teeth":3,
    "suspect":3,
    "jeans":3,
    "havin\u2019":3,
    "exchange":3,
    "hits":3,
    "barrier":3,
    "slamming":3,
    "death":3,
    "concrete":3,
    "cars":3,
    "roof":3,
    "key":3,
    "gut":3,
    "reins":3,
    "stalks":3,
    "stumbles":3,
    "drags":3,
    "offer":3,
    "brown":3,
    "platform":3,
    "tunnel":3,
    "circus":3,
    "james":3,
    "heading":3,
    "quick":3,
    "tellin\u2019":3,
    "love":3,
    "took":3,
    "hideous":3,
    "eddie\u2019s":3,
    "faded":3,
    "sonofabitch":3,
    "horse":3,
    "flight":3,
    "finished":3,
    "turned":3,
    "six":3,
    "cups":3,
    "sugar":3,
    "homidcide":3,
    "article":3,
    "warm":3,
    "eric":3,
    "rings":3,
    "relief":3,
    "helicopter":3,
    "trunk":3,
    "sir":3,
    "motion":3,
    "closer":3,
    "fall":3,
    "observes":3,
    "price\u2019s":3,
    "killer":3,
    "tires":3,
    "stirs":3,
    "margaret":3,
    "ma":3,
    "clicks":3,
    "newspaper":3,
    "here\u2019s":4,
    "early":4,
    "brakes":4,
    "parking":4,
    "distance":4,
    "rolls":4,
    "new":4,
    "elderly":4,
    "leather":4,
    "45":4,
    "homes":4,
    "running":4,
    "direction":4,
    "river":4,
    "chest":4,
    "water":4,
    "big":4,
    "booth":4,
    "thanks":4,
    "merry":4,
    "mirror":4,
    "talked":4,
    "keeps":4,
    "hundred":4,
    "airport":4,
    "large":4,
    "gifts":4,
    "today":4,
    "he\u2019ll":4,
    "daughters":4,
    "picture":4,
    "report":4,
    "bother":4,
    "inches":4,
    "fine":4,
    "notice":4,
    "point":4,
    "limousine":4,
    "passenger":4,
    "where\u2019s":4,
    "appreciate":4,
    "entrance":4,
    "establishing":4,
    "windows":4,
    "hope":4,
    "believe":4,
    "simple":4,
    "after":4,
    "twenty":4,
    "members":4,
    "sixteen":4,
    "made":4,
    "anymore":4,
    "father\u2019s":4,
    "confused":4,
    "walk":4,
    "church":4,
    "drink":4,
    "passes":4,
    "glass":4,
    "snow":4,
    "shirt":4,
    "mommy":4,
    "dinner":4,
    "pick":4,
    "extra":4,
    "school":4,
    "drunk":4,
    "sweetie":4,
    "skinny":4,
    "holds":4,
    "motions":4,
    "one\u2019a":4,
    "hurt":4,
    "breath":4,
    "climbs":4,
    "show":4,
    "five":4,
    "remember":4,
    "smoking":4,
    "coughlin":4,
    "keep":4,
    "fade":4,
    "following":4,
    "diner":4,
    "homicide":4,
    "tornetta":4,
    "thought":4,
    "list":4,
    "exhales":4,
    "foot":4,
    "easy":4,
    "whatever":4,
    "bike":4,
    "live":4,
    "finds":4,
    "check":4,
    "music":4,
    "reveal":4,
    "level":4,
    "9mm":4,
    "keys":4,
    "knob":4,
    "mind":4,
    "drops":4,
    "nowhere":4,
    "kenan\u2019s":4,
    "voices":4,
    "frame":4,
    "spread":4,
    "cell":4,
    "frankford":4,
    "aside":4,
    "drew\u2019s":4,
    "hurry":4,
    "picked":4,
    "yes":4,
    "reluctantly":4,
    "wind":4,
    "daley\u2019s":4,
    "east":4,
    "parka":4,
    "matter":4,
    "reason":4,
    "ridda":4,
    "talking":4,
    "honey":4,
    "considers":4,
    "shooting":4,
    "respond":4,
    "157":4,
    "century":4,
    "officer":4,
    "300":4,
    "ramp":4,
    "frank\u2019s":4,
    "precinct":4,
    "median":4,
    "motherfucker":4,
    "climb":4,
    "spins":4,
    "hitting":4,
    "stomach":4,
    "crowd":4,
    "crown":4,
    "dodge":4,
    "lookin\u2019":4,
    "tears":4,
    "continues":4,
    "hafta":4,
    "achieva":4,
    "decent":4,
    "third":4,
    "watch":4,
    "stories":4,
    "apartments":4,
    "7th":4,
    "spots":4,
    "residents":4,
    "kill":4,
    "locked":4,
    "rooftop":4,
    "warehouse":4,
    "dissolve":4,
    "recorder":4,
    "slope":4,
    "rifle":4,
    "ball":5,
    "approaches":5,
    "follow":5,
    "parents":5,
    "woman":5,
    "tucks":5,
    "continuous":5,
    "abruptly":5,
    "walking":5,
    "bedroom":5,
    "knows":5,
    "fucking":5,
    "billy":5,
    "collapses":5,
    "feels":5,
    "philadelphia":5,
    "play":5,
    "would":5,
    "yourself":5,
    "rear":5,
    "pussy":5,
    "months":5,
    "bein\u2019":5,
    "\u2018bout":5,
    "santa":5,
    "fat":5,
    "suit":5,
    "day":5,
    "footballs":5,
    "went":5,
    "wouldn\u2019t":5,
    "ride":5,
    "you\u2019ll":5,
    "pass":5,
    "small":5,
    "best":5,
    "year":5,
    "ago":5,
    "streets":5,
    "tree":5,
    "real":5,
    "shut":5,
    "mouth":5,
    "problem":5,
    "basement":5,
    "rage":5,
    "mom":5,
    "guess":5,
    "doorway":5,
    "hood":5,
    "puts":5,
    "we\u2019ll":5,
    "sudden":5,
    "comin\u2019":5,
    "neck":5,
    "always":5,
    "murders":5,
    "found":5,
    "lost":5,
    "already":5,
    "pal":5,
    "nurse":5,
    "yo":5,
    "calls":5,
    "flash":5,
    "flee":5,
    "above":5,
    "hello":5,
    "sink":5,
    "wrong":5,
    "goddamnit":5,
    "2620":5,
    "somerset":5,
    "dispatch":5,
    "stops":5,
    "uhh":5,
    "favor":5,
    "whole":5,
    "vine":5,
    "chrysler":5,
    "its":5,
    "air":5,
    "gun":5,
    "accident":5,
    "pistols":5,
    "scene":5,
    "ten":5,
    "train":5,
    "knocking":5,
    "nears":5,
    "charger":5,
    "drew":5,
    "dark":5,
    "glasses":5,
    "counter":5,
    "words":5,
    "oldsmobile":5,
    "fifteen":5,
    "harding\u2019s":5,
    "thirty":5,
    "daddy":5,
    "walkin\u2019":5,
    "knew":6,
    "ahead":6,
    "toward":6,
    "men":6,
    "shakes":6,
    "enter":6,
    "black":6,
    "alley":6,
    "game":6,
    "gets":6,
    "please":6,
    "i\u2019ve":6,
    "begins":6,
    "abbey":6,
    "since":6,
    "place":6,
    "sleep":6,
    "three":6,
    "cash":6,
    "wish":6,
    "tonight":6,
    "tryin\u2019":6,
    "deal":6,
    "onto":6,
    "line":6,
    "goin\u2019":6,
    "anyone":6,
    "eight":6,
    "number":6,
    "closet":6,
    "watching":6,
    "bad":6,
    "tv":6,
    "escalator":6,
    "stare":6,
    "holiday":6,
    "living":6,
    "closes":6,
    "children":6,
    "making":6,
    "stares":6,
    "until":6,
    "am":6,
    "kicks":6,
    "downstairs":6,
    "laughs":6,
    "bathroom":6,
    "own":6,
    "moments":6,
    "wait":6,
    "boys":6,
    "once":6,
    "subway":6,
    "station":6,
    "used":6,
    "nice":6,
    "bodies":6,
    "need":6,
    "pretty":6,
    "taking":6,
    "switches":6,
    "listening":6,
    "eye":6,
    "waiting":6,
    "leg":6,
    "others":6,
    "hears":6,
    "stay":6,
    "thinking":6,
    "drive":6,
    "exits":6,
    "end":6,
    "dies":6,
    "killed":6,
    "hard":6,
    "traffic":6,
    "ducks":6,
    "called":6,
    "happy":6,
    "doors":6,
    "missed":6,
    "faces":6,
    "lot":6,
    "thank":6,
    "cabin":6,
    "hospital":6,
    "hi":6,
    "step":7,
    "dressed":7,
    "answers":7,
    "work":7,
    "slides":7,
    "exit":7,
    "stairs":7,
    "sound":7,
    "louder":7,
    "scared":7,
    "bullets":7,
    "start":7,
    "better":7,
    "late":7,
    "nance":7,
    "both":7,
    "gotta":7,
    "wants":7,
    "they\u2019re":7,
    "comes":7,
    "everything":7,
    "far":7,
    "came":7,
    "said":7,
    "there\u2019s":7,
    "than":7,
    "huh":7,
    "heard":7,
    "piece":7,
    "race":7,
    "goddamn":7,
    "cold":7,
    "lives":7,
    "along":7,
    "fast":7,
    "which":7,
    "detective":7,
    "appears":7,
    "ready":7,
    "help":7,
    "kid":7,
    "trying":7,
    "engine":7,
    "body":7,
    "shoulder":7,
    "slowly":7,
    "things":7,
    "handcuffs":7,
    "expressway":7,
    "pop":7,
    "run":7,
    "ground":7,
    "something":7,
    "cop":7,
    "bus":7,
    "below":7,
    "30s":8,
    "follows":8,
    "shuts":8,
    "shower":8,
    "wall":8,
    "laugh":8,
    "pub":8,
    "yunno":8,
    "white":8,
    "says":8,
    "together":8,
    "idea":8,
    "maybe":8,
    "us":8,
    "people":8,
    "much":8,
    "enough":8,
    "towards":8,
    "seat":8,
    "quickly":8,
    "goran":8,
    "side":8,
    "i\u2019d":8,
    "money":8,
    "left":8,
    "each":8,
    "will":8,
    "leave":8,
    "ever":8,
    "who\u2019s":8,
    "stop":8,
    "rose":8,
    "next":8,
    "mother":8,
    "tries":8,
    "forward":8,
    "tired":8,
    "light":8,
    "bed":8,
    "what\u2019re":8,
    "brother":8,
    "second":8,
    "almost":8,
    "runs":8,
    "knife":8,
    "tight":8,
    "empty":8,
    "feeling":8,
    "leans":9,
    "between":9,
    "only":9,
    "being":9,
    "hey":9,
    "hallway":9,
    "minutes":9,
    "pulls":9,
    "friends":9,
    "gimme":9,
    "looking":9,
    "mr":9,
    "arrives":9,
    "every":9,
    "hangs":9,
    "business":9,
    "friend":9,
    "building":9,
    "let\u2019s":9,
    "leaves":9,
    "happened":9,
    "call":9,
    "quiet":9,
    "meet":9,
    "mean":9,
    "god":9,
    "makes":9,
    "anything":9,
    "captain":9,
    "hell":9,
    "buick":9,
    "radio":10,
    "coat":10,
    "enters":10,
    "later":10,
    "alright":10,
    "put":10,
    "want":10,
    "why":10,
    "those":10,
    "\u2018em":10,
    "else":10,
    "limo":10,
    "has":10,
    "while":10,
    "chair":10,
    "feet":10,
    "":10,
    "falls":10,
    "someone":10,
    "names":10,
    "coming":10,
    "colin\u2019s":10,
    "notices":10,
    "hmm":10,
    "arm":10,
    "daley":10,
    "audi":10,
    "coffee":10,
    "removes":11,
    "starts":11,
    "again":11,
    "let":11,
    "grabs":11,
    "sayers":11,
    "ass":11,
    "cops":11,
    "christmas":11,
    "dad":11,
    "vick":11,
    "talk":11,
    "row":11,
    "could":11,
    "standing":11,
    "shot":11,
    "himself":11,
    "legs":11,
    "mmm":11,
    "lifts":11,
    "everyone":11,
    "stairwell":11,
    "morning":11,
    "does":12,
    "we\u2019re":12,
    "smiles":12,
    "watches":12,
    "steps":12,
    "jesus":12,
    "really":12,
    "raises":12,
    "sitting":12,
    "stand":12,
    "under":12,
    "ask":12,
    "doin\u2019":12,
    "sit":12,
    "sure":12,
    "thing":12,
    "city":12,
    "close":12,
    "move":12,
    "even":12,
    "brendan":12,
    "going":12,
    "smoke":12,
    "cigarette":13,
    "goes":13,
    "christ":13,
    "moves":13,
    "fires":13,
    "outta":13,
    "little":13,
    "still":13,
    "told":13,
    "arms":13,
    "beside":13,
    "dead":13,
    "few":13,
    "wanted":13,
    "find":13,
    "i\u2019ll":13,
    "turn":13,
    "apartment":13,
    "plaza":13,
    "first":14,
    "saw":14,
    "hall":14,
    "were":14,
    "office":14,
    "any":14,
    "other":14,
    "sets":14,
    "family":14,
    "wanna":14,
    "slips":14,
    "son":14,
    "tower":14,
    "lights":15,
    "blood":15,
    "hands":15,
    "boy":15,
    "name":15,
    "young":15,
    "catelyn":15,
    "wife":15,
    "tell":15,
    "eddie":15,
    "nods":16,
    "front":16,
    "shawn\u2019s":16,
    "outside":16,
    "well":16,
    "moving":16,
    "same":16,
    "open":16,
    "say":16,
    "okay":16,
    "life":16,
    "doesn\u2019t":17,
    "desk":17,
    "or":17,
    "glances":17,
    "had":17,
    "table":17,
    "phone":17,
    "hear":18,
    "reaches":18,
    "frank":18,
    "finally":18,
    "stands":18,
    "very":18,
    "think":18,
    "can\u2019t":18,
    "officers":18,
    "edney":18,
    "behind":19,
    "blam":19,
    "more":19,
    "last":19,
    "sorry":19,
    "kujovic":19,
    "what\u2019s":19,
    "kenan":19,
    "another":19,
    "against":19,
    "lily":19,
    "didn\u2019t":19,
    "cruiser":19,
    "price":19,
    "never":20,
    "fuck":20,
    "years":20,
    "ya":20,
    "some":20,
    "too":20,
    "kitchen":20,
    "takes":21,
    "father":21,
    "mike\u2019s":21,
    "whalen":21,
    "house":22,
    "shit":22,
    "man":22,
    "head":22,
    "before":22,
    "where":22,
    "sarah":22,
    "turns":22,
    "beat":22,
    "police":22,
    "face":23,
    "pat":23,
    "jimmy\u2019s":23,
    "old":23,
    "take":23,
    "away":24,
    "sits":24,
    "maguire":24,
    "opens":24,
    "that\u2019s":24,
    "fuckin\u2019":24,
    "time":24,
    "their":24,
    "did":24,
    "room":24,
    "oh":24,
    "curtis":24,
    "hand":25,
    "sees":25,
    "good":25,
    "make":25,
    "how":25,
    "way":25,
    "across":25,
    "window":26,
    "pistol":26,
    "come":26,
    "been":26,
    "floor":26,
    "by":26,
    "them":26,
    "she":27,
    "girls":27,
    "street":28,
    "inside":28,
    "car":29,
    "look":29,
    "ext":30,
    "long":30,
    "through":30,
    "flores":31,
    "who":32,
    "eyes":32,
    "moment":32,
    "michael":32,
    "about":33,
    "you\u2019re":34,
    "conlon":36,
    "home":36,
    "so":36,
    "if":36,
    "around":37,
    "can":38,
    "yeah":38,
    "one":39,
    "know":39,
    "right":40,
    "have":40,
    "like":41,
    "when":41,
    "gonna":41,
    "an":42,
    "not":42,
    "do":43,
    "be":43,
    "see":44,
    "don\u2019t":44,
    "here":45,
    "no":45,
    "go":45,
    "looks":48,
    "her":49,
    "are":50,
    "they":50,
    "but":51,
    "we":53,
    "he\u2019s":54,
    "got":54,
    "all":55,
    "was":58,
    "two":59,
    "door":62,
    "there":62,
    "it\u2019s":64,
    "over":64,
    "just":64,
    "then":65,
    "get":67,
    "off":68,
    "colin":68,
    "from":71,
    "my":71,
    "int":76,
    "your":78,
    "back":78,
    "is":79,
    "harding":79,
    "i\u2019m":80,
    "shawn":81,
    "down":82,
    "me":83,
    "with":86,
    "into":88,
    "this":91,
    "now":92,
    "night":95,
    "what":97,
    "as":101,
    "up":105,
    "out":107,
    "that":123,
    "him":131,
    "mike":146,
    "for":147,
    "it":150,
    "at":162,
    "on":192,
    "i":197,
    "of":217,
    "jimmy":231,
    "in":237,
    "he":265,
    "you":268,
    "his":294,
    "to":392,
    "\u2014":397,
    "and":479,
    "a":515,
    "the":1033
}