{
    "begin":1,
    "village":1,
    "san":1,
    "marcos":1,
    "changed":1,
    "usa":1,
    "roots":1,
    "deep":1,
    "pines":1,
    "shaft":1,
    "arroyos":1,
    "cattle":1,
    "inc":1,
    "stands":1,
    "belongs":1,
    "eighteen":1,
    "half":1,
    "dynamite":1,
    "darkness":1,
    "thirtyfive":1,
    "third":1,
    "sinful":1,
    "evil":1,
    "prayed":1,
    "world":1,
    "church":1,
    "confession":1,
    "finish":1,
    "ironing":1,
    "promised":1,
    "fun":1,
    "naah":1,
    "straight":1,
    "defective":1,
    "fuse":1,
    "busy":1,
    "negotiatin":1,
    "committee":1,
    "helper":1,
    "ya":1,
    "splattered":1,
    "rocks":1,
    "fuses":1,
    "warn":1,
    "warnings":1,
    "ore":1,
    "miner":1,
    "handle":1,
    "american":1,
    "hush":1,
    "bother":1,
    "lady":1,
    "argued":1,
    "instrument":1,
    "money":1,
    "term":1,
    "installment":1,
    "curse":1,
    "waters":1,
    "cold":1,
    "fires":1,
    "stove":1,
    "across":1,
    "tracks":1,
    "pipes":1,
    "asking":1,
    "decent":1,
    "shuffle":1,
    "speedup":1,
    "forgotten":1,
    "met":1,
    "graveyards":1,
    "build":1,
    "credit":1,
    "except":1,
    "aaah":1,
    "pairs":1,
    "risk":1,
    "negotiations":1,
    "happens":1,
    "whatve":1,
    "seniority":1,
    "code":1,
    "calm":1,
    "speaks":1,
    "horse":1,
    "price":1,
    "zincs":1,
    "higher":1,
    "war":1,
    "boom":1,
    "whys":1,
    "signed":1,
    "contracts":1,
    "americans":1,
    "equalitys":1,
    "biggest":1,
    "club":1,
    "smash":1,
    "bucks":1,
    "miss":1,
    "hurry":1,
    "hang":1,
    "scared":1,
    "fed":1,
    "te":1,
    "buscan":1,
    "mamas":1,
    "planning":1,
    "surprise":1,
    "wifes":1,
    "waitll":1,
    "dressed":1,
    "joy":1,
    "expensive":1,
    "party":1,
    "song":1,
    "humming":1,
    "daydream":1,
    "lighten":1,
    "condition":1,
    "really":1,
    "jealous":1,
    "danced":1,
    "smile":1,
    "ago":1,
    "dropped":1,
    "es":1,
    "lo":1,
    "de":1,
    "siempre":1,
    "signs":1,
    "both":1,
    "sides":1,
    "choppers":1,
    "breakfast":1,
    "clothes":1,
    "iron":1,
    "scrub":1,
    "cook":1,
    "dinner":1,
    "reading":1,
    "funny":1,
    "papers":1,
    "accidente":1,
    "legs":1,
    "wandered":1,
    "bound":1,
    "works":1,
    "warning":1,
    "signal":1,
    "checked":1,
    "blasted":1,
    "station":1,
    "liar":1,
    "nogood":1,
    "d\u00e9jame":1,
    "kill":1,
    "basta":1,
    "mans":1,
    "costly":1,
    "everyone":1,
    "reason":1,
    "occasion":1,
    "holiday":1,
    "suppose":1,
    "excitements":1,
    "hora":1,
    "yo":1,
    "creo":1,
    "que":1,
    "ruiz":1,
    "ap\u00e1galo":1,
    "held":1,
    "walkout":1,
    "official":1,
    "voted":1,
    "93":1,
    "5":1,
    "complaints":1,
    "add":1,
    "speech":1,
    "split":1,
    "mexicanamerican":1,
    "offer":1,
    "rewards":1,
    "louder":1,
    "appreciate":1,
    "offering":1,
    "late":1,
    "suggest":1,
    "table":1,
    "chair":1,
    "entertain":1,
    "ordered":1,
    "embarrassing":1,
    "support":1,
    "worst":1,
    "honey":1,
    "dogs":1,
    "settlement":1,
    "returned":1,
    "recruited":1,
    "strikebreakers":1,
    "usually":1,
    "nerve":1,
    "saw":1,
    "size":1,
    "stood":1,
    "showing":1,
    "weapons":1,
    "marched":1,
    "unwritten":1,
    "rations":1,
    "killed":1,
    "remembers":1,
    "bring":1,
    "tacos":1,
    "tired":1,
    "duty":1,
    "lines":1,
    "besides":1,
    "approve":1,
    "loves":1,
    "swore":1,
    "sludge":1,
    "missing":1,
    "chief":1,
    "string":1,
    "along":1,
    "tamale":1,
    "eaters":1,
    "tamales":1,
    "fine":1,
    "chased":1,
    "recognize":1,
    "shinola":1,
    "best":1,
    "view":1,
    "layout":1,
    "main":1,
    "road":1,
    "roving":1,
    "patrols":1,
    "thrown":1,
    "stores":1,
    "housing":1,
    "area":1,
    "throwing":1,
    "mornin":1,
    "hired":1,
    "truck":1,
    "turned":1,
    "tail":1,
    "rough":1,
    "hombres":1,
    "specially":1,
    "raymond":1,
    "somethingorother":1,
    "gentlemen":1,
    "paymaster":1,
    "moscow":1,
    "gold":1,
    "acting":1,
    "arent":1,
    "eventually":1,
    "ritual":1,
    "impress":1,
    "power":1,
    "childish":1,
    "humor":1,
    "spank":1,
    "quite":1,
    "character":1,
    "claims":1,
    "naturally":1,
    "parked":1,
    "cup":1,
    "welcome":1,
    "gentleman":1,
    "affair":1,
    "secret":1,
    "eastern":1,
    "menve":1,
    "spokesman":1,
    "piecards":1,
    "record":1,
    "future":1,
    "reds":1,
    "stir":1,
    "river":1,
    "wake":1,
    "mister":1,
    "stopping":1,
    "shoulda":1,
    "f\u00edjate":1,
    "catch":1,
    "playing":1,
    "hookey":1,
    "hiding":1,
    "qu\u00e9":1,
    "dijo":1,
    "spotted":1,
    "alfredo":1,
    "jam":1,
    "judas":1,
    "bloodsucker":1,
    "t\u00fa":1,
    "traidor":1,
    "tu":1,
    "gente":1,
    "rompehuelga":1,
    "desgraciado":1,
    "rat":1,
    "wanna":1,
    "bout":1,
    "blanket":1,
    "idiots":1,
    "carry":1,
    "vance":1,
    "bullfighter":1,
    "pepper":1,
    "peppery":1,
    "chile":1,
    "chiquita":1,
    "ladys":1,
    "ambulance":1,
    "driver":1,
    "kiddin":1,
    "head":1,
    "outlive":1,
    "lice":1,
    "spic":1,
    "wishing":1,
    "mother":1,
    "charged":1,
    "assault":1,
    "postpone":1,
    "baptized":1,
    "godfather":1,
    "godmother":1,
    "christened":1,
    "juan":1,
    "double":1,
    "juanitos":1,
    "homecoming":1,
    "bedroom":1,
    "adjourned":1,
    "kitchen":1,
    "dollars":1,
    "beats":1,
    "dog":1,
    "aces":1,
    "wired":1,
    "deputies":1,
    "provocation":1,
    "lately":1,
    "leadership":1,
    "phony":1,
    "riot":1,
    "bust":1,
    "poker":1,
    "toward":1,
    "lump":1,
    "guest":1,
    "truth":1,
    "suspicious":1,
    "spill":1,
    "strategy":1,
    "rankandfiles":1,
    "detail":1,
    "lazy":1,
    "initiative":1,
    "tonight":1,
    "ju\u00e1rez":1,
    "george":1,
    "washington":1,
    "awful":1,
    "dumb":1,
    "fail":1,
    "friendly":1,
    "criticism":1,
    "throws":1,
    "cards":1,
    "less":1,
    "discussing":1,
    "each":1,
    "weaknesses":1,
    "receiving":1,
    "bet":1,
    "housewives":1,
    "allies":1,
    "worlds":1,
    "champion":1,
    "rights":1,
    "aw":1,
    "follower":1,
    "following":1,
    "montana":1,
    "colorado":1,
    "idaho":1,
    "gives":1,
    "cureall":1,
    "female":1,
    "esperanzas":1,
    "nursing":1,
    "feet":1,
    "fighter":1,
    "cell":1,
    "bugs":1,
    "stink":1,
    "beautiful":1,
    "pound":1,
    "bigger":1,
    "grow":1,
    "strong":1,
    "fella":1,
    "owns":1,
    "repossession":1,
    "orders":1,
    "repossess":1,
    "machine":1,
    "music":1,
    "fourth":1,
    "fifth":1,
    "sixth":1,
    "refused":1,
    "buy":1,
    "printed":1,
    "lies":1,
    "newspapers":1,
    "millers":1,
    "sent":1,
    "buried":1,
    "state":1,
    "send":1,
    "oklahoma":1,
    "itd":1,
    "inhumane":1,
    "texas":1,
    "seventh":1,
    "fund":1,
    "packed":1,
    "moved":1,
    "cases":1,
    "seek":1,
    "divided":1,
    "case":1,
    "family":1,
    "starved":1,
    "denver":1,
    "cared":1,
    "letters":1,
    "spanishspeaking":1,
    "southwest":1,
    "far":1,
    "butte":1,
    "chicago":1,
    "birmingham":1,
    "messages":1,
    "crumpled":1,
    "dollar":1,
    "bills":1,
    "helping":1,
    "cooks":1,
    "makers":1,
    "jokes":1,
    "crisis":1,
    "marshall":1,
    "smiling":1,
    "news":1,
    "ordering":1,
    "meant":1,
    "heavy":1,
    "fines":1,
    "sentences":1,
    "disobeyed":1,
    "decision":1,
    "whether":1,
    "soon":1,
    "disappear":1,
    "defy":1,
    "decide":1,
    "backed":1,
    "decisions":1,
    "rotten":1,
    "taken":1,
    "quarreled":1,
    "brave":1,
    "speeches":1,
    "read":1,
    "carefully":1,
    "prohibits":1,
    "laugh":1,
    "solution":1,
    "gains":1,
    "promise":1,
    "places":1,
    "members":1,
    "debate":1,
    "joke":1,
    "labor":1,
    "countrywomen":1,
    "hide":1,
    "womans":1,
    "skirt":1,
    "unity":1,
    "between":1,
    "carlotta":1,
    "s\u00e1nchez":1,
    "proper":1,
    "sin":1,
    "cops":1,
    "humiliated":1,
    "beg":1,
    "parliament":1,
    "unconstitutional":1,
    "permit":1,
    "objection":1,
    "reconvene":1,
    "community":1,
    "mass":1,
    "ayes":1,
    "raising":1,
    "carried":1,
    "eightyfive":1,
    "rose":1,
    "dawn":1,
    "daughters":1,
    "grandmothers":1,
    "hills":1,
    "beyond":1,
    "camps":1,
    "miles":1,
    "sunup":1,
    "comingwomen":1,
    "somehow":1,
    "looked":1,
    "unhappy":1,
    "forbidden":1,
    "passed":1,
    "stirred":1,
    "fools":1,
    "appearance":1,
    "heavens":1,
    "arms":1,
    "helps":1,
    "burp":1,
    "wanta":1,
    "pistol":1,
    "amusing":1,
    "flaunting":1,
    "letter":1,
    "excited":1,
    "covey":1,
    "boys":1,
    "beating":1,
    "shooting":1,
    "ourselves":1,
    "standing":1,
    "relax":1,
    "looks":1,
    "som":1,
    "lift":1,
    "whopped":1,
    "deputy":1,
    "shoe":1,
    "knocked":1,
    "gun":1,
    "mustve":1,
    "experience":1,
    "today":1,
    "lifetime":1,
    "nursemaid":1,
    "since":1,
    "telling":1,
    "weather":1,
    "crib":1,
    "sat":1,
    "hillside":1,
    "criticized":1,
    "keeping":1,
    "left":1,
    "cursed":1,
    "insulted":1,
    "foul":1,
    "tear":1,
    "gas":1,
    "wind":1,
    "spread":1,
    "danger":1,
    "shootin":1,
    "locking":1,
    "ring":1,
    "leaders":1,
    "fireeaters":1,
    "choice":1,
    "ifs":1,
    "ands":1,
    "buts":1,
    "hoosegow":1,
    "discipline":1,
    "chana":1,
    "d\u00edaz":1,
    "blue":1,
    "dress":1,
    "morales":1,
    "shaking":1,
    "fist":1,
    "lala":1,
    "alvarez":1,
    "stays":1,
    "quiet":1,
    "beds":1,
    "baths":1,
    "jp":1,
    "swear":1,
    "bonds":1,
    "heist":1,
    "bail":1,
    "high":1,
    "supposed":1,
    "outa":1,
    "pocket":1,
    "doin":1,
    "trump":1,
    "yellin":1,
    "somethin":1,
    "bellyachin":1,
    "la":1,
    "responsible":1,
    "drug":1,
    "1":1,
    "blame":1,
    "hour":1,
    "nothin":1,
    "stinker":1,
    "whered":1,
    "girl":1,
    "baskets":1,
    "ends":1,
    "hours":1,
    "stuff":1,
    "doubt":1,
    "installs":1,
    "shouldve":1,
    "kinds":1,
    "wage":1,
    "domestic":1,
    "calls":1,
    "problem":1,
    "goose":1,
    "gander":1,
    "shipping":1,
    "reform":1,
    "dry":1,
    "helped":1,
    "buenas":1,
    "noches":1,
    "hasta":1,
    "ma\u00f1ana":1,
    "nights":1,
    "fuss":1,
    "finally":1,
    "cots":1,
    "voice":1,
    "yelling":1,
    "drove":1,
    "consuelos":1,
    "available":1,
    "chanas":1,
    "governor":1,
    "anita":1,
    "gonzales":1,
    "six":1,
    "lalas":1,
    "marianas":1,
    "bunch":1,
    "fuel":1,
    "expedition":1,
    "forty":1,
    "talked":1,
    "bureau":1,
    "ores":1,
    "lotta":1,
    "rich":1,
    "difference":1,
    "el":1,
    "presidente":1,
    "distinction":1,
    "j":1,
    "hamilton":1,
    "financier":1,
    "executive":1,
    "board":1,
    "continental":1,
    "factors":1,
    "incorporated":1,
    "enthusiastic":1,
    "sportsman":1,
    "expert":1,
    "marksman":1,
    "manages":1,
    "year":1,
    "african":1,
    "safari":1,
    "leaves":1,
    "kenya":1,
    "hopes":1,
    "bag":1,
    "thirteenth":1,
    "frame":1,
    "hunter":1,
    "dyou":1,
    "hunt":1,
    "rabbits":1,
    "venison":1,
    "tasted":1,
    "meat":1,
    "weeks":1,
    "runnin":1,
    "permission":1,
    "waited":1,
    "midnight":1,
    "lasted":1,
    "minutes":1,
    "bear":1,
    "sight":1,
    "neglect":1,
    "sun":1,
    "hasnt":1,
    "starve":1,
    "takes":1,
    "outlast":1,
    "giving":1,
    "stronger":1,
    "failed":1,
    "charleys":1,
    "hate":1,
    "having":1,
    "neck":1,
    "superior":1,
    "low":1,
    "already":1,
    "rise":1,
    "bed":1,
    "pride":1,
    "bitterness":1,
    "worth":1,
    "learning":1,
    "changes":1,
    "pain":1,
    "deer":1,
    "hunters":1,
    "deserters":1,
    "eviction":1,
    "evict":1,
    "neighbors":1,
    "sense":1,
    "brats":1,
    "means":1,
    "obstructin":1,
    "justice":1,
    "behave":1,
    "lockup":1,
    "pit":1,
    "faces":1,
    "ideas":1,
    "policy":1,
    "present":1,
    "hearts":1,
    "thank":1,
    "salt":1,
    "earth":1,
    "inherit":1,
    "shall":2,
    "story":2,
    "flowers":2,
    "deeper":2,
    "raised":2,
    "land":2,
    "owned":2,
    "given":2,
    "celebration":2,
    "seven":2,
    "wish":2,
    "wished":2,
    "estellita":2,
    "sad":2,
    "aah":2,
    "piece":2,
    "beef":2,
    "yours":2,
    "taking":2,
    "super":2,
    "supers":2,
    "minute":2,
    "blasting":2,
    "blood":2,
    "friends":2,
    "check":2,
    "clear":2,
    "foremans":2,
    "someone":2,
    "scab":2,
    "word":2,
    "bought":2,
    "easy":2,
    "payments":2,
    "plan":2,
    "sorry":2,
    "times":2,
    "bathrooms":2,
    "inside":2,
    "conditions":2,
    "plumbing":2,
    "safety":2,
    "accidents":2,
    "afford":2,
    "cut":2,
    "care":2,
    "watching":2,
    "use":2,
    "negotiating":2,
    "gotta":2,
    "action":2,
    "same":2,
    "exactly":2,
    "least":2,
    "mexicans":2,
    "discrimination":2,
    "hurts":2,
    "twenty":2,
    "trying":2,
    "scare":2,
    "kid":2,
    "singing":2,
    "light":2,
    "weep":2,
    "paid":2,
    "thinking":2,
    "through":2,
    "heart":2,
    "long":2,
    "wasnt":2,
    "kind":2,
    "spoke":2,
    "understand":2,
    "face":2,
    "business":2,
    "count":2,
    "floor":2,
    "hell":2,
    "hed":2,
    "beat":2,
    "drift":2,
    "werent":2,
    "fellows":2,
    "s\u00ed":2,
    "making":2,
    "issue":2,
    "owners":2,
    "workers":2,
    "sell":2,
    "announcement":2,
    "guess":2,
    "speak":2,
    "demand":2,
    "idea":2,
    "allowed":2,
    "pushing":2,
    "backtowork":2,
    "sheriffs":2,
    "gave":2,
    "happened":2,
    "couple":2,
    "decided":2,
    "theyd":2,
    "set":2,
    "near":2,
    "taste":2,
    "sebastian":2,
    "hill":2,
    "post":2,
    "captain":2,
    "car":2,
    "himself":2,
    "general":2,
    "manager":2,
    "ways":2,
    "alexander":2,
    "thanks":2,
    "names":2,
    "companys":2,
    "chance":2,
    "bad":2,
    "possible":2,
    "negotiate":2,
    "knows":2,
    "deal":2,
    "real":2,
    "call":2,
    "guy":2,
    "matter":2,
    "gully":2,
    "love":2,
    "expect":2,
    "quick":2,
    "slugged":2,
    "lie":2,
    "white":2,
    "likes":2,
    "dya":2,
    "youd":2,
    "mercy":2,
    "live":2,
    "county":2,
    "resisting":2,
    "christening":2,
    "ram\u00f3ns":2,
    "thousand":2,
    "yeah":2,
    "lots":2,
    "charge":2,
    "play":2,
    "attitude":2,
    "leader":2,
    "learn":2,
    "settled":2,
    "game":2,
    "hand":2,
    "womens":2,
    "camp":2,
    "organize":2,
    "goes":2,
    "cot":2,
    "hope":2,
    "touch":2,
    "body":2,
    "change":2,
    "shack":2,
    "under":2,
    "boss":2,
    "longer":2,
    "hardship":2,
    "tafthartley":2,
    "pickets":2,
    "democratic":2,
    "law":2,
    "fifty":2,
    "gain":2,
    "seemed":2,
    "striking":2,
    "allow":2,
    "whole":2,
    "asked":2,
    "knees":2,
    "counted":2,
    "watch":2,
    "questions":2,
    "voting":2,
    "signify":2,
    "point":2,
    "fair":2,
    "especially":2,
    "adult":2,
    "entitled":2,
    "opposed":2,
    "yourselves":2,
    "organizers":2,
    "also":2,
    "backward":2,
    "walked":2,
    "scatter":2,
    "quail":2,
    "itll":2,
    "peace":2,
    "played":2,
    "ones":2,
    "school":2,
    "used":2,
    "planned":2,
    "cmere":2,
    "awright":2,
    "git":2,
    "quinteros":2,
    "being":2,
    "camas":2,
    "ba\u00f1os":2,
    "pledge":2,
    "deals":2,
    "sex":2,
    "junior":2,
    "shop":2,
    "stewards":2,
    "four":2,
    "bull":2,
    "miller":2,
    "lion":2,
    "waiting":2,
    "funeral":2,
    "millions":2,
    "weaker":2,
    "lull":2,
    "storm":2,
    "learned":2,
    "lower":2,
    "form":2,
    "cordon":2,
    "guys":2,
    "mill":2,
    "stopped":2,
    "won":2,
    "beginning":3,
    "ours":3,
    "mexico":3,
    "great":3,
    "delaware":3,
    "living":3,
    "life":3,
    "began":3,
    "end":3,
    "saints":3,
    "months":3,
    "forgive":3,
    "tough":3,
    "cake":3,
    "father":3,
    "shift":3,
    "trouble":3,
    "rule":3,
    "much":3,
    "barton":3,
    "find":3,
    "candles":3,
    "payment":3,
    "behind":3,
    "beer":3,
    "parlor":3,
    "important":3,
    "things":3,
    "estella":3,
    "hospital":3,
    "myself":3,
    "international":3,
    "raise":3,
    "hanging":3,
    "pay":3,
    "ready":3,
    "such":3,
    "ma\u00f1anita":3,
    "asleep":3,
    "must":3,
    "antonio":3,
    "next":3,
    "dance":3,
    "morning":3,
    "wash":3,
    "while":3,
    "delegation":3,
    "shouldnt":3,
    "show":3,
    "office":3,
    "luz":3,
    "ought":3,
    "heat":3,
    "gets":3,
    "found":3,
    "broken":3,
    "fellow":3,
    "dirty":3,
    "treat":3,
    "cente":3,
    "nearly":3,
    "try":3,
    "answer":3,
    "adjourn":3,
    "second":3,
    "outside":3,
    "push":3,
    "pretty":3,
    "movement":3,
    "around":3,
    "figure":3,
    "feed":3,
    "salazar":3,
    "last":3,
    "side":3,
    "property":3,
    "hartwell":3,
    "throw":3,
    "hows":3,
    "ray":3,
    "pass":3,
    "sometimes":3,
    "food":3,
    "none":3,
    "settle":3,
    "mining":3,
    "eat":3,
    "boy":3,
    "need":3,
    "sit":3,
    "thirty":3,
    "usual":3,
    "organizer":3,
    "dead":3,
    "ruth":3,
    "either":3,
    "turn":3,
    "done":3,
    "obey":3,
    "arrested":3,
    "which":3,
    "chairman":3,
    "stand":3,
    "favor":3,
    "hundred":3,
    "run":3,
    "dames":3,
    "needed":3,
    "crazy":3,
    "big":3,
    "worry":3,
    "larger":3,
    "unless":3,
    "slavery":3,
    "squad":3,
    "standby":3,
    "called":4,
    "grandfather":4,
    "own":4,
    "remember":4,
    "gone":4,
    "into":4,
    "makes":4,
    "comes":4,
    "wants":4,
    "savvy":4,
    "working":4,
    "forget":4,
    "five":4,
    "water":4,
    "once":4,
    "leave":4,
    "start":4,
    "strikers":4,
    "yourself":4,
    "mexican":4,
    "locals":4,
    "thing":4,
    "forgot":4,
    "fool":4,
    "saying":4,
    "running":4,
    "troubles":4,
    "consuelo":4,
    "lot":4,
    "together":4,
    "happen":4,
    "pancho":4,
    "many":4,
    "solidarity":4,
    "wanted":4,
    "might":4,
    "auxiliary":4,
    "fast":4,
    "jobs":4,
    "went":4,
    "started":4,
    "marching":4,
    "prieto":4,
    "havent":4,
    "brought":4,
    "took":4,
    "york":4,
    "hands":4,
    "full":4,
    "wont":4,
    "arrest":4,
    "sleep":4,
    "ten":4,
    "lock":4,
    "whose":4,
    "picture":4,
    "fight":4,
    "worse":4,
    "knew":4,
    "injunction":4,
    "picketing":4,
    "anyway":4,
    "open":4,
    "wheres":4,
    "comida":4,
    "please":4,
    "without":4,
    "hunting":4,
    "friend":4,
    "dignity":4,
    "anglos":5,
    "husbands":5,
    "years":5,
    "old":5,
    "god":5,
    "sick":5,
    "later":5,
    "fighting":5,
    "wouldnt":5,
    "mind":5,
    "still":5,
    "does":5,
    "nobody":5,
    "put":5,
    "month":5,
    "isnt":5,
    "nice":5,
    "hot":5,
    "sanitation":5,
    "woman":5,
    "first":5,
    "youll":5,
    "always":5,
    "against":5,
    "families":5,
    "hungry":5,
    "should":5,
    "drink":5,
    "theyve":5,
    "most":5,
    "pull":5,
    "till":5,
    "move":5,
    "huh":5,
    "told":5,
    "kept":5,
    "days":5,
    "sign":5,
    "kalinsky":5,
    "teresa":5,
    "getting":5,
    "few":5,
    "whos":5,
    "seen":5,
    "scabs":5,
    "oh":5,
    "president":5,
    "heard":5,
    "tried":5,
    "lose":5,
    "milk":5,
    "order":5,
    "court":5,
    "coming":5,
    "vote":5,
    "girls":5,
    "tomorrow":5,
    "has":6,
    "name":6,
    "am":6,
    "house":6,
    "child":6,
    "place":6,
    "hold":6,
    "hurt":6,
    "hear":6,
    "job":6,
    "foreman":6,
    "chop":6,
    "lost":6,
    "week":6,
    "doctor":6,
    "stop":6,
    "children":6,
    "mines":6,
    "three":6,
    "barnes":6,
    "rest":6,
    "okay":6,
    "wrong":6,
    "others":6,
    "mrs":6,
    "motion":6,
    "after":6,
    "two":6,
    "id":6,
    "jenkins":6,
    "another":6,
    "sheriff":6,
    "people":6,
    "shut":6,
    "juanito":6,
    "zinc":7,
    "ever":7,
    "husband":7,
    "thought":7,
    "born":7,
    "mama":7,
    "better":7,
    "made":7,
    "aint":7,
    "radio":7,
    "she":7,
    "night":7,
    "wood":7,
    "ask":7,
    "demands":7,
    "wives":7,
    "couldnt":7,
    "feel":7,
    "afraid":7,
    "doing":7,
    "shes":7,
    "break":7,
    "coffee":7,
    "youve":7,
    "sisters":7,
    "question":7,
    "miners":8,
    "by":8,
    "little":8,
    "alone":8,
    "mr":8,
    "ill":8,
    "store":8,
    "every":8,
    "everything":8,
    "weve":8,
    "anything":8,
    "brother":8,
    "ive":8,
    "yes":8,
    "vidal":8,
    "could":8,
    "quintero":9,
    "town":9,
    "new":9,
    "wait":9,
    "talk":9,
    "talking":9,
    "lu\u00eds":9,
    "any":9,
    "jail":9,
    "queremos":9,
    "than":10,
    "tell":10,
    "help":10,
    "stay":10,
    "nothing":10,
    "sure":10,
    "lets":10,
    "charley":10,
    "keep":10,
    "wife":11,
    "before":11,
    "who":11,
    "say":11,
    "give":11,
    "theyll":11,
    "man":11,
    "more":11,
    "enough":11,
    "mean":11,
    "meeting":11,
    "look":11,
    "formula":11,
    "esperanza":12,
    "mine":12,
    "these":12,
    "those":12,
    "theyre":12,
    "says":12,
    "away":12,
    "bosses":12,
    "win":12,
    "hey":12,
    "hes":12,
    "an":13,
    "papa":13,
    "gonna":13,
    "listen":13,
    "theres":13,
    "because":13,
    "her":13,
    "time":13,
    "too":13,
    "equality":13,
    "even":13,
    "been":13,
    "home":14,
    "going":14,
    "off":14,
    "other":14,
    "brothers":14,
    "didnt":14,
    "way":14,
    "maybe":14,
    "ladies":14,
    "would":15,
    "kids":15,
    "whats":15,
    "only":15,
    "down":15,
    "something":15,
    "then":15,
    "some":15,
    "again":16,
    "let":16,
    "did":16,
    "good":16,
    "em":16,
    "where":17,
    "anglo":17,
    "make":17,
    "came":18,
    "his":18,
    "said":18,
    "or":18,
    "how":19,
    "as":19,
    "thats":19,
    "baby":19,
    "over":20,
    "their":20,
    "work":21,
    "union":21,
    "think":22,
    "im":22,
    "see":22,
    "day":23,
    "come":23,
    "youre":23,
    "at":23,
    "here":23,
    "just":23,
    "our":24,
    "picket":24,
    "women":24,
    "company":25,
    "men":25,
    "when":26,
    "will":26,
    "take":27,
    "line":27,
    "well":28,
    "never":29,
    "were":29,
    "why":29,
    "do":30,
    "had":30,
    "strike":30,
    "him":31,
    "ram\u00f3n":31,
    "from":31,
    "cant":32,
    "right":32,
    "back":32,
    "know":33,
    "there":33,
    "is":34,
    "out":34,
    "about":34,
    "like":35,
    "want":35,
    "are":36,
    "one":36,
    "now":37,
    "its":37,
    "can":39,
    "go":40,
    "us":40,
    "your":41,
    "got":41,
    "them":42,
    "be":43,
    "get":43,
    "my":44,
    "he":44,
    "not":45,
    "if":47,
    "up":49,
    "so":50,
    "what":50,
    "have":54,
    "with":56,
    "on":57,
    "me":57,
    "all":60,
    "for":61,
    "dont":61,
    "was":62,
    "that":65,
    "this":67,
    "no":72,
    "but":73,
    "in":77,
    "they":89,
    "of":112,
    "we":115,
    "it":123,
    "and":150,
    "i":156,
    "a":161,
    "to":228,
    "you":230,
    "":322,
    "the":425
}