{
    "quarters":1,
    "diagonally":1,
    "salts":1,
    "website":1,
    "folds":1,
    "plastic":1,
    "fork":1,
    "spoon":1,
    "\u2018pouch\u2019":1,
    "neat":1,
    "company":1,
    "taxpayers":1,
    "closer":1,
    "45":1,
    "fair":1,
    "executive":1,
    "could\u2019ve":1,
    "hmmm":1,
    "opinion":1,
    "pokes":1,
    "dissatisfied":1,
    "reassuring":1,
    "455":1,
    "dulles":1,
    "zoo":1,
    "gentleman":1,
    "servant":1,
    "fortytwo":1,
    "safer":1,
    "epitaph":1,
    "wished":1,
    "known":1,
    "student":1,
    "pink":1,
    "floyd":1,
    "zeppelin":1,
    "bootlegs":1,
    "interested":1,
    "ukraine":1,
    "possibility":1,
    "redraw":1,
    "eastern":1,
    "europe":1,
    "kind":1,
    "push":1,
    "crazy":1,
    "laughing":1,
    "fishes":1,
    "field":1,
    "week":1,
    "pushing":1,
    "todd":1,
    "graduate":1,
    "flagging":1,
    "winters":1,
    "buying":1,
    "bona":1,
    "fides":1,
    "\u2018em":1,
    "twenty":1,
    "starker":1,
    "floors":1,
    "bare":1,
    "briskly":1,
    "sentinellike":1,
    "technically":1,
    "motherfucker":1,
    "intro":1,
    "adverb":1,
    "adjective":1,
    "actually":1,
    "reaction":1,
    "techies":1,
    "blind":1,
    "opposite":1,
    "officers":1,
    "experience":1,
    "usually":1,
    "lesbians":1,
    "character":1,
    "gogol":1,
    "older":1,
    "pale":1,
    "vassily":1,
    "drag":1,
    "olegzykov":1,
    "chemo":1,
    "afraid":1,
    "dying":1,
    "style":1,
    "gained":1,
    "damning":1,
    "8":1,
    "1993":1,
    "novosibirsk":1,
    "siberia":1,
    "victor":1,
    "pechyonkin\u2019s":1,
    "pechyonkin":1,
    "fsb\u2019s":1,
    "\u201895":1,
    "went":1,
    "since":1,
    "prior":1,
    "\u201893":1,
    "exist":1,
    "someplace":1,
    "anyway":1,
    "listening":1,
    "regards":1,
    "1975":1,
    "olympic":1,
    "wrestler":1,
    "sascha":1,
    "fyorodovich":1,
    "meets":1,
    "connect":1,
    "chess":1,
    "grand":1,
    "master":1,
    "replaced":1,
    "magnetic":1,
    "intensity":1,
    "shared":1,
    "abruptly":1,
    "pins":1,
    "notices":1,
    "simple":1,
    "civil":1,
    "later":1,
    "beds":1,
    "occupied":1,
    "cradles":1,
    "newborn":1,
    "calloused":1,
    "depthless":1,
    "wonder":1,
    "doubt":1,
    "protected":1,
    "sick":1,
    "fever":1,
    "sobs":1,
    "streak":1,
    "buried":1,
    "became":1,
    "property":1,
    "ward":1,
    "male":1,
    "receives":1,
    "baby":1,
    "dining":1,
    "manor":1,
    "glory":1,
    "threadbare":1,
    "sleet":1,
    "pelts":1,
    "infant":1,
    "wailing":1,
    "coldest":1,
    "brezhnev":1,
    "determined":1,
    "crushed":1,
    "2nd":1,
    "nuclear":1,
    "arsenal":1,
    "brezhnevs":1,
    "weapon":1,
    "espionage":1,
    "classroom":1,
    "5":1,
    "shaved":1,
    "sides":1,
    "classmates":1,
    "uniformity":1,
    "girls":1,
    "learned":1,
    "drilled":1,
    "idiom":1,
    "idiosyncrasy":1,
    "ideology":1,
    "looses":1,
    "smoke":1,
    "drifts":1,
    "fairy":1,
    "techie":1,
    "manipulates":1,
    "closeup":1,
    "awarded":1,
    "hero":1,
    "database":1,
    "shrugs":1,
    "patience":1,
    "gymnasium":1,
    "double":1,
    "somersault":1,
    "rotation":1,
    "persistence":1,
    "tenacity":1,
    "results":1,
    "army":1,
    "barracks":1,
    "\u2018fighttrain\u2019":1,
    "grappling":1,
    "headbutts":1,
    "fighters":1,
    "marched":1,
    "laughs":1,
    "grimly":1,
    "stomps":1,
    "groin":1,
    "gasping":1,
    "laugh":1,
    "consequences":1,
    "resumes":1,
    "vicious":1,
    "backhand":1,
    "sends":1,
    "hardscrabble":1,
    "ladscape":1,
    "begrimed":1,
    "filthy":1,
    "march":1,
    "stumble":1,
    "shoulders":1,
    "leaning":1,
    "scraped":1,
    "exhaustion":1,
    "enormous":1,
    "strain":1,
    "evident":1,
    "staggered":1,
    "stake":1,
    "fluttering":1,
    "orange":1,
    "breathes":1,
    "onebyone":1,
    "tires":1,
    "blink":1,
    "overcoated":1,
    "bamboo":1,
    "bears":1,
    "reluctantly":1,
    "cracking":1,
    "recite":1,
    "desert":1,
    "wherever":1,
    "stationed":1,
    "motherland":1,
    "diminished":1,
    "grow":1,
    "seek":1,
    "comfort":1,
    "rather":1,
    "stare":1,
    "most":1,
    "instilled":1,
    "unquestioning":1,
    "state":1,
    "dormitory":1,
    "child\u2019s":1,
    "sidetoside":1,
    "deciding":1,
    "preop":1,
    "prepped":1,
    "surgery":1,
    "lines":1,
    "drawn":1,
    "marker":1,
    "surgeon":1,
    "surgically":1,
    "altered":1,
    "resemble":1,
    "visiting":1,
    "wheeled":1,
    "swing":1,
    "saying":1,
    "fmri":1,
    "registers":1,
    "grinds":1,
    "ashtray":1,
    "designee":1,
    "propaganda":1,
    "myth":1,
    "awaited":1,
    "travel":1,
    "insert":1,
    "society":1,
    "theorized":1,
    "active":1,
    "1980\u2019s":1,
    "evidence":1,
    "existence":1,
    "return":1,
    "chemotherapy":1,
    "health":1,
    "care\u2019s":1,
    "shitty":1,
    "simply":1,
    "alias":1,
    "lives":1,
    "clapping":1,
    "brilliant":1,
    "bullshit":1,
    "colleagues":1,
    "dear":1,
    "pin":1,
    "drop":1,
    "room\u2019s":1,
    "vacuum":1,
    "pocket":1,
    "punching":1,
    "angrily":1,
    "bats":1,
    "ear":1,
    "answering":1,
    "machine":1,
    "urgent":1,
    "scared":1,
    "spy\u2019s":1,
    "danger":1,
    "desperate":1,
    "word":1,
    "cracks":1,
    "compromised":1,
    "theyre":1,
    "repaying":1,
    "godspeed":1,
    "interrogate":1,
    "enjoys":1,
    "answers":1,
    "affected":1,
    "procedure":1,
    "resignation":1,
    "flow":1,
    "isolate":1,
    "seal":1,
    "stolen":1,
    "slam":1,
    "monitors":1,
    "codecard":1,
    "closedcircuit":1,
    "shes":1,
    "trapped":1,
    "blastproof":1,
    "therefore":1,
    "sealed":1,
    "stairwell":1,
    "charges":1,
    "till":1,
    "depends":1,
    "ninety":1,
    "bolt":1,
    "hks":1,
    "copyutility":1,
    "tearing":1,
    "cabinets":1,
    "aid":1,
    "kit":1,
    "sink":1,
    "handful":1,
    "dispenser":1,
    "monitor":1,
    "supplies":1,
    "112113":1,
    "thick":1,
    "silent":1,
    "ghosts":1,
    "headsets":1,
    "stained":1,
    "brown":1,
    "iodine":1,
    "poured":1,
    "adds":1,
    "noxious":1,
    "fumes":1,
    "rise":1,
    "gap":1,
    "shimmysqueezes":1,
    "cycle":1,
    "cameras":1,
    "realizes":1,
    "shell":1,
    "casings":1,
    "rips":1,
    "yanks":1,
    "sim":1,
    "card":1,
    "snaps":1,
    "passengers":1,
    "daring":1,
    "strobe":1,
    "often":1,
    "unkempt":1,
    "beard":1,
    "bit":1,
    "butterfly":1,
    "pavilion":1,
    "natural":1,
    "\u2018aviary\u2019":1,
    "confine":1,
    "butterflies":1,
    "upstairs":1,
    "arachnologist":1,
    "hunter":1,
    "terrarium":1,
    "ray":1,
    "40000":1,
    "one\u2019s":1,
    "amazon":1,
    "basin":1,
    "peru":1,
    "theridiosoma":1,
    "pete":1,
    "drummer":1,
    "ringo":1,
    "beatle":1,
    "entomologist":1,
    "rambles":1,
    "concerned":1,
    "glasses":1,
    "colony":1,
    "quite":1,
    "normal":1,
    "gotta":1,
    "decides":1,
    "confess":1,
    "crouches":1,
    "daddy":1,
    "slide":1,
    "strong":1,
    "bringing":1,
    "rear":1,
    "kitchen":1,
    "\u2018burt\u2019":1,
    "heels":1,
    "single":1,
    "plate":1,
    "halfeaten":1,
    "sandwich":1,
    "beer":1,
    "bedroom":1,
    "real":1,
    "jungle":1,
    "somewhere":1,
    "holding":1,
    "drawer":1,
    "sweeps":1,
    "folded":1,
    "underwear":1,
    "ducking":1,
    "implosion":1,
    "invades":1,
    "m84":1,
    "tossed":1,
    "nobody":1,
    "occurred":1,
    "lying":1,
    "catching":1,
    "tear":1,
    "4th":1,
    "10yearold":1,
    "homework":1,
    "knocks":1,
    "waves":1,
    "slider":1,
    "hi":1,
    "janey":1,
    "climbed":1,
    "mom":1,
    "pedigree":1,
    "choice":1,
    "vaulting":1,
    "terrace":1,
    "couch":1,
    "wrapped":1,
    "blanket":1,
    "abject":1,
    "desolate":1,
    "sighs":1,
    "cute":1,
    "charming":1,
    "practice":1,
    "capacity":1,
    "feeling":1,
    "peed":1,
    "messy":1,
    "puppy":1,
    "pee":1,
    "printout":1,
    "stuck":1,
    "nervously":1,
    "entering":1,
    "strides":1,
    "thrust":1,
    "ease":1,
    "hey":1,
    "squints":1,
    "hiya":1,
    "working":1,
    "overtime":1,
    "creepy":1,
    "lined":1,
    "dimensioned":1,
    "contains":1,
    "skeleton":1,
    "grizzly":1,
    "bear":1,
    "amorphous":1,
    "shapes":1,
    "shape":1,
    "formed":1,
    "thousands":1,
    "insects":1,
    "fills":1,
    "spilling":1,
    "hops":1,
    "heavily":1,
    "thumb":1,
    "approaching":1,
    "frosted":1,
    "approach":1,
    "lone":1,
    "grizzly\u2019s":1,
    "socket":1,
    "glides":1,
    "alert":1,
    "fan":1,
    "flicker":1,
    "revealing":1,
    "realizing":1,
    "twists":1,
    "roofline":1,
    "sculpture":1,
    "garden":1,
    "who\u2019s":1,
    "flesheating":1,
    "strip":1,
    "bones":1,
    "vertebrates":1,
    "disgusted":1,
    "horrible":1,
    "shedding":1,
    "spits":1,
    "uncovering":1,
    "underfoot":1,
    "madison":1,
    "motion":1,
    "powerslides":1,
    "traction":1,
    "hauling":1,
    "sprints":1,
    "darts":1,
    "slung":1,
    "motoring":1,
    "barrels":1,
    "alley":1,
    "race":1,
    "pursuers":1,
    "innocent":1,
    "targeted":1,
    "exceed":1,
    "personal":1,
    "considerations":1,
    "asshole":1,
    "davis":1,
    "cocks":1,
    "hammer":1,
    "somersaulting":1,
    "speeding":1,
    "sprawled":1,
    "pitching":1,
    "railing":1,
    "driving":1,
    "eastbound":1,
    "plumber\u2019s":1,
    "traffic":1,
    "blockade":1,
    "14":1,
    "mile":1,
    "quickly":1,
    "10":1,
    "mph":1,
    "hood":1,
    "driver":1,
    "splitting":1,
    "handlebars":1,
    "wiping":1,
    "sideways":1,
    "momentum":1,
    "bike":1,
    "revving":1,
    "riding":1,
    "wheelie":1,
    "traverses":1,
    "median":1,
    "ditch":1,
    "overpass":1,
    "crosses":1,
    "exit":1,
    "spiral":1,
    "anywhere":1,
    "notify":1,
    "threat":1,
    "zero":1,
    "sense":1,
    "activated":1,
    "toetotoe":1,
    "nerve":1,
    "ci":1,
    "separate":1,
    "york\u2019s":1,
    "bar":1,
    "twilight":1,
    "motorcycles":1,
    "parked":1,
    "rumbles":1,
    "parks":1,
    "hiding":1,
    "engine":1,
    "bumps":1,
    "mock":1,
    "surrender":1,
    "lover":1,
    "fighter":1,
    "securely":1,
    "bound":1,
    "wooden":1,
    "wrists":1,
    "ankles":1,
    "beaten":1,
    "reason":1,
    "enforcer":1,
    "inquisitor":1,
    "stool":1,
    "delivers":1,
    "gasps":1,
    "patient":1,
    "continental":1,
    "shelves":1,
    "donghan":1,
    "gilju":1,
    "pyongyang":1,
    "fields":1,
    "tuff":1,
    "layer":1,
    "geological":1,
    "features":1,
    "identical":1,
    "bohai":1,
    "estimate":1,
    "205":1,
    "billion":1,
    "tons":1,
    "swinging":1,
    "chokes":1,
    "digs":1,
    "talonlike":1,
    "happening":1,
    "damage":1,
    "severe":1,
    "howls":1,
    "seeps":1,
    "fingers":1,
    "viciously":1,
    "tie":1,
    "begging":1,
    "prison":1,
    "ignores":1,
    "deign":1,
    "buzzes":1,
    "limps":1,
    "lurid":1,
    "bruises":1,
    "dont":1,
    "kim":1,
    "jongil":1,
    "changes":1,
    "bows":1,
    "complete":1,
    "protective":1,
    "drained":1,
    "wondering":1,
    "should\u2019ve":1,
    "operational":1,
    "didnt":1,
    "heaven":1,
    "earth":1,
    "invade":1,
    "ricepaddy":1,
    "astonished":1,
    "seem":1,
    "business":1,
    "wells":1,
    "scientist":1,
    "magic":1,
    "telling":1,
    "cries":1,
    "touch":1,
    "wrapping":1,
    "bow":1,
    "divorced":1,
    "serious":1,
    "priest":1,
    "church":1,
    "job":1,
    "anxious":1,
    "smiling":1,
    "busted":1,
    "luckiest":1,
    "sonuvabitch":1,
    "smell":1,
    "peace":1,
    "alright":1,
    "witness":1,
    "accounted":1,
    "bus":1,
    "terminal":1,
    "baseball":1,
    "cap":1,
    "clothes":1,
    "towards":1,
    "sporting":1,
    "goods":1,
    "42nd":1,
    "mouthguard":1,
    "checkout":1,
    "creep":1,
    "glimpse":1,
    "bends":1,
    "bricks":1,
    "instant":1,
    "hurts":1,
    "following":1,
    "wasn\u2019t":1,
    "uh":1,
    "streams":1,
    "nose":1,
    "schmidt":1,
    "deluxe":1,
    "curtains":1,
    "rockefeller":1,
    "sparkle":1,
    "solitary":1,
    "gothicness":1,
    "smart":1,
    "operative":1,
    "candidates":1,
    "huge":1,
    "proud":1,
    "glide":1,
    "unpacked":1,
    "disposable":1,
    "syringes":1,
    "medicine":1,
    "needles":1,
    "gauze":1,
    "c4":1,
    "blasting":1,
    "caps":1,
    "phones":1,
    "ziploc":1,
    "passports":1,
    "countries":1,
    "banded":1,
    "stacks":1,
    "euros":1,
    "100":1,
    "bills":1,
    "tap":1,
    "finishing":1,
    "dye":1,
    "oath":1,
    "ripping":1,
    "tape":1,
    "pair":1,
    "boxers":1,
    "tshirt":1,
    "taping":1,
    "shin":1,
    "elbow":1,
    "pads":1,
    "loose":1,
    "pants":1,
    "boots":1,
    "laced":1,
    "vest":1,
    "sweater":1,
    "streaked":1,
    "sun":1,
    "buildings":1,
    "term":1,
    "senator":1,
    "warrior":1,
    "whose":1,
    "legacy":1,
    "architect":1,
    "russoamerican":1,
    "relations":1,
    "block":1,
    "crowds":1,
    "68th":1,
    "descends":1,
    "satchel":1,
    "due":1,
    "nypd":1,
    "gear":1,
    "extint":1,
    "among":1,
    "vips":1,
    "ids":1,
    "rechecked":1,
    "ominous":1,
    "sleek":1,
    "recognized":1,
    "perimeter":1,
    "relax":1,
    "bristles":1,
    "dig":1,
    "\u20186\u2019":1,
    "coupling":1,
    "widens":1,
    "express":1,
    "tracks":1,
    "nine":1,
    "farewell":1,
    "leaders":1,
    "worked":1,
    "stage":1,
    "friendship":1,
    "east":1,
    "transept":1,
    "microphone":1,
    "sings":1,
    "eulogy":1,
    "headpiece":1,
    "mic":1,
    "it\u2019ll":1,
    "damn":1,
    "amazing":1,
    "progress":1,
    "downloaded":1,
    "pen":1,
    "poked":1,
    "wetbehindtheears":1,
    "candidate":1,
    "rock":1,
    "looked":1,
    "presidential":1,
    "pew":1,
    "crouched":1,
    "wristwatch":1,
    "timing":1,
    "stepped":1,
    "collective":1,
    "accompanied":1,
    "pipeorgan":1,
    "domine":1,
    "et":1,
    "lux":1,
    "luceat":1,
    "christe":1,
    "eleison":1,
    "notes":1,
    "clicking":1,
    "hardhat\u2019s":1,
    "temple":1,
    "counting":1,
    "0091":1,
    "0090":1,
    "approaches":1,
    "discreetly":1,
    "axis":1,
    "tunnels":1,
    "sooty":1,
    "stone":1,
    "slowly":1,
    "cautiously":1,
    "actual":1,
    "dentist\u2019s":1,
    "dour":1,
    "weight":1,
    "circular":1,
    "corridors":1,
    "neck":1,
    "dos":1,
    "vadanya":1,
    "language":1,
    "\u2018until":1,
    "again\u2019":1,
    "sadly":1,
    "bleats":1,
    "hovering":1,
    "post":1,
    "mias":1,
    "limazulufive":1,
    "subunits":1,
    "scans":1,
    "nearest":1,
    "motors":1,
    "gallery":1,
    "tells":1,
    "amen":1,
    "flashlights":1,
    "bore":1,
    "holes":1,
    "dust":1,
    "figures":1,
    "prone":1,
    "supplicant":1,
    "rush":1,
    "lies":1,
    "facedown":1,
    "limbs":1,
    "outstretched":1,
    "cuffs":1,
    "decided":1,
    "satisfaction":1,
    "shoves":1,
    "rubble":1,
    "esu":1,
    "medical":1,
    "scoots":1,
    "pulse":1,
    "digging":1,
    "fists":1,
    "knot":1,
    "hustle":1,
    "lens":1,
    "reporter\u2019s":1,
    "preliminary":1,
    "identify":1,
    "assailant":1,
    "unbelievable":1,
    "identified":1,
    "frogmarched":1,
    "surrounded":1,
    "transportcustody":1,
    "35th":1,
    "ided":1,
    "gagged":1,
    "ding":1,
    "hauled":1,
    "grim":1,
    "loses":1,
    "jams":1,
    "trusted":1,
    "regarding":1,
    "struggling":1,
    "crap":1,
    "manages":1,
    "handcuff":1,
    "key":1,
    "access":1,
    "taped":1,
    "softest":1,
    "dangling":1,
    "jerks":1,
    "sack":1,
    "potatoes":1,
    "rears":1,
    "square":1,
    "stumbles":1,
    "draw":1,
    "rail":1,
    "scissor":1,
    "three\u2019s":1,
    "sending":1,
    "wide":1,
    "unsteadily":1,
    "washing":1,
    "freefall":1,
    "friction":1,
    "pulleys":1,
    "slowing":1,
    "struggles":1,
    "downward":1,
    "brake":1,
    "jerking":1,
    "sudden":1,
    "halt":1,
    "flattening":1,
    "simultaneously":1,
    "scraping":1,
    "handhold":1,
    "foothold":1,
    "roars":1,
    "sniper":1,
    "advice":1,
    "ignore":1,
    "sin":1,
    "forget":1,
    "climbs":1,
    "forever":1,
    "staring":1,
    "harrisburg":1,
    "pennsylvania":1,
    "favorite":1,
    "mcdonald\u2019s":1,
    "river":1,
    "anymore":1,
    "father":1,
    "lay":1,
    "unwraps":1,
    "bandages":1,
    "12yearold":1,
    "bruised":1,
    "puffy":1,
    "\u2018accident\u2019":1,
    "certainly":1,
    "recognize":1,
    "pushes":1,
    "training":1,
    "college":1,
    "attend":1,
    "university":1,
    "agency":1,
    "trust":1,
    "fail":1,
    "family":1,
    "aunt":1,
    "planned":1,
    "assignment":1,
    "wait":1,
    "beats":1,
    "shoving":1,
    "hello":1,
    "parent\u2019s":1,
    "convincingly":1,
    "tearyeyed":1,
    "tv":1,
    "harsh":1,
    "alexi":1,
    "immediately":1,
    "swearing":1,
    "fiery":1,
    "speaking":1,
    "streets":1,
    "antius":1,
    "area":1,
    "passenger":1,
    "meanwhile":1,
    "slain":1,
    "staten":1,
    "island":1,
    "boneyard":1,
    "bleak":1,
    "salvage":1,
    "yardscrap":1,
    "clearing":1,
    "fresh":1,
    "landfill":1,
    "trash":1,
    "acetylene":1,
    "torches":1,
    "burn":1,
    "water\u2019s":1,
    "derelict":1,
    "boats":1,
    "ships":1,
    "size":1,
    "remained":1,
    "faithful":1,
    "escaped":1,
    "hoped":1,
    "creation":1,
    "unabashed":1,
    "admiration":1,
    "hips":1,
    "enjoying":1,
    "draws":1,
    "anaplastic":1,
    "thyroid":1,
    "months":1,
    "less":1,
    "chernobyl":1,
    "nonetheless":1,
    "shore":1,
    "twentytwo":1,
    "pity":1,
    "decrepit":1,
    "dock":1,
    "striking":1,
    "mid20s":1,
    "thorns":1,
    "tattooed":1,
    "forehead":1,
    "offers":1,
    "board":1,
    "cyrillic":1,
    "writing":1,
    "knuckles":1,
    "reads":1,
    "vasia":1,
    "wolves":1,
    "howl":1,
    "entirely":1,
    "letters":1,
    "ceased":1,
    "worthy":1,
    "adversaries":1,
    "treating":1,
    "adversary":1,
    "respect":1,
    "advantage":1,
    "deserve":1,
    "forgotten":1,
    "companies":1,
    "bought":1,
    "teams":1,
    "dividing":1,
    "coconut":1,
    "tree":1,
    "worrying":1,
    "chechnens":1,
    "defectors":1,
    "london":1,
    "asset":1,
    "rebuild":1,
    "become":1,
    "nations":1,
    "each":1,
    "purposeless":1,
    "iraqis":1,
    "blackmailing":1,
    "ukrainians":1,
    "india":1,
    "honor":1,
    "eases":1,
    "throttle":1,
    "rusted":1,
    "wearing":1,
    "tabula":1,
    "rasa":1,
    "slate":1,
    "soviets":1,
    "intertwined":1,
    "destinies":1,
    "cleansed":1,
    "result":1,
    "soon":1,
    "steady":1,
    "climb":1,
    "welded":1,
    "rungs":1,
    "tetanus":1,
    "happen":1,
    "joined":1,
    "hatch":1,
    "travelling":1,
    "occurs":1,
    "you\u2019ve":1,
    "proved":1,
    "important":1,
    "skirts":1,
    "worklights":1,
    "mobsters":1,
    "ankle":1,
    "chained":1,
    "screaming":1,
    "brain":1,
    "die":1,
    "easy":1,
    "unarmed":1,
    "gangster":1,
    "opening":1,
    "valve":1,
    "matter":1,
    "gushing":1,
    "fast":1,
    "privilege":1,
    "murder":1,
    "addresses":1,
    "strokes":1,
    "cheek":1,
    "possession":1,
    "merely":1,
    "plaything":1,
    "surrogate":1,
    "loneliness":1,
    "truly":1,
    "nasty":1,
    "sinister":1,
    "casually":1,
    "always":1,
    "felt":1,
    "monster":1,
    "created":1,
    "drills":1,
    "tried":1,
    "direct":1,
    "sitting":1,
    "slightest":1,
    "flare":1,
    "neutral":1,
    "passed":1,
    "waters":1,
    "creeps":1,
    "cheeks":1,
    "abyss":1,
    "cabinet":1,
    "joint":1,
    "chiefs":1,
    "representatives":1,
    "helping":1,
    "generate":1,
    "reply":1,
    "sabre":1,
    "rattling":1,
    "brought":1,
    "czech":1,
    "private":1,
    "joke":1,
    "airstrip":1,
    "delaware":1,
    "evening":1,
    "cessna":1,
    "citation":1,
    "touches":1,
    "cessna\u2019s":1,
    "opened":1,
    "returns":1,
    "gesture":1,
    "studies":1,
    "prague":1,
    "karlovy":1,
    "vary":1,
    "vicek\u2019s":1,
    "credentials":1,
    "architectural":1,
    "schematics":1,
    "page":1,
    "subterranean":1,
    "chamber":1,
    "secondary":1,
    "diversionary":1,
    "windshield":1,
    "wipers":1,
    "thwak":1,
    "cabin":1,
    "plane\u2019s":1,
    "members":1,
    "fasten":1,
    "seatbelts":1,
    "\u201cdid":1,
    "that\u201d":1,
    "pounding":1,
    "unlatch":1,
    "belts":1,
    "shout":1,
    "unlatching":1,
    "lid":1,
    "bewildered":1,
    "happened":1,
    "wooded":1,
    "naval":1,
    "research":1,
    "towers":1,
    "loom":1,
    "doublegate":1,
    "\u201cmantrap\u201d":1,
    "system":1,
    "welcome":1,
    "lap":1,
    "equipped":1,
    "satcom":1,
    "teleconference":1,
    "technology":1,
    "conversation":1,
    "chief":1,
    "sec":1,
    "def":1,
    "satellite":1,
    "thermal":1,
    "imaging":1,
    "temperaturedrops":1,
    "mobile":1,
    "units":1,
    "kaliningrad":1,
    "southern":1,
    "baikal":1,
    "exactly":1,
    "fueling":1,
    "rockets":1,
    "assume":1,
    "unless":1,
    "interrupting":1,
    "screening":1,
    "movie":1,
    "posturing":1,
    "meaningful":1,
    "response":1,
    "icbm\u2019s":1,
    "fueled":1,
    "planes":1,
    "surface":1,
    "submarine":1,
    "silo":1,
    "4":1,
    "bases":1,
    "supposed":1,
    "fraternal":1,
    "crises":1,
    "mirrors":1,
    "pop":1,
    "trunk":1,
    "pops":1,
    "redskins":1,
    "playoffs":1,
    "visitor\u2019s":1,
    "badges":1,
    "waved":1,
    "refreshments":1,
    "bill":1,
    "special":1,
    "assistant":1,
    "modulated":1,
    "\u2018male\u2019":1,
    "pleased":1,
    "preview":1,
    "nato\u2019s":1,
    "chirps":1,
    "thirty":1,
    "buffet":1,
    "cia\u2019s":1,
    "assessment":1,
    "assessments":1,
    "weren\u2019t":1,
    "hardliner":1,
    "consolidate":1,
    "reality":1,
    "coupd\u2019etat":1,
    "staffer":1,
    "interrupts":1,
    "offices":1,
    "yesterday":1,
    "alarm":1,
    "bladed":1,
    "toe":1,
    "thigh":1,
    "garrote":1,
    "\u2018kicks\u2019":1,
    "blade":1,
    "releases":1,
    "9mm":1,
    "calmly":1,
    "headquarters":1,
    "spotless":1,
    "record":1,
    "exemplary":1,
    "hindsight":1,
    "parents":1,
    "how\u2019s":1,
    "1988":1,
    "teachers":1,
    "badly":1,
    "hurt":1,
    "crash":1,
    "survived":1,
    "consider":1,
    "exploding":1,
    "88":1,
    "directs":1,
    "upwards":1,
    "rotor":1,
    "hurtle":1,
    "diesel":1,
    "flaming":1,
    "rain":1,
    "clotheslines":1,
    "relieves":1,
    "mentioned":1,
    "they\u2019ll":1,
    "geronimo":1,
    "sop":1,
    "haul":1,
    "assists":1,
    "grips":1,
    "evacuation":1,
    "fights":1,
    "fuel":1,
    "locate":1,
    "physically":1,
    "compels":1,
    "18yearold":1,
    "grabbing":1,
    "shooting":1,
    "fence":1,
    "trees":1,
    "shadowing":1,
    "rumble":1,
    "screams":1,
    "curious":1,
    "pointing":1,
    "flaring":1,
    "grass":1,
    "en":1,
    "route":1,
    "party":1,
    "cat":1,
    "leader":1,
    "golf":1,
    "sandwiching":1,
    "path":1,
    "aimed":1,
    "illuminated":1,
    "cart\u2019s":1,
    "headlights":1,
    "explosion":1,
    "cherokee":1,
    "inbound":1,
    "headlight":1,
    "wave":1,
    "disembark":1,
    "lodge":1,
    "upper":1,
    "escorts":1,
    "hustled":1,
    "punches":1,
    "code":1,
    "receive":1,
    "greets":1,
    "men\u2019s":1,
    "ventilation":1,
    "isn\u2019t":1,
    "difficult":1,
    "mechanics":1,
    "backs":1,
    "rearguard":1,
    "sentry":1,
    "uncoils":1,
    "hangs":1,
    "unleashes":1,
    "wheels":1,
    "tucking":1,
    "gymnast":1,
    "ending":1,
    "remains":1,
    "facial":1,
    "prothesis":1,
    "punched":1,
    "self":1,
    "ringed":1,
    "video":1,
    "cycling":1,
    "showing":1,
    "cnn":1,
    "playing":1,
    "silently":1,
    "techs":1,
    "5x12":1,
    "reinforced":1,
    "larger":1,
    "twoway":1,
    "hearing":1,
    "sorts":1,
    "wild":1,
    "fine":1,
    "flux":1,
    "successor":1,
    "possible":1,
    "chain":1,
    "coup":1,
    "prudent":1,
    "siop":1,
    "reached":1,
    "challie":1,
    "combination":1,
    "zevergreen9x7memphisw6":1,
    "trinidad7jsacopper5t":1,
    "authentication":1,
    "codes":1,
    "attached":1,
    "briefcase\u2019s":1,
    "builtin":1,
    "biometric":1,
    "fingerprints":1,
    "op":1,
    "fill":1,
    "similar":1,
    "pentagon":1,
    "interesting":1,
    "scroll":1,
    "particular":1,
    "semiconscious":1,
    "portal":1,
    "distress":1,
    "clock":1,
    "advancing":1,
    "sling":1,
    "holstered":1,
    "glances":1,
    "ops":1,
    "breached":1,
    "intruder":1,
    "qualified":1,
    "possess":1,
    "firearms":1,
    "vicinity":1,
    "alongside":1,
    "enemy":1,
    "minded":1,
    "warning":1,
    "inward":1,
    "smoothly":1,
    "intercepts":1,
    "ratatat":1,
    "secdef":1,
    "taken":1,
    "astonishment":1,
    "nikolai":1,
    "tarkovsky":1,
    "footsteps":1,
    "runs":1,
    "barrelling":1,
    "discharging":1,
    "drives":1,
    "selective":1,
    "attack":1,
    "industrial":1,
    "civilian":1,
    "targets":1,
    "frightened":1,
    "defiant":1,
    "confided":1,
    "prototype":1,
    "born":1,
    "modelled":1,
    "longed":1,
    "native":1,
    "lincoln":1,
    "memorial":1,
    "deserted":1,
    "whisper":1,
    "abraham":1,
    "deal":1,
    "agrees":1,
    "slugs":1,
    "slammed":1,
    "embedded":1,
    "bulletproof":1,
    "needed":1,
    "tested":1,
    "bullets":1,
    "report":1,
    "descending":1,
    "volume":1,
    "moscow\u2019s":1,
    "initial":1,
    "indicate":1,
    "form":1,
    "temporary":1,
    "paralysis":1,
    "doctors":1,
    "tests":1,
    "toxin":1,
    "beeps":1,
    "lists":1,
    "sao\u2019s":1,
    "target":1,
    "initiate":1,
    "focuses":1,
    "gauging":1,
    "placement":1,
    "regains":1,
    "consciousness":1,
    "wham":1,
    "clips":1,
    "ammo":1,
    "slaps":1,
    "entire":1,
    "aims":1,
    "muzzle":1,
    "rataratatat":1,
    "explode":1,
    "countdown":1,
    "electric":1,
    "wiring":1,
    "pinches":1,
    "strips":1,
    "twist":1,
    "freeze":1,
    "twisting":1,
    "000036":1,
    "crossing":1,
    "shirt":1,
    "shredded":1,
    "tore":1,
    "picks":1,
    "rolls":1,
    "catapults":1,
    "bullet":1,
    "spinning":1,
    "000030":1,
    "tackling":1,
    "consoles":1,
    "voted":1,
    "000007":1,
    "footfalls":1,
    "obeys":1,
    "lifelessly":1,
    "indivisible":1,
    "liberty":1,
    "define":1,
    "\u2018them\u2019":1,
    "trail":1,
    "we\u2019ll":1,
    "trace":1,
    "dissect":1,
    "focused":1,
    "chicken":1,
    "wire":1,
    "struck":1,
    "roundish":1,
    "\u201cspiderwebbed\u201d":1,
    "watched":1,
    "kgb":1,
    "wired":1,
    "liked":1,
    "memorized":1,
    "twig":1,
    "unfolds":1,
    "plan":1,
    "devising":1,
    "thin":1,
    "premeditated":1,
    "journey":1,
    "cool":1,
    "hearted":1,
    "thus":1,
    "discerning":1,
    "attach":1,
    "silken":1,
    "thread":1,
    "returning":1,
    "despite":1,
    "professionalism":1,
    "mourning":1,
    "loved":1,
    "spiderwebbed":1,
    "everywhere":1,
    "name\u2019s":1,
    "absolute":1,
    "jaw":1,
    "tenses":1,
    "grits":1,
    "couldn\u2019t":1,
    "met":1,
    "hydroxocobalamin":1,
    "touched":1,
    "rams":1,
    "uproar":1,
    "pan":1,
    "bright":1,
    "dissolve":1,
    "unyielding":1,
    "tolerably":1,
    "dreary":1,
    "tea":1,
    "bowed":1,
    "tight":1,
    "bun":1,
    "teacup":1,
    "whoever":1,
    "subtly":1,
    "presses":1,
    "disabled":1,
    "eurasian":1,
    "hasn\u2019t":1,
    "vibrant":1,
    "weary":1,
    "falling":1,
    "midair":1,
    "talons":1,
    "increments":1,
    "jet":1,
    "guitar":1,
    "flew":1,
    "miami":1,
    "dreadful":1,
    "folding":2,
    "dc":2,
    "angle":2,
    "few":2,
    "knife":2,
    "tonight":2,
    "perfect":2,
    "inch":2,
    "tough":2,
    "type":2,
    "briefcasebag":2,
    "done":2,
    "crown":2,
    "lily":2,
    "goblet":2,
    "sexy":2,
    "utilitarian":2,
    "public":2,
    "sleep":2,
    "arrives":2,
    "selling":2,
    "using":2,
    "worry":2,
    "thanks":2,
    "detectors":2,
    "swipes":2,
    "happy":2,
    "anniversary":2,
    "thank":2,
    "yale":2,
    "came":2,
    "walkin":2,
    "defector":2,
    "wants":2,
    "asked":2,
    "stripped":2,
    "fluorescents":2,
    "counterintelligence":2,
    "turn":2,
    "case":2,
    "intelligence":2,
    "dangerous":2,
    "types":2,
    "likes":2,
    "longer":2,
    "bottoms\u2019":2,
    "information":2,
    "including":2,
    "oblast":2,
    "counter":2,
    "terrorism":2,
    "unit":2,
    "midlevel":2,
    "bureaucrat":2,
    "wouldn\u2019t":2,
    "anja":2,
    "part":2,
    "group":2,
    "given":2,
    "tour":2,
    "era":2,
    "grip":2,
    "opponent":2,
    "gaze":2,
    "breaks":2,
    "free":2,
    "barely":2,
    "married":2,
    "ceremony":2,
    "eight":2,
    "wracked":2,
    "fact":2,
    "lived":2,
    "administrator":2,
    "enamel":2,
    "former":2,
    "basket":2,
    "military":2,
    "seven":2,
    "pledge":2,
    "allegiance":2,
    "nation":2,
    "killing":2,
    "aware":2,
    "keyboard":2,
    "union":2,
    "nervous":2,
    "thats":2,
    "tumbling":2,
    "worn":2,
    "ends":2,
    "except":2,
    "snapping":2,
    "speznatz":2,
    "brutal":2,
    "elbows":2,
    "cage":2,
    "assumes":2,
    "fighter\u2019s":2,
    "trained":2,
    "fight":2,
    "accept":2,
    "responds":2,
    "flying":2,
    "packs":2,
    "bloody":2,
    "join":2,
    "crunch":2,
    "palest":2,
    "slams":2,
    "crossed":2,
    "motions":2,
    "disappear":2,
    "begin":2,
    "darkness":2,
    "stoic":2,
    "identity":2,
    "teenager":2,
    "operating":2,
    "finality":2,
    "ka8":2,
    "ka":2,
    "tasked":2,
    "york":2,
    "city":2,
    "sleeper":2,
    "however":2,
    "begins":2,
    "softly":2,
    "stunned":2,
    "notice":2,
    "cellphone":2,
    "already":2,
    "spins":2,
    "pick":2,
    "beep":2,
    "whole":2,
    "they\u2019ve":2,
    "mistaken":2,
    "lost":2,
    "south":2,
    "favor":2,
    "clearly":2,
    "trembling":2,
    "check":2,
    "everything\u2019s":2,
    "employees":2,
    "skids":2,
    "breath":2,
    "click":2,
    "mask":2,
    "sliding":2,
    "lowers":2,
    "entry":2,
    "ammonia":2,
    "towels":2,
    "leads":2,
    "fourth":2,
    "fifteen":2,
    "rushes":2,
    "reaching":2,
    "making":2,
    "directly":2,
    "battery":2,
    "keep":2,
    "none":2,
    "handsome":2,
    "reverse":2,
    "mesh":2,
    "lot":2,
    "closely":2,
    "entomology":2,
    "department":2,
    "discovered":2,
    "petebesti":2,
    "famous":2,
    "anyone":2,
    "raising":2,
    "bedbug":2,
    "crowd":2,
    "sometimes":2,
    "weird":2,
    "scratch":2,
    "apartments":2,
    "vans":2,
    "dresser":2,
    "bottom":2,
    "sweep":2,
    "apart":2,
    "yet":2,
    "cuts":2,
    "onto":2,
    "inches":2,
    "shuts":2,
    "ma\u2019am":2,
    "docent":2,
    "completely":2,
    "couple":2,
    "hours":2,
    "mammalogists":2,
    "plexiglas":2,
    "pauses":2,
    "skidding":2,
    "works":2,
    "rifle":2,
    "armed":2,
    "gestures":2,
    "shadows":2,
    "beetle":2,
    "hitting":2,
    "fully":2,
    "sticks":2,
    "lawn":2,
    "sight":2,
    "ducks":2,
    "dermestes":2,
    "vulpinus":2,
    "follows":2,
    "leaps":2,
    "followed":2,
    "keeps":2,
    "why\u2019d":2,
    "might":2,
    "caught":2,
    "expose":2,
    "18":2,
    "wheeler":2,
    "tumbles":2,
    "backwards":2,
    "catch":2,
    "slows":2,
    "speed":2,
    "times":2,
    "jump":2,
    "lanes":2,
    "uses":2,
    "send":2,
    "ramp":2,
    "instead":2,
    "guys":2,
    "jesus":2,
    "blows":2,
    "mastering":2,
    "any":2,
    "dozen":2,
    "waist":2,
    "lip":2,
    "split":2,
    "rusty":2,
    "pipes":2,
    "businesswoman":2,
    "ribs":2,
    "seohan":2,
    "beneath":2,
    "slightly":2,
    "nk":2,
    "interlocutor\u2019s":2,
    "covered":2,
    "prisoner":2,
    "suit":2,
    "days":2,
    "put":2,
    "goddam":2,
    "blinks":2,
    "daughter":2,
    "course":2,
    "government":2,
    "nice":2,
    "asking":2,
    "person":2,
    "justice":2,
    "victims":2,
    "port":2,
    "authority":2,
    "pulled":2,
    "changed":2,
    "modell\u2019s":2,
    "wrist":2,
    "wallet":2,
    "broken":2,
    "present":2,
    "support":2,
    "constitution":2,
    "enemies":2,
    "foreign":2,
    "while":2,
    "langley":2,
    "raised":2,
    "faithfully":2,
    "discharge":2,
    "duties":2,
    "dawn":2,
    "suture":2,
    "different":2,
    "road":2,
    "continue":2,
    "took":2,
    "eyebrows":2,
    "legs":2,
    "pulling":2,
    "fitting":2,
    "early":2,
    "rises":2,
    "stations":2,
    "cops":2,
    "platform":2,
    "assault":2,
    "guarding":2,
    "patrick\u2019":2,
    "checked":2,
    "supervisor":2,
    "aboard":2,
    "housing":2,
    "space":2,
    "salutes":2,
    "called":2,
    "sleeve":2,
    "deliver":2,
    "utility":2,
    "glow":2,
    "maps":2,
    "closes":2,
    "spot":2,
    "flagdraped":2,
    "gave":2,
    "stand":2,
    "maxwell":2,
    "music":2,
    "clicks":2,
    "paradisum":2,
    "requiem":2,
    "dona":2,
    "eis":2,
    "perpetua":2,
    "settles":2,
    "91":2,
    "heel":2,
    "services":2,
    "radiates":2,
    "command":2,
    "converge":2,
    "headset":2,
    "christ":2,
    "lays":2,
    "leaves":2,
    "news":2,
    "folks":2,
    "also":2,
    "button":2,
    "lit":2,
    "listen":2,
    "fighting":2,
    "cuff":2,
    "marked":2,
    "leg":2,
    "rising":2,
    "races":2,
    "cable":2,
    "vertical":2,
    "nature":2,
    "guarded":2,
    "kisses":2,
    "true":2,
    "especially":2,
    "surprised":2,
    "n":2,
    "11":2,
    "doctor":2,
    "martin":2,
    "crenshaw":2,
    "accident":2,
    "kremlin":2,
    "rioting":2,
    "taxi":2,
    "seat":2,
    "assassination":2,
    "burns":2,
    "ran":2,
    "heart":2,
    "soul":2,
    "puts":2,
    "agent\u2019s":2,
    "ussr":2,
    "mean":2,
    "prepared":2,
    "soccer":2,
    "fsb":2,
    "beach":2,
    "barge":2,
    "holster":2,
    "americans":2,
    "ladder":2,
    "perhaps":2,
    "whatever":2,
    "handle":2,
    "truth":2,
    "hears":2,
    "tongue":2,
    "use":2,
    "glance":2,
    "colonel":2,
    "liaison":2,
    "taxis":2,
    "hangar":2,
    "official":2,
    "plane":2,
    "jiri":2,
    "finger":2,
    "primary":2,
    "conference":2,
    "final":2,
    "descent":2,
    "vnukovo":2,
    "airport":2,
    "alive":2,
    "sign":2,
    "stock":2,
    "national":2,
    "advisor":2,
    "missile":2,
    "squeezes":2,
    "read":2,
    "served":2,
    "sergeant":2,
    "care":2,
    "drive":2,
    "screw":2,
    "intel":2,
    "officer\u2019s":2,
    "burning":2,
    "wreckage":2,
    "grounds":2,
    "tosses":2,
    "lboc":2,
    "green":2,
    "everyone":2,
    "cart":2,
    "bouncing":2,
    "aspen":2,
    "safe":2,
    "cruises":2,
    "vent":2,
    "rolling":2,
    "crouch":2,
    "wipes":2,
    "operations":2,
    "views":2,
    "director":2,
    "medford":2,
    "dan":2,
    "confirmed":2,
    "panel":2,
    "palm":2,
    "barrel":2,
    "pistol":2,
    "jenks\u2019":2,
    "twice":2,
    "console":2,
    "shots":2,
    "unloads":2,
    "rounds":2,
    "together":2,
    "knocking":2,
    "save":2,
    "crack":2,
    "vow":2,
    "where\u2019d":2,
    "webs":2,
    "poem":2,
    "cyanide":2,
    "fade":2,
    "woman":2,
    "boac":2,
    "checks":3,
    "computer":3,
    "dinner":3,
    "finishes":3,
    "duncan":3,
    "pretty":3,
    "guy":3,
    "died":3,
    "better":3,
    "wish":3,
    "summit":3,
    "tomorrow":3,
    "made":3,
    "money":3,
    "position":3,
    "map":3,
    "ev":3,
    "guess":3,
    "won\u2019t":3,
    "strange":3,
    "talk":3,
    "concrete":3,
    "neural":3,
    "female":3,
    "cigarette":3,
    "secrets":3,
    "truthful":3,
    "myself":3,
    "fear":3,
    "7":3,
    "shows":3,
    "let\u2019s":3,
    "english":3,
    "named":3,
    "facility":3,
    "municipal":3,
    "wife":3,
    "mother":3,
    "flashes":3,
    "star":3,
    "background":3,
    "rules":3,
    "boys":3,
    "focus":3,
    "republic":3,
    "without":3,
    "hope":3,
    "image":3,
    "old":3,
    "middle":3,
    "adult":3,
    "fall":3,
    "stance":3,
    "instructor":3,
    "carrying":3,
    "line":3,
    "cross":3,
    "familiar":3,
    "greater":3,
    "within":3,
    "loyalty":3,
    "morning":3,
    "kiss":3,
    "zykov\u2019s":3,
    "far":3,
    "mission":3,
    "vice":3,
    "solemnly":3,
    "best":3,
    "duty":3,
    "taking":3,
    "number":3,
    "phone":3,
    "message":3,
    "sounds":3,
    "call":3,
    "fuck":3,
    "korea":3,
    "leading":3,
    "piece":3,
    "swear":3,
    "turning":3,
    "exits":3,
    "locked":3,
    "main":3,
    "scanner":3,
    "instantly":3,
    "knows":3,
    "hold":3,
    "knock":3,
    "rifles":3,
    "finds":3,
    "charge":3,
    "headed":3,
    "realize":3,
    "hair":3,
    "talking":3,
    "history":3,
    "many":3,
    "excuse":3,
    "species":3,
    "mine":3,
    "border":3,
    "though":3,
    "where\u2019s":3,
    "ellington":3,
    "pull":3,
    "roll":3,
    "lobby":3,
    "3":3,
    "apartment":3,
    "problem":3,
    "living":3,
    "rests":3,
    "people":3,
    "we\u2019ve":3,
    "human":3,
    "clean":3,
    "tank":3,
    "large":3,
    "vats":3,
    "seems":3,
    "cars":3,
    "meeting":3,
    "aiming":3,
    "things":3,
    "faces":3,
    "dashes":3,
    "straight":3,
    "too":3,
    "country":3,
    "box":3,
    "lands":3,
    "oh":3,
    "friend":3,
    "whump":3,
    "cell":3,
    "overhead":3,
    "waits":3,
    "lifts":3,
    "chin":3,
    "forth":3,
    "grins":3,
    "exchange":3,
    "lock":3,
    "understand":3,
    "started":3,
    "wrong":3,
    "walks":3,
    "yes":3,
    "hotel":3,
    "stepping":3,
    "defend":3,
    "domestic":3,
    "repeat":3,
    "words":3,
    "needs":3,
    "mirror":3,
    "duct":3,
    "guards":3,
    "kevlar":3,
    "greatest":3,
    "scanning":3,
    "51st":3,
    "59th":3,
    "deep":3,
    "west":3,
    "choir":3,
    "listens":3,
    "pulpit":3,
    "dull":3,
    "throb":3,
    "status":3,
    "aeternam":3,
    "appears":3,
    "quietly":3,
    "central":3,
    "silence":3,
    "saw":3,
    "something\u2019s":3,
    "dropping":3,
    "situation":3,
    "flash":3,
    "stay":3,
    "flight":3,
    "helicopter":3,
    "launch":3,
    "kick":3,
    "peabody\u2019s":3,
    "used":3,
    "deck":3,
    "firing":3,
    "must":3,
    "freedom":3,
    "embassy":3,
    "kills":3,
    "motorboat":3,
    "least":3,
    "stopped":3,
    "view":3,
    "taps":3,
    "checkpoint":3,
    "briefing":3,
    "president\u2019s":3,
    "defcon":3,
    "gate":3,
    "social":3,
    "hayes":3,
    "gunfire":3,
    "lower":3,
    "screens":3,
    "loyal":3,
    "clip":3,
    "torn":3,
    "wires":3,
    "teeth":3,
    "napkin":4,
    "half":4,
    "diversified":4,
    "petroleum":4,
    "washington":4,
    "third":4,
    "unaware":4,
    "slides":4,
    "doing":4,
    "photo":4,
    "walk":4,
    "than":4,
    "i\u2019d":4,
    "led":4,
    "full":4,
    "metal":4,
    "leave":4,
    "hurries":4,
    "direction":4,
    "ago":4,
    "officer":4,
    "i\u2019ll":4,
    "interrogation":4,
    "sorry":4,
    "moved":4,
    "mind":4,
    "stories":4,
    "others":4,
    "nurekyova":4,
    "year":4,
    "these":4,
    "program":4,
    "gold":4,
    "red":4,
    "house":4,
    "windows":4,
    "show":4,
    "makes":4,
    "enough":4,
    "flat":4,
    "ass":4,
    "tears":4,
    "six":4,
    "foot":4,
    "kicks":4,
    "blue":4,
    "switch":4,
    "rest":4,
    "both":4,
    "try":4,
    "seen":4,
    "heads":4,
    "moves":4,
    "speaks":4,
    "steel":4,
    "power":4,
    "tactical":4,
    "seconds":4,
    "make":4,
    "hole":4,
    "between":4,
    "winter\u2019s":4,
    "nearly":4,
    "miss":4,
    "smithsonian":4,
    "live":4,
    "web":4,
    "blood":4,
    "burt":4,
    "passing":4,
    "reveal":4,
    "moving":4,
    "empty":4,
    "there\u2019s":4,
    "recognizes":4,
    "sit":4,
    "crying":4,
    "either":4,
    "arm":4,
    "stripping":4,
    "low":4,
    "front":4,
    "van":4,
    "swings":4,
    "eye":4,
    "edge":4,
    "switches":4,
    "closing":4,
    "figure":4,
    "jumps":4,
    "duffle":4,
    "highway":4,
    "let":4,
    "believe":4,
    "hit":4,
    "react":4,
    "detail":4,
    "chair":4,
    "bay":4,
    "oil":4,
    "flips":4,
    "guns":4,
    "subway":4,
    "closed":4,
    "mouth":4,
    "pass":4,
    "coffin":4,
    "earpiece":4,
    "patrick\u2019s":4,
    "unconscious":4,
    "further":4,
    "footage":4,
    "traitor":4,
    "else":4,
    "ceiling":4,
    "moscow":4,
    "privyet":4,
    "sure":4,
    "uniform":4,
    "chalmers":4,
    "protocol":4,
    "options":4,
    "control":4,
    "simmons":4,
    "fires":4,
    "speak":4,
    "really":5,
    "tries":5,
    "great":5,
    "years":5,
    "found":5,
    "reports":5,
    "force":5,
    "id":5,
    "you\u2019ll":5,
    "didn\u2019t":5,
    "heard":5,
    "scan":5,
    "short":5,
    "story":5,
    "oleg":5,
    "thinking":5,
    "says":5,
    "same":5,
    "staff":5,
    "chance":5,
    "chenkov\u2019s":5,
    "own":5,
    "body":5,
    "america":5,
    "beyond":5,
    "flag":5,
    "goddamn":5,
    "landing":5,
    "trying":5,
    "knees":5,
    "watch":5,
    "knee":5,
    "men":5,
    "lead":5,
    "means":5,
    "frame":5,
    "shut":5,
    "i\u2019ve":5,
    "spy":5,
    "mike\u2019s":5,
    "blow":5,
    "husband":5,
    "entrance":5,
    "hub":5,
    "disappears":5,
    "timer":5,
    "air":5,
    "several":5,
    "stairs":5,
    "shaft":5,
    "find":5,
    "lights":5,
    "ready":5,
    "ten":5,
    "hell":5,
    "moment":5,
    "beetles":5,
    "federal":5,
    "north":5,
    "below":5,
    "rig":5,
    "beside":5,
    "reacting":5,
    "reach":5,
    "russians":5,
    "himself":5,
    "chinese":5,
    "station":5,
    "once":5,
    "love":5,
    "points":5,
    "checking":5,
    "sets":5,
    "bed":5,
    "light":5,
    "train":5,
    "patricks":5,
    "coned":5,
    "hardhat":5,
    "muffled":5,
    "crypts":5,
    "crypt":5,
    "follow":5,
    "chest":5,
    "high":5,
    "leans":5,
    "barisovsky":5,
    "gives":5,
    "basayev":5,
    "water":5,
    "cerny":5,
    "mil":5,
    "aide":5,
    "briefcase":5,
    "miller":5,
    "uzi":5,
    "fold":6,
    "ted":6,
    "watches":6,
    "big":6,
    "knew":6,
    "every":6,
    "frowns":6,
    "comes":6,
    "funeral":6,
    "huh":6,
    "guard":6,
    "fucking":6,
    "stares":6,
    "cancer":6,
    "anything":6,
    "getting":6,
    "please":6,
    "grozny":6,
    "soviet":6,
    "hers":6,
    "united":6,
    "states":6,
    "god":6,
    "never":6,
    "run":6,
    "falls":6,
    "raises":6,
    "everything":6,
    "boris":6,
    "oates":6,
    "catches":6,
    "surveillance":6,
    "watching":6,
    "tech":6,
    "gas":6,
    "sound":6,
    "museum":6,
    "spiders":6,
    "woodhall":6,
    "pulls":6,
    "okay":6,
    "dark":6,
    "roof":6,
    "herself":6,
    "sedan":6,
    "maelev\u2019s":6,
    "considers":6,
    "musclebound":6,
    "meet":6,
    "gets":6,
    "transport":6,
    "fire":6,
    "major":6,
    "vicek":6,
    "table":7,
    "desk":7,
    "say":7,
    "leaving":7,
    "world":7,
    "thing":7,
    "near":7,
    "clear":7,
    "enter":7,
    "sir":7,
    "minutes":7,
    "cover":7,
    "give":7,
    "along":7,
    "reacts":7,
    "sits":7,
    "start":7,
    "nothing":7,
    "war":7,
    "being":7,
    "alone":7,
    "voice":7,
    "place":7,
    "gone":7,
    "taught":7,
    "cry":7,
    "feet":7,
    "children":7,
    "drops":7,
    "comrade":7,
    "american":7,
    "until":7,
    "today":7,
    "could":7,
    "shit":7,
    "someone":7,
    "camera":7,
    "radio":7,
    "shot":7,
    "remember":7,
    "much":7,
    "close":7,
    "almost":7,
    "five":7,
    "late":7,
    "afternoon":7,
    "above":7,
    "bag":7,
    "korean":7,
    "interlocutor":7,
    "throat":7,
    "marine":7,
    "lady":7,
    "sigsauer":7,
    "blam":7,
    "paper":8,
    "top":8,
    "does":8,
    "inside":8,
    "take":8,
    "those":8,
    "waiting":8,
    "help":8,
    "bottoms":8,
    "young":8,
    "our":8,
    "cia":8,
    "can\u2019t":8,
    "takes":8,
    "holds":8,
    "mr":8,
    "point":8,
    "building":8,
    "child":8,
    "hospital":8,
    "told":8,
    "you\u2019re":8,
    "hits":8,
    "forward":8,
    "ground":8,
    "continues":8,
    "set":8,
    "kill":8,
    "they\u2019re":8,
    "corridor":8,
    "running":8,
    "shakes":8,
    "answer":8,
    "killed":8,
    "may":8,
    "four":8,
    "even":8,
    "cathedral":8,
    "lima":8,
    "zulu":8,
    "move":8,
    "standing":8,
    "window":9,
    "stops":9,
    "shoulder":9,
    "hall":9,
    "why":9,
    "hard":9,
    "maybe":9,
    "ever":9,
    "tell":9,
    "were":9,
    "russia":9,
    "ring":9,
    "step":9,
    "reaches":9,
    "goes":9,
    "said":9,
    "because":9,
    "against":9,
    "white":9,
    "work":9,
    "spider":9,
    "should":9,
    "girl":9,
    "thought":9,
    "ahead":9,
    "what\u2019s":9,
    "past":9,
    "coming":9,
    "bunker":9,
    "new":10,
    "got":10,
    "life":10,
    "cold":10,
    "toward":10,
    "finally":10,
    "tunnel":10,
    "wall":10,
    "office":11,
    "very":11,
    "time":11,
    "need":11,
    "more":11,
    "good":11,
    "come":11,
    "corner":11,
    "we\u2019re":11,
    "smiles":11,
    "dead":11,
    "its":11,
    "which":11,
    "end":11,
    "car":11,
    "next":11,
    "doors":11,
    "want":11,
    "home":11,
    "grabs":11,
    "street":11,
    "gun":11,
    "salt\u2019s":11,
    "glass":11,
    "second":11,
    "st":11,
    "some":11,
    "nato":11,
    "evelyn":12,
    "last":12,
    "hallway":12,
    "camp":12,
    "did":12,
    "name":12,
    "stop":12,
    "opens":12,
    "enters":12,
    "when":12,
    "hear":12,
    "under":12,
    "going":12,
    "team":12,
    "sees":12,
    "around":12,
    "center":12,
    "right":13,
    "outside":13,
    "steps":13,
    "had":13,
    "am":13,
    "long":13,
    "doesn\u2019t":13,
    "heavy":13,
    "little":13,
    "left":13,
    "us":13,
    "well":14,
    "starts":14,
    "david":14,
    "face":14,
    "after":14,
    "floor":14,
    "black":14,
    "look":15,
    "how":15,
    "hands":15,
    "stands":15,
    "see":15,
    "or":15,
    "like":15,
    "would":15,
    "another":15,
    "elevator":15,
    "three":15,
    "jenks":15,
    "think":16,
    "nods":16,
    "security":16,
    "suddenly":16,
    "before":16,
    "again":16,
    "service":16,
    "only":17,
    "man":17,
    "something":17,
    "across":17,
    "beat":17,
    "behind":17,
    "shnaider":17,
    "that\u2019s":17,
    "screen":18,
    "go":18,
    "secret":18,
    "open":18,
    "hand":19,
    "turns":19,
    "don\u2019t":20,
    "know":20,
    "been":20,
    "where":20,
    "away":20,
    "can":20,
    "other":20,
    "if":21,
    "no":21,
    "first":21,
    "still":21,
    "side":22,
    "it\u2019s":22,
    "maelev":22,
    "off":22,
    "he\u2019s":23,
    "looking":23,
    "their":23,
    "an":24,
    "ext":24,
    "so":25,
    "your":25,
    "has":26,
    "eyes":26,
    "head":26,
    "night":26,
    "way":27,
    "mike":27,
    "get":27,
    "agents":27,
    "now":28,
    "she\u2019s":29,
    "i\u2019m":29,
    "who":29,
    "about":29,
    "room":30,
    "will":30,
    "just":31,
    "by":31,
    "here":32,
    "do":34,
    "russian":34,
    "through":34,
    "agent":36,
    "this":37,
    "there":37,
    "them":37,
    "over":39,
    "was":39,
    "two":39,
    "my":39,
    "but":40,
    "chenkov":40,
    "have":44,
    "all":44,
    "peabody":45,
    "president":45,
    "zykov":46,
    "then":47,
    "be":47,
    "what":49,
    "door":51,
    "into":52,
    "looks":52,
    "are":53,
    "not":53,
    "one":55,
    "me":58,
    "day":59,
    "back":61,
    "from":62,
    "we":63,
    "down":64,
    "that":65,
    "int":66,
    "winter":66,
    "with":68,
    "for":69,
    "they":69,
    "him":73,
    "out":74,
    "up":75,
    "cut":97,
    "is":108,
    "it":110,
    "he":115,
    "at":116,
    "she":131,
    "i":134,
    "his":137,
    "on":150,
    "her":160,
    "":170,
    "you":180,
    "salt":182,
    "as":188,
    "in":195,
    "of":195,
    "and":229,
    "a":388,
    "to":418,
    "the":936
}