{
    "violins":1,
    "treat":1,
    "familiar":1,
    "opening":1,
    "male":1,
    "shadows":1,
    "purposeful":1,
    "whipping":1,
    "town":1,
    "skittishly":1,
    "circles":1,
    "bustling":1,
    "swoops":1,
    "lavish":1,
    "gardens":1,
    "tenyearold":1,
    "lush":1,
    "version":1,
    "picnic":1,
    "cups":1,
    "acorns":1,
    "chest":1,
    "halfsmile":1,
    "threatening":1,
    "concentrated":1,
    "brow":1,
    "furrowed":1,
    "sudden":1,
    "blossoms":1,
    "changed":1,
    "due":1,
    "respect":1,
    "terms":1,
    "faculty":1,
    "exceedingly":1,
    "confident":1,
    "decision":1,
    "capabilities":1,
    "diarmuids":1,
    "visibly":1,
    "sag":1,
    "frustrated":1,
    "verbal":1,
    "neonate":1,
    "sue":1,
    "penny":1,
    "reciprocated":1,
    "shell":1,
    "cavorting":1,
    "twinkling":1,
    "careening":1,
    "kamikaze":1,
    "agreed":1,
    "stipulations":1,
    "approval":1,
    "pay":1,
    "bills":1,
    "believed":1,
    "afford":1,
    "huffs":1,
    "rug":1,
    "collaborate":1,
    "telephone":1,
    "unless":1,
    "grant":1,
    "somewhere":1,
    "giggles":1,
    "shirley":1,
    "prunella":1,
    "special":1,
    "positive":1,
    "beheaded":1,
    "losing":1,
    "highness":1,
    "royal":1,
    "mc":1,
    "featherfluffy":1,
    "gallops":1,
    "neighing":1,
    "adventure":1,
    "space":1,
    "greedy":1,
    "madam":1,
    "corresponding":1,
    "flights":1,
    "closing":1,
    "moments":1,
    "`i":1,
    "infant":1,
    "jolly":1,
    "watery":1,
    "stroll":1,
    "gift":1,
    "bus":1,
    "lead":1,
    "andrew":1,
    "leash":1,
    "case":1,
    "passersby":1,
    "tut":1,
    "noisy":1,
    "display":1,
    "march":1,
    "stays":1,
    "longingly":1,
    "storing":1,
    "uniformed":1,
    "beaming":1,
    "angels":1,
    "sneers":1,
    "nevermind":1,
    "preposterous":1,
    "sniffs":1,
    "smells":1,
    "jasmine":1,
    "chlorine":1,
    "sweat":1,
    "chuckles":1,
    "brand":1,
    "conditioning":1,
    "system":1,
    "missus":1,
    "cool":1,
    "engerland":1,
    "cars":1,
    "days":1,
    "almighty":1,
    "presses":1,
    "button":1,
    "passenger":1,
    "miraculously":1,
    "relieving":1,
    "natter":1,
    "items":1,
    "cases":1,
    "hang":1,
    "wardrobe":1,
    "handle":1,
    "garments":1,
    "employment":1,
    "launderette":1,
    "porter":1,
    "flick":1,
    "ludicrous":1,
    "suite":1,
    "beyond":1,
    "classy":1,
    "decor":1,
    "diminished":1,
    "array":1,
    "splattered":1,
    "champagne":1,
    "exotic":1,
    "baskets":1,
    "chocolates":1,
    "posters":1,
    "cuddly":1,
    "donald":1,
    "pluto":1,
    "minnie":1,
    "toys":1,
    "entire":1,
    "imaginable":1,
    "nope":1,
    "disgust":1,
    "basket":1,
    "rushing":1,
    "enormous":1,
    "wave":1,
    "panic":1,
    "washes":1,
    "fresh":1,
    "greeted":1,
    "dry":1,
    "arid":1,
    "heat":1,
    "dazzling":1,
    "sunlight":1,
    "palace":1,
    "complete":1,
    "steed":1,
    "build":1,
    "memories":1,
    "angel":1,
    "trusting":1,
    "scatter":1,
    "surrounding":1,
    "land":1,
    "miles":1,
    "bomb":1,
    "disturbs":1,
    "tranquil":1,
    "rise":1,
    "throwing":1,
    "swimmerfree":1,
    "swimming":1,
    "pool":1,
    "riddance":1,
    "sigh":1,
    "lord":1,
    "wall":1,
    "restless":1,
    "length":1,
    "admiring":1,
    "angle":1,
    "explores":1,
    "contours":1,
    "unlined":1,
    "vanity":1,
    "snort":1,
    "flatterer":1,
    "attention":1,
    "remote":1,
    "control":1,
    "bemusement":1,
    "hitting":1,
    "random":1,
    "buttons":1,
    "clicks":1,
    "housewife":1,
    "advertises":1,
    "greatest":1,
    "invented":1,
    "brains":1,
    "channel":1,
    "blankly":1,
    "realizes":1,
    "moustached":1,
    "ringing":1,
    "pixie":1,
    "human":1,
    "tinkerbell":1,
    "tink":1,
    "same":1,
    "yours":1,
    "surprised":1,
    "particular":1,
    "responsible":1,
    "miraculous":1,
    "dawning":1,
    "california":1,
    "madame":1,
    "grimaces":1,
    "accountable":1,
    "emotion":1,
    "zip":1,
    "okey":1,
    "dokey":1,
    "starts":1,
    "engine":1,
    "drives":1,
    "discomfiting":1,
    "perfect":1,
    "stranger":1,
    "apologize":1,
    "coscriptwriter":1,
    "having":1,
    "digraydi":1,
    "flash":1,
    "fu":1,
    "acquainted":1,
    "lend":1,
    "chirping":1,
    "prancing":1,
    "started":1,
    "finished":1,
    "briskly":1,
    "humanly":1,
    "planned":1,
    "tour":1,
    "studio":1,
    "wanted":1,
    "building":1,
    "trav":1,
    "hurries":1,
    "murder":1,
    "amusing":1,
    "couple":1,
    "bounce":1,
    "golf":1,
    "cart":1,
    "waving":1,
    "brightly":1,
    "goofy":1,
    "recoils":1,
    "bouncing":1,
    "di":1,
    "meaning":1,
    "`beat":1,
    "ghastly":1,
    "arrived":1,
    "terse":1,
    "tone":1,
    "advice":1,
    "heed":1,
    "wow":1,
    "uhm":1,
    "basis":1,
    "serenely":1,
    "greet":1,
    "gal":1,
    "excited":1,
    "extends":1,
    "formal":1,
    "manages":1,
    "embrace":1,
    "squeezes":1,
    "struggles":1,
    "compose":1,
    "decades":1,
    "hum":1,
    "`mister":1,
    "mournful":1,
    "`old":1,
    "links":1,
    "chagrin":1,
    "interior":1,
    "imposing":1,
    "cabinet":1,
    "bursting":1,
    "academy":1,
    "l":1,
    "whisked":1,
    "personal":1,
    "comfy":1,
    "couch":1,
    "corner":1,
    "glancing":1,
    "above":1,
    "gazing":1,
    "`em":1,
    "coulda":1,
    "lean":1,
    "whippet":1,
    "race":1,
    "interestingly":1,
    "pull":1,
    "shortening":1,
    "eat":1,
    "appropriate":1,
    "photo":1,
    "sharon":1,
    "seven":1,
    "coffee":1,
    "soda":1,
    "welc":1,
    "embers":1,
    "burned":1,
    "since":1,
    "mightve":1,
    "kept":1,
    "dangling":1,
    "dangled":1,
    "rope":1,
    "fashioned":1,
    "wasnt":1,
    "sale":1,
    "later":1,
    "annum":1,
    "subsequent":1,
    "18":1,
    "honestly":1,
    "corralled":1,
    "ensnared":1,
    "honourable":1,
    "guys":1,
    "revolutionary":1,
    "revolutionarypam":1,
    "rubs":1,
    "lived":1,
    "glad":1,
    "addressing":1,
    "scolded":1,
    "jug":1,
    "stirs":1,
    "anxiously":1,
    "recitations":1,
    "jig":1,
    "frivolous":1,
    "wholly":1,
    "unnecessary":1,
    "governess":1,
    "educatress":1,
    "ruin":1,
    "baffled":1,
    "disgusting":1,
    "spits":1,
    "surreptitiously":1,
    "jaw":1,
    "sharp":1,
    "`silly":1,
    "plasters":1,
    "knock":1,
    "socks":1,
    "exist":1,
    "knowing":1,
    "bet":1,
    "smirks":1,
    "object":1,
    "tarnish":1,
    "cherished":1,
    "closer":1,
    "awkward":1,
    "worn":1,
    "tissue":1,
    "eared":1,
    "poured":1,
    "gripped":1,
    "tormented":1,
    "torn":1,
    "captivating":1,
    "barking":1,
    "happens":1,
    "extricates":1,
    "approved":1,
    "agent":1,
    "dermot":1,
    "darmitt":1,
    "discussions":1,
    "document":1,
    "joviality":1,
    "bright":1,
    "demeanour":1,
    "vanishes":1,
    "hanging":1,
    "mid":1,
    "astride":1,
    "model":1,
    "purposefully":1,
    "asleep":1,
    "pipe":1,
    "cheek":1,
    "strokes":1,
    "unseen":1,
    "watching":1,
    "parents":1,
    "pats":1,
    "knee":1,
    "vase":1,
    "jollification":1,
    "t":1,
    "shoots":1,
    "killer":1,
    "ravers":1,
    "starving":1,
    "benefaction":1,
    "vulgar":1,
    "giant":1,
    "bouquet":1,
    "plops":1,
    "butchered":1,
    "nasal":1,
    "enjoyment":1,
    "easily":1,
    "looked":1,
    "gazed":1,
    "happily":1,
    "minding":1,
    "alive":1,
    "retakes":1,
    "flicks":1,
    "duly":1,
    "glasses":1,
    "cover":1,
    "rustling":1,
    "men":1,
    "abbreviation":1,
    "practise":1,
    "readings":1,
    "dumbstruck":1,
    "pencils":1,
    "swirling":1,
    "onwards":1,
    "interrupted":1,
    "joke":1,
    "comedienne":1,
    "gingerly":1,
    "distributing":1,
    "biscuits":1,
    "within":1,
    "reachable":1,
    "decides":1,
    "rumour":1,
    "hmmm":1,
    "utterly":1,
    "olivier":1,
    "burton":1,
    "guinness":1,
    "question":1,
    "gathering":1,
    "extemporized":1,
    "pounds":1,
    "gusto":1,
    "acting":1,
    "occasionally":1,
    "eyeing":1,
    "reaction":1,
    "everyones":1,
    "unmake":1,
    "hides":1,
    "entitled":1,
    "ta":1,
    "de":1,
    "ay":1,
    "admiral":1,
    "crunch":1,
    "irresponstable":1,
    "metre":1,
    "square":1,
    "hole":1,
    "filled":1,
    "pond":1,
    "wooden":1,
    "clothespeg":1,
    "bandstand":1,
    "hooves":1,
    "ahhh":1,
    "velvety":1,
    "muzzle":1,
    "neck":1,
    "secret":1,
    "miserable":1,
    "horrid":1,
    "hated":1,
    "lie":1,
    "dream":1,
    "matching":1,
    "ribbons":1,
    "bosom":1,
    "ring":1,
    "hauls":1,
    "backwards":1,
    "firmly":1,
    "waist":1,
    "spreads":1,
    "gee":1,
    "kicks":1,
    "trot":1,
    "canter":1,
    "squeals":1,
    "delight":1,
    "refusing":1,
    "terraced":1,
    "bricked":1,
    "crack":1,
    "gable":1,
    "frames":1,
    "leadlined":1,
    "flower":1,
    "nasturtiums":1,
    "gesturing":1,
    "mistake":1,
    "grand":1,
    "aristocrats":1,
    "interesting":1,
    "lingers":1,
    "parrot":1,
    "recognition":1,
    "suffragette":1,
    "emmeline":1,
    "adjective":1,
    "possibly":1,
    "`oh":1,
    "strange":1,
    "spend":1,
    "neglectful":1,
    "felt":1,
    "taken":1,
    "meaningful":1,
    "soften":1,
    "cynthia":1,
    "unlucky":1,
    "curly":1,
    "wurly":1,
    "cuckoo":1,
    "warm":1,
    "sexy":1,
    "choke":1,
    "`sexy":1,
    "mavis":1,
    "sybil":1,
    "prudence":1,
    "gwendolyn":1,
    "abruptly":1,
    "utter":1,
    "crosses":1,
    "ahm":1,
    "moustaches":1,
    "illustrator":1,
    "facial":1,
    "chose":1,
    "specific":1,
    "request":1,
    "acknowledge":1,
    "flushes":1,
    "shaven":1,
    "unashamed":1,
    "moan":1,
    "mattterrrrrrr":1,
    "ordering":1,
    "stunned":1,
    "stifles":1,
    "surprising":1,
    "expect":1,
    "drama":1,
    "prefer":1,
    "gintamina":1,
    "scratchy":1,
    "silky":1,
    "infernal":1,
    "step":1,
    "scream":1,
    "cake":1,
    "`see":1,
    "pad":1,
    "approve":1,
    "giggle":1,
    "sketches":1,
    "romance":1,
    "moustache":1,
    "measure":1,
    "uses":1,
    "record":1,
    "micheals":1,
    "roll":1,
    "ruler":1,
    "add":1,
    "gravi":1,
    "gahd":1,
    "vegetables":1,
    "broth":1,
    "agape":1,
    "petes":1,
    "buses":1,
    "guards":1,
    "uniforms":1,
    "flag":1,
    "predicament":1,
    "antired":1,
    "wearing":1,
    "locks":1,
    "test":1,
    "requiring":1,
    "proof":1,
    "badly":1,
    "create":1,
    "averts":1,
    "embarrassed":1,
    "`creating":1,
    "recovers":1,
    "stipulation":1,
    "denied":1,
    "quits":1,
    "broad":1,
    "insisting":1,
    "musicality":1,
    "important":1,
    "ditties":1,
    "mood":1,
    "choice":1,
    "position":1,
    "deman":1,
    "cheery":1,
    "disposition":1,
    "warts":1,
    "games":1,
    "sorts":1,
    "fairly":1,
    "outings":1,
    "defeats":1,
    "cross":1,
    "cast":1,
    "castor":1,
    "oil":1,
    "son":1,
    "smell":1,
    "smelling":1,
    "scold":1,
    "cause":1,
    "strong":1,
    "wor":1,
    "hide":1,
    "spectacles":1,
    "nobodys":1,
    "listening":1,
    "toads":1,
    "pepper":1,
    "sincerely":1,
    "tucked":1,
    "clasped":1,
    "body":1,
    "patiently":1,
    "beside":1,
    "disturb":1,
    "scotch":1,
    "mist":1,
    "canny":1,
    "observation":1,
    "missing":1,
    "female":1,
    "species":1,
    "psychic":1,
    "insight":1,
    "glamorous":1,
    "coiffured":1,
    "different":1,
    "practical":1,
    "arrives":1,
    "balm":1,
    "patron":1,
    "swiftly":1,
    "teapot":1,
    "drained":1,
    "customers":1,
    "talks":1,
    "customer":1,
    "setting":1,
    "awkwardly":1,
    "perched":1,
    "worker":1,
    "tips":1,
    "gentleman":1,
    "cashiers":1,
    "posts":1,
    "courteously":1,
    "startled":1,
    "crash":1,
    "etching":1,
    "complained":1,
    "opened":1,
    "stupid":1,
    "hahaaa":1,
    "yknow":1,
    "clerk":1,
    "hatchett":1,
    "dumb":1,
    "lambs":1,
    "downs":1,
    "calving":1,
    "roast":1,
    "wields":1,
    "glinting":1,
    "letter":1,
    "opener":1,
    "stabbing":1,
    "piles":1,
    "filing":1,
    "cabinets":1,
    "desks":1,
    "dropping":1,
    "bairns":1,
    "widen":1,
    "whoops":1,
    "reveal":1,
    "side":1,
    "felled":1,
    "overcome":1,
    "embarrassment":1,
    "guilt":1,
    "straighten":1,
    "irresponsible":1,
    "rare":1,
    "siberian":1,
    "cows":1,
    "celtic":1,
    "itll":1,
    "bite":1,
    "eh":1,
    "breathless":1,
    "patch":1,
    "meant":1,
    "jumper":1,
    "suffice":1,
    "bringing":1,
    "stuffy":1,
    "attacked":1,
    "subconscious":1,
    "punishing":1,
    "entertaining":1,
    "serves":1,
    "drags":1,
    "under":1,
    "clinging":1,
    "slogan":1,
    "prescription":1,
    "stitch":1,
    "apple":1,
    "tide":1,
    "jeff":1,
    "vaccination":1,
    "yesterday":1,
    "cube":1,
    "cubes":1,
    "laws":1,
    "sharing":1,
    "pavement":1,
    "filters":1,
    "rehearsal":1,
    "unexpected":1,
    "bannisters":1,
    "try":1,
    "b":1,
    "pencil":1,
    "marks":1,
    "sketching":1,
    "cough":1,
    "signals":1,
    "imminent":1,
    "arrival":1,
    "forest":1,
    "enter":1,
    "duuuum":1,
    "whistles":1,
    "robins":1,
    "iconic":1,
    "enormously":1,
    "patronising":1,
    "annoying":1,
    "themed":1,
    "daresay":1,
    "carefree":1,
    "encouraging":1,
    "unarmed":1,
    "spoon":1,
    "brain":1,
    "fluff":1,
    "equipped":1,
    "tools":1,
    "deflated":1,
    "unlike":1,
    "enemy":1,
    "truthful":1,
    "coat":1,
    "prepares":1,
    "deals":1,
    "honesty":1,
    "magically":1,
    "itself":1,
    "flim":1,
    "flam":1,
    "reality":1,
    "flings":1,
    "weight":1,
    "flutter":1,
    "spread":1,
    "sends":1,
    "saving":1,
    "chasing":1,
    "squawks":1,
    "flaps":1,
    "wings":1,
    "escape":1,
    "catching":1,
    "early":1,
    "buts":1,
    "goats":1,
    "dips":1,
    "extra":1,
    "hours":1,
    "spies":1,
    "clucking":1,
    "demon":1,
    "horrendiferous":1,
    "east":1,
    "tearing":1,
    "treading":1,
    "wash":1,
    "dirty":1,
    "squealing":1,
    "giggling":1,
    "retrieve":1,
    "discarded":1,
    "whisky":1,
    "protruding":1,
    "sight":1,
    "sergeant":1,
    "beast":1,
    "dives":1,
    "hapless":1,
    "bird":1,
    "pecks":1,
    "soundly":1,
    "scarpers":1,
    "evasive":1,
    "cursing":1,
    "foul":1,
    "fowl":1,
    "throat":1,
    "scratch":1,
    "weeps":1,
    "hens":1,
    "cathedral":1,
    "saints":1,
    "apostles":1,
    "sells":1,
    "wares":1,
    "dragged":1,
    "follow":1,
    "although":1,
    "simple":1,
    "carve":1,
    "niche":1,
    "edifice":1,
    "sings":1,
    "ambitions":1,
    "blow":1,
    "inspired":1,
    "terrifying":1,
    "york":1,
    "producer":1,
    "woulda":1,
    "peers":1,
    "sleeping":1,
    "honest":1,
    "ahh":1,
    "countess":1,
    "sparklestick":1,
    "pray":1,
    "concentrating":1,
    "eggs":1,
    "fabulous":1,
    "sprouting":1,
    "veranda":1,
    "husband":1,
    "drunk":1,
    "supper":1,
    "contorts":1,
    "swallows":1,
    "welling":1,
    "urgent":1,
    "dreaming":1,
    "gorgeous":1,
    "stunning":1,
    "brill":1,
    "presenting":1,
    "medals":1,
    "saying":1,
    "wed":1,
    "permitted":1,
    "changing":1,
    "fiddlesticks":1,
    "whatve":1,
    "fat":1,
    "sotto":1,
    "invest":1,
    "wisely":1,
    "safe":1,
    "central":1,
    "event":1,
    "safely":1,
    "invested":1,
    "compound":1,
    "townsfolk":1,
    "force":1,
    "attempting":1,
    "memorise":1,
    "speech":1,
    "nudges":1,
    "affluence":1,
    "buys":1,
    "floss":1,
    "stomach":1,
    "gods":1,
    "whinnying":1,
    "public":1,
    "shut":1,
    "blink":1,
    "eye":1,
    "published":1,
    "poet":1,
    "shirt":1,
    "sleeve":1,
    "waiter":1,
    "leading":1,
    "section":1,
    "comfortable":1,
    "distinguished":1,
    "guests":1,
    "supporter":1,
    "wife":1,
    "displeasure":1,
    "staff":1,
    "australia":1,
    "shortly":1,
    "pleasant":1,
    "duty":1,
    "performers":1,
    "youngest":1,
    "citizens":1,
    "role":1,
    "community":1,
    "breathe":1,
    "`verys":1,
    "`very":1,
    "deposit":1,
    "purchase":1,
    "foreclosures":1,
    "bonds":1,
    "chattels":1,
    "dividends":1,
    "shares":1,
    "bankruptcies":1,
    "debtor":1,
    "sales":1,
    "opportunities":1,
    "manner":1,
    "private":1,
    "enterprise":1,
    "shipyards":1,
    "mercantile":1,
    "collieries":1,
    "tanneries":1,
    "incorporations":1,
    "amalgamations":1,
    "while":1,
    "uhmm":1,
    "thanking":1,
    "marvellous":1,
    "accounts":1,
    "trembling":1,
    "stairs":1,
    "growing":1,
    "return":1,
    "relieve":1,
    "gasps":1,
    "dying":1,
    "busting":1,
    "leaning":1,
    "shameful":1,
    "glare":1,
    "burning":1,
    "footing":1,
    "reaching":1,
    "topples":1,
    "audible":1,
    "horrible":1,
    "snap":1,
    "lands":1,
    "undignified":1,
    "pile":1,
    "despite":1,
    "injury":1,
    "viciously":1,
    "jubilance":1,
    "halted":1,
    "monster":1,
    "letters":1,
    "drawings":1,
    "advertisement":1,
    "throw":1,
    "fireplace":1,
    "mend":1,
    "unspeakably":1,
    "bear":1,
    "level":1,
    "pain":1,
    "wanton":1,
    "greed":1,
    "pal":1,
    "wary":1,
    "washroom":1,
    "scaring":1,
    "godammit":1,
    "nervous":1,
    "hopeful":1,
    "withdraws":1,
    "won":1,
    "prize":1,
    "steady":1,
    "agony":1,
    "humiliation":1,
    "scans":1,
    "rapidly":1,
    "yeats":1,
    "hardening":1,
    "disillusionment":1,
    "held":1,
    "signs":1,
    "recognizing":1,
    "followed":1,
    "rimmed":1,
    "takeaway":1,
    "blasphemy":1,
    "shifts":1,
    "fiddle":1,
    "pieces":1,
    "bloom":1,
    "plucking":1,
    "haunches":1,
    "impertinent":1,
    "questions":1,
    "relevance":1,
    "duties":1,
    "barometer":1,
    "whod":1,
    "notice":1,
    "halfway":1,
    "thread":1,
    "hem":1,
    "ties":1,
    "collection":1,
    "stick":1,
    "furrow":1,
    "digging":1,
    "pokes":1,
    "kinds":1,
    "troubles":1,
    "handicapped":1,
    "myelitis":1,
    "transverse":1,
    "sticking":1,
    "poked":1,
    "parks":1,
    "leaf":1,
    "struts":1,
    "forming":1,
    "steaming":1,
    "liquid":1,
    "trench":1,
    "lake":1,
    "care":1,
    "groggy":1,
    "following":1,
    "awoken":1,
    "yard":1,
    "hears":1,
    "disappeared":1,
    "wheres":1,
    "frightened":1,
    "hallway":1,
    "stopping":1,
    "momentarily":1,
    "ajar":1,
    "frail":1,
    "delirious":1,
    "minute":1,
    "guarding":1,
    "glittered":1,
    "spoke":1,
    "guide":1,
    "ladder":1,
    "sparkling":1,
    "messengers":1,
    "blanket":1,
    "elf":1,
    "fault":1,
    "callin":1,
    "ups":1,
    "medical":1,
    "practitioners":1,
    "battle":1,
    "breast":1,
    "plate":1,
    "chain":1,
    "sword":1,
    "beg":1,
    "went":1,
    "recall":1,
    "`special":1,
    "calls":1,
    "evenings":1,
    "happiest":1,
    "shouting":1,
    "author":1,
    "uninterested":1,
    "positively":1,
    "sickened":1,
    "dollar":1,
    "printing":1,
    "machine":1,
    "mickeys":1,
    "innocent":1,
    "disappointments":1,
    "thunderstorm":1,
    "grins":1,
    "enters":1,
    "violent":1,
    "truck":1,
    "crystal":1,
    "spring":1,
    "fangled":1,
    "treatment":1,
    "available":1,
    "sydney":1,
    "codfish":1,
    "spy":1,
    "multitude":1,
    "jobs":1,
    "worried":1,
    "babbling":1,
    "nonsense":1,
    "tincture":1,
    "horseradish":1,
    "helping":1,
    "claps":1,
    "spit":1,
    "spot":1,
    "venue":1,
    "apparently":1,
    "realizing":1,
    "party":1,
    "concentrate":1,
    "road":1,
    "chitter":1,
    "chattering":1,
    "holy":1,
    "mackerel":1,
    "wowzers":1,
    "breathing":1,
    "magic":1,
    "pop":1,
    "brightness":1,
    "excitement":1,
    "headache":1,
    "yup":1,
    "filling":1,
    "exception":1,
    "murmur":1,
    "gawp":1,
    "proffers":1,
    "prepared":1,
    "postcard":1,
    "adventureland":1,
    "titbit":1,
    "tidbit":1,
    "protracted":1,
    "encompassed":1,
    "sunshine":1,
    "joyful":1,
    "background":1,
    "contractor":1,
    "est":1,
    "1895":1,
    "flew":1,
    "easy":1,
    "amusement":1,
    "jingles":1,
    "escorts":1,
    "greater":1,
    "climbing":1,
    "`theyre":1,
    "bankss":1,
    "monetary":1,
    "gain":1,
    "wager":1,
    "win":1,
    "clambers":1,
    "controller":1,
    "bobs":1,
    "unbridled":1,
    "thrill":1,
    "spilling":1,
    "threatens":1,
    "begun":1,
    "softens":1,
    "hazy":1,
    "arrangement":1,
    "horrors":1,
    "clenches":1,
    "calm":1,
    "tapping":1,
    "fetch":1,
    "suffragettes":1,
    "ribbon":1,
    "tail":1,
    "humming":1,
    "bows":1,
    "accepts":1,
    "waltz":1,
    "elegant":1,
    "accomplished":1,
    "lighter":1,
    "breeze":1,
    "houses":1,
    "cracks":1,
    "collapse":1,
    "heap":1,
    "exhausted":1,
    "thrilled":1,
    "fixes":1,
    "punches":1,
    "`let":1,
    "willing":1,
    "overlook":1,
    "caricature":1,
    "ship":1,
    "shape":1,
    "musses":1,
    "plaited":1,
    "rewrote":1,
    "respond":1,
    "gave":1,
    "exquisite":1,
    "genuinely":1,
    "curious":1,
    "propose":1,
    "implausibly":1,
    "leaved":1,
    "assume":1,
    "insane":1,
    "penguin":1,
    "wrangling":1,
    "scheme":1,
    "fetched":1,
    "draws":1,
    "squiggle":1,
    "illustrate":1,
    "beetroot":1,
    "crap":1,
    "blows":1,
    "tommies":1,
    "cigarette":1,
    "smoking":1,
    "habits":1,
    "trickster":1,
    "fraudster":1,
    "sneak":1,
    "seduced":1,
    "inch":1,
    "sequence":1,
    "foolish":1,
    "purse":1,
    "assignment":1,
    "especially":1,
    "doses":1,
    "poison":1,
    "eating":1,
    "werent":1,
    "woah":1,
    "fan":1,
    "deeply":1,
    "entrenched":1,
    "priority":1,
    "reconsider":1,
    "goodbye":1,
    "blocks":1,
    "ladys":1,
    "disappear":1,
    "wracked":1,
    "frustration":1,
    "fibber":1,
    "found":1,
    "telling":1,
    "writer":1,
    "slow":1,
    "dearest":1,
    "instant":1,
    "realized":1,
    "chuffed":1,
    "piece":1,
    "beverly":1,
    "hills":1,
    "stationery":1,
    "difficulties":1,
    "awe":1,
    "bottom":1,
    "deficiencies":1,
    "concentration":1,
    "hyperactive":1,
    "behavior":1,
    "explains":1,
    "paperwork":1,
    "apologetically":1,
    "10":1,
    "ago":1,
    "itinerary":1,
    "yuh":1,
    "hoity":1,
    "toity":1,
    "aussie":1,
    "stuck":1,
    "whos":1,
    "shrug":1,
    "react":1,
    "sweeps":1,
    "brown":1,
    "scatters":1,
    "ellies":1,
    "drawn":1,
    "beady":1,
    "wildcat":1,
    "lashing":1,
    "thrashing":1,
    "biting":1,
    "screaming":1,
    "seeing":1,
    "forced":1,
    "dropped":1,
    "doorway":1,
    "addresses":1,
    "turning":1,
    "doorstep":1,
    "speechless":1,
    "clenched":1,
    "pots":1,
    "attends":1,
    "remember":1,
    "follows":1,
    "gesture":1,
    "decanter":1,
    "slug":1,
    "submission":1,
    "midas":1,
    "built":1,
    "empire":1,
    "brick":1,
    "carpetbag":1,
    "greenbacks":1,
    "pursued":1,
    "cranky":1,
    "stubborn":1,
    "dame":1,
    "idve":1,
    "ulcer":1,
    "thousands":1,
    "adults":1,
    "nighttime":1,
    "hoped":1,
    "experience":1,
    "elses":1,
    "answer":1,
    "mouthful":1,
    "laced":1,
    "kansas":1,
    "plans":1,
    "winters":1,
    "disappears":1,
    "ragged":1,
    "weary":1,
    "owned":1,
    "newspaper":1,
    "route":1,
    "thousand":1,
    "twice":1,
    "daily":1,
    "tough":1,
    "businessman":1,
    "apenny":1,
    "anywhere":1,
    "type":1,
    "fella":1,
    "employ":1,
    "brother":1,
    "roy":1,
    "push":1,
    "wading":1,
    "molasses":1,
    "wet":1,
    "seeping":1,
    "shoes":1,
    "skin":1,
    "raw":1,
    "peeling":1,
    "faces":1,
    "sunk":1,
    "waking":1,
    "cuz":1,
    "passed":1,
    "dunno":1,
    "equation":1,
    "dark":1,
    "sting":1,
    "crazy":1,
    "dinner":1,
    "miracle":1,
    "strap":1,
    "remembering":1,
    "tales":1,
    "dictated":1,
    "admired":1,
    "forgiveness":1,
    "learned":1,
    "harsh":1,
    "sentence":1,
    "precious":1,
    "disappoint":1,
    "swear":1,
    "leicester":1,
    "st":1,
    "louis":1,
    "weep":1,
    "cares":1,
    "wring":1,
    "rejoice":1,
    "hearts":1,
    "generations":1,
    "redeemed":1,
    "storytellers":1,
    "restore":1,
    "order":1,
    "instill":1,
    "prove":1,
    "list":1,
    "questioningly":1,
    "therell":1,
    "cameras":1,
    "interviews":1,
    "protect":1,
    "lost":1,
    "steam":1,
    "tommy":1,
    "doorbell":1,
    "sounds":1,
    "voices":1,
    "tap":1,
    "tuts":1,
    "screech":1,
    "alleycat":1,
    "pleased":1,
    "draft":1,
    "maid":1,
    "reminds":1,
    "title":1,
    "kitchen":1,
    "start":1,
    "premieres":1,
    "trout":1,
    "invited":1,
    "reply":1,
    "recognizes":1,
    "akin":1,
    "suit":1,
    "aboard":1,
    "announcements":1,
    "taxi":1,
    "takeoff":1,
    "crossed":1,
    "bemused":1,
    "toward":1,
    "receive":1,
    "assumed":1,
    "postal":1,
    "service":1,
    "fallen":1,
    "per":1,
    "replacement":1,
    "knew":1,
    "disappointed":1,
    "doorman":1,
    "cab":1,
    "absence":1,
    "kerb":1,
    "hopes":1,
    "america":1,
    "feeling":1,
    "certain":1,
    "friend":1,
    "needing":1,
    "tonight":1,
    "friendly":1,
    "million":1,
    "bucks":1,
    "ball":1,
    "none":1,
    "straightens":1,
    "dress":1,
    "frantic":1,
    "whispers":1,
    "amongst":1,
    "autograph":1,
    "hunters":1,
    "spots":1,
    "julie":1,
    "interviewed":1,
    "bounces":1,
    "slows":1,
    "lock":1,
    "gloved":1,
    "chugs":1,
    "halt":1,
    "blvd":1,
    "coloured":1,
    "balloons":1,
    "begging":1,
    "pardon":1,
    "hemmed":1,
    "mounds":1,
    "rolling":1,
    "caged":1,
    "soaked":1,
    "cage":1,
    "pressing":1,
    "cages":1,
    "sizes":1,
    "shapes":1,
    "bloodstained":1,
    "bankshaped":1,
    "em":1,
    "carpets":1,
    "misty":1,
    "treelined":1,
    "satisfaction":1,
    "however":1,
    "coursing":1,
    "heave":1,
    "desperately":1,
    "sob":1,
    "noticing":1,
    "placing":1,
    "gratitude":1,
    "sobs":1,
    "catharsis":1,
    "abide":1,
    "silent":1,
    "cheeks":1,
    "floats":1,
    "string":2,
    "brewing":2,
    "clouds":2,
    "lies":2,
    "finishing":2,
    "miniature":2,
    "benches":2,
    "satisfied":2,
    "tightly":2,
    "lifts":2,
    "happen":2,
    "sticks":2,
    "cancel":2,
    "russell":2,
    "making":2,
    "snorts":2,
    "ending":2,
    "deal":2,
    "waiting":2,
    "fired":2,
    "anymore":2,
    "ceiling":2,
    "breathes":2,
    "digs":2,
    "heel":2,
    "los":2,
    "angeles":2,
    "weeks":2,
    "signed":2,
    "picking":2,
    "erm":2,
    "hers":2,
    "peering":2,
    "hurry":2,
    "used":2,
    "holding":2,
    "assigned":2,
    "dare":2,
    "tarmac":2,
    "tucks":2,
    "tidily":2,
    "neatly":2,
    "carriage":2,
    "team":2,
    "line":2,
    "forget":2,
    "andrews":2,
    "somehow":2,
    "shake":2,
    "street":2,
    "coming":2,
    "beat":2,
    "approaches":2,
    "bursts":2,
    "city":2,
    "bags":2,
    "ushers":2,
    "dreadful":2,
    "hot":2,
    "problemo":2,
    "fingers":2,
    "temples":2,
    "finds":2,
    "screen":2,
    "ralphs":2,
    "unpack":2,
    "suggest":2,
    "empty":2,
    "palm":2,
    "opulent":2,
    "gifts":2,
    "biggest":2,
    "stuffed":2,
    "mighty":2,
    "chickens":2,
    "offers":2,
    "barren":2,
    "splosh":2,
    "relief":2,
    "mirror":2,
    "best":2,
    "surprisingly":2,
    "difficult":2,
    "ugly":2,
    "television":2,
    "tv":2,
    "dish":2,
    "glee":2,
    "changes":2,
    "black":2,
    "charming":2,
    "kindly":2,
    "worry":2,
    "ears":2,
    "flies":2,
    "shot":2,
    "covers":2,
    "fairy":2,
    "bother":2,
    "whom":2,
    "rain":2,
    "entirely":2,
    "explaining":2,
    "quiet":2,
    "shermans":2,
    "gradi":2,
    "rest":2,
    "pleasure":2,
    "fear":2,
    "themselves":2,
    "musical":2,
    "ha":2,
    "likes":2,
    "incredibly":2,
    "hug":2,
    "shoo":2,
    "shock":2,
    "curtly":2,
    "whether":2,
    "corridor":2,
    "mouthed":2,
    "finally":2,
    "amount":2,
    "enthusiasm":2,
    "tight":2,
    "honour":2,
    "winces":2,
    "hint":2,
    "leads":2,
    "p":2,
    "instead":2,
    "using":2,
    "diane":2,
    "caught":2,
    "fire":2,
    "mean":2,
    "women":2,
    "grow":2,
    "gotcha":2,
    "year":2,
    "fact":2,
    "sip":2,
    "waits":2,
    "bad":2,
    "songs":2,
    "giddy":2,
    "coughs":2,
    "loudly":2,
    "shouldnt":2,
    "greensleeves":2,
    "teacup":2,
    "action":2,
    "pops":2,
    "hat":2,
    "strides":2,
    "lips":2,
    "kisses":2,
    "slips":2,
    "stare":2,
    "country":2,
    "ugh":2,
    "blooms":2,
    "visual":2,
    "business":2,
    "clue":2,
    "uneasy":2,
    "scripts":2,
    "lane":2,
    "means":2,
    "number":2,
    "others":2,
    "chop":2,
    "move":2,
    "dutifully":2,
    "pick":2,
    "carrying":2,
    "refreshments":2,
    "interrupt":2,
    "unbelievable":2,
    "ignore":2,
    "oneman":2,
    "robert":2,
    "assure":2,
    "gates":2,
    "keys":2,
    "unable":2,
    "joins":2,
    "serious":2,
    "responstable":2,
    "quickly":2,
    "liked":2,
    "ra":2,
    "boom":2,
    "wonder":2,
    "atop":2,
    "smooch":2,
    "smooches":2,
    "ear":2,
    "witch":2,
    "laugh":2,
    "teach":2,
    "feels":2,
    "grips":2,
    "shooting":2,
    "nobody":2,
    "aint":2,
    "fun":2,
    "boxes":2,
    "normal":2,
    "everyday":2,
    "um":2,
    "agree":2,
    "mouths":2,
    "calling":2,
    "yep":2,
    "nearly":2,
    "winifred":2,
    "confusion":2,
    "told":2,
    "spoken":2,
    "shrugs":2,
    "storms":2,
    "hardly":2,
    "sweetly":2,
    "swish":2,
    "swoosh":2,
    "earth":2,
    "supercali":2,
    "whatever":2,
    "lid":2,
    "hit":2,
    "ideas":2,
    "given":2,
    "asked":2,
    "gravitas":2,
    "mail":2,
    "wanna":2,
    "eyeballs":2,
    "took":2,
    "many":2,
    "turn":2,
    "ridiculous":2,
    "pretty":2,
    "sweets":2,
    "barley":2,
    "book":2,
    "worst":2,
    "bench":2,
    "limo":2,
    "bar":2,
    "barman":2,
    "moved":2,
    "lady":2,
    "flit":2,
    "five":2,
    "times":2,
    "nervously":2,
    "hatchet":2,
    "drop":2,
    "schedule":2,
    "figure":2,
    "allow":2,
    "manager":2,
    "ice":2,
    "cream":2,
    "illusion":2,
    "buy":2,
    "bot":2,
    "dreams":2,
    "war":2,
    "stray":2,
    "toy":2,
    "comfort":2,
    "legs":2,
    "chorus":2,
    "tune":2,
    "knows":2,
    "part":2,
    "ironic":2,
    "lifes":2,
    "sentiment":2,
    "whimsy":2,
    "darkness":2,
    "eventually":2,
    "waves":2,
    "shush":2,
    "lovely":2,
    "finish":2,
    "couldnt":2,
    "beauty":2,
    "forever":2,
    "tomorrow":2,
    "jacket":2,
    "chase":2,
    "even":2,
    "fell":2,
    "chaos":2,
    "running":2,
    "meg":2,
    "endure":2,
    "feathers":2,
    "thoughts":2,
    "shows":2,
    "reading":2,
    "wake":2,
    "bitter":2,
    "pill":2,
    "kid":2,
    "missouri":2,
    "killed":2,
    "laying":2,
    "lay":2,
    "indoors":2,
    "catches":2,
    "banner":2,
    "fair":2,
    "painting":2,
    "horses":2,
    "roses":2,
    "bridal":2,
    "dais":2,
    "notes":2,
    "pass":2,
    "immense":2,
    "aghast":2,
    "tent":2,
    "dad":2,
    "devastated":2,
    "present":2,
    "er":2,
    "account":2,
    "generous":2,
    "stature":2,
    "influence":2,
    "financial":2,
    "strata":2,
    "established":2,
    "encourage":2,
    "shocked":2,
    "folded":2,
    "tear":2,
    "awful":2,
    "doctor":2,
    "poem":2,
    "page":2,
    "read":2,
    "lowers":2,
    "crying":2,
    "bits":2,
    "twig":2,
    "drive":2,
    "ask":2,
    "holes":2,
    "soil":2,
    "centre":2,
    "roof":2,
    "river":2,
    "ma":2,
    "once":2,
    "wide":2,
    "expecting":2,
    "sent":2,
    "starry":2,
    "sometimes":2,
    "wondering":2,
    "disneyland":2,
    "favorite":2,
    "anybody":2,
    "done":2,
    "change":2,
    "met":2,
    "kingdom":2,
    "store":2,
    "favourite":2,
    "maybe":2,
    "tiniest":2,
    "gaze":2,
    "sweeping":2,
    "unspoken":2,
    "understanding":2,
    "tiredness":2,
    "knees":2,
    "highest":2,
    "dance":2,
    "english":2,
    "warmth":2,
    "youd":2,
    "animated":2,
    "sir":2,
    "breakers":2,
    "such":2,
    "huge":2,
    "usual":2,
    "driving":2,
    "hotel":2,
    "leave":2,
    "misjudge":2,
    "hollywood":2,
    "created":2,
    "delivery":2,
    "evening":2,
    "edition":2,
    "eight":2,
    "mustve":2,
    "itd":2,
    "slowly":2,
    "forgive":2,
    "invitation":2,
    "premiere":2,
    "press":2,
    "carpet":2,
    "hundreds":2,
    "pouring":2,
    "direction":3,
    "becomes":3,
    "wind":3,
    "distance":3,
    "downwards":3,
    "plays":3,
    "grass":3,
    "touches":3,
    "break":3,
    "free":3,
    "cherry":3,
    "buries":3,
    "shoulders":3,
    "speaking":3,
    "hell":3,
    "trying":3,
    "both":3,
    "animation":3,
    "sitting":3,
    "havent":3,
    "seen":3,
    "forgotten":3,
    "princess":3,
    "lose":3,
    "mustnt":3,
    "attendant":3,
    "theyve":3,
    "glares":3,
    "area":3,
    "narrows":3,
    "feet":3,
    "folds":3,
    "lap":3,
    "straight":3,
    "miss":3,
    "walking":3,
    "helps":3,
    "sister":3,
    "heads":3,
    "grabs":3,
    "doors":3,
    "sun":3,
    "rises":3,
    "between":3,
    "wish":3,
    "idea":3,
    "odd":3,
    "surface":3,
    "fruit":3,
    "contain":3,
    "fall":3,
    "three":3,
    "throws":3,
    "balcony":3,
    "dust":3,
    "run":3,
    "share":3,
    "green":3,
    "facing":3,
    "slightly":3,
    "catch":3,
    "joy":3,
    "soap":3,
    "sad":3,
    "brings":3,
    "finding":3,
    "whole":3,
    "characters":3,
    "loses":3,
    "phone":3,
    "called":3,
    "hasnt":3,
    "awards":3,
    "edge":3,
    "almost":3,
    "drink":3,
    "asking":3,
    "approached":3,
    "daddy":3,
    "literally":3,
    "magical":3,
    "able":3,
    "youve":3,
    "immediately":3,
    "spoonful":3,
    "arent":3,
    "turned":3,
    "king":3,
    "huh":3,
    "playing":3,
    "dog":3,
    "falling":3,
    "totally":3,
    "absolutely":3,
    "pen":3,
    "holds":3,
    "continues":3,
    "moya":3,
    "night":3,
    "hair":3,
    "dead":3,
    "save":3,
    "alone":3,
    "top":3,
    "dicks":3,
    "smoothes":3,
    "recorder":3,
    "exterior":3,
    "ext":3,
    "17":3,
    "band":3,
    "hope":3,
    "greats":3,
    "smiling":3,
    "heart":3,
    "behalf":3,
    "broken":3,
    "nag":3,
    "darling":3,
    "trust":3,
    "yah":3,
    "sort":3,
    "sketch":3,
    "seem":3,
    "bit":3,
    "great":3,
    "clean":3,
    "slamming":3,
    "ones":3,
    "thatll":3,
    "heck":3,
    "british":3,
    "perhaps":3,
    "sweet":3,
    "completely":3,
    "cruel":3,
    "wrote":3,
    "hate":3,
    "michael":3,
    "heard":3,
    "glass":3,
    "further":3,
    "stool":3,
    "minutes":3,
    "hold":3,
    "heartless":3,
    "afraid":3,
    "school":3,
    "ouch":3,
    "medicine":3,
    "flying":3,
    "sheets":3,
    "surprise":3,
    "thinking":3,
    "mothers":3,
    "ground":3,
    "bottle":3,
    "inside":3,
    "laughing":3,
    "someone":3,
    "hard":3,
    "slams":3,
    "stage":3,
    "soon":3,
    "allora":3,
    "crowds":3,
    "achieve":3,
    "expands":3,
    "gentlemen":3,
    "credit":3,
    "audience":3,
    "falls":3,
    "spins":3,
    "mine":3,
    "written":3,
    "hung":3,
    "enough":3,
    "check":3,
    "living":3,
    "promises":3,
    "american":3,
    "tears":3,
    "whiskey":3,
    "saved":3,
    "true":3,
    "snow":3,
    "loved":3,
    "tired":3,
    "voice":4,
    "twigs":4,
    "trees":4,
    "flowers":4,
    "nod":4,
    "wraps":4,
    "across":4,
    "imagination":4,
    "breaks":4,
    "pink":4,
    "use":4,
    "weve":4,
    "most":4,
    "polly":4,
    "anyway":4,
    "yet":4,
    "left":4,
    "nose":4,
    "gosh":4,
    "swings":4,
    "late":4,
    "tries":4,
    "few":4,
    "deep":4,
    "needs":4,
    "along":4,
    "driver":4,
    "came":4,
    "ladies":4,
    "hovers":4,
    "imagine":4,
    "rather":4,
    "mouse":4,
    "horror":4,
    "biddys":4,
    "water":4,
    "drops":4,
    "places":4,
    "floor":4,
    "full":4,
    "suppose":4,
    "silly":4,
    "points":4,
    "white":4,
    "raises":4,
    "eyebrow":4,
    "bell":4,
    "certainly":4,
    "sherman":4,
    "lyrics":4,
    "else":4,
    "though":4,
    "possible":4,
    "point":4,
    "matter":4,
    "smooths":4,
    "rushes":4,
    "gotta":4,
    "call":4,
    "hi":4,
    "already":4,
    "disneys":4,
    "live":4,
    "perches":4,
    "story":4,
    "promised":4,
    "movie":4,
    "gonna":4,
    "tray":4,
    "milk":4,
    "pours":4,
    "cartoons":4,
    "listen":4,
    "rolls":4,
    "split":4,
    "stars":4,
    "scene":4,
    "tree":4,
    "london":4,
    "stay":4,
    "proper":4,
    "write":4,
    "carry":4,
    "soul":4,
    "tiny":4,
    "half":4,
    "uncle":4,
    "words":4,
    "walks":4,
    "umbrella":4,
    "brief":4,
    "everyone":4,
    "loud":4,
    "height":4,
    "anything":4,
    "reads":4,
    "standing":4,
    "today":4,
    "might":4,
    "pocket":4,
    "feed":4,
    "birds":4,
    "steps":4,
    "carousel":4,
    "sense":4,
    "upset":4,
    "watch":4,
    "honoured":4,
    "silence":4,
    "send":4,
    "atmosphere":4,
    "image":4,
    "taking":5,
    "finger":5,
    "until":5,
    "large":5,
    "gives":5,
    "sky":5,
    "young":5,
    "excuse":5,
    "diarmuid":5,
    "breath":5,
    "agreement":5,
    "believe":5,
    "seems":5,
    "two":5,
    "final":5,
    "doing":5,
    "papers":5,
    "goodness":5,
    "capable":5,
    "flight":5,
    "ahead":5,
    "train":5,
    "picture":5,
    "home":5,
    "hello":5,
    "pushes":5,
    "mickey":5,
    "pears":5,
    "bedroom":5,
    "another":5,
    "leans":5,
    "forward":5,
    "picks":5,
    "suddenly":5,
    "walter":5,
    "elias":5,
    "show":5,
    "high":5,
    "appears":5,
    "gestures":5,
    "stand":5,
    "last":5,
    "ah":5,
    "says":5,
    "nice":5,
    "sit":5,
    "walts":5,
    "desk":5,
    "daughters":5,
    "getting":5,
    "bring":5,
    "speak":5,
    "singing":5,
    "cup":5,
    "pamelas":5,
    "looking":5,
    "bag":5,
    "play":5,
    "gently":5,
    "gintys":5,
    "gone":5,
    "glances":5,
    "bert":5,
    "note":5,
    "van":5,
    "dyke":5,
    "alright":5,
    "sheet":5,
    "climbs":5,
    "poor":5,
    "allows":5,
    "nanny":5,
    "mouth":5,
    "didnt":5,
    "wait":5,
    "anyone":5,
    "colour":5,
    "afternoon":5,
    "notices":5,
    "randolph":5,
    "goff":5,
    "whack":5,
    "far":5,
    "myself":5,
    "walk":5,
    "confused":5,
    "dum":5,
    "ellie":5,
    "person":5,
    "fathers":5,
    "than":5,
    "dancing":5,
    "fist":5,
    "reaches":5,
    "ride":5,
    "cold":5,
    "george":5,
    "small":6,
    "whats":6,
    "may":6,
    "shant":6,
    "welcome":6,
    "shakes":6,
    "work":6,
    "sign":6,
    "daughter":6,
    "helen":6,
    "still":6,
    "help":6,
    "people":6,
    "stands":6,
    "closes":6,
    "everybody":6,
    "things":6,
    "stares":6,
    "stops":6,
    "shoulder":6,
    "nothing":6,
    "red":6,
    "laughs":6,
    "staring":6,
    "wrong":6,
    "set":6,
    "sake":6,
    "meet":6,
    "close":6,
    "past":6,
    "after":6,
    "pot":6,
    "yeah":6,
    "watches":6,
    "pages":6,
    "child":6,
    "which":6,
    "boy":6,
    "find":6,
    "big":6,
    "god":6,
    "foot":6,
    "lot":6,
    "sees":6,
    "wants":6,
    "runs":6,
    "aunt":6,
    "shaking":6,
    "paper":6,
    "brought":6,
    "chair":6,
    "music":7,
    "song":7,
    "made":7,
    "mind":7,
    "real":7,
    "twenty":7,
    "id":7,
    "need":7,
    "perfectly":7,
    "next":7,
    "everything":7,
    "indeed":7,
    "okay":7,
    "bed":7,
    "second":7,
    "arm":7,
    "simply":7,
    "smiles":7,
    "comes":7,
    "really":7,
    "morning":7,
    "hear":7,
    "each":7,
    "place":7,
    "ya":7,
    "office":7,
    "keep":7,
    "yourself":7,
    "sing":7,
    "any":7,
    "england":7,
    "because":7,
    "without":7,
    "table":7,
    "piano":7,
    "thought":7,
    "begins":7,
    "himself":7,
    "albert":7,
    "fix":7,
    "job":7,
    "some":7,
    "jane":7,
    "said":7,
    "hen":7,
    "penguins":7,
    "towards":8,
    "put":8,
    "girl":8,
    "pl":8,
    "feel":8,
    "ready":8,
    "own":8,
    "happy":8,
    "sighs":8,
    "course":8,
    "gets":8,
    "cannot":8,
    "promise":8,
    "together":8,
    "girls":8,
    "these":8,
    "upon":8,
    "hm":8,
    "books":8,
    "skirt":8,
    "wouldnt":8,
    "kids":8,
    "end":8,
    "clear":8,
    "sugar":8,
    "tell":8,
    "moves":8,
    "outside":8,
    "sorry":8,
    "kind":8,
    "park":9,
    "puts":9,
    "sits":9,
    "car":9,
    "understand":9,
    "years":9,
    "script":9,
    "only":9,
    "could":9,
    "ill":9,
    "behind":9,
    "leaves":9,
    "new":9,
    "front":9,
    "herself":9,
    "wonderful":9,
    "were":9,
    "uh":9,
    "word":9,
    "makes":9,
    "theyre":9,
    "biddy":9,
    "our":9,
    "always":9,
    "mother":9,
    "talking":9,
    "pulls":9,
    "belhatchett":9,
    "begin":10,
    "arms":10,
    "should":10,
    "long":10,
    "rights":10,
    "money":10,
    "sure":10,
    "name":10,
    "sound":10,
    "woman":10,
    "opens":10,
    "family":10,
    "moment":10,
    "life":10,
    "youll":10,
    "nods":10,
    "being":10,
    "dear":10,
    "more":10,
    "smile":11,
    "every":11,
    "maam":11,
    "onto":11,
    "seat":11,
    "those":11,
    "got":11,
    "before":11,
    "boys":11,
    "tape":11,
    "tuppence":11,
    "had":12,
    "horse":12,
    "let":12,
    "wont":12,
    "open":12,
    "theres":12,
    "shall":12,
    "or":12,
    "going":13,
    "head":13,
    "take":13,
    "window":13,
    "first":13,
    "beautiful":13,
    "house":13,
    "thing":13,
    "ever":13,
    "stop":13,
    "fly":13,
    "did":13,
    "something":14,
    "youre":14,
    "world":14,
    "film":14,
    "thank":14,
    "never":14,
    "love":14,
    "other":14,
    "man":14,
    "turns":14,
    "goes":14,
    "tommie":14,
    "pam":14,
    "lets":15,
    "where":15,
    "must":15,
    "quite":15,
    "time":15,
    "mister":15,
    "children":15,
    "bank":15,
    "kite":15,
    "off":16,
    "much":16,
    "don":16,
    "been":17,
    "am":17,
    "hes":17,
    "who":17,
    "old":17,
    "day":17,
    "poppins":17,
    "dolly":17,
    "give":17,
    "over":18,
    "by":18,
    "isnt":18,
    "little":19,
    "ive":19,
    "too":19,
    "does":19,
    "air":19,
    "away":19,
    "mary":19,
    "please":20,
    "want":20,
    "come":20,
    "margaret":20,
    "way":20,
    "ralph":21,
    "when":21,
    "tea":21,
    "father":21,
    "around":22,
    "hands":22,
    "room":22,
    "doesnt":22,
    "get":22,
    "their":22,
    "shes":22,
    "us":23,
    "very":23,
    "make":23,
    "right":23,
    "door":23,
    "look":23,
    "face":24,
    "think":24,
    "thats":24,
    "how":24,
    "bob":24,
    "hand":24,
    "why":25,
    "mr":25,
    "well":25,
    "was":25,
    "banks":25,
    "good":26,
    "has":26,
    "through":27,
    "again":27,
    "them":27,
    "yes":27,
    "":28,
    "cant":28,
    "here":28,
    "say":29,
    "dick":29,
    "will":30,
    "can":30,
    "back":30,
    "then":32,
    "about":32,
    "see":32,
    "if":33,
    "looks":33,
    "now":33,
    "there":34,
    "would":34,
    "one":34,
    "an":37,
    "go":37,
    "eyes":37,
    "takes":38,
    "im":39,
    "oh":40,
    "just":41,
    "him":42,
    "into":44,
    "they":44,
    "down":45,
    "know":46,
    "dont":47,
    "from":48,
    "are":50,
    "like":52,
    "so":52,
    "your":53,
    "walt":54,
    "not":56,
    "have":58,
    "disney":58,
    "this":59,
    "but":59,
    "do":59,
    "out":60,
    "ginty":63,
    "what":64,
    "mrs":64,
    "we":64,
    "all":66,
    "as":69,
    "be":70,
    "me":71,
    "my":75,
    "no":76,
    "its":78,
    "at":86,
    "with":88,
    "up":92,
    "travers":95,
    "on":96,
    "his":101,
    "that":102,
    "he":105,
    "for":106,
    "pamela":109,
    "she":152,
    "is":158,
    "it":166,
    "in":176,
    "of":218,
    "her":246,
    "i":256,
    "you":296,
    "a":358,
    "to":359,
    "and":381,
    "the":620
}