{
    "jones":1,
    "reilly":1,
    "lori":1,
    "wouldnt":1,
    "number":1,
    "stood":1,
    "particular":1,
    "falling":1,
    "runway":1,
    "though":1,
    "loris":1,
    "annoying":1,
    "habit":1,
    "meddling":1,
    "seemed":1,
    "decent":1,
    "toharrison":1,
    "inseparable":1,
    "exist":1,
    "flagged":1,
    "martini":1,
    "waits":1,
    "28":1,
    "sitting":1,
    "interviews":1,
    "beenwhatever":1,
    "soharrison":1,
    "ploy":1,
    "reels":1,
    "fish":1,
    "likely":1,
    "interested":1,
    "applied":1,
    "resume":1,
    "ipad":1,
    "puppies":1,
    "breathing":1,
    "offer":1,
    "salary":1,
    "learned":1,
    "breathe":1,
    "stopping":1,
    "salaries":1,
    "generally":1,
    "dontim":1,
    "yours":1,
    "slay":1,
    "dragons":1,
    "hunt":1,
    "dreamed":1,
    "enthusiasm":1,
    "mesmerizing":1,
    "breath":1,
    "title":1,
    "card":1,
    "morons":1,
    "werent":1,
    "bailed":1,
    "started":1,
    "bail":1,
    "laterolivia":1,
    "least":1,
    "warehouse":1,
    "fact":1,
    "opposite":1,
    "bugging":1,
    "proposing":1,
    "point":1,
    "situation":1,
    "focus":1,
    "proposed":1,
    "onto":1,
    "expedite":1,
    "proceedings":1,
    "gentlemen":1,
    "brains":1,
    "carpet":1,
    "shooting":1,
    "mine":1,
    "neither":1,
    "vlads":1,
    "5050":1,
    "7030":1,
    "promises":1,
    "thinks":1,
    "suppose":1,
    "blows":1,
    "split":1,
    "keeps":1,
    "negotiate":1,
    "verbal":1,
    "contract":1,
    "seal":1,
    "reluctant":1,
    "gunfire":1,
    "building":1,
    "nod":1,
    "pleasure":1,
    "business":1,
    "high":1,
    "fives":1,
    "tech":1,
    "cia":1,
    "litigator":1,
    "investigator":1,
    "enter":1,
    "howd":1,
    "million":1,
    "package":1,
    "flinch":1,
    "sorryummaami":1,
    "herecan":1,
    "huge":1,
    "fan":1,
    "admire":1,
    "gushing":1,
    "lawyers":1,
    "firms":1,
    "pansies":1,
    "wesolve":1,
    "save":1,
    "reputations":1,
    "feed":1,
    "ready":1,
    "orwhatever":1,
    "gladiate":1,
    "diaper":1,
    "stunned":1,
    "dings":1,
    "rush":1,
    "polish":1,
    "bazyli":1,
    "russians":1,
    "kidnapped":1,
    "thoughtbut":1,
    "returned":1,
    "pulls":1,
    "hug":1,
    "discreetly":1,
    "check":1,
    "amount":1,
    "hugging":1,
    "child":1,
    "safe":1,
    "fbi":1,
    "sick":1,
    "incoming":1,
    "else":1,
    "friendhe":1,
    "recommended":1,
    "immediately":1,
    "whip":1,
    "iphones":1,
    "start":1,
    "searching":1,
    "speak":1,
    "iraqi":1,
    "attacker":1,
    "frantic":1,
    "calmly":1,
    "welcome":1,
    "associates":1,
    "lieutenant":1,
    "colonel":1,
    "age":1,
    "32":1,
    "tours":1,
    "iraq":1,
    "saving":1,
    "unit":1,
    "receive":1,
    "action":1,
    "class":1,
    "patriotic":1,
    "cover":1,
    "magazine":1,
    "page":1,
    "poster":1,
    "expensive":1,
    "fortune":1,
    "antichoice":1,
    "progun":1,
    "gays":1,
    "likes":1,
    "pray":1,
    "sickens":1,
    "politically":1,
    "straight":1,
    "shooter":1,
    "laundry":1,
    "happier":1,
    "scanners":1,
    "shots":1,
    "took":1,
    "arrived":1,
    "accident":1,
    "wecan":1,
    "district":1,
    "sowhat":1,
    "emotional":1,
    "composure":1,
    "waspaige":1,
    "meshe":1,
    "decide":1,
    "neveri":1,
    "whered":1,
    "held":1,
    "wasthere":1,
    "justi":1,
    "panicked":1,
    "toi":1,
    "panickedim":1,
    "wasi":1,
    "warmy":1,
    "hurts":1,
    "pillsso":1,
    "walk":1,
    "neighborhood":1,
    "beer":1,
    "kept":1,
    "handgun":1,
    "shed":1,
    "key":1,
    "cellphone":1,
    "thoughtshes":1,
    "goneoh":1,
    "exchange":1,
    "fugitive":1,
    "covered":1,
    "governmentissue":1,
    "trained":1,
    "killing":1,
    "machine":1,
    "idiot":1,
    "himself":1,
    "run":1,
    "media":1,
    "messy":1,
    "republicans":1,
    "case":1,
    "throws":1,
    "bother":1,
    "voting":1,
    "smartso":1,
    "set":1,
    "shirt":1,
    "calls":1,
    "works":1,
    "bets":1,
    "nows":1,
    "chance":1,
    "ducks":1,
    "raises":1,
    "streaked":1,
    "nothing":1,
    "loss":1,
    "technically":1,
    "morgue":1,
    "home":1,
    "quick":1,
    "peek":1,
    "scene":1,
    "hows":1,
    "pregnant":1,
    "stripper":1,
    "real":1,
    "bitch":1,
    "surprised":1,
    "sleeps":1,
    "ironic":1,
    "muscle":1,
    "citizen":1,
    "annoyingolivia":1,
    "rushing":1,
    "create":1,
    "wellyes":1,
    "actually":1,
    "naive":1,
    "belief":1,
    "waking":1,
    "correct":1,
    "spidey":1,
    "senses":1,
    "evidence":1,
    "homicide":1,
    "ran":1,
    "wedges":1,
    "doors":1,
    "keeping":1,
    "reporter":1,
    "cameras":1,
    "persecuting":1,
    "handicapped":1,
    "winner":1,
    "perhaps":1,
    "wellknown":1,
    "republican":1,
    "considering":1,
    "bid":1,
    "democratic":1,
    "ticket":1,
    "year":1,
    "statements":1,
    "justyou":1,
    "teaches":1,
    "3rd":1,
    "grade":1,
    "freezer":1,
    "evolves":1,
    "fast":1,
    "track":1,
    "slip":1,
    "cases":1,
    "within":1,
    "fixers":1,
    "crisis":1,
    "managers":1,
    "clients":1,
    "solving":1,
    "justice":1,
    "true":1,
    "kevin":1,
    "article":1,
    "facts":1,
    "except":1,
    "overzealous":1,
    "passion":1,
    "maureen":1,
    "havent":1,
    "appreciate":1,
    "lock":1,
    "broken":1,
    "sheds":1,
    "secure":1,
    "stolen":1,
    "hacked":1,
    "facebook":1,
    "google":1,
    "razors":1,
    "top":1,
    "losing":1,
    "complaining":1,
    "wives":1,
    "boyfriends":1,
    "water":1,
    "conveniently":1,
    "bloody":1,
    "clothes":1,
    "runner":1,
    "iphone":1,
    "stamp":1,
    "flames":1,
    "becomes":1,
    "wildfire":1,
    "refrain":1,
    "commenting":1,
    "guts":1,
    "closes":1,
    "trusts":1,
    "guarded":1,
    "protecting":1,
    "aide":1,
    "bill":1,
    "clinton":1,
    "edwards":1,
    "rielle":1,
    "hunter":1,
    "guyi":1,
    "possibleolivia":1,
    "eye":1,
    "mans":1,
    "schedule":1,
    "hardens":1,
    "services":1,
    "walks":1,
    "presidentwhy":1,
    "unsuccessful":1,
    "text":1,
    "soon":1,
    "today":1,
    "reality":1,
    "reaches":1,
    "dallas":1,
    "boston":1,
    "dais":1,
    "oath":1,
    "same":1,
    "ones":1,
    "gum":1,
    "rounds":1,
    "corner":1,
    "managed":1,
    "emails":1,
    "reading":1,
    "masse":1,
    "attend":1,
    "disappointed":1,
    "dismissed":1,
    "frightened":1,
    "bunny":1,
    "totally":1,
    "plans":1,
    "usually":1,
    "father":1,
    "invite":1,
    "list":1,
    "plus":1,
    "ariels":1,
    "shifting":1,
    "forth":1,
    "eager":1,
    "understand":1,
    "both":1,
    "girls":1,
    "different":1,
    "drugs":1,
    "justsettled":1,
    "understandable":1,
    "drivers":1,
    "license":1,
    "suv":1,
    "search":1,
    "peer":1,
    "mirrors":1,
    "pole":1,
    "thingies":1,
    "conspicuous":1,
    "stain":1,
    "jacket":1,
    "bra":1,
    "grin":1,
    "theyll":1,
    "rigors":1,
    "bonded":1,
    "stronger":1,
    "grant":1,
    "mellies":1,
    "wed":1,
    "capris":1,
    "sweater":1,
    "every":1,
    "busy":1,
    "scotts":1,
    "adjusting":1,
    "semester":1,
    "karenshe":1,
    "misses":1,
    "dating":1,
    "councils":1,
    "hit":1,
    "watchful":1,
    "formal":1,
    "packet":1,
    "rumors":1,
    "fire":1,
    "nightmare":1,
    "stop":1,
    "longer":1,
    "worst":1,
    "fall":1,
    "cheat":1,
    "taken":1,
    "myself":1,
    "team":1,
    "forensics":1,
    "flies":1,
    "screwing":1,
    "viable":1,
    "suspect":1,
    "cause":1,
    "calling":1,
    "inappropriate":1,
    "gonnarun":1,
    "acting":1,
    "witness":1,
    "lab":1,
    "names":1,
    "thomas":1,
    "jefferson":1,
    "lame":1,
    "presidential":1,
    "tj":1,
    "puppy":1,
    "voice":1,
    "professional":1,
    "devoid":1,
    "warmth":1,
    "mistake":1,
    "consequences":1,
    "stiffens":1,
    "happen":1,
    "hard":1,
    "employment":1,
    "everywhere":1,
    "associate":1,
    "sex":1,
    "scandal":1,
    "kinds":1,
    "information":1,
    "easily":1,
    "available":1,
    "example":1,
    "sexual":1,
    "partners":1,
    "gonorrhea":1,
    "familyyour":1,
    "mothers":1,
    "mental":1,
    "illness":1,
    "psychotic":1,
    "break":1,
    "2":1,
    "bedford":1,
    "bet":1,
    "runs":1,
    "daycare":1,
    "tearing":1,
    "beginning":1,
    "advice":1,
    "resignation":1,
    "pack":1,
    "city":1,
    "minneapolis":1,
    "denver":1,
    "boring":1,
    "town":1,
    "career":1,
    "done":1,
    "dogs":1,
    "leash":1,
    "hurries":1,
    "shellshocked":1,
    "grand":1,
    "testify":1,
    "blackmail":1,
    "threaten":1,
    "park":1,
    "follow":1,
    "ahead":1,
    "stall":1,
    "wiping":1,
    "welldont":1,
    "meanwhy":1,
    "decimated":1,
    "examines":1,
    "weeks":1,
    "ago":1,
    "clerking":1,
    "whyd":1,
    "shifts":1,
    "uncomfortable":1,
    "clerkship":1,
    "fixing":1,
    "paper":1,
    "towels":1,
    "lost":1,
    "wipe":1,
    "abbys":1,
    "secrets":1,
    "returning":1,
    "hosting":1,
    "state":1,
    "sarkozy":1,
    "question":1,
    "turn":1,
    "full":1,
    "reassured":1,
    "crawl":1,
    "cable":1,
    "stations":1,
    "drudge":1,
    "network":1,
    "diane":1,
    "sawyers":1,
    "airtight":1,
    "bouncer":1,
    "club":1,
    "100":1,
    "witnesses":1,
    "claims":1,
    "motive":1,
    "uglier":1,
    "ballistics":1,
    "match":1,
    "type":1,
    "owned":1,
    "dammit":1,
    "yell":1,
    "atstephen":1,
    "whatever":1,
    "anyway":1,
    "guess":1,
    "da":1,
    "fancy":1,
    "sentence":1,
    "possibility":1,
    "cowed":1,
    "statement":1,
    "words":1,
    "possible":1,
    "preferably":1,
    "bars":1,
    "uniforms":1,
    "willing":1,
    "attest":1,
    "heroism":1,
    "kindness":1,
    "handing":1,
    "andsully":1,
    "beforethis":1,
    "tomi":1,
    "forgiven":1,
    "cansully":1,
    "dozens":1,
    "sometimes":1,
    "tossing":1,
    "timesive":1,
    "looked":1,
    "faces":1,
    "couldnt":1,
    "thati":1,
    "truly":1,
    "antique":1,
    "new":1,
    "clarity":1,
    "cut":1,
    "color":1,
    "offering":1,
    "payment":1,
    "plan":1,
    "30":1,
    "discount":1,
    "bind":1,
    "send":1,
    "engaged":1,
    "engageolivia":1,
    "reservation":1,
    "8":1,
    "pm":1,
    "table":1,
    "justyoure":1,
    "dated":1,
    "series":1,
    "women":1,
    "trashy":1,
    "fun":1,
    "damned":1,
    "shell":1,
    "choice":1,
    "boss":1,
    "bully":1,
    "beaming":1,
    "mournful":1,
    "speech":1,
    "misguided":1,
    "confess":1,
    "someday":1,
    "exactly":1,
    "sad":1,
    "needed":1,
    "availablejulia":1,
    "message":1,
    "messageolivia":1,
    "conversation":1,
    "messagethe":1,
    "floor":1,
    "40":1,
    "forty":1,
    "handcuffs":1,
    "crosses":1,
    "speaks":1,
    "invaded":1,
    "showed":1,
    "picture":1,
    "everyone":1,
    "livs":1,
    "cops":1,
    "lobby":1,
    "finished":1,
    "staring":1,
    "cash":1,
    "dish":1,
    "sausage":1,
    "mushroom":1,
    "ticking":1,
    "howiehowie":1,
    "finishes":1,
    "video":1,
    "between":1,
    "10":1,
    "bank":1,
    "northeast":1,
    "towards":1,
    "speed":1,
    "thatsully":1,
    "stare":1,
    "copy":1,
    "word":1,
    "deliver":1,
    "four":1,
    "dvd":1,
    "player":1,
    "disc":1,
    "able":1,
    "verify":1,
    "lover":1,
    "hits":1,
    "footage":1,
    "approaching":1,
    "greet":1,
    "each":1,
    "intimate":1,
    "space":1,
    "wanting":1,
    "notyou":1,
    "due":1,
    "respect":1,
    "compared":1,
    "uniform":1,
    "intense":1,
    "insistent":1,
    "remain":1,
    "silent":1,
    "handcuffed":1,
    "station":1,
    "strange":1,
    "reporters":1,
    "gather":1,
    "seem":1,
    "optimistic":1,
    "public":1,
    "selfimage":1,
    "built":1,
    "leak":1,
    "arraign":1,
    "mind":1,
    "desk":1,
    "georgias":1,
    "knee":1,
    "youd":1,
    "slashed":1,
    "wrists":1,
    "dads":1,
    "flying":1,
    "spoken":1,
    "doctors":1,
    "aboutanything":1,
    "steps":1,
    "justshe":1,
    "theyd":1,
    "roomolivia":1,
    "fixated":1,
    "stalk":1,
    "themquinn":1,
    "die":1,
    "finewhat":1,
    "shebut":1,
    "sit":1,
    "bed":1,
    "potus":1,
    "half":1,
    "tuxedos":1,
    "surprise":1,
    "toast":1,
    "france":1,
    "anotherfitz":1,
    "frozen":1,
    "cleared":1,
    "dedicate":1,
    "campaigned":1,
    "helped":1,
    "elected":1,
    "closer":1,
    "dare":1,
    "touching":1,
    "shoves":1,
    "believed":1,
    "clouded":1,
    "mistrust":1,
    "screaming":1,
    "outand":1,
    "heated":1,
    "fitzs":1,
    "smudged":1,
    "instant":1,
    "cy":1,
    "filling":1,
    "situationcyrus":1,
    "feeling":1,
    "tableliv":1,
    "youyoure":1,
    "coat":1,
    "closet":1,
    "somethingstephen":1,
    "ifwhat":1,
    "bored":1,
    "leap":1,
    "outits":1,
    "relax":1,
    "relieve":1,
    "noti":1,
    "sosullys":1,
    "meanis":1,
    "smile":1,
    "may":1,
    "whoever":1,
    "honestly":1,
    "reasons":1,
    "choose":1,
    "serving":1,
    "importantly55":1,
    "victory":1,
    "shouted":1,
    "pull":1,
    "watching":1,
    "ideas":1,
    "file":1,
    "hopefully":1,
    "killer":1,
    "picks":1,
    "box":1,
    "checking":1,
    "moving":1,
    "agents":1,
    "messenger":1,
    "became":1,
    "importantly":1,
    "light":1,
    "flashes":1,
    "playing":1,
    "presses":1,
    "remote":1,
    "black":1,
    "cancel":2,
    "bar":2,
    "parents":2,
    "waiter":2,
    "lawyer":2,
    "apply":2,
    "sits":2,
    "kind":2,
    "stopped":2,
    "paid":2,
    "confused":2,
    "deep":2,
    "many":2,
    "insane":2,
    "money":2,
    "problem":2,
    "swear":2,
    "shoot":2,
    "shot":2,
    "seems":2,
    "consider":2,
    "6040":2,
    "asked":2,
    "points":2,
    "step":2,
    "boys":2,
    "clear":2,
    "skirt":2,
    "short":2,
    "passes":2,
    "sure":2,
    "nervous":2,
    "problems":2,
    "line":2,
    "followed":2,
    "wife":2,
    "son":2,
    "checks":2,
    "smiles":2,
    "beautiful":2,
    "consulate":2,
    "their":2,
    "low":2,
    "another":2,
    "somebody":2,
    "uses":2,
    "photo":2,
    "end":2,
    "act":2,
    "sullivan":2,
    "injured":2,
    "congressional":2,
    "medal":2,
    "vietnam":2,
    "famous":2,
    "boy":2,
    "military":2,
    "speeches":2,
    "hates":2,
    "school":2,
    "whos":2,
    "27":2,
    "arrives":2,
    "apartment":2,
    "911":2,
    "attorneys":2,
    "judge":2,
    "jury":2,
    "handle":2,
    "sir":2,
    "during":2,
    "arm":2,
    "mattys":2,
    "pub":2,
    "own":2,
    "22":2,
    "behind":2,
    "lockbox":2,
    "weighing":2,
    "hand":2,
    "grenade":2,
    "smart":2,
    "next":2,
    "rules":2,
    "stephens":2,
    "warn":2,
    "rule":2,
    "tears":2,
    "sighs":2,
    "private":2,
    "patriot":2,
    "realize":2,
    "blowback":2,
    "judgment":2,
    "middle":2,
    "path":2,
    "starts":2,
    "open":2,
    "20":2,
    "asking":2,
    "arrested":2,
    "past":2,
    "18":2,
    "slept":2,
    "play":2,
    "small":2,
    "hack":2,
    "holds":2,
    "finger":2,
    "write":2,
    "describe":2,
    "brilliant":2,
    "record":2,
    "dials":2,
    "story":2,
    "missing":2,
    "email":2,
    "wall":2,
    "papers":2,
    "gladiators":2,
    "beeps":2,
    "happens":2,
    "quiet":2,
    "needs":2,
    "giving":2,
    "monica":2,
    "lewinsky":2,
    "united":2,
    "states":2,
    "camp":2,
    "david":2,
    "meeting":2,
    "official":2,
    "wooing":2,
    "leader":2,
    "world":2,
    "thinking":2,
    "dream":2,
    "loves":2,
    "allowed":2,
    "coffee":2,
    "spilled":2,
    "election":2,
    "ten":2,
    "finally":2,
    "sent":2,
    "supposed":2,
    "embassy":2,
    "proud":2,
    "french":2,
    "canceled":2,
    "hesitates":2,
    "stuff":2,
    "family":2,
    "pops":2,
    "under":2,
    "use":2,
    "blouse":2,
    "share":2,
    "marriage":2,
    "warm":2,
    "funny":2,
    "casual":2,
    "service":2,
    "known":2,
    "seen":2,
    "young":2,
    "earnest":2,
    "hasnt":2,
    "handled":2,
    "left":2,
    "named":2,
    "hour":2,
    "beams":2,
    "lies":2,
    "become":2,
    "bout":2,
    "hospital":2,
    "julias":2,
    "truth":2,
    "destroyed":2,
    "grabs":2,
    "subpoenaed":2,
    "front":2,
    "officer":2,
    "cell":2,
    "crying":2,
    "obrien":2,
    "quit":2,
    "nobody":2,
    "hired":2,
    "image":2,
    "answer":2,
    "news":2,
    "sniffing":2,
    "logo":2,
    "warrant":2,
    "someone":2,
    "excellent":2,
    "rings":2,
    "chez":2,
    "henri":2,
    "bullying":2,
    "stupid":2,
    "stand":2,
    "security":2,
    "button":2,
    "doorway":2,
    "hundred":2,
    "dollars":2,
    "pizza":2,
    "clock":2,
    "counting":2,
    "monitors":2,
    "camera":2,
    "kiss":2,
    "show":2,
    "kissing":2,
    "starting":2,
    "outside":2,
    "morning":2,
    "nurses":2,
    "trust":2,
    "oval":2,
    "pauses":2,
    "tried":2,
    "move":2,
    "strides":2,
    "aides":2,
    "yourself":2,
    "mouth":2,
    "lipstick":2,
    "residence":2,
    "mother":2,
    "tells":2,
    "matter":2,
    "matters":2,
    "latimer":2,
    "flashbulbs":2,
    "drinking":3,
    "dates":3,
    "met":3,
    "happy":3,
    "isnt":3,
    "dirty":3,
    "fine":3,
    "either":3,
    "second":3,
    "without":3,
    "bad":3,
    "told":3,
    "hire":3,
    "change":3,
    "than":3,
    "amazing":3,
    "hey":3,
    "propose":3,
    "tonight":3,
    "engagement":3,
    "puts":3,
    "forget":3,
    "leave":3,
    "thanks":3,
    "hope":3,
    "midnight":3,
    "coming":3,
    "course":3,
    "ambassador":3,
    "sees":3,
    "weve":3,
    "please":3,
    "very":3,
    "leans":3,
    "fade":3,
    "entire":3,
    "conservative":3,
    "kids":3,
    "shouldnt":3,
    "montgomery":3,
    "found":3,
    "defense":3,
    "trying":3,
    "listen":3,
    "went":3,
    "tv":3,
    "vote":3,
    "hate":3,
    "says":3,
    "innocent":3,
    "clean":3,
    "fix":3,
    "body":3,
    "crime":3,
    "months":3,
    "48":3,
    "charge":3,
    "once":3,
    "threatening":3,
    "secretaries":3,
    "assistants":3,
    "also":3,
    "id":3,
    "court":3,
    "reason":3,
    "questions":3,
    "oh":3,
    "definitely":3,
    "leaves":3,
    "hello":3,
    "favor":3,
    "through":3,
    "john":3,
    "free":3,
    "alone":3,
    "paiges":3,
    "party":3,
    "things":3,
    "happened":3,
    "minute":3,
    "made":3,
    "marine":3,
    "enters":3,
    "strong":3,
    "anybody":3,
    "might":3,
    "whore":3,
    "stick":3,
    "ugly":3,
    "hurt":3,
    "screen":3,
    "hell":3,
    "jail":3,
    "five":3,
    "saw":3,
    "lead":3,
    "appropriate":3,
    "howie":3,
    "tape":3,
    "crazy":3,
    "sweet":3,
    "touch":3,
    "served":3,
    "mean":4,
    "turns":4,
    "years":4,
    "woman":4,
    "sleep":4,
    "crap":4,
    "feel":4,
    "lives":4,
    "whats":4,
    "elevator":4,
    "opens":4,
    "blow":4,
    "put":4,
    "keep":4,
    "forward":4,
    "hear":4,
    "client":4,
    "again":4,
    "always":4,
    "well":4,
    "gave":4,
    "pick":4,
    "honor":4,
    "men":4,
    "suits":4,
    "ii":4,
    "nods":4,
    "soldiers":4,
    "times":4,
    "attorney":4,
    "blood":4,
    "much":4,
    "thought":4,
    "better":4,
    "around":4,
    "soldier":4,
    "hed":4,
    "taking":4,
    "pretty":4,
    "talking":4,
    "let":4,
    "rest":4,
    "wally":4,
    "thing":4,
    "six":4,
    "decorated":4,
    "autopsy":4,
    "report":4,
    "read":4,
    "close":4,
    "hi":4,
    "nice":4,
    "last":4,
    "wrong":4,
    "lying":4,
    "life":4,
    "weird":4,
    "normal":4,
    "ariel":4,
    "cry":4,
    "lady":4,
    "mellie":4,
    "enough":4,
    "most":4,
    "side":4,
    "humiliation":4,
    "livvie":4,
    "honored":4,
    "waiting":5,
    "getting":5,
    "means":5,
    "interview":5,
    "arent":5,
    "firm":5,
    "shut":5,
    "dinner":5,
    "youll":5,
    "lie":5,
    "gotta":5,
    "takes":5,
    "girlfriend":5,
    "guns":5,
    "gun":5,
    "vlad":5,
    "shake":5,
    "used":5,
    "being":5,
    "stares":5,
    "mr":5,
    "help":5,
    "living":5,
    "comes":5,
    "gives":5,
    "married":5,
    "watch":5,
    "gone":5,
    "yeah":5,
    "does":5,
    "arrest":5,
    "anymore":5,
    "wasnt":5,
    "those":5,
    "try":5,
    "lot":5,
    "maybe":5,
    "yet":5,
    "wont":5,
    "eyes":5,
    "theyre":5,
    "little":5,
    "tannen":5,
    "tom":5,
    "pierson":5,
    "stands":5,
    "pain":5,
    "country":5,
    "sorry":6,
    "came":6,
    "blind":6,
    "date":6,
    "since":6,
    "old":6,
    "has":6,
    "buy":6,
    "makes":6,
    "way":6,
    "already":6,
    "gladiator":6,
    "marry":6,
    "ring":6,
    "beat":6,
    "moves":6,
    "deal":6,
    "other":6,
    "after":6,
    "head":6,
    "phone":6,
    "had":6,
    "sullys":6,
    "dead":6,
    "long":6,
    "walking":6,
    "friends":6,
    "press":6,
    "hours":6,
    "sleeping":6,
    "door":6,
    "minutes":6,
    "georgia":6,
    "hangs":6,
    "olivias":6,
    "herself":6,
    "meet":6,
    "something":6,
    "together":6,
    "believe":6,
    "secret":6,
    "dog":6,
    "gay":6,
    "until":7,
    "goes":7,
    "baby":7,
    "more":7,
    "should":7,
    "suit":7,
    "yes":7,
    "god":7,
    "first":7,
    "oskar":7,
    "gets":7,
    "wanted":7,
    "three":7,
    "youve":7,
    "still":7,
    "where":7,
    "killed":7,
    "girl":7,
    "everything":7,
    "moment":7,
    "loved":7,
    "night":7,
    "telling":7,
    "big":7,
    "into":7,
    "knew":7,
    "only":8,
    "face":8,
    "even":8,
    "saying":8,
    "been":8,
    "ever":8,
    "law":8,
    "ask":8,
    "really":8,
    "which":8,
    "working":8,
    "anyone":8,
    "person":8,
    "wants":8,
    "car":8,
    "any":8,
    "anything":8,
    "police":8,
    "called":8,
    "before":8,
    "friend":8,
    "murder":8,
    "call":8,
    "gut":8,
    "people":8,
    "heads":8,
    "am":9,
    "price":9,
    "wait":9,
    "said":9,
    "guy":9,
    "room":9,
    "two":9,
    "doing":9,
    "gonna":9,
    "thank":9,
    "by":9,
    "white":9,
    "house":9,
    "liv":9,
    "hero":9,
    "ive":9,
    "alibi":9,
    "cyrus":9,
    "fitz":9,
    "could":10,
    "office":10,
    "wanna":10,
    "some":10,
    "name":10,
    "best":10,
    "will":10,
    "too":10,
    "huck":10,
    "sinclair":10,
    "looks":10,
    "away":10,
    "julia":10,
    "harrison":11,
    "stay":11,
    "guys":11,
    "love":11,
    "say":11,
    "theres":11,
    "talk":11,
    "our":11,
    "doesnt":11,
    "from":11,
    "find":11,
    "off":11,
    "why":12,
    "make":12,
    "them":12,
    "man":12,
    "hands":12,
    "war":12,
    "time":12,
    "us":13,
    "come":13,
    "think":13,
    "over":13,
    "president":13,
    "cant":14,
    "kill":14,
    "ill":14,
    "give":15,
    "got":15,
    "":15,
    "or":15,
    "when":15,
    "would":15,
    "look":15,
    "take":15,
    "right":15,
    "down":16,
    "all":16,
    "never":17,
    "now":17,
    "there":17,
    "see":17,
    "back":18,
    "an":18,
    "okay":18,
    "tell":18,
    "abby":18,
    "youre":19,
    "how":19,
    "good":19,
    "as":19,
    "want":20,
    "here":20,
    "like":20,
    "work":20,
    "paige":20,
    "going":21,
    "stephen":21,
    "then":23,
    "one":23,
    "need":23,
    "quinn":24,
    "job":24,
    "thats":24,
    "they":24,
    "shes":24,
    "so":25,
    "didnt":25,
    "about":25,
    "who":26,
    "his":27,
    "were":27,
    "up":29,
    "get":29,
    "just":30,
    "its":31,
    "hes":31,
    "if":32,
    "go":32,
    "because":33,
    "out":33,
    "no":33,
    "at":35,
    "be":37,
    "did":37,
    "can":37,
    "but":38,
    "my":40,
    "with":42,
    "him":42,
    "sully":42,
    "dont":44,
    "know":45,
    "was":45,
    "what":50,
    "are":50,
    "im":52,
    "olivia":52,
    "that":55,
    "for":56,
    "do":57,
    "have":57,
    "your":58,
    "we":58,
    "this":60,
    "he":66,
    "on":72,
    "of":73,
    "not":77,
    "it":81,
    "her":83,
    "she":83,
    "me":88,
    "is":88,
    "in":90,
    "and":172,
    "a":193,
    "to":226,
    "i":230,
    "the":270,
    "you":313
}