{
    "advertised":1,
    "mena":1,
    "squandering":1,
    "cheap":1,
    "dare":1,
    "shakespeare":1,
    "depalma":1,
    "scorcesse":1,
    "insulting":1,
    "fire":1,
    "icm":1,
    "without":1,
    "wouldve":1,
    "famous":1,
    "fired":1,
    "unfucking":1,
    "believable":1,
    "pah":1,
    "broadway":1,
    "hardly":1,
    "large":1,
    "hewitt":1,
    "course":1,
    "silly":1,
    "lobby":1,
    "stuck":1,
    "freeway":1,
    "eight":1,
    "thirty":1,
    "royally":1,
    "pod":1,
    "debut":1,
    "screen":1,
    "batterys":1,
    "dying":1,
    "lights":1,
    "reach":1,
    "buddy":1,
    "bro":1,
    "battery":1,
    "sounds":1,
    "carrie":1,
    "talented":1,
    "outside":1,
    "plaza":1,
    "everyones":1,
    "auditorium":1,
    "joke":1,
    "ask":1,
    "counting":1,
    "cicis":1,
    "plays":1,
    "1":1,
    "level":1,
    "beneath":1,
    "ten":1,
    "due":1,
    "volume":1,
    "evening":1,
    "dispatch":1,
    "temporarily":1,
    "emergency":1,
    "dep":1,
    "live":1,
    "hollow":1,
    "decided":1,
    "community":1,
    "service":1,
    "bat":1,
    "slowly":1,
    "closer":1,
    "consider":1,
    "parting":1,
    "gift":1,
    "officially":1,
    "summer":1,
    "season":1,
    "opening":1,
    "tim":1,
    "robins":1,
    "eugene":1,
    "levy":1,
    "biggs":1,
    "pastry":1,
    "spelling":1,
    "schwimmer":1,
    "based":1,
    "selling":1,
    "audience":1,
    "dressed":1,
    "occasion":1,
    "honor":1,
    "amongst":1,
    "fans":1,
    "jerry":1,
    "rapp":1,
    "returning":1,
    "fear":1,
    "aided":1,
    "excellent":1,
    "newcomers":1,
    "pull":1,
    "stabs":1,
    "enthusiasm":1,
    "certainly":1,
    "shoes":1,
    "daily":1,
    "basis":1,
    "walt":1,
    "disney":1,
    "tobe":1,
    "hooper":1,
    "allow":1,
    "introduce":1,
    "obnoxious":1,
    "brutally":1,
    "autopsy":1,
    "reports":1,
    "having":1,
    "looked":1,
    "holding":1,
    "brutal":1,
    "involved":1,
    "keeping":1,
    "herself":1,
    "grave":1,
    "danger":1,
    "maniacal":1,
    "psychopath":1,
    "dropped":1,
    "hills":1,
    "posing":1,
    "coroner":1,
    "downtown":1,
    "slab":1,
    "goddamnit":1,
    "fed":1,
    "rewrites":1,
    "2s":1,
    "winding":1,
    "internet":1,
    "wrapped":1,
    "weekend":1,
    "pasty":1,
    "tired":1,
    "nah":1,
    "players":1,
    "hottie":1,
    "concerned":1,
    "safety":1,
    "32":1,
    "int":1,
    "ricky":1,
    "friggen":1,
    "umbilical":1,
    "cord":1,
    "commish":1,
    "melinda":1,
    "mcgraw":1,
    "played":1,
    "rebecca":1,
    "sonny":1,
    "bono":1,
    "letterman":1,
    "heather":1,
    "langenkamp":1,
    "brooke":1,
    "sheilds":1,
    "jody":1,
    "foster":1,
    "ing\ufffdnue":1,
    "cheering":1,
    "relax":1,
    "crack":1,
    "sweetheart":1,
    "rip":1,
    "fucks":1,
    "jeez":1,
    "moody":1,
    "plans":1,
    "eww":1,
    "d\ufffdjr":1,
    "vudo":1,
    "shock":1,
    "aware":1,
    "nights":1,
    "events":1,
    "personal":1,
    "pasts":1,
    "aside":1,
    "exploit":1,
    "alongside":1,
    "seclusion":1,
    "understood":1,
    "wander":1,
    "assure":1,
    "security":1,
    "deaths":1,
    "sheer":1,
    "fan":1,
    "dedicated":1,
    "enjoy":1,
    "classes":1,
    "weekends":1,
    "uncle":1,
    "screenwriter":1,
    "paramount":1,
    "attend":1,
    "hostility":1,
    "segment":1,
    "addict":1,
    "enjoys":1,
    "screwing":1,
    "eye":1,
    "opener":1,
    "lawyers":1,
    "bringing":1,
    "superiors":1,
    "attentions":1,
    "approved":1,
    "card":1,
    "ride":1,
    "monterey":1,
    "reporting":1,
    "patch":1,
    "trained":1,
    "counselor":1,
    "listening":1,
    "girl":1,
    "turn":1,
    "discovered":1,
    "prominent":1,
    "slated":1,
    "wwhat":1,
    "started":1,
    "tracing":1,
    "nail":1,
    "instance":1,
    "scream":1,
    "ounce":1,
    "spilled":1,
    "leading":1,
    "tothe":1,
    "court":1,
    "3s":1,
    "cutting":1,
    "corners":1,
    "castwise":1,
    "technical":1,
    "advisor":1,
    "spirited":1,
    "agent":1,
    "anybody":1,
    "stan":1,
    "tyson":1,
    "honorary":1,
    "directing":1,
    "cinematography":1,
    "videos":1,
    "405":1,
    "10":1,
    "awards":1,
    "35":1,
    "21":1,
    "stupid":1,
    "boyfriends":1,
    "cut":1,
    "mcnuggets":1,
    "umhmm":1,
    "clothes":1,
    "vertigo":1,
    "showering":1,
    "read":1,
    "cane":1,
    "apple":1,
    "hanging":1,
    "goddamn":1,
    "rewrite":1,
    "learn":1,
    "noooo":1,
    "happening":1,
    "liberty":1,
    "longer":1,
    "thrown":1,
    "alike":1,
    "single":1,
    "pushy":1,
    "brazen":1,
    "kincaidok":1,
    "bridgers":1,
    "custody":1,
    "traced":1,
    "records":1,
    "romans":1,
    "classified":1,
    "information":1,
    "investigate":1,
    "meat":1,
    "ap":1,
    "pulitzer":1,
    "material":1,
    "dust":1,
    "prints":1,
    "barbara":1,
    "walters":1,
    "spoke":1,
    "guard":1,
    "talked":1,
    "answered":1,
    "speaking":1,
    "ruin":1,
    "thisll":1,
    "interesting":1,
    "commentary":1,
    "hits":1,
    "dvd":1,
    "shutting":1,
    "risk":1,
    "shelving":1,
    "ensie":1,
    "during":1,
    "filming":1,
    "exorcist":1,
    "stabbed":1,
    "strongly":1,
    "messages":1,
    "nations":1,
    "damned":1,
    "pass":1,
    "buck":1,
    "straight":1,
    "slashings":1,
    "definitive":1,
    "waited":1,
    "dog":1,
    "seven":1,
    "everywhere":1,
    "london":1,
    "york":1,
    "la":1,
    "60":1,
    "ii":1,
    "strength":1,
    "kmart":1,
    "straighttovideo":1,
    "version":1,
    "brace":1,
    "research":1,
    "broken":1,
    "ransacked":1,
    "stole":1,
    "removed":1,
    "private":1,
    "planning":1,
    "suspicions":1,
    "duty":1,
    "following":1,
    "happen":1,
    "magnum":1,
    "pi":1,
    "engines":1,
    "surprise":1,
    "tanked":1,
    "shocker":1,
    "caused":1,
    "drugs":1,
    "faked":1,
    "tire":1,
    "blowout":1,
    "insurance":1,
    "sky":1,
    "rocket":1,
    "journalism":1,
    "boost":1,
    "ratings":1,
    "stunt":1,
    "lead":1,
    "polanskis":1,
    "latest":1,
    "coincide":1,
    "picked":1,
    "piss":1,
    "water":1,
    "scotch":1,
    "jollie":1,
    "empty":1,
    "anyways":1,
    "refuel":1,
    "fame":1,
    "rambling":1,
    "usa":1,
    "network":1,
    "winners":1,
    "realize":1,
    "badly":1,
    "suck":1,
    "choosing":1,
    "victims":1,
    "damons":1,
    "offed":1,
    "darlings":1,
    "versions":1,
    "fake":1,
    "offered":1,
    "fragments":1,
    "actual":1,
    "ugh":1,
    "weak":1,
    "kennison":1,
    "rough":1,
    "treatment":1,
    "saw":1,
    "sidetracked":1,
    "cards":1,
    "casting":1,
    "couch":1,
    "company":1,
    "deep":1,
    "throat":1,
    "remake":1,
    "chances":1,
    "aaaangelina":1,
    "screw":1,
    "brain":1,
    "drama":1,
    "queen":1,
    "burying":1,
    "axe":1,
    "titted":1,
    "blondes":1,
    "michael":1,
    "chucky":1,
    "prepared":1,
    "amen":1,
    "boy":1,
    "scout":1,
    "smell":1,
    "farts":1,
    "panic":1,
    "fuse":1,
    "everyone":1,
    "dunno":1,
    "yours":1,
    "footage":1,
    "sticking":1,
    "foot":1,
    "fight":1,
    "pussy":1,
    "breathing":1,
    "credit":1,
    "mistaken":1,
    "accused":1,
    "murdering":1,
    "sent":1,
    "decide":1,
    "element":1,
    "conference":1,
    "hour":1,
    "explain":1,
    "learned":1,
    "count":1,
    "tyler":1,
    "searching":1,
    "debris":1,
    "days":1,
    "keeps":1,
    "articles":1,
    "conclusions":1,
    "country":1,
    "alibi":1,
    "checks":1,
    "australia":1,
    "100":1,
    "supposedly":1,
    "biggest":1,
    "yahoo":1,
    "serious":1,
    "dad":1,
    "married":1,
    "charcoal":1,
    "conversation":1,
    "polygraph":1,
    "compare":1,
    "calibers":1,
    "obstruct":1,
    "justice":1,
    "reached":1,
    "machine":1,
    "sixth":1,
    "pick":1,
    "okay":1,
    "figured":1,
    "fox":1,
    "5":1,
    "report":1,
    "ran":1,
    "glad":1,
    "small":1,
    "monitored":1,
    "scanner":1,
    "stored":1,
    "cop":1,
    "leaves":1,
    "newspaper":1,
    "recently":1,
    "photo":1,
    "afraid":1,
    "trick":1,
    "shits":1,
    "absolutely":1,
    "offices":1,
    "mm":1,
    "waste":1,
    "silicone":1,
    "colcheck":1,
    "bradleys":1,
    "opened":1,
    "pays":1,
    "rooting":1,
    "someday":1,
    "feared":1,
    "killings":1,
    "vain":1,
    "lifes":1,
    "simply":1,
    "same":1,
    "critical":1,
    "unexpected":1,
    "backstory":1,
    "preponderance":1,
    "exposition":1,
    "concluding":1,
    "rarity":1,
    "exist":1,
    "force":1,
    "reckoned":1,
    "beginning":1,
    "discovering":1,
    "godfather":1,
    "jedi":1,
    "revealed":1,
    "human":1,
    "stabbing":1,
    "cryogenically":1,
    "freeze":1,
    "decapitate":1,
    "blow":1,
    "including":1,
    "main":1,
    "fuckin":1,
    "reservoir":1,
    "dogs":1,
    "bite":1,
    "forget":1,
    "committed":1,
    "destroy":1,
    "fournever":1,
    "circumstances":1,
    "taught":1,
    "fence":1,
    "post":1,
    "jutting":1,
    "closing":1,
    "luck":1,
    "speed":1,
    "careful":1,
    "tickets":1,
    "feud":1,
    "somewhat":1,
    "ulterior":1,
    "driving":1,
    "hook":1,
    "snooping":1,
    "nothings":1,
    "changed":1,
    "geez":1,
    "stalked":1,
    "starting":1,
    "theyll":1,
    "smarter":1,
    "sane":1,
    "quite":1,
    "stretch":1,
    "funny":1,
    "join":1,
    "snl":1,
    "possibly":1,
    "basements":1,
    "creep":1,
    "fascinating":1,
    "lifestyles":1,
    "rich":1,
    "psychotic":1,
    "moneybags":1,
    "homes":1,
    "itd":1,
    "smile":1,
    "everytime":1,
    "anchorwoman":1,
    "books":1,
    "busy":1,
    "access":1,
    "files":1,
    "except":1,
    "execs":1,
    "dollars":1,
    "nancy":1,
    "drew":1,
    "worth":1,
    "grand":1,
    "easy":1,
    "unknown":1,
    "suppose":1,
    "included":1,
    "however":1,
    "judy":1,
    "jurgenstein":1,
    "amazombies":1,
    "space":1,
    "psychos":1,
    "creatures":1,
    "thesan":1,
    "andreas":1,
    "fault":1,
    "heyday":1,
    "producer":1,
    "early":1,
    "mace":1,
    "lethal":1,
    "weapons":1,
    "escort":1,
    "hhello":1,
    "permit":1,
    "aw":1,
    "attack":1,
    "assistance":1,
    "cellular":1,
    "cloned":1,
    "untraceable":1,
    "suspects":1,
    "nevermind":1,
    "researching":1,
    "archives":1,
    "dawned":1,
    "mothers":1,
    "1969":1,
    "1971":1,
    "disappeared":1,
    "minor":1,
    "twisted":1,
    "web":1,
    "makes":1,
    "swan":1,
    "song":1,
    "bloodbath":1,
    "shouldnt":1,
    "carry":1,
    "bullets":1,
    "unless":1,
    "em":1,
    "visit":1,
    "agreed":1,
    "upset":1,
    "ah":1,
    "variety":1,
    "pariah":1,
    "desk":1,
    "tragic":1,
    "menage":1,
    "trios":1,
    "barging":1,
    "sidneys":1,
    "hundreds":1,
    "thousands":1,
    "twist":1,
    "player":1,
    "couple":1,
    "millions":1,
    "settle":1,
    "beavis":1,
    "check":1,
    "realized":1,
    "imagine":1,
    "buried":1,
    "ol":1,
    "yeller":1,
    "barn":1,
    "shot":1,
    "rotten":1,
    "carcass":1,
    "dug":1,
    "drug":1,
    "national":1,
    "70s":1,
    "parts":1,
    "impression":1,
    "invite":1,
    "afterwards":1,
    "advantage":1,
    "sad":1,
    "city":1,
    "innocence":1,
    "charges":1,
    "bottom":1,
    "bets":1,
    "request":1,
    "tend":1,
    "exciting":1,
    "violence":1,
    "tough":1,
    "shoot":1,
    "arrest":1,
    "till":1,
    "secret":1,
    "secrets":1,
    "instead":1,
    "search":1,
    "soundstage":1,
    "ordinary":1,
    "flesh":1,
    "handle":1,
    "mine":1,
    "causing":1,
    "gag":1,
    "member":1,
    "pervert":1,
    "buy":1,
    "ky":1,
    "jelly":1,
    "jack":1,
    "rob":1,
    "reiner":1,
    "quentin":1,
    "tarentino":1,
    "witty":1,
    "hands":1,
    "dingus":1,
    "bankrolled":1,
    "saboteur":1,
    "whose":1,
    "talent":1,
    "lousiest":1,
    "planet":1,
    "cross":1,
    "step":1,
    "directed":1,
    "pro":1,
    "drawer":1,
    "locked":1,
    "hide":1,
    "paternity":1,
    "results":1,
    "feeling":1,
    "deweys":1,
    "hurt":1,
    "radio":1,
    "finished":1,
    "skewered":1,
    "awfully":1,
    "click":1,
    "attract":1,
    "hard":1,
    "their":1,
    "voices":1,
    "hearing":1,
    "simple":1,
    "wed":1,
    "wrap":1,
    "backlot":1,
    "figure":1,
    "began":1,
    "growing":1,
    "impatient":1,
    "explore":1,
    "ohmigod":1,
    "tied":1,
    "untie":1,
    "lunatic":1,
    "watchout":1,
    "runnn":1,
    "theyve":1,
    "sort":1,
    "uhun":1,
    "terms":1,
    "surface":1,
    "searched":1,
    "tracked":1,
    "knocked":1,
    "arms":1,
    "claimed":1,
    "cold":1,
    "son":1,
    "brother":1,
    "slammed":1,
    "rinas":1,
    "struck":1,
    "watched":1,
    "billys":1,
    "father":1,
    "supplied":1,
    "needed":1,
    "pointers":1,
    "sell":1,
    "caught":1,
    "frame":1,
    "nightmares":1,
    "spineless":1,
    "direct":1,
    "example":1,
    "convince":1,
    "dating":1,
    "angie":1,
    "crick":1,
    "english":1,
    "class":1,
    "idolized":1,
    "hero":1,
    "proud":1,
    "turnon":1,
    "bones":1,
    "technically":1,
    "jumping":1,
    "havent":1,
    "aides":1,
    "computer":1,
    "revolution":1,
    "y2kive":1,
    "steal":1,
    "lifeless":1,
    "body":1,
    "anymore":1,
    "exploitation":1,
    "nightmare":1,
    "lived":1,
    "stopped":1,
    "repent":1,
    "pleased":1,
    "across":1,
    "goodbye":1,
    "awesome":1,
    "youknow":1,
    "yep":1,
    "fucked":1,
    "mommy":1,
    "flings":1,
    "exploited":1,
    "whyi":1,
    "mommys":1,
    "orphan":1,
    "amateur":1,
    "laid":1,
    "groundwork":1,
    "introducing":1,
    "victim":1,
    "survivor":1,
    "star":1,
    "choose":1,
    "baby":1,
    "prop":1,
    "cuffs":1,
    "restrain":1,
    "tricks":1,
    "stardom":1,
    "holy":1,
    "repetitive":1,
    "relationship":1,
    "lifemr":1,
    "seconds":1,
    "doctor":1,
    "wild":1,
    "bunch":1,
    "itching":1,
    "completed":1,
    "regards":1,
    "kids":1,
    "dammit":2,
    "cathy":2,
    "supposed":2,
    "premiere":2,
    "arm":2,
    "humor":2,
    "slasher":2,
    "flick":2,
    "offer":2,
    "worked":2,
    "mouth":2,
    "friday":2,
    "13th":2,
    "15":2,
    "bd":2,
    "theater":2,
    "babe":2,
    "starts":2,
    "twenty":2,
    "accident":2,
    "freaking":2,
    "exactly":2,
    "hon":2,
    "although":2,
    "six":2,
    "chat":2,
    "hang":2,
    "asshole":2,
    "almost":2,
    "sound":2,
    "ladies":2,
    "knife":2,
    "kind":2,
    "seem":2,
    "lives":2,
    "dies":2,
    "finger":2,
    "girlfriends":2,
    "round":2,
    "beat":2,
    "bye":2,
    "high":2,
    "directions":2,
    "approach":2,
    "reaction":2,
    "lost":2,
    "box":2,
    "jeff":2,
    "bridges":2,
    "american":2,
    "tori":2,
    "lot":2,
    "upcoming":2,
    "nice":2,
    "entertainment":2,
    "pleasure":2,
    "finally":2,
    "many":2,
    "genre":2,
    "worried":2,
    "complete":2,
    "though":2,
    "producers":2,
    "quick":2,
    "goes":2,
    "scared":2,
    "interviewed":2,
    "once":2,
    "murdered":2,
    "touch":2,
    "hidden":2,
    "hope":2,
    "finding":2,
    "mind":2,
    "sliced":2,
    "earth":2,
    "dew":2,
    "hear":2,
    "somebody":2,
    "iced":2,
    "making":2,
    "months":2,
    "shooting":2,
    "none":2,
    "chick":2,
    "completely":2,
    "isolated":2,
    "incident":2,
    "candys":2,
    "living":2,
    "rest":2,
    "stalking":2,
    "stalker":2,
    "tonight":2,
    "sex":2,
    "comes":2,
    "tragedy":2,
    "promised":2,
    "warrant":2,
    "hate":2,
    "grew":2,
    "leaving":2,
    "lois":2,
    "lane":2,
    "old":2,
    "girls":2,
    "ones":2,
    "stick":2,
    "already":2,
    "loomis":2,
    "macher":2,
    "blood":2,
    "eyes":2,
    "named":2,
    "seeing":2,
    "everybody":2,
    "makeup":2,
    "test":2,
    "field":2,
    "music":2,
    "scenes":2,
    "naked":2,
    "house":2,
    "hmm":2,
    "lines":2,
    "page":2,
    "22":2,
    "ring":2,
    "shower":2,
    "boyfriend":2,
    "whatever":2,
    "pig":2,
    "met":2,
    "soul":2,
    "diane":2,
    "sawyer":2,
    "cool":2,
    "meeting":2,
    "anywhere":2,
    "knows":2,
    "ha":2,
    "clipping":2,
    "whether":2,
    "brought":2,
    "attention":2,
    "author":2,
    "took":2,
    "until":2,
    "forever":2,
    "liked":2,
    "rate":2,
    "record":2,
    "investigating":2,
    "needs":2,
    "neither":2,
    "prinze":2,
    "usual":2,
    "drinking":2,
    "bullshit":2,
    "celebrities":2,
    "jen":2,
    "whoa":2,
    "calm":2,
    "given":2,
    "kinda":2,
    "probably":2,
    "able":2,
    "together":2,
    "ssh":2,
    "knock":2,
    "nervous":2,
    "cell":2,
    "bastard":2,
    "behind":2,
    "whoever":2,
    "key":2,
    "jump":2,
    "besides":2,
    "daughter":2,
    "issue":2,
    "message":2,
    "fast":2,
    "memory":2,
    "each":2,
    "also":2,
    "bait":2,
    "hiding":2,
    "randys":2,
    "nope":2,
    "survive":2,
    "college":2,
    "save":2,
    "apply":2,
    "chapter":2,
    "super":2,
    "basically":2,
    "sins":2,
    "motive":2,
    "sense":2,
    "interview":2,
    "whatta":2,
    "president":2,
    "flicks":2,
    "bmovies":2,
    "randy":2,
    "medical":2,
    "grandiose":2,
    "attacked":2,
    "backup":2,
    "coming":2,
    "pay":2,
    "sayles":2,
    "obsessed":2,
    "truth":2,
    "known":2,
    "men":2,
    "beautiful":2,
    "haunted":2,
    "perfect":2,
    "sometimes":2,
    "learning":2,
    "hold":2,
    "open":2,
    "whwhos":2,
    "somewhere":2,
    "seen":2,
    "half":2,
    "child":2,
    "partner":2,
    "dearest":2,
    "win":2,
    "crap":3,
    "done":3,
    "directors":3,
    "sit":3,
    "gotten":3,
    "today":3,
    "jason":3,
    "love":3,
    "standing":3,
    "while":3,
    "job":3,
    "total":3,
    "theyre":3,
    "uhhuh":3,
    "wish":3,
    "thanks":3,
    "waiting":3,
    "sick":3,
    "swear":3,
    "lay":3,
    "cici":3,
    "everything":3,
    "taking":3,
    "sign":3,
    "hand":3,
    "fifteen":3,
    "morning":3,
    "week":3,
    "arlington":3,
    "david":3,
    "welcome":3,
    "believe":3,
    "seems":3,
    "honestly":3,
    "watch":3,
    "moment":3,
    "actress":3,
    "perkins":3,
    "both":3,
    "under":3,
    "bodies":3,
    "films":3,
    "homicide":3,
    "note":3,
    "prescotts":3,
    "after":3,
    "five":3,
    "end":3,
    "either":3,
    "actors":3,
    "wife":3,
    "break":3,
    "aint":3,
    "keep":3,
    "shed":3,
    "fine":3,
    "guess":3,
    "year":3,
    "thinking":3,
    "station":3,
    "hi":3,
    "mutilated":3,
    "speak":3,
    "billy":3,
    "stu":3,
    "building":3,
    "doubt":3,
    "wheres":3,
    "isnt":3,
    "important":3,
    "video":3,
    "line":3,
    "deal":3,
    "minute":3,
    "says":3,
    "death":3,
    "sids":3,
    "place":3,
    "care":3,
    "couldve":3,
    "different":3,
    "used":3,
    "ago":3,
    "file":3,
    "boys":3,
    "car":3,
    "stage":3,
    "inside":3,
    "written":3,
    "few":3,
    "ok":3,
    "fucker":3,
    "matter":3,
    "use":3,
    "weary":3,
    "riley":3,
    "case":3,
    "threat":3,
    "karen":3,
    "heard":3,
    "tape":3,
    "sequel":3,
    "family":3,
    "story":3,
    "bitch":3,
    "ahead":3,
    "parties":3,
    "calling":3,
    "kid":3,
    "superhuman":3,
    "piece":4,
    "return":4,
    "such":4,
    "respect":4,
    "feel":4,
    "ass":4,
    "could":4,
    "start":4,
    "saying":4,
    "acting":4,
    "world":4,
    "bet":4,
    "trying":4,
    "voice":4,
    "guy":4,
    "act":4,
    "room":4,
    "answer":4,
    "whole":4,
    "calls":4,
    "please":4,
    "understand":4,
    "thank":4,
    "follow":4,
    "final":4,
    "than":4,
    "street":4,
    "windsor":4,
    "must":4,
    "cast":4,
    "yet":4,
    "favorite":4,
    "scary":4,
    "sunrise":4,
    "youd":4,
    "lapd":4,
    "may":4,
    "person":4,
    "might":4,
    "day":4,
    "poor":4,
    "scene":4,
    "woman":4,
    "doesnt":4,
    "own":4,
    "youve":4,
    "month":4,
    "problem":4,
    "laura":4,
    "late":4,
    "finish":4,
    "try":4,
    "soon":4,
    "man":4,
    "roommate":4,
    "since":4,
    "gets":4,
    "um":4,
    "died":4,
    "suspect":4,
    "working":4,
    "means":4,
    "wallace":4,
    "couldnt":4,
    "stay":4,
    "reason":4,
    "wrote":4,
    "weve":4,
    "worry":4,
    "hurry":4,
    "cotton":4,
    "third":4,
    "through":4,
    "long":4,
    "safe":4,
    "remember":4,
    "horror":4,
    "true":4,
    "trilogies":4,
    "miltons":4,
    "bathroom":4,
    "made":4,
    "daddy":4,
    "ghosts":4,
    "friends":4,
    "2":5,
    "bit":5,
    "least":5,
    "catch":5,
    "great":5,
    "familiar":5,
    "ya":5,
    "actor":5,
    "door":5,
    "alone":5,
    "idea":5,
    "question":5,
    "very":5,
    "meet":5,
    "shut":5,
    "playing":5,
    "put":5,
    "office":5,
    "director":5,
    "trilogy":5,
    "picture":5,
    "excuse":5,
    "left":5,
    "tried":5,
    "tom":5,
    "much":5,
    "whatd":5,
    "into":5,
    "nobody":5,
    "else":5,
    "youll":5,
    "business":5,
    "press":5,
    "yes":5,
    "actually":5,
    "better":5,
    "went":5,
    "happy":5,
    "gun":5,
    "our":5,
    "looks":5,
    "wont":5,
    "years":5,
    "anything":5,
    "three":5,
    "nothing":5,
    "came":5,
    "leave":5,
    "take":5,
    "four":5,
    "watching":5,
    "role":6,
    "christine":6,
    "wouldnt":6,
    "heh":6,
    "running":6,
    "first":6,
    "rules":6,
    "book":6,
    "dealing":6,
    "mark":6,
    "these":6,
    "anyway":6,
    "looking":6,
    "rielly":6,
    "production":6,
    "thought":6,
    "studios":6,
    "wanted":6,
    "mom":6,
    "murder":6,
    "gotta":6,
    "phone":6,
    "candy":6,
    "wants":6,
    "yourself":6,
    "tv":6,
    "angelina":6,
    "guys":6,
    "reynolds":6,
    "knew":6,
    "over":7,
    "best":7,
    "bad":7,
    "damn":7,
    "heres":7,
    "next":7,
    "jennifer":7,
    "big":7,
    "jesus":7,
    "later":7,
    "murders":7,
    "give":7,
    "christ":7,
    "second":7,
    "even":7,
    "wasnt":7,
    "night":7,
    "huh":7,
    "then":7,
    "always":7,
    "point":7,
    "anyone":7,
    "let":7,
    "away":7,
    "whos":7,
    "head":7,
    "killers":7,
    "wanna":7,
    "shes":8,
    "should":8,
    "show":8,
    "myself":8,
    "wrong":8,
    "cant":8,
    "wait":8,
    "more":8,
    "character":8,
    "bridger":8,
    "those":8,
    "studio":8,
    "sorry":8,
    "face":8,
    "other":8,
    "every":8,
    "talking":8,
    "happened":8,
    "home":8,
    "told":8,
    "things":8,
    "darling":8,
    "past":8,
    "stop":8,
    "rina":8,
    "girlfriend":9,
    "does":9,
    "id":9,
    "minutes":9,
    "sure":9,
    "thing":9,
    "damon":9,
    "name":9,
    "set":9,
    "any":9,
    "us":9,
    "would":9,
    "kincaid":9,
    "found":9,
    "being":9,
    "am":9,
    "milton":9,
    "before":9,
    "run":9,
    "john":9,
    "part":10,
    "around":10,
    "little":10,
    "alright":10,
    "number":10,
    "lets":10,
    "game":10,
    "say":10,
    "life":10,
    "them":10,
    "again":10,
    "getting":10,
    "ever":10,
    "news":10,
    "called":10,
    "cause":11,
    "will":11,
    "never":11,
    "miss":11,
    "talk":11,
    "hello":11,
    "film":11,
    "maybe":11,
    "new":11,
    "has":11,
    "mr":11,
    "dead":11,
    "people":11,
    "tell":12,
    "another":12,
    "whats":12,
    "movies":12,
    "hollywood":12,
    "script":12,
    "too":12,
    "last":12,
    "him":12,
    "die":12,
    "work":12,
    "killed":12,
    "3":13,
    "woodsboro":13,
    "listen":13,
    "by":13,
    "theres":13,
    "play":13,
    "said":13,
    "didnt":13,
    "mother":13,
    "hey":13,
    "two":13,
    "still":13,
    "doing":13,
    "police":13,
    "hell":13,
    "hes":13,
    "fuck":14,
    "an":14,
    "when":14,
    "fucking":14,
    "yeah":14,
    "had":14,
    "prescott":14,
    "only":14,
    "help":14,
    "find":14,
    "maureen":14,
    "sarah":14,
    "ben":15,
    "mean":15,
    "real":15,
    "been":15,
    "going":16,
    "look":16,
    "something":16,
    "way":16,
    "kill":16,
    "back":16,
    "need":16,
    "some":17,
    "call":18,
    "killer":18,
    "off":18,
    "roman":18,
    "someone":18,
    "detective":18,
    "ive":19,
    "gonna":19,
    "really":19,
    "or":19,
    "because":19,
    "make":19,
    "come":20,
    "down":20,
    "weathers":20,
    "his":20,
    "as":21,
    "want":21,
    "why":21,
    "time":22,
    "they":22,
    "from":22,
    "he":22,
    "can":23,
    "movie":23,
    "good":23,
    "right":24,
    "where":24,
    "did":24,
    "shit":25,
    "see":25,
    "go":26,
    "ill":26,
    "stab":27,
    "how":27,
    "think":27,
    "at":28,
    "thats":29,
    "were":29,
    "just":30,
    "":30,
    "god":31,
    "up":31,
    "there":32,
    "dewey":32,
    "sid":32,
    "oh":33,
    "but":33,
    "one":33,
    "who":35,
    "got":36,
    "so":36,
    "get":37,
    "well":37,
    "now":38,
    "all":38,
    "like":38,
    "we":38,
    "have":39,
    "youre":40,
    "if":40,
    "she":40,
    "gale":41,
    "out":42,
    "about":43,
    "here":45,
    "dont":47,
    "no":48,
    "be":48,
    "sidney":53,
    "are":56,
    "her":57,
    "not":57,
    "on":58,
    "your":59,
    "its":59,
    "know":60,
    "do":61,
    "for":69,
    "with":69,
    "was":69,
    "that":73,
    "im":78,
    "it":80,
    "my":90,
    "what":92,
    "of":93,
    "this":94,
    "is":95,
    "in":97,
    "me":102,
    "and":119,
    "a":186,
    "to":213,
    "i":249,
    "the":318,
    "you":354
}