{
    "crippled":1,
    "buckles":1,
    "collapses":1,
    "highpitched":1,
    "hiss":1,
    "increases":1,
    "motionless":1,
    "debris":1,
    "bibles":1,
    "covered":1,
    "tiny":1,
    "bits":1,
    "gleam":1,
    "sun":1,
    "reveal":1,
    "resting":1,
    "image":1,
    "wrestles":1,
    "formal":1,
    "striped":1,
    "pants":1,
    "tuxedo":1,
    "tails":1,
    "dressing":1,
    "elegance":1,
    "efficiency":1,
    "ascot":1,
    "generally":1,
    "apply":1,
    "waits":1,
    "gently":1,
    "irregular":1,
    "knot":1,
    "distinguished":1,
    "debonair":1,
    "hog":1,
    "crime":1,
    "lightening":1,
    "pastor":1,
    "teach":1,
    "class":1,
    "occasional":1,
    "engagement":1,
    "mortgage":1,
    "savings":1,
    "phoneless":1,
    "game":1,
    "finishes":1,
    "fancy":1,
    "handsome":1,
    "other\u2019s":1,
    "youngest":1,
    "recipient":1,
    "35":1,
    "imprisoned":1,
    "subject":1,
    "attacks":1,
    "fatal":1,
    "nevertheless":1,
    "falter":1,
    "quest":1,
    "undaunted":1,
    "champion":1,
    "norwegian":1,
    "parliament":1,
    "awards":1,
    "1964":1,
    "accepts":1,
    "microphone":1,
    "royal":1,
    "highness":1,
    "excellencies":1,
    "refuse":1,
    "mankind":1,
    "bound":1,
    "starless":1,
    "midnight":1,
    "bright":1,
    "daybreak":1,
    "brotherhood":1,
    "orator":1,
    "command":1,
    "22":1,
    "majestic":1,
    "scorn":1,
    "selfcentered":1,
    "othercentered":1,
    "applause":1,
    "oslo":1,
    "515pm":1,
    "c":1,
    "ring":1,
    "gripping":1,
    "purse":1,
    "calm":1,
    "herself":1,
    "smirks":1,
    "teeth":1,
    "placing":1,
    "dunn":1,
    "dunn\u2019ll":1,
    "reviews":1,
    "annoyed":1,
    "waver":1,
    "recite":1,
    "constitution\u2019s":1,
    "union":1,
    "domestic":1,
    "tranquility":1,
    "provide":1,
    "common":1,
    "promote":1,
    "posterity":1,
    "judges":1,
    "sixtyseven":1,
    "inks":1,
    "rubber":1,
    "stamp":1,
    "bang":1,
    "indicated":1,
    "buyin":1,
    "highly":1,
    "recommend":1,
    "facetoface":1,
    "opportunity":1,
    "discuss":1,
    "surveillance":1,
    "meets":1,
    "young\u2019s":1,
    "spill":1,
    "affected":1,
    "masks":1,
    "key":1,
    "\u201cnow\u201d":1,
    "focusing":1,
    "international":1,
    "attention\u2019ll":1,
    "groundlevel":1,
    "fullscale":1,
    "apparently":1,
    "yep":1,
    "extensive":1,
    "reiterate":1,
    "reiteration":1,
    "\u201clook":1,
    "not\u201d":1,
    "strides":1,
    "residential":1,
    "entry":1,
    "secretary":1,
    "straightens":1,
    "sip":1,
    "preparing":1,
    "shake":1,
    "faux":1,
    "warmth":1,
    "sonofabitch":1,
    "laureate":1,
    "titshigh":1,
    "puppy":1,
    "dog":1,
    "guides":1,
    "pours":1,
    "ending":1,
    "\u201864":1,
    "proudest":1,
    "priority":1,
    "storing":1,
    "heap":1,
    "convince":1,
    "capacity":1,
    "fortunate":1,
    "statesmanlike":1,
    "types":1,
    "addressed":1,
    "repercussions":1,
    "trajectory":1,
    "unbridled":1,
    "inflicted":1,
    "mention":1,
    "bows":1,
    "technically":1,
    "booth":1,
    "disgrace":1,
    "granting":1,
    "unencumbered":1,
    "decadeslong":1,
    "dismissal":1,
    "seek":1,
    "withhold":1,
    "robust":1,
    "digest":1,
    "desegregatin":1,
    "64":1,
    "runnin":1,
    "fatigued":1,
    "intermission":1,
    "heal":1,
    "wounds":1,
    "thoughtfully":1,
    "eradication":1,
    "busy":1,
    "survivin\u2019":1,
    "democratic":1,
    "ambitious":1,
    "reforms":1,
    "poverty\u201d":1,
    "priorities":1,
    "votin":1,
    "regretfully":1,
    "fullthrottle":1,
    "there\u2019ve":1,
    "raciallymotivated":1,
    "astounding":1,
    "murder":1,
    "convicted":1,
    "conviction":1,
    "chosen":1,
    "electorate":1,
    "trial":1,
    "juries":1,
    "serve":1,
    "jury":1,
    "emboldened":1,
    "interpret":1,
    "credit":1,
    "article":1,
    "iv":1,
    "section":1,
    "privileges":1,
    "immunities":1,
    "required":1,
    "fisk":1,
    "alum":1,
    "bernard":1,
    "lafayette":1,
    "bless":1,
    "flunked":1,
    "anyway":1,
    "write":1,
    "cursive":1,
    "registrar\u2019s":1,
    "preferred":1,
    "expectantly":1,
    "dense":1,
    "woods":1,
    "interstate":1,
    "forest":1,
    "trees":1,
    "loom":1,
    "borne":1,
    "strange":1,
    "fruit":1,
    "backseat":1,
    "pontiac":1,
    "older":1,
    "baptist":1,
    "distinction":1,
    "63":1,
    "pounds":1,
    "easily":1,
    "linebacker":1,
    "lined":1,
    "docll":1,
    "thatll":1,
    "proclaiming":1,
    "\u2018selma":1,
    "28":1,
    "miles\u2019":1,
    "zips":1,
    "twentyeight":1,
    "beneath":1,
    "cocacola":1,
    "logo":1,
    "progressive":1,
    "friendly\u2019":1,
    "arched":1,
    "painted":1,
    "overhang":1,
    "imagine":1,
    "decent":1,
    "matteroffactly":1,
    "greets":1,
    "1855\u2019":1,
    "dashing":1,
    "shirt":1,
    "denim":1,
    "curb":1,
    "sticks":1,
    "caress":1,
    "nash\u2019s":1,
    "cheek":1,
    "loving":1,
    "checked":1,
    "leaders\u2019ll":1,
    "selma\u2019s":1,
    "groundwork\u2019s":1,
    "laid":1,
    "witness":1,
    "era":1,
    "spots":1,
    "bitterly":1,
    "resentful":1,
    "rid":1,
    "sudden":1,
    "introduce":1,
    "course":1,
    "fist":1,
    "landing":1,
    "punch":1,
    "kick":1,
    "groin":1,
    "welldressed":1,
    "tiptoes":1,
    "officers":1,
    "protective":1,
    "barrier":1,
    "forehead":1,
    "fiercely":1,
    "keys":1,
    "defiantly":1,
    "guest":1,
    "bed":1,
    "compress":1,
    "professional":1,
    "60":1,
    "thin":1,
    "414":1,
    "w":1,
    "dissidents":1,
    "charges":1,
    "council":1,
    "congregating":1,
    "harassing":1,
    "supremacist":1,
    "slightly":1,
    "smalltown":1,
    "pepper":1,
    "tough":1,
    "nut":1,
    "viceversa":1,
    "wrote":1,
    "behalf":1,
    "helped":1,
    "organizing":1,
    "disgraceful":1,
    "attitude":1,
    "fiery":1,
    "impressed":1,
    "obeying":1,
    "booking":1,
    "provocation":1,
    "desegregation":1,
    "disappoint":1,
    "dodgeball":1,
    "bernice":1,
    "baby":1,
    "shirts":1,
    "rings":1,
    "insults":1,
    "ties":1,
    "replaces":1,
    "resumes":1,
    "heading":1,
    "picking":1,
    "5am":1,
    "planned":1,
    "marion":1,
    "halfday":1,
    "trip":1,
    "rightly":1,
    "early":1,
    "wallet":1,
    "halie":1,
    "heavyset":1,
    "heartshaped":1,
    "lord\u2019s":1,
    "contralto":1,
    "\u201cprecious":1,
    "hand\u201d":1,
    "telephone":1,
    "entertainer":1,
    "mahalia":1,
    "1007":1,
    "torture":1,
    "brush":1,
    "alright":1,
    "smooth":1,
    "problems":1,
    "word\u2019s":1,
    "gettin\u2019":1,
    "huge":1,
    "sully":1,
    "sympathetic":1,
    "jean\u2019s":1,
    "chuckles":1,
    "apronclad":1,
    "6":1,
    "settled":1,
    "uncovering":1,
    "buttered":1,
    "biscuits":1,
    "crisp":1,
    "bacon":1,
    "catches":1,
    "uh":1,
    "briefcases":1,
    "coordinates":1,
    "branches":1,
    "trademark":1,
    "whoa":1,
    "james\u2019":1,
    "booming":1,
    "castro":1,
    "eating":1,
    "storm":1,
    "asleep":1,
    "dining":1,
    "recliner":1,
    "twin":1,
    "beds":1,
    "kid\u2019s":1,
    "snoring":1,
    "bedroom":1,
    "lamp":1,
    "uneasiness":1,
    "ah":1,
    "organize":1,
    "grief":1,
    "townsfolk":1,
    "spirit":1,
    "sort":1,
    "exits":1,
    "gains":1,
    "midthrottle":1,
    "pulpit":1,
    "praise":1,
    "encouragement":1,
    "boycotting":1,
    "buses":1,
    "crimes":1,
    "perpetrated":1,
    "humanity":1,
    "martyred":1,
    "heroines":1,
    "crusade":1,
    "alike":1,
    "substitute":1,
    "unrelentingly":1,
    "unacceptable":1,
    "2":1,
    "ballot":1,
    "box":1,
    "voiceless":1,
    "\u201cno":1,
    "more\u201d":1,
    "disturb":1,
    "attempted":1,
    "firmly":1,
    "irrevocably":1,
    "possess":1,
    "submit":1,
    "interests":1,
    "activists":1,
    "super":1,
    "630pm":1,
    "incite":1,
    "approx":1,
    "members":1,
    "adoring":1,
    "approached":1,
    "assertive":1,
    "provoking":1,
    "halls":1,
    "onus":1,
    "rests":1,
    "strategy":1,
    "addition":1,
    "staffers":1,
    "audience":1,
    "firebrand":1,
    "measured":1,
    "month":1,
    "outrageous":1,
    "pathetic":1,
    "explain":1,
    "havent":1,
    "instantly":1,
    "direction":1,
    "awe":1,
    "confrontation":1,
    "adversary":1,
    "nine":1,
    "arresting":1,
    "humane":1,
    "jailwagons":1,
    "stretchers":1,
    "longterm":1,
    "educating":1,
    "government":1,
    "neecessary":1,
    "grassroots":1,
    "primarily":1,
    "whichever":1,
    "fish":1,
    "fry":1,
    "ignore":1,
    "bully":1,
    "bitter":1,
    "controls":1,
    "relatively":1,
    "avenues":1,
    "defined":1,
    "exceptional":1,
    "circumstance":1,
    "clearlydefined":1,
    "citadel":1,
    "lapel":1,
    "defended":1,
    "fanatics":1,
    "worn":1,
    "impersonating":1,
    "combat":1,
    "helmet":1,
    "tightfitting":1,
    "militarystyle":1,
    "sixshooter":1,
    "carrying":1,
    "club":1,
    "atop":1,
    "drawn":1,
    "outrage":1,
    "aggression":1,
    "hostility":1,
    "reluctantly":1,
    "policemen":1,
    "motley":1,
    "vigilante":1,
    "crudely":1,
    "pinbadges":1,
    "sheriffs":1,
    "posse\u2019":1,
    "heavilyarmed":1,
    "varied":1,
    "sidearms":1,
    "electric":1,
    "cattleprods":1,
    "jeers":1,
    "abuse":1,
    "racist":1,
    "onlookers":1,
    "deliberately":1,
    "causin\u2019":1,
    "obstruction":1,
    "youll":1,
    "arrested":1,
    "gain":1,
    "spit":1,
    "wipes":1,
    "saliva":1,
    "prizefighter":1,
    "frustration":1,
    "pitch":1,
    "sidewalk":1,
    "askin\u2019":1,
    "shoves":1,
    "concrete":1,
    "jimmies":1,
    "chest":1,
    "jabs":1,
    "sneers":1,
    "prod":1,
    "eats":1,
    "ageing":1,
    "sidelines":1,
    "fbis":1,
    "current":1,
    "info":1,
    "regarding":1,
    "summed":1,
    "writes":1,
    "loveletters":1,
    "kruschev":1,
    "hed":1,
    "atomic":1,
    "moscow":1,
    "thirsty":1,
    "militants":1,
    "inciting":1,
    "refusing":1,
    "singlefile":1,
    "circus":1,
    "keeps":1,
    "bastard\u2019s":1,
    "telegramin\u2019":1,
    "writin\u2019":1,
    "overshadowing":1,
    "shuts":1,
    "permanently":1,
    "unequivocally":1,
    "irony":1,
    "aware":1,
    "director":1,
    "breaks":1,
    "weaken":1,
    "dynamic":1,
    "dismantle":1,
    "men\u2019s":1,
    "weeping":1,
    "clustered":1,
    "johnson\u2019ll":1,
    "flinch":1,
    "tiring":1,
    "jailed":1,
    "hushed":1,
    "tones":1,
    "earn":1,
    "buy":1,
    "burger":1,
    "menu":1,
    "psyche":1,
    "generations":1,
    "medgar":1,
    "hebert":1,
    "lamar":1,
    "smith":1,
    "doin\u2019":1,
    "probably":1,
    "bugged":1,
    "birds":1,
    "barns":1,
    "heavenly":1,
    "add":1,
    "life\u201d":1,
    "matthew":1,
    "627":1,
    "where\u2019d":1,
    "overheard":1,
    "motioning":1,
    "learning":1,
    "\u201cby":1,
    "necessary\u201d":1,
    "madness":1,
    "bout":1,
    "bust":1,
    "shooting":1,
    "guard\u2019ll":1,
    "firing":1,
    "til":1,
    "lower":1,
    "fast":1,
    "fairskinned":1,
    "leaders\u2019":1,
    "vigorously":1,
    "comrade":1,
    "elhajj":1,
    "malik":1,
    "elshabazz":1,
    "sparks":1,
    "diane":1,
    "doc\u2019s":1,
    "muslim":1,
    "partycrasher":1,
    "di":1,
    "smartly":1,
    "appearance":1,
    "sent":1,
    "firsttime":1,
    "bombing":1,
    "arrests":1,
    "spat":1,
    "pushed":1,
    "yanked":1,
    "punched":1,
    "slapped":1,
    "count":1,
    "rubble":1,
    "dishonorable":1,
    "encouraged":1,
    "raises":1,
    "eyebrows":1,
    "wonders":1,
    "reserved":1,
    "kindly":1,
    "killin":1,
    "option\u2019":1,
    "presented":1,
    "offices":1,
    "sever":1,
    "railroad":1,
    "company":1,
    "protracted":1,
    "sitin":1,
    "scale":1,
    "enthralled":1,
    "legwork":1,
    "eventually":1,
    "spectacle":1,
    "intensely":1,
    "disrespectful":1,
    "achieve":1,
    "piercing":1,
    "critiques":1,
    "nonviolence":1,
    "undone":1,
    "recently":1,
    "traveled":1,
    "mecca":1,
    "learned":1,
    "during":1,
    "hajj":1,
    "nationalities":1,
    "worship":1,
    "unison":1,
    "scares":1,
    "refuge":1,
    "represent":1,
    "factions":1,
    "sincere":1,
    "convinced":1,
    "separated":1,
    "jailer":1,
    "occasionally":1,
    "fire":1,
    "seemed":1,
    "recall":1,
    "irritation":1,
    "knows":1,
    "petitioning":1,
    "violations":1,
    "field":1,
    "scenario":1,
    "\u201cignorant":1,
    "preachers\u201d":1,
    "\u201cmodern":1,
    "tom\u201d":1,
    "aimed":1,
    "dogs":1,
    "enamored":1,
    "reacts":1,
    "regrets":1,
    "opening":1,
    "waist":1,
    "momentum":1,
    "jeopardy":1,
    "rhetoric":1,
    "exhaling":1,
    "resistant":1,
    "pleasant":1,
    "display":1,
    "civic":1,
    "imposing":1,
    "woodpaneled":1,
    "smoking":1,
    "al":1,
    "50ish":1,
    "commander":1,
    "fuck\u2019s":1,
    "sake":1,
    "actual":1,
    "riled":1,
    "spook":1,
    "existence":1,
    "jumpy":1,
    "cotton":1,
    "pickin\u2019":1,
    "stratosphere":1,
    "backwoods":1,
    "election":1,
    "year\u2019s":1,
    "abide":1,
    "fill":1,
    "applications":1,
    "gloves":1,
    "pretty":1,
    "rodeo\u2019ll":1,
    "obliterates":1,
    "cigarette":1,
    "ashtray":1,
    "goddamit":1,
    "sweettalk":1,
    "elvis":1,
    "presley":1,
    "visiting":1,
    "pair":1,
    "throw":1,
    "scare":1,
    "sense":1,
    "fuckers":1,
    "announced":1,
    "unofficial":1,
    "bailed":1,
    "fundraiser":1,
    "california":1,
    "fewer":1,
    "poorlylit":1,
    "penned":1,
    "shrieks":1,
    "panic":1,
    "strain":1,
    "stark":1,
    "contrast":1,
    "formidable":1,
    "slips":1,
    "knuckleduster":1,
    "streetlights":1,
    "switch":1,
    "clubbing":1,
    "punching":1,
    "stomping":1,
    "seized":1,
    "pieces":1,
    "focuses":1,
    "mack\u2019s":1,
    "cafe":1,
    "soulfood":1,
    "patrons":1,
    "drink":1,
    "subdued":1,
    "atmosphere":1,
    "jukebox":1,
    "\u201ca":1,
    "supreme\u201d":1,
    "crashes":1,
    "depleted":1,
    "outofbreath":1,
    "threesome":1,
    "burst":1,
    "lunges":1,
    "third":1,
    "hurls":1,
    "battering":1,
    "shoots":1,
    "twice":1,
    "stomach":1,
    "stillness":1,
    "screams":1,
    "rampage":1,
    "slumps":1,
    "horn":1,
    "wails":1,
    "morgue":1,
    "sterile":1,
    "hallway":1,
    "lee\u2019s":1,
    "glares":1,
    "\u201csoft\u201d":1,
    "grandfather":1,
    "tentatively":1,
    "soothe":1,
    "mother":1,
    "couldn\u2019t":1,
    "82":1,
    "1883":1,
    "born":1,
    "\u201838":1,
    "\u201cpa":1,
    "done\u201d":1,
    "\u2018fore":1,
    "studied":1,
    "clasps":1,
    "reserve":1,
    "prevent":1,
    "entrenched":1,
    "vanishes":1,
    "awaiting":1,
    "coffin":1,
    "brown\u2019s":1,
    "packed":1,
    "mourners":1,
    "acting":1,
    "pointed":1,
    "finger":1,
    "preaches":1,
    "stays":1,
    "hatred":1,
    "prejudice":1,
    "lawman":1,
    "terrorize":1,
    "joining":1,
    "humiliated":1,
    "brutalized":1,
    "ripped":1,
    "ripples":1,
    "yesterday":1,
    "weeks":1,
    "turned":1,
    "\u201cif":1,
    "haven\u2019t":1,
    "fit":1,
    "live\u201d":1,
    "vain":1,
    "slaughtered":1,
    "spends":1,
    "millions":1,
    "dollars":1,
    "vietnam":1,
    "lacks":1,
    "defend":1,
    "scribble":1,
    "furiously":1,
    "hurrying":1,
    "waltz":1,
    "list":1,
    "starting":1,
    "point":1,
    "dictate":1,
    "uncertain":1,
    "terms":1,
    "backpeddling":1,
    "diminish":1,
    "negotiation":1,
    "grievances":1,
    "finesse":1,
    "patronize":1,
    "toptier":1,
    "elements":1,
    "specific":1,
    "settles":1,
    "banning":1,
    "anyone":1,
    "exact":1,
    "location":1,
    "volume":1,
    "sparking":1,
    "crosstalk":1,
    "interruptions":1,
    "broke":1,
    "weren\u2019t":1,
    "legally":1,
    "30":1,
    "taxes":1,
    "18":1,
    "cast":1,
    "money":1,
    "ideas":1,
    "average":1,
    "flunk":1,
    "missing":1,
    "comma":1,
    "vouchers":1,
    "everybody":1,
    "forgets":1,
    "vouches":1,
    "instance":1,
    "20th":1,
    "somebody":1,
    "vouch":1,
    "tens":1,
    "voucher":1,
    "furious":1,
    "invites":1,
    "grip":1,
    "amplify":1,
    "jaw":1,
    "provoked":1,
    "tragedy":1,
    "lil\u2019":1,
    "fifty":1,
    "season":1,
    "dangerous":1,
    "strategic":1,
    "propose":1,
    "matteroffactness":1,
    "hugely":1,
    "significant":1,
    "eligibility":1,
    "enabling":1,
    "involvement":1,
    "publicly":1,
    "activist":1,
    "spot":1,
    "demandin\u2019":1,
    "quid":1,
    "pro":1,
    "quo":1,
    "investigate":1,
    "electoral":1,
    "declaring":1,
    "victory":1,
    "conclusion":1,
    "include":1,
    "objectives":1,
    "certainly":1,
    "objective":1,
    "halfway":1,
    "punished":1,
    "needing":1,
    "collaborative":1,
    "finishing":1,
    "dc":1,
    "details":1,
    "credible":1,
    "shut":1,
    "assume":1,
    "tracking":1,
    "animals":1,
    "bugging":1,
    "homes":1,
    "digging":1,
    "convenient":1,
    "swirling":1,
    "level":1,
    "outreach":1,
    "anticipate":1,
    "frontlines":1,
    "resolute":1,
    "troubled":1,
    "how\u2019d":1,
    "reply":1,
    "awkward":1,
    "shifts":1,
    "uncomfortably":1,
    "streetlamp":1,
    "glows":1,
    "neighborhood":1,
    "sex":1,
    "moans":1,
    "groans":1,
    "growing":1,
    "cassette":1,
    "deck":1,
    "unspooling":1,
    "complete":1,
    "fraud":1,
    "liability":1,
    "frauds":1,
    "degrees":1,
    "grim":1,
    "farce":1,
    "save":1,
    "abnormal":1,
    "beast":1,
    "truthfully":1,
    "nights":1,
    "wondering":1,
    "renting":1,
    "foundation":1,
    "education":1,
    "worse":1,
    "withstand":1,
    "constant":1,
    "closeness":1,
    "hanging":1,
    "hearts":1,
    "filth":1,
    "deranged":1,
    "twisted":1,
    "worst":1,
    "fool":1,
    "doubt":1,
    "oxygen":1,
    "deflated":1,
    "resolve":1,
    "acknowledgment":1,
    "feared":1,
    "continue":1,
    "marriage":1,
    "anyhow":1,
    "finale":1,
    "motions":1,
    "confused":1,
    "ignores":1,
    "he\u2019d":1,
    "sweatin\u2019":1,
    "fo\u2019":1,
    "trust":1,
    "ribbing":1,
    "taught":1,
    "jack":1,
    "hadn\u2019t":1,
    "shown":1,
    "mood":1,
    "it\u2019d":1,
    "overselling":1,
    "doing\u201d":1,
    "arrived":1,
    "proceed":1,
    "understood":1,
    "choose":1,
    "checks":1,
    "sleep":1,
    "rewind":1,
    "recorder":1,
    "sinks":1,
    "threatening":1,
    "statement":1,
    "conducive":1,
    "traffic":1,
    "flow":1,
    "80":1,
    "tolerated":1,
    "whatsoever":1,
    "tolerate":1,
    "nigra":1,
    "agitators":1,
    "attempting":1,
    "orchestrate":1,
    "impersonatin\u2019":1,
    "amens":1,
    "allaround":1,
    "notices":1,
    "motion":1,
    "hall":1,
    "low":1,
    "bullshit":1,
    "how\u2019s":1,
    "courses":1,
    "honestly":1,
    "rat\u2019s":1,
    "base":1,
    "tide":1,
    "ways":1,
    "aspirations":1,
    "people\u2019s":1,
    "funeral":1,
    "marches":1,
    "hurting":1,
    "guidance":1,
    "demonize":1,
    "holier":1,
    "thou":1,
    "follower":1,
    "\u201cfor":1,
    "people\u201d":1,
    "voted":1,
    "\u2018de":1,
    "lawd\u2019":1,
    "disciples":1,
    "shellshocked":1,
    "draw":1,
    "525":1,
    "walked":1,
    "six":1,
    "blocks":1,
    "river":1,
    "wind":1,
    "whipped":1,
    "coats":1,
    "bedrolls":1,
    "sacks":1,
    "necks":1,
    "squad":1,
    "distant":1,
    "beginning":1,
    "above":1,
    "bridge\u2019s":1,
    "shows":1,
    "dawning":1,
    "reverse":1,
    "angle":1,
    "frontline":1,
    "200":1,
    "mingled":1,
    "storefronts":1,
    "fields":1,
    "scores":1,
    "parked":1,
    "roofs":1,
    "pickups":1,
    "wave":1,
    "flags":1,
    "brandish":1,
    "banners":1,
    "\u2018who":1,
    "niggers\u2019":1,
    "15":1,
    "swim":1,
    "swimming":1,
    "pools":1,
    "divided":1,
    "silently":1,
    "descended":1,
    "slope":1,
    "formed":1,
    "ranks":1,
    "amplifying":1,
    "system":1,
    "commanding":1,
    "officerincharge":1,
    "unlawful":1,
    "assembly":1,
    "ultimatum":1,
    "gasmasks":1,
    "alien":1,
    "sinister":1,
    "collegeaged":1,
    "boyfriend":1,
    "familiar":1,
    "mounting":1,
    "anxiety":1,
    "smashing":1,
    "immediately":1,
    "creating":1,
    "grotesque":1,
    "ragdoll":1,
    "dominoeffect":1,
    "battered":1,
    "instructed":1,
    "gunshots":1,
    "pistol":1,
    "rebel":1,
    "yells":1,
    "lowlying":1,
    "teargas":1,
    "masked":1,
    "monsters":1,
    "smashes":1,
    "lies":1,
    "description":1,
    "uniforms":1,
    "helmets":1,
    "blurring":1,
    "wedge":1,
    "10":1,
    "20":1,
    "swept":1,
    "bags":1,
    "skittering":1,
    "grassy":1,
    "divider":1,
    "retreated":1,
    "continued":1,
    "prodding":1,
    "cheer":1,
    "lining":1,
    "spurred":1,
    "rode":1,
    "retreating":1,
    "sideline":1,
    "whooped":1,
    "cheered":1,
    "gunshot":1,
    "spewed":1,
    "yelled":1,
    "covering":1,
    "newsmen":1,
    "confined":1,
    "lose":1,
    "hid":1,
    "unobstructed":1,
    "fifteen":1,
    "twenty":1,
    "flailing":1,
    "horror":1,
    "whips":1,
    "cattle":1,
    "prods":1,
    "grass":1,
    "strip":1,
    "knocked":1,
    "posseman":1,
    "cannister":1,
    "amelia\u2019s":1,
    "blinded":1,
    "gasping":1,
    "hospital":1,
    "reports":1,
    "fractures":1,
    "ribs":1,
    "severely":1,
    "remarked":1,
    "ranging":1,
    "ii":1,
    "german":1,
    "rivaled":1,
    "whizzes":1,
    "maximum":1,
    "speed":1,
    "canister":1,
    "gripped":1,
    "journalist":1,
    "passenger":1,
    "cameraman":1,
    "onair":1,
    "dusk":1,
    "hurry":1,
    "tentative":1,
    "yard":1,
    "suitcase":1,
    "overhears":1,
    "entire":1,
    "32s":1,
    "38":1,
    "scatterguns":1,
    "crackers":1,
    "retaliation":1,
    "colt":1,
    "automatics":1,
    "12gauge":1,
    "pumpactions":1,
    "remingtons":1,
    "helicopters":1,
    "tanks":1,
    "livid":1,
    "ledge":1,
    "alert":1,
    "entryway":1,
    "usher\u2019s":1,
    "hello":1,
    "hovers":1,
    "propped":1,
    "weak":1,
    "cup":1,
    "comforting":1,
    "guiltridden":1,
    "thoughts":1,
    "bandaged":1,
    "drinking":1,
    "collective":1,
    "daze":1,
    "snaps":1,
    "blank":1,
    "warms":1,
    "points":1,
    "gradually":1,
    "emerge":1,
    "spencer":1,
    "tracy":1,
    "middleaged":1,
    "scene":1,
    "watchin\u2019":1,
    "interrupt":1,
    "feature":1,
    "sensational":1,
    "astonishing":1,
    "snippet":1,
    "transmission":1,
    "flickers":1,
    "staggered":1,
    "appalled":1,
    "amazing":1,
    "locations":1,
    "broad":1,
    "crosssection":1,
    "aghast":1,
    "glued":1,
    "images":1,
    "beatniks":1,
    "diner":1,
    "teens":1,
    "electronics":1,
    "store":1,
    "los":1,
    "angeles":1,
    "shoulders":1,
    "consoling":1,
    "interrupted":1,
    "energized":1,
    "throats":1,
    "team":1,
    "grow":1,
    "ixt":1,
    "rabid":1,
    "maltreatment":1,
    "adults":1,
    "gassed":1,
    "clubbed":1,
    "random":1,
    "witnessed":1,
    "eruption":1,
    "disease":1,
    "destroying":1,
    "fitting":1,
    "bear":1,
    "appealing":1,
    "goodwill":1,
    "photos":1,
    "packing":1,
    "pack":1,
    "book":1,
    "flight":1,
    "split":1,
    "affluent":1,
    "carryall":1,
    "pleasantlooking":1,
    "bluecollar":1,
    "anthony":1,
    "mouthpiece":1,
    "liuzzo":1,
    "scheduled":1,
    "thanks":1,
    "\u2018course":1,
    "family\u2019s":1,
    "mama":1,
    "santa":1,
    "claus":1,
    "impressive":1,
    "beard":1,
    "robe":1,
    "orthodox":1,
    "laundry":1,
    "satchel":1,
    "washing":1,
    "machine":1,
    "brought":1,
    "heavier":1,
    "overcoat":1,
    "greece":1,
    "seriousness":1,
    "overcomes":1,
    "granted":1,
    "envelop":1,
    "surrounding":1,
    "armored":1,
    "spiritual":1,
    "weapons":1,
    "legitimate":1,
    "critics":1,
    "opponents":1,
    "enemies":1,
    "faults":1,
    "errors":1,
    "discourage":1,
    "deserter":1,
    "founded":1,
    "solemnly":1,
    "allegiance":1,
    "picketers":1,
    "aloud":1,
    "newspaper":1,
    "disdain":1,
    "\u2018thousands":1,
    "crusade\u2019":1,
    "instruct":1,
    "overruled":1,
    "possible":1,
    "troops":1,
    "cares":1,
    "calling":1,
    "picketing":1,
    "tugs":1,
    "liberal":1,
    "backwater":1,
    "hicks":1,
    "horseshit":1,
    "filed":1,
    "appeal":1,
    "docket":1,
    "landed":1,
    "hips":1,
    "react":1,
    "lowdown":1,
    "nigralovin":1,
    "traitor":1,
    "pansy":1,
    "ruling":1,
    "favor":1,
    "closed":1,
    "fred":1,
    "frank":1,
    "extreme":1,
    "enjoining":1,
    "interfering":1,
    "overturn":1,
    "governor\u2019s":1,
    "hearing":1,
    "thus":1,
    "airstrip":1,
    "catholic":1,
    "nuns":1,
    "exit":1,
    "airplane":1,
    "calltoaction":1,
    "nationally":1,
    "televised":1,
    "travel":1,
    "tomorrow\u2019s":1,
    "mostly":1,
    "clergy":1,
    "positioned":1,
    "making":1,
    "obscene":1,
    "lewd":1,
    "comments":1,
    "pleasure":1,
    "properly":1,
    "cancel":1,
    "injunction":1,
    "officially":1,
    "highest":1,
    "ranking":1,
    "defying":1,
    "personal":1,
    "daily":1,
    "feds":1,
    "conveniently":1,
    "selfdetermine":1,
    "stroke":1,
    "chooses":1,
    "complexities":1,
    "implications":1,
    "veiled":1,
    "suggest":1,
    "urge":1,
    "instead":1,
    "peaceful":1,
    "checkmate":1,
    "assure":1,
    "manage":1,
    "minimize":1,
    "fallout":1,
    "authorized":1,
    "if\u201d":1,
    "agreeable":1,
    "express":1,
    "demonstrating":1,
    "agitating":1,
    "ensuring":1,
    "he\u2019ll":1,
    "crossing":1,
    "mix":1,
    "priest\u2019s":1,
    "collar":1,
    "unitarian":1,
    "universalist":1,
    "lend":1,
    "somehow":1,
    "sandwiches":1,
    "organized":1,
    "volunteers":1,
    "whisper":1,
    "colleagues":1,
    "supporters":1,
    "via":1,
    "courts":1,
    "massive":1,
    "demonstration":1,
    "certainty":1,
    "background":1,
    "semirhythmic":1,
    "tread":1,
    "multitude":1,
    "leads":1,
    "bandages":1,
    "agents":1,
    "partial":1,
    "somewhat":1,
    "negotiating":1,
    "dilemma":1,
    "written":1,
    "songs":1,
    "lock":1,
    "prolly":1,
    "waitin\u2019":1,
    "phalanx":1,
    "flashing":1,
    "lights":1,
    "seething":1,
    "confronting":1,
    "deafening":1,
    "nervously":1,
    "bluehelmeted":1,
    "emblems":1,
    "unexpected":1,
    "withdraw":1,
    "divide":1,
    "aside":1,
    "jaws":1,
    "clap":1,
    "amazement":1,
    "wheels":1,
    "forbidden":1,
    "play":1,
    "hesitates":1,
    "following":1,
    "unsure":1,
    "knee":1,
    "gon\u2019":1,
    "pained":1,
    "instinctively":1,
    "symbolic":1,
    "shield":1,
    "sanctuary":1,
    "threw":1,
    "couldve":1,
    "sealed":1,
    "food":1,
    "allowed":1,
    "wouldnt":1,
    "opened":1,
    "respectable":1,
    "shouldve":1,
    "capitalized":1,
    "awash":1,
    "mixed":1,
    "feelings":1,
    "steadfast":1,
    "supportive":1,
    "marty\u2019s":1,
    "cal1":1,
    "profanity":1,
    "former":1,
    "rage":1,
    "homejackson":1,
    "peers":1,
    "check":1,
    "porch":1,
    "notebook":1,
    "owe":1,
    "biggest":1,
    "debt":1,
    "justify":1,
    "private":1,
    "position":1,
    "pure":1,
    "foolish":1,
    "higher":1,
    "carefully":1,
    "folds":1,
    "tucks":1,
    "skirt":1,
    "pocket":1,
    "rejoins":1,
    "klansman":1,
    "begin":1,
    "knuckledusters":1,
    "religious":1,
    "devastating":1,
    "blow":1,
    "conscious":1,
    "nigger":1,
    "kicked":1,
    "lover\u201d":1,
    "smash":1,
    "storms":1,
    "barks":1,
    "phoned":1,
    "talks":1,
    "streaks":1,
    "shaving":1,
    "cream":1,
    "chicago":1,
    "harlem":1,
    "tour":1,
    "corridor":1,
    "singin\u2019":1,
    "shoutin\u2019":1,
    "inaction":1,
    "minute":1,
    "widow":1,
    "jackson\u2019s":1,
    "received":1,
    "consideration":1,
    "choosing":1,
    "slaughter":1,
    "hits":1,
    "nerve":1,
    "weighing":1,
    "cracks":1,
    "protecting":1,
    "idle":1,
    "leisure":1,
    "impossible":1,
    "craft":1,
    "jugglin\u2019":1,
    "jugglin":1,
    "bulletproof":1,
    "twoline":1,
    "horse\u2019s":1,
    "siding":1,
    "dilution":1,
    "clean":1,
    "consensus":1,
    "easy":1,
    "snap":1,
    "fingers":1,
    "concede":1,
    "harnessing":1,
    "drafting":1,
    "blackjacked":1,
    "hasty":1,
    "insulted":1,
    "lowers":1,
    "evens":1,
    "calculation":1,
    "presidency":1,
    "world\u2019s":1,
    "landslide":1,
    "dismantling":1,
    "legacy":1,
    "standoff":1,
    "refused":1,
    "slayed":1,
    "remembered":1,
    "pause":1,
    "hears":1,
    "breathing":1,
    "greatly":1,
    "anguished":1,
    "enjoy":1,
    "safe":1,
    "housing":1,
    "bleak":1,
    "miserable":1,
    "stubby":1,
    "brick":1,
    "privately":1,
    "troubles":1,
    "apologize":1,
    "caused":1,
    "rift":1,
    "remind":1,
    "marry":1,
    "beauty":1,
    "half":1,
    "activated":1,
    "comfortable":1,
    "confided":1,
    "rides":1,
    "sncc\u2019s":1,
    "reached":1,
    "escort":1,
    "disappeared":1,
    "greyhound":1,
    "station":1,
    "completely":1,
    "deserted":1,
    "\u201cthis":1,
    "good\u201d":1,
    "alleys":1,
    "gate":1,
    "makeshift":1,
    "weapon":1,
    "bats":1,
    "bricks":1,
    "chains":1,
    "tire":1,
    "irons":1,
    "pipes":1,
    "rakes":1,
    "\u201cgit":1,
    "niggers\u201d":1,
    "clawing":1,
    "nails":1,
    "ax":1,
    "asphalt":1,
    "swung":1,
    "wooden":1,
    "coke":1,
    "crate":1,
    "skull":1,
    "patched":1,
    "mob":1,
    "chanting":1,
    "king\u201d":1,
    "involuntarily":1,
    "ridiculousness":1,
    "crying":1,
    "conjure":1,
    "memory":1,
    "praised":1,
    "criticized":1,
    "hostile":1,
    "environment":1,
    "free\u201d":1,
    "\u201cfear":1,
    "back\u201d":1,
    "explode":1,
    "advertiser":1,
    "block":1,
    "mary":1,
    "opposite":1,
    "couches":1,
    "cordially":1,
    "malcontents":1,
    "disrupting":1,
    "withering":1,
    "vs":1,
    "plaintiff":1,
    "occurred":1,
    "array":1,
    "pledging":1,
    "stories":1,
    "animated":1,
    "attorneys":1,
    "glare":1,
    "contempt":1,
    "accounts":1,
    "incident":1,
    "vigor":1,
    "testimonials":1,
    "icepack":1,
    "dramatics":1,
    "treated":1,
    "spent":1,
    "career":1,
    "satisfy":1,
    "takeover":1,
    "parks":1,
    "schools":1,
    "distribution":1,
    "impatient":1,
    "6\u20194":1,
    "towers":1,
    "hovering":1,
    "intimidating":1,
    "demonstrators":1,
    "keeping":1,
    "bird":1,
    "mess":1,
    "draft":1,
    "quarrel":1,
    "belongs":1,
    "runs":1,
    "regulations":1,
    "adhere":1,
    "needin\u2019":1,
    "remembering":1,
    "sayin\u2019":1,
    "\u201cit\u2019s":1,
    "hard\u201d":1,
    "gathers":1,
    "strength":1,
    "neither":1,
    "infuriated":1,
    "likes":1,
    "romantic":1,
    "glances":1,
    "courtroom":1,
    "nervous":1,
    "aggressively":1,
    "direct":1,
    "intentionally":1,
    "disobeyed":1,
    "bench":1,
    "fair":1,
    "prancing":1,
    "counselor":1,
    "harder":1,
    "posed":1,
    "sympathy":1,
    "stress":1,
    "aroused":1,
    "acts":1,
    "exacted":1,
    "pent":1,
    "inner":1,
    "tensions":1,
    "uncontrollable":1,
    "retaliatory":1,
    "proceeded":1,
    "court\u2019s":1,
    "await":1,
    "reviewed":1,
    "logistics":1,
    "proposal":1,
    "affiliated":1,
    "organizations":1,
    "almost":1,
    "defendant":1,
    "harassment":1,
    "mistreatment":1,
    "plaintiffs":1,
    "seems":1,
    "constitutional":1,
    "assemble":1,
    "peaceably":1,
    "manner":1,
    "commensurate":1,
    "enormity":1,
    "petitioned":1,
    "enormous":1,
    "therefore":1,
    "estimated":1,
    "accordingly":1,
    "casual":1,
    "protestors":1,
    "weekend":1,
    "vigil":1,
    "halfeaten":1,
    "breakfast":1,
    "briefing":1,
    "books":1,
    "usual":1,
    "selection":1,
    "acceptance":1,
    "destiny":1,
    "democracy":1,
    "abandoned":1,
    "planning":1,
    "peacefully":1,
    "rarely":1,
    "secret":1,
    "nursing":1,
    "patient":1,
    "cleaning":1,
    "brutally":1,
    "assaulted":1,
    "double":1,
    "conquer":1,
    "stars":1,
    "unequal":1,
    "earnestly":1,
    "northern":1,
    "democrat":1,
    "hopes":1,
    "religion":1,
    "dishonor":1,
    "closes":1,
    "slight":1,
    "complex":1,
    "argument":1,
    "excuse":1,
    "harsh":1,
    "device":1,
    "ingenuity":1,
    "capable":1,
    "cruiser":1,
    "absent":1,
    "persists":1,
    "disqualified":1,
    "abbreviated":1,
    "application":1,
    "degree":1,
    "proven":1,
    "unable":1,
    "penetrate":1,
    "fundamental":1,
    "wednesday":1,
    "loosens":1,
    "plops":1,
    "restrictions":1,
    "elections":1,
    "standard":1,
    "however":1,
    "ingenious":1,
    "flout":1,
    "delay":1,
    "hesitation":1,
    "palm":1,
    "emancipation":1,
    "proclamation":1,
    "actions":1,
    "awakened":1,
    "reform":1,
    "gasp":1,
    "utters":1,
    "movement\u2019s":1,
    "rallying":1,
    "blinking":1,
    "incredible":1,
    "weight":1,
    "communicates":1,
    "greater":1,
    "bikes":1,
    "transistor":1,
    "strapped":1,
    "handlebars":1,
    "peddles":1,
    "tow":1,
    "eaaaarly":1,
    "shine":1,
    "25":1,
    "dick":1,
    "van":1,
    "dyke":1,
    "show\u201d":1,
    "movie":1,
    "music\u201d":1,
    "song":1,
    "wake":1,
    "definite":1,
    "verified":1,
    "sniper":1,
    "confirmed":1,
    "day\u2019s":1,
    "coverage":1,
    "challenging":1,
    "leg":1,
    "nixing":1,
    "arrive":1,
    "arrange":1,
    "amused":1,
    "doar\u2019s":1,
    "hook":1,
    "arminarm":1,
    "band":1,
    "figured":1,
    "dragon":1,
    "realm":1,
    "elder":1,
    "marcher\u2019s":1,
    "dragon\u2019s":1,
    "definitely":1,
    "grave":1,
    "chuckling":1,
    "sunshine":1,
    "soldiers":1,
    "guard":1,
    "facing":1,
    "rain":1,
    "ponchos":1,
    "bigfinned":1,
    "mingle":1,
    "campfires":1,
    "canvas":1,
    "cooking":1,
    "\u201clife":1,
    "crystal":1,
    "tacks":1,
    "splinters":1,
    "carpet":1,
    "floorbare":1,
    "ise":1,
    "aclimbin":1,
    "reachin":1,
    "landins":1,
    "turnin":1,
    "kinder":1,
    "fall":1,
    "now\u201d":1,
    "mumbling":1,
    "disaster":1,
    "staring":1,
    "we\u2019d":1,
    "\u201cwe":1,
    "around\u201d":1,
    "pauses":1,
    "erupts":1,
    "counted":1,
    "vital":1,
    "purpose":1,
    "voiceover":1,
    "sequence":1,
    "decade":1,
    "selfdetermined":1,
    "foes":1,
    "unity":1,
    "awarded":1,
    "mlk":1,
    "medal":1,
    "1990":1,
    "84":1,
    "stronger":1,
    "strongest":1,
    "longing":1,
    "personhood":1,
    "boldly":1,
    "embody":1,
    "fervently":1,
    "illuminates":1,
    "un":1,
    "ambassador":1,
    "carter":1,
    "mayor":1,
    "served":1,
    "twentysix":1,
    "congressman":1,
    "5th":1,
    "district":1,
    "georgia":1,
    "society":1,
    "distorted":1,
    "slavery":1,
    "reconstruction":1,
    "precipice":1,
    "placation":1,
    "wail":1,
    "hunger":1,
    "whispering":1,
    "regardless":1,
    "triumphant":1,
    "knowledge":1,
    "whiteness":1,
    "superior":1,
    "blackness":1,
    "treatment":1,
    "viciousness":1,
    "righteousness":1,
    "ran":1,
    "paralyzed":1,
    "assassination":1,
    "1972":1,
    "remained":1,
    "prominent":1,
    "politics":1,
    "79":1,
    "myth":1,
    "malaise":1,
    "forbid":1,
    "blameless":1,
    "volunteer":1,
    "crushed":1,
    "lobbied":1,
    "holiday":1,
    "remarried":1,
    "2006":1,
    "78":1,
    "delivering":1,
    "spring":1,
    "\u201cmine":1,
    "glory":1,
    "trampling":1,
    "vintage":1,
    "grapes":1,
    "wrath":1,
    "stored":1,
    "loosed":1,
    "fateful":1,
    "lightning":1,
    "terrible":1,
    "swift":1,
    "sword":1,
    "on\u201d":1,
    "lyndon":1,
    "signed":1,
    "1968":1,
    "assassinated":1,
    "39":1,
    "concludes":1,
    "magnificent":1,
    "rolling":1,
    "ceiling":2,
    "among":2,
    "glass":2,
    "broken":2,
    "sigh":2,
    "gaze":2,
    "necktie":2,
    "dear":2,
    "principles":2,
    "works":2,
    "somewhere":2,
    "college":2,
    "bills":2,
    "anymore":2,
    "pats":2,
    "hair":2,
    "reflection":2,
    "occasions":2,
    "bomb":2,
    "constantly":2,
    "spoken":2,
    "dream":2,
    "share":2,
    "visibly":2,
    "racism":2,
    "danger":2,
    "torn":2,
    "typed":2,
    "m":2,
    "\u2018scuse":2,
    "swallows":2,
    "tight":2,
    "holds":2,
    "gals":2,
    "pen":2,
    "becomes":2,
    "correct":2,
    "trained":2,
    "preamble":2,
    "establish":2,
    "ensure":2,
    "defense":2,
    "welfare":2,
    "secure":2,
    "denied":2,
    "poverty":2,
    "program":2,
    "prepared":2,
    "important":2,
    "worry":2,
    "rooms":2,
    "task":2,
    "needle":2,
    "engage":2,
    "anywhere":2,
    "enforcement":2,
    "board":2,
    "water":2,
    "challenge":2,
    "nations":2,
    "itself":2,
    "none":2,
    "militant":2,
    "country\u2019s":2,
    "specifically":2,
    "basic":2,
    "voters":2,
    "rolls":2,
    "pleased":2,
    "eliminate":2,
    "seeking":2,
    "aback":2,
    "concentrate":2,
    "participate":2,
    "process":2,
    "callin\u2019":2,
    "murders":2,
    "protected":2,
    "rare":2,
    "freed":2,
    "clause":2,
    "1":2,
    "known":2,
    "attempt":2,
    "named":2,
    "style":2,
    "awhile":2,
    "satisfied":2,
    "fourlane":2,
    "ominous":2,
    "someone\u2019s":2,
    "blue":2,
    "ralph":2,
    "300":2,
    "senses":2,
    "hush":2,
    "rearview":2,
    "steel":2,
    "what\u2019d":2,
    "gave":2,
    "die":2,
    "serving":2,
    "overalls":2,
    "quick":2,
    "ms":2,
    "smiling":2,
    "wilson":2,
    "thrusts":2,
    "crowded":2,
    "moves":2,
    "slams":2,
    "pulling":2,
    "attacker":2,
    "handkerchief":2,
    "friend\u2019s":2,
    "frederick":2,
    "30s":2,
    "pm":2,
    "file":2,
    "prefer":2,
    "klan":2,
    "darn":2,
    "territory":2,
    "mine":2,
    "push":2,
    "why\u2019d":2,
    "wideeyed":2,
    "questions":2,
    "bare":2,
    "authorities":2,
    "orders":2,
    "calculated":2,
    "job":2,
    "abruptly":2,
    "afternoon":2,
    "plays":2,
    "yolanda":2,
    "darlin\u2019":2,
    "dex":2,
    "jogs":2,
    "son":2,
    "folding":2,
    "doorway":2,
    "trash":2,
    "bag":2,
    "supposed":2,
    "business":2,
    "edge":2,
    "joke":2,
    "realize":2,
    "clothes":2,
    "dials":2,
    "slip":2,
    "pajamas":2,
    "surely":2,
    "sing":2,
    "soul":2,
    "proper":2,
    "harm\u2019s":2,
    "news":2,
    "stove":2,
    "uncle":2,
    "homemade":2,
    "thick":2,
    "christian":2,
    "top":2,
    "expected":2,
    "ma\u2019am":2,
    "warm":2,
    "story":2,
    "couch":2,
    "awake":2,
    "students":2,
    "coordinating":2,
    "took":2,
    "surprised":2,
    "it\u2019ll":2,
    "notes":2,
    "700":2,
    "shout":2,
    "birmingham":2,
    "struggle":2,
    "ends":2,
    "victims":2,
    "within":2,
    "walls":2,
    "caution":2,
    "50":2,
    "use":2,
    "earlier":2,
    "fierce":2,
    "reporters":2,
    "demanding":2,
    "cohorts":2,
    "basement":2,
    "reporter":2,
    "photographer":2,
    "spider":2,
    "using":2,
    "corners":2,
    "behavior":2,
    "learn":2,
    "return":2,
    "respectfully":2,
    "organization":2,
    "cool":2,
    "drama":2,
    "cameras":2,
    "trenches":2,
    "admire":2,
    "ignored":2,
    "page":2,
    "requires":2,
    "ive":2,
    "ignorant":2,
    "doesnt":2,
    "clarks":2,
    "battlezone":2,
    "pov":2,
    "everywhere":2,
    "badge":2,
    "patton":2,
    "wearing":2,
    "uniform":2,
    "stage":2,
    "strikingly":2,
    "assortment":2,
    "stair":2,
    "disperse":2,
    "promise":2,
    "access":2,
    "rednecks":2,
    "coat":2,
    "theres":2,
    "nowhere":2,
    "tryin\u2019":2,
    "falls":2,
    "smashed":2,
    "stepped":2,
    "pushes":2,
    "stick":2,
    "sharp":2,
    "mornin\u2019":2,
    "aide":2,
    "newspapers":2,
    "j":2,
    "whats":2,
    "information":2,
    "drop":2,
    "picked":2,
    "arrest":2,
    "everything":2,
    "heavy":2,
    "you\u2019d":2,
    "tension":2,
    "pain":2,
    "shouldertoshoulder":2,
    "sidebyside":2,
    "bunk":2,
    "able":2,
    "eat":2,
    "lunch":2,
    "read":2,
    "amen":2,
    "beaten":2,
    "driveway":2,
    "piece":2,
    "path":2,
    "ruin":2,
    "sow":2,
    "nor":2,
    "reap":2,
    "father":2,
    "hour":2,
    "goin":2,
    "closer":2,
    "welcome":2,
    "invited":2,
    "drives":2,
    "often":2,
    "either":2,
    "bombers":2,
    "bastard":2,
    "lady":2,
    "tense":2,
    "respond":2,
    "crazy":2,
    "project":2,
    "surround":2,
    "washington":2,
    "started":2,
    "cluster":2,
    "alarm":2,
    "enemy":2,
    "intend":2,
    "previously":2,
    "alternative":2,
    "opposed":2,
    "spoke":2,
    "hide":2,
    "pays":2,
    "defenseless":2,
    "changes":2,
    "shocked":2,
    "violent":2,
    "disappointed":2,
    "pulled":2,
    "concern":2,
    "pity":2,
    "reluctant":2,
    "center":2,
    "sunny":2,
    "colonel":2,
    "visit":2,
    "johnsons":2,
    "sending":2,
    "kid":2,
    "h":2,
    "christ":2,
    "chance":2,
    "scary":2,
    "handle":2,
    "dominance":2,
    "lawyers":2,
    "feeling":2,
    "kin":2,
    "ears":2,
    "strikes":2,
    "photographers":2,
    "disciplined":2,
    "launch":2,
    "grandson":2,
    "attention":2,
    "follow":2,
    "customers":2,
    "coltrane\u2019s":2,
    "limp":2,
    "protect":2,
    "calmly":2,
    "floor":2,
    "passionate":2,
    "soft":2,
    "spell":2,
    "stream":2,
    "held":2,
    "enraged":2,
    "casket":2,
    "trigger":2,
    "politician":2,
    "abuses":2,
    "earth":2,
    "stood":2,
    "found":2,
    "cries":2,
    "sacrifice":2,
    "agreement":2,
    "hate":2,
    "roar":2,
    "lbj":2,
    "demands":2,
    "whittle":2,
    "listenin\u2019":2,
    "hot":2,
    "published":2,
    "harm":2,
    "poll":2,
    "tax":2,
    "registrar":2,
    "approved":2,
    "successfully":2,
    "century":2,
    "monday":2,
    "rural":2,
    "unprotected":2,
    "fuckin\u2019":2,
    "headed":2,
    "pushing":2,
    "sick":2,
    "special":2,
    "commission":2,
    "wanting":2,
    "hoping":2,
    "troubling":2,
    "detail":2,
    "fbi":2,
    "highlevel":2,
    "increased":2,
    "guy":2,
    "sounds":2,
    "shock":2,
    "tape":2,
    "armchair":2,
    "male":2,
    "evil":2,
    "stunned":2,
    "struggles":2,
    "gotten":2,
    "below":2,
    "fog":2,
    "sometimes":2,
    "mouths":2,
    "theyll":2,
    "whatever":2,
    "failed":2,
    "break":2,
    "offering":2,
    "preaching":2,
    "\u201cwhat":2,
    "indeed":2,
    "bunch":2,
    "disturbance":2,
    "hero":2,
    "nonsense":2,
    "felt":2,
    "straws":2,
    "packs":2,
    "yards":2,
    "nearly":2,
    "cars":2,
    "groups":2,
    "dozens":2,
    "perhaps":2,
    "100":2,
    "stopped":2,
    "picks":2,
    "sullivan":2,
    "advance":2,
    "throngs":2,
    "cover":2,
    "unconscious":2,
    "rushed":2,
    "flying":2,
    "legs":2,
    "mounted":2,
    "mass":2,
    "began":2,
    "sight":2,
    "doctors":2,
    "nurses":2,
    "suffering":2,
    "colleague":2,
    "hundreds":2,
    "film":2,
    "limits":2,
    "gold":2,
    "pace":2,
    "gerry":2,
    "facts":2,
    "chamber":2,
    "ringing":2,
    "beating":2,
    "handing":2,
    "figuring":2,
    "remains":2,
    "judgement":2,
    "nuremburg":2,
    "announcer":2,
    "events":2,
    "footage":2,
    "various":2,
    "montage":2,
    "distraught":2,
    "fascist":2,
    "addresses":2,
    "otherwise":2,
    "flights":2,
    "week":2,
    "wide":2,
    "sees":2,
    "greek":2,
    "embrace":2,
    "connecticut":2,
    "opposition":2,
    "ours":2,
    "pledge":2,
    "letting":2,
    "petition":2,
    "begun":2,
    "chambers":2,
    "doors":2,
    "jurist":2,
    "sunday\u2019s":2,
    "bloody":2,
    "mandate":2,
    "thursday":2,
    "tuesday":2,
    "oppose":2,
    "violation":2,
    "assistant":2,
    "they\u2019ve":2,
    "simply":2,
    "decision":2,
    "persuade":2,
    "protesting":2,
    "undeterred":2,
    "struggling":2,
    "orderly":2,
    "thousand":2,
    "rev":2,
    "marched":2,
    "ahead":2,
    "expressions":2,
    "charge":2,
    "round":2,
    "deeply":2,
    "trap":2,
    "strive":2,
    "klansmen":2,
    "racists":2,
    "barely":2,
    "reeb\u2019s":2,
    "\u201cnigger":2,
    "bathroom":2,
    "barber":2,
    "detroit":2,
    "care":2,
    "sat":2,
    "defeat":2,
    "tone":2,
    "greatest":2,
    "\u201cwait\u201d":2,
    "\u201ci":2,
    "can\u2019t\u201d":2,
    "evenin\u2019":2,
    "protests":2,
    "forever":2,
    "finds":2,
    "bus":2,
    "directions":2,
    "they\u2019d":2,
    "boards":2,
    "jessie":2,
    "triumph":2,
    "headline":2,
    "recognize":2,
    "fever":2,
    "jobs":2,
    "wealth":2,
    "1985":2,
    "brutal":2,
    "emotions":2,
    "rule":2,
    "fate":2,
    "evidence":2,
    "reflects":2,
    "pattern":2,
    "provoke":2,
    "extent":2,
    "wrongs":2,
    "protested":2,
    "dawn":2,
    "boyton":2,
    "died":2,
    "republican":2,
    "birth":2,
    "manages":2,
    "barriers":2,
    "conscience":2,
    "demonstrations":2,
    "stir":2,
    "depend":2,
    "mighty":2,
    "energy":2,
    "became":2,
    "despite":2,
    "except":3,
    "intensity":3,
    "laying":3,
    "mirror":3,
    "pulls":3,
    "huh":3,
    "especially":3,
    "perfect":3,
    "remain":3,
    "nobel":3,
    "committee":3,
    "accept":3,
    "reality":3,
    "ones":3,
    "superimpose":3,
    "university":3,
    "nobody":3,
    "grits":3,
    "counter":3,
    "wonder":3,
    "ol\u2019":3,
    "snatches":3,
    "blessings":3,
    "liberty":3,
    "ourselves":3,
    "johnson\u2019s":3,
    "focus":3,
    "clearly":3,
    "careful":3,
    "hope":3,
    "having":3,
    "aren\u2019t":3,
    "fuck":3,
    "gotdamn":3,
    "wants":3,
    "arm":3,
    "seeing":3,
    "issues":3,
    "intimidation":3,
    "legislation":3,
    "protocol":3,
    "registrars":3,
    "battle":3,
    "won":3,
    "seconds":3,
    "criminals":3,
    "unless":3,
    "youre":3,
    "faith":3,
    "constitution":3,
    "literacy":3,
    "test":3,
    "particular":3,
    "brief":3,
    "moments":3,
    "concerned":3,
    "picture":3,
    "driven":3,
    "fella":3,
    "gentlemen":3,
    "here\u2019s":3,
    "passes":3,
    "bearing":3,
    "stating":3,
    "parts":3,
    "papers":3,
    "approaches":3,
    "nod":3,
    "passing":3,
    "ten":3,
    "itll":3,
    "appears":3,
    "drag":3,
    "further":3,
    "near":3,
    "hit":3,
    "ban":3,
    "clark\u2019s":3,
    "situation":3,
    "running":3,
    "jr":3,
    "bunny":3,
    "cry":3,
    "seriously":3,
    "hangs":3,
    "exhausted":3,
    "girl":3,
    "worried":3,
    "bad":3,
    "guess":3,
    "wouldn\u2019t":3,
    "leaving":3,
    "intercut":3,
    "lord":3,
    "listens":3,
    "communication":3,
    "eager":3,
    "\u2018cause":3,
    "hey":3,
    "sister":3,
    "turning":3,
    "student":3,
    "evening":3,
    "response":3,
    "efforts":3,
    "effort":3,
    "become":3,
    "holy":3,
    "human":3,
    "negros":3,
    "approval":3,
    "best":3,
    "minutes":3,
    "roy":3,
    "truly":3,
    "deny":3,
    "billy":3,
    "glaring":3,
    "met":3,
    "giving":3,
    "voter":3,
    "registration":3,
    "meaning":3,
    "daddy":3,
    "mistake":3,
    "months":3,
    "laurie":3,
    "pritchett":3,
    "carried":3,
    "raise":3,
    "consciousness":3,
    "happens":3,
    "kennedy":3,
    "bull":3,
    "approach":3,
    "walking":3,
    "carry":3,
    "foot":3,
    "legal":3,
    "rear":3,
    "anger":3,
    "wall":3,
    "edgar":3,
    "desk":3,
    "watched":3,
    "degenerate":3,
    "bleeding":3,
    "different":3,
    "bars":3,
    "school":3,
    "equality":3,
    "rock":3,
    "air":3,
    "gather":3,
    "feeds":3,
    "folk":3,
    "figure":3,
    "approaching":3,
    "hat":3,
    "surprise":3,
    "forman\u2019s":3,
    "disbelief":3,
    "quiet":3,
    "idea":3,
    "emerges":3,
    "hurt":3,
    "cried":3,
    "decided":3,
    "tracks":3,
    "aggressive":3,
    "mad":3,
    "raised":3,
    "happening":3,
    "disrespect":3,
    "minister":3,
    "land":3,
    "intention":3,
    "talked":3,
    "helping":3,
    "changed":3,
    "upset":3,
    "buildings":3,
    "middle":3,
    "pacing":3,
    "nigras":3,
    "pictures":3,
    "treat":3,
    "jesus":3,
    "directly":3,
    "playing":3,
    "leaves":3,
    "chase":3,
    "caf\u00e9":3,
    "gun":3,
    "body":3,
    "exam":3,
    "drops":3,
    "five":3,
    "shot":3,
    "tears":3,
    "becoming":3,
    "strong":3,
    "ill":3,
    "congregation":3,
    "dying":3,
    "brother":3,
    "finish":3,
    "empty":3,
    "compromise":3,
    "year":3,
    "loud":3,
    "themselves":3,
    "damned":3,
    "wont":3,
    "deserve":3,
    "announce":3,
    "final":3,
    "sunday":3,
    "stay":3,
    "president\u2019s":3,
    "painful":3,
    "difficult":3,
    "rather":3,
    "chuckle":3,
    "abc":3,
    "route":3,
    "intext":3,
    "ass":3,
    "cross":3,
    "rank":3,
    "horseback":3,
    "spectators":3,
    "confederate":3,
    "nightsticks":3,
    "bullhorn":3,
    "screaming":3,
    "race":3,
    "ride":3,
    "strike":3,
    "arms":3,
    "leader":3,
    "outraged":3,
    "fought":3,
    "inhumanity":3,
    "seventy":3,
    "show":3,
    "\u2018round":3,
    "larger":3,
    "created":3,
    "equal":3,
    "anything":3,
    "archbishop":3,
    "priest":3,
    "thinking":3,
    "advice":3,
    "alongside":3,
    "congress":3,
    "guilt":3,
    "proceeding":3,
    "gestures":3,
    "needed":3,
    "consider":3,
    "demonstrate":3,
    "endorse":3,
    "skin":3,
    "color":3,
    "wrong":3,
    "housewife":3,
    "singing":3,
    "someday":3,
    "whispers":3,
    "row":3,
    "aint":3,
    "solve":3,
    "testimony":3,
    "grand":3,
    "radio":3,
    "number":3,
    "amidst":4,
    "blood":4,
    "dressed":4,
    "corrie":4,
    "shouldn\u2019t":4,
    "crosses":4,
    "begins":4,
    "living":4,
    "\u2018til":4,
    "focused":4,
    "nice":4,
    "yeah":4,
    "really":4,
    "led":4,
    "america":4,
    "whose":4,
    "threat":4,
    "prize":4,
    "million":4,
    "determination":4,
    "build":4,
    "logged":4,
    "pride":4,
    "rest":4,
    "change":4,
    "main":4,
    "yet":4,
    "fucking":4,
    "bring":4,
    "tall":4,
    "official":4,
    "wanna":4,
    "such":4,
    "violence":4,
    "citizen":4,
    "illegal":4,
    "blacks":4,
    "\u201cthe":4,
    "officials":4,
    "allwhite":4,
    "less":4,
    "mister":4,
    "question":4,
    "writing":4,
    "kings":4,
    "miles":4,
    "sure":4,
    "onto":4,
    "though":4,
    "comes":4,
    "view":4,
    "extint":4,
    "crew":4,
    "we\u2019ll":4,
    "staff":4,
    "towards":4,
    "holding":4,
    "late":4,
    "quickly":4,
    "doctor":4,
    "reese":4,
    "preacher":4,
    "exchange":4,
    "responsibility":4,
    "backs":4,
    "camera":4,
    "dexter":4,
    "c\u2019mon":4,
    "kitchen":4,
    "fight":4,
    "friends":4,
    "conversation":4,
    "powerful":4,
    "drive":4,
    "burden":4,
    "makes":4,
    "happy":4,
    "hosea":4,
    "boys":4,
    "catch":4,
    "vicious":4,
    "watches":4,
    "mind":4,
    "present":4,
    "reed":4,
    "short":4,
    "york":4,
    "progress":4,
    "least":4,
    "connor":4,
    "distance":4,
    "guns":4,
    "worth":4,
    "bigger":4,
    "intel":4,
    "cell":4,
    "tired":4,
    "kids":4,
    "ground":4,
    "gotta":4,
    "serious":4,
    "disagree":4,
    "speaks":4,
    "kill":4,
    "voices":4,
    "driving":4,
    "past":4,
    "am":4,
    "laws":4,
    "pay":4,
    "niggers":4,
    "reason":4,
    "run":4,
    "love":4,
    "tries":4,
    "jimmie\u2019s":4,
    "fully":4,
    "bible":4,
    "sisters":4,
    "gathered":4,
    "win":4,
    "support":4,
    "moving":4,
    "passed":4,
    "lowndes":4,
    "hundred":4,
    "particularly":4,
    "safety":4,
    "toward":4,
    "join":4,
    "boston":4,
    "reads":4,
    "cut":4,
    "rise":4,
    "crest":4,
    "horses":4,
    "tear":4,
    "gas":4,
    "injured":4,
    "happened":4,
    "watching":4,
    "injustice":4,
    "case":4,
    "ear":4,
    "wanted":4,
    "1965":4,
    "given":4,
    "representatives":4,
    "designed":4,
    "dark":5,
    "girls":5,
    "bodies":5,
    "scott":5,
    "high":5,
    "days":5,
    "wish":5,
    "honor":5,
    "history":5,
    "states":5,
    "justice":5,
    "world":5,
    "peace":5,
    "stirrin\u2019":5,
    "lobby":5,
    "reaches":5,
    "seat":5,
    "meet":5,
    "name":5,
    "public":5,
    "i\u2019d":5,
    "man\u2019s":5,
    "true":5,
    "once":5,
    "shoulder":5,
    "feel":5,
    "thank":5,
    "chair":5,
    "coffee":5,
    "segregation":5,
    "administration":5,
    "leading":5,
    "including":5,
    "denial":5,
    "agree":5,
    "asked":5,
    "taken":5,
    "most":5,
    "putting":5,
    "war":5,
    "political":5,
    "fact":5,
    "theyre":5,
    "cant":5,
    "sides":5,
    "kind":5,
    "southern":5,
    "last":5,
    "breath":5,
    "seated":5,
    "sign":5,
    "um":5,
    "albert":5,
    "whites":5,
    "lie":5,
    "goes":5,
    "sorry":5,
    "proud":5,
    "angry":5,
    "allow":5,
    "gets":5,
    "leave":5,
    "hours":5,
    "put":5,
    "paper":5,
    "continuous":5,
    "daughter":5,
    "oh":5,
    "leadership":5,
    "ct":5,
    "corner":5,
    "nonviolent":5,
    "dignity":5,
    "gone":5,
    "live":5,
    "asking":5,
    "working":5,
    "thats":5,
    "press":5,
    "hell":5,
    "lead":5,
    "control":5,
    "clear":5,
    "pick":5,
    "flanked":5,
    "deputies":5,
    "country":5,
    "struck":5,
    "murdered":5,
    "shit":5,
    "until":5,
    "whole":5,
    "knew":5,
    "glad":5,
    "saying":5,
    "em":5,
    "stops":5,
    "certain":5,
    "pass":5,
    "demand":5,
    "address":5,
    "person":5,
    "offer":5,
    "campaign":5,
    "major":5,
    "feels":5,
    "listening":5,
    "finally":5,
    "step":5,
    "heads":5,
    "went":5,
    "force":5,
    "protection":5,
    "americans":5,
    "luizzo":5,
    "iakovos":5,
    "judge\u2019s":5,
    "marcher":5,
    "free":5,
    "silent":6,
    "pull":6,
    "isn\u2019t":6,
    "gray":6,
    "laugh":6,
    "\u2018em":6,
    "speaking":6,
    "smile":6,
    "each":6,
    "united":6,
    "lives":6,
    "luther":6,
    "risk":6,
    "overcome":6,
    "sits":6,
    "cooper":6,
    "yessir":6,
    "you\u2019ll":6,
    "understanding":6,
    "else":6,
    "plan":6,
    "whether":6,
    "needs":6,
    "oval":6,
    "places":6,
    "respect":6,
    "smiles":6,
    "fear":6,
    "national":6,
    "poor":6,
    "seen":6,
    "simple":6,
    "several":6,
    "bit":6,
    "sitting":6,
    "beyond":6,
    "large":6,
    "andrew":6,
    "ralphy":6,
    "conference":6,
    "waiting":6,
    "better":6,
    "courage":6,
    "locals":6,
    "city":6,
    "mrs":6,
    "community":6,
    "shakes":6,
    "answers":6,
    "couple":6,
    "killed":6,
    "talk":6,
    "nearby":6,
    "alone":6,
    "jean":6,
    "road":6,
    "nation":6,
    "protest":6,
    "saw":6,
    "commitment":6,
    "far":6,
    "albany":6,
    "exactly":6,
    "hes":6,
    "streets":6,
    "building":6,
    "action":6,
    "single":6,
    "stare":6,
    "moral":6,
    "actually":6,
    "lay":6,
    "television":6,
    "used":6,
    "yourself":6,
    "lingo":6,
    "send":6,
    "puts":6,
    "age":6,
    "law":6,
    "ago":6,
    "try":6,
    "dead":6,
    "marching":6,
    "deal":6,
    "reeb":6,
    "darkness":6,
    "brothers":7,
    "they\u2019ll":7,
    "she\u2019s":7,
    "family":7,
    "moved":7,
    "lost":7,
    "letter":7,
    "there\u2019s":7,
    "rises":7,
    "form":7,
    "general":7,
    "hoover":7,
    "marty":7,
    "matter":7,
    "hold":7,
    "civil":7,
    "looking":7,
    "doing":7,
    "someone":7,
    "continues":7,
    "kept":7,
    "getting":7,
    "together":7,
    "thousands":7,
    "registered":7,
    "gives":7,
    "left":7,
    "baker":7,
    "attack":7,
    "cold":7,
    "part":7,
    "everyone":7,
    "leans":7,
    "threats":7,
    "atlanta":7,
    "tomorrow":7,
    "longer":7,
    "taking":7,
    "death":7,
    "means":7,
    "clubs":7,
    "determined":7,
    "journalists":7,
    "slowly":7,
    "says":7,
    "tonight":7,
    "telling":7,
    "trooper":7,
    "always":7,
    "cloud":7,
    "attorney":7,
    "court":7,
    "bill":7,
    "tie":8,
    "folks":8,
    "since":8,
    "great":8,
    "freedom":8,
    "steps":8,
    "shall":8,
    "sit":8,
    "trouble":8,
    "ya":8,
    "silence":8,
    "also":8,
    "andy":8,
    "words":8,
    "maybe":8,
    "end":8,
    "table":8,
    "set":8,
    "damn":8,
    "malcolm":8,
    "x":8,
    "fine":8,
    "im":8,
    "cause":8,
    "god":8,
    "highway":8,
    "edmund":8,
    "chief":8,
    "police":8,
    "myself":8,
    "forward":8,
    "leaders":8,
    "reverend":8,
    "might":8,
    "richie":8,
    "power":8,
    "possemen":8,
    "himself":8,
    "wife":8,
    "thought":8,
    "wallace\u2019s":8,
    "capitol":8,
    "outside":8,
    "suddenly":8,
    "doar":8,
    "remember":8,
    "enters":9,
    "after":9,
    "county":9,
    "stares":9,
    "friend":9,
    "word":9,
    "between":9,
    "three":9,
    "along":9,
    "hotel":9,
    "others":9,
    "crowd":9,
    "feet":9,
    "voice":9,
    "keep":9,
    "jail":9,
    "made":9,
    "forman":9,
    "times":9,
    "meeting":9,
    "much":9,
    "door":9,
    "tv":9,
    "did":9,
    "street":9,
    "problem":9,
    "women":9,
    "real":9,
    "happen":9,
    "you\u2019ve":9,
    "wasn\u2019t":9,
    "text":9,
    "four":10,
    "mean":10,
    "south":10,
    "under":10,
    "full":10,
    "negroes":10,
    "screen":10,
    "register":10,
    "annie":10,
    "walks":10,
    "order":10,
    "light":10,
    "coming":10,
    "nods":10,
    "open":10,
    "hands":10,
    "may":10,
    "talking":10,
    "inside":10,
    "movement":10,
    "children":10,
    "didn\u2019t":10,
    "woman":10,
    "boynton":10,
    "boy":10,
    "residence":10,
    "call":10,
    "heart":10,
    "listen":10,
    "closeup":10,
    "line":10,
    "heard":10,
    "things":10,
    "eye":10,
    "truth":10,
    "sound":10,
    "judge":10,
    "morning":11,
    "again":11,
    "few":11,
    "faces":11,
    "church":11,
    "ever":11,
    "stand":11,
    "does":11,
    "believe":11,
    "vivian":11,
    "dont":11,
    "citizens":11,
    "speak":11,
    "start":11,
    "we\u2019ve":11,
    "answer":11,
    "husband":11,
    "standing":11,
    "sncc":11,
    "walk":11,
    "turn":11,
    "army":11,
    "viola":11,
    "upon":12,
    "beat":12,
    "gonna":12,
    "small":12,
    "town":12,
    "deep":12,
    "life":12,
    "never":12,
    "soon":12,
    "nothing":12,
    "hard":12,
    "still":12,
    "without":12,
    "ask":12,
    "act":12,
    "something":12,
    "help":12,
    "federal":12,
    "let\u2019s":12,
    "lot":12,
    "understand":12,
    "big":12,
    "enough":12,
    "window":12,
    "nash":12,
    "ready":12,
    "i\u2019ve":12,
    "thing":12,
    "sclc":12,
    "brown":12,
    "must":12,
    "cannot":12,
    "cager":12,
    "please":12,
    "wait":13,
    "i\u2019ll":13,
    "place":13,
    "american":13,
    "move":13,
    "doesn\u2019t":13,
    "already":13,
    "king\u2019s":13,
    "car":13,
    "speech":13,
    "doc":13,
    "amelia":13,
    "courthouse":13,
    "john":13,
    "trying":13,
    "issue":13,
    "governor":13,
    "said":13,
    "should":14,
    "years":14,
    "old":14,
    "work":14,
    "eyes":14,
    "take":14,
    "new":14,
    "rights":14,
    "told":14,
    "voting":14,
    "pettus":14,
    "group":14,
    "chapel":14,
    "what\u2019s":15,
    "while":15,
    "phone":15,
    "turns":15,
    "across":15,
    "called":15,
    "face":15,
    "done":15,
    "office":15,
    "dr":15,
    "local":15,
    "later":15,
    "front":15,
    "they\u2019re":15,
    "find":16,
    "little":16,
    "being":16,
    "other":16,
    "both":16,
    "another":16,
    "jim":16,
    "george":16,
    "which":17,
    "long":17,
    "own":17,
    "give":17,
    "away":17,
    "around":17,
    "watch":17,
    "behind":17,
    "won\u2019t":17,
    "first":17,
    "any":17,
    "jackson":17,
    "came":17,
    "would":18,
    "even":18,
    "where":18,
    "james":18,
    "okay":18,
    "against":19,
    "home":19,
    "close":19,
    "many":19,
    "come":19,
    "sheriff":19,
    "had":19,
    "moment":19,
    "next":19,
    "stop":19,
    "stands":19,
    "night":19,
    "think":20,
    "ext":20,
    "today":20,
    "side":20,
    "williams":20,
    "state":20,
    "yes":21,
    "we\u2019re":21,
    "let":21,
    "make":21,
    "going":21,
    "abernathy":21,
    "orange":21,
    "jimmie":21,
    "ain\u2019t":22,
    "could":22,
    "head":22,
    "alabama":22,
    "than":22,
    "bevel":22,
    "sir":23,
    "you\u2019re":23,
    "black":23,
    "takes":23,
    "those":23,
    "too":23,
    "through":23,
    "before":24,
    "hand":24,
    "its":24,
    "can\u2019t":24,
    "why":24,
    "only":24,
    "marchers":24,
    "house":25,
    "these":25,
    "every":25,
    "montgomery":25,
    "very":26,
    "lee":26,
    "were":26,
    "tell":27,
    "over":27,
    "men":27,
    "negro":27,
    "room":28,
    "looks":28,
    "martin":28,
    "vote":28,
    "some":28,
    "two":28,
    "lewis":28,
    "same":29,
    "good":29,
    "bridge":29,
    "hear":29,
    "coretta":30,
    "more":30,
    "wallace":31,
    "been":32,
    "way":32,
    "that\u2019s":33,
    "because":33,
    "clark":33,
    "troopers":33,
    "mr":34,
    "say":34,
    "look":35,
    "need":35,
    "off":35,
    "she":36,
    "how":36,
    "when":36,
    "he\u2019s":38,
    "well":39,
    "time":40,
    "into":40,
    "back":41,
    "go":41,
    "has":41,
    "got":41,
    "so":42,
    "or":43,
    "down":44,
    "just":44,
    "president":45,
    "get":45,
    "like":46,
    "want":46,
    "int":46,
    "my":48,
    "johnson":48,
    "young":48,
    "man":49,
    "selma":49,
    "about":49,
    "day":50,
    "was":51,
    "march":53,
    "it\u2019s":54,
    "i\u2019m":56,
    "your":56,
    "don\u2019t":57,
    "out":57,
    "people":57,
    "right":58,
    "her":58,
    "can":58,
    "see":61,
    "our":62,
    "if":63,
    "who":63,
    "one":64,
    "then":65,
    "up":65,
    "now":66,
    "an":66,
    "there":68,
    "them":68,
    "me":70,
    "know":70,
    "will":70,
    "their":71,
    "us":71,
    "by":74,
    "him":76,
    "white":78,
    "here":80,
    "from":81,
    "have":81,
    "no":83,
    "all":85,
    "but":96,
    "what":98,
    "do":100,
    "as":105,
    "be":110,
    "they":112,
    "are":117,
    "at":118,
    "not":123,
    "he":128,
    "his":150,
    "":152,
    "for":158,
    "with":161,
    "king":164,
    "it":165,
    "on":204,
    "this":204,
    "that":215,
    "is":237,
    "we":268,
    "i":287,
    "in":338,
    "you":378,
    "of":385,
    "a":481,
    "and":527,
    "to":585,
    "the":964
}