{
    "mongrel":1,
    "howl":1,
    "aaagh":1,
    "aaaagh":1,
    "pitys":1,
    "sixteen":1,
    "nose":1,
    "ears":1,
    "crowdticklermistaken":1,
    "identities":1,
    "triumphant":1,
    "didnt":1,
    "whats":1,
    "rehearsalslets":1,
    "thatswhatfive":1,
    "backsides":1,
    "pencea":1,
    "extra":1,
    "cushion":1,
    "cushions":1,
    "safety":1,
    "correct":1,
    "profits":1,
    "hit":1,
    "sign":1,
    "daughteralmost":1,
    "completing":1,
    "started":1,
    "begun":1,
    "fire":1,
    "prose":1,
    "praised":1,
    "baggot":1,
    "trumpet":1,
    "emptiness":1,
    "seeks":1,
    "soulmate":1,
    "buggered":1,
    "innyards":1,
    "invited":1,
    "risk":1,
    "green":1,
    "crookback":1,
    "noits":1,
    "month":1,
    "due":1,
    "patron":1,
    "wordwright":1,
    "lifts":1,
    "lend":1,
    "offers":1,
    "partnership":1,
    "throw":1,
    "liver":1,
    "dogs":1,
    "smite":1,
    "yea":1,
    "harken":1,
    "handmaidens":1,
    "devil":1,
    "wives":1,
    "rebellion":1,
    "servants":1,
    "idleness":1,
    "apprentices":1,
    "wickedness":1,
    "smells":1,
    "thusly":1,
    "weekly":1,
    "confession":1,
    "wordsonce":1,
    "gifti":1,
    "potter":1,
    "cups":1,
    "clay":1,
    "empires":1,
    "binds":1,
    "hearts":1,
    "hellfire":1,
    "brimstonesfor":1,
    "sixpence":1,
    "nunnerybut":1,
    "women":1,
    "sue":1,
    "fat":1,
    "phoebe":1,
    "burbages":1,
    "seamstress":1,
    "aye":1,
    "help":1,
    "quill":1,
    "broken":1,
    "organ":1,
    "imagination":1,
    "dried":1,
    "proud":1,
    "collapsed":1,
    "trying":1,
    "pick":1,
    "lock":1,
    "wet":1,
    "herring":1,
    "goodly":1,
    "past":1,
    "sand":1,
    "lad":1,
    "eighteen":1,
    "anne":1,
    "hathaway":1,
    "cottage":1,
    "months":1,
    "relations":1,
    "mothers":1,
    "ardens":1,
    "miles":1,
    "twins":1,
    "banishment":1,
    "blessing":1,
    "bangle":1,
    "psyches":1,
    "temple":1,
    "olympus":1,
    "cheap":1,
    "paper":1,
    "restore":1,
    "wears":1,
    "flow":1,
    "prithee":1,
    "leg":1,
    "nervous":1,
    "laugh":1,
    "seneca":1,
    "sleeve":1,
    "button":1,
    "mistress":1,
    "seamstresss":1,
    "stole":1,
    "chief":1,
    "wit":1,
    "swordsman":1,
    "lover":1,
    "paid":1,
    "youre":1,
    "liar":1,
    "wrong":1,
    "sovereignsill":1,
    "hanged":1,
    "pickpocket":1,
    "commanded":1,
    "favours":1,
    "persuade":1,
    "loving":1,
    "homekeeping":1,
    "youth":1,
    "homely":1,
    "wits":1,
    "consumptives":1,
    "plot":1,
    "cough":1,
    "commend":1,
    "laughs":1,
    "fingers":1,
    "red":1,
    "schoolboy":1,
    "lessons":1,
    "land":1,
    "heroines":1,
    "pipsqueak":1,
    "petticoats":1,
    "wellmonied":1,
    "wellmarried":1,
    "fathers":1,
    "adventure":1,
    "artful":1,
    "postures":1,
    "throws":1,
    "unbiddable":1,
    "ungovernable":1,
    "ruin":1,
    "rapture":1,
    "asleep":1,
    "whole":1,
    "clean":1,
    "spit":1,
    "boots":1,
    "explain":1,
    "condition":1,
    "insurmountable":1,
    "obstacles":1,
    "road":1,
    "imminent":1,
    "bagatelle":1,
    "ups":1,
    "downs":1,
    "owning":1,
    "readying":1,
    "hanging":1,
    "willyoure":1,
    "willin":1,
    "chalk":1,
    "hungry":1,
    "special":1,
    "pigs":1,
    "marinated":1,
    "juniperberry":1,
    "vinegar":1,
    "served":1,
    "buckwheat":1,
    "pancake":1,
    "nice":1,
    "tour":1,
    "chance":1,
    "cost":1,
    "auditions":1,
    "halfanhour":1,
    "bashford":1,
    "id":1,
    "drunkards":1,
    "drunkard":1,
    "mandragora":1,
    "brandy":1,
    "chinks":1,
    "insistand":1,
    "barman":1,
    "newmy":1,
    "doctor":1,
    "isitalian":1,
    "until":1,
    "ethels":1,
    "brother":1,
    "mercutiogood":1,
    "willtheyre":1,
    "refreshing":1,
    "wwwwwas":1,
    "thththis":1,
    "thththe":1,
    "ff":1,
    "fface":1,
    "wabash":1,
    "report":1,
    "tailor":1,
    "few":1,
    "debts":1,
    "please":1,
    "begin":1,
    "music":1,
    "learn":1,
    "bbbbbreak":1,
    "lllleg":1,
    "governor":1,
    "really":1,
    "drags":1,
    "ho":1,
    "water":1,
    "ismy":1,
    "nephew":1,
    "himself":1,
    "quarreling":1,
    "families":1,
    "reconciled":1,
    "discovery":1,
    "cradle":1,
    "fostered":1,
    "manhood":1,
    "robbed":1,
    "mountebank":1,
    "lessepss":1,
    "dreaming":1,
    "bind":1,
    "buy":1,
    "wig":1,
    "plum":1,
    "musicians":1,
    "eat":1,
    "roberts":1,
    "orders":1,
    "seek":1,
    "dowry":1,
    "mortgaged":1,
    "preferment":1,
    "grandson":1,
    "fertile":1,
    "obedient":1,
    "mule":1,
    "christendom":1,
    "rider":1,
    "rubies":1,
    "saddlebag":1,
    "puts":1,
    "poems":1,
    "talking":1,
    "ravens":1,
    "offend":1,
    "coveting":1,
    "shed":1,
    "throat":1,
    "service":1,
    "lowly":1,
    "highest":1,
    "esteem":1,
    "capture":1,
    "ohi":1,
    "punished":1,
    "draw":1,
    "washing":1,
    "blow":1,
    "fools":1,
    "faced":1,
    "six":1,
    "overparted":1,
    "ranters":1,
    "stutterers":1,
    "sent":1,
    "stews":1,
    "acts":1,
    "happening":1,
    "embark":1,
    "customary":1,
    "settled":1,
    "huzzah":1,
    "returned":1,
    "hieronimo":1,
    "barrabas":1,
    "jew":1,
    "maltaof":1,
    "silent":1,
    "creates":1,
    "legend":1,
    "desperate":1,
    "nobleman":1,
    "pope":1,
    "phillips":1,
    "george":1,
    "bryan":1,
    "armitage":1,
    "fall":1,
    "dropped":1,
    "suspect":1,
    "lying":1,
    "turned":1,
    "mighty":1,
    "admire":1,
    "heads":1,
    "mutilated":1,
    "knives":1,
    "john":1,
    "webster":1,
    "plenty":1,
    "youll":1,
    "cat":1,
    "bites":1,
    "wert":1,
    "shrift":1,
    "struck":1,
    "seem":1,
    "went":1,
    "fast":1,
    "sadness":1,
    "lengthens":1,
    "nodont":1,
    "baggage":1,
    "suffer":1,
    "constant":1,
    "interruption":1,
    "willwhere":1,
    "pious":1,
    "self":1,
    "importance":1,
    "knees":1,
    "civility":1,
    "sixday":1,
    "aware":1,
    "beautys":1,
    "privilege":1,
    "flatter":1,
    "majestys":1,
    "requisite":1,
    "gained":1,
    "intend":1,
    "informed":1,
    "bought":1,
    "returns":1,
    "allowed":1,
    "pleasure":1,
    "hops":1,
    "shopkeeper":1,
    "recover":1,
    "matter":1,
    "discussion":1,
    "weed":1,
    "fit":1,
    "investments":1,
    "worki":1,
    "future":1,
    "consented":1,
    "inspect":1,
    "submissive":1,
    "modest":1,
    "brief":1,
    "mab":1,
    "disappears":1,
    "bible":1,
    "skirmish":1,
    "anyone":1,
    "passion":1,
    "strings":1,
    "unmanned":1,
    "unmended":1,
    "unmade":1,
    "puppet":1,
    "box":1,
    "row":1,
    "ours":1,
    "weeping":1,
    "wept":1,
    "sickness":1,
    "cure":1,
    "rain":1,
    "heat":1,
    "visit":1,
    "wither":1,
    "branch":1,
    "envy":1,
    "deeper":1,
    "softer":1,
    "twittering":1,
    "larks":1,
    "banish":1,
    "nightingales":1,
    "interrupt":1,
    "constantly":1,
    "lute":1,
    "bosomdid":1,
    "mention":1,
    "pippins":1,
    "rare":1,
    "golden":1,
    "apples":1,
    "distance":1,
    "wealth":1,
    "noble":1,
    "happily":1,
    "riverbank":1,
    "spark":1,
    "vagabond":1,
    "minded":1,
    "denied":1,
    "blights":1,
    "owe":1,
    "wessexes":1,
    "deceive":1,
    "expect":1,
    "booksellers":1,
    "undress":1,
    "strange":1,
    "try":1,
    "moonlight":1,
    "woke":1,
    "owlcome":1,
    "ohno":1,
    "dark":1,
    "stirring":1,
    "holy":1,
    "palmers":1,
    "pilgrim":1,
    "use":1,
    "pray":1,
    "lest":1,
    "faith":1,
    "despair":1,
    "though":1,
    "suffering":1,
    "cats":1,
    "effect":1,
    "purgd":1,
    "yesyesernot":1,
    "rightit":1,
    "th":1,
    "book":1,
    "lucky":1,
    "yescontinue":1,
    "craves":1,
    "bachelor":1,
    "virtuous":1,
    "talkd":1,
    "withal":1,
    "account":1,
    "debt":1,
    "unrest":1,
    "yond":1,
    "nameif":1,
    "grave":1,
    "son":1,
    "terrible":1,
    "soft":1,
    "breaks":1,
    "arise":1,
    "moon":1,
    "already":1,
    "speakable":1,
    "brightness":1,
    "lamp":1,
    "airy":1,
    "region":1,
    "bright":1,
    "birds":1,
    "sing":1,
    "leans":1,
    "glove":1,
    "might":1,
    "speaks":1,
    "wherefore":1,
    "deny":1,
    "refuse":1,
    "sworn":1,
    "bescreend":1,
    "stumblest":1,
    "counsel":1,
    "hateful":1,
    "orchard":1,
    "walls":1,
    "hard":1,
    "climb":1,
    "considering":1,
    "kinsmen":1,
    "murder":1,
    "alack":1,
    "peril":1,
    "proof":1,
    "enmity":1,
    "cloak":1,
    "hide":1,
    "repose":1,
    "satisfaction":1,
    "canst":1,
    "faithful":1,
    "vow":1,
    "bounty":1,
    "boundless":1,
    "deep":1,
    "infinite":1,
    "noise":1,
    "nursesweet":1,
    "feared":1,
    "lay":1,
    "throughout":1,
    "anonbut":1,
    "meanest":1,
    "beseech":1,
    "neck":1,
    "doesnt":1,
    "nedi":1,
    "knowi":1,
    "julietjust":1,
    "suggestion":1,
    "warwickshire":1,
    "shithouse":1,
    "kind":1,
    "tries":1,
    "stop":1,
    "neds":1,
    "mercutios":1,
    "banishes":1,
    "shipwrecked":1,
    "island":1,
    "prattling":1,
    "apologies":1,
    "sundayit":1,
    "destinies":1,
    "loversfamily":1,
    "fateas":1,
    "unchangeable":1,
    "season":1,
    "dressing":1,
    "nursy":1,
    "gloriana":1,
    "regina":1,
    "chosen":1,
    "radiant":1,
    "shines":1,
    "prepared":1,
    "during":1,
    "evenings":1,
    "festivities":1,
    "bestow":1,
    "gracious":1,
    "choice":1,
    "wifeand":1,
    "lunch":1,
    "chamber":1,
    "produce":1,
    "undergarments":1,
    "instead":1,
    "playercan":1,
    "dreams":1,
    "harsh":1,
    "freely":1,
    "belongs":1,
    "drag":1,
    "bringing":1,
    "laundry":1,
    "chaperone":1,
    "gallant":1,
    "wilhelmina":1,
    "fortuitous":1,
    "shake":1,
    "sear":1,
    "breeches":1,
    "poeta":1,
    "hearddoes":1,
    "insolent":1,
    "pennyapage":1,
    "rogue":1,
    "marlowehas":1,
    "lovely":1,
    "waistcoat":1,
    "playsat":1,
    "richmond":1,
    "kings":1,
    "feats":1,
    "courtly":1,
    "fellows":1,
    "lordwhen":1,
    "playwrights":1,
    "teach":1,
    "comical":1,
    "lust":1,
    "meanyour":1,
    "isyoung":1,
    "enemies":1,
    "playacting":1,
    "sum":1,
    "question":1,
    "witness":1,
    "judge":1,
    "arises":1,
    "anything":1,
    "sothe":1,
    "fireworks":1,
    "soothing":1,
    "after":1,
    "excitements":1,
    "violas":1,
    "audience":1,
    "lordly":1,
    "plucked":1,
    "whos":1,
    "afternoonwell":1,
    "complete":1,
    "desist":1,
    "delivery":1,
    "romeohe":1,
    "respects":1,
    "sovereigns":1,
    "treachery":1,
    "traitor":1,
    "thief":1,
    "een":1,
    "reply":1,
    "continues":1,
    "thieving":1,
    "hack":1,
    "cant":1,
    "pen":1,
    "pot":1,
    "rabble":1,
    "props":1,
    "literary":1,
    "feud":1,
    "normal":1,
    "hid":1,
    "dreamed":1,
    "cast":1,
    "ashore":1,
    "balcony":1,
    "vengeance":1,
    "trouble":1,
    "explained":1,
    "pound":1,
    "tripe":1,
    "famous":1,
    "victory":1,
    "kegs":1,
    "legs":1,
    "grabbing":1,
    "raddled":1,
    "poxy":1,
    "pol":1,
    "infecting":1,
    "guardedly":1,
    "also":1,
    "tickle":1,
    "ohitsitsoh":1,
    "repute":1,
    "reputation":1,
    "tried":1,
    "iquite":1,
    "dipped":1,
    "small":1,
    "vital":1,
    "role":1,
    "given":1,
    "clowns":1,
    "ending":1,
    "news":1,
    "ohwhat":1,
    "among":1,
    "horse":1,
    "met":1,
    "fellow":1,
    "ohdear":1,
    "loss":1,
    "playwriting":1,
    "ladymy":1,
    "ladynow":1,
    "breeding":1,
    "ghost":1,
    "christ":1,
    "worse":1,
    "marlowes":1,
    "built":1,
    "foundations":1,
    "meadow":1,
    "lied":1,
    "calf":1,
    "prize":1,
    "yesyou":1,
    "beyond":1,
    "ran":1,
    "nono":1,
    "widow":1,
    "vows":1,
    "solemn":1,
    "unsanctified":1,
    "killing":1,
    "juliets":1,
    "kinsman":1,
    "banished":1,
    "edward":1,
    "seeming":1,
    "placed":1,
    "malign":1,
    "fate":1,
    "message":1,
    "astray":1,
    "friars":1,
    "plan":1,
    "hears":1,
    "buys":1,
    "deadly":1,
    "enters":1,
    "wakes":1,
    "rolling":1,
    "aisles":1,
    "blue":1,
    "velvet":1,
    "yesit":1,
    "serve":1,
    "missing":1,
    "clerk":1,
    "bridewell":1,
    "fist":1,
    "lettering":1,
    "near":1,
    "pierced":1,
    "hollow":1,
    "nightly":1,
    "pomegranate":1,
    "tree":1,
    "herald":1,
    "morn":1,
    "streaks":1,
    "lace":1,
    "severing":1,
    "clouds":1,
    "candles":1,
    "jocund":1,
    "tiptoe":1,
    "misty":1,
    "mountain":1,
    "tops":1,
    "meteor":1,
    "exhales":1,
    "torchbearer":1,
    "needst":1,
    "wills":1,
    "ist":1,
    "hope":1,
    "walks":1,
    "upstart":1,
    "inky":1,
    "pup":1,
    "hell":1,
    "lot":1,
    "absent":1,
    "friends":1,
    "murderer":1,
    "rejoiced":1,
    "willit":1,
    "brawlmarlowe":1,
    "attacked":1,
    "got":1,
    "knife":1,
    "quarrel":1,
    "billing":1,
    "ploughed":1,
    "sown":1,
    "lime":1,
    "sedition":1,
    "indecency":1,
    "powers":1,
    "courti":1,
    "unshamefacedness":1,
    "displaying":1,
    "female":1,
    "meant":1,
    "notice":1,
    "posted":1,
    "kissing":1,
    "mark":1,
    "wanted":1,
    "yyyyou":1,
    "wwwwere":1,
    "wwww":1,
    "everything":1,
    "goodi":1,
    "burbageyou":1,
    "despises":1,
    "vagrants":1,
    "tinkers":1,
    "peddlers":1,
    "bombast":1,
    "licence":1,
    "drew":1,
    "poets":1,
    "literature":1,
    "brotherhood":1,
    "lamentable":1,
    "needing":1,
    "moored":1,
    "bound":1,
    "tideplease":1,
    "weep":1,
    "colony":1,
    "lordby":1,
    "drafts":1,
    "oblige":1,
    "goldjust":1,
    "dockside":1,
    "ahlook":1,
    "licentiousness":1,
    "vice":1,
    "pride":1,
    "likewise":1,
    "apothecarys":1,
    "ttttwo":1,
    "hhhouseholds":1,
    "bboth":1,
    "ddddignity":1,
    "tttttwo":1,
    "household":1,
    "dignity":1,
    "grudge":1,
    "mutiny":1,
    "unclean":1,
    "fatal":1,
    "loins":1,
    "star":1,
    "crossd":1,
    "lovers":1,
    "misadventured":1,
    "piteous":1,
    "bury":1,
    "parents":1,
    "wwwwas":1,
    "ggggood":1,
    "carry":1,
    "coals":1,
    "colliers":1,
    "rather":1,
    "gosse":1,
    "nervously":1,
    "fault":1,
    "yesterday":1,
    "problem":1,
    "happened":1,
    "maidenhead":1,
    "year":1,
    "bade":1,
    "lamb":1,
    "ladybird":1,
    "forbid":1,
    "calls":1,
    "jail":1,
    "citizens":1,
    "slain":1,
    "amazed":1,
    "doom":1,
    "taken":1,
    "dost":1,
    "implication":1,
    "fills":1,
    "air":1,
    "husband":1,
    "minute":1,
    "many":1,
    "count":1,
    "ere":1,
    "behold":1,
    "thinkst":1,
    "methinks":1,
    "low":1,
    "bottom":1,
    "either":1,
    "eyesight":1,
    "fails":1,
    "lookest":1,
    "trust":1,
    "dry":1,
    "warmth":1,
    "testify":1,
    "livest":1,
    "borrowd":1,
    "likeness":1,
    "shrunk":1,
    "continue":1,
    "pleasant":1,
    "hold":1,
    "ducats":1,
    "dram":1,
    "consents":1,
    "doors":1,
    "seal":1,
    "righteous":1,
    "dateless":1,
    "bargain":1,
    "engrossing":1,
    "bitter":1,
    "conduct":1,
    "unsavory":1,
    "guide":1,
    "desparate":1,
    "pilot":1,
    "dashing":1,
    "rocks":1,
    "seasick":1,
    "weary":1,
    "bark":1,
    "cup":1,
    "closd":1,
    "timeless":1,
    "woe":1,
    "everyone":1,
    "neerdowells":1,
    "rosei":1,
    "goat":1,
    "wear":1,
    "attend":1,
    "exhibitions":1,
    "joint":1,
    "illusion":1,
    "remarkable":1,
    "error":1,
    "easily":1,
    "forgiven":1,
    "mans":1,
    "maser":1,
    "maam":1,
    "rememberas":1,
    "whether":1,
    "eager":1,
    "bows":1,
    "deeply":1,
    "waves":1,
    "bride":1,
    "deniedwith":1,
    "journey":1,
    "whom":1,
    "joined":1,
    "asunder":1,
    "foretold":1,
    "housego":1,
    "rightfully":1,
    "cheerful":1,
    "dreamers":1,
    "ourselves":1,
    "otherwise":1,
    "sorrier":1,
    "hero":1,
    "saddest":1,
    "wretch":1,
    "kingdom":1,
    "bea":1,
    "duke":1,
    "sold":1,
    "america":1,
    "thena":1,
    "worldshe":1,
    "lands":1,
    "vast":1,
    "empty":1,
    "dukeorsino":1,
    "orsinogood":1,
    "virtue":1,
    "dressed":1,
    "unable":1,
    "declare":1,
    "ends":1,
    "fade":1,
    "seaa":1,
    "perilous":1,
    "landa":1,
    "wild":1,
    "waters":1,
    "roar":1,
    "heavethe":1,
    "brave":1,
    "dashed":1,
    "pieces":1,
    "helpless":1,
    "souls":1,
    "drowned":1,
    "greater":1,
    "ocean":1,
    "spirit":1,
    "stronger":1,
    "seas":1,
    "watery":1,
    "stranger":1,
    "badly":2,
    "frees":2,
    "shilling":2,
    "including":2,
    "interest":2,
    "most":2,
    "sake":2,
    "feet":2,
    "shillings":2,
    "nine":2,
    "share":2,
    "partners":2,
    "ive":2,
    "groundlings":2,
    "tuppence":2,
    "addition":2,
    "performance":2,
    "authors":2,
    "finished":2,
    "moment":2,
    "havent":2,
    "soon":2,
    "muse":2,
    "behind":2,
    "boot":2,
    "england":2,
    "court":2,
    "ten":2,
    "grateful":2,
    "richard":2,
    "wrote":2,
    "owed":2,
    "hired":2,
    "under":2,
    "breed":2,
    "rank":2,
    "houses":2,
    "overthrows":2,
    "cause":2,
    "riot":2,
    "black":2,
    "tower":2,
    "genius":2,
    "interesting":2,
    "lately":2,
    "humbled":2,
    "snake":2,
    "week":2,
    "palace":2,
    "whitehall":2,
    "kempe":2,
    "tragedy":2,
    "keeping":2,
    "against":2,
    "feel":2,
    "shadow":2,
    "perfection":2,
    "knows":2,
    "speaking":2,
    "fighting":2,
    "spoke":2,
    "boys":2,
    "tonight":2,
    "teeth":2,
    "order":2,
    "natural":2,
    "strangely":2,
    "turns":2,
    "reopened":2,
    "mind":2,
    "home":2,
    "around":2,
    "playwright":2,
    "nol":2,
    "foot":2,
    "alleyn":2,
    "unknown":2,
    "known":2,
    "wont":2,
    "working":2,
    "straight":2,
    "beaker":2,
    "says":2,
    "early":2,
    "massacre":2,
    "paris":2,
    "duel":2,
    "luck":2,
    "different":2,
    "helen":2,
    "seems":2,
    "everybody":2,
    "except":2,
    "robert":2,
    "estates":2,
    "sees":2,
    "stolen":2,
    "handsome":2,
    "breast":2,
    "dancing":2,
    "nutmeg":2,
    "plantations":2,
    "ancient":2,
    "spoken":2,
    "gregory":2,
    "remember":2,
    "starts":2,
    "funny":2,
    "least":2,
    "damned":2,
    "author":2,
    "harm":2,
    "parts":2,
    "silence":2,
    "tamburlaine":2,
    "henry":2,
    "vi":2,
    "remain":2,
    "attention":2,
    "james":2,
    "andronicus":2,
    "kitty":2,
    "round":2,
    "morrow":2,
    "hence":2,
    "romeos":2,
    "having":2,
    "spend":2,
    "meet":2,
    "purse":2,
    "gods":2,
    "stream":2,
    "piety":2,
    "consent":2,
    "command":2,
    "saturday":2,
    "bear":2,
    "tobacco":2,
    "ship":2,
    "fancy":2,
    "defy":2,
    "duty":2,
    "upstage":2,
    "downstage":2,
    "hath":2,
    "tells":2,
    "ink":2,
    "run":2,
    "tears":2,
    "aunt":2,
    "song":2,
    "none":2,
    "garden":2,
    "sings":2,
    "ear":2,
    "bosom":2,
    "pair":2,
    "live":2,
    "besides":2,
    "bankside":2,
    "between":2,
    "waits":2,
    "high":2,
    "maid":2,
    "answer":2,
    "window":2,
    "rooster":2,
    "broad":2,
    "owl":2,
    "saints":2,
    "saint":2,
    "hands":2,
    "grant":2,
    "turn":2,
    "prayers":2,
    "took":2,
    "trespass":2,
    "sweetly":2,
    "urgd":2,
    "quite":2,
    "rest":2,
    "foes":2,
    "sport":2,
    "fear":2,
    "hither":2,
    "wedding":2,
    "yonder":2,
    "east":2,
    "fair":2,
    "envious":2,
    "sick":2,
    "grief":2,
    "shame":2,
    "daylight":2,
    "longer":2,
    "place":2,
    "eye":2,
    "nights":2,
    "unsatisfied":2,
    "exchange":2,
    "sea":2,
    "blessed":2,
    "strife":2,
    "dress":2,
    "pig":2,
    "shes":2,
    "ah":2,
    "secret":2,
    "prince":2,
    "parting":2,
    "sleep":2,
    "divides":2,
    "patient":2,
    "vessel":2,
    "ladys":2,
    "wish":2,
    "desire":2,
    "queens":2,
    "tide":2,
    "just":2,
    "miss":2,
    "occasion":2,
    "needed":2,
    "stand":2,
    "girl":2,
    "worthy":2,
    "investment":2,
    "courage":2,
    "hour":2,
    "hes":2,
    "heres":2,
    "wick":2,
    "riding":2,
    "bless":2,
    "expected":2,
    "mourning":2,
    "loved":2,
    "deceived":2,
    "gives":2,
    "potion":2,
    "awake":2,
    "drinks":2,
    "dagger":2,
    "fearful":2,
    "yon":2,
    "stands":2,
    "ground":2,
    "stone":2,
    "quick":2,
    "bubbies":2,
    "authority":2,
    "invested":2,
    "public":2,
    "age":2,
    "fame":2,
    "profession":2,
    "gaining":2,
    "accounts":2,
    "approaches":2,
    "alike":2,
    "civil":2,
    "forth":2,
    "whose":2,
    "bite":2,
    "thumb":2,
    "clink":2,
    "breath":2,
    "forty":2,
    "poverty":2,
    "embrace":2,
    "arrest":2,
    "elizabeth":2,
    "contempt":2,
    "next":2,
    "twelfth":2,
    "brought":2,
    "beginning":2,
    "heroine":2,
    "shore":2,
    "bye":2,
    "bitten":3,
    "lambert":3,
    "twelve":3,
    "pence":3,
    "five":3,
    "bit":3,
    "each":3,
    "penny":3,
    "call":3,
    "nearly":3,
    "stars":3,
    "doth":3,
    "talk":3,
    "always":3,
    "aphrodite":3,
    "understand":3,
    "receive":3,
    "piece":3,
    "nobody":3,
    "half":3,
    "gentleman":3,
    "days":3,
    "lewdness":3,
    "children":3,
    "together":3,
    "line":3,
    "length":3,
    "times":3,
    "left":3,
    "old":3,
    "property":3,
    "child":3,
    "side":3,
    "years":3,
    "stratford":3,
    "born":3,
    "free":3,
    "feed":3,
    "return":3,
    "break":3,
    "crab":3,
    "bring":3,
    "ask":3,
    "cease":3,
    "proteus":3,
    "ever":3,
    "through":3,
    "unless":3,
    "looks":3,
    "liked":3,
    "another":3,
    "commands":3,
    "playhouse":3,
    "playhouses":3,
    "wellborn":3,
    "ladies":3,
    "looking":3,
    "above":3,
    "save":3,
    "into":3,
    "disaster":3,
    "opened":3,
    "wouldnt":3,
    "immortal":3,
    "ralph":3,
    "drink":3,
    "work":3,
    "launched":3,
    "ships":3,
    "meets":3,
    "waiting":3,
    "hat":3,
    "boat":3,
    "asks":3,
    "capulet":3,
    "cousin":3,
    "beauty":3,
    "church":3,
    "send":3,
    "till":3,
    "indeed":3,
    "swords":3,
    "down":3,
    "pretty":3,
    "ready":3,
    "voice":3,
    "touch":3,
    "head":3,
    "titus":3,
    "lets":3,
    "came":3,
    "letter":3,
    "sad":3,
    "even":3,
    "arms":3,
    "lies":3,
    "dies":3,
    "beautiful":3,
    "lark":3,
    "wise":3,
    "read":3,
    "mistook":3,
    "pale":3,
    "thine":3,
    "far":3,
    "cheek":3,
    "within":3,
    "adieu":3,
    "gets":3,
    "fight":3,
    "capulets":3,
    "way":3,
    "kills":3,
    "sorrow":3,
    "late":3,
    "forgive":3,
    "herself":3,
    "said":3,
    "stories":3,
    "acted":3,
    "settle":3,
    "afternoon":3,
    "deptford":3,
    "stabbed":3,
    "spare":3,
    "tomb":3,
    "cap":3,
    "die":3,
    "mantuas":3,
    "utters":3,
    "bill":3,
    "vanity":3,
    "hurt":3,
    "shipwreck":4,
    "takes":4,
    "actors":4,
    "open":4,
    "twenty":4,
    "course":4,
    "doubt":4,
    "locked":4,
    "safe":4,
    "found":4,
    "these":4,
    "company":4,
    "playing":4,
    "players":4,
    "lie":4,
    "own":4,
    "act":4,
    "cold":4,
    "river":4,
    "played":4,
    "wants":4,
    "swear":4,
    "favour":4,
    "sonnet":4,
    "joy":4,
    "valentine":4,
    "stage":4,
    "law":4,
    "same":4,
    "myself":4,
    "believe":4,
    "mystery":4,
    "heard":4,
    "made":4,
    "those":4,
    "alas":4,
    "friend":4,
    "faustus":4,
    "burnt":4,
    "topless":4,
    "towers":4,
    "ilium":4,
    "truth":4,
    "enemy":4,
    "every":4,
    "nightingale":4,
    "wheres":4,
    "william":4,
    "montague":4,
    "young":4,
    "virginia":4,
    "back":4,
    "blood":4,
    "fortunes":4,
    "short":4,
    "welcome":4,
    "voyage":4,
    "happy":4,
    "sorry":4,
    "prayer":4,
    "mine":4,
    "poor":4,
    "knew":4,
    "wilt":4,
    "because":4,
    "friar":4,
    "tybalt":4,
    "nature":4,
    "yourself":4,
    "poison":4,
    "farewell":4,
    "mortal":4,
    "pay":5,
    "get":5,
    "put":5,
    "hundred":5,
    "without":5,
    "sun":5,
    "move":5,
    "soul":5,
    "chamberlains":5,
    "written":5,
    "since":5,
    "christopher":5,
    "curtain":5,
    "both":5,
    "going":5,
    "makes":5,
    "gift":5,
    "marriage":5,
    "nor":5,
    "dream":5,
    "goes":5,
    "coming":5,
    "loves":5,
    "revels":5,
    "best":5,
    "care":5,
    "our":5,
    "fortune":5,
    "kill":5,
    "today":5,
    "which":5,
    "need":5,
    "morning":5,
    "face":5,
    "yours":5,
    "killed":5,
    "excellent":5,
    "speech":5,
    "boy":5,
    "follow":5,
    "lesseps":5,
    "country":5,
    "heaven":5,
    "speak":5,
    "fool":5,
    "world":5,
    "gentlemen":5,
    "ay":5,
    "hours":5,
    "sunday":5,
    "keep":5,
    "greenwich":5,
    "perhaps":5,
    "dear":5,
    "thus":5,
    "hand":5,
    "wager":5,
    "tavern":5,
    "drugs":5,
    "title":6,
    "pirates":6,
    "find":6,
    "may":6,
    "while":6,
    "writer":6,
    "want":6,
    "writing":6,
    "gave":6,
    "still":6,
    "verona":6,
    "money":6,
    "rose":6,
    "player":6,
    "over":6,
    "theatres":6,
    "long":6,
    "first":6,
    "thats":6,
    "upon":6,
    "poetry":6,
    "closed":6,
    "enough":6,
    "should":6,
    "mean":6,
    "kit":6,
    "little":6,
    "hear":6,
    "story":6,
    "word":6,
    "mercutio":6,
    "sweet":6,
    "kiss":6,
    "actor":6,
    "right":6,
    "once":6,
    "de":6,
    "before":6,
    "some":6,
    "great":6,
    "saw":6,
    "madam":6,
    "weeks":7,
    "cut":7,
    "pirate":7,
    "theres":7,
    "plague":7,
    "words":7,
    "yet":7,
    "rosaline":7,
    "comes":7,
    "tomorrow":7,
    "pages":7,
    "dont":7,
    "im":7,
    "mother":7,
    "plays":7,
    "sam":7,
    "marry":7,
    "sin":7,
    "last":7,
    "why":8,
    "four":8,
    "king":8,
    "ethel":8,
    "say":8,
    "any":8,
    "done":8,
    "close":8,
    "nothing":8,
    "had":8,
    "could":8,
    "lost":8,
    "bed":8,
    "eyes":8,
    "part":8,
    "admirals":8,
    "tilney":8,
    "true":8,
    "end":8,
    "better":8,
    "thought":8,
    "father":8,
    "anon":8,
    "ill":8,
    "leave":8,
    "married":8,
    "such":8,
    "art":8,
    "apothecary":8,
    "three":9,
    "much":9,
    "something":9,
    "fifty":9,
    "shall":9,
    "wife":9,
    "away":9,
    "scene":9,
    "light":9,
    "silvia":9,
    "stay":9,
    "thousand":9,
    "wait":9,
    "o":9,
    "wonderful":10,
    "dog":10,
    "seen":10,
    "daughter":10,
    "heart":10,
    "make":10,
    "up":10,
    "been":10,
    "gone":10,
    "cannot":10,
    "write":10,
    "thank":10,
    "ned":10,
    "give":10,
    "business":10,
    "an":10,
    "than":10,
    "think":11,
    "their":11,
    "too":11,
    "life":11,
    "poet":11,
    "viola":11,
    "must":11,
    "off":12,
    "very":12,
    "woman":12,
    "only":12,
    "thomas":12,
    "thy":12,
    "thee":12,
    "majesty":12,
    "fennyman":13,
    "take":13,
    "new":13,
    "time":13,
    "burbage":13,
    "show":13,
    "house":13,
    "kent":13,
    "lips":13,
    "death":13,
    "two":14,
    "does":14,
    "henslowe":14,
    "dead":14,
    "man":14,
    "theatre":14,
    "marlowe":14,
    "look":14,
    "go":14,
    "did":14,
    "them":15,
    "us":15,
    "about":15,
    "or":15,
    "juliet":15,
    "comedy":16,
    "were":16,
    "again":16,
    "day":16,
    "queen":16,
    "nurse":16,
    "pounds":17,
    "can":17,
    "men":17,
    "name":17,
    "sir":17,
    "let":18,
    "wessex":18,
    "night":18,
    "its":19,
    "tell":19,
    "out":20,
    "god":20,
    "never":21,
    "where":22,
    "now":22,
    "him":22,
    "more":22,
    "yes":23,
    "here":24,
    "see":24,
    "shakespeare":25,
    "there":25,
    "thou":25,
    "master":26,
    "then":27,
    "lady":27,
    "when":28,
    "how":28,
    "one":28,
    "they":28,
    "has":28,
    "from":28,
    "well":29,
    "know":29,
    "his":30,
    "like":31,
    "romeo":32,
    "":33,
    "come":33,
    "play":34,
    "good":35,
    "lord":35,
    "would":35,
    "mr":36,
    "we":36,
    "if":36,
    "with":37,
    "all":37,
    "on":38,
    "who":40,
    "so":41,
    "oh":42,
    "am":43,
    "this":45,
    "at":47,
    "he":47,
    "no":47,
    "do":48,
    "as":48,
    "was":48,
    "she":51,
    "by":53,
    "but":60,
    "what":63,
    "love":69,
    "her":70,
    "that":75,
    "are":76,
    "be":86,
    "not":87,
    "your":90,
    "have":95,
    "me":95,
    "for":101,
    "in":121,
    "of":144,
    "will":152,
    "it":158,
    "to":171,
    "my":183,
    "is":193,
    "and":206,
    "you":264,
    "a":285,
    "i":304,
    "the":355
}