{
    "shocked":1,
    "aims":1,
    "kindness":1,
    "cuppa":1,
    "bleach":1,
    "dumb":1,
    "takin":1,
    "hed":1,
    "whatever":1,
    "upbeat":1,
    "community":1,
    "slant":1,
    "selfhelp":1,
    "break":1,
    "alcoholicguide":1,
    "getting":1,
    "dumpedlike":1,
    "city":1,
    "planning":1,
    "board":1,
    "meeting":1,
    "max":1,
    "lardass":1,
    "snotface":1,
    "fartbag":1,
    "pigbutt":1,
    "isoh":1,
    "fifteen":1,
    "sixteen":1,
    "cut":1,
    "tie":1,
    "throw":1,
    "river":1,
    "oddlywrapped":1,
    "lard":1,
    "quicker":1,
    "pickles":1,
    "cuts":1,
    "itsan":1,
    "friendship":1,
    "mercalia":1,
    "california":1,
    "oakland":1,
    "orleans":1,
    "smoked":1,
    "duck":1,
    "sandwiches":1,
    "anywhere":1,
    "engine":1,
    "bear":1,
    "seventhirty":1,
    "raconteur":1,
    "won":1,
    "lottery":1,
    "pregnant":1,
    "slammer":1,
    "hence":1,
    "swell":1,
    "boston":1,
    "thirsty":1,
    "busy":1,
    "miss":1,
    "girlfriend":1,
    "divorce":1,
    "problems":1,
    "pussy":1,
    "end":1,
    "lila":1,
    "daniel":1,
    "tenthirty":1,
    "calling":1,
    "dickys":1,
    "full":1,
    "instructions":1,
    "undertaker":1,
    "cremation":1,
    "bums":1,
    "sweated":1,
    "wheeled":1,
    "barrows":1,
    "sand":1,
    "advantages":1,
    "chances":1,
    "hasnt":1,
    "sister":1,
    "numbers":1,
    "final":1,
    "message":1,
    "tumor":1,
    "liver":1,
    "apiece":1,
    "thou":1,
    "prick":1,
    "confused":1,
    "barfbag":1,
    "ythink":1,
    "mortgage":1,
    "spent":1,
    "savings":1,
    "doctors":1,
    "grocery":1,
    "felt":1,
    "taking":1,
    "ed":1,
    "canned":1,
    "eventually":1,
    "crazy":1,
    "3080":1,
    "preciate":1,
    "bother":1,
    "ev":1,
    "least":1,
    "toys":1,
    "quoylno":1,
    "le":1,
    "lt":1,
    "amos":1,
    "figg":1,
    "mockingburg":1,
    "ret":1,
    "mockingb":1,
    "upstate":1,
    "trying":1,
    "reach":1,
    "allegedly":1,
    "detective":1,
    "lieutenant":1,
    "deduced":1,
    "please":1,
    "sold":1,
    "pornographer":1,
    "9000":1,
    "doc":1,
    "touched":1,
    "catch":1,
    "drift":1,
    "compared":1,
    "guardrail":1,
    "chesapeake":1,
    "97":1,
    "fog":1,
    "mercifully":1,
    "impact":1,
    "doubt":1,
    "shoes":1,
    "dash":1,
    "trousers":1,
    "reas":1,
    "w":1,
    "purse":1,
    "large":1,
    "hi":1,
    "candy":1,
    "store":1,
    "selection":1,
    "crash":1,
    "sweetie":1,
    "foundyou":1,
    "earl":1,
    "losin":1,
    "jobd":1,
    "depress":1,
    "relief":1,
    "driven":1,
    "forces":1,
    "locked":1,
    "door":1,
    "high":1,
    "heels":1,
    "stress":1,
    "momma":1,
    "guessin":1,
    "cynical":1,
    "evidence":1,
    "headed":1,
    "north":1,
    "newfoundland":1,
    "yget":1,
    "ache":1,
    "started":1,
    "purpose":1,
    "puzzle":1,
    "yfit":1,
    "nothin":1,
    "fresh":1,
    "everythins":1,
    "tripll":1,
    "educational":1,
    "squirt":1,
    "spinnin":1,
    "toxic":1,
    "slice":1,
    "ohades":1,
    "newspaper":1,
    "somebodys":1,
    "company":1,
    "ocoffee":1,
    "hit":1,
    "owhiskey":1,
    "temporary":1,
    "coffee":1,
    "dumpster":1,
    "draft":1,
    "currents":1,
    "premeditated":1,
    "ferry":1,
    "schedule":1,
    "image":1,
    "msister":1,
    "feeny":1,
    "falconer":1,
    "arabia":1,
    "black":1,
    "falcon":1,
    "land":1,
    "map":1,
    "hurl":1,
    "empty":1,
    "44":1,
    "roofline":1,
    "ruler":1,
    "floor":1,
    "fallen":1,
    "cellar":1,
    "stairs":1,
    "pinkie":1,
    "slept":1,
    "chamber":1,
    "round":1,
    "camp":1,
    "tonight":1,
    "rain":1,
    "belt":1,
    "crown":1,
    "sodas":1,
    "flat":1,
    "withou":1,
    "important":1,
    "chilly":1,
    "clo":1,
    "bodies":1,
    "landlady":1,
    "breakf":1,
    "farts":1,
    "scary":1,
    "teeth":1,
    "owns":1,
    "dream":1,
    "peeled":1,
    "cheaper":1,
    "flour":1,
    "cove":1,
    "drives":1,
    "ycant":1,
    "x":1,
    "bloody":1,
    "socalled":1,
    "managing":1,
    "editor":1,
    "copyeditor":1,
    "mechanicals":1,
    "makeup":1,
    "department":1,
    "distribution":1,
    "shoveler":1,
    "advertiser":1,
    "fourpage":1,
    "spread":1,
    "warehouse":1,
    "leftfooted":1,
    "japanese":1,
    "boots":1,
    "breathlesslyawaited":1,
    "ultimate":1,
    "cheese":1,
    "ywill":1,
    "charms":1,
    "scrawny":1,
    "chest":1,
    "accumulation":1,
    "phlegm":1,
    "hawking":1,
    "poems":1,
    "photos":1,
    "household":1,
    "gossip":1,
    "byline":1,
    "junior":1,
    "sugg":1,
    "libel":1,
    "short":1,
    "writes":1,
    "b":1,
    "beaufield":1,
    "imagines":1,
    "foreign":1,
    "steals":1,
    "foul":1,
    "shortwave":1,
    "rewrites":1,
    "limey":1,
    "prose":1,
    "burmese":1,
    "owners":1,
    "rangoon":1,
    "development":1,
    "corporation":1,
    "tuesday":1,
    "consider":1,
    "joint":1,
    "approach":1,
    "marketing":1,
    "tropical":1,
    "hardwoods":1,
    "burnoosed":1,
    "sawbill":1,
    "awnings":1,
    "ranger":1,
    "devotional":1,
    "competition":1,
    "wednesday":1,
    "near":1,
    "mark":1,
    "hairwood":1,
    "misspelled":1,
    "funnier":1,
    "writing":1,
    "style":1,
    "fantasy":1,
    "moosepuckey":1,
    "pia":1,
    "weve":1,
    "sposed":1,
    "enlighten":1,
    "postman":1,
    "landed":1,
    "jail":1,
    "45":1,
    "throwing":1,
    "harbor":1,
    "deliver":1,
    "themselves":1,
    "snowmobile":1,
    "mishap":1,
    "taken":1,
    "78year":1,
    "rick":1,
    "screechin":1,
    "carouse":1,
    "known":1,
    "accordion":1,
    "player":1,
    "served":1,
    "1970s":1,
    "assault":1,
    "daughters":1,
    "crying":1,
    "fix":1,
    "proper":1,
    "journalists":1,
    "unretired":1,
    "sought":1,
    "33":1,
    "wherever":1,
    "lived":1,
    "master":1,
    "carpenter":1,
    "compulsion":1,
    "yhear":1,
    "yesterdays":1,
    "tragedy":1,
    "brought":1,
    "200":1,
    "pounds":1,
    "fried":1,
    "saintly":1,
    "hows":1,
    "livin":1,
    "charmed":1,
    "buyin":1,
    "sooners":1,
    "lat":1,
    "threw":1,
    "bag":1,
    "stomach":1,
    "fart":1,
    "fells":1,
    "freelance":1,
    "promising":1,
    "career":1,
    "nipped":1,
    "bud":1,
    "excelling":1,
    "future":1,
    "journalism":1,
    "based":1,
    "whered":1,
    "rate":1,
    "pleased":1,
    "tmeetcha":1,
    "eye":1,
    "selfservin":1,
    "salesman":1,
    "jealous":1,
    "obsessed":1,
    "actual":1,
    "manning":1,
    "abuse":1,
    "volume":1,
    "runnin":1,
    "everyone":1,
    "writer":1,
    "rests":1,
    "bless":1,
    "bones":1,
    "cover":1,
    "pictures":1,
    "frontpage":1,
    "photo":1,
    "file":1,
    "beauties":1,
    "knack":1,
    "patch":1,
    "ground":1,
    "blood":1,
    "motor":1,
    "diet":1,
    "coke":1,
    "gloves":1,
    "hat":1,
    "lyin":1,
    "humanizes":1,
    "grace":1,
    "plus":1,
    "starting":1,
    "feature":1,
    "ships":1,
    "whatevers":1,
    "interest":1,
    "throwin":1,
    "peculiarity":1,
    "tolerate":1,
    "jokes":1,
    "cabbie":1,
    "meet":1,
    "section":1,
    "party":1,
    "district":1,
    "sex":1,
    "wow":1,
    "ycome":1,
    "ma":1,
    "tgive":1,
    "model":1,
    "q":1,
    "chinese":1,
    "junk":1,
    "sailed":1,
    "brazil":1,
    "manhattan":1,
    "mile":1,
    "stranded":1,
    "shipwrecked":1,
    "gaze":1,
    "island":1,
    "finished":1,
    "repairs":1,
    "paleontologists":1,
    "define":1,
    "term":1,
    "tugs":1,
    "bladder":1,
    "buggits":1,
    "psychic":1,
    "gift":1,
    "jesson":1,
    "everyones":1,
    "favorite":1,
    "familys":1,
    "sitting":1,
    "jessons":1,
    "grief":1,
    "walls":1,
    "forbidden":1,
    "21":1,
    "monster":1,
    "wave":1,
    "cracks":1,
    "steel":1,
    "hull":1,
    "amidships":1,
    "crack":1,
    "starboard":1,
    "search":1,
    "witch":1,
    "skiff":1,
    "odds":1,
    "arms":1,
    "99":1,
    "licenses":1,
    "spoken":1,
    "givin":1,
    "looked":1,
    "spoke":1,
    "ag":1,
    "bein":1,
    "blabbed":1,
    "ass":1,
    "wr":1,
    "lord":1,
    "whoever":1,
    "runs":1,
    "guarding":1,
    "craft":1,
    "scissors":1,
    "um":1,
    "newspa":1,
    "providing":1,
    "pardon":1,
    "antiquated":1,
    "emphasis":1,
    "individuality":1,
    "freedom":1,
    "objects":1,
    "tuesdays":1,
    "ring":1,
    "sharpenin":1,
    "observation":1,
    "skills":1,
    "tool":1,
    "quality":1,
    "ship":1,
    "canada":1,
    "yessir":1,
    "finest":1,
    "botterjacht":1,
    "holland":1,
    "flatbottomed":1,
    "incredibly":1,
    "tons":1,
    "oak":1,
    "unlike":1,
    "barges":1,
    "henry":1,
    "viii":1,
    "elizabeth":1,
    "happened":1,
    "pounded":1,
    "twelve":1,
    "beach":1,
    "houses":1,
    "rubble":1,
    "whamm":1,
    "insurance":1,
    "lapse":1,
    "lawyers":1,
    "weasel":1,
    "bankruptcy":1,
    "moral":1,
    "tour":1,
    "guide":1,
    "confine":1,
    "authority":1,
    "drinks":1,
    "dear":1,
    "refitting":1,
    "custom":1,
    "upholsterer":1,
    "northern":1,
    "hemisphere":1,
    "moved":1,
    "forced":1,
    "uphol":1,
    "questions":1,
    "answers":1,
    "set":1,
    "workers":1,
    "plow":1,
    "horse":1,
    "mself":1,
    "dawns":1,
    "sexy":1,
    "hullo":1,
    "upstairs":1,
    "become":1,
    "today":1,
    "live":1,
    "dearest":1,
    "earth":1,
    "bought":1,
    "foolish":1,
    "bury":1,
    "advice":1,
    "level":1,
    "respect":1,
    "difference":1,
    "lift":1,
    "enjoyin":1,
    "walk":1,
    "worked":1,
    "boss":1,
    "bringin":1,
    "moody":1,
    "temperamental":1,
    "afternoon":1,
    "marty":1,
    "excellent":1,
    "atall":1,
    "drills":1,
    "hole":1,
    "aways":1,
    "booms":1,
    "hollers":1,
    "o":1,
    "arena":1,
    "manager":1,
    "passion":1,
    "performance":1,
    "beats":1,
    "element":1,
    "shhh":1,
    "climb":1,
    "timing":1,
    "remains":1,
    "boa":1,
    "rid":1,
    "hire":1,
    "rodney":1,
    "wallowing":1,
    "cockeyed":1,
    "bastard":1,
    "thatll":1,
    "bathtub":1,
    "jump":1,
    "anyone":1,
    "brainless":1,
    "asinine":1,
    "devastatingly":1,
    "revealing":1,
    "blunder":1,
    "furry":1,
    "pit":1,
    "profile":1,
    "vessel":1,
    "diddolate":1,
    "sprained":1,
    "wrist":1,
    "period":1,
    "havin":1,
    "mind":1,
    "disembowels":1,
    "self":1,
    "rusty":1,
    "fire":1,
    "heartbeat":1,
    "happens":1,
    "lowest":1,
    "form":1,
    "fact":1,
    "egg":1,
    "salad":1,
    "nehi":1,
    "grape":1,
    "share":1,
    "win":1,
    "jocko":1,
    "whod":1,
    "neatness":1,
    "reorganize":1,
    "perk":1,
    "crowd":1,
    "dock":1,
    "pulled":1,
    "entertaining":1,
    "ahead":1,
    "kinda":1,
    "order":1,
    "computer":1,
    "beauty":1,
    "eavesdroppin":1,
    "mleave":1,
    "ah":1,
    "instinct":1,
    "character":1,
    "idiosyncrasy":1,
    "zip":1,
    "fly":1,
    "thirtyeight":1,
    "budgel":1,
    "vegetarian":1,
    "suchthings":1,
    "snuck":1,
    "penny":1,
    "wed":1,
    "installed":1,
    "banquettes":1,
    "delivered":1,
    "leavin":1,
    "dance":1,
    "thoughts":1,
    "personality":1,
    "disorder":1,
    "hallucin":1,
    "imagination":1,
    "necklaces":1,
    "many":1,
    "skill":1,
    "brings":1,
    "dolls":1,
    "along":1,
    "wears":1,
    "charm":1,
    "saving":1,
    "books":1,
    "exp":1,
    "chasing":1,
    "cheesed":1,
    "blow":1,
    "howre":1,
    "cindy":1,
    "crawford":1,
    "thirteen":1,
    "coat":1,
    "ysee":1,
    "extra":1,
    "tbuild":1,
    "attaway":1,
    "smartern":1,
    "none":1,
    "impresses":1,
    "blatant":1,
    "ambition":1,
    "recognize":1,
    "satchel":1,
    "compelling":1,
    "appear":1,
    "triple":1,
    "increase":1,
    "double":1,
    "lardface":1,
    "dumbass":1,
    "stiffed":1,
    "basin":1,
    "fool":1,
    "capable":1,
    "criscocoated":1,
    "laurels":1,
    "uhoh":1,
    "chewin":1,
    "trifled":1,
    "mcgonigle":1,
    "field":1,
    "petrodollars":1,
    "golden":1,
    "flood":1,
    "jobs":1,
    "thfuture":1,
    "godforsaken":1,
    "civilization":1,
    "money":1,
    "mouths":1,
    "shares":1,
    "mobil":1,
    "goofy":1,
    "codger":1,
    "sad":1,
    "hermit":1,
    "rundown":1,
    "shack":1,
    "h":1,
    "absolutely":1,
    "lotta":1,
    "meals":1,
    "sandwich":1,
    "roast":1,
    "pork":1,
    "article":1,
    "hangs":1,
    "header":1,
    "whatcha":1,
    "sees":1,
    "split":1,
    "gut":1,
    "sit":1,
    "cheap":1,
    "stop":1,
    "havent":1,
    "easier":1,
    "tcopy":1,
    "thpieces":1,
    "suit":1,
    "yers":1,
    "fourvehicle":1,
    "pileup":1,
    "south":1,
    "ferget":1,
    "camera":1,
    "fergot":1,
    "pinko":1,
    "greepeace":1,
    "quivering":1,
    "pigfat":1,
    "moosebuttugly":1,
    "tough":1,
    "beat":1,
    "jelly":1,
    "whyd":1,
    "anybodys":1,
    "stell":1,
    "fancy":1,
    "front":1,
    "caption":1,
    "spelled":1,
    "everthin":1,
    "tembarrass":1,
    "principles":1,
    "unnerstan":1,
    "resignation":1,
    "thonly":1,
    "honorable":1,
    "resign":1,
    "hafta":1,
    "whine":1,
    "beg":1,
    "thim":1,
    "choose":1,
    "fishinyer":1,
    "smart":1,
    "symbiotic":1,
    "relationship":1,
    "spill":1,
    "bcause":1,
    "controversy":1,
    "ads":1,
    "reasonable":1,
    "500":1,
    "confidence":1,
    "overboard":1,
    "thi":1,
    "expand":1,
    "responsi":1,
    "bilities":1,
    "crashes":1,
    "represented":1,
    "negotia":1,
    "stays":1,
    "magnet":1,
    "panic":1,
    "dim":1,
    "past":1,
    "shelter":1,
    "lee":1,
    "wind":1,
    "realized":1,
    "mistake":1,
    "anchor":1,
    "drown":1,
    "jacket":1,
    "floating":1,
    "oar":1,
    "floats":1,
    "filled":1,
    "wondered":1,
    "cockadoodle":1,
    "knowed":1,
    "somebody":1,
    "thin":1,
    "froze":1,
    "bug":1,
    "smoke":1,
    "heaven":1,
    "camped":1,
    "parlor":1,
    "sokay":1,
    "ab":1,
    "plays":1,
    "naked":1,
    "thatstranger":1,
    "snapped":1,
    "bead":1,
    "forgiven":1,
    "saves":1,
    "also":1,
    "case":1,
    "lied":1,
    "hurry":1,
    "rarin":1,
    "solid":1,
    "buggitll":1,
    "deaths":1,
    "mixes":1,
    "simpler":1,
    "callin":1,
    "pushed":1,
    "lumball":1,
    "knocked":1,
    "refuses":1,
    "explain":1,
    "act":1,
    "apologize":1,
    "circumstances":1,
    "choice":1,
    "suspend":1,
    "worst":1,
    "pee":1,
    "eeee":1,
    "recess":1,
    "stand":1,
    "against":1,
    "wall":1,
    "hitting":1,
    "coulda":1,
    "screamed":1,
    "petalll":1,
    "iii":1,
    "teacher":1,
    "printed":1,
    "cept":1,
    "herrys":1,
    "ties":1,
    "knots":1,
    "hot":1,
    "bread":1,
    "dried":1,
    "squash":1,
    "vegetablesa":1,
    "cakesome":1,
    "warm":1,
    "ouoyle":1,
    "qu":1,
    "omaloor":1,
    "dragged":1,
    "across":1,
    "spruce":1,
    "runners":1,
    "lash":1,
    "face":1,
    "carryin":1,
    "tdo":1,
    "wuz":1,
    "12":1,
    "secret":1,
    "crooked":1,
    "wearin":1,
    "cousin":1,
    "dress":1,
    "wore":1,
    "consideration":1,
    "macau":1,
    "expected":1,
    "shipped":1,
    "remaining":1,
    "maam":1,
    "flatterin":1,
    "showin":1,
    "such":1,
    "competent":1,
    "remembered":1,
    "sent":1,
    "ethics":1,
    "accordingly":1,
    "guilt":1,
    "complex":1,
    "ycalled":1,
    "somepla":1,
    "rash":1,
    "weekend":1,
    "guilty":1,
    "separate":1,
    "rooms":1,
    "treat":1,
    "agreed":1,
    "seems":1,
    "understood":1,
    "becau":1,
    "sorta":1,
    "whatwould":1,
    "poison":1,
    "lonely":1,
    "heading":1,
    "misses":1,
    "vodka":1,
    "beer":1,
    "grab":1,
    "taxi":1,
    "music":1,
    "cou":1,
    "aunts":1,
    "fixed":1,
    "follows":1,
    "theyll":1,
    "bunk":1,
    "tgether":1,
    "fluffy":1,
    "couch":1,
    "moren":1,
    "truck":1,
    "driver":1,
    "warning":1,
    "british":1,
    "bathe":1,
    "chips":1,
    "coated":1,
    "kinds":1,
    "scum":1,
    "soap":1,
    "works":1,
    "forgot":1,
    "quebec":1,
    "dieu":1,
    "au":1,
    "revoir":1,
    "cruel":1,
    "jumps":1,
    "girder":1,
    "leaps":1,
    "salmon":1,
    "frenchys":1,
    "complain":1,
    "staties":1,
    "feller":1,
    "hampshire":1,
    "less":1,
    "ere":1,
    "byes":1,
    "axe":1,
    "chain":1,
    "neddie":1,
    "moving":1,
    "matter":1,
    "fond":1,
    "disgusted":1,
    "race":1,
    "ida":1,
    "storms":1,
    "blown":1,
    "bits":1,
    "chat":1,
    "sight":1,
    "grown":1,
    "jaws":1,
    "editorial":1,
    "meetin":1,
    "ysay":1,
    "gbye":1,
    "try":1,
    "tells":1,
    "newsletter":1,
    "suppliers":1,
    "sassy":1,
    "smug":1,
    "list":1,
    "assures":1,
    "skims":1,
    "cream":1,
    "ttell":1,
    "wee":1,
    "bhind":1,
    "scenes":1,
    "billyll":1,
    "offer":1,
    "thmess":1,
    "doughnut":1,
    "outrageous":1,
    "demands":1,
    "heres":1,
    "sayin":1,
    "changed":1,
    "upon":1,
    "fishing":1,
    "issued":1,
    "per":1,
    "doughnuts":1,
    "excited":1,
    "museum":1,
    "catalogue":1,
    "everyday":1,
    "mistakes":1,
    "tea":1,
    "cozy":1,
    "bigger":1,
    "kiddin":1,
    "holidays":1,
    "stretch":1,
    "eleven":1,
    "wrapped":1,
    "kitchen":1,
    "hidden":1,
    "brown":1,
    "eggs":1,
    "sound":1,
    "careful":1,
    "omelette":1,
    "shells":1,
    "shelf":1,
    "onto":1,
    "middle":1,
    "collect":1,
    "beetys":1,
    "waiting":1,
    "neighbors":1,
    "festivities":1,
    "prettys":1,
    "ways":1,
    "cents":1,
    "dollar":1,
    "febry":1,
    "tget":1,
    "clock":1,
    "repaired":1,
    "mesher":1,
    "pickup":1,
    "delivery":1,
    "tcharge":1,
    "strong":1,
    "gasoline":1,
    "bill":1,
    "wi":1,
    "thtimes":1,
    "tis":1,
    "inflation":1,
    "hill":1,
    "bot":1,
    "tom":1,
    "rope":1,
    "hoists":1,
    "muttering":1,
    "bucks":1,
    "mite":1,
    "slick":1,
    "feet":1,
    "bottom":1,
    "auntie":1,
    "fizzard":1,
    "91":1,
    "sets":1,
    "nonslip":1,
    "cane":1,
    "rubber":1,
    "tip":1,
    "dearie":1,
    "clockside":1,
    "pickin":1,
    "speed":1,
    "eight":1,
    "blocks":1,
    "missing":1,
    "miracle":1,
    "zeroing":1,
    "clips":1,
    "inta":1,
    "bank":1,
    "stickin":1,
    "digs":1,
    "brushes":1,
    "herself":1,
    "sprawled":1,
    "tied":1,
    "massive":1,
    "burden":1,
    "wristwatch":1,
    "thrill":1,
    "christians":1,
    "among":1,
    "mention":1,
    "wires":1,
    "suitcase":1,
    "mysterys":1,
    "solved":1,
    "captured":1,
    "moored":1,
    "cruise":1,
    "steward":1,
    "twenty":1,
    "looker":1,
    "wearing":1,
    "armani":1,
    "driving":1,
    "lexus":1,
    "pig":1,
    "buried":1,
    "loss":1,
    "ourselves":1,
    "eat":1,
    "breathe":1,
    "irene":1,
    "ruffles":1,
    "ruffling":1,
    "breakfast":1,
    "congratulations":1,
    "kept":1,
    "quest":1,
    "seem":1,
    "growin":1,
    "imagine":1,
    "social":1,
    "worker":1,
    "summer":1,
    "seattle":1,
    "damaged":1,
    "sunk":1,
    "grieving":1,
    "humiliate":1,
    "myself":1,
    "wayout":1,
    "odd":1,
    "hearts":1,
    "shame":1,
    "decided":1,
    "talker":1,
    "nightmares":1,
    "cheating":1,
    "guts":1,
    "inside":1,
    "flame":1,
    "flickering":1,
    "damn":1,
    "eggshells":1,
    "ego":1,
    "rode":1,
    "beautiful":1,
    "suicide":1,
    "attempt":1,
    "whatll":1,
    "invent":1,
    "innocence":1,
    "play":1,
    "lean":1,
    "silent":1,
    "partner":1,
    "longside":1,
    "sos":1,
    "frostin":1,
    "cake":1,
    "yfind":1,
    "ygot":1,
    "mgertie":1,
    "tangled":1,
    "sling":1,
    "line":1,
    "memorial":1,
    "tmorrows":1,
    "grateful":1,
    "pageant":1,
    "wings":1,
    "yhave":1,
    "tlove":1,
    "inner":1,
    "anymore":1,
    "troubles":1,
    "jacks":1,
    "drawer":1,
    "lodge":1,
    "pin":1,
    "sandwi":1,
    "count":1,
    "tha":1,
    "tradition":1,
    "dads":1,
    "woke":1,
    "mdamn":1,
    "hard":1,
    "fair":1,
    "learn":1,
    "thanking":1,
    "oughta":2,
    "yourself":2,
    "stories":2,
    "fast":2,
    "thirty":2,
    "police":2,
    "supper":2,
    "tomorrow":2,
    "present":2,
    "seven":2,
    "month":2,
    "friday":2,
    "learnin":2,
    "rig":2,
    "edit":2,
    "touch":2,
    "hate":2,
    "shit":2,
    "somewhere":2,
    "going":2,
    "fuck":2,
    "ten":2,
    "married":2,
    "follow":2,
    "alabama":2,
    "question":2,
    "idea":2,
    "fridge":2,
    "chicken":2,
    "hear":2,
    "word":2,
    "machine":2,
    "nuthin":2,
    "dicky":2,
    "ta":2,
    "brain":2,
    "poppa":2,
    "respects":2,
    "hadda":2,
    "mon":2,
    "parents":2,
    "m":2,
    "finish":2,
    "sawmill":2,
    "awhile":2,
    "packed":2,
    "florida":2,
    "geo":2,
    "wages":2,
    "sittin":2,
    "weeks":2,
    "check":2,
    "n":2,
    "shed":2,
    "fun":2,
    "york":2,
    "passed":2,
    "small":2,
    "days":2,
    "sir":2,
    "probably":2,
    "alleged":2,
    "bridge":2,
    "body":2,
    "killed":2,
    "whole":2,
    "minute":2,
    "accident":2,
    "nestor":2,
    "sick":2,
    "oclock":2,
    "early":2,
    "bed":2,
    "terrible":2,
    "mighta":2,
    "worse":2,
    "older":2,
    "pull":2,
    "held":2,
    "teach":2,
    "worlds":2,
    "outside":2,
    "appreciate":2,
    "pot":2,
    "spot":2,
    "fit":2,
    "sweet":2,
    "needs":2,
    "show":2,
    "bettern":2,
    "newfies":2,
    "specially":2,
    "shots":2,
    "phone":2,
    "interview":2,
    "green":2,
    "straight":2,
    "petals":2,
    "watching":2,
    "patient":2,
    "s":2,
    "heavy":2,
    "talking":2,
    "skinny":2,
    "riviera":2,
    "werent":2,
    "born":2,
    "times":2,
    "mail":2,
    "chief":2,
    "either":2,
    "push":2,
    "thatd":2,
    "second":2,
    "himself":2,
    "having":2,
    "impressive":2,
    "tips":2,
    "column":2,
    "reads":2,
    "miserable":2,
    "ugly":2,
    "brit":2,
    "radio":2,
    "met":2,
    "shorter":2,
    "widow":2,
    "fell":2,
    "sexual":2,
    "arent":2,
    "upholstery":2,
    "lobster":2,
    "soul":2,
    "drowned":2,
    "care":2,
    "turns":2,
    "probly":2,
    "iq":2,
    "keepin":2,
    "helluva":2,
    "nutbeems":2,
    "typos":2,
    "gammy":2,
    "bird":2,
    "laugh":2,
    "figger":2,
    "pap":2,
    "naw":2,
    "whether":2,
    "dark":2,
    "feel":2,
    "saying":2,
    "shine":2,
    "joke":2,
    "girls":2,
    "tmorrow":2,
    "nights":2,
    "thboat":2,
    "missed":2,
    "leaving":2,
    "stands":2,
    "walks":2,
    "free":2,
    "t":2,
    "death":2,
    "storm":2,
    "inch":2,
    "port":2,
    "stone":2,
    "sharp":2,
    "alive":2,
    "nothing":2,
    "neither":2,
    "moms":2,
    "giving":2,
    "children":2,
    "structure":2,
    "running":2,
    "jesus":2,
    "f":2,
    "hitler":2,
    "shore":2,
    "forty":2,
    "expensive":2,
    "very":2,
    "mixing":2,
    "salon":2,
    "yacht":2,
    "mystery":2,
    "surprise":2,
    "bangs":2,
    "dawn":2,
    "poor":2,
    "daycare":2,
    "beety":2,
    "guys":2,
    "hungry":2,
    "learning":2,
    "later":2,
    "berries":2,
    "yark":2,
    "hitlers":2,
    "mu":2,
    "comment":2,
    "completely":2,
    "until":2,
    "itd":2,
    "million":2,
    "tsee":2,
    "professional":2,
    "strange":2,
    "kite":2,
    "doing":2,
    "making":2,
    "key":2,
    "luck":2,
    "months":2,
    "overnight":2,
    "haddock":2,
    "yesterday":2,
    "meant":2,
    "stouthearted":2,
    "demon":2,
    "lover":2,
    "paint":2,
    "yerll":2,
    "revenue":2,
    "obvious":2,
    "thick":2,
    "tbe":2,
    "hope":2,
    "rock":2,
    "lives":2,
    "worries":2,
    "longer":2,
    "hours":2,
    "fed":2,
    "picture":2,
    "tanker":2,
    "fired":2,
    "wrote":2,
    "columns":2,
    "sells":2,
    "sounds":2,
    "raise":2,
    "figure":2,
    "talked":2,
    "mebbe":2,
    "main":2,
    "stem":2,
    "gives":2,
    "fergiveness":2,
    "musta":2,
    "trip":2,
    "wish":2,
    "nolan":2,
    "outta":2,
    "hem":2,
    "seein":2,
    "thinkin":2,
    "remember":2,
    "expenses":2,
    "sign":2,
    "change":2,
    "feeling":2,
    "begin":2,
    "barrel":2,
    "opens":2,
    "pie":2,
    "world":2,
    "hated":2,
    "fookin":2,
    "situation":2,
    "while":2,
    "weepyeyed":2,
    "exactly":2,
    "grow":2,
    "presents":2,
    "watched":2,
    "behind":2,
    "merry":2,
    "grandfather":2,
    "cost":2,
    "tires":2,
    "meanwhile":2,
    "galoshes":2,
    "shoulda":2,
    "reasons":2,
    "mornin":2,
    "true":2,
    "feathers":2,
    "drunk":2,
    "kindred":2,
    "souls":2,
    "mirror":2,
    "awake":2,
    "peaceful":2,
    "daddy":2,
    "thanks":3,
    "anyway":3,
    "rewrite":3,
    "late":3,
    "swim":3,
    "father":3,
    "page":3,
    "sack":3,
    "might":3,
    "cold":3,
    "movin":3,
    "road":3,
    "copy":3,
    "loves":3,
    "counts":3,
    "marry":3,
    "drink":3,
    "christ":3,
    "top":3,
    "except":3,
    "being":3,
    "work":3,
    "bring":3,
    "broke":3,
    "mother":3,
    "dining":3,
    "table":3,
    "turned":3,
    "hamm":3,
    "cancer":3,
    "pay":3,
    "send":3,
    "may":3,
    "red":3,
    "paid":3,
    "kid":3,
    "town":3,
    "ago":3,
    "yes":3,
    "daughter":3,
    "yet":3,
    "bay":3,
    "doin":3,
    "under":3,
    "soon":3,
    "turtle":3,
    "worry":3,
    "anybody":3,
    "wonder":3,
    "sleep":3,
    "understand":3,
    "bitch":3,
    "couldnt":3,
    "side":3,
    "becomes":3,
    "lookin":3,
    "must":3,
    "truth":3,
    "drop":3,
    "air":3,
    "job":3,
    "named":3,
    "easy":3,
    "fat":3,
    "barbies":3,
    "morning":3,
    "build":3,
    "away":3,
    "tert":3,
    "ad":3,
    "snow":3,
    "baby":3,
    "nutbeem":3,
    "tokyo":3,
    "local":3,
    "desk":3,
    "someday":3,
    "killickclaw":3,
    "dip":3,
    "puff":3,
    "bet":3,
    "ive":3,
    "test":3,
    "fisherman":3,
    "both":3,
    "wonderful":3,
    "problem":3,
    "attention":3,
    "since":3,
    "charge":3,
    "billys":3,
    "wreck":3,
    "toronto":3,
    "dollars":3,
    "asked":3,
    "built":3,
    "hold":3,
    "quoyles":3,
    "ask":3,
    "posture":3,
    "seen":3,
    "mavis":3,
    "young":3,
    "used":3,
    "together":3,
    "wants":3,
    "rather":3,
    "watch":3,
    "trouble":3,
    "voice":3,
    "before":3,
    "teaching":3,
    "pick":3,
    "boats":3,
    "alvin":3,
    "goin":3,
    "barge":3,
    "saw":3,
    "liked":3,
    "abou":3,
    "silver":3,
    "melville":3,
    "chairs":3,
    "proud":3,
    "herold":3,
    "maid":3,
    "meadow":3,
    "else":3,
    "human":3,
    "statie":3,
    "kind":3,
    "open":3,
    "perfect":3,
    "deserve":3,
    "lets":3,
    "wouldnt":3,
    "stupid":3,
    "talks":3,
    "left":3,
    "shape":3,
    "forgive":3,
    "uncle":3,
    "meat":3,
    "er":3,
    "st":3,
    "johns":3,
    "lunch":3,
    "yar":3,
    "saved":3,
    "hands":3,
    "year":3,
    "ran":3,
    "fifty":3,
    "leander":3,
    "everbody":3,
    "cos":3,
    "through":4,
    "partridge":4,
    "name":4,
    "words":4,
    "sink":4,
    "special":4,
    "anniversary":4,
    "half":4,
    "drive":4,
    "quite":4,
    "y":4,
    "funeral":4,
    "men":4,
    "woulda":4,
    "without":4,
    "mom":4,
    "leave":4,
    "sense":4,
    "clear":4,
    "cause":4,
    "child":4,
    "nine":4,
    "wheres":4,
    "lot":4,
    "hurt":4,
    "start":4,
    "head":4,
    "wear":4,
    "point":4,
    "tho":4,
    "great":4,
    "blue":4,
    "white":4,
    "ghost":4,
    "sometimes":4,
    "mine":4,
    "cards":4,
    "read":4,
    "til":4,
    "listen":4,
    "help":4,
    "calls":4,
    "fish":4,
    "school":4,
    "sleeping":4,
    "headline":4,
    "liar":4,
    "means":4,
    "part":4,
    "gets":4,
    "waitin":4,
    "boys":4,
    "god":4,
    "shipping":4,
    "finds":4,
    "six":4,
    "almost":4,
    "mans":4,
    "yours":4,
    "prowse":4,
    "best":4,
    "shop":4,
    "mrs":4,
    "died":4,
    "necklace":4,
    "clothes":4,
    "thank":4,
    "ready":4,
    "move":4,
    "already":4,
    "youd":4,
    "these":4,
    "tall":4,
    "quiet":4,
    "isnt":4,
    "wont":4,
    "whos":4,
    "funny":4,
    "someone":5,
    "next":5,
    "paper":5,
    "once":5,
    "person":5,
    "fine":5,
    "happy":5,
    "find":5,
    "youll":5,
    "own":5,
    "gave":5,
    "anything":5,
    "sorry":5,
    "took":5,
    "workin":5,
    "wanted":5,
    "yeh":5,
    "actually":5,
    "youve":5,
    "am":5,
    "sure":5,
    "shell":5,
    "car":5,
    "folks":5,
    "gone":5,
    "knows":5,
    "makes":5,
    "wanna":5,
    "rest":5,
    "eyes":5,
    "any":5,
    "bout":5,
    "another":5,
    "loved":5,
    "lost":5,
    "alone":5,
    "wavey":5,
    "save":5,
    "husband":5,
    "papers":5,
    "looks":5,
    "thinking":5,
    "kids":5,
    "most":5,
    "worried":5,
    "box":5,
    "somethin":6,
    "put":6,
    "stuff":6,
    "family":6,
    "water":6,
    "something":6,
    "run":6,
    "home":6,
    "keep":6,
    "nobody":6,
    "let":6,
    "guy":6,
    "last":6,
    "aint":6,
    "wasnt":6,
    "found":6,
    "people":6,
    "bad":6,
    "enough":6,
    "write":6,
    "has":6,
    "into":6,
    "card":6,
    "will":6,
    "license":6,
    "called":6,
    "fishin":6,
    "things":6,
    "oil":6,
    "goes":6,
    "doncha":6,
    "dad":6,
    "again":6,
    "talk":6,
    "herry":6,
    "hell":6,
    "everything":6,
    "yknow":6,
    "friends":6,
    "each":6,
    "christmas":6,
    "chance":7,
    "three":7,
    "hunnerd":7,
    "brother":7,
    "because":7,
    "night":7,
    "been":7,
    "buy":7,
    "hey":7,
    "okay":7,
    "room":7,
    "agnis":7,
    "their":7,
    "piece":7,
    "call":7,
    "aunt":7,
    "heard":7,
    "those":7,
    "made":7,
    "dog":7,
    "buggit":7,
    "week":7,
    "every":7,
    "story":7,
    "ice":7,
    "huh":7,
    "reporter":7,
    "sea":7,
    "same":7,
    "boy":7,
    "guess":7,
    "uh":8,
    "maybe":8,
    "wait":8,
    "pretty":8,
    "wrong":8,
    "came":8,
    "nephew":8,
    "still":8,
    "whats":8,
    "girl":8,
    "course":8,
    "warren":8,
    "women":8,
    "than":8,
    "done":8,
    "should":9,
    "theyre":9,
    "where":9,
    "knew":9,
    "other":9,
    "gotta":9,
    "place":9,
    "comes":9,
    "day":9,
    "then":9,
    "dead":9,
    "house":9,
    "billy":9,
    "newfie":9,
    "first":9,
    "four":9,
    "dennis":9,
    "them":9,
    "fer":9,
    "ever":9,
    "stay":10,
    "new":10,
    "make":10,
    "which":10,
    "down":10,
    "ones":10,
    "give":10,
    "went":10,
    "big":10,
    "mean":10,
    "friend":10,
    "really":10,
    "man":10,
    "news":10,
    "around":10,
    "oh":10,
    "does":11,
    "cant":11,
    "always":11,
    "little":11,
    "more":11,
    "gonna":12,
    "wife":12,
    "by":12,
    "life":12,
    "much":12,
    "didnt":12,
    "id":12,
    "take":12,
    "real":12,
    "who":12,
    "nice":12,
    "say":12,
    "better":12,
    "em":12,
    "told":12,
    "look":13,
    "thought":13,
    "mr":13,
    "want":13,
    "over":13,
    "ya":13,
    "years":13,
    "way":14,
    "would":14,
    "after":14,
    "had":14,
    "even":14,
    "need":14,
    "boat":14,
    "woman":14,
    "son":15,
    "off":15,
    "time":16,
    "come":16,
    "our":16,
    "go":16,
    "thing":16,
    "us":16,
    "old":16,
    "jack":16,
    "youre":17,
    "tell":17,
    "there":17,
    "now":17,
    "here":17,
    "th":17,
    "why":18,
    "quoyle":18,
    "too":18,
    "right":18,
    "love":18,
    "as":19,
    "could":19,
    "or":19,
    "ill":19,
    "bunny":19,
    "theres":19,
    "never":19,
    "did":19,
    "shes":20,
    "back":20,
    "when":21,
    "were":21,
    "two":21,
    "petal":21,
    "hes":21,
    "some":22,
    "from":22,
    "how":23,
    "are":23,
    "at":23,
    "says":24,
    "an":24,
    "only":25,
    "out":25,
    "good":25,
    "get":26,
    "can":27,
    "him":27,
    "no":28,
    "said":28,
    "think":29,
    "got":31,
    "up":31,
    "see":33,
    "they":33,
    "but":34,
    "not":35,
    "if":37,
    "know":37,
    "just":37,
    "his":37,
    "thats":38,
    "have":38,
    "about":39,
    "like":40,
    "do":41,
    "dont":43,
    "we":43,
    "im":44,
    "be":45,
    "on":45,
    "yer":45,
    "your":46,
    "one":46,
    "he":46,
    "what":47,
    "this":52,
    "my":54,
    "all":54,
    "its":57,
    "with":57,
    "so":57,
    "well":59,
    "is":60,
    "was":64,
    "of":66,
    "me":68,
    "her":70,
    "for":71,
    "she":71,
    "that":81,
    "it":92,
    "in":101,
    "and":155,
    "to":182,
    "you":210,
    "i":210,
    "a":218,
    "the":317
}