{
    "invading":1,
    "housecoat":1,
    "midforties":1,
    "strong":1,
    "dominant":1,
    "scratching":1,
    "rear":1,
    "yawning":1,
    "preteen":1,
    "seven":1,
    "sweetness":1,
    "cutes":1,
    "pal":1,
    "cooperate":1,
    "twentyone":1,
    "sweatshirt":1,
    "pampered":1,
    "sloppy":1,
    "scolds":1,
    "marches":1,
    "break":1,
    "pick":1,
    "3a":1,
    "pest":1,
    "herperiod":1,
    "brash":1,
    "maturity":1,
    "trots":1,
    "nope":1,
    "spits":1,
    "dear":1,
    "unloaded":1,
    "haul":1,
    "expect":1,
    "transformed":1,
    "improved":1,
    "mental":1,
    "state":1,
    "show":1,
    "shows":1,
    "tan":1,
    "familys":1,
    "pissed":1,
    "inches":1,
    "allnew":1,
    "comare":1,
    "pletely":1,
    "screwedup":1,
    "fades":1,
    "deluxe":1,
    "bite":1,
    "closet":1,
    "rummages":1,
    "whered":1,
    "touche":1,
    "hockey":1,
    "sticks":1,
    "hats":1,
    "boots":1,
    "toys":1,
    "allow":1,
    "defect":1,
    "th":1,
    "books":1,
    "scowls":1,
    "greeting":1,
    "missed":1,
    "breakfast":1,
    "grab":1,
    "doughnut":1,
    "tongued":1,
    "powdered":1,
    "sugar":1,
    "11":1,
    "rice":1,
    "chex":1,
    "rizczechs":1,
    "eight":1,
    "youid":1,
    "elope":1,
    "marry":1,
    "mr":1,
    "buy":1,
    "eating":1,
    "increase":1,
    "solid":1,
    "shake":1,
    "shape":1,
    "sisters":1,
    "races":1,
    "giving":1,
    "pouty":1,
    "ceiling":1,
    "fighting":1,
    "asleep":1,
    "drop":1,
    "desk":1,
    "retrieves":1,
    "palm":1,
    "keeping":1,
    "while":1,
    "nancy":1,
    "ludwig":1,
    "test":1,
    "during":1,
    "development":1,
    "independent":1,
    "shrugs":1,
    "shoulders":1,
    "dream":1,
    "lover":1,
    "ideal":1,
    "consume":1,
    "hamburger":1,
    "depends":1,
    "void":1,
    "chin":1,
    "bar":1,
    "alongside":1,
    "independant":1,
    "retarded":1,
    "hardup":1,
    "thinking":1,
    "park":1,
    "peeker":1,
    "wherever":1,
    "eightysix":1,
    "yo":1,
    "fuckedup":1,
    "gay":1,
    "chest":1,
    "perfect":1,
    "practically":1,
    "supposedly":1,
    "brothers":1,
    "deaf":1,
    "worships":1,
    "sympathetically":1,
    "figures":1,
    "trans":1,
    "pink":1,
    "loathe":1,
    "square":1,
    "sneer":1,
    "seats":1,
    "surrounded":1,
    "dopey":1,
    "freshmen":1,
    "sweaters":1,
    "parkas":1,
    "dregs":1,
    "introvert":1,
    "spinal":1,
    "correction":1,
    "brace":1,
    "band":1,
    "members":1,
    "practicing":1,
    "handheld":1,
    "computer":1,
    "dignified":1,
    "mode":1,
    "transportation":1,
    "adore":1,
    "stirfry":1,
    "neat":1,
    "gift":1,
    "received":1,
    "guest":1,
    "yourself":1,
    "complexion":1,
    "faces":1,
    "threatening":1,
    "squint":1,
    "lust":1,
    "blood":1,
    "bugging":1,
    "sic":1,
    "input":1,
    "reading":1,
    "relatively":1,
    "woo":1,
    "attracted":1,
    "everyday":1,
    "frequently":1,
    "fag":1,
    "jerks":1,
    "aisle":1,
    "conversed":1,
    "incredibly":1,
    "soon":1,
    "ladies":1,
    "earshot":1,
    "doorjamb":1,
    "sincerely":1,
    "animals":1,
    "disbelief":1,
    "sleeping":1,
    "claim":1,
    "fair":1,
    "oldsmobile":1,
    "hint":1,
    "fifteenth":1,
    "nippy":1,
    "ask":1,
    "refuse":1,
    "wear":1,
    "coat":1,
    "forgotten":1,
    "set":1,
    "visit":1,
    "joke":1,
    "jolly":1,
    "robust":1,
    "late":1,
    "sixties":1,
    "fashion":1,
    "model":1,
    "snead":1,
    "sammy":1,
    "davis":1,
    "owl":1,
    "loathes":1,
    "snorts":1,
    "tickles":1,
    "somewhat":1,
    "chic":1,
    "older":1,
    "women":1,
    "tickling":1,
    "swats":1,
    "blanches":1,
    "magnifying":1,
    "glass":1,
    "grandmother":1,
    "student":1,
    "living":1,
    "burn":1,
    "mattress":1,
    "sheets":1,
    "leaves":1,
    "resigned":1,
    "suppose":1,
    "fiance":1,
    "stop":1,
    "grandmothers":1,
    "reason":1,
    "visited":1,
    "stove":1,
    "single":1,
    "worst":1,
    "bitching":1,
    "underneath":1,
    "named":1,
    "ducks":1,
    "sofa":1,
    "city":1,
    "cute":1,
    "everybodyd":1,
    "happier":1,
    "white":1,
    "bread":1,
    "pulled":1,
    "aside":1,
    "straight":1,
    "thug":1,
    "divorce":1,
    "senile":1,
    "loved":1,
    "flippedout":1,
    "months":1,
    "attitude":1,
    "toward":1,
    "romance":1,
    "reminds":1,
    "romantically":1,
    "bankrupt":1,
    "enjoyed":1,
    "overabundance":1,
    "boyfriends":1,
    "consideration":1,
    "steady":1,
    "mature":1,
    "adult":1,
    "dressing":1,
    "makeup":1,
    "varieties":1,
    "experiencing":1,
    "puppy":1,
    "respond":1,
    "hasnt":1,
    "dating":1,
    "clever":1,
    "appetizing":1,
    "neatly":1,
    "round":1,
    "quiche":1,
    "rattles":1,
    "dentures":1,
    "amusement":1,
    "hardly":1,
    "amused":1,
    "kindly":1,
    "treatment":1,
    "dongs":1,
    "lots":1,
    "chat":1,
    "visiting":1,
    "writing":1,
    "letters":1,
    "pushing":1,
    "mowing":1,
    "machine":1,
    "hernia":1,
    "dishes":1,
    "helps":1,
    "respect":1,
    "admire":1,
    "citizens":1,
    "excused":1,
    "popcorn":1,
    "play":1,
    "twister":1,
    "graded":1,
    "watusi":1,
    "bulge":1,
    "mouths":1,
    "distraught":1,
    "rockets":1,
    "vs":1,
    "monkey":1,
    "united":1,
    "states":1,
    "americas":1,
    "moving":1,
    "locale":1,
    "speeding":1,
    "fiftyfive":1,
    "miles":1,
    "per":1,
    "teenage":1,
    "excitement":1,
    "kinky":1,
    "mass":1,
    "murderer":1,
    "previous":1,
    "pretend":1,
    "kn0w":1,
    "loser":1,
    "dim":1,
    "dickll":1,
    "plenty":1,
    "lucky":1,
    "healthy":1,
    "jackedup":1,
    "cheerful":1,
    "ourselves":1,
    "available":1,
    "scope":1,
    "fully":1,
    "aged":1,
    "meat":1,
    "figured":1,
    "seventeen":1,
    "digits":1,
    "amazed":1,
    "lowers":1,
    "goggles":1,
    "hang":1,
    "lies":1,
    "nights":1,
    "predict":1,
    "water":1,
    "check":1,
    "cools":1,
    "radio":1,
    "communicator":1,
    "swat":1,
    "teams":1,
    "football":1,
    "coaches":1,
    "intense":1,
    "whacked":1,
    "awright":1,
    "crank":1,
    "76c":1,
    "happiness":1,
    "blowing":1,
    "executes":1,
    "spin":1,
    "liberated":1,
    "shriek":1,
    "warmed":1,
    "hurls":1,
    "lands":1,
    "dickface":1,
    "improvises":1,
    "hyper":1,
    "online":1,
    "spazout":1,
    "weasel":1,
    "dozen":1,
    "tit":1,
    "scumbag":1,
    "relax":1,
    "exaggerated":1,
    "effort":1,
    "drugs":1,
    "isshe":1,
    "relaxes":1,
    "buddy":1,
    "weenietits":1,
    "mouthfuls":1,
    "drives":1,
    "schizo":1,
    "tail":1,
    "apeshit":1,
    "million":1,
    "slow":1,
    "inch":1,
    "stocky":1,
    "tough":1,
    "painters":1,
    "flannel":1,
    "black":1,
    "hightops":1,
    "lovingly":1,
    "breast":1,
    "reacheshis":1,
    "bored":1,
    "brink":1,
    "insanity":1,
    "giggle":1,
    "america":1,
    "87c":1,
    "smell":1,
    "cream":1,
    "howdy":1,
    "computerland":1,
    "disinterested":1,
    "honest":1,
    "insult":1,
    "manners":1,
    "asswipe":1,
    "split":1,
    "rejection":1,
    "dumbfounded":1,
    "stumbles":1,
    "randys":1,
    "sad":1,
    "foolish":1,
    "serenade":1,
    "horrified":1,
    "brand":1,
    "platinum":1,
    "agrees":1,
    "physically":1,
    "frigid":1,
    "blankly":1,
    "fairly":1,
    "knowledgeable":1,
    "reproductive":1,
    "organs":1,
    "secrets":1,
    "rassing":1,
    "sexual":1,
    "horse":1,
    "laugh":1,
    "virgin":1,
    "howls":1,
    "contact":1,
    "manages":1,
    "sleeve":1,
    "laughing":1,
    "bursts":1,
    "fool":1,
    "sudden":1,
    "attack":1,
    "windshield":1,
    "frightened":1,
    "offended":1,
    "slightly":1,
    "flattered":1,
    "understands":1,
    "plight":1,
    "far":1,
    "removed":1,
    "zoning":1,
    "waves":1,
    "certs":1,
    "fresh":1,
    "priority":1,
    "honesty":1,
    "innocence":1,
    "mainly":1,
    "dink":1,
    "leader":1,
    "king":1,
    "dipshits":1,
    "standard":1,
    "score":1,
    "rookie":1,
    "asking":1,
    "bibles":1,
    "stack":1,
    "department":1,
    "decide":1,
    "forgets":1,
    "changes":1,
    "apparently":1,
    "gambling":1,
    "nature":1,
    "biggest":1,
    "spreads":1,
    "expensive":1,
    "hips":1,
    "angrily":1,
    "proof":1,
    "physical":1,
    "borrow":1,
    "underpants":1,
    "discreetly":1,
    "sweater":1,
    "tongue":1,
    "patty":1,
    "holding":1,
    "ground":1,
    "waltz":1,
    "joined":1,
    "handkerchief":1,
    "deftly":1,
    "vacuum":1,
    "suck":1,
    "lock":1,
    "scanning":1,
    "releases":1,
    "those":1,
    "fantasize":1,
    "richest":1,
    "most":1,
    "popular":1,
    "adults":1,
    "owe":1,
    "weekends":1,
    "tu":1,
    "acting":1,
    "screwing":1,
    "guilt":1,
    "signals":1,
    "cow":1,
    "twenty":1,
    "indictment":1,
    "loveless":1,
    "issuing":1,
    "threats":1,
    "threat":1,
    "song":1,
    "sufficiently":1,
    "warned":1,
    "fight":1,
    "slices":1,
    "anger":1,
    "embarrassment":1,
    "blushing":1,
    "relief":1,
    "gimme":1,
    "quiets":1,
    "danced":1,
    "played":1,
    "intermural":1,
    "bball":1,
    "dribbles":1,
    "loaning":1,
    "donger":1,
    "bitchin":1,
    "slumps":1,
    "further":1,
    "lunberjack":1,
    "earthy":1,
    "yelp":1,
    "gooses":1,
    "kawasaki":1,
    "depress":1,
    "thankful":1,
    "showed":1,
    "baby":1,
    "stories":1,
    "grandfather":1,
    "jokes":1,
    "hijacked":1,
    "sang":1,
    "songs":1,
    "news":1,
    "consoling":1,
    "monster":1,
    "ryans":1,
    "anywhere":1,
    "bother":1,
    "valid":1,
    "feet":1,
    "dudes":1,
    "wave":1,
    "stall":1,
    "jumps":1,
    "hug":1,
    "company":1,
    "basically":1,
    "game":1,
    "arcades":1,
    "machines":1,
    "trucking":1,
    "dabble":1,
    "loans":1,
    "remembers":1,
    "means":1,
    "girlofthemonthclub":1,
    "chuckles":1,
    "touch":1,
    "kid":1,
    "pigs":1,
    "done":1,
    "bubble":1,
    "baths":1,
    "unfastens":1,
    "yelling":1,
    "goddamnit":1,
    "ripped":1,
    "points":1,
    "feebly":1,
    "truthfully":1,
    "northfield":1,
    "bakers":1,
    "5551740":1,
    "writes":1,
    "dials":1,
    "unconsciously":1,
    "fixes":1,
    "clears":1,
    "dorothys":1,
    "shocked":1,
    "hiding":1,
    "fell":1,
    "tunny":1,
    "locked":1,
    "shitfaced":1,
    "nooo":1,
    "cracks":1,
    "elbows":1,
    "demolished":1,
    "twentyfive":1,
    "thousand":1,
    "collapses":1,
    "dongers":1,
    "hours":1,
    "disease":1,
    "knocks":1,
    "pile":1,
    "bedding":1,
    "sheet":1,
    "passively":1,
    "plants":1,
    "squarely":1,
    "gentle":1,
    "shove":1,
    "crashes":1,
    "stopped":1,
    "loving":1,
    "stagger":1,
    "trace":1,
    "several":1,
    "breathing":1,
    "136a":1,
    "indeed":1,
    "reaching":1,
    "hanging":1,
    "converse":1,
    "briefly":1,
    "wants":1,
    "earth":1,
    "awakened":1,
    "filthy":1,
    "suggestions":1,
    "rudemouth":1,
    "hooligan":1,
    "granddaughter":1,
    "sense":1,
    "clear":1,
    "goodbye":1,
    "peck":1,
    "change":1,
    "social":1,
    "opportunity":1,
    "pounded":1,
    "seventy":1,
    "pair":1,
    "safe":1,
    "kittens":1,
    "beeper":1,
    "fiddles":1,
    "changed":1,
    "saw":1,
    "flock":1,
    "seagulls":1,
    "month":1,
    "bell":1,
    "hearty":1,
    "persons":1,
    "halfclosed":1,
    "lids":1,
    "st":1,
    "anthonys":1,
    "cause":1,
    "leather":1,
    "metal":1,
    "incredulous":1,
    "revealing":1,
    "horrifying":1,
    "mouthful":1,
    "decayed":1,
    "obnoxious":1,
    "consider":1,
    "amazingly":1,
    "gorgeous":1,
    "disgusting":1,
    "mens":1,
    "momentarily":1,
    "silencing":1,
    "wide":1,
    "terror":1,
    "circumstances":1,
    "pullout":1,
    "piss":1,
    "since":1,
    "volunteered":1,
    "hospitality":1,
    "offer":1,
    "brew":1,
    "nervously":1,
    "tip":1,
    "sap":1,
    "mad":1,
    "cuts":1,
    "extent":1,
    "damage":1,
    "blonde":1,
    "clipped":1,
    "hallway":1,
    "spirited":1,
    "cheer":1,
    "disaster":1,
    "bolts":1,
    "gawks":1,
    "watching":1,
    "flops":1,
    "inside":1,
    "choice":1,
    "handcuffed":1,
    "nude":1,
    "shopping":1,
    "cart":1,
    "return":1,
    "rack":1,
    "jewel":1,
    "opted":1,
    "death":1,
    "dignity":1,
    "sensitivity":1,
    "training":1,
    "eightysixed":1,
    "third":1,
    "housekeeper":1,
    "twice":1,
    "upstairs":1,
    "pleased":1,
    "remembered":1,
    "burned":1,
    "understandingly":1,
    "foul":1,
    "cry":1,
    "lord":1,
    "navy":1,
    "father":1,
    "thi":1,
    "awhi":1,
    "le":1,
    "combed":1,
    "college":1,
    "heels":1,
    "anyway":1,
    "picture":1,
    "worrying":1,
    "finally":1,
    "courage":1,
    "sorority":1,
    "lived":1,
    "walked":1,
    "stomped":1,
    "broke":1,
    "toes":1,
    "met":1,
    "hospital":1,
    "relevance":1,
    "consolation":1,
    "crushes":1,
    "theyd":1,
    "crawling":1,
    "knees":1,
    "tight":1,
    "able":1,
    "helped":1,
    "handsignals":1,
    "cranked":1,
    "freaked":1,
    "looked":1,
    "leper":1,
    "playing":1,
    "expert":1,
    "girlsll":1,
    "perpetual":1,
    "heat":1,
    "pumping":1,
    "pure":1,
    "power":1,
    "hated":1,
    "guts":1,
    "torturous":1,
    "borrows":1,
    "money":1,
    "halfway":1,
    "rob":1,
    "torquedup":1,
    "heinous":1,
    "pulling":1,
    "downer":1,
    "bullshit":1,
    "compelled":1,
    "bigger":1,
    "yor":1,
    "human":1,
    "contemporary":1,
    "anytime":1,
    "passed":1,
    "violate":1,
    "ways":1,
    "waiting":1,
    "built":1,
    "insensitive":1,
    "craves":1,
    "wholl":1,
    "romantic":1,
    "plea":1,
    "psycho":1,
    "same":1,
    "balls":1,
    "cares":1,
    "qeal":1,
    "except":1,
    "horne":1,
    "blitzed":1,
    "difference":1,
    "mine":1,
    "trust":1,
    "dads":1,
    "stick":1,
    "grill":1,
    "lists":1,
    "shoves":1,
    "footwells":1,
    "urn":1,
    "skirt":1,
    "stud":1,
    "keys":1,
    "fun":1,
    "reverse":1,
    "tracks":1,
    "overhead":1,
    "173b":1,
    "banzai":1,
    "honks":1,
    "pops":1,
    "feed":1,
    "chugalug":1,
    "pooh":1,
    "bear":1,
    "dash":1,
    "digs":1,
    "dispenser":1,
    "recognizing":1,
    "christmas":1,
    "present":1,
    "pills":1,
    "estrogen":1,
    "exactly":1,
    "purrs":1,
    "careless":1,
    "obliterating":1,
    "view":1,
    "road":1,
    "unreal":1,
    "humongous":1,
    "camea":1,
    "moron":1,
    "yells":1,
    "oc":1,
    "each":1,
    "prom":1,
    "queen":1,
    "twerp":1,
    "legend":1,
    "thirty":1,
    "laws":1,
    "nobodys":1,
    "pictures":1,
    "fumbles":1,
    "snuggles":1,
    "drunken":1,
    "squeals":1,
    "weary":1,
    "reveals":1,
    "punchedup":1,
    "broken":1,
    "country":1,
    "shower":1,
    "polluted":1,
    "oldfashioned":1,
    "bridal":1,
    "jitters":1,
    "cramps":1,
    "bring":1,
    "bull":1,
    "elephant":1,
    "toy":1,
    "christs":1,
    "sake":1,
    "fatal":1,
    "word":1,
    "hide":1,
    "nor":1,
    "drove":1,
    "korea":1,
    "puzzled":1,
    "concerned":1,
    "tone":1,
    "busy":1,
    "darling":1,
    "sniffles":1,
    "step":1,
    "embraces":1,
    "comforts":1,
    "miserable":1,
    "hugging":1,
    "kidding":1,
    "classic":1,
    "shot":1,
    "london":1,
    "marakesh":1,
    "beaver":1,
    "flesh":1,
    "called":1,
    "calls":1,
    "sees":1,
    "jim90es":1,
    "describe":1,
    "bummer":1,
    "princess":1,
    "dipshit":1,
    "bridesmaid":1,
    "onetenth":1,
    "fill":1,
    "spare":1,
    "agony":1,
    "bummed":1,
    "shouldnt":1,
    "brother":1,
    "screams":1,
    "rockn":1,
    "howie":1,
    "tuxedos":1,
    "common":1,
    "cheap":1,
    "hotel":1,
    "ball":1,
    "sullen":1,
    "jeans":1,
    "clutching":1,
    "simple":1,
    "outfit":1,
    "carrying":1,
    "growing":1,
    "creature":1,
    "lays":1,
    "eggs":1,
    "deadbolt":1,
    "neocommunist":1,
    "gook":1,
    "shuffles":1,
    "paying":1,
    "doodle":1,
    "drowned":1,
    "juice":1,
    "kneels":1,
    "cautiously":1,
    "touches":1,
    "eye":1,
    "swollen":1,
    "yanky":1,
    "wanky":1,
    "plotzed":1,
    "bombed":1,
    "noodle":1,
    "m1eres":1,
    "automobile":1,
    "lake":1,
    "scuz":1,
    "bag":1,
    "leg":1,
    "kicks":1,
    "groin":1,
    "carne":1,
    "early":1,
    "egg":1,
    "factory":1,
    "berserk":1,
    "relaxer":1,
    "muscle":1,
    "pain":1,
    "bit":1,
    "rears":1,
    "squints":1,
    "digithead":1,
    "sh":1,
    "dazed":1,
    "confused":1,
    "rubs":1,
    "throbbing":1,
    "lap":1,
    "buttock":1,
    "removes":1,
    "cheeks":1,
    "forth":1,
    "moans":1,
    "softly":1,
    "stuffed":1,
    "recognizes":1,
    "uncut":1,
    "bare":1,
    "werent":1,
    "baffled":1,
    "shed":1,
    "scream":1,
    "jesus":1,
    "christ":1,
    "funky":1,
    "munchkin":1,
    "ready":1,
    "titter":1,
    "cruise":1,
    "bars":1,
    "found":1,
    "stirs":1,
    "bewilderment":1,
    "orients":1,
    "start":1,
    "peels":1,
    "headgear":1,
    "cranes":1,
    "notices":1,
    "hairs":1,
    "missing":1,
    "anythings":1,
    "scratches":1,
    "memory":1,
    "troubled":1,
    "woeful":1,
    "sleepy":1,
    "bench":1,
    "orbit":1,
    "scary":1,
    "wretched":1,
    "concentrating":1,
    "kleenex":1,
    "cup":1,
    "caves":1,
    "cursed":1,
    "mwaaaa":1,
    "eek":1,
    "squeezed":1,
    "chulch":1,
    "wildly":1,
    "deduces":1,
    "clothing":1,
    "lately":1,
    "screw":1,
    "marriage":1,
    "announce":1,
    "padre":1,
    "politely":1,
    "squeezes":1,
    "shuts":1,
    "feathered":1,
    "resist":1,
    "batting":1,
    "feather":1,
    "awfully":1,
    "mucho":1,
    "obnoxioso":1,
    "future":1,
    "waking":1,
    "flabbergasted":1,
    "rumor":1,
    "high":1,
    "aint":1,
    "kentucky":1,
    "falling":1,
    "perhaps":1,
    "shits":1,
    "revs":1,
    "frenching":1,
    "hears":1,
    "fear":1,
    "straightens":1,
    "blouse":1,
    "swings":1,
    "book":1,
    "involved":1,
    "regardless":1,
    "hurts":1,
    "kneejerk":1,
    "reaction":1,
    "50":1,
    "uneasily":1,
    "thursday":1,
    "wednesday":1,
    "uncomfortable":1,
    "vulnerable":1,
    "neither":1,
    "covered":1,
    "decision":1,
    "accepts":1,
    "resolve":1,
    "agreement":1,
    "virginia":1,
    "interrupts":1,
    "slurry":1,
    "bub":1,
    "ahead":1,
    "husband":1,
    "rudolf":1,
    "nearly":1,
    "store":1,
    "fours":1,
    "thee":1,
    "wed":1,
    "waist":1,
    "puckers":1,
    "kissing":1,
    "organ":1,
    "surges":1,
    "veil":1,
    "stays":1,
    "awake":1,
    "consummate":1,
    "riding":1,
    "approach":1,
    "trailing":1,
    "bickering":1,
    "hold":1,
    "horses":1,
    "sit":1,
    "allen":1,
    "fire":1,
    "photographer":1,
    "joins":1,
    "group":1,
    "flash":1,
    "street":1,
    "between":1,
    "traffic":1,
    "jam":1,
    "honking":1,
    "whatre":1,
    "grins":1,
    "upset":1,
    "royally":1,
    "poor":1,
    "stand":1,
    "dark":1,
    "knowingly":1,
    "undies":1,
    "deep":1,
    "candles":1,
    "begin":1,
    "chop":2,
    "weve":2,
    "relatives":2,
    "afternoon":2,
    "whips":2,
    "bedroom":2,
    "attractive":2,
    "wanders":2,
    "trouble":2,
    "maniac":2,
    "fever":2,
    "raises":2,
    "fist":2,
    "having":2,
    "panties":2,
    "slips":2,
    "method":2,
    "size":2,
    "interesting":2,
    "honeymoon":2,
    "startled":2,
    "remark":2,
    "wherere":2,
    "yep":2,
    "allover":2,
    "sixteen":2,
    "left":2,
    "havent":2,
    "four":2,
    "bod":2,
    "smart":2,
    "already":2,
    "expecting":2,
    "wasnt":2,
    "line":2,
    "infected":2,
    "club":2,
    "learn":2,
    "lovely":2,
    "favor":2,
    "whod":2,
    "t":2,
    "breasts":2,
    "mister":2,
    "promise":2,
    "scoots":2,
    "chance":2,
    "mention":2,
    "sighs":2,
    "foyer":2,
    "sound":2,
    "note":2,
    "pocket":2,
    "child":2,
    "supposed":2,
    "study":2,
    "screwed":2,
    "embarrassing":2,
    "ryan":2,
    "taken":2,
    "paid":2,
    "rests":2,
    "catch":2,
    "looking":2,
    "cool":2,
    "interested":2,
    "realize":2,
    "unless":2,
    "tits":2,
    "world":2,
    "kill":2,
    "offers":2,
    "regards":2,
    "boys":2,
    "society":2,
    "aunt":2,
    "grace":2,
    "wok":2,
    "sets":2,
    "every":2,
    "quit":2,
    "annoyed":2,
    "whatnot":2,
    "three":2,
    "ones":2,
    "weenie":2,
    "hostile":2,
    "definitely":2,
    "trying":2,
    "total":2,
    "confident":2,
    "likes":2,
    "excited":2,
    "against":2,
    "groans":2,
    "puke":2,
    "pumpkin":2,
    "jumped":2,
    "our":2,
    "garage":2,
    "shell":2,
    "hat":2,
    "realizes":2,
    "mikes":2,
    "aces":2,
    "addison":2,
    "wet":2,
    "corne":2,
    "felt":2,
    "grandma":2,
    "exchange":2,
    "bizarre":2,
    "dumped":2,
    "dinner":2,
    "chinese":2,
    "entire":2,
    "chinaman":2,
    "dork":2,
    "freds":2,
    "embarrass":2,
    "oily":2,
    "variety":2,
    "bohunk":2,
    "paranoid":2,
    "marrying":2,
    "six":2,
    "casual":2,
    "begins":2,
    "course":2,
    "welcome":2,
    "week":2,
    "yet":2,
    "food":2,
    "fit":2,
    "pie":2,
    "spell":2,
    "son":2,
    "returns":2,
    "polite":2,
    "lawn":2,
    "grandpas":2,
    "disturbed":2,
    "laundry":2,
    "minute":2,
    "wonderful":2,
    "super":2,
    "weeks":2,
    "ago":2,
    "exciting":2,
    "hour":2,
    "nobody":2,
    "duck":2,
    "wonder":2,
    "interface":2,
    "stare":2,
    "walk":2,
    "watch":2,
    "slip":2,
    "personal":2,
    "max":2,
    "rocker":2,
    "thinks":2,
    "crying":2,
    "sexy":2,
    "arent":2,
    "babe":2,
    "excuse":2,
    "hard":2,
    "grabbed":2,
    "worry":2,
    "whatever":2,
    "accident":2,
    "relaxed":2,
    "innocent":2,
    "talking":2,
    "quiet":2,
    "waste":2,
    "decent":2,
    "smells":2,
    "poon":2,
    "though":2,
    "legs":2,
    "bucks":2,
    "continues":2,
    "passes":2,
    "wearing":2,
    "shirt":2,
    "glasses":2,
    "blow":2,
    "light":2,
    "trashed":2,
    "bless":2,
    "fucked":2,
    "jimmys":2,
    "bleachers":2,
    "wearily":2,
    "find":2,
    "bug":2,
    "farmer":2,
    "work":2,
    "shoot":2,
    "whole":2,
    "curiously":2,
    "female":2,
    "gross":2,
    "intercourse":2,
    "obvious":2,
    "meant":2,
    "uh":2,
    "junior":2,
    "hers":2,
    "brain":2,
    "roll":2,
    "breath":2,
    "wall":2,
    "cross":2,
    "lying":2,
    "sort":2,
    "strange":2,
    "person":2,
    "shock":2,
    "fuzz":2,
    "blows":2,
    "breaking":2,
    "pop":2,
    "everythings":2,
    "another":2,
    "ends":2,
    "backs":2,
    "hates":2,
    "teeth":2,
    "crowd":2,
    "behind":2,
    "normal":2,
    "buck":2,
    "until":2,
    "outta":2,
    "listen":2,
    "place":2,
    "forget":2,
    "cigarette":2,
    "politics":2,
    "matters":2,
    "outrageous":2,
    "bra":2,
    "flashes":2,
    "forever":2,
    "grounded":2,
    "keels":2,
    "bugger":2,
    "church":2,
    "possibly":2,
    "message":2,
    "frequency":2,
    "curls":2,
    "orthodonist":2,
    "hairy":2,
    "times":2,
    "recorder":2,
    "free":2,
    "concentrate":2,
    "hugs":2,
    "full":2,
    "dissolve":2,
    "fuckin":2,
    "jock":2,
    "morning":2,
    "starts":2,
    "blah":2,
    "undershorts":2,
    "feelings":2,
    "making":2,
    "faint":2,
    "turned":2,
    "pause":2,
    "both":2,
    "easy":2,
    "worried":2,
    "l":2,
    "forehead":2,
    "sport":2,
    "many":2,
    "bitch":2,
    "american":2,
    "admit":2,
    "royce":2,
    "engine":2,
    "driver":2,
    "horn":2,
    "purse":2,
    "film":2,
    "extraterrestrial":2,
    "half":2,
    "police":2,
    "cars":2,
    "case":2,
    "alien":2,
    "bust":2,
    "afraid":2,
    "stomach":2,
    "whore":2,
    "holy":2,
    "warm":2,
    "monthly":2,
    "bill":2,
    "went":2,
    "organist":2,
    "possible":2,
    "ridiculous":2,
    "guests":2,
    "backwards":2,
    "reverend":2,
    "arms":2,
    "leaving":2,
    "lawful":2,
    "wedded":2,
    "ring":2,
    "pose":2,
    "wife":3,
    "past":3,
    "locks":3,
    "luncheon":3,
    "turning":3,
    "fact":3,
    "hangs":3,
    "today":3,
    "period":3,
    "such":3,
    "dumb":3,
    "birth":3,
    "dressed":3,
    "under":3,
    "grandparents":3,
    "names":3,
    "exits":3,
    "lunch":3,
    "draws":3,
    "yours":3,
    "eat":3,
    "miss":3,
    "stands":3,
    "tears":3,
    "seat":3,
    "reaches":3,
    "sex":3,
    "nothing":3,
    "being":3,
    "loves":3,
    "care":3,
    "understand":3,
    "saying":3,
    "happening":3,
    "impossible":3,
    "cut":3,
    "gonna":3,
    "games":3,
    "license":3,
    "woks":3,
    "feeling":3,
    "bad":3,
    "goin":3,
    "none":3,
    "angry":3,
    "fuck":3,
    "relationship":3,
    "answer":3,
    "question":3,
    "because":3,
    "encouraging":3,
    "coming":3,
    "saras":3,
    "cold":3,
    "forward":3,
    "brendas":3,
    "pants":3,
    "gone":3,
    "itd":3,
    "minutes":3,
    "sleep":3,
    "matter":3,
    "might":3,
    "age":3,
    "drive":3,
    "hate":3,
    "must":3,
    "lost":3,
    "lie":3,
    "youd":3,
    "sister":3,
    "air":3,
    "floor":3,
    "took":3,
    "dog":3,
    "lips":3,
    "situation":3,
    "floppy":3,
    "disks":3,
    "dancing":3,
    "voice":3,
    "across":3,
    "whos":3,
    "foot":3,
    "huge":3,
    "pushes":3,
    "shave":3,
    "clean":3,
    "couldnt":3,
    "action":3,
    "shitty":3,
    "offense":3,
    "blew":3,
    "laughter":3,
    "control":3,
    "appreciate":3,
    "sm":3,
    "friends":3,
    "heart":3,
    "crap":3,
    "cheek":3,
    "made":3,
    "picks":3,
    "lip":3,
    "robin":3,
    "town":3,
    "point":3,
    "through":3,
    "gotta":3,
    "happens":3,
    "sitting":3,
    "die":3,
    "video":3,
    "seen":3,
    "coffee":3,
    "jakey":3,
    "dead":3,
    "throat":3,
    "years":3,
    "five":3,
    "throws":3,
    "stops":3,
    "reach":3,
    "calling":3,
    "enough":3,
    "underwear":3,
    "drunk":3,
    "silly":3,
    "biker":3,
    "hurt":3,
    "tries":3,
    "1":3,
    "jerk":3,
    "stupid":3,
    "giggles":3,
    "move":3,
    "wanted":3,
    "squeeze":3,
    "parking":3,
    "heard":3,
    "grand":3,
    "music":3,
    "please":3,
    "window":3,
    "camera":3,
    "front":3,
    "lifts":3,
    "yesterday":3,
    "folks":3,
    "studies":3,
    "groom":3,
    "true":3,
    "reception":3,
    "heads":4,
    "also":4,
    "end":4,
    "young":4,
    "boy":4,
    "tomorrow":4,
    "later":4,
    "happen":4,
    "crosses":4,
    "sink":4,
    "wake":4,
    "pill":4,
    "wheres":4,
    "briefcase":4,
    "coats":4,
    "idea":4,
    "tonight":4,
    "carrots":4,
    "last":4,
    "alone":4,
    "wait":4,
    "hear":4,
    "senior":4,
    "ugly":4,
    "always":4,
    "than":4,
    "talk":4,
    "nuts":4,
    "wimp":4,
    "rock":4,
    "sweet":4,
    "only":4,
    "couple":4,
    "drivers":4,
    "enjoy":4,
    "freak":4,
    "stuff":4,
    "along":4,
    "hows":4,
    "business":4,
    "story":4,
    "big":4,
    "wrong":4,
    "together":4,
    "slides":4,
    "sweetie":4,
    "knock":4,
    "helen":4,
    "aw":4,
    "horror":4,
    "closes":4,
    "duk":4,
    "completely":4,
    "remember":4,
    "turn":4,
    "sweetheart":4,
    "said":4,
    "ginnys":4,
    "different":4,
    "talked":4,
    "use":4,
    "mind":4,
    "makes":4,
    "wanna":4,
    "next":4,
    "close":4,
    "anybody":4,
    "ted":4,
    "jimmy":4,
    "beat":4,
    "without":4,
    "piece":4,
    "kiss":4,
    "tracy":4,
    "terrible":4,
    "gives":4,
    "beautiful":4,
    "em":4,
    "number":4,
    "couch":4,
    "yes":4,
    "sir":4,
    "may":4,
    "beer":4,
    "daddy":4,
    "mother":4,
    "bride":4,
    "cake":4,
    "slams":5,
    "hit":5,
    "probably":5,
    "own":5,
    "nose":5,
    "major":5,
    "wish":5,
    "need":5,
    "hurry":5,
    "day":5,
    "theyre":5,
    "pass":5,
    "name":5,
    "actually":5,
    "sophomore":5,
    "lot":5,
    "woman":5,
    "year":5,
    "myself":5,
    "rudys":5,
    "new":5,
    "moment":5,
    "hurries":5,
    "hello":5,
    "grabs":5,
    "hot":5,
    "stay":5,
    "table":5,
    "asked":5,
    "live":5,
    "s":5,
    "doing":5,
    "dorothy":5,
    "important":5,
    "gym":5,
    "kids":5,
    "shakes":5,
    "freshman":5,
    "youve":5,
    "knew":5,
    "steps":5,
    "bet":5,
    "lumberjack":5,
    "forgot":5,
    "everything":5,
    "herself":5,
    "guess":5,
    "these":5,
    "excellent":5,
    "anymore":5,
    "honey":5,
    "rings":5,
    "ear":5,
    "either":5,
    "stairs":6,
    "hall":6,
    "give":6,
    "problem":6,
    "stares":6,
    "ass":6,
    "leave":6,
    "wouldnt":6,
    "their":6,
    "gave":6,
    "put":6,
    "ever":6,
    "real":6,
    "nice":6,
    "believe":6,
    "himself":6,
    "neck":6,
    "things":6,
    "leans":6,
    "grandpa":6,
    "dress":6,
    "came":6,
    "crazy":6,
    "help":6,
    "sits":6,
    "two":6,
    "people":6,
    "dude":6,
    "cliff":6,
    "bryce":6,
    "fine":6,
    "embarrassed":6,
    "hands":6,
    "fucking":6,
    "bathroom":7,
    "wedding":7,
    "goes":7,
    "somebody":7,
    "school":7,
    "walks":7,
    "gets":7,
    "am":7,
    "hi":7,
    "smile":7,
    "hey":7,
    "again":7,
    "samantha":7,
    "maybe":7,
    "never":7,
    "hope":7,
    "hand":7,
    "drops":7,
    "side":7,
    "rolls":7,
    "girls":7,
    "feels":7,
    "geeks":7,
    "asshole":7,
    "best":7,
    "thanks":7,
    "baker":8,
    "ten":8,
    "shut":8,
    "turns":8,
    "first":8,
    "serious":8,
    "by":8,
    "mouth":8,
    "thank":8,
    "youll":8,
    "great":8,
    "opens":8,
    "arm":8,
    "family":8,
    "married":8,
    "swear":8,
    "home":8,
    "else":8,
    "mean":8,
    "man":8,
    "too":8,
    "some":8,
    "weird":8,
    "whats":8,
    "happened":8,
    "fred":8,
    "howard":8,
    "after":8,
    "parents":8,
    "hair":8,
    "night":8,
    "before":8,
    "mom":8,
    "dad":9,
    "very":9,
    "other":9,
    "much":9,
    "will":9,
    "everybody":9,
    "any":9,
    "still":9,
    "time":9,
    "wont":9,
    "bus":9,
    "does":9,
    "holds":9,
    "theres":9,
    "more":9,
    "hell":9,
    "rudy":9,
    "call":9,
    "ive":9,
    "shit":9,
    "friend":9,
    "yeah":9,
    "sara":10,
    "room":10,
    "getting":10,
    "better":10,
    "then":10,
    "pulls":10,
    "smiles":10,
    "kisses":10,
    "way":10,
    "had":10,
    "puts":10,
    "isnt":10,
    "told":10,
    "jakes":10,
    "old":10,
    "takes":10,
    "comes":11,
    "face":11,
    "there":11,
    "should":11,
    "let":11,
    "happy":11,
    "sams":11,
    "open":11,
    "life":11,
    "dance":11,
    "guy":11,
    "where":11,
    "nods":11,
    "could":11,
    "why":12,
    "pretty":12,
    "when":12,
    "good":12,
    "something":12,
    "car":12,
    "long":12,
    "guys":12,
    "even":12,
    "thought":13,
    "them":13,
    "phone":13,
    "us":13,
    "or":13,
    "say":13,
    "doesnt":13,
    "kind":13,
    "well":13,
    "feel":13,
    "didnt":14,
    "id":14,
    "huh":14,
    "totally":14,
    "thing":14,
    "take":14,
    "they":14,
    "door":15,
    "make":15,
    "away":15,
    "sorry":15,
    "party":15,
    "now":15,
    "lets":16,
    "mike":16,
    "sure":16,
    "has":16,
    "would":16,
    "anything":16,
    "eyes":16,
    "randy":16,
    "who":16,
    "been":16,
    "girl":16,
    "tell":16,
    "little":16,
    "oh":17,
    "into":17,
    "here":17,
    "one":17,
    "head":17,
    "god":18,
    "birthday":18,
    "house":18,
    "come":19,
    "see":19,
    "around":19,
    "did":19,
    "how":19,
    "from":19,
    "we":19,
    "brenda":20,
    "look":20,
    "thats":20,
    "cant":21,
    "jim":21,
    "really":21,
    "right":21,
    "were":22,
    "want":22,
    "ginny":23,
    "an":23,
    "ill":23,
    "can":23,
    "dong":23,
    "think":24,
    "going":24,
    "caroline":27,
    "was":28,
    "over":28,
    "love":28,
    "off":29,
    "got":31,
    "but":31,
    "back":31,
    "all":31,
    "go":32,
    "hes":34,
    "youre":34,
    "no":34,
    "get":35,
    "down":36,
    "as":36,
    "him":39,
    "continued":39,
    "okay":39,
    "just":40,
    "looks":41,
    "are":41,
    "do":42,
    "about":43,
    "so":45,
    "shes":46,
    "be":46,
    "not":46,
    "jake":46,
    "if":47,
    "like":49,
    "geek":51,
    "out":53,
    "know":53,
    "":53,
    "its":55,
    "what":56,
    "this":59,
    "have":62,
    "your":62,
    "on":63,
    "dont":65,
    "that":65,
    "for":66,
    "at":68,
    "up":71,
    "im":75,
    "is":75,
    "my":77,
    "with":78,
    "his":79,
    "he":91,
    "of":100,
    "in":111,
    "me":112,
    "sam":113,
    "she":116,
    "it":118,
    "her":155,
    "to":241,
    "a":248,
    "and":261,
    "you":289,
    "i":301,
    "the":381
}