{
    "wound":1,
    "barrel":1,
    "dramatically":1,
    "hesitates":1,
    "london":1,
    "reliable":1,
    "practices":1,
    "slinging":1,
    "maneuvers":1,
    "impressed":1,
    "sacks":1,
    "massive":1,
    "ugly":1,
    "disturb":1,
    "join":1,
    "baking":1,
    "cake":1,
    "takings":1,
    "chap":1,
    "implies":1,
    "perhaps":1,
    "kindly":1,
    "train":1,
    "tails":1,
    "price":1,
    "tosses":1,
    "spinning":1,
    "twenty":1,
    "carats":1,
    "smaller":1,
    "dramatic":1,
    "casinos":1,
    "relate":1,
    "loves":1,
    "gamble":1,
    "sixty":1,
    "deserve":1,
    "tongue":1,
    "arsehoie":1,
    "aback":1,
    "characteristics":1,
    "loyalty":1,
    "definite":1,
    "temperature":1,
    "principal":1,
    "reason":1,
    "loyal":1,
    "refuckinpugnant":1,
    "kept":1,
    "clapham":1,
    "mood":1,
    "feeding":1,
    "sideways":1,
    "implying":1,
    "guilt":1,
    "lies":1,
    "protest":1,
    "topss":1,
    "henchmen":1,
    "sticks":1,
    "garys":1,
    "buckles":1,
    "henchman":1,
    "roll":1,
    "ruthless":1,
    "grasses":1,
    "liams":1,
    "beat":1,
    "hows":1,
    "whip":1,
    "pan":1,
    "allowed":1,
    "bottle":1,
    "tickling":1,
    "competition":1,
    "lively":1,
    "turning":1,
    "ascending":1,
    "turkishs":1,
    "stairs":1,
    "thedoor":1,
    "hinges":1,
    "colour":1,
    "paper":1,
    "arranged":1,
    "address":1,
    "campsites":1,
    "sensitive":1,
    "bulge":1,
    "trouser":1,
    "war":1,
    "ended":1,
    "ago":1,
    "blowing":1,
    "exposed":1,
    "outstanding":1,
    "debt":1,
    "haggle":1,
    "fairly":1,
    "fall":1,
    "listen":1,
    "kosher":1,
    "important":1,
    "prawn":1,
    "eating":1,
    "jewish":1,
    "timei":1,
    "eat":1,
    "shell":1,
    "fish":1,
    "prawns":1,
    "shrimp":1,
    "managed":1,
    "sneak":1,
    "bastards":1,
    "enters":1,
    "discussion":1,
    "responds":1,
    "whatinnite":1,
    "updated":1,
    "bosinites":1,
    "mosonias":1,
    "english":1,
    "zirconias":1,
    "artificial":1,
    "diamonds":1,
    "pretty":1,
    "novice":1,
    "hammer":1,
    "mosinites":1,
    "gangster":1,
    "moody":1,
    "high":1,
    "steady":1,
    "jewellery":1,
    "granted":1,
    "bigger":1,
    "punch":1,
    "judy":1,
    "view":1,
    "encampment":1,
    "pack":1,
    "thisll":1,
    "arrive":1,
    "immediately":1,
    "angloirish":1,
    "mix":1,
    "bike":1,
    "shouts":1,
    "friendly":1,
    "facial":1,
    "string":1,
    "cartier":1,
    "shoes":1,
    "identity":1,
    "bracelet":1,
    "paul":1,
    "cleaning":1,
    "towel":1,
    "muscles":1,
    "fists":1,
    "plays":1,
    "biceps":1,
    "strength":1,
    "murder":1,
    "murdering":1,
    "cups":1,
    "guiness":1,
    "2":1,
    "wind":1,
    "complain":1,
    "narrowly":1,
    "misses":1,
    "biscuit":1,
    "jus":1,
    "petrol":1,
    "whys":1,
    "ting":1,
    "unzips":1,
    "antiaircraft":1,
    "planning":1,
    "shooting":1,
    "clouds":1,
    "pulses":1,
    "normal":1,
    "psychological":1,
    "advantages":1,
    "perforate":1,
    "crisp":1,
    "getaway":1,
    "machine":1,
    "fart":1,
    "undo":1,
    "concrete":1,
    "anger":1,
    "he11":1,
    "bounding":1,
    "bought":1,
    "interrupt":1,
    "helped":1,
    "suggest":1,
    "welcome":1,
    "nobody":1,
    "without":1,
    "shant":1,
    "fighting":1,
    "consequently":1,
    "upsetting":1,
    "calls":1,
    "darren":1,
    "promise":1,
    "ignores":1,
    "pace":1,
    "headlock":1,
    "charges":1,
    "stable":1,
    "humour":1,
    "evaporated":1,
    "jumping":1,
    "warming":1,
    "shirt":1,
    "heavily":1,
    "tattooed":1,
    "scarred":1,
    "torso":1,
    "underneath":1,
    "embellishments":1,
    "physique":1,
    "warrants":1,
    "respect":1,
    "sick":1,
    "anywhere":1,
    "pacing":1,
    "acknowledged":1,
    "opponent":1,
    "coup":1,
    "de":1,
    "grace":1,
    "jaw":1,
    "melon":1,
    "streaming":1,
    "orifice":1,
    "inbig":1,
    "activity":1,
    "woken":1,
    "turned":1,
    "sausages":1,
    "pantomimes":1,
    "reach":1,
    "navel":1,
    "shiatsu":1,
    "hospitalized":1,
    "explain":1,
    "notice":1,
    "willy":1,
    "current":1,
    "affairs":1,
    "went":1,
    "clam":1,
    "russia":1,
    "rushing":1,
    "spit":1,
    "shine":1,
    "smoothie":1,
    "faster":1,
    "rush":1,
    "betting":1,
    "guy":1,
    "harris":1,
    "maybe":1,
    "k":1,
    "easier":1,
    "caravananyway":1,
    "overpaid":1,
    "recognize":1,
    "charity":1,
    "offered":1,
    "m":1,
    "mother":1,
    "later":1,
    "alarm":1,
    "handss":1,
    "crashes":1,
    "gone":1,
    "telepathic":1,
    "liability":1,
    "rit":1,
    "chopping":1,
    "digit":1,
    "shout":1,
    "slammed":1,
    "barman":1,
    "sweat":1,
    "potted":1,
    "player":1,
    "nail":1,
    "appear":1,
    "woodwork":1,
    "yup":1,
    "hairy":1,
    "appalled":1,
    "poke":1,
    "grow":1,
    "donc":1,
    "indicates":1,
    "marginally":1,
    "repeat":1,
    "subdued":1,
    "reacts":1,
    "tangible":1,
    "reflects":1,
    "authority":1,
    "keys":1,
    "inconfuckinspicuous":1,
    "barn":1,
    "dance":1,
    "lady":1,
    "sweetheart":1,
    "kidding":1,
    "fighters":1,
    "prat":1,
    "lead":1,
    "bitten":1,
    "chums":1,
    "begin":1,
    "homing":1,
    "beacon":1,
    "soft":1,
    "whilst":1,
    "flight":1,
    "jessssus":1,
    "even":1,
    "space":1,
    "land":1,
    "jumbo":1,
    "jet":1,
    "alone":1,
    "natural":1,
    "overexcited":1,
    "accelerator":1,
    "reverses":1,
    "sound":1,
    "behin":1,
    "hassle":1,
    "ton":1,
    "truck":1,
    "ferret":1,
    "flea":1,
    "confused":1,
    "statement":1,
    "whenever":1,
    "reverse":1,
    "whining":1,
    "squeaky":1,
    "swallowed":1,
    "completed":1,
    "task":1,
    "alarmed":1,
    "ribs":1,
    "squeezes":1,
    "septuagint":1,
    "scholars":1,
    "mistranslated":1,
    "hebrew":1,
    "greek":1,
    "prophecy":1,
    "behold":1,
    "conceive":1,
    "bear":1,
    "instead":1,
    "profound":1,
    "mistake":1,
    "cars":1,
    "tolerate":1,
    "emissions":1,
    "concorde":1,
    "hug":1,
    "stops":1,
    "bald":1,
    "probably":1,
    "cough":1,
    "rubs":1,
    "symbolically":1,
    "ell":1,
    "concentrate":1,
    "stepping":1,
    "binoculars":1,
    "ceremony":1,
    "leans":1,
    "menacing":1,
    "triggers":1,
    "button":1,
    "flying":1,
    "rapid":1,
    "rate":1,
    "knots":1,
    "protecting":1,
    "counters":1,
    "unfortunate":1,
    "consequence":1,
    "desperately":1,
    "searching":1,
    "needless":1,
    "bewildered":1,
    "state":1,
    "critical":1,
    "wondering":1,
    "impaled":1,
    "enormous":1,
    "muffled":1,
    "tells":1,
    "genuinely":1,
    "weakened":1,
    "retorts":1,
    "name":1,
    "consoled":1,
    "fiercest":1,
    "fill":1,
    "board":1,
    "temper":1,
    "limit":1,
    "perfect":1,
    "clerk":1,
    "bags":1,
    "rifle":1,
    "dropped":1,
    "encounter":1,
    "copper":1,
    "marches":1,
    "doubledoors":1,
    "push":1,
    "budge":1,
    "rising":1,
    "swiftly":1,
    "aim":1,
    "handgun":1,
    "shatters":1,
    "ricochets":1,
    "shattering":1,
    "bulletproof":1,
    "attempt":1,
    "trajectory":1,
    "unaware":1,
    "ricochet":1,
    "warn":1,
    "waits":1,
    "inevitable":1,
    "tears":1,
    "empties":1,
    "contents":1,
    "vins":1,
    "eventually":1,
    "thigh":1,
    "sinks":1,
    "amongst":1,
    "yells":1,
    "emanating":1,
    "pathetic":1,
    "desperate":1,
    "whimpering":1,
    "pushes":1,
    "pushing":1,
    "stumble":1,
    "throw":1,
    "kicking":1,
    "noises":1,
    "metal":1,
    "locked":1,
    "due":1,
    "blocking":1,
    "exit":1,
    "connected":1,
    "wrist":1,
    "caesars":1,
    "private":1,
    "past":1,
    "several":1,
    "inspect":1,
    "legal":1,
    "crowded":1,
    "minders":1,
    "touches":1,
    "original":1,
    "taste":1,
    "fights":1,
    "londons":1,
    "criminal":1,
    "royalty":1,
    "michael":1,
    "clear":1,
    "tap":1,
    "anyway":1,
    "nod":1,
    "thanks":1,
    "goodbye":1,
    "crack":1,
    "ml":1,
    "remember":1,
    "blinks":1,
    "revelation":1,
    "light":1,
    "opening":1,
    "lie":1,
    "trigger":1,
    "click":1,
    "tightly":1,
    "whoops":1,
    "sees":1,
    "secret":1,
    "compartment":1,
    "attached":1,
    "horrified":1,
    "rather":1,
    "least":1,
    "situation":1,
    "afraid":1,
    "boris1":1,
    "generous":1,
    "rights":1,
    "idiots":1,
    "methe":1,
    "everything":1,
    "gear":1,
    "werent":1,
    "againwell":1,
    "bends":1,
    "wraps":1,
    "severed":1,
    "newspaper":1,
    "casual":1,
    "transcendentally":1,
    "extract":1,
    "passports":1,
    "steel":1,
    "peeled":1,
    "pants":1,
    "sniff":1,
    "cool":1,
    "sugars":1,
    "answer":1,
    "landed":1,
    "walking":1,
    "pacified":1,
    "grip":1,
    "kettle":1,
    "sugar":1,
    "sweet":1,
    "carry":1,
    "provided":1,
    "remedy":1,
    "youcame":1,
    "piggy":1,
    "sods":1,
    "prostrate":1,
    "kicks":1,
    "directly":1,
    "coke":1,
    "downboy":1,
    "youf":1,
    "twouble":1,
    "nowf":1,
    "fear":1,
    "charlies":1,
    "rendered":1,
    "useless":1,
    "year":1,
    "maker":1,
    "engines":1,
    "signature":1,
    "engine":1,
    "true":1,
    "findhim":1,
    "encouraging":1,
    "finding":1,
    "town":1,
    "nobodys":1,
    "knock":1,
    "moses":1,
    "burning":1,
    "bush":1,
    "firstly":1,
    "strange":1,
    "swing":1,
    "trees":1,
    "rubber":1,
    "dresses":1,
    "snake":1,
    "grass":1,
    "share":1,
    "information":1,
    "ms":1,
    "rabbits":1,
    "hares":1,
    "lurchers":1,
    "outrun":1,
    "rabbiteh":1,
    "eats":1,
    "dya":1,
    "squints":1,
    "cheers":1,
    "govnor":1,
    "flattered":1,
    "inquired":1,
    "govnors":1,
    "knew":1,
    "grafting":1,
    "day":1,
    "foreplay":1,
    "geezer":1,
    "erol":1,
    "smith":1,
    "porn":1,
    "filthy":1,
    "dirty":1,
    "wedding":1,
    "catalogue":1,
    "fancy":1,
    "picture":1,
    "rolls":1,
    "royce":1,
    "needs":1,
    "worm":1,
    "food":1,
    "performance":1,
    "tarts":1,
    "rich":1,
    "sheepish":1,
    "tart":1,
    "meant":1,
    "cooling":1,
    "porridge":1,
    "win":1,
    "free":1,
    "uneasily":1,
    "keen":1,
    "romany":1,
    "enthusiasm":1,
    "pikeys":1,
    "skillfully":1,
    "dealing":1,
    "inhaling":1,
    "cigarettes":1,
    "etc":1,
    "mars":1,
    "cap":1,
    "ass":1,
    "pound":1,
    "saves":1,
    "shooters":1,
    "obvious":1,
    "villains":1,
    "cares":1,
    "wrap":1,
    "christmas":1,
    "present":1,
    "stubborn":1,
    "shes":1,
    "girl":1,
    "difficult":1,
    "trouts":1,
    "proof":1,
    "miss":1,
    "parked":1,
    "slides":1,
    "goodie":1,
    "gum":1,
    "surprised":1,
    "helps":1,
    "lifting":1,
    "apparently":1,
    "corpse":1,
    "freeze":1,
    "discover":1,
    "container":1,
    "starve":1,
    "sight":1,
    "chopped":1,
    "curry":1,
    "drunk":1,
    "shave":1,
    "victims":1,
    "sieving":1,
    "molars":1,
    "bone":1,
    "ts":1,
    "butter":1,
    "sixteen":1,
    "weighs":1,
    "minutes":1,
    "single":1,
    "consume":1,
    "uncooked":1,
    "flesh":1,
    "hence":1,
    "greedy":1,
    "feeds":1,
    "golly":1,
    "nemesis":1,
    "righteous":1,
    "infliction":1,
    "retribution":1,
    "agent":1,
    "personified":1,
    "demonstrates":1,
    "buds":1,
    "comb":1,
    "elements":1,
    "equation":1,
    "thousand":1,
    "blower":1,
    "spin":1,
    "sunny":1,
    "missing":1,
    "our":1,
    "we11":1,
    "home":1,
    "enthusiastic":1,
    "drip":1,
    "dry":1,
    "wanker":1,
    "disappointed":1,
    "robbed":1,
    "cun":1,
    "wonder":1,
    "gave":1,
    "such":1,
    "whom":1,
    "shortly":1,
    "threatening":1,
    "wings":1,
    "halo":1,
    "furtive":1,
    "bash":1,
    "living":1,
    "girlfriends":1,
    "wish":1,
    "youd":1,
    "digs":1,
    "pocket":1,
    "produces":1,
    "proffers":1,
    "nervously":1,
    "collar":1,
    "electric":1,
    "mullets":1,
    "fastened":1,
    "roof":1,
    "vehicle":1,
    "penis":1,
    "tighter":1,
    "smells":1,
    "paste":1,
    "speed":1,
    "may":1,
    "loses":1,
    "footing":1,
    "technical":1,
    "scars":1,
    "dissidents":1,
    "killed":1,
    "thanwell":1,
    "heskilled":1,
    "deals":1,
    "school":1,
    "monitor":1,
    "sits":1,
    "dougs":1,
    "bold":1,
    "brass":1,
    "thick":1,
    "accent":1,
    "relieved":1,
    "patrick":1,
    "burnt":1,
    "understatement":1,
    "rosey":1,
    "tools":1,
    "drinks":1,
    "keeps":1,
    "key":1,
    "kitchen":1,
    "tlie":1,
    "immaculate":1,
    "pad":1,
    "fades":1,
    "lights":1,
    "likes":1,
    "drum":1,
    "starting":1,
    "pierce":1,
    "skin":1,
    "pressed":1,
    "neck":1,
    "able":1,
    "calling":1,
    "continuing":1,
    "replicas":1,
    "rudy":1,
    "pulled":1,
    "apart":1,
    "darrens":1,
    "poison":1,
    "hates":1,
    "warm":1,
    "veins":1,
    "cartons":1,
    "stuff":1,
    "synch":1,
    "evolution":1,
    "reading":1,
    "carton":1,
    "obviously":1,
    "oncoming":1,
    "direction":1,
    "bury":1,
    "consider":1,
    "fast":1,
    "loud":1,
    "worked":1,
    "pain":1,
    "ringing":1,
    "loudly":1,
    "deaf":1,
    "noisy":1,
    "stab":1,
    "blooded":1,
    "spirit":1,
    "launcher":1,
    "gods":1,
    "used":1,
    "fork":1,
    "company":1,
    "sharp":1,
    "blunt":1,
    "lesson":1,
    "bang":1,
    "searches":1,
    "wipers":1,
    "swerves":1,
    "lamp":1,
    "boot":1,
    "flown":1,
    "extracting":1,
    "trickle":1,
    "hitting":1,
    "anybody":1,
    "end":1,
    "ride":1,
    "naked":1,
    "aphrodite":1,
    "cooled":1,
    "tumbling":1,
    "petals":1,
    "spring":1,
    "roses":1,
    "ski":1,
    "masks":1,
    "disco":1,
    "heat":1,
    "disputations":1,
    "murders":1,
    "amazement":1,
    "lo":1,
    "sarcastic":1,
    "ballsl":1,
    "test":1,
    "types":1,
    "brave":1,
    "mincy":1,
    "faggot":1,
    "p":1,
    "wnny":1,
    "benefit":1,
    "dicks":1,
    "clarity":1,
    "vision":1,
    "build":1,
    "complicated":1,
    "unseen":1,
    "lump":1,
    "errols":1,
    "example":1,
    "effort":1,
    "redeem":1,
    "advantageous":1,
    "concept":1,
    "survivor":1,
    "tale":1,
    "wins":1,
    "died":1,
    "prick":1,
    "disappeared":1,
    "int":1,
    "pub":1,
    "fringe":1,
    "brainless":1,
    "powdered":1,
    "shoulders":1,
    "stabbed":1,
    "lorrie":1,
    "related":1,
    "tub":1,
    "picking":1,
    "straws":1,
    "interrupted":1,
    "success":1,
    "paid":1,
    "gob":1,
    "havent":1,
    "quiet":1,
    "lifts":1,
    "clever":1,
    "fake":1,
    "felt":1,
    "yawns":1,
    "charge":1,
    "speaking":1,
    "fifth":1,
    "flames":1,
    "childrens":1,
    "backs":1,
    "lighting":1,
    "cigarette":1,
    "gouging":1,
    "biting":1,
    "worst":1,
    "corners":1,
    "rumbledyou":1,
    "rigged":1,
    "quickly":1,
    "found":1,
    "disputes":1,
    "chairs":1,
    "frustrated":1,
    "mayhem":1,
    "calmly":1,
    "dials":1,
    "telephone":1,
    "friends":1,
    "louder":1,
    "accompanied":1,
    "entrance":1,
    "corner":1,
    "screeches":1,
    "halt":1,
    "widen":1,
    "saucers":1,
    "sawedoff":1,
    "shotguns":1,
    "barrels":1,
    "chest":1,
    "leaving":1,
    "twitching":1,
    "dirt":1,
    "veeeery":1,
    "funky":1,
    "chewed":1,
    "cushions":1,
    "somewhere":1,
    "vlook":1,
    "movement":1,
    "represents":1,
    "strong":1,
    "person":1,
    "heart":1,
    "bleeds":1,
    "dp":1,
    "wild":1,
    "reckless":1,
    "guess":1,
    "guts":1,
    "andyou":1,
    "positively":1,
    "unsure":1,
    "rocks":1,
    "awkward":1,
    "squeaking":1,
    "sense":1,
    "relief":1,
    "cuts":1,
    "air":1,
    "projectile":1,
    "intercept":1,
    "digested":1,
    "literally":1,
    "mentally":1,
    "recognizes":1,
    "receiving":1,
    "motions":1,
    "swallowing":1,
    "attempts":1,
    "approach":1,
    "feels":1,
    "advancing":1,
    "vanguard":1,
    "emergency":1,
    "needed":1,
    "launches":1,
    "moved":1,
    "properly":1,
    "flatulence":1,
    "skinny":1,
    "bottom":1,
    "git":1,
    "cheeky":1,
    "shite":1,
    "squeezing":1,
    "toy":1,
    "further":2,
    "standstill":2,
    "calm":2,
    "please":2,
    "rough":2,
    "extremely":2,
    "meet":2,
    "weapon":2,
    "sign":2,
    "hasnt":2,
    "toss":2,
    "heads":2,
    "mine":2,
    "ive":2,
    "today":2,
    "pedigree":2,
    "pal":2,
    "great":2,
    "proud":2,
    "reckon":2,
    "taken":2,
    "however":2,
    "except":2,
    "leaves":2,
    "answers":2,
    "questions":2,
    "oink":2,
    "liam":2,
    "step":2,
    "moves":2,
    "action":2,
    "belt":2,
    "quick":2,
    "smashes":2,
    "across":2,
    "plastic":2,
    "filled":2,
    "finds":2,
    "drinking":2,
    "proper":2,
    "office":2,
    "new":2,
    "re":2,
    "foot":2,
    "tries":2,
    "tip":2,
    "live":2,
    "distracted":2,
    "tommys":2,
    "gucci":2,
    "protection":2,
    "germans":2,
    "fifty":2,
    "sit":2,
    "onto":2,
    "chamber":2,
    "weight":2,
    "reliability":2,
    "camera":2,
    "tracks":2,
    "most":2,
    "playing":2,
    "disbelief":2,
    "itll":2,
    "hair":2,
    "poop":2,
    "selling":2,
    "against":2,
    "persuasion":2,
    "issue":2,
    "deep":2,
    "zirconia":2,
    "came":2,
    "worth":2,
    "threw":2,
    "gold":2,
    "decides":2,
    "farts":2,
    "uzbekistan":2,
    "background":2,
    "messy":2,
    "hate":2,
    "surrounded":2,
    "sounds":2,
    "flash":2,
    "mister":2,
    "five":2,
    "quid":2,
    "offer":2,
    "lift":2,
    "dribbling":2,
    "seats":2,
    "biscuits":2,
    "road":2,
    "mate":2,
    "difference":2,
    "steering":2,
    "wheel":2,
    "moon":2,
    "gives":2,
    "roots":2,
    "shotgun":2,
    "angels":2,
    "clean":2,
    "wheels":2,
    "windows":2,
    "atmosphere":2,
    "fuss":2,
    "dragged":2,
    "jumps":2,
    "saw":2,
    "anymore":2,
    "brings":2,
    "settle":2,
    "standing":2,
    "her":2,
    "terrible":2,
    "throwing":2,
    "shadow":2,
    "punches":2,
    "reveals":2,
    "feet":2,
    "motion":2,
    "mouths":2,
    "given":2,
    "hadnt":2,
    "took":2,
    "jam":2,
    "donut":2,
    "correlation":2,
    "replace":2,
    "fist":2,
    "till":2,
    "anyone":2,
    "interested":2,
    "sell":2,
    "fat":2,
    "chew":2,
    "rome":2,
    "called":2,
    "running":2,
    "bus":2,
    "things":2,
    "cash":2,
    "involved":2,
    "cost":2,
    "pool":2,
    "faces":2,
    "shits":2,
    "itself":2,
    "growl":2,
    "post":2,
    "tonight":2,
    "drop":2,
    "lost":2,
    "backing":2,
    "changing":2,
    "piss":2,
    "accident":2,
    "thin":2,
    "ice":2,
    "own":2,
    "swallows":2,
    "gulp":2,
    "crashing":2,
    "rear":2,
    "angle":2,
    "ball":2,
    "swallow":2,
    "squeak":2,
    "word":2,
    "woman":2,
    "world":2,
    "thinks":2,
    "valiant":2,
    "religion":2,
    "states":2,
    "late":2,
    "focuses":2,
    "couldnt":2,
    "giving":2,
    "ceiling":2,
    "extracts":2,
    "wall":2,
    "idiot":2,
    "using":2,
    "notes":2,
    "picks":2,
    "vinnys":2,
    "towards":2,
    "kick":2,
    "doors":2,
    "observes":2,
    "fly":2,
    "palace":2,
    "ticket":2,
    "doorman":2,
    "continue":2,
    "walk":2,
    "ever":2,
    "vegas":2,
    "inhales":2,
    "dark":2,
    "impress":2,
    "salt":2,
    "peter":2,
    "heavies":2,
    "inside":2,
    "believe":2,
    "bunch":2,
    "also":2,
    "chop":2,
    "changes":2,
    "yours":2,
    "room":2,
    "arm":2,
    "idea":2,
    "safe":2,
    "life":2,
    "cold":2,
    "slowly":2,
    "happening":2,
    "hostility":2,
    "thank":2,
    "hole":2,
    "concern":2,
    "belong":2,
    "desk":2,
    "must":2,
    "shocked":2,
    "sword":2,
    "tooth":2,
    "appropriate":2,
    "susi":2,
    "whether":2,
    "excuse":2,
    "asked":2,
    "bounty":2,
    "depends":2,
    "save":2,
    "breath":2,
    "fit":2,
    "gypsy":2,
    "fed":2,
    "tried":2,
    "rid":2,
    "bodies":2,
    "says":2,
    "ears":2,
    "comfortable":2,
    "seat":2,
    "problems":2,
    "pieces":2,
    "teeth":2,
    "susan":2,
    "hours":2,
    "remains":2,
    "wallet":2,
    "reaches":2,
    "throat":2,
    "track":2,
    "mam":2,
    "rosy":2,
    "flick":2,
    "switch":2,
    "rings":2,
    "uncomfortable":2,
    "small":2,
    "fire":2,
    "guns":2,
    "putting":2,
    "taps":2,
    "rocket":2,
    "nearly":2,
    "lap":2,
    "blind":2,
    "crippled":2,
    "cocks":2,
    "bits":2,
    "sock":2,
    "stories":2,
    "everybody":2,
    "sean":2,
    "lock":2,
    "discuss":2,
    "place":2,
    "stoned":2,
    "empty":2,
    "noticed":2,
    "stuck":3,
    "pass":3,
    "second":3,
    "choice":3,
    "work":3,
    "interrupting":3,
    "bright":3,
    "stupid":3,
    "turn":3,
    "twice":3,
    "coin":3,
    "years":3,
    "cousin":3,
    "together":3,
    "hundred":3,
    "asking":3,
    "catches":3,
    "bar":3,
    "tape":3,
    "sake":3,
    "cunt":3,
    "admire":3,
    "panic":3,
    "interest":3,
    "feed":3,
    "bomber":3,
    "unlicensed":3,
    "hurt":3,
    "each":3,
    "shoulder":3,
    "steps":3,
    "piece":3,
    "pick":3,
    "pointing":3,
    "clearly":3,
    "nods":3,
    "kind":3,
    "yourself":3,
    "already":3,
    "house":3,
    "play":3,
    "shakes":3,
    "myself":3,
    "eaten":3,
    "pawn":3,
    "mosinite":3,
    "break":3,
    "lincolns":3,
    "drops":3,
    "stick":3,
    "gypsies":3,
    "load":3,
    "considers":3,
    "different":3,
    "worry":3,
    "sort":3,
    "oneill":3,
    "young":3,
    "grease":3,
    "wearing":3,
    "arms":3,
    "mickys":3,
    "box":3,
    "sir":3,
    "boxer":3,
    "expecting":3,
    "serious":3,
    "homesick":3,
    "straight":3,
    "until":3,
    "sudden":3,
    "question":3,
    "friend":3,
    "next":3,
    "appears":3,
    "under":3,
    "slow":3,
    "stopped":3,
    "d":3,
    "bare":3,
    "knuckle":3,
    "expect":3,
    "happen":3,
    "caught":3,
    "love":3,
    "expression":3,
    "seems":3,
    "forgive":3,
    "heard":3,
    "crowd":3,
    "silence":3,
    "breaks":3,
    "runs":3,
    "forward":3,
    "eh":3,
    "shock":3,
    "having":3,
    "volante":3,
    "virgin":3,
    "fact":3,
    "driving":3,
    "wheres":3,
    "shrugs":3,
    "screen":3,
    "poor":3,
    "ground":3,
    "happened":3,
    "try":3,
    "care":3,
    "feeling":3,
    "pistol":3,
    "first":3,
    "fires":3,
    "hello":3,
    "whos":3,
    "made":3,
    "nose":3,
    "jack":3,
    "combination":3,
    "changed":3,
    "along":3,
    "wait":3,
    "gov":3,
    "blagged":3,
    "lucky":3,
    "stands":3,
    "understandably":3,
    "nuts":3,
    "far":3,
    "coursing":3,
    "rabbit":3,
    "white":3,
    "outside":3,
    "mobile":3,
    "music":3,
    "six":3,
    "easy":3,
    "pile":3,
    "pig":3,
    "eight":3,
    "means":3,
    "hospital":3,
    "crash":3,
    "driver":4,
    "moment":4,
    "sorry":4,
    "continues":4,
    "cup":4,
    "cu":4,
    "best":4,
    "shouldnt":4,
    "long":4,
    "security":4,
    "colleague":4,
    "ready":4,
    "understand":4,
    "pounds":4,
    "mclean":4,
    "pull":4,
    "tone":4,
    "legs":4,
    "point":4,
    "fighter":4,
    "short":4,
    "drink":4,
    "supposed":4,
    "buy":4,
    "heres":4,
    "caravans":4,
    "otherwise":4,
    "dad":4,
    "told":4,
    "looked":4,
    "belongs":4,
    "shop":4,
    "night":4,
    "being":4,
    "dangerous":4,
    "camp":4,
    "site":4,
    "covered":4,
    "large":4,
    "wants":4,
    "raise":4,
    "really":4,
    "show":4,
    "windshield":4,
    "help":4,
    "use":4,
    "attention":4,
    "trying":4,
    "upset":4,
    "stay":4,
    "damage":4,
    "bollocks":4,
    "minute":4,
    "she":4,
    "fourth":4,
    "fucks":4,
    "whole":4,
    "concerned":4,
    "scared":4,
    "sols":4,
    "both":4,
    "frowns":4,
    "glass":4,
    "follow":4,
    "chaps":4,
    "horrible":4,
    "diamond":4,
    "i11":4,
    "holding":4,
    "wouldnt":4,
    "conway":4,
    "dear":4,
    "knife":4,
    "wanted":5,
    "stand":5,
    "else":5,
    "hits":5,
    "stones":5,
    "youve":5,
    "someone":5,
    "kill":5,
    "change":5,
    "quite":5,
    "son":5,
    "grand":5,
    "ll":5,
    "getting":5,
    "ring":5,
    "milk":5,
    "match":5,
    "water":5,
    "passes":5,
    "ten":5,
    "blade":5,
    "spins":5,
    "always":5,
    "game":5,
    "sandwich":5,
    "throws":5,
    "half":5,
    "enough":5,
    "full":5,
    "deal":5,
    "pay":5,
    "fucker":5,
    "hard":5,
    "watch":5,
    "hand":5,
    "hey":5,
    "start":5,
    "raises":5,
    "fellas":5,
    "silly":5,
    "drive":5,
    "between":5,
    "okay":5,
    "noise":5,
    "fade":5,
    "lying":5,
    "trouble":5,
    "voice":5,
    "were":5,
    "thinking":5,
    "knows":5,
    "mad":5,
    "men":5,
    "lose":5,
    "focus":5,
    "table":5,
    "funny":5,
    "brothers":5,
    "holds":5,
    "vantage":5,
    "same":5,
    "thought":5,
    "shall":5,
    "eye":5,
    "counter":5,
    "pauline":5,
    "dead":5,
    "street":5,
    "guys":5,
    "forty":5,
    "boys":5,
    "nice":5,
    "hare":5,
    "il":5,
    "number":6,
    "carrying":6,
    "coins":6,
    "hope":6,
    "course":6,
    "business":6,
    "left":6,
    "ok":6,
    "gambling":6,
    "speak":6,
    "russians":6,
    "phone":6,
    "mr":6,
    "governor":6,
    "theyre":6,
    "which":6,
    "ask":6,
    "mouth":6,
    "oi":6,
    "run":6,
    "nothing":6,
    "campsite":6,
    "trousers":6,
    "every":6,
    "talk":6,
    "bring":6,
    "jesus":6,
    "though":6,
    "waiting":6,
    "feel":6,
    "bet":6,
    "wasnt":6,
    "unless":6,
    "sitting":6,
    "floor":6,
    "blood":6,
    "had":6,
    "shot":6,
    "makes":6,
    "seeing":6,
    "happy":6,
    "ohh":6,
    "happens":6,
    "fucked":6,
    "favour":6,
    "shoot":6,
    "bud":6,
    "three":6,
    "heavy":7,
    "hit":7,
    "couple":7,
    "tea":7,
    "days":7,
    "those":7,
    "gary":7,
    "err":7,
    "old":7,
    "again":7,
    "busy":7,
    "lads":7,
    "away":7,
    "boxing":7,
    "himself":7,
    "right":7,
    "buying":7,
    "pikey":7,
    "pikies":7,
    "aint":7,
    "stop":7,
    "balls":7,
    "many":7,
    "make":7,
    "youll":7,
    "never":7,
    "kids":7,
    "telling":7,
    "exactly":7,
    "chance":7,
    "grabs":7,
    "taking":7,
    "outta":7,
    "set":7,
    "bullet":7,
    "charlie":7,
    "rose":7,
    "t":8,
    "should":8,
    "leave":8,
    "seen":8,
    "takes":8,
    "bag":8,
    "pigs":8,
    "tops":8,
    "these":8,
    "points":8,
    "better":8,
    "arent":8,
    "theres":8,
    "bets":8,
    "few":8,
    "wont":8,
    "fella":8,
    "last":8,
    "1":8,
    "mind":8,
    "still":8,
    "coming":8,
    "body":8,
    "john":8,
    "fingers":8,
    "ken":8,
    "money":9,
    "need":9,
    "anything":9,
    "opens":9,
    "puts":9,
    "behind":9,
    "done":9,
    "job":9,
    "move":9,
    "might":9,
    "people":9,
    "four":9,
    "tight":9,
    "sneaky":9,
    "saying":9,
    "lot":9,
    "before":9,
    "another":9,
    "tell":9,
    "talking":9,
    "will":9,
    "shit":9,
    "comes":10,
    "window":10,
    "walks":10,
    "turns":10,
    "way":10,
    "thing":10,
    "problem":10,
    "front":10,
    "kid":10,
    "say":10,
    "after":10,
    "van":10,
    "call":11,
    "bastard":11,
    "any":11,
    "around":11,
    "yeah":11,
    "gonna":11,
    "than":11,
    "side":11,
    "sure":11,
    "been":11,
    "only":11,
    "george":12,
    "shut":12,
    "or":12,
    "their":12,
    "wrong":12,
    "vinny":12,
    "gets":12,
    "black":12,
    "starts":12,
    "while":12,
    "keep":12,
    "much":13,
    "through":13,
    "russian":13,
    "bit":13,
    "put":13,
    "too":13,
    "head":13,
    "hear":13,
    "does":13,
    "hell":13,
    "let":13,
    "over":13,
    "when":13,
    "very":13,
    "take":14,
    "give":14,
    "time":14,
    "fucking":14,
    "bad":14,
    "dogs":14,
    "other":14,
    "pulls":14,
    "something":14,
    "bookies":14,
    "size":14,
    "round":14,
    "because":15,
    "eyes":15,
    "alright":15,
    "isnt":16,
    "doesnt":16,
    "gorgeous":16,
    "goes":16,
    "ill":16,
    "stone":16,
    "errol":16,
    "an":16,
    "hold":16,
    "vince":16,
    "said":16,
    "find":16,
    "mum":16,
    "yes":17,
    "oh":17,
    "could":17,
    "l":17,
    "pause":17,
    "ya":17,
    "boy":17,
    "face":17,
    "big":17,
    "didnt":17,
    "case":17,
    "btt":17,
    "just":18,
    "two":18,
    "looking":18,
    "cut":18,
    "mean":18,
    "more":18,
    "lincoln":18,
    "them":18,
    "little":18,
    "doing":19,
    "doug":19,
    "fight":19,
    "come":19,
    "lets":19,
    "go":20,
    "franky":20,
    "door":20,
    "s":20,
    "some":20,
    "caravan":20,
    "why":20,
    "gun":21,
    "boris":21,
    "em":21,
    "mullet":21,
    "gotta":22,
    "vin":22,
    "where":23,
    "good":24,
    "whats":24,
    "open":24,
    "into":24,
    "from":25,
    "by":26,
    "has":26,
    "who":26,
    "tony":26,
    "then":27,
    "did":27,
    "think":27,
    "car":28,
    "thats":28,
    "micky":28,
    "how":29,
    "would":29,
    "us":30,
    "hands":30,
    "looks":31,
    "so":31,
    "back":31,
    "fuck":32,
    "off":32,
    "cant":32,
    "one":32,
    "about":32,
    "youre":33,
    "turkish":33,
    "tyrone":33,
    "top":34,
    "my":35,
    "no":37,
    "going":38,
    "tommy":39,
    "now":39,
    "brick":40,
    "dog":41,
    "all":41,
    "down":42,
    "see":42,
    "man":43,
    "here":44,
    "look":44,
    "like":45,
    "sol":45,
    "was":46,
    "be":47,
    "as":47,
    "dont":48,
    "if":51,
    "but":51,
    "know":52,
    "got":52,
    "can":53,
    "at":53,
    "your":53,
    "want":54,
    "hes":55,
    "well":58,
    "fuckin":58,
    "out":59,
    "this":61,
    "am":61,
    "there":61,
    "they":66,
    "with":68,
    "me":68,
    "up":68,
    "not":69,
    "its":70,
    "":74,
    "get":75,
    "for":81,
    "have":84,
    "his":84,
    "on":89,
    "him":91,
    "we":94,
    "do":99,
    "are":111,
    "that":121,
    "is":122,
    "what":123,
    "in":144,
    "he":153,
    "of":177,
    "it":199,
    "and":223,
    "i":299,
    "to":302,
    "a":398,
    "you":435,
    "the":543
}