{
    "thirtyone":1,
    "san":1,
    "piedro":1,
    "fourpage":1,
    "weekly":1,
    "sitting":1,
    "judgement":1,
    "miaymoto":1,
    "rigid":1,
    "warrior":1,
    "detached":1,
    "dangerous":1,
    "demeanor":1,
    "77":1,
    "jail":1,
    "baby":1,
    "noticed":1,
    "corridor":1,
    "gash":1,
    "hefell":1,
    "sixfour":1,
    "grizzly":1,
    "bear":1,
    "justgo":1,
    "crush":1,
    "mountain":1,
    "anchored":1,
    "fellers":1,
    "geese":1,
    "pictured":1,
    "pas":1,
    "camera":1,
    "helmet":1,
    "almost":1,
    "examined":1,
    "nossir":1,
    "wid":1,
    "atall":1,
    "hullo":1,
    "somevery":1,
    "theworstkind":1,
    "sand":1,
    "bay":1,
    "tangled":1,
    "noimmediate":1,
    "nogeneral":1,
    "enmity":1,
    "fishermen":1,
    "gossip":1,
    "nights":1,
    "learns":1,
    "silent":1,
    "lonely":1,
    "products":1,
    "geography":1,
    "realized":1,
    "youda":1,
    "gjovaag":1,
    "fuck":1,
    "anyhow":1,
    "merit":1,
    "askin":1,
    "boats":1,
    "hardass":1,
    "william":1,
    "article":1,
    "alerted":1,
    "saysomeday":1,
    "layin":1,
    "pound":1,
    "subdue":1,
    "himthat":1,
    "leaves":1,
    "overturned":1,
    "gosh":1,
    "homely":1,
    "loveable":1,
    "tricks":1,
    "proceed":1,
    "overruled":1,
    "straightened":1,
    "forgot":1,
    "picking":1,
    "yessir":1,
    "thered":1,
    "drawing":1,
    "measuring":1,
    "chandlery":1,
    "wider":1,
    "onthespot":1,
    "refit":1,
    "ting":1,
    "carried":1,
    "fitted":1,
    "apparently":1,
    "refitted":1,
    "model":1,
    "transom":1,
    "operating":1,
    "winch":1,
    "rarely":1,
    "awkward":1,
    "poundsis":1,
    "holmes":1,
    "playing":1,
    "holmesid":1,
    "gun":1,
    "righthanded":1,
    "precise":1,
    "doctor":1,
    "theater":1,
    "wounds":1,
    "stickfighting":1,
    "yknow":1,
    "sticks":1,
    "muscles":1,
    "tighten":1,
    "advances":1,
    "body":1,
    "unl":1,
    "sink":1,
    "weight":1,
    "heels":1,
    "tha":1,
    "begin":1,
    "concentrate":1,
    "choose":1,
    "quietly":1,
    "thisfoam":1,
    "lungs":1,
    "occurs":1,
    "mucus":1,
    "mixed":1,
    "respiration":1,
    "foam":1,
    "autopsy":1,
    "identifies":1,
    "cause":1,
    "thrown":1,
    "motorcycle":1,
    "example":1,
    "injuries":1,
    "produced":1,
    "propelled":1,
    "rather":1,
    "reverse":1,
    "obviously":1,
    "fairlead":1,
    "anythings":1,
    "poss":1,
    "sustained":1,
    "minor":1,
    "origin":1,
    "24":1,
    "absol":1,
    "horace":1,
    "luncheon":1,
    "recess":1,
    "reconvene":1,
    "at2":1,
    "sharp":1,
    "tojos":1,
    "hide":1,
    "table":1,
    "smile":1,
    "grew":1,
    "shigemura":1,
    "wednesdays":1,
    "dances":1,
    "calligraphy":1,
    "stories":1,
    "ex":1,
    "plaining":1,
    "fantasized":1,
    "directly":1,
    "impressed":1,
    "fear":1,
    "separate":1,
    "embraces":1,
    "includes":1,
    "brings":1,
    "tranquility":1,
    "leaf":1,
    "pin":1,
    "passion":1,
    "principle":1,
    "slightly":1,
    "spoke":1,
    "succeed":1,
    "earth":1,
    "casually":1,
    "mentioned":1,
    "sleeve":1,
    "press":1,
    "instantly":1,
    "popped":1,
    "childs":1,
    "balloon":1,
    "splattered":1,
    "walls":1,
    "disappear":1,
    "discovered":1,
    "strips":1,
    "confetti":1,
    "teakettle":1,
    "measure":1,
    "keeps":1,
    "accepting":1,
    "warmth":1,
    "harvest":1,
    "festival":1,
    "dads":1,
    "favor":1,
    "ite":1,
    "preference":1,
    "making":1,
    "oddity":1,
    "highlight":1,
    "crowning":1,
    "unwitting":1,
    "virgin":1,
    "sacrifice":1,
    "concept":1,
    "racial":1,
    "harmony":1,
    "winked":1,
    "unusual":1,
    "glassbottomed":1,
    "impulse":1,
    "grip":1,
    "dig":1,
    "mostly":1,
    "ignored":1,
    "togetherin":1,
    "hollow":1,
    "everywherewere":1,
    "secret":1,
    "friendship":1,
    "ashamed":1,
    "unhappy":1,
    "avoided":1,
    "withoutbothering":1,
    "frightened":1,
    "defining":1,
    "ruined":1,
    "ofhappened":1,
    "justi":1,
    "wet":1,
    "debate":1,
    "wrongness":1,
    "machete":1,
    "mexican":1,
    "slice":1,
    "ceremonial":1,
    "problem":1,
    "talking":1,
    "acquainted":1,
    "worked":1,
    "pickers":1,
    "fished":1,
    "tgether":1,
    "dispute":1,
    "began":1,
    "worst":1,
    "hunnerd":1,
    "wavin":1,
    "church":1,
    "clothes":1,
    "paupers":1,
    "pouch":1,
    "pipe":1,
    "tobacco":1,
    "indjuns":1,
    "wear":1,
    "pants":1,
    "doncha":1,
    "34":1,
    "japaneseborn":1,
    "lease":1,
    "june":1,
    "december":1,
    "title":1,
    "born":1,
    "oldest":1,
    "twentylast":1,
    "orders":1,
    "cart":1,
    "otherwise":1,
    "rot":1,
    "shrewd":1,
    "soften":1,
    "120":1,
    "paym":1,
    "zenhichi":1,
    "savings":1,
    "strawber":1,
    "130":1,
    "labor":1,
    "fertilizer":1,
    "hopin":1,
    "pretending":1,
    "ettas":1,
    "rude":1,
    "loaned":1,
    "searun":1,
    "cutthroat":1,
    "ferrules":1,
    "smooth":1,
    "silk":1,
    "wrapped":1,
    "ca":1,
    "confusing":1,
    "suppers":1,
    "forty":1,
    "themwhat":1,
    "ended":1,
    "october":1,
    "1944":1,
    "price":1,
    "california":1,
    "gettin":1,
    "europe":1,
    "phone":1,
    "door":1,
    "twice":1,
    "ocean":1,
    "fighting":1,
    "licked":1,
    "abou":1,
    "promised":1,
    "fath":1,
    "contract":1,
    "muddling":1,
    "ments":1,
    "repossesses":1,
    "mat":1,
    "advantage":1,
    "town":1,
    "starin":1,
    "defen":1,
    "effect":1,
    "crosseyed":1,
    "defaulted":1,
    "per":1,
    "7000":1,
    "profit":1,
    "2500":1,
    "exact":1,
    "robbed":1,
    "nine":1,
    "healt":1,
    "wantin":1,
    "property":1,
    "market":1,
    "spetember":1,
    "saving":1,
    "liesel":1,
    "prospective":1,
    "appear":1,
    "earnest":1,
    "oles":1,
    "dint":1,
    "tbuy":1,
    "storm":1,
    "reasonably":1,
    "comfortable":1,
    "hotel":1,
    "judicial":1,
    "notice":1,
    "13th":1,
    "anniversary":1,
    "attack":1,
    "relationship":1,
    "10":1,
    "bathroom":1,
    "trick":1,
    "obaasan":1,
    "harm":1,
    "played":1,
    "smoke":1,
    "cigars":1,
    "offensive":1,
    "learning":1,
    "split":1,
    "ear":1,
    "wonderinhow":1,
    "germany":1,
    "itself":1,
    "stead":1,
    "locked":1,
    "fight":1,
    "countrys":1,
    "freedom":1,
    "deposition":1,
    "rook":1,
    "cheats":1,
    "rise":1,
    "tireless":1,
    "oth":1,
    "showing":1,
    "composure":1,
    "chess":1,
    "kick":1,
    "ass":1,
    "france":1,
    "italy":1,
    "upset":1,
    "spirits":1,
    "soar":1,
    "ha":1,
    "awe":1,
    "attackin":1,
    "fleets":1,
    "destroyed":1,
    "fbis":1,
    "arresting":1,
    "traitors":1,
    "spies":1,
    "therell":1,
    "blackout":1,
    "radios":1,
    "signals":1,
    "lamberson":1,
    "edition":1,
    "sons":1,
    "fellow":1,
    "islanders":1,
    "italian":1,
    "descent":1,
    "inspires":1,
    "young":1,
    "bites":1,
    "dol":1,
    "shirazaki":1,
    "near":1,
    "navy":1,
    "transmitter":1,
    "n":1,
    "speaks":1,
    "english":1,
    "fix":1,
    "polite":1,
    "appears":1,
    "high":1,
    "flute":1,
    "precious":1,
    "kimono":1,
    "music":1,
    "daughters":1,
    "scrapbook":1,
    "memories":1,
    "flattered":1,
    "stumps":1,
    "clearing":1,
    "contraband":1,
    "uh":1,
    "gotta":1,
    "eeemadasan":1,
    "act":1,
    "gentleman":1,
    "reconsider":1,
    "godd":1,
    "answers":1,
    "distres":1,
    "sing":1,
    "hakujinwork":1,
    "montana":1,
    "darkness":1,
    "hakuj":1,
    "whites":1,
    "enslaved":1,
    "egos":1,
    "believes":1,
    "aloneness":1,
    "seek":1,
    "seeking":1,
    "greater":1,
    "eagerness":1,
    "woods":1,
    "23":1,
    "honored":1,
    "pta":1,
    "names":1,
    "hence":1,
    "favoring":1,
    "writin":1,
    "patriotism":1,
    "treachery":1,
    "insult":1,
    "cancel":1,
    "subscription":1,
    "refund":1,
    "calls":1,
    "lovers":1,
    "hanging":1,
    "pricerite":1,
    "ads":1,
    "lottie":1,
    "opsvigs":1,
    "shop":1,
    "larsens":1,
    "lumberyard":1,
    "anacortes":1,
    "cafe":1,
    "subscribers":1,
    "expensive":1,
    "valuable":1,
    "instead":1,
    "leaving":1,
    "kenny":1,
    "yamashitas":1,
    "address":1,
    "marry":1,
    "getting":1,
    "monday":1,
    "graciously":1,
    "transported":1,
    "women":1,
    "lifelong":1,
    "curiosity":1,
    "masked":1,
    "exceptions":1,
    "carefully":1,
    "neighborhood":1,
    "taught":1,
    "swim":1,
    "shouldnt":1,
    "mi":1,
    "written":1,
    "attraction":1,
    "crime":1,
    "certainly":1,
    "concealment":1,
    "suffered":1,
    "contact":1,
    "k":1,
    "sweet":1,
    "earn":1,
    "buildings":1,
    "mansion":1,
    "debt":1,
    "miyamotosan":1,
    "food":1,
    "dept":1,
    "hi":1,
    "reached":1,
    "north":1,
    "zealand":1,
    "month":1,
    "eric":1,
    "bledsoe":1,
    "yards":1,
    "save":1,
    "bandaid":1,
    "coward":1,
    "giving":1,
    "pussies":1,
    "kinda":1,
    "chickenshits":1,
    "deserve":1,
    "chewed":1,
    "cornholefucker":1,
    "halfinch":1,
    "hardon":1,
    "wh":1,
    "colonel":1,
    "2100":1,
    "courtmartialed":1,
    "disgraced":1,
    "imprisoned":1,
    "captain":1,
    "sight":1,
    "dealt":1,
    "pharmacists":1,
    "mate":1,
    "whose":1,
    "surgical":1,
    "career":1,
    "handsaw":1,
    "dream":1,
    "fingers":1,
    "curled":1,
    "fucking":1,
    "goddam":1,
    "greatgrandfather":1,
    "magnificent":1,
    "battlefield":1,
    "kumamoto":1,
    "battle":1,
    "rifles":1,
    "require":1,
    "safe":1,
    "scale":1,
    "worth":1,
    "weighed":1,
    "worn":1,
    "equal":1,
    "port":1,
    "unlike":1,
    "threestrand":1,
    "manila":1,
    "condition":1,
    "braided":1,
    "loops":1,
    "bowlined":1,
    "starboard":1,
    "perfect":1,
    "cleats":1,
    "lined":1,
    "hurry":1,
    "cast":1,
    "behind":1,
    "visited":1,
    "evening":1,
    "warrant":1,
    "search":1,
    "fishin":1,
    "yor":1,
    "cables":1,
    "mooring":1,
    "lately":1,
    "willya":1,
    "fi":1,
    "looka":1,
    "hook":1,
    "bloods":1,
    "afford":1,
    "toni":1,
    "lettin":1,
    "canada":1,
    "interrupted":1,
    "fire":1,
    "motherinlaws":1,
    "motherinlaw":1,
    "alright":1,
    "considerable":1,
    "insured":1,
    "minds":1,
    "inferred":1,
    "certainty":1,
    "caucasian":1,
    "males":1,
    "o":1,
    "negative":1,
    "obvious":1,
    "scraped":1,
    "dried":1,
    "microscope":1,
    "scrapings":1,
    "particles":1,
    "strands":1,
    "fresh":1,
    "palm":1,
    "present":1,
    "function":1,
    "weigh":1,
    "probabilities":1,
    "jurys":1,
    "regiment":1,
    "442nd":1,
    "nisei":1,
    "japaneseamerican":1,
    "generally":1,
    "experienced":1,
    "handtohand":1,
    "specialty":1,
    "wide":1,
    "crosssection":1,
    "evaluate":1,
    "volunteered":1,
    "demonstration":1,
    "salute":1,
    "enlisted":1,
    "bows":1,
    "japan":1,
    "force":1,
    "habit":1,
    "exercise":1,
    "avoiding":1,
    "thrusts":1,
    "simulated":1,
    "includingthe":1,
    "importance":1,
    "bow":1,
    "evaluation":1,
    "quickly":1,
    "heartbeat":1,
    "prime":1,
    "season":1,
    "star":1,
    "especially":1,
    "betray":1,
    "lady":1,
    "8":1,
    "purchased":1,
    "talkin":1,
    "scrap":1,
    "couldnttalk":1,
    "existed":1,
    "husbands":1,
    "emotional":1,
    "plea":1,
    "attitude":1,
    "aim":1,
    "badgering":1,
    "shall":1,
    "ques":1,
    "attitu":1,
    "desoto":1,
    "fifteen":1,
    "driving":1,
    "neutral":1,
    "pleasant":1,
    "notion":1,
    "patch":1,
    "occurred":1,
    "lift":1,
    "shortly":1,
    "calling":1,
    "expect":1,
    "records":1,
    "contribute":1,
    "shorthard":1,
    "transmis":1,
    "sions":1,
    "file":1,
    "space":1,
    "transmissions":1,
    "stood":1,
    "hating":1,
    "sor":1,
    "tarawa":1,
    "ss":1,
    "west":1,
    "corona":1,
    "greekowned":1,
    "radioed":1,
    "dogleg":1,
    "bisecting":1,
    "philip":1,
    "huge":1,
    "throwing":1,
    "fling":1,
    "detail":1,
    "smoltz":1,
    "dogwatch":1,
    "early":1,
    "17th":1,
    "named":1,
    "miller":1,
    "cape":1,
    "flattery":1,
    "seamans":1,
    "loast":1,
    "completely":1,
    "grocery":1,
    "apologizes":1,
    "desk":1,
    "threw":1,
    "iddrive":1,
    "distance":1,
    "dying":1,
    "anyway":1,
    "hurts":1,
    "miserable":1,
    "arms":1,
    "seconds":1,
    "guilt":1,
    "holding":1,
    "drove":1,
    "groceries":1,
    "hardship":1,
    "beauty":1,
    "agnostics":1,
    "disbelieve":1,
    "ma":1,
    "pretend":1,
    "feelsthats":1,
    "busy":1,
    "travesty":1,
    "poor":1,
    "rock":1,
    "solid":1,
    "risked":1,
    "elsetheyre":1,
    "unhappiness":1,
    "pushed":1,
    "girls":1,
    "fought":1,
    "belleau":1,
    "nightmares":1,
    "tears":1,
    "growing":1,
    "stayed":1,
    "saddened":1,
    "loss":1,
    "compassion":1,
    "footsteps":1,
    "legacy":1,
    "often":1,
    "dear":1,
    "painful":1,
    "whenever":1,
    "loved":1,
    "yours":1,
    "gentle":1,
    "goodbye":1,
    "tear":1,
    "carrying":1,
    "taken":1,
    "reporter":1,
    "chooses":1,
    "finds":1,
    "theory":1,
    "mattered":1,
    "largeand":1,
    "gentleheart":1,
    "judged":1,
    "past":1,
    "hopeful":1,
    "pursue":1,
    "beg":1,
    "respected":1,
    "reflect":1,
    "15th":1,
    "helped":1,
    "agreed":1,
    "8400":1,
    "800":1,
    "learn":1,
    "clerk":1,
    "petersens":1,
    "wereoverjoyed":1,
    "relieved":1,
    "youand":1,
    "relatives":1,
    "amazing":1,
    "starting":1,
    "tells":1,
    "vindicated":1,
    "carlpassed":1,
    "closer":1,
    "plenty":1,
    "arecautious":1,
    "conservative":1,
    "celebrating":1,
    "signed":1,
    "quick":1,
    "boast":1,
    "reaction":1,
    "sale":1,
    "evaporating":1,
    "bashed":1,
    "thedead":1,
    "discussed":1,
    "misconstrued":1,
    "worried":1,
    "deliberately":1,
    "silence":1,
    "information":1,
    "during":1,
    "excuses":1,
    "ahouls":1,
    "withdrawn":1,
    "implying":1,
    "board":1,
    "emergency":1,
    "socialize":1,
    "gi":1,
    "unwritten":1,
    "rule":1,
    "bother":1,
    "stick":1,
    "ourselves":1,
    "maneuver":1,
    "stupidest":1,
    "suggestion":1,
    "method":1,
    "shoot":1,
    "throw":1,
    "inta":1,
    "drink":1,
    "skip":1,
    "history":1,
    "forced":1,
    "believed":1,
    "trunk":1,
    "signal":1,
    "compressed":1,
    "hears":1,
    "suckerpunched":1,
    "advance":1,
    "loses":1,
    "20":1,
    "gillanders":1,
    "weather":1,
    "mighty":1,
    "follows":1,
    "pretends":1,
    "groping":1,
    "foryes":1,
    "perha":1,
    "rephrase":1,
    "bo":1,
    "whys":1,
    "whos":1,
    "potential":1,
    "alibi":1,
    "hostility":1,
    "doubtful":1,
    "comfort":1,
    "toughest":1,
    "scenario":1,
    "somethinghappened":1,
    "planned":1,
    "hotblooded":1,
    "firstdegree":1,
    "requires":1,
    "heat":1,
    "acquit":1,
    "retried":1,
    "sad":1,
    "belongs":1,
    "drawed":1,
    "alternator":1,
    "belts":1,
    "sweat":1,
    "pull":1,
    "gainst":1,
    "juice":1,
    "catch":1,
    "wonderin":1,
    "sellin":1,
    "sall":1,
    "fortune":1,
    "batterys":1,
    "warn":1,
    "chief":1,
    "screwed":1,
    "pigfed":1,
    "bastards":1,
    "wash":1,
    "bastard":1,
    "hun":1,
    "bamboo":1,
    "rod":1,
    "runs":1,
    "closet":1,
    "1200":1,
    "paid":1,
    "dime":1,
    "buyin":1,
    "tmorrow":1,
    "hundred":1,
    "cannot":1,
    "imagine":1,
    "trueand":1,
    "simply":1,
    "interesting":1,
    "ignorance":1,
    "apologies":1,
    "slept":1,
    "onethirty":1,
    "woke":1,
    "errands":1,
    "purchases":1,
    "conveniently":1,
    "expression":1,
    "poker":1,
    "either":1,
    "count":1,
    "letting":1,
    "filtered":1,
    "ancient":1,
    "behavior":1,
    "handed":1,
    "ancestors":1,
    "culture":1,
    "eliminate":1,
    "codes":1,
    "fathom":1,
    "avenge":1,
    "grievous":1,
    "foreign":1,
    "enigma":1,
    "bitter":1,
    "experience":1,
    "thus":1,
    "justifiedhe":1,
    "trailed":1,
    "fogand":1,
    "sounded":1,
    "claiming":1,
    "alongside":1,
    "adrift":1,
    "plead":1,
    "leaps":1,
    "striking":1,
    "blow":1,
    "feud":1,
    "festered":1,
    "argued":1,
    "buying":1,
    "deadly":1,
    "expert":1,
    "series":1,
    "admits":1,
    "clearly":1,
    "selfevident":1,
    "duty":1,
    "citizens":1,
    "pre":1,
    "meditated":1,
    "deathor":1,
    "timehas":1,
    "described":1,
    "childhood":1,
    "seriously":1,
    "helping":1,
    "consistent":1,
    "absence":1,
    "brain":1,
    "tissue":1,
    "asks":1,
    "presuming":1,
    "argument":1,
    "despicable":1,
    "dishonest":1,
    "twisted":1,
    "insulting":1,
    "muchdecorated":1,
    "hero":1,
    "sake":1,
    "lovely":1,
    "widow":1,
    "hitlers":1,
    "applaud":1,
    "crucified":1,
    "urging":1,
    "thousands":1,
    "camps":1,
    "homes":1,
    "belongings":1,
    "unforgiving":1,
    "uncertainty":1,
    "mistrust":1,
    "humanity":1,
    "decency":1,
    "common":1,
    "card":1,
    "race":1,
    "relish":1,
    "built":1,
    "awful":1,
    "maam":1,
    "slip":1,
    "mad":1,
    "escape":1,
    "staff":1,
    "hidden":1,
    "dress":1,
    "bed":1,
    "setting":1,
    "pillow":1,
    "decides":1,
    "supper":1,
    "rain":1,
    "visitor":1,
    "blackmail":1,
    "threatened":1,
    "cock":1,
    "bull":1,
    "reads":1,
    "wholl":1,
    "shoulda":1,
    "cares":1,
    "swear":1,
    "cri":1,
    "disappoint":1,
    "hoping":1,
    "string":1,
    "fixin":1,
    "climb":1,
    "dozen":1,
    "eights":1,
    "angle":1,
    "streak":1,
    "rust":1,
    "r":1,
    "stretch":1,
    "ground":1,
    "guessin":1,
    "provin":1,
    "feeling":1,
    "uncertain":1,
    "unreasonable":1,
    "stubborn":1,
    "smarter":1,
    "admitted":1,
    "van":1,
    "ness":1,
    "drives":1,
    "hiding":1,
    "somethin":1,
    "doubts":1,
    "changed":1,
    "chairs":1,
    "cos":1,
    "doubted":1,
    "chunk":1,
    "moon":1,
    "roof":1,
    "viceversa":1,
    "add":1,
    "arguin":1,
    "argue":1,
    "unless":1,
    "reach":1,
    "hangmans":1,
    "rope":1,
    "bully":1,
    "hurrying":1,
    "slower":1,
    "imaginative":1,
    "cell":1,
    "tastes":1,
    "horrible":1,
    "medont":1,
    "lash":1,
    "shuttle":1,
    "reopen":1,
    "jurynew":1,
    "important":1,
    "significant":1,
    "shows":1,
    "arrived":1,
    "reported":1,
    "including":1,
    "dramaturgy":1,
    "issuing":1,
    "false":1,
    "tht":1,
    "plowed":1,
    "running":1,
    "figures":1,
    "perfectly":1,
    "light":1,
    "nowhere":1,
    "splitsecond":1,
    "tragedy":1,
    "picks":1,
    "working":1,
    "climbed":1,
    "empty":1,
    "sheath":1,
    "belt":1,
    "cuts":1,
    "hits":1,
    "rolls":1,
    "slips":1,
    "tracing":1,
    "along":1,
    "inside":1,
    "counter":1,
    "timing":1,
    "seeped":1,
    "swimmer":1,
    "deputy":1,
    "inspected":1,
    "request":1,
    "introduction":1,
    "exhibit":1,
    "18":1,
    "dug":1,
    "confirm":1,
    "whaley":1,
    "testify":1,
    "inconsistent":1,
    "reading":1,
    "storyteller":1,
    "fly":1,
    "reasons":1,
    "phantom":1,
    "stand":1,
    "corrected":1,
    "confess":1,
    "guesswork":1,
    "sorts":1,
    "journalist":1,
    "putting":1,
    "revealed":1,
    "meet":1,
    "liar":1,
    "confessed":1,
    "ishe":1,
    "stupid":1,
    "prejudiced":1,
    "greedy":1,
    "brutal":1,
    "nazis":1,
    "civilized":1,
    "tract":1,
    "anout":1,
    "motivation":1,
    "health":1,
    "finally":1,
    "liberty":1,
    "ideals":1,
    "animals":1,
    "tham":1,
    "beings":1,
    "loves":1,
    "holy":1,
    "bible":1,
    "assure":1,
    "spoil":1,
    "soliloquy":1,
    "truly":1,
    "isyou":1,
    "events":1,
    "blame":1,
    "mite":1,
    "ful":1,
    "tactic":1,
    "insults":1,
    "appealing":1,
    "fortunate":1,
    "tone":1,
    "contest":1,
    "wisely":1,
    "adequate":1,
    "quibbles":1,
    "loathe":1,
    "cigarette":1,
    "whistle":1,
    "boysll":1,
    "runnin":1,
    "strangled":1,
    "pack":1,
    "cigarettes":1,
    "waiting":1,
    "obsession":1,
    "clients":1,
    "ba":1,
    "turning":1,
    "fluttering":1,
    "surprise":1,
    "cheat":1,
    "desperate":1,
    "helplessi":1,
    "heres":1,
    "win":1,
    "appeal":1,
    "bailiff":1,
    "bench":1,
    "foreman":1,
    "aloud":1,
    "circumstances":1,
    "bless":1,
    "theyve":1,
    "following":1,
    "close":1,
    "honestly":1,
    "met":1,
    "danced":1,
    "desert":1,
    "hardshipit":1,
    "reminds":1,
    "sky":1,
    "wars":1,
    "seemhelpless":1,
    "corner":1,
    "universe":1,
    "review":2,
    "wondered":2,
    "learned":2,
    "inch":2,
    "able":2,
    "seaman":2,
    "ysee":2,
    "careful":2,
    "joke":2,
    "hey":2,
    "gillnetter":2,
    "works":2,
    "black":2,
    "himself":2,
    "occasion":2,
    "wished":2,
    "excuse":2,
    "respect":2,
    "talked":2,
    "investigation":2,
    "wanna":2,
    "record":2,
    "cooperation":2,
    "neat":2,
    "assailant":2,
    "speculate":2,
    "supposed":2,
    "gentlemen":2,
    "recall":2,
    "odd":2,
    "wonder":2,
    "room":2,
    "tested":2,
    "fit":2,
    "bang":2,
    "squeeze":2,
    "d6s":2,
    "brand":2,
    "roller":2,
    "bringing":2,
    "hitting":2,
    "likely":2,
    "returned":2,
    "sherlock":2,
    "bloody":2,
    "looked":2,
    "hips":2,
    "stomach":2,
    "stroke":2,
    "elbow":2,
    "soft":2,
    "bokken":2,
    "power":2,
    "breathing":2,
    "murdered":2,
    "overboard":2,
    "alive":2,
    "accurate":2,
    "flat":2,
    "inference":2,
    "moved":2,
    "moving":2,
    "already":2,
    "absolutely":2,
    "probably":2,
    "terrible":2,
    "yellow":2,
    "complaining":2,
    "least":2,
    "placed":2,
    "larger":2,
    "wanting":2,
    "across":2,
    "bones":2,
    "resent":2,
    "summer":2,
    "cover":2,
    "among":2,
    "journalists":2,
    "princess":2,
    "girl":2,
    "senior":2,
    "year":2,
    "box":2,
    "school":2,
    "necessarily":2,
    "easy":2,
    "slow":2,
    "liked":2,
    "forever":2,
    "weeks":2,
    "beach":2,
    "dad":2,
    "sword":2,
    "hour":2,
    "lived":2,
    "brothers":2,
    "sisters":2,
    "junior":2,
    "treated":2,
    "clean":2,
    "spend":2,
    "ahead":2,
    "held":2,
    "payment":2,
    "march":2,
    "1942":2,
    "fields":2,
    "berries":2,
    "offer":2,
    "today":2,
    "toward":2,
    "next":2,
    "spit":2,
    "owe":2,
    "minutes":2,
    "sold":2,
    "hardly":2,
    "perhaps":2,
    "sposed":2,
    "dirty":2,
    "danger":2,
    "state":2,
    "bought":2,
    "4500":2,
    "tried":2,
    "acre":2,
    "words":2,
    "7":2,
    "successful":2,
    "fathers":2,
    "buyer":2,
    "shook":2,
    "november":2,
    "fault":2,
    "takes":2,
    "stay":2,
    "attorney":2,
    "daddy":2,
    "community":2,
    "center":2,
    "check":2,
    "hang":2,
    "wait":2,
    "fellas":2,
    "losing":2,
    "bet":2,
    "above":2,
    "lives":2,
    "raise":2,
    "raised":2,
    "sleep":2,
    "fairness":2,
    "thinking":2,
    "dishonored":2,
    "humble":2,
    "strength":2,
    "dignity":2,
    "american":2,
    "innocent":2,
    "shame":2,
    "lying":2,
    "pick":2,
    "message":2,
    "checking":2,
    "extra":2,
    "german":2,
    "courage":2,
    "itll":2,
    "soon":2,
    "house":2,
    "everyone":2,
    "outta":2,
    "class":2,
    "care":2,
    "musta":2,
    "mister":2,
    "knows":2,
    "name":2,
    "simple":2,
    "union":2,
    "wi":2,
    "ones":2,
    "bombed":2,
    "afternoon":2,
    "self":2,
    "ladies":2,
    "print":2,
    "loyalty":2,
    "balls":2,
    "stuffed":2,
    "30":2,
    "percent":2,
    "pages":2,
    "devious":2,
    "miss":2,
    "imada":2,
    "docks":2,
    "secrets":2,
    "opened":2,
    "forgiveness":2,
    "dishonor":2,
    "deceived":2,
    "hello":2,
    "bleeding":2,
    "try":2,
    "used":2,
    "knowing":2,
    "revenge":2,
    "ends":2,
    "matches":2,
    "cleat":2,
    "match":2,
    "lines":2,
    "end":2,
    "testimony":2,
    "yesterday":2,
    "set":2,
    "farmhouse":2,
    "shes":2,
    "damage":2,
    "repeat":2,
    "positive":2,
    "rare":2,
    "seeing":2,
    "besides":2,
    "scalp":2,
    "none":2,
    "onto":2,
    "crushing":2,
    "hemotologist":2,
    "probable":2,
    "detective":2,
    "training":2,
    "several":2,
    "eager":2,
    "ready":2,
    "sergeant":2,
    "willing":2,
    "plan":2,
    "honorable":2,
    "lied":2,
    "mothers":2,
    "reminded":2,
    "considered":2,
    "free":2,
    "caused":2,
    "unfair":2,
    "guys":2,
    "transferred":2,
    "cabinet":2,
    "kinds":2,
    "months":2,
    "16":2,
    "142":2,
    "lighthouse":2,
    "stopped":2,
    "147":2,
    "plowing":2,
    "16th":2,
    "deceitful":2,
    "child":2,
    "milhollands":2,
    "pocket":2,
    "babies":2,
    "fielding":2,
    "proved":2,
    "consider":2,
    "selling":2,
    "agitated":2,
    "encounter":2,
    "overjoyed":2,
    "really":2,
    "break":2,
    "promise":2,
    "suggest":2,
    "trials":2,
    "hid":2,
    "concealing":2,
    "step":2,
    "boarding":2,
    "feller":2,
    "agree":2,
    "probly":2,
    "upon":2,
    "coldblooded":2,
    "premeditation":2,
    "change":2,
    "anger":2,
    "actual":2,
    "loose":2,
    "ya":2,
    "oughta":2,
    "m":2,
    "mess":2,
    "pulled":2,
    "nazi":2,
    "papers":2,
    "considering":2,
    "explained":2,
    "lawyer":2,
    "initially":2,
    "six":2,
    "feelings":2,
    "summation":2,
    "believing":2,
    "ancestry":2,
    "ways":2,
    "distress":2,
    "treacherous":2,
    "weapon":2,
    "lord":2,
    "murderous":2,
    "proof":2,
    "awhile":2,
    "chances":2,
    "c":2,
    "s":2,
    "pure":2,
    "idiots":2,
    "cracked":2,
    "inventory":2,
    "pieces":2,
    "lots":2,
    "alex":2,
    "eleven":2,
    "tryin":2,
    "sayin":2,
    "fall":2,
    "coincidences":2,
    "waking":2,
    "counts":2,
    "speculation":2,
    "fell":2,
    "climbs":2,
    "coincidence":2,
    "wheres":2,
    "falls":2,
    "closely":2,
    "below":2,
    "nor":2,
    "intelligence":2,
    "helpless":2,
    "operated":3,
    "hearts":3,
    "neighbor":3,
    "sat":3,
    "grace":3,
    "samurai":3,
    "walk":3,
    "earlier":3,
    "crushed":3,
    "hit":3,
    "235":3,
    "lucky":3,
    "werent":3,
    "y":3,
    "suspicion":3,
    "alvin":3,
    "specially":3,
    "happens":3,
    "whats":3,
    "sheriffs":3,
    "saw":3,
    "damn":3,
    "struggle":3,
    "middle":3,
    "peculiar":3,
    "strong":3,
    "worse":3,
    "yet":3,
    "started":3,
    "strike":3,
    "flange":3,
    "banged":3,
    "many":3,
    "size":3,
    "hmmn":3,
    "exactly":3,
    "bring":3,
    "struck":3,
    "anywhere":3,
    "doing":3,
    "job":3,
    "drowned":3,
    "darn":3,
    "showed":3,
    "injury":3,
    "somebody":3,
    "times":3,
    "trained":3,
    "follow":3,
    "drowning":3,
    "deck":3,
    "says":3,
    "narrow":3,
    "third":3,
    "recent":3,
    "most":3,
    "happy":3,
    "theyll":3,
    "teach":3,
    "woman":3,
    "lessons":3,
    "hakujin":3,
    "soul":3,
    "tree":3,
    "seemed":3,
    "integrity":3,
    "five":3,
    "caught":3,
    "open":3,
    "nature":3,
    "strawberry":3,
    "sort":3,
    "public":3,
    "ten":3,
    "kept":3,
    "cedar":3,
    "special":3,
    "neither":3,
    "half":3,
    "friend":3,
    "regret":3,
    "decent":3,
    "fancy":3,
    "gets":3,
    "missed":3,
    "leave":3,
    "givin":3,
    "passed":3,
    "equity":3,
    "pacific":3,
    "shot":3,
    "also":3,
    "illegal":3,
    "america":3,
    "eye":3,
    "stop":3,
    "lookin":3,
    "math":3,
    "angry":3,
    "someday":3,
    "fisherman":3,
    "sick":3,
    "keeping":3,
    "families":3,
    "court":3,
    "mention":3,
    "warm":3,
    "show":3,
    "nels":3,
    "gudmundsson":3,
    "thinks":3,
    "bein":3,
    "cheated":3,
    "concentration":3,
    "mine":3,
    "needs":3,
    "return":3,
    "far":3,
    "parents":3,
    "united":3,
    "states":3,
    "enemy":3,
    "crazy":3,
    "trouble":3,
    "hurt":3,
    "turn":3,
    "naw":3,
    "finding":3,
    "letters":3,
    "seems":3,
    "bout":3,
    "americans":3,
    "rest":3,
    "smell":3,
    "lies":3,
    "thirty":3,
    "wall":3,
    "while":3,
    "required":3,
    "miyamotos":3,
    "others":3,
    "tied":3,
    "coming":3,
    "though":3,
    "choice":3,
    "belonged":3,
    "bits":3,
    "bone":3,
    "t":3,
    "combat":3,
    "shed":3,
    "kabuos":3,
    "encouraged":3,
    "actually":3,
    "beautiful":3,
    "convict":3,
    "milholland":3,
    "touch":3,
    "gods":3,
    "despite":3,
    "telling":3,
    "suppose":3,
    "cold":3,
    "wish":3,
    "needed":3,
    "difficult":3,
    "writing":3,
    "moment":3,
    "given":3,
    "forward":3,
    "decided":3,
    "except":3,
    "horn":3,
    "claimed":3,
    "rules":3,
    "rage":3,
    "beyond":3,
    "proud":3,
    "lanterns":3,
    "wondering":3,
    "quite":3,
    "freighters":3,
    "twelve":3,
    "explanation":3,
    "expertise":3,
    "newspaper":4,
    "neighbors":4,
    "coroner":4,
    "wound":4,
    "gone":4,
    "accident":4,
    "fine":4,
    "figure":4,
    "killer":4,
    "coffee":4,
    "floor":4,
    "fella":4,
    "seem":4,
    "wake":4,
    "asking":4,
    "object":4,
    "answer":4,
    "lights":4,
    "engine":4,
    "correct":4,
    "large":4,
    "curious":4,
    "youve":4,
    "stern":4,
    "butt":4,
    "means":4,
    "meaning":4,
    "both":4,
    "b":4,
    "straight":4,
    "great":4,
    "different":4,
    "kissed":4,
    "deal":4,
    "sometimes":4,
    "forget":4,
    "friends":4,
    "matter":4,
    "live":4,
    "called":4,
    "send":4,
    "apologize":4,
    "somewhere":4,
    "road":4,
    "til":4,
    "pay":4,
    "jurgensen":4,
    "wanted":4,
    "eyes":4,
    "makes":4,
    "yeh":4,
    "ago":4,
    "harbor":4,
    "understand":4,
    "guilty":4,
    "prosecutor":4,
    "children":4,
    "bitch":4,
    "etta":4,
    "someone":4,
    "honest":4,
    "anybody":4,
    "lie":4,
    "whole":4,
    "wrote":4,
    "arrested":4,
    "whatever":4,
    "stuff":4,
    "arrest":4,
    "clear":4,
    "lose":4,
    "true":4,
    "journalism":4,
    "balance":4,
    "married":4,
    "kindness":4,
    "f":4,
    "aboard":4,
    "hold":4,
    "wood":4,
    "explain":4,
    "anymore":4,
    "snow":4,
    "grateful":4,
    "car":4,
    "column":4,
    "ship":4,
    "channel":4,
    "brought":4,
    "arent":4,
    "tie":4,
    "start":4,
    "lashed":4,
    "prove":4,
    "fracture":4,
    "chance":4,
    "blond":4,
    "manzanar":4,
    "island":5,
    "seattle":5,
    "without":5,
    "line":5,
    "little":5,
    "paper":5,
    "moran":5,
    "play":5,
    "bad":5,
    "white":5,
    "h":5,
    "net":5,
    "happen":5,
    "heard":5,
    "trust":5,
    "art":5,
    "aint":5,
    "mans":5,
    "sign":5,
    "cup":5,
    "single":5,
    "heavy":5,
    "charge":5,
    "d8":5,
    "side":5,
    "use":5,
    "kind":5,
    "deceased":5,
    "remember":5,
    "kendo":5,
    "air":5,
    "whether":5,
    "fast":5,
    "thank":5,
    "oclock":5,
    "sit":5,
    "soldier":5,
    "mom":5,
    "part":5,
    "yourself":5,
    "mistake":5,
    "heart":5,
    "week":5,
    "anyone":5,
    "huh":5,
    "such":5,
    "ole":5,
    "took":5,
    "fact":5,
    "looks":5,
    "mind":5,
    "thousand":5,
    "doesnt":5,
    "buy":5,
    "september":5,
    "excited":5,
    "tomorrow":5,
    "pearl":5,
    "prejudice":5,
    "camp":5,
    "nobody":5,
    "arm":5,
    "replaced":5,
    "goes":5,
    "thanks":5,
    "again":5,
    "type":5,
    "verdict":5,
    "sense":5,
    "give":5,
    "judge":5,
    "reasonable":5,
    "days":6,
    "th":6,
    "four":6,
    "chambers":6,
    "news":6,
    "between":6,
    "each":6,
    "less":6,
    "speak":6,
    "kids":6,
    "sea":6,
    "followed":6,
    "objection":6,
    "youll":6,
    "cabin":6,
    "testified":6,
    "person":6,
    "further":6,
    "water":6,
    "fair":6,
    "certain":6,
    "until":6,
    "world":6,
    "later":6,
    "run":6,
    "looking":6,
    "myself":6,
    "long":6,
    "payments":6,
    "army":6,
    "money":6,
    "since":6,
    "farm":6,
    "bank":6,
    "pretty":6,
    "asked":6,
    "killed":6,
    "feel":6,
    "wife":6,
    "old":6,
    "coulda":6,
    "evidence":6,
    "radio":6,
    "country":6,
    "seen":6,
    "hate":6,
    "else":6,
    "human":6,
    "morning":6,
    "having":6,
    "case":6,
    "twine":6,
    "lot":6,
    "murder":7,
    "gunnel":7,
    "going":7,
    "mother":7,
    "boy":7,
    "three":7,
    "nothin":7,
    "find":7,
    "defendants":7,
    "jap":7,
    "theyre":7,
    "may":7,
    "being":7,
    "around":7,
    "under":7,
    "together":7,
    "always":7,
    "god":7,
    "fish":7,
    "big":7,
    "best":7,
    "might":7,
    "hell":7,
    "face":7,
    "watch":7,
    "second":7,
    "oh":7,
    "hope":7,
    "tonight":7,
    "has":7,
    "read":7,
    "gave":7,
    "let":7,
    "wont":7,
    "very":7,
    "felt":7,
    "call":7,
    "small":7,
    "doubt":7,
    "knife":7,
    "own":8,
    "hatsue":8,
    "nice":8,
    "home":8,
    "afraid":8,
    "lets":8,
    "enough":8,
    "witness":8,
    "fog":8,
    "does":8,
    "deceaseds":8,
    "hard":8,
    "possible":8,
    "anything":8,
    "eight":8,
    "wasnt":8,
    "against":8,
    "hours":8,
    "once":8,
    "happened":8,
    "day":8,
    "point":8,
    "left":8,
    "wouldnt":8,
    "move":8,
    "ask":8,
    "letter":8,
    "word":8,
    "boys":9,
    "ishmael":9,
    "skull":9,
    "mrs":9,
    "died":9,
    "talk":9,
    "couldnt":9,
    "work":9,
    "course":9,
    "thing":9,
    "done":9,
    "hed":9,
    "into":9,
    "youd":9,
    "hear":9,
    "hair":9,
    "love":9,
    "another":9,
    "put":9,
    "comes":9,
    "sent":9,
    "reason":9,
    "men":10,
    "dead":10,
    "am":10,
    "mast":10,
    "real":10,
    "batteries":10,
    "japanese":10,
    "kill":10,
    "okay":10,
    "guess":10,
    "ive":10,
    "new":10,
    "heines":10,
    "facts":10,
    "freighter":10,
    "trial":11,
    "jury":11,
    "thought":11,
    "need":11,
    "honor":11,
    "spare":11,
    "after":11,
    "better":11,
    "made":11,
    "few":11,
    "sell":11,
    "keep":11,
    "where":11,
    "help":11,
    "isnt":11,
    "alone":12,
    "kabuo":12,
    "write":12,
    "gonna":12,
    "question":12,
    "d6":12,
    "death":12,
    "questions":12,
    "cut":12,
    "something":12,
    "sure":12,
    "ill":12,
    "nothing":12,
    "even":12,
    "story":12,
    "wrong":12,
    "family":12,
    "acres":12,
    "place":12,
    "hooks":12,
    "years":13,
    "son":13,
    "please":13,
    "head":13,
    "id":13,
    "night":13,
    "fishing":13,
    "through":13,
    "make":13,
    "war":13,
    "must":13,
    "because":13,
    "japs":13,
    "gaff":13,
    "first":14,
    "away":14,
    "went":14,
    "report":14,
    "much":14,
    "same":14,
    "everything":14,
    "should":14,
    "still":14,
    "seven":14,
    "lost":14,
    "last":15,
    "other":15,
    "mean":15,
    "any":15,
    "good":15,
    "these":16,
    "husband":16,
    "than":16,
    "too":16,
    "hes":16,
    "battery":16,
    "before":16,
    "came":16,
    "em":16,
    "lantern":16,
    "miyamoto":17,
    "every":17,
    "land":17,
    "them":17,
    "people":18,
    "told":18,
    "off":18,
    "theres":18,
    "yes":18,
    "knew":18,
    "heine":19,
    "hand":19,
    "life":19,
    "folks":19,
    "blood":19,
    "over":20,
    "found":20,
    "some":20,
    "maybe":20,
    "cant":20,
    "sir":20,
    "got":21,
    "sheriff":21,
    "who":21,
    "which":21,
    "look":21,
    "time":21,
    "those":21,
    "believe":21,
    "ever":21,
    "come":21,
    "truth":21,
    "sorry":21,
    "things":21,
    "been":22,
    "way":22,
    "then":22,
    "mr":22,
    "carls":23,
    "she":23,
    "defendant":23,
    "take":23,
    "our":24,
    "their":24,
    "tell":24,
    "here":24,
    "out":24,
    "will":24,
    "youre":24,
    "want":25,
    "back":25,
    "go":26,
    "how":27,
    "two":27,
    "by":28,
    "down":28,
    "father":28,
    "why":29,
    "get":29,
    "boat":29,
    "more":30,
    "only":31,
    "thats":32,
    "never":32,
    "man":32,
    "an":33,
    "us":33,
    "her":34,
    "when":34,
    "can":34,
    "think":34,
    "see":35,
    "didnt":37,
    "up":38,
    "do":40,
    "say":41,
    "from":42,
    "had":42,
    "its":42,
    "know":43,
    "right":45,
    "now":45,
    "said":45,
    "were":47,
    "could":48,
    "or":48,
    "just":48,
    "are":49,
    "like":49,
    "they":49,
    "im":50,
    "there":52,
    "would":52,
    "did":53,
    "about":53,
    "as":54,
    "well":55,
    "dont":56,
    "me":57,
    "him":59,
    "if":60,
    "one":60,
    "carl":62,
    "but":62,
    "with":65,
    "at":66,
    "all":67,
    "my":70,
    "be":71,
    "have":72,
    "so":75,
    "not":76,
    "on":78,
    "what":79,
    "no":79,
    "we":83,
    "his":98,
    "for":105,
    "he":107,
    "this":108,
    "is":134,
    "your":136,
    "was":158,
    "in":159,
    "of":165,
    "it":184,
    "that":214,
    "and":244,
    "a":291,
    "to":315,
    "i":332,
    "you":406,
    "the":579
}