{
    "trust":1,
    "wanted":1,
    "adventure":1,
    "ouch":1,
    "ewwww":1,
    "horrible":1,
    "done":1,
    "nature":1,
    "camping":1,
    "knowingly":1,
    "almost":1,
    "strolls":1,
    "knew":1,
    "toed":1,
    "sandals":1,
    "kitten":1,
    "totally":1,
    "hardly":1,
    "impress":1,
    "always":1,
    "normal":1,
    "campsite":1,
    "old":1,
    "pick":1,
    "pace":1,
    "continues":1,
    "lead":1,
    "complaining":1,
    "clump":1,
    "surrounded":1,
    "wow":1,
    "fall":1,
    "cool":1,
    "kicks":1,
    "alright":1,
    "stoney":1,
    "sick":1,
    "death":1,
    "without":1,
    "whinging":1,
    "passed":1,
    "worry":1,
    "shell":1,
    "backtracks":1,
    "overgrown":1,
    "crying":1,
    "wipes":1,
    "tears":1,
    "approaches":1,
    "matter":1,
    "fineeveryone":1,
    "beside":1,
    "spot":1,
    "comments":1,
    "show":1,
    "arent":1,
    "errryeahbut":1,
    "practical":1,
    "break":1,
    "sniggers":1,
    "daggers":1,
    "mutters":1,
    "under":1,
    "breath":1,
    "jerk":1,
    "unpack":1,
    "3":1,
    "refuses":1,
    "unpacks":1,
    "rub":1,
    "killing":1,
    "saying":1,
    "yourself":1,
    "offer":1,
    "sighs":1,
    "pacing":1,
    "kicking":1,
    "securing":1,
    "guy":1,
    "ropes":1,
    "theirs":1,
    "myself":1,
    "wonder":1,
    "change":1,
    "ruin":1,
    "rummaging":1,
    "followed":1,
    "stillettos":1,
    "prom":1,
    "moreermpractical":1,
    "flat":1,
    "laughing":1,
    "crossly":1,
    "borrow":1,
    "spare":1,
    "horrified":1,
    "scruffy":1,
    "reluctantly":1,
    "agrees":1,
    "suppose":1,
    "accusingly":1,
    "shakes":1,
    "winding":1,
    "disgusted":1,
    "bags":1,
    "animals":1,
    "peaceful":1,
    "shattered":1,
    "arguing":1,
    "shouting":1,
    "being":1,
    "people":1,
    "middle":1,
    "cheek":1,
    "ridiculous":1,
    "asked":1,
    "storms":1,
    "funny":1,
    "miss":1,
    "expected":1,
    "breaking":1,
    "view":1,
    "handfuls":1,
    "area":1,
    "put":1,
    "delicately":1,
    "top":1,
    "pile":1,
    "crack":1,
    "relax":1,
    "beer":1,
    "hot":1,
    "dogs":1,
    "beans":1,
    "cooked":1,
    "changes":1,
    "finish":1,
    "cooking":1,
    "serve":1,
    "passes":1,
    "plate":1,
    "food":1,
    "supping":1,
    "enjoying":1,
    "seems":1,
    "relaxed":1,
    "until":1,
    "disgusting":1,
    "bends":1,
    "close":1,
    "whisper":1,
    "roughly":1,
    "lap":1,
    "ooops":1,
    "babe":1,
    "boring":1,
    "someone":1,
    "shouldnt":1,
    "trouble":1,
    "bother":1,
    "dunk":1,
    "yards":1,
    "dense":1,
    "evening":1,
    "swearing":1,
    "cursing":1,
    "drinking":1,
    "2nd":1,
    "stolen":1,
    "buggered":1,
    "mouthfuls":1,
    "convinced":1,
    "realise":1,
    "yet":1,
    "reckon":1,
    "dangerous":1,
    "hasnt":1,
    "returned":1,
    "betting":1,
    "stumbling":1,
    "wakes":1,
    "hmmm":1,
    "circling":1,
    "messing":1,
    "strains":1,
    "lurking":1,
    "certainly":1,
    "step":1,
    "forward":1,
    "belongs":1,
    "whwhat":1,
    "6":1,
    "glint":1,
    "suprised":1,
    "noooois":1,
    "mischievous":1,
    "smile":1,
    "soyou":1,
    "youyou":1,
    "must":1,
    "finding":1,
    "kept":1,
    "giggles":1,
    "mouth":1,
    "pooped":1,
    "climbs":1,
    "shocked":1,
    "jealous":1,
    "spent":1,
    "staring":1,
    "roof":1,
    "awakens":1,
    "opens":1,
    "bed":1,
    "rise":1,
    "shine":1,
    "":1,
    "930am":1,
    "soundly":1,
    "mustve":1,
    "bad":1,
    "horror":1,
    "slept":1,
    "peering":1,
    "unzips":1,
    "properly":1,
    "backs":1,
    "standing":1,
    "sign":1,
    "zip":1,
    "best":1,
    "wake":1,
    "bottom":1,
    "ravine":1,
    "feels":1,
    "using":1,
    "along":1,
    "ready":1,
    "phoning":1,
    "spend":1,
    "neither":1,
    "ever":1,
    "world":1,
    "spoil":1,
    "split":1,
    "cover":1,
    "nod":1,
    "gazes":1,
    "mind":1,
    "1030":1,
    "meet":1,
    "whether":1,
    "hopefully":1,
    "directions":1,
    "shall":1,
    "thinkhere":1,
    "airwouldnt":1,
    "chest":1,
    "neck":1,
    "leans":1,
    "forwards":1,
    "kiss":1,
    "disappointed":1,
    "steps":1,
    "forgotten":1,
    "extra":1,
    "difference":1,
    "unbelievable":1,
    "might":1,
    "lying":1,
    "injured":1,
    "cares":1,
    "true":1,
    "forget":1,
    "meant":1,
    "waiti":1,
    "transpires":1,
    "quietly":1,
    "part":1,
    "clue":1,
    "ermno":1,
    "asking":1,
    "whatthe":1,
    "eyed":1,
    "thank":1,
    "goodness":1,
    "quick":1,
    "gotta":1,
    "keeps":1,
    "scanning":1,
    "following":1,
    "chased":1,
    "talk":1,
    "unsure":1,
    "checked":1,
    "middayearly":1,
    "silent":1,
    "slyly":1,
    "waters":1,
    "snatches":1,
    "constantly":1,
    "approach":1,
    "making":1,
    "sense":1,
    "whilst":1,
    "rubbing":1,
    "nervously":1,
    "spins":1,
    "werethat":1,
    "mark":1,
    "words":1,
    "imagination":1,
    "sod":1,
    "our":1,
    "worries":1,
    "despair":1,
    "holding":1,
    "contact":1,
    "remnants":1,
    "relay":1,
    "details":1,
    "cross":1,
    "behaviour":1,
    "fill":1,
    "apologise":1,
    "attempts":1,
    "unconsciousness":1,
    "legs":1,
    "disappearing":1,
    "finishing":1,
    "telling":1,
    "fetched":1,
    "serious":1,
    "throws":1,
    "exasperation":1,
    "point":1,
    "ah":1,
    "ass":1,
    "streams":1,
    "ages":1,
    "someones":1,
    "seductively":1,
    "collected":1,
    "lovely":1,
    "changed":1,
    "tune":1,
    "hated":1,
    "hate":1,
    "understand":1,
    "til":1,
    "extremely":1,
    "even":1,
    "ofit":1,
    "tonight":1,
    "case":1,
    "happier":1,
    "squeeze":1,
    "stood":1,
    "obvious":1,
    "stuff":1,
    "rather":1,
    "chances":1,
    "wasted":1,
    "today":1,
    "usually":1,
    "odd":1,
    "imagining":1,
    "things":1,
    "luck":1,
    "panicks":1,
    "breaks":1,
    "run":1,
    "prevents":1,
    "scramble":1,
    "franctically":1,
    "leg":1,
    "free":1,
    "creatures":1,
    "deeper":1,
    "darkness":1,
    "blood":1,
    "curdling":1,
    "deciding":1,
    "stayed":1,
    "soft":1,
    "tomorrow":1,
    "remember":1,
    "speaks":1,
    "hushed":1,
    "tones":1,
    "boys":1,
    "strange":1,
    "blew":1,
    "fair":1,
    "game":1,
    "oww":1,
    "maddie`":1,
    "behave":1,
    "realised":1,
    "pokes":1,
    "cosy":1,
    "wha":1,
    "minute":1,
    "leaves":1,
    "shadow":1,
    "pass":1,
    "cowering":1,
    "slap":1,
    "gods":1,
    "sake":1,
    "noi":1,
    "noit":1,
    "seeing":1,
    "frozen":1,
    "begins":1,
    "tighten":1,
    "paw":1,
    "slashes":1,
    "straight":1,
    "stomach":1,
    "bucks":1,
    "wildly":1,
    "intestines":1,
    "spilling":1,
    "bolts":1,
    "woah":1,
    "fight":1,
    "comfort":1,
    "cries":1,
    "uncontrollably":1,
    "happening":1,
    "bear":1,
    "likeit":1,
    "watched":1,
    "tore":1,
    "attract":1,
    "maddiemaddie":1,
    "huddled":1,
    "silly":1,
    "ripped":1,
    "apart":1,
    "hearing":1,
    "tgo":1,
    "carefully":1,
    "yanks":1,
    "squeals":1,
    "drags":1,
    "dart":1,
    "sharply":1,
    "ripping":1,
    "clutches":1,
    "seconds":1,
    "werewolves":1,
    "feast":1,
    "camps":1,
    "ran":1,
    "listen":1,
    "strokes":1,
    "selfish":1,
    "happens":1,
    "given":1,
    "process":1,
    "lived":1,
    "fortunate":1,
    "chosen":1,
    "lycanthrope":1,
    "hungry":1,
    "important":1,
    "use":1,
    "weapon":1,
    "become":1,
    "immortal":1,
    "horton":1,
    "colony":1,
    "many":1,
    "howl":1,
    "large":1,
    "stick":1,
    "yelp":1,
    "scrapes":1,
    "claws":1,
    "slow":1,
    "rises":1,
    "sky":1,
    "stumbles":1,
    "exhausted":1,
    "collapses":1,
    "moves":1,
    "bushes":1,
    "notice":1,
    "wolf":1,
    "fade":1,
    "soon":2,
    "said":2,
    "deep":2,
    "since":2,
    "came":2,
    "shhhh":2,
    "follow":2,
    "hurting":2,
    "wish":2,
    "wear":2,
    "those":2,
    "inappropiate":2,
    "trekking":2,
    "likes":2,
    "path":2,
    "himself":2,
    "says":2,
    "catch":2,
    "smiling":2,
    "small":2,
    "rucksack":2,
    "place":2,
    "dyou":2,
    "stones":2,
    "spose":2,
    "went":2,
    "sat":2,
    "probably":2,
    "fallen":2,
    "nail":2,
    "alone":2,
    "explore":2,
    "sharing":2,
    "longer":2,
    "thanks":2,
    "finished":2,
    "take":2,
    "sorted":2,
    "shut":2,
    "anyway":2,
    "disbelief":2,
    "stupid":2,
    "ya":2,
    "flip":2,
    "god":2,
    "itd":2,
    "pack":2,
    "distance":2,
    "made":2,
    "bring":2,
    "nowhere":2,
    "bloody":2,
    "carry":2,
    "angry":2,
    "sorry":2,
    "enough":2,
    "laugh":2,
    "beers":2,
    "makes":2,
    "disappears":2,
    "half":2,
    "sun":2,
    "loud":2,
    "belch":2,
    "staggers":2,
    "obviously":2,
    "stares":2,
    "late":2,
    "theyve":2,
    "drinks":2,
    "couple":2,
    "moon":2,
    "actually":2,
    "drops":2,
    "closes":2,
    "asleep":2,
    "somewhere":2,
    "wandering":2,
    "chance":2,
    "wed":2,
    "am":2,
    "footsteps":2,
    "had":2,
    "jumps":2,
    "shape":2,
    "move":2,
    "hairy":2,
    "opposite":2,
    "early":2,
    "eye":2,
    "hour":2,
    "2":2,
    "int":2,
    "check":2,
    "dream":2,
    "realises":2,
    "fact":2,
    "peers":2,
    "once":2,
    "sore":2,
    "tried":2,
    "signal":2,
    "1":2,
    "shoulders":2,
    "havent":2,
    "intently":2,
    "heavy":2,
    "breathing":2,
    "follows":2,
    "lost":2,
    "crashing":2,
    "wide":2,
    "scared":2,
    "past":2,
    "limp":2,
    "frightened":2,
    "fear":2,
    "gently":2,
    "creep":2,
    "sit":2,
    "whatever":2,
    "moment":2,
    "scream":2,
    "claw":2,
    "drag":2,
    "does":2,
    "dragged":2,
    "unusually":2,
    "thinks":2,
    "id":2,
    "staying":2,
    "agree":2,
    "cos":2,
    "acting":2,
    "trips":2,
    "pull":2,
    "grab":2,
    "strong":2,
    "home":2,
    "choice":2,
    "room":2,
    "happened":2,
    "shhh":2,
    "heard":2,
    "crawl":2,
    "opening":2,
    "frantically":2,
    "struggles":2,
    "raises":2,
    "scrambles":2,
    "lifeless":2,
    "stands":2,
    "watches":2,
    "grins":2,
    "teeth":2,
    "thousands":2,
    "years":2,
    "kind":2,
    "snack":2,
    "set":3,
    "takes":3,
    "leads":3,
    "undergrowth":3,
    "ahead":3,
    "already":3,
    "heels":3,
    "these":3,
    "shrugs":3,
    "further":3,
    "muttering":3,
    "couldnt":3,
    "else":3,
    "wait":3,
    "branches":3,
    "stops":3,
    "perfect":3,
    "slips":3,
    "join":3,
    "wasnt":3,
    "moaning":3,
    "herself":3,
    "sitting":3,
    "yes":3,
    "holds":3,
    "between":3,
    "share":3,
    "anyone":3,
    "stand":3,
    "across":3,
    "youll":3,
    "happy":3,
    "knows":3,
    "moody":3,
    "rubs":3,
    "princess":3,
    "youd":3,
    "mine":3,
    "laughs":3,
    "problem":3,
    "big":3,
    "woods":3,
    "idea":3,
    "thought":3,
    "points":3,
    "least":3,
    "two":3,
    "5":3,
    "later":3,
    "sounds":3,
    "having":3,
    "isnt":3,
    "carrying":3,
    "twig":3,
    "eat":3,
    "hello":3,
    "fun":3,
    "walk":3,
    "gone":3,
    "onto":3,
    "lies":3,
    "different":3,
    "nods":3,
    "surely":3,
    "start":3,
    "phone":3,
    "inside":3,
    "voice":3,
    "mean":3,
    "limps":3,
    "looked":3,
    "quicker":3,
    "annoyed":3,
    "talking":3,
    "wrong":3,
    "somethings":3,
    "which":3,
    "afternoon":3,
    "let":3,
    "saw":3,
    "interested":3,
    "air":3,
    "backwards":3,
    "drifts":3,
    "real":3,
    "confused":3,
    "waiting":3,
    "safer":3,
    "than":3,
    "noise":3,
    "floor":3,
    "grip":3,
    "hold":3,
    "evil":3,
    "tightens":3,
    "releases":3,
    "animal":3,
    "dead":3,
    "killed":3,
    "against":3,
    "clutching":3,
    "hair":3,
    "road":3,
    "wont":4,
    "moan":4,
    "haha":4,
    "trainers":4,
    "gonna":4,
    "walking":4,
    "never":4,
    "sound":4,
    "smiles":4,
    "found":4,
    "slightly":4,
    "whole":4,
    "help":4,
    "shoulder":4,
    "would":4,
    "could":4,
    "brings":4,
    "flops":4,
    "believe":4,
    "will":4,
    "minutes":4,
    "first":4,
    "forgot":4,
    "front":4,
    "who":4,
    "watch":4,
    "drunk":4,
    "maybe":4,
    "wouldnt":4,
    "few":4,
    "turn":4,
    "empty":4,
    "worried":4,
    "too":4,
    "approaching":4,
    "runs":4,
    "shirt":4,
    "fast":4,
    "bag":4,
    "dylans":4,
    "mate":4,
    "concerned":4,
    "more":4,
    "course":4,
    "watching":4,
    "glares":4,
    "dunno":4,
    "calm":4,
    "quite":4,
    "safe":4,
    "pulls":4,
    "body":4,
    "keep":5,
    "much":5,
    "told":5,
    "when":5,
    "both":5,
    "others":5,
    "only":5,
    "day":5,
    "great":5,
    "bit":5,
    "log":5,
    "left":5,
    "weve":5,
    "sigh":5,
    "tents":5,
    "wood":5,
    "own":5,
    "seem":5,
    "their":5,
    "last":5,
    "work":5,
    "hands":5,
    "hurt":5,
    "good":5,
    "each":5,
    "direction":5,
    "morning":5,
    "tree":5,
    "screams":5,
    "side":5,
    "same":5,
    "outside":5,
    "better":5,
    "ive":5,
    "hear":5,
    "trying":5,
    "everything":5,
    "itll":5,
    "grips":5,
    "an":6,
    "youve":6,
    "maddies":6,
    "friends":6,
    "wearing":6,
    "open":6,
    "nice":6,
    "ill":6,
    "getting":6,
    "ground":6,
    "wheres":6,
    "gives":6,
    "leave":6,
    "fire":6,
    "any":6,
    "really":6,
    "doing":6,
    "make":6,
    "vodka":6,
    "another":6,
    "pushes":6,
    "falls":6,
    "far":6,
    "hell":6,
    "whos":6,
    "sleeping":6,
    "quickly":6,
    "seen":6,
    "creature":6,
    "brads":6,
    "water":6,
    "stream":6,
    "crazy":6,
    "after":7,
    "behind":7,
    "coming":7,
    "didnt":7,
    "want":7,
    "hears":7,
    "though":7,
    "sits":7,
    "puts":7,
    "gets":7,
    "right":7,
    "has":7,
    "fine":7,
    "while":7,
    "need":7,
    "hope":7,
    "tell":7,
    "stop":7,
    "quiet":7,
    "try":7,
    "thing":7,
    "throat":7,
    "sure":8,
    "nothing":8,
    "got":8,
    "everyone":8,
    "foot":8,
    "doesnt":8,
    "anything":8,
    "goes":8,
    "suddenly":8,
    "should":8,
    "bottle":8,
    "dark":8,
    "sleep":8,
    "looking":8,
    "did":9,
    "towards":9,
    "say":9,
    "sees":9,
    "theyre":9,
    "very":9,
    "yeah":9,
    "head":9,
    "night":9,
    "eyes":9,
    "silence":9,
    "werewolf":9,
    "or":10,
    "theres":10,
    "some":10,
    "see":10,
    "how":10,
    "face":10,
    "mikes":10,
    "shoes":11,
    "forest":11,
    "guys":11,
    "comes":11,
    "still":11,
    "other":11,
    "girls":11,
    "again":11,
    "tries":11,
    "outta":11,
    "arm":12,
    "now":12,
    "feet":12,
    "by":12,
    "find":12,
    "walks":12,
    "time":12,
    "together":12,
    "stay":12,
    "us":13,
    "clearing":13,
    "round":13,
    "hand":13,
    "starts":13,
    "before":13,
    "ext":14,
    "little":14,
    "from":14,
    "your":14,
    "around":14,
    "carlys":14,
    "been":14,
    "youre":15,
    "if":15,
    "my":15,
    "thats":15,
    "grabs":15,
    "one":15,
    "this":16,
    "why":16,
    "like":16,
    "were":16,
    "away":16,
    "way":16,
    "no":16,
    "so":17,
    "shes":17,
    "them":17,
    "through":18,
    "something":18,
    "can":18,
    "oh":19,
    "im":19,
    "cant":19,
    "turns":20,
    "well":21,
    "whats":21,
    "think":21,
    "where":22,
    "was":22,
    "then":22,
    "they":22,
    "lets":22,
    "about":22,
    "going":23,
    "down":23,
    "do":23,
    "trees":23,
    "not":24,
    "know":25,
    "over":26,
    "camp":26,
    "but":27,
    "with":27,
    "into":27,
    "ok":27,
    "look":27,
    "dont":28,
    "come":28,
    "off":29,
    "me":30,
    "get":30,
    "hes":30,
    "for":31,
    "just":33,
    "tent":33,
    "up":34,
    "be":35,
    "there":35,
    "have":36,
    "here":36,
    "all":36,
    "out":38,
    "as":39,
    "go":40,
    "back":43,
    "what":45,
    "are":47,
    "that":47,
    "brad":48,
    "its":50,
    "she":53,
    "his":54,
    "looks":55,
    "him":55,
    "in":56,
    "on":56,
    "at":61,
    "it":64,
    "we":66,
    "he":66,
    "of":68,
    "is":71,
    "i":72,
    "dylan":80,
    "carly":86,
    "a":87,
    "her":94,
    "mike":103,
    "maddie":120,
    "you":141,
    "and":186,
    "to":205,
    "the":223
}