{
    "congratulations":1,
    "yourrecent":1,
    "award":1,
    "earthrise":1,
    "selection":1,
    "vintage":1,
    "wines":1,
    "sleek":1,
    "luxurious":1,
    "decorated":1,
    "fabrics":1,
    "material":1,
    "bartender":1,
    "burly":1,
    "40s":1,
    "cleaning":1,
    "couple":1,
    "49":1,
    "overweight":1,
    "slicked":1,
    "hair":1,
    "gaudy":1,
    "ring":1,
    "22":1,
    "buxom":1,
    "boredlooking":1,
    "blonde":1,
    "brandishing":1,
    "bring":1,
    "baked":1,
    "hot":1,
    "mustard":1,
    "process":1,
    "gives":1,
    "creeps":1,
    "wish":1,
    "hed":1,
    "sock":1,
    "downs":1,
    "remainder":1,
    "sullenly":1,
    "swimming":1,
    "beach":1,
    "ah":1,
    "tone":1,
    "change":1,
    "boring":1,
    "footprint":1,
    "under":1,
    "chump":1,
    "scans":1,
    "littered":1,
    "times":1,
    "rubbing":1,
    "elbows":1,
    "royalty":1,
    "sheiks":1,
    "envied":1,
    "tee":1,
    "sea":1,
    "tranquillity":1,
    "shore":1,
    "prick":1,
    "hank":1,
    "drexler":1,
    "blankly":1,
    "club":1,
    "pan":1,
    "array":1,
    "blinking":1,
    "controls":1,
    "goodlooking":1,
    "examining":1,
    "distinguishedlooking":1,
    "fifties":1,
    "hows":1,
    "finishing":1,
    "normal":1,
    "starboard":1,
    "suite":1,
    "b":1,
    "relocated":1,
    "seem":1,
    "upset":1,
    "alex":1,
    "fault":1,
    "eat":1,
    "grain":1,
    "salt":1,
    "machinery":1,
    "figures":1,
    "shes":1,
    "paying":1,
    "headed":1,
    "leaves":1,
    "present":1,
    "show":1,
    "mile":1,
    "sounds":1,
    "developing":1,
    "crush":1,
    "notify":1,
    "shuffling":1,
    "forth":1,
    "traveling":1,
    "coach":1,
    "dials":1,
    "phone":1,
    "slows":1,
    "reluctantly":1,
    "sensually":1,
    "inkoros":1,
    "grandfather":1,
    "fan":1,
    "deadly":1,
    "gamble":1,
    "brings":1,
    "pleasure":1,
    "upcoming":1,
    "project":1,
    "trackers":1,
    "play":1,
    "outer":1,
    "add":1,
    "credibility":1,
    "performance":1,
    "neighbors":1,
    "nice":1,
    "meeting":1,
    "rest":1,
    "vanish":1,
    "personally":1,
    "circuitry":1,
    "methodically":1,
    "length":1,
    "contains":1,
    "dense":1,
    "white":1,
    "cube":1,
    "surrounded":1,
    "onscreen":1,
    "comes":1,
    "confirme":1,
    "strange":1,
    "confirmed":1,
    "reset":1,
    "certain":1,
    "trust":1,
    "checked":1,
    "em":1,
    "own":1,
    "shot":1,
    "resets":1,
    "murphy":1,
    "shake":1,
    "research":1,
    "grant":1,
    "theoretical":1,
    "discoveries":1,
    "aside":1,
    "commercial":1,
    "satellite":1,
    "freighters":1,
    "fast":1,
    "challenge":1,
    "million":1,
    "dollars":1,
    "worth":1,
    "cost":1,
    "due":1,
    "reasons":1,
    "familiar":1,
    "travel":1,
    "precautions":1,
    "event":1,
    "usually":1,
    "sometimes":1,
    "kindergarten":1,
    "teacher":1,
    "logged":1,
    "200":1,
    "institute":1,
    "mostly":1,
    "related":1,
    "starship":1,
    "stick":1,
    "dealing":1,
    "trained":1,
    "disgust":1,
    "desolate":1,
    "moves":1,
    "folds":1,
    "thisjesus":1,
    "buys":1,
    "six":1,
    "deal":1,
    "snapping":1,
    "fingers":1,
    "haul":1,
    "nine":1,
    "meet":1,
    "interesting":1,
    "groups":1,
    "individuals":1,
    "amongst":1,
    "tables":1,
    "posh":1,
    "capt":1,
    "forkful":1,
    "mild":1,
    "mannered":1,
    "waiter":1,
    "pour":1,
    "glassful":1,
    "fill":1,
    "brim":1,
    "care":1,
    "wealthy":1,
    "arab":1,
    "peripherally":1,
    "ogles":1,
    "cleavage":1,
    "noi":1,
    "carrots":1,
    "turning":1,
    "purple":1,
    "match":1,
    "dress":1,
    "kidding":1,
    "wipes":1,
    "napkin":1,
    "nowhere":1,
    "props":1,
    "eye":1,
    "drinks":1,
    "jarvis":1,
    "ways":1,
    "living":1,
    "interactive":1,
    "instructional":1,
    "disc":1,
    "bo":1,
    "wore":1,
    "met":1,
    "discs":1,
    "magazine":1,
    "married":1,
    "wasnt":1,
    "bet":1,
    "hygiene":1,
    "important":1,
    "helps":1,
    "inaudible":1,
    "ladies":1,
    "quieter":1,
    "voices":1,
    "yawns":1,
    "pun":1,
    "intended":1,
    "hotel":1,
    "january":1,
    "steady":1,
    "benefits":1,
    "gotta":1,
    "age":1,
    "pragmatic":1,
    "hungry":1,
    "steward":1,
    "nah":1,
    "ate":1,
    "lonesome":1,
    "gestures":1,
    "consoles":1,
    "hardly":1,
    "crouches":1,
    "underneath":1,
    "sliding":1,
    "surveys":1,
    "evening":1,
    "shaking":1,
    "stationed":1,
    "jeezhall":1,
    "offscreen":1,
    "feverishly":1,
    "keyboard":1,
    "reading":1,
    "location":1,
    "members":1,
    "starting":1,
    "located":1,
    "nighty":1,
    "house":1,
    "pin":1,
    "jacket":1,
    "hanging":1,
    "hanger":1,
    "bathrobe":1,
    "book":1,
    "pauses":1,
    "breaking":1,
    "eggs":1,
    "60":1,
    "spots":1,
    "hybrid":1,
    "linked":1,
    "main":1,
    "storms":1,
    "mine":1,
    "lost":1,
    "sensitive":1,
    "counts":1,
    "meaning":1,
    "silenced":1,
    "appearing":1,
    "blam":1,
    "bullet":1,
    "chest":1,
    "collapses":1,
    "killing":1,
    "cooks":1,
    "screaming":1,
    "vain":1,
    "fights":1,
    "bearings":1,
    "runs":1,
    "scramble":1,
    "burst":1,
    "spews":1,
    "toxic":1,
    "clawing":1,
    "scattered":1,
    "explosions":1,
    "occur":1,
    "severely":1,
    "disabled":1,
    "craft":1,
    "drifts":1,
    "erratically":1,
    "moaning":1,
    "groaning":1,
    "throughout":1,
    "surveying":1,
    "hunched":1,
    "coughing":1,
    "taps":1,
    "bangs":1,
    "faintly":1,
    "sloppy":1,
    "sounding":1,
    "wide":1,
    "hurtling":1,
    "thems":1,
    "apprehensively":1,
    "asking":1,
    "offline":1,
    "valued":1,
    "prudent":1,
    "juncture":1,
    "worried":1,
    "flipped":1,
    "wig":1,
    "mike":1,
    "emphatic":1,
    "weave":1,
    "making":1,
    "history":1,
    "support":1,
    "36":1,
    "neednt":1,
    "jettisoned":1,
    "save":1,
    "react":1,
    "businessmen":1,
    "common":1,
    "rule":1,
    "payment":1,
    "services":1,
    "rendered":1,
    "lucky":1,
    "rescue":1,
    "team":1,
    "exchange":1,
    "rollers":1,
    "return":1,
    "personal":1,
    "account":1,
    "completed":1,
    "alarm":1,
    "pure":1,
    "nonnegotiable":1,
    "track":1,
    "heartbeat":1,
    "concern":1,
    "problems":1,
    "record":1,
    "trail":1,
    "exist":1,
    "faith":1,
    "means":1,
    "survival":1,
    "detect":1,
    "upon":1,
    "vessel":1,
    "reenter":1,
    "unnoticed":1,
    "deregulation":1,
    "decision":1,
    "fifteen":1,
    "minutes":1,
    "organize":1,
    "delay":1,
    "sign":1,
    "rejected":1,
    "rescinded":1,
    "tells":1,
    "bluffing":1,
    "attempt":1,
    "futile":1,
    "laser":1,
    "torch":1,
    "budge":1,
    "bitchthat":1,
    "stupid":1,
    "probably":1,
    "steak":1,
    "knife":1,
    "corkscrew":1,
    "considering":1,
    "anyhow":1,
    "nervously":1,
    "cigarette":1,
    "inconvenience":1,
    "outta":1,
    "backs":1,
    "supposed":1,
    "clout":1,
    "whacked":1,
    "himjesus":1,
    "places":1,
    "guest":1,
    "giving":1,
    "password":1,
    "approach":1,
    "asks":1,
    "lady":1,
    "cracker":1,
    "nuts":1,
    "afford":1,
    "wants":1,
    "bargain":1,
    "bullshit":1,
    "death":1,
    "losing":1,
    "greedy":1,
    "rummy":1,
    "scuffle":1,
    "briefly":1,
    "being":1,
    "separated":1,
    "receiving":1,
    "comments":1,
    "expletives":1,
    "higher":1,
    "usual":1,
    "decibel":1,
    "supposing":1,
    "depends":1,
    "locks":1,
    "possible":1,
    "entry":1,
    "interface":1,
    "able":1,
    "totally":1,
    "break":1,
    "cooperating":1,
    "drag":1,
    "link":1,
    "orbit":1,
    "less":1,
    "bill":1,
    "plan":1,
    "hangar":1,
    "nicely":1,
    "bit":1,
    "difference":1,
    "cut":1,
    "disconnects":1,
    "message":1,
    "lying":1,
    "bloody":1,
    "robe":1,
    "pulls":1,
    "smells":1,
    "wets":1,
    "tip":1,
    "shame":1,
    "waste":1,
    "corona":1,
    "removes":1,
    "computerized":1,
    "menu":1,
    "restaurant":1,
    "writing":1,
    "everyones":1,
    "wallmounted":1,
    "receive":1,
    "preferably":1,
    "tens":1,
    "twenties":1,
    "joke":1,
    "lighten":1,
    "trustworthy":1,
    "nowadays":1,
    "holds":1,
    "listing":1,
    "nest":1,
    "names":1,
    "examines":1,
    "entering":1,
    "reads":1,
    "connecting":1,
    "netbank":1,
    "complies":1,
    "standard":1,
    "favor":1,
    "technical":1,
    "working":1,
    "knowledge":1,
    "operations":1,
    "connect":1,
    "necessary":1,
    "simply":1,
    "speak":1,
    "languages":1,
    "fluently":1,
    "bind":1,
    "waits":1,
    "saying":1,
    "requesting":1,
    "reduce":1,
    "priorities":1,
    "left":1,
    "appear":1,
    "deposit":1,
    "wonderful":1,
    "glare":1,
    "focus":1,
    "sorry":1,
    "nonoxygenated":1,
    "atmosphere":1,
    "limits":1,
    "depending":1,
    "debriscould":1,
    "fatal":1,
    "unless":1,
    "retrieve":1,
    "smashes":1,
    "picking":1,
    "steel":1,
    "polite":1,
    "recommend":1,
    "sector":1,
    "safe":1,
    "human":1,
    "transport":1,
    "affirmative":1,
    "automatically":1,
    "manually":1,
    "jutting":1,
    "punched":1,
    "cable":1,
    "touches":1,
    "surge":1,
    "electricity":1,
    "hears":1,
    "loud":1,
    "crackle":1,
    "emit":1,
    "blasted":1,
    "against":1,
    "review":1,
    "previous":1,
    "finishes":1,
    "tallying":1,
    "transferred":1,
    "grand":1,
    "36842200632":1,
    "puff":1,
    "days":1,
    "bell":1,
    "indicating":1,
    "someone":1,
    "trying":1,
    "aiming":1,
    "weapon":1,
    "instructed":1,
    "pally":1,
    "load":1,
    "shorted":1,
    "impressed":1,
    "pass":1,
    "restricted":1,
    "areas":1,
    "sensing":1,
    "revels":1,
    "encounter":1,
    "werent":1,
    "functioning":1,
    "properly":1,
    "fades":1,
    "awaiting":1,
    "dutyto":1,
    "communicating":1,
    "stopped":1,
    "responding":1,
    "arent":1,
    "disbelief":1,
    "sending":1,
    "recon":1,
    "pathetic":1,
    "blew":1,
    "fuses":1,
    "drunk":1,
    "partying":1,
    "gave":1,
    "asked":1,
    "smart":1,
    "maverick":1,
    "anyway":1,
    "kill":1,
    "innocent":1,
    "diatribe":1,
    "haves":1,
    "havenots":1,
    "period":1,
    "followed":1,
    "directions":1,
    "adjusts":1,
    "unfortunately":1,
    "closing":1,
    "generous":1,
    "contributions":1,
    "flying":1,
    "respond":1,
    "sunken":1,
    "throws":1,
    "mock":1,
    "seriousness":1,
    "earned":1,
    "mywings":1,
    "frankly":1,
    "levelof":1,
    "intend":1,
    "correct":1,
    "arm":1,
    "spaceship":1,
    "shoots":1,
    "flies":1,
    "arms":1,
    "akimbo":1,
    "ridiculous":1,
    "howls":1,
    "bending":1,
    "slapping":1,
    "laughing":1,
    "harder":1,
    "shouting":1,
    "flipping":1,
    "ascending":1,
    "begin":1,
    "occupants":1,
    "shutting":1,
    "stinking":1,
    "flings":1,
    "smasssshhhhh":1,
    "shatters":1,
    "blank":1,
    "scared":1,
    "playing":1,
    "slim":1,
    "maximum":1,
    "capacity":1,
    "adults":1,
    "eight":1,
    "cram":1,
    "glares":1,
    "fuel":1,
    "mass":1,
    "risky":1,
    "letting":1,
    "training":1,
    "assistance":1,
    "rather":1,
    "crackpot":1,
    "genius":1,
    "quite":1,
    "napoleon":1,
    "chief":1,
    "spend":1,
    "final":1,
    "listening":1,
    "strewn":1,
    "collapsed":1,
    "ceiling":1,
    "panels":1,
    "deep":1,
    "ever":1,
    "lock":1,
    "release":1,
    "goes":1,
    "swoosh":1,
    "pressurized":1,
    "recessed":1,
    "whatsoever":1,
    "anchor":1,
    "slam":1,
    "dangerously":1,
    "leading":1,
    "dear":1,
    "contorting":1,
    "lack":1,
    "brutal":1,
    "containing":1,
    "frost":1,
    "form":1,
    "forearm":1,
    "closely":1,
    "despondently":1,
    "paces":1,
    "somethings":1,
    "contempt":1,
    "forgot":1,
    "morphine":1,
    "fact":1,
    "peruses":1,
    "whole":1,
    "plenty":1,
    "selects":1,
    "intact":1,
    "pressure":1,
    "vents":1,
    "section":1,
    "scrutinizes":1,
    "direction":1,
    "chunk":1,
    "duds":1,
    "luckily":1,
    "psychotic":1,
    "optimist":1,
    "nature":1,
    "continue":1,
    "concentrate":1,
    "longer":1,
    "words":1,
    "laptop":1,
    "three":1,
    "levels":1,
    "moderate":1,
    "1":1,
    "extensive":1,
    "2":1,
    "crackles":1,
    "emits":1,
    "keeps":1,
    "checking":1,
    "security":1,
    "exploring":1,
    "cool":1,
    "jetsim":1,
    "widen":1,
    "approaching":1,
    "front":1,
    "lever":1,
    "until":1,
    "notice":1,
    "throttles":1,
    "roar":1,
    "engines":1,
    "booster":1,
    "kick":1,
    "force":1,
    "lurches":1,
    "loses":1,
    "grip":1,
    "cause":1,
    "miss":1,
    "cracks":1,
    "warrens":1,
    "crude":1,
    "imitation":1,
    "cheese":1,
    "puffs":1,
    "perhaps":1,
    "laugh":1,
    "drunkenly":1,
    "perfectly":1,
    "serious":1,
    "satisfy":1,
    "annas":1,
    "seductively":1,
    "lust":1,
    "partner":1,
    "gasps":1,
    "contorted":1,
    "poison":1,
    "hydraulic":1,
    "blown":1,
    "auxiliary":1,
    "schematic":1,
    "lifeline":1,
    "lower":1,
    "decks":1,
    "bulkhead":1,
    "adjacent":1,
    "points":1,
    "map":1,
    "rip":1,
    "attach":1,
    "self":1,
    "igniting":1,
    "short":1,
    "tiny":1,
    "dabll":1,
    "dumbstruck":1,
    "escape":1,
    "issue":1,
    "focused":1,
    "unravel":1,
    "top":1,
    "leads":1,
    "decided":1,
    "cute":1,
    "teaching":1,
    "glory":1,
    "completely":1,
    "altered":1,
    "linking":1,
    "changing":1,
    "tripped":1,
    "dudley":1,
    "doright":1,
    "motherfuckers":1,
    "mens":1,
    "agitated":1,
    "stand":1,
    "anymore":1,
    "stomach":1,
    "cries":1,
    "together":1,
    "while":1,
    "weeps":1,
    "inconsolably":1,
    "drapes":1,
    "both":1,
    "sara":1,
    "marked":1,
    "feels":1,
    "response":1,
    "navigate":1,
    "ahead":1,
    "distance":1,
    "light":1,
    "teach":1,
    "steams":1,
    "onions":1,
    "chappy":1,
    "gingerly":1,
    "visible":1,
    "struggling":1,
    "bites":1,
    "lip":1,
    "major":1,
    "picture":1,
    "regroup":1,
    "whoever":1,
    "extending":1,
    "pick":1,
    "accordingly":1,
    "meantime":1,
    "sheesh":1,
    "capn":1,
    "unconscious":1,
    "oknow":1,
    "whatever":1,
    "panic":1,
    "best":1,
    "shuts":1,
    "reflects":1,
    "destroyed":1,
    "goesnothing":1,
    "eyesthen":1,
    "boom":1,
    "huge":1,
    "tears":1,
    "gigantic":1,
    "scatters":1,
    "everywhere":1,
    "shields":1,
    "herself":1,
    "smashing":1,
    "races":1,
    "stunned":1,
    "clears":1,
    "enormous":1,
    "counter":1,
    "jaw":1,
    "drops":1,
    "roll":1,
    "stark":1,
    "naked":1,
    "fumble":1,
    "clothes":1,
    "explain":1,
    "wheres":1,
    "missing":1,
    "hastily":1,
    "group":1,
    "files":1,
    "better":2,
    "world":2,
    "free":2,
    "reminder":2,
    "fabulous":2,
    "cuisine":2,
    "available":2,
    "24":2,
    "large":2,
    "rich":2,
    "sitting":2,
    "somewhat":2,
    "request":2,
    "calling":2,
    "name":2,
    "already":2,
    "least":2,
    "lie":2,
    "always":2,
    "different":2,
    "beautiful":2,
    "oil":2,
    "class":2,
    "sip":2,
    "sensors":2,
    "seated":2,
    "30s":2,
    "diagnostic":2,
    "zero":2,
    "gravity":2,
    "realize":2,
    "truth":2,
    "gentlemen":2,
    "stretches":2,
    "extra":2,
    "maam":2,
    "watching":2,
    "near":2,
    "careful":2,
    "extends":2,
    "yours":2,
    "appreciate":2,
    "exit":2,
    "staying":2,
    "slams":2,
    "quickly":2,
    "tools":2,
    "metal":2,
    "case":2,
    "pocket":2,
    "series":2,
    "attached":2,
    "plastic":2,
    "black":2,
    "command":2,
    "fail":2,
    "mode":2,
    "hit":2,
    "eyes":2,
    "presses":2,
    "welcome":2,
    "aboard":2,
    "real":2,
    "flight":2,
    "new":2,
    "careless":2,
    "actually":2,
    "simulated":2,
    "behave":2,
    "entire":2,
    "buy":2,
    "welli":2,
    "months":2,
    "enough":2,
    "years":2,
    "power":2,
    "start":2,
    "bug":2,
    "various":2,
    "shoves":2,
    "food":2,
    "mouth":2,
    "proceeds":2,
    "picks":2,
    "though":2,
    "love":2,
    "scene":2,
    "pamela":2,
    "worse":2,
    "day":2,
    "professional":2,
    "talks":2,
    "din":2,
    "stands":2,
    "turn":2,
    "die":2,
    "behalf":2,
    "myself":2,
    "everythings":2,
    "point":2,
    "shuttle":2,
    "handle":2,
    "surprise":2,
    "currently":2,
    "duty":2,
    "highlights":2,
    "indicates":2,
    "taylors":2,
    "lowers":2,
    "himself":2,
    "countdown":2,
    "late":2,
    "answer":2,
    "incredulously":2,
    "equipment":2,
    "staring":2,
    "agenda":2,
    "staggers":2,
    "rapidly":2,
    "explosion":2,
    "pipe":2,
    "gas":2,
    "struggle":2,
    "breathe":2,
    "void":2,
    "darkened":2,
    "smoky":2,
    "addresses":2,
    "communicator":2,
    "hello":2,
    "device":2,
    "intercom":2,
    "fist":2,
    "anyone":2,
    "minute":2,
    "speaks":2,
    "microphone":2,
    "apologize":2,
    "breaks":2,
    "override":2,
    "afraid":2,
    "move":2,
    "straight":2,
    "sense":2,
    "lifepods":2,
    "advise":2,
    "finish":2,
    "whos":2,
    "patience":2,
    "given":2,
    "bank":2,
    "transfer":2,
    "simple":2,
    "cooperate":2,
    "offer":2,
    "suicide":2,
    "matter":2,
    "guarantee":2,
    "smiling":2,
    "sealed":2,
    "these":2,
    "wouldnt":2,
    "options":2,
    "couldnt":2,
    "ya":2,
    "nearby":2,
    "shit":2,
    "happened":2,
    "pig":2,
    "violently":2,
    "charges":2,
    "negative":2,
    "feedback":2,
    "many":2,
    "outside":2,
    "choice":2,
    "reach":2,
    "mainframe":2,
    "screwed":2,
    "seems":2,
    "hopefully":2,
    "trajectory":2,
    "remember":2,
    "havent":2,
    "made":2,
    "yet":2,
    "104":2,
    "buddy":2,
    "cables":2,
    "finished":2,
    "verifying":2,
    "passengers":2,
    "number":2,
    "great":2,
    "full":2,
    "macs":2,
    "wire":2,
    "cpu":2,
    "alteration":2,
    "central":2,
    "processing":2,
    "unit":2,
    "authorized":2,
    "dealer":2,
    "thought":2,
    "views":2,
    "screw":2,
    "accessed":2,
    "suits":2,
    "thinks":2,
    "raises":2,
    "legs":2,
    "hall":2,
    "maintenance":2,
    "find":2,
    "cues":2,
    "experienced":2,
    "errori":2,
    "total":2,
    "swings":2,
    "waiting":2,
    "monitors":2,
    "laughs":2,
    "robot":2,
    "order":2,
    "isnt":2,
    "complex":2,
    "step":2,
    "bye":2,
    "wings":2,
    "entrance":2,
    "disappears":2,
    "lousy":2,
    "lifepod":2,
    "seven":2,
    "oxygen":2,
    "facing":2,
    "crazy":2,
    "sick":2,
    "debris":2,
    "blasts":2,
    "filled":2,
    "themselves":2,
    "gaping":2,
    "railing":2,
    "cold":2,
    "follows":2,
    "bottles":2,
    "pouch":2,
    "bastard":2,
    "advice":2,
    "smoke":2,
    "when":2,
    "grab":2,
    "home":2,
    "subsides":2,
    "blow":2,
    "climbs":2,
    "drawers":2,
    "shoulders":2,
    "lesson":2,
    "blaze":2,
    "coordinates":2,
    "hard":2,
    "easy":2,
    "warm":2,
    "hugs":2,
    "emerges":2,
    "grate":2,
    "goddamn":2,
    "aye":2,
    "spins":2,
    "sooner":2,
    "later":2,
    "bathroom":2,
    "view":3,
    "enjoy":3,
    "lounge":3,
    "glasses":3,
    "glass":3,
    "notices":3,
    "nassau":3,
    "believe":3,
    "friends":3,
    "baby":3,
    "besides":3,
    "wait":3,
    "guy":3,
    "telling":3,
    "deck":3,
    "weve":3,
    "fun":3,
    "sophisticated":3,
    "aint":3,
    "engineering":3,
    "sir":3,
    "run":3,
    "exits":3,
    "theyll":3,
    "men":3,
    "window":3,
    "excuse":3,
    "magnificent":3,
    "cruise":3,
    "experience":3,
    "porters":3,
    "set":3,
    "status":3,
    "old":3,
    "kind":3,
    "works":3,
    "taking":3,
    "explosive":3,
    "last":3,
    "mistake":3,
    "enters":3,
    "hands":3,
    "used":3,
    "lifetime":3,
    "most":3,
    "safety":3,
    "happening":3,
    "construction":3,
    "tablecloth":3,
    "money":3,
    "ass":3,
    "mind":3,
    "long":3,
    "dressed":3,
    "carefully":3,
    "leave":3,
    "corner":3,
    "directly":3,
    "having":3,
    "side":3,
    "came":3,
    "says":3,
    "opening":3,
    "officer":3,
    "area":3,
    "without":3,
    "gun":3,
    "engine":3,
    "several":3,
    "engineers":3,
    "heard":3,
    "willing":3,
    "equation":3,
    "authorization":3,
    "every":3,
    "fat":3,
    "reentry":3,
    "information":3,
    "further":3,
    "showing":3,
    "inspects":3,
    "use":3,
    "control":3,
    "dead":3,
    "access":3,
    "risk":3,
    "keep":3,
    "steps":3,
    "lose":3,
    "stop":3,
    "crap":3,
    "write":3,
    "exterior":3,
    "cigar":3,
    "lens":3,
    "seen":3,
    "channel":3,
    "10":3,
    "compartment":3,
    "report":3,
    "reels":3,
    "critical":3,
    "orders":3,
    "lockers":3,
    "happen":3,
    "fuse":3,
    "counting":3,
    "vent":3,
    "clear":3,
    "help":4,
    "enjoying":4,
    "been":4,
    "ask":4,
    "miles":4,
    "things":4,
    "gone":4,
    "moon":4,
    "wanted":4,
    "everyone":4,
    "soon":4,
    "everything":4,
    "checks":4,
    "second":4,
    "youve":4,
    "attention":4,
    "theyre":4,
    "koros":4,
    "shakes":4,
    "god":4,
    "business":4,
    "huh":4,
    "smile":4,
    "appears":4,
    "continues":4,
    "running":4,
    "pods":4,
    "faces":4,
    "walking":4,
    "lot":4,
    "problem":4,
    "sit":4,
    "send":4,
    "nods":4,
    "listens":4,
    "part":4,
    "crew":4,
    "leans":4,
    "call":4,
    "closes":4,
    "list":4,
    "diagram":4,
    "question":4,
    "system":4,
    "shut":4,
    "onto":4,
    "rushes":4,
    "condition":4,
    "closer":4,
    "news":4,
    "or":4,
    "because":4,
    "try":4,
    "provide":4,
    "live":4,
    "paper":4,
    "sound":4,
    "reaches":4,
    "son":4,
    "bitch":4,
    "suppose":4,
    "lets":4,
    "calm":4,
    "compartments":4,
    "ground":4,
    "slowly":4,
    "breath":4,
    "damaged":4,
    "does":4,
    "grabs":4,
    "dissatisfaction":4,
    "laughter":4,
    "switch":4,
    "struggles":4,
    "makes":4,
    "pov":4,
    "ive":5,
    "told":5,
    "bar":5,
    "hope":5,
    "drink":5,
    "mate":5,
    "ryan":5,
    "must":5,
    "done":5,
    "enter":5,
    "uh":5,
    "course":5,
    "again":5,
    "small":5,
    "pod":5,
    "commands":5,
    "button":5,
    "said":5,
    "would":5,
    "head":5,
    "wont":5,
    "sits":5,
    "wine":5,
    "bottle":5,
    "conversation":5,
    "doing":5,
    "computer":5,
    "passenger":5,
    "hits":5,
    "which":5,
    "damage":5,
    "wrist":5,
    "transmit":5,
    "3":5,
    "might":5,
    "follow":5,
    "lights":5,
    "pilot":5,
    "stay":5,
    "ready":5,
    "has":5,
    "far":5,
    "shaft":5,
    "feel":6,
    "hours":6,
    "man":6,
    "table":6,
    "across":6,
    "certainly":6,
    "puts":6,
    "any":6,
    "youll":6,
    "first":6,
    "looking":6,
    "doesnt":6,
    "toward":6,
    "camera":6,
    "before":6,
    "life":6,
    "got":6,
    "let":6,
    "piece":6,
    "after":6,
    "end":6,
    "next":6,
    "bad":6,
    "work":6,
    "thanks":6,
    "rips":6,
    "doors":6,
    "talk":6,
    "hurry":6,
    "high":6,
    "service":6,
    "hold":6,
    "princess":6,
    "gonna":6,
    "suddenly":6,
    "hole":6,
    "please":7,
    "fine":7,
    "listen":7,
    "once":7,
    "say":7,
    "ships":7,
    "didnt":7,
    "talking":7,
    "star":7,
    "very":7,
    "even":7,
    "their":7,
    "chance":7,
    "few":7,
    "had":7,
    "maybe":7,
    "ext":7,
    "codes":7,
    "c4":7,
    "distress":7,
    "thank":8,
    "than":8,
    "those":8,
    "away":8,
    "should":8,
    "still":8,
    "guests":8,
    "watch":8,
    "screen":8,
    "really":8,
    "face":8,
    "thing":8,
    "ok":8,
    "airlock":8,
    "worry":8,
    "watches":8,
    "chair":8,
    "id":8,
    "understand":8,
    "code":8,
    "emergency":8,
    "signal":8,
    "damn":8,
    "storage":8,
    "flare":8,
    "our":9,
    "trip":9,
    "behind":9,
    "where":9,
    "put":9,
    "who":9,
    "people":9,
    "good":9,
    "check":9,
    "wayne":9,
    "am":9,
    "nothing":9,
    "getting":9,
    "give":9,
    "air":9,
    "whats":9,
    "another":9,
    "hear":9,
    "level":9,
    "hand":10,
    "stares":10,
    "only":10,
    "hes":10,
    "each":10,
    "opens":10,
    "make":10,
    "smiles":11,
    "more":11,
    "little":11,
    "two":11,
    "takes":11,
    "captain":11,
    "much":11,
    "panel":11,
    "begins":11,
    "see":12,
    "walks":12,
    "oh":12,
    "guess":12,
    "console":12,
    "time":12,
    "space":12,
    "sees":12,
    "need":13,
    "turns":13,
    "into":13,
    "gets":13,
    "come":13,
    "suit":13,
    "way":14,
    "us":14,
    "could":14,
    "hell":14,
    "cant":14,
    "was":14,
    "yes":14,
    "too":14,
    "hallway":14,
    "open":14,
    "through":14,
    "walkie":14,
    "no":15,
    "heads":15,
    "something":15,
    "monitor":15,
    "did":15,
    "off":16,
    "by":16,
    "she":16,
    "sure":16,
    "theres":17,
    "if":17,
    "like":17,
    "think":17,
    "wall":17,
    "others":17,
    "ship":18,
    "they":18,
    "were":18,
    "tell":18,
    "why":18,
    "close":18,
    "an":19,
    "take":19,
    "other":19,
    "want":19,
    "back":20,
    "yeah":20,
    "go":20,
    "beat":20,
    "monica":21,
    "how":21,
    "thats":21,
    "some":22,
    "them":22,
    "but":22,
    "right":22,
    "anything":23,
    "there":24,
    "will":24,
    "youre":24,
    "around":24,
    "anna":24,
    "carlo":25,
    "him":26,
    "now":26,
    "its":26,
    "one":26,
    "warren":26,
    "look":27,
    "not":27,
    "over":27,
    "reynolds":28,
    "so":30,
    "here":30,
    "from":30,
    "ill":30,
    "know":31,
    "about":31,
    "as":31,
    "dining":31,
    "door":32,
    "going":33,
    "your":34,
    "my":34,
    "down":34,
    "approaches":36,
    "can":38,
    "her":38,
    "all":38,
    "jack":39,
    "are":39,
    "get":40,
    "just":43,
    "bridge":43,
    "do":46,
    "out":47,
    "well":48,
    "have":48,
    "im":48,
    "be":48,
    "up":51,
    "this":53,
    "with":54,
    "me":54,
    "his":54,
    "what":55,
    "we":57,
    "delbert":57,
    "dont":57,
    "that":60,
    "for":65,
    "int":67,
    "is":68,
    "he":68,
    "night":70,
    "room":74,
    "then":74,
    "mac":76,
    "in":78,
    "looks":87,
    "dawn":91,
    "on":102,
    "it":102,
    "barnes":113,
    "at":124,
    "of":148,
    "i":173,
    "and":176,
    "":183,
    "taylor":193,
    "you":198,
    "a":228,
    "to":278,
    "the":493
}