{
    "slow":1,
    "motion":1,
    "tracking":1,
    "hitting":1,
    "polished":1,
    "closeup":1,
    "milky":1,
    "surface":1,
    "opposite":1,
    "sides":1,
    "rumbling":1,
    "furious":1,
    "hulking":1,
    "steamroller":1,
    "doom":1,
    "tremble":1,
    "transform":1,
    "bridal":1,
    "burst":1,
    "blasts":1,
    "metamorphoses":1,
    "flaming":1,
    "fly":1,
    "slowmotion":1,
    "distant":1,
    "sound":1,
    "smoke":1,
    "sky":1,
    "water":1,
    "dual":1,
    "hisses":1,
    "addict":1,
    "fellah":1,
    "league":1,
    "drag":1,
    "coconut":1,
    "use":1,
    "fazelii":1,
    "unfinished":1,
    "weight":1,
    "downstairs":1,
    "provide":1,
    "extracurricular":1,
    "senior":1,
    "citizens":1,
    "steal":1,
    "aagh":1,
    "pal":1,
    "maples":1,
    "sids":1,
    "cradles":1,
    "damaged":1,
    "since":1,
    "69":1,
    "belonged":1,
    "frisk":1,
    "wide":1,
    "parade":1,
    "clam":1,
    "rat":1,
    "cmere":1,
    "jerk":1,
    "upandcomer":1,
    "thorn":1,
    "worry":1,
    "bunch":1,
    "moralistic":1,
    "busybodies":1,
    "whyd":1,
    "suspend":1,
    "fault":1,
    "hereby":1,
    "suspends":1,
    "within":1,
    "jurisdiction":1,
    "international":1,
    "co":1,
    "signers":1,
    "mashes":1,
    "smirking":1,
    "causing":1,
    "snap":1,
    "forward":1,
    "judges":1,
    "gavel":1,
    "bangs":1,
    "roars":1,
    "cocky":1,
    "appeal":1,
    "sanction":1,
    "fat":1,
    "bald":1,
    "thirsty":1,
    "looked":1,
    "pictures":1,
    "clippings":1,
    "maps":1,
    "killing":1,
    "finals":1,
    "59":1,
    "final":1,
    "vandemark":1,
    "thousand":1,
    "toughest":1,
    "game":1,
    "irony":1,
    "thirty":1,
    "seniors":1,
    "docs":1,
    "account":1,
    "ticker":1,
    "tray":1,
    "untainted":1,
    "glass":1,
    "sofa":1,
    "growling":1,
    "tugging":1,
    "rips":1,
    "brings":1,
    "drink":1,
    "across":1,
    "lucky":1,
    "bullet":1,
    "whered":1,
    "sent":1,
    "gestures":1,
    "must":1,
    "1963":1,
    "bullshit":1,
    "artist":1,
    "yanks":1,
    "trophy":1,
    "baby":1,
    "241":1,
    "15":1,
    "hours":1,
    "20":1,
    "minutes":1,
    "alfie":1,
    "shuffles":1,
    "selfserve":1,
    "island":1,
    "wiping":1,
    "affix":1,
    "spilling":1,
    "hmmm":1,
    "relations":1,
    "sign":1,
    "letting":1,
    "load":1,
    "suitcases":1,
    "trunk":1,
    "anybody":1,
    "careful":1,
    "strange":1,
    "fart":1,
    "sisters":1,
    "sunglasses":1,
    "cloud":1,
    "gravel":1,
    "dust":1,
    "busted":1,
    "oranges":1,
    "anytime":1,
    "slides":1,
    "pot":1,
    "joe":1,
    "extra":1,
    "muddy":1,
    "sleep":1,
    "zee":1,
    "fills":1,
    "lifts":1,
    "vacation":1,
    "sight":1,
    "enters":1,
    "mixer":1,
    "nowhere":1,
    "upset":1,
    "grumpily":1,
    "nellie":1,
    "orders":1,
    "cues":1,
    "introduced":1,
    "meetuh":1,
    "name":1,
    "whatll":1,
    "whipsorange":1,
    "number":1,
    "eggs":1,
    "prince":1,
    "believe":1,
    "kissed":1,
    "lotta":1,
    "tadpoles":1,
    "thinking":1,
    "level":1,
    "dimension":1,
    "bigger":1,
    "europe":1,
    "asia":1,
    "courses":1,
    "miniature":1,
    "golfs":1,
    "japanese":1,
    "food":1,
    "park":1,
    "wash":1,
    "chance":1,
    "fazs":1,
    "lunch":1,
    "plate":1,
    "bruddas":1,
    "tickles":1,
    "serious":1,
    "toldja":1,
    "resemblance":1,
    "clowns":1,
    "charismatic":1,
    "self":1,
    "today":1,
    "sticky":1,
    "till":1,
    "blurt":1,
    "tab":1,
    "jerks":1,
    "skedaddle":1,
    "rises":1,
    "haunt":1,
    "tip":1,
    "taking":1,
    "babylon":1,
    "answers":1,
    "splits":1,
    "lose":1,
    "yourselves":1,
    "weve":1,
    "scam":1,
    "brainstorm":1,
    "admit":1,
    "rotten":1,
    "idea":1,
    "scratch":1,
    "raises":1,
    "eyebrow":1,
    "buttons":1,
    "partnership":1,
    "delicate":1,
    "scales":1,
    "share":1,
    "wire":1,
    "perch":1,
    "motor":1,
    "squeals":1,
    "pathetically":1,
    "oops":1,
    "shoves":1,
    "sculpture":1,
    "crushes":1,
    "simple":1,
    "math":1,
    "plus":1,
    "equal":1,
    "square":1,
    "leg":1,
    "greetings":1,
    "gentlemen":1,
    "dentist":1,
    "bulb":1,
    "ladder":1,
    "money":1,
    "specialized":1,
    "entertainment":1,
    "crack":1,
    "draw":1,
    "attention":1,
    "weighing":1,
    "sixtynine":1,
    "pounds":1,
    "dominatrix":1,
    "teeny":1,
    "weenie":1,
    "terrible":1,
    "cheers":1,
    "masked":1,
    "duded":1,
    "combination":1,
    "cowhide":1,
    "western":1,
    "style":1,
    "sm":1,
    "cracks":1,
    "leers":1,
    "shy":1,
    "er":1,
    "tracks":1,
    "crashes":1,
    "choice":1,
    "aaay":1,
    "tux":1,
    "moron":1,
    "bowlings":1,
    "illegal":1,
    "ethical":1,
    "slaps":1,
    "deal":1,
    "asking":1,
    "bail":1,
    "pregnant":1,
    "coulda":1,
    "lotsa":1,
    "rushes":1,
    "struggle":1,
    "leap":1,
    "fray":1,
    "prying":1,
    "wrestle":1,
    "wall":1,
    "tiles":1,
    "laugh":1,
    "strung":1,
    "stinking":1,
    "punch":1,
    "taken":1,
    "waaaaaaaaah":1,
    "luna":1,
    "spooky":1,
    "rain":1,
    "typical":1,
    "block":1,
    "nah":1,
    "weird":1,
    "alleys":1,
    "prefer":1,
    "anyway":1,
    "respects":1,
    "boss":1,
    "slips":1,
    "hired":1,
    "rentathugs":1,
    "tabs":1,
    "tent":1,
    "weasels":1,
    "ripping":1,
    "came":1,
    "cracked":1,
    "slime":1,
    "proffered":1,
    "sticks":1,
    "youve":1,
    "pairs":1,
    "list":1,
    "lighter":1,
    "penelope":1,
    "tapes":1,
    "circuit":1,
    "running":1,
    "genuine":1,
    "imbalance":1,
    "glorias":1,
    "blisters":1,
    "worse":1,
    "gain":1,
    "ice":1,
    "chin":1,
    "oasis":1,
    "veryclean":1,
    "mrkastle":1,
    "violet":1,
    "bowlerina":1,
    "132":1,
    "154":1,
    "carmelita":1,
    "carmelitas":1,
    "pinfall":1,
    "133":1,
    "flat":1,
    "recent":1,
    "tournamentchamp":1,
    "darling":1,
    "builds":1,
    "loyalty":1,
    "team":1,
    "shell":1,
    "handsome":1,
    "profit":1,
    "investment":1,
    "aquarium":1,
    "sharks":1,
    "dirt":1,
    "guppies":1,
    "swim":1,
    "profits":1,
    "philanthropy":1,
    "beats":1,
    "pants":1,
    "setup":1,
    "springs":1,
    "leak":1,
    "earned":1,
    "early":1,
    "retirement":1,
    "losers":1,
    "renovate":1,
    "automate":1,
    "computerize":1,
    "monitors":1,
    "shows":1,
    "slowly":1,
    "barely":1,
    "key":1,
    "explode":1,
    "emphatic":1,
    "strike":1,
    "jumps":1,
    "joy":1,
    "competition":1,
    "amusement":1,
    "adapt":1,
    "breathe":1,
    "ambition":1,
    "alike":1,
    "ablowtorch":1,
    "pssshht":1,
    "kebabs":1,
    "fate":1,
    "washed":1,
    "doorstep":1,
    "influence":1,
    "mention":1,
    "minor":1,
    "dispensation":1,
    "screen":1,
    "broke":1,
    "glaze":1,
    "office":1,
    "dim":1,
    "watching":1,
    "child":1,
    "meat":1,
    "freezer":1,
    "motorbike":1,
    "technically":1,
    "bike":1,
    "person":1,
    "tough":1,
    "butt":1,
    "drawbacks":1,
    "escape":1,
    "susan":1,
    "jon":1,
    "suzanne":1,
    "jonathan":1,
    "sue":1,
    "welcomes":1,
    "howyadoin":1,
    "howzitgoin":1,
    "asks":1,
    "pilot":1,
    "meaning":1,
    "lambada":1,
    "freaks":1,
    "swear":1,
    "pi\u2013ata":1,
    "hadnt":1,
    "woulda":1,
    "snapped":1,
    "freak":1,
    "jokes":1,
    "few":1,
    "swingadelic":1,
    "toand":1,
    "quasimodo":1,
    "best":1,
    "twopeople":1,
    "lubricated":1,
    "bloodand":1,
    "onebut":1,
    "saying":1,
    "sideburns":1,
    "thigh":1,
    "ticklers":1,
    "rather":1,
    "girlfriend":1,
    "training":1,
    "present":1,
    "yours":1,
    "dates":1,
    "understands":1,
    "sessions":1,
    "realized":1,
    "sanest":1,
    "actually":1,
    "knows":1,
    "unfortunately":1,
    "slimey":1,
    "doublecrossing":1,
    "misbegotten":1,
    "twofaced":1,
    "mangy":1,
    "sonofa":1,
    "bitch":1,
    "bastard":1,
    "fuse":1,
    "became":1,
    "girls":1,
    "ballet":1,
    "stuffed":1,
    "throats":1,
    "understood":1,
    "seriously":1,
    "insulting":1,
    "fascinated":1,
    "re":1,
    "instated":1,
    "ha":1,
    "unless":1,
    "asked":1,
    "heres":1,
    "sake":1,
    "unbutton":1,
    "plants":1,
    "everyones":1,
    "beam":1,
    "crouched":1,
    "jr":1,
    "bleeding":1,
    "straitjacket":1,
    "torn":1,
    "cake":1,
    "shishkbob":1,
    "cringes":1,
    "happy":1,
    "ooooooohhh":1,
    "pure":1,
    "soall":1,
    "sings":1,
    "caruso":1,
    "pretends":1,
    "conduct":1,
    "la":1,
    "dalala":1,
    "drama":1,
    "music":1,
    "speak":1,
    "latin":1,
    "words":1,
    "tape":1,
    "player":1,
    "purpose":1,
    "clearance":1,
    "elvis":1,
    "kiddin":1,
    "incorruptible":1,
    "megalomillionaires":1,
    "gambling":1,
    "safe":1,
    "kids":1,
    "wholesome":1,
    "clean":1,
    "advantage":1,
    "evil":1,
    "spreading":1,
    "gigantic":1,
    "puss":1,
    "ridden":1,
    "canker":1,
    "sore":1,
    "core":1,
    "wait":1,
    "aria":1,
    "porcupine":1,
    "barnacle":1,
    "offer":1,
    "national":1,
    "television":1,
    "match":1,
    "spare":1,
    "crown":1,
    "threatening":1,
    "manner":1,
    "beaten":1,
    "named":1,
    "moment":1,
    "passes":1,
    "climbs":1,
    "runnin":1,
    "delrin":1,
    "aorta":1,
    "finished":1,
    "suits":1,
    "awhile":1,
    "binge":1,
    "bailed":1,
    "payment":1,
    "eligible":1,
    "wannabes":1,
    "amateur":1,
    "closer":1,
    "charge":1,
    "drive":1,
    "5":1,
    "dollar":1,
    "bill":1,
    "willing":1,
    "cast":1,
    "momentary":1,
    "relapse":1,
    "progress":1,
    "laughs":1,
    "faithful":1,
    "doggy":1,
    "loves":1,
    "appears":1,
    "driving":1,
    "hellfor":1,
    "immediately":1,
    "trains":1,
    "affair":1,
    "lowers":1,
    "hats":1,
    "ridiculous":1,
    "ssssh":1,
    "quiet":1,
    "onetwothree":1,
    "surprise":1,
    "either":1,
    "table":1,
    "settings":1,
    "jump":1,
    "shock":1,
    "sits":1,
    "impassively":1,
    "blank":1,
    "feeling":1,
    "crushed":1,
    "nerve":1,
    "endings":1,
    "stroking":1,
    "opens":1,
    "kebab":1,
    "hooks":1,
    "interested":1,
    "jealous":1,
    "prone":1,
    "violent":1,
    "outbursts":1,
    "depends":1,
    "using":1,
    "deviant":1,
    "purposes":1,
    "talking":1,
    "signed":1,
    "part":1,
    "ownership":1,
    "run":1,
    "lawyers":1,
    "deed":1,
    "bout":1,
    "riddle":1,
    "jyouandyourfriend":1,
    "fantastic":1,
    "same":1,
    "claw":1,
    "beams":1,
    "group":1,
    "threw":1,
    "warden":1,
    "blacked":1,
    "county":1,
    "giving":1,
    "electroshock":1,
    "breathing":1,
    "heavily":1,
    "nostrils":1,
    "flaring":1,
    "heads":1,
    "tarry":1,
    "tap":1,
    "spleen":1,
    "cleats":1,
    "cash":1,
    "hollow":1,
    "glances":1,
    "champ":1,
    "instructional":1,
    "videotape":1,
    "rambowl":1,
    "teaches":1,
    "power":1,
    "cover":1,
    "thrower":1,
    "cigar":1,
    "puff":1,
    "driveway":1,
    "fact":1,
    "shiny":1,
    "holds":1,
    "lured":1,
    "scent":1,
    "fix":1,
    "swallow":1,
    "snatches":1,
    "chortle":1,
    "near":1,
    "bother":1,
    "danger":1,
    "zip":1,
    "anyhow":1,
    "storm":1,
    "somethings":1,
    "unable":1,
    "rumbles":1,
    "shoulders":1,
    "keys":1,
    "anywhere":1,
    "supposed":1,
    "circle":1,
    "another":1,
    "touches":1,
    "scrambles":1,
    "grabbing":1,
    "press":1,
    "throat":1,
    "bends":1,
    "gasps":1,
    "fair":1,
    "biggest":1,
    "offers":1,
    "unprotected":1,
    "heryou":1,
    "pov":1,
    "trundles":1,
    "rapidly":1,
    "pow":1,
    "shoe":1,
    "attired":1,
    "being":1,
    "dragged":1,
    "reset":1,
    "forehead":1,
    "bleeds":1,
    "fucked":1,
    "squeeze":1,
    "reach":1,
    "weigh":1,
    "answer":1,
    "naked":1,
    "fooled":1,
    "pulse":1,
    "dirty":1,
    "drives":1,
    "watches":1,
    "thoughtful":1,
    "expression":1,
    "thick":1,
    "crimson":1,
    "fluid":1,
    "trickles":1,
    "forearm":1,
    "dripping":1,
    "horrified":1,
    "streams":1,
    "bathroom":1,
    "sink":1,
    "faucets":1,
    "theodore":1,
    "teddy":1,
    "smeared":1,
    "pull":1,
    "alls":1,
    "lay":1,
    "dark":1,
    "7eleven":1,
    "shades":1,
    "flips":1,
    "skulks":1,
    "step":1,
    "move":1,
    "female":1,
    "throng":1,
    "holding":1,
    "thankyou":1,
    "pinheads":1,
    "witness":1,
    "witnesses":1,
    "officers":1,
    "hustle":1,
    "fool":1,
    "done":1,
    "wheres":1,
    "stoolie":1,
    "embezzler":1,
    "push":1,
    "crowds":1,
    "murmur":1,
    "increases":1,
    "yells":1,
    "shoulder":1,
    "lock":1,
    "mothers":1,
    "cacophony":1,
    "screams":1,
    "cars":1,
    "bp":1,
    "cops":1,
    "hoist":1,
    "doors":1,
    "shut":1,
    "screeches":1,
    "sirens":1,
    "wailing":1,
    "loss":1,
    "cooperating":1,
    "parked":1,
    "handicap":1,
    "space":1,
    "lookin":1,
    "save":1,
    "hide":1,
    "psycho":1,
    "mad":1,
    "bought":1,
    "buy":1,
    "walked":1,
    "freaked":1,
    "half":1,
    "burn":1,
    "fireplace":1,
    "kneels":1,
    "nearby":1,
    "bonfire":1,
    "whoosh":1,
    "arms":1,
    "kisses":1,
    "passionately":1,
    "stops":1,
    "finds":1,
    "least":1,
    "smiling":1,
    "crackles":1,
    "burns":1,
    "legs":1,
    "stares":1,
    "bodies":1,
    "throb":1,
    "grind":1,
    "sandy":1,
    "sliding":1,
    "others":1,
    "sweaty":1,
    "skin":1,
    "faith":1,
    "blessed":1,
    "ability":1,
    "strength":1,
    "full":1,
    "roller":1,
    "babies":1,
    "hook":1,
    "throwing":1,
    "pie":1,
    "clouds":1,
    "pulled":1,
    "cleaning":1,
    "lies":1,
    "peace":1,
    "alongside":1,
    "field":1,
    "dignity":1,
    "decked":1,
    "mourning":1,
    "wail":1,
    "bouquet":1,
    "flowers":1,
    "forgive":1,
    "nasal":1,
    "grunt":1,
    "suppress":1,
    "snigger":1,
    "elbows":1,
    "approach":1,
    "paper":1,
    "places":1,
    "perfect":1,
    "muffled":1,
    "beeping":1,
    "jolts":1,
    "walking":1,
    "alive":1,
    "mounts":1,
    "revs":1,
    "peals":1,
    "sshheeiillaaa":1,
    "stinks":1,
    "proper":1,
    "guidelines":1,
    "processing":1,
    "fatality":1,
    "kin":1,
    "case":1,
    "casket":1,
    "trashed":1,
    "splitsville":1,
    "faked":1,
    "murder":1,
    "chases":1,
    "howls":1,
    "ow":1,
    "ooh":1,
    "doc":1,
    "planks":1,
    "copy":1,
    "york":1,
    "pocket":1,
    "headline":1,
    "reads":1,
    "rub":1,
    "outbowling":1,
    "dwarfscam":1,
    "kingpin":1,
    "photo":1,
    "official":1,
    "orphan":1,
    "shovel":1,
    "digging":1,
    "hurry":1,
    "purgatory":1,
    "pathetic":1,
    "attempt":1,
    "speed":1,
    "beside":1,
    "suspending":1,
    "sez":1,
    "suck":1,
    "dick":1,
    "hmmmm":1,
    "minigolfer":1,
    "puttputts":1,
    "route":1,
    "loosely":1,
    "sugar":1,
    "grip":1,
    "weaves":1,
    "foot":1,
    "gaping":1,
    "green":1,
    "leading":1,
    "minigreen":1,
    "line":1,
    "gentle":1,
    "elderly":1,
    "hydrant":1,
    "sports":1,
    "coat":1,
    "slacks":1,
    "hunched":1,
    "fiftyish":1,
    "woman":1,
    "wearing":1,
    "baseball":1,
    "cap":1,
    "attached":1,
    "strokin":1,
    "nothin":1,
    "hole":1,
    "queen":1,
    "yippy":1,
    "hi":1,
    "single":1,
    "geez":1,
    "telling":1,
    "truth":1,
    "polybigamy":1,
    "silent":1,
    "startled":1,
    "jogs":1,
    "fury":1,
    "goddam":1,
    "connection":1,
    "easily":1,
    "box":1,
    "forced":1,
    "accommodated":1,
    "straightens":1,
    "remolds":1,
    "bent":1,
    "shape":1,
    "ago":1,
    "living":1,
    "hero":1,
    "live":1,
    "eh":1,
    "cuts":1,
    "window":1,
    "following":1,
    "eerily":1,
    "lit":1,
    "glow":1,
    "sunset":1,
    "bouncing":1,
    "muddle":1,
    "glad":1,
    "retired":1,
    "scrawl":1,
    "pen":1,
    "ed":1,
    "klein":1,
    "maynards":1,
    "getcha":1,
    "flynn":1,
    "howya":1,
    "doin":1,
    "stranger":1,
    "waaaaaaaaaaah":1,
    "sale":1,
    "bucks":1,
    "change":1,
    "owe":1,
    "thunder":2,
    "white":2,
    "distance":2,
    "begin":2,
    "flame":2,
    "stand":2,
    "scattering":2,
    "spin":2,
    "pours":2,
    "pinhead":2,
    "wanna":2,
    "luck":2,
    "activities":2,
    "community":2,
    "basement":2,
    "whoa":2,
    "cool":2,
    "peter":2,
    "pan":2,
    "releases":2,
    "drops":2,
    "knees":2,
    "everyone":2,
    "outta":2,
    "wasnt":2,
    "crowd":2,
    "pretty":2,
    "100":2,
    "hoping":2,
    "king":2,
    "trouble":2,
    "arent":2,
    "dangerous":2,
    "against":2,
    "prick":2,
    "ten":2,
    "pegged":2,
    "born":2,
    "world":2,
    "miss":2,
    "nectar":2,
    "gods":2,
    "sweetie":2,
    "poor":2,
    "99":2,
    "begins":2,
    "trembling":2,
    "someones":2,
    "happen":2,
    "leaving":2,
    "first":2,
    "helps":2,
    "ask":2,
    "die":2,
    "ronkonkoma":2,
    "personal":2,
    "patches":2,
    "earring":2,
    "ear":2,
    "pulling":2,
    "parking":2,
    "sheilas":2,
    "gaze":2,
    "will":2,
    "waves":2,
    "nervous":2,
    "usual":2,
    "forget":2,
    "daughter":2,
    "bowled":2,
    "specialty":2,
    "finest":2,
    "uhover":2,
    "average":2,
    "unethical":2,
    "puttputt":2,
    "small":2,
    "japan":2,
    "holes":2,
    "walk":2,
    "related":2,
    "lost":2,
    "pop":2,
    "thumb":2,
    "waiting":2,
    "runs":2,
    "long":2,
    "seven":2,
    "under":2,
    "heel":2,
    "many":2,
    "screw":2,
    "lightbulb":2,
    "welcome":2,
    "fazelis":2,
    "bring":2,
    "spotlight":2,
    "exactly":2,
    "diminutive":2,
    "lady":2,
    "leather":2,
    "outfit":2,
    "howl":2,
    "excitement":2,
    "behind":2,
    "police":2,
    "yourself":2,
    "shit":2,
    "career":2,
    "pressing":2,
    "protour":2,
    "shoulda":2,
    "our":2,
    "common":2,
    "center":2,
    "short":2,
    "pink":2,
    "sideways":2,
    "blow":2,
    "shakes":2,
    "expecting":2,
    "feelings":2,
    "sooner":2,
    "knowing":2,
    "bunny":2,
    "elbow":2,
    "honey":2,
    "talent":2,
    "slight":2,
    "week":2,
    "pain":2,
    "almost":2,
    "needs":2,
    "pro":2,
    "eat":2,
    "bottom":2,
    "itll":2,
    "history":2,
    "future":2,
    "rac":2,
    "shish":2,
    "soul":2,
    "afford":2,
    "eye":2,
    "mental":2,
    "recede":2,
    "uh":2,
    "loose":2,
    "wild":2,
    "kinda":2,
    "nuthut":2,
    "hookah":2,
    "swing":2,
    "john":2,
    "blew":2,
    "breaks":2,
    "stopped":2,
    "ass":2,
    "pinman":2,
    "yes":2,
    "working":2,
    "machines":2,
    "cause":2,
    "party":2,
    "boyfriend":2,
    "hazardous":2,
    "filthy":2,
    "motocross":2,
    "hope":2,
    "most":2,
    "b":2,
    "guard":2,
    "starts":2,
    "hickey":2,
    "inside":2,
    "birthday":2,
    "along":2,
    "da":2,
    "8track":2,
    "eating":2,
    "gimme":2,
    "getting":2,
    "rest":2,
    "needed":2,
    "stuck":2,
    "ankles":2,
    "less":2,
    "tubes":2,
    "tied":2,
    "credit":2,
    "may":2,
    "bargain":2,
    "empty":2,
    "except":2,
    "nervously":2,
    "collar":2,
    "pick":2,
    "home":2,
    "binoculars":2,
    "ok":2,
    "slams":2,
    "ketchup":2,
    "return":2,
    "feels":2,
    "whispers":2,
    "furiously":2,
    "mother":2,
    "ran":2,
    "mean":2,
    "yet":2,
    "locked":2,
    "moving":2,
    "already":2,
    "retiring":2,
    "gold":2,
    "plastic":2,
    "tongue":2,
    "nope":2,
    "broken":2,
    "bones":2,
    "catch":2,
    "playing":2,
    "played":2,
    "bouncybouncy":2,
    "ahead":2,
    "pops":2,
    "raindrops":2,
    "falling":2,
    "gotten":2,
    "alright":2,
    "red":2,
    "sweetheart":2,
    "character":2,
    "scatter":2,
    "shouldve":2,
    "dicks":2,
    "stooling":2,
    "halves":2,
    "chances":2,
    "carefully":2,
    "bury":2,
    "owes":2,
    "identified":2,
    "ultimatum":2,
    "pissing":2,
    "grasp":2,
    "firmly":2,
    "whale":2,
    "wives":2,
    "club":2,
    "women":2,
    "mess":2,
    "scumbag":2,
    "hear":3,
    "god":3,
    "low":3,
    "ken":3,
    "couple":3,
    "middle":3,
    "pair":3,
    "air":3,
    "without":3,
    "stuff":3,
    "reaches":3,
    "steady":3,
    "kind":3,
    "closed":3,
    "night":3,
    "health":3,
    "evening":3,
    "tonight":3,
    "bingo":3,
    "lemme":3,
    "ah":3,
    "those":3,
    "house":3,
    "end":3,
    "sick":3,
    "sit":3,
    "year":3,
    "huh":3,
    "says":3,
    "mouth":3,
    "mans":3,
    "young":3,
    "fan":3,
    "autograph":3,
    "anymore":3,
    "remember":3,
    "frame":3,
    "tv":3,
    "apart":3,
    "floor":3,
    "lips":3,
    "rolls":3,
    "room":3,
    "buzzs":3,
    "feet":3,
    "mine":3,
    "hard":3,
    "better":3,
    "married":3,
    "nobodys":3,
    "days":3,
    "hed":3,
    "lid":3,
    "cup":3,
    "coffee":3,
    "himself":3,
    "comin":3,
    "diner":3,
    "booth":3,
    "sister":3,
    "everything":3,
    "shouldnt":3,
    "thinks":3,
    "enough":3,
    "try":3,
    "partners":3,
    "four":3,
    "watch":3,
    "great":3,
    "golf":3,
    "pansies":3,
    "sees":3,
    "still":3,
    "favorite":3,
    "brothers":3,
    "between":3,
    "beautiful":3,
    "shirt":3,
    "balance":3,
    "very":3,
    "together":3,
    "stands":3,
    "break":3,
    "hold":3,
    "turn":3,
    "throw":3,
    "folks":3,
    "black":3,
    "much":3,
    "heh":3,
    "survive":3,
    "anyone":3,
    "men":3,
    "junkie":3,
    "kacked":3,
    "having":3,
    "legend":3,
    "kastles":3,
    "finger":3,
    "champion":3,
    "control":3,
    "free":3,
    "besides":3,
    "because":3,
    "happened":3,
    "hospital":3,
    "vicious":3,
    "cycle":3,
    "scooter":3,
    "feel":3,
    "sex":3,
    "light":3,
    "else":3,
    "family":3,
    "neck":3,
    "lubrication":3,
    "meet":3,
    "fun":3,
    "kid":3,
    "bet":3,
    "once":3,
    "true":3,
    "bottle":3,
    "leans":3,
    "soon":3,
    "knock":3,
    "games":3,
    "blue":3,
    "probably":3,
    "tried":3,
    "start":3,
    "daughters":3,
    "goin":3,
    "throws":3,
    "gutter":3,
    "straight":3,
    "round":3,
    "underground":3,
    "dumping":3,
    "paradise":3,
    "halo":3,
    "shot":4,
    "seventen":4,
    "barbie":4,
    "dolls":4,
    "past":4,
    "hits":4,
    "somebody":4,
    "stop":4,
    "havent":4,
    "zeus":4,
    "open":4,
    "advice":4,
    "side":4,
    "suspended":4,
    "american":4,
    "maynard":4,
    "tips":4,
    "later":4,
    "made":4,
    "gave":4,
    "front":4,
    "always":4,
    "hate":4,
    "blood":4,
    "left":4,
    "sorry":4,
    "went":4,
    "again":4,
    "catches":4,
    "lot":4,
    "things":4,
    "listen":4,
    "easy":4,
    "problem":4,
    "next":4,
    "real":4,
    "sleazeballs":4,
    "these":4,
    "everybody":4,
    "mind":4,
    "time":4,
    "partner":4,
    "both":4,
    "onto":4,
    "goes":4,
    "arm":4,
    "does":4,
    "wish":4,
    "balls":4,
    "thank":4,
    "standing":4,
    "seems":4,
    "busyboy":4,
    "grabs":4,
    "wanted":4,
    "dance":4,
    "lights":4,
    "each":4,
    "dads":4,
    "nice":4,
    "fucking":4,
    "am":4,
    "nobody":4,
    "eyes":4,
    "might":4,
    "bad":4,
    "making":4,
    "girl":4,
    "show":4,
    "sport":4,
    "fire":4,
    "far":4,
    "tries":4,
    "send":4,
    "killed":4,
    "fuckin":4,
    "six":4,
    "opera":4,
    "life":4,
    "new":4,
    "trapped":4,
    "road":4,
    "every":4,
    "found":4,
    "alone":4,
    "touch":4,
    "bouncy":4,
    "died":4,
    "ya":4,
    "van":4,
    "stroke":4,
    "split":5,
    "heard":5,
    "camera":5,
    "bridge":5,
    "hit":5,
    "through":5,
    "tina":5,
    "afraid":5,
    "fingers":5,
    "door":5,
    "theyre":5,
    "five":5,
    "sponsor":5,
    "card":5,
    "wouldnt":5,
    "thanks":5,
    "grace":5,
    "son":5,
    "knew":5,
    "thought":5,
    "love":5,
    "coming":5,
    "puts":5,
    "hows":5,
    "follows":5,
    "stay":5,
    "pay":5,
    "put":5,
    "miles":5,
    "ladies":5,
    "top":5,
    "moves":5,
    "youll":5,
    "makes":5,
    "pin":5,
    "doesnt":5,
    "care":5,
    "machine":5,
    "blueface":5,
    "even":5,
    "took":5,
    "late":5,
    "day":6,
    "akron":6,
    "or":6,
    "seen":6,
    "theres":6,
    "guys":6,
    "bag":6,
    "please":6,
    "leave":6,
    "oh":6,
    "any":6,
    "talk":6,
    "ive":6,
    "before":6,
    "shes":6,
    "couldnt":6,
    "wont":6,
    "id":6,
    "comes":6,
    "burger":6,
    "steps":6,
    "has":6,
    "us":6,
    "lets":6,
    "place":6,
    "fuck":6,
    "saw":6,
    "word":6,
    "isnt":6,
    "boy":6,
    "hurt":6,
    "way":6,
    "brother":6,
    "knockknock":6,
    "whole":6,
    "pins":7,
    "looking":7,
    "tour":7,
    "than":7,
    "going":7,
    "professional":7,
    "years":7,
    "only":7,
    "should":7,
    "turns":7,
    "trying":7,
    "anything":7,
    "walks":7,
    "make":7,
    "someone":7,
    "three":7,
    "cut":7,
    "gotta":7,
    "own":7,
    "work":7,
    "ever":7,
    "hello":7,
    "by":7,
    "while":7,
    "c":7,
    "after":7,
    "coffin":7,
    "cant":8,
    "lanes":8,
    "big":8,
    "old":8,
    "business":8,
    "other":8,
    "yeah":8,
    "wants":8,
    "need":8,
    "congress":8,
    "head":8,
    "too":8,
    "orange":8,
    "whips":8,
    "hands":8,
    "used":8,
    "maybe":8,
    "gets":8,
    "dwarf":8,
    "faz":9,
    "more":9,
    "find":9,
    "well":9,
    "really":9,
    "skinner":9,
    "help":9,
    "whip":9,
    "bowlers":9,
    "doing":9,
    "whats":9,
    "looks":9,
    "hell":9,
    "them":9,
    "juniors":9,
    "hand":10,
    "bowler":10,
    "aint":10,
    "people":10,
    "good":10,
    "were":10,
    "said":10,
    "give":10,
    "nothing":10,
    "ill":10,
    "alley":10,
    "mom":10,
    "told":10,
    "takes":10,
    "towards":10,
    "pulls":10,
    "thing":10,
    "body":10,
    "hey":11,
    "let":11,
    "dead":11,
    "their":11,
    "would":11,
    "play":11,
    "lane":12,
    "town":12,
    "little":12,
    "last":12,
    "millie":12,
    "sure":12,
    "never":12,
    "whos":12,
    "been":12,
    "call":12,
    "keep":12,
    "some":13,
    "had":13,
    "take":13,
    "kill":13,
    "look":13,
    "plan":13,
    "theos":14,
    "around":14,
    "want":14,
    "tell":14,
    "where":14,
    "face":14,
    "thats":14,
    "car":15,
    "bowl":15,
    "see":15,
    "why":15,
    "father":15,
    "down":16,
    "guy":16,
    "off":16,
    "as":17,
    "how":17,
    "mr":17,
    "there":17,
    "say":17,
    "when":18,
    "something":18,
    "gonna":18,
    "breeze":19,
    "all":19,
    "could":19,
    "didnt":19,
    "an":20,
    "man":20,
    "come":20,
    "back":20,
    "who":21,
    "now":21,
    "right":21,
    "then":22,
    "they":22,
    "can":22,
    "think":22,
    "she":22,
    "did":22,
    "two":23,
    "go":23,
    "sid":23,
    "dad":23,
    "away":23,
    "if":25,
    "about":25,
    "just":25,
    "but":25,
    "over":26,
    "fazeli":26,
    "at":26,
    "":28,
    "hes":28,
    "so":28,
    "are":29,
    "its":29,
    "ball":30,
    "into":30,
    "got":30,
    "from":31,
    "we":31,
    "one":31,
    "kastle":31,
    "not":32,
    "here":32,
    "know":32,
    "be":32,
    "youre":35,
    "get":36,
    "was":36,
    "her":36,
    "no":40,
    "dont":40,
    "have":40,
    "up":40,
    "this":41,
    "like":42,
    "junior":52,
    "what":54,
    "him":56,
    "out":56,
    "sheila":56,
    "do":60,
    "bowling":62,
    "im":62,
    "is":63,
    "that":63,
    "with":66,
    "your":68,
    "his":69,
    "my":75,
    "he":77,
    "me":77,
    "for":78,
    "buzz":80,
    "on":84,
    "theo":87,
    "of":92,
    "in":97,
    "it":101,
    "and":160,
    "to":190,
    "i":194,
    "a":201,
    "you":332,
    "the":349
}