{
    "zip":1,
    "introducing":1,
    "patter":1,
    "freshman":1,
    "sleek":1,
    "sophistication":1,
    "accompanied":1,
    "dark":1,
    "congressman":1,
    "langstons":1,
    "killed":1,
    "comforts":1,
    "hovers":1,
    "wanders":1,
    "managed":1,
    "counsel":1,
    "required":1,
    "tests":1,
    "shock":1,
    "cute":1,
    "complex":1,
    "theory":1,
    "offender":1,
    "press":1,
    "whaddya":1,
    "slide":1,
    "mobile":1,
    "daredevil":1,
    "saxophone":1,
    "handcuffs":1,
    "goodlooking":1,
    "nurses":1,
    "strike":1,
    "match":1,
    "acting":1,
    "nights":1,
    "severe":1,
    "exceeded":1,
    "limit":1,
    "visa":1,
    "relief":1,
    "lead":1,
    "arrested":1,
    "sud":1,
    "denly":1,
    "noticessomeone":1,
    "mesmerized":1,
    "falls":1,
    "somewhat":1,
    "graduated":1,
    "studying":1,
    "became":1,
    "finishing":1,
    "clinical":1,
    "commotion":1,
    "hail":1,
    "joining":1,
    "paramedics":1,
    "wheeling":1,
    "gurney":1,
    "hysterical":1,
    "kinds":1,
    "burn":1,
    "bailing":1,
    "expresses":1,
    "lifestyle":1,
    "recruited":1,
    "moneybags":1,
    "conceived":1,
    "seat":1,
    "sticky":1,
    "hears":1,
    "burnedout":1,
    "clayton":1,
    "baroque":1,
    "slamdunked":1,
    "brick":1,
    "womb":1,
    "cigarette":1,
    "lowly":1,
    "lifes":1,
    "acne":1,
    "worse":1,
    "punks":1,
    "tables":1,
    "relax":1,
    "ten":1,
    "minutes":1,
    "chairs":1,
    "pitcher":1,
    "pours":1,
    "waiters":1,
    "begin":1,
    "bouncing":1,
    "quarters":1,
    "edge":1,
    "beers":1,
    "hammer":1,
    "suspended":1,
    "license":1,
    "laces":1,
    "washington":1,
    "characters":1,
    "spots":1,
    "version":1,
    "humor":1,
    "harmless":1,
    "fear":1,
    "inflated":1,
    "national":1,
    "worth":1,
    "paranoia":1,
    "latest":1,
    "epitaphs":1,
    "squad":1,
    "insurance":1,
    "adjusts":1,
    "framed":1,
    "caps":1,
    "gowns":1,
    "notices":1,
    "reflection":1,
    "flirting":1,
    "reluctant":1,
    "eyeing":1,
    "premarital":1,
    "definite":1,
    "destroys":1,
    "murdering":1,
    "witnesses":1,
    "destructive":1,
    "thefat":1,
    "lane":1,
    "diet":1,
    "lose":1,
    "weight":1,
    "amputation":1,
    "amputate":1,
    "drinker":1,
    "alerts":1,
    "blew":1,
    "rush":1,
    "drown":1,
    "major":1,
    "shove":1,
    "mature":1,
    "softens":1,
    "pissed":1,
    "strings":1,
    "pomerantz":1,
    "asshole":1,
    "showering":1,
    "water":1,
    "ice":1,
    "cubes":1,
    "urinals":1,
    "tastes":1,
    "anxiously":1,
    "emerge":1,
    "jukebox":1,
    "singing":1,
    "brushing":1,
    "weekends":1,
    "dough":1,
    "kissing":1,
    "satin":1,
    "smothers":1,
    "babykiller":1,
    "bathroom":1,
    "russian":1,
    "roulette":1,
    "carry":1,
    "bullet":1,
    "nine":1,
    "crummy":1,
    "lock":1,
    "gambled":1,
    "deathbed":1,
    "kin":1,
    "unreachable":1,
    "somewhere":1,
    "south":1,
    "africa":1,
    "witchs":1,
    "irony":1,
    "including":1,
    "showing":1,
    "background":1,
    "brought":1,
    "mattress":1,
    "sheets":1,
    "pillow":1,
    "umbilical":1,
    "cord":1,
    "roommates":1,
    "belt":1,
    "vodka":1,
    "freshmen":1,
    "fountain":1,
    "main":1,
    "knowledge":1,
    "religion":1,
    "smiled":1,
    "records":1,
    "strewn":1,
    "removing":1,
    "janis":1,
    "joplin":1,
    "soundtrack":1,
    "whitest":1,
    "rhapsody":1,
    "gathering":1,
    "endless":1,
    "finding":1,
    "poorly":1,
    "written":1,
    "unmailed":1,
    "scratchings":1,
    "fate":1,
    "true":1,
    "schedule":1,
    "created":1,
    "lawyertypes":1,
    "perpetuate":1,
    "create":1,
    "reality":1,
    "illusory":1,
    "revolution":1,
    "won":1,
    "free":1,
    "palimony":1,
    "alimony":1,
    "loves":1,
    "gathered":1,
    "counts":1,
    "closing":1,
    "dress":1,
    "flips":1,
    "cape":1,
    "trivial":1,
    "pursuit":1,
    "pressure":1,
    "official":1,
    "pollster":1,
    "applauds":1,
    "bloody":1,
    "marys":1,
    "cheers":1,
    "gotta":1,
    "saturdays":1,
    "volunteer":1,
    "moonlighting":1,
    "threeyear":1,
    "georgetowns":1,
    "democrats":1,
    "boo":1,
    "hiss":1,
    "playfully":1,
    "reaching":1,
    "toy":1,
    "gig":1,
    "celebrate":1,
    "800":1,
    "pair":1,
    "shoes":1,
    "elaborate":1,
    "enter":1,
    "pink":1,
    "cost":1,
    "credit":1,
    "fix":1,
    "brings":1,
    "tying":1,
    "loose":1,
    "ends":1,
    "noticed":1,
    "festival":1,
    "quicker":1,
    "community":1,
    "within":1,
    "itself":1,
    "lockheed":1,
    "leggo":1,
    "blocks":1,
    "mechanicals":1,
    "architects":1,
    "fighting":1,
    "ridiculous":1,
    "opener":1,
    "corkscrew":1,
    "naturally":1,
    "attachment":1,
    "unnatural":1,
    "pushing":1,
    "wedding":1,
    "democrat":1,
    "bets":1,
    "wives":1,
    "husbands":1,
    "children":1,
    "cure":1,
    "insurrection":1,
    "played":1,
    "fellin":1,
    "singer":1,
    "begun":1,
    "karen":1,
    "carpenter":1,
    "cheap":1,
    "pledged":1,
    "bass":1,
    "player":1,
    "named":1,
    "rocky":1,
    "traded":1,
    "battered":1,
    "underwood":1,
    "typewriter":1,
    "continue":1,
    "shreds":1,
    "papers":1,
    "napkins":1,
    "organize":1,
    "substance":1,
    "naughty":1,
    "hurry":1,
    "problem":1,
    "build":1,
    "bigger":1,
    "bite":1,
    "cringes":1,
    "kill":1,
    "innocently":1,
    "amazing":1,
    "blonde":1,
    "wind":1,
    "threeway":1,
    "dressing":1,
    "lies":1,
    "opposed":1,
    "tonights":1,
    "faithful":1,
    "lucky":1,
    "thirty":1,
    "eaten":1,
    "obscene":1,
    "absolutely":1,
    "ravishing":1,
    "scream":1,
    "stirs":1,
    "burning":1,
    "quietly":1,
    "strange":1,
    "information":1,
    "loving":1,
    "afar":1,
    "delawares":1,
    "lots":1,
    "purpose":1,
    "chambers":1,
    "prefer":1,
    "train":1,
    "skilled":1,
    "educational":1,
    "worryin":1,
    "recipients":1,
    "betterlooking":1,
    "accomplishing":1,
    "savings":1,
    "ripped":1,
    "rapture":1,
    "torture":1,
    "tapped":1,
    "music":1,
    "due":1,
    "storms":1,
    "dumb":1,
    "polling":1,
    "ones":1,
    "polin":1,
    "twentythree":1,
    "pompous":1,
    "politico":1,
    "suckin":1,
    "drunks":1,
    "born":1,
    "bred":1,
    "diseased":1,
    "forgot":1,
    "thatsokay":1,
    "intercut":1,
    "conversation":1,
    "forcing":1,
    "arabic":1,
    "slavery":1,
    "opened":1,
    "sedate":1,
    "arab":1,
    "businessman":1,
    "notice":1,
    "vax":1,
    "lobby":1,
    "pal":1,
    "shovels":1,
    "barrels":1,
    "paranoid":1,
    "sometimes":1,
    "dramas":1,
    "test":1,
    "discuss":1,
    "genius":1,
    "systems":1,
    "analyst":1,
    "jewish":1,
    "east":1,
    "ambassador":1,
    "twothirty":1,
    "waste":1,
    "connects":1,
    "disgust":1,
    "elevator":1,
    "changes":1,
    "inviting":1,
    "dimlylit":1,
    "wins":1,
    "eleven":1,
    "reservation":1,
    "lovely":1,
    "guest":1,
    "order":1,
    "napa":1,
    "valley":1,
    "chardonney":1,
    "unless":1,
    "import":1,
    "moneys":1,
    "object":1,
    "montrechart":1,
    "mersalt":1,
    "smell":1,
    "cork":1,
    "garlic":1,
    "payday":1,
    "advanced":1,
    "salary":1,
    "stepmonsters":1,
    "bank":1,
    "grandly":1,
    "kirbos":1,
    "crumbs":1,
    "captain":1,
    "splendor":1,
    "extremely":1,
    "excited":1,
    "beats":1,
    "alfalfa":1,
    "sprouts":1,
    "plate":1,
    "mashed":1,
    "yeast":1,
    "vegetarian":1,
    "mel":1,
    "brooks":1,
    "ordering":1,
    "shot":1,
    "truth":1,
    "timeconsuming":1,
    "incestuous":1,
    "doctors":1,
    "pad":1,
    "exquisite":1,
    "controlled":1,
    "sarcasm":1,
    "med":1,
    "whom":1,
    "fleeting":1,
    "evidence":1,
    "exception":1,
    "mystical":1,
    "force":1,
    "socks":1,
    "folded":1,
    "dropoff":1,
    "facilities":1,
    "telling":1,
    "dreamer":1,
    "sock":1,
    "carda":1,
    "terias":1,
    "munitions":1,
    "musician":1,
    "daddyll":1,
    "libby":1,
    "elizabeth":1,
    "taylor":1,
    "diking":1,
    "utter":1,
    "hear":1,
    "betty":1,
    "rothberg":1,
    "brother":1,
    "franchise":1,
    "borrow":1,
    "department":1,
    "services":1,
    "committed":1,
    "walked":1,
    "prat":1,
    "climb":1,
    "ignore":1,
    "hottest":1,
    "fattest":1,
    "allnighters":1,
    "dreams":1,
    "clarence":1,
    "clemmens":1,
    "damned":1,
    "everyday":1,
    "amazed":1,
    "matching":1,
    "gulp":1,
    "awkward":1,
    "ap":1,
    "prehensive":1,
    "sssssh":1,
    "crash":1,
    "loveseat":1,
    "askew":1,
    "responds":1,
    "stroke":1,
    "longline":1,
    "panty":1,
    "girdle":1,
    "scuba":1,
    "mortification":1,
    "places":1,
    "terrible":1,
    "decides":1,
    "moon":1,
    "whiter":1,
    "ghostlike":1,
    "shape":1,
    "shimmering":1,
    "science":1,
    "majoroftheweek":1,
    "phase":1,
    "organic":1,
    "chemistry":1,
    "enrolled":1,
    "january":1,
    "7":1,
    "amateur":1,
    "gynecologist":1,
    "hed":1,
    "presidential":1,
    "balance":1,
    "checkbook":1,
    "instead":1,
    "sleeping":1,
    "bopping":1,
    "cross":1,
    "john":1,
    "forsythe":1,
    "richard":1,
    "gere":1,
    "lingerie":1,
    "learn":1,
    "agrees":1,
    "gusto":1,
    "commercials":1,
    "plump":1,
    "cheerful":1,
    "uncomfortable":1,
    "preppy":1,
    "stays":1,
    "mixed":1,
    "kevinspeaks":1,
    "brotherinlaws":1,
    "humongous":1,
    "future":1,
    "wickedly":1,
    "return":1,
    "during":1,
    "introductions":1,
    "arrival":1,
    "neighbor":1,
    "roh":1,
    "friend":1,
    "decorator":1,
    "dellassandro":1,
    "entered":1,
    "noisy":1,
    "reserved":1,
    "chummier":1,
    "abruptly":1,
    "platform":1,
    "remembered":1,
    "slugging":1,
    "flows":1,
    "owner":1,
    "baseball":1,
    "bat":1,
    "hurling":1,
    "insults":1,
    "tends":1,
    "drag":1,
    "hiding":1,
    "bleeding":1,
    "shoulda":1,
    "vasectomy":1,
    "favor":1,
    "neutered":1,
    "slut":1,
    "bitch":1,
    "lunges":1,
    "grand":1,
    "gesture":1,
    "marching":1,
    "charging":1,
    "kicks":1,
    "pandemonium":1,
    "pummel":1,
    "restrain":1,
    "dragged":1,
    "2":1,
    "cries":1,
    "toher":1,
    "ahead":1,
    "evening":1,
    "fault":1,
    "alecsknown":1,
    "catching":1,
    "town":1,
    "gopher":1,
    "acquaintance":1,
    "acquaintances":1,
    "girlfriend":1,
    "short":1,
    "story":1,
    "um":1,
    "creating":1,
    "unnecessary":1,
    "unsolvable":1,
    "terrifying":1,
    "universe":1,
    "woodman":1,
    "snaps":1,
    "ringing":1,
    "doorbells":1,
    "rejection":1,
    "total":1,
    "devastating":1,
    "rejected":1,
    "obsession":1,
    "however":1,
    "pursue":1,
    "unsuccessfully":1,
    "share":1,
    "ballseye":1,
    "view":1,
    "taken":1,
    "someday":1,
    "whereas":1,
    "decent":1,
    "editor":1,
    "block":1,
    "bibermans":1,
    "practice":1,
    "ofmyself":1,
    "defense":1,
    "rests":1,
    "disappear":1,
    "perspective":1,
    "campbells":1,
    "mushroom":1,
    "barley":1,
    "chic":1,
    "regular":1,
    "patrons":1,
    "bribe":1,
    "offered":1,
    "chrysler":1,
    "le":1,
    "baron":1,
    "convertible":1,
    "engagement":1,
    "beating":1,
    "bush":1,
    "scam":1,
    "eighties":1,
    "bop":1,
    "vault":1,
    "mink":1,
    "ad":1,
    "scandal":1,
    "retire":1,
    "massive":1,
    "disgrace":1,
    "silly":1,
    "alternatives":1,
    "creepy":1,
    "turned":1,
    "cremation":1,
    "expensive":1,
    "non":1,
    "method":1,
    "cheaper":1,
    "solution":1,
    "touched":1,
    "whod":1,
    "meeting":1,
    "flurry":1,
    "architect":1,
    "assisting":1,
    "scares":1,
    "disappeared":1,
    "step":1,
    "stopping":1,
    "gangster":1,
    "sensing":1,
    "ducks":1,
    "comin":1,
    "thursday":1,
    "con":1,
    "versation":1,
    "pleasant":1,
    "slightly":1,
    "soaking":1,
    "lie":1,
    "hurt":1,
    "fantasy":1,
    "average":1,
    "flaws":1,
    "gestures":1,
    "sloppy":1,
    "slob":1,
    "straight":1,
    "dentists":1,
    "tiny":1,
    "hates":1,
    "worst":1,
    "decided":1,
    "serve":1,
    "beginning":1,
    "honest":1,
    "myth":1,
    "cheer":1,
    "surround":1,
    "billyboy":1,
    "6":1,
    "9":1,
    "coaching":1,
    "drugs":1,
    "football":1,
    "member":1,
    "ray":1,
    "slater":1,
    "felic":1,
    "held":1,
    "melody":1,
    "annulment":1,
    "booze":1,
    "available":1,
    "complete":1,
    "discretion":1,
    "loyalty":1,
    "scholastic":1,
    "impressive":1,
    "willing":1,
    "essentially":1,
    "gofers":1,
    "relevancy":1,
    "handpicked":1,
    "special":1,
    "attache":1,
    "sung":1,
    "famous":1,
    "entrepreneur":1,
    "newspaper":1,
    "medical":1,
    "opportunities":1,
    "whilei":1,
    "sweetly":1,
    "female":1,
    "chauffeur":1,
    "catches":1,
    "sunday":1,
    "kenny":1,
    "shut":1,
    "dressed":1,
    "promoted":1,
    "agenda":1,
    "softball":1,
    "firstborn":1,
    "marriages":1,
    "sixyearold":1,
    "everyones":1,
    "separate":1,
    "statistic":1,
    "newsweek":1,
    "raging":1,
    "chess":1,
    "listening":1,
    "sweetheart":1,
    "floors":1,
    "filthy":1,
    "spray":1,
    "paint":1,
    "sprays":1,
    "hardon":1,
    "pop":1,
    "isto":1,
    "permission":1,
    "formaltux":1,
    "velvet":1,
    "jacket":1,
    "ido":1,
    "debt":1,
    "setting":1,
    "potential":1,
    "secretly":1,
    "veil":1,
    "stripped":1,
    "cummerbund":1,
    "buckeroo":1,
    "welldressed":1,
    "court":1,
    "advice":1,
    "fail":1,
    "failure":1,
    "virtue":1,
    "error":1,
    "badge":1,
    "alcoholic":1,
    "child":1,
    "blame":1,
    "list":1,
    "watergate":1,
    "mistakes":1,
    "buck":1,
    "sully":1,
    "snuck":1,
    "pizza":1,
    "waitress":1,
    "showers":1,
    "sandy":1,
    "plane":1,
    "pretended":1,
    "renting":1,
    "agents":1,
    "wound":1,
    "seriously":1,
    "sproutin":1,
    "pubic":1,
    "hairs":1,
    "age":1,
    "redoes":1,
    "shaking":1,
    "thin":1,
    "witch":1,
    "least":1,
    "funeralshop":1,
    "california":1,
    "neptune":1,
    "theyll":1,
    "sharks":1,
    "ship":1,
    "dials":1,
    "duty":1,
    "busy":1,
    "doin":1,
    "kicked":1,
    "playin":1,
    "hocked":1,
    "bill":1,
    "forgiven":1,
    "bein":1,
    "horses":1,
    "ass":1,
    "forgive":1,
    "fact":1,
    "caring":1,
    "agree":1,
    "wholeheartedly":1,
    "talent":1,
    "operator":1,
    "release":1,
    "quiet":1,
    "announcement":1,
    "less":1,
    "quiets":1,
    "stereo":1,
    "scratching":1,
    "longawaited":1,
    "bride":1,
    "invited":1,
    "accepting":1,
    "congratulations":1,
    "cigars":1,
    "leads":1,
    "brand":1,
    "yearly":1,
    "christmas":1,
    "newberrys":1,
    "fireplace":1,
    "commit":1,
    "slow":1,
    "christ":1,
    "fucking":1,
    "traitor":1,
    "hunch":1,
    "guilt":1,
    "remorse":1,
    "angrier":1,
    "marches":1,
    "wreck":1,
    "everythings":1,
    "cool":1,
    "above":1,
    "maniac":1,
    "skiing":1,
    "shouldnt":1,
    "ladylike":1,
    "0":1,
    "putting":1,
    "trouble":1,
    "hungarian":1,
    "film":1,
    "cozy":1,
    "gasp":1,
    "growing":1,
    "leaps":1,
    "bounds":1,
    "theni":1,
    "stroking":1,
    "figured":1,
    "spend":1,
    "ground":1,
    "gotten":1,
    "rolled":1,
    "joints":1,
    "prop":1,
    "affect":1,
    "relatives":1,
    "effect":1,
    "possessions":1,
    "extricates":1,
    "ordinary":1,
    "wandered":1,
    "trap":1,
    "blown":1,
    "debris":1,
    "cartoons":1,
    "homage":1,
    "stash":1,
    "wondered":1,
    "hadnt":1,
    "ended":1,
    "dorm":1,
    "geography":1,
    "whatever":1,
    "regret":1,
    "outsider":1,
    "oooo":1,
    "question":1,
    "blind":1,
    "passionately":1,
    "frenzy":1,
    "aaaaah":1,
    "ouch":1,
    "yanks":1,
    "sweater":1,
    "leslies":1,
    "berserk":1,
    "clasp":1,
    "flick":1,
    "wonders":1,
    "paradise":1,
    "reading":1,
    "seven":1,
    "springs":1,
    "wanna":1,
    "someplace":1,
    "closed":1,
    "grown":1,
    "under":1,
    "gimme":1,
    "lips":1,
    "gold":1,
    "wildly":1,
    "ignition":1,
    "dies":1,
    "grinning":1,
    "biting":1,
    "neck":1,
    "shrieks":1,
    "felt":1,
    "nell":1,
    "assume":1,
    "missionary":1,
    "everybodys":1,
    "fumbles":1,
    "porch":1,
    "silently":1,
    "bewildered":1,
    "izing":1,
    "goddammitt":1,
    "heater":1,
    "defroster":1,
    "rams":1,
    "jams":1,
    "button":1,
    "knob":1,
    "weaves":1,
    "dangerously":1,
    "freeway":1,
    "levers":1,
    "misfortune":1,
    "using":1,
    "american":1,
    "enterprise":1,
    "swings":1,
    "thirtyyearold":1,
    "blanket":1,
    "fastening":1,
    "mans":1,
    "robe":1,
    "staring":1,
    "collapsed":1,
    "shout":1,
    "dash":1,
    "falling":1,
    "twice":1,
    "peel":1,
    "spins":1,
    "meanwhile":1,
    "avail":1,
    "maniacally":1,
    "desperately":1,
    "skid":1,
    "chains":1,
    "tires":1,
    "traction":1,
    "pulling":1,
    "died":1,
    "dry":1,
    "expect":1,
    "anguish":1,
    "screwing":1,
    "barometerespecially":1,
    "later":1,
    "capitulates":1,
    "relaxes":1,
    "pops":1,
    "sheet":1,
    "fuckin":1,
    "jose":1,
    "bone":1,
    "inflict":1,
    "damage":1,
    "possible":1,
    "prepares":1,
    "pathetic":1,
    "pretend":1,
    "exit":1,
    "uncertain":1,
    "whereskirby":1,
    "starting":1,
    "snowing":1,
    "drive":1,
    "carefully":1,
    "chums":1,
    "flattered":1,
    "loss":1,
    "cheek":1,
    "sink":1,
    "passion":1,
    "dazed":1,
    "definitely":1,
    "daleand":1,
    "develop":1,
    "clear":1,
    "senses":1,
    "u":1,
    "damn":1,
    "cardaterias":1,
    "overcome":1,
    "grief":1,
    "counter":1,
    "grabbing":1,
    "coat":1,
    "lunchtime":1,
    "clerks":1,
    "pages":1,
    "government":1,
    "employees":1,
    "description":1,
    "venture":1,
    "forth":1,
    "letter":1,
    "lee":1,
    "lacocco":1,
    "afford":1,
    "path":1,
    "leg":1,
    "shoos":1,
    "guides":1,
    "stoop":1,
    "emotional":1,
    "feminist":1,
    "pennsylvania":1,
    "avenue":1,
    "store":1,
    "sexist":1,
    "pig":1,
    "tore":1,
    "peepees":1,
    "fair":1,
    "hated":1,
    "anybody":1,
    "judge":1,
    "raised":1,
    "parent":1,
    "bathrobe":1,
    "sick":1,
    "sickness":1,
    "pretenders":1,
    "album":1,
    "thriller":1,
    "mahlers":1,
    "ninth":1,
    "fond":1,
    "mahler":1,
    "roomies":1,
    "consequences":1,
    "nameless":1,
    "faceless":1,
    "deeply":1,
    "clutching":1,
    "wasted":1,
    "streets":1,
    "exciting":1,
    "attract":1,
    "warmly":1,
    "excitement":1,
    "breathless":1,
    "wide":1,
    "ment":1,
    "carrying":1,
    "packages":1,
    "asron":1,
    "stoked":1,
    "focus":1,
    "brilliant":1,
    "tract":1,
    "housing":1,
    "maryland":1,
    "magnificent":1,
    "animal":1,
    "control":1,
    "seems":1,
    "sexier":1,
    "count":1,
    "cornish":1,
    "hens":1,
    "hatch":1,
    "fast":1,
    "also":1,
    "incredible":1,
    "tied":1,
    "pictures":1,
    "habit":1,
    "natural":1,
    "confusion":1,
    "manufactured":1,
    "miracles":1,
    "losing":1,
    "gods":1,
    "embraces":1,
    "friendship":1,
    "terrific":1,
    "knowing":1,
    "joke":1,
    "psychiatrist":1,
    "doc":1,
    "brothers":1,
    "thinks":1,
    "chicken":1,
    "14":1,
    "relationships":1,
    "cholesterol":1,
    "lifetime":1,
    "intimacy":1,
    "shattering":1,
    "ultimately":1,
    "necessary":1,
    "outside":1,
    "ring":1,
    "bell":1,
    "shed":1,
    "glimpse":1,
    "hooker":1,
    "wed":1,
    "shorter":1,
    "warted":1,
    "firm":1,
    "sounds":1,
    "familiar":1,
    "patten":1,
    "bother":1,
    "finance":1,
    "furniture":1,
    "ago":1,
    "confronted":1,
    "denied":1,
    "locked":1,
    "turkey":1,
    "sat":1,
    "commons":1,
    "feeding":1,
    "carrots":1,
    "answer":1,
    "depths":1,
    "ploy":1,
    "flunked":1,
    "history":1,
    "dashing":1,
    "breathlessly":1,
    "threatened":1,
    "awkwardness":1,
    "exactly":1,
    "tearing":1,
    "scaring":1,
    "country":1,
    "isfalling":1,
    "perfectly":1,
    "cuts":1,
    "metal":1,
    "experienced":1,
    "thief":1,
    "michigan":1,
    "hacksaw":1,
    "aware":1,
    "article":1,
    "yesterdays":1,
    "editorial":1,
    "achievement":1,
    "wrapper":1,
    "charmingly":1,
    "rage":1,
    "overpowering":1,
    "railing":1,
    "upside":1,
    "scraps":1,
    "leaning":1,
    "hallway":1,
    "upsidedown":1,
    "betting":1,
    "underneath":1,
    "iit":1,
    "climbing":1,
    "landing":1,
    "struggles":1,
    "below":1,
    "tow":1,
    "truck":1,
    "coveralls":1,
    "acetylene":1,
    "helping":1,
    "remembers":1,
    "dolly":1,
    "kneels":1,
    "iron":1,
    "noble":1,
    "bullshit":1,
    "cocky":1,
    "shithead":1,
    "hang":1,
    "barehands":1,
    "wince":1,
    "overwhelmed":1,
    "breathing":1,
    "warm":1,
    "profoundly":1,
    "arrive":1,
    "sparks":1,
    "phenomenal":1,
    "pounding":1,
    "tentatively":1,
    "louder":1,
    "nuts":1,
    "reveals":1,
    "partially":1,
    "painted":1,
    "ladder":1,
    "fabric":1,
    "swatches":1,
    "cartons":1,
    "books":1,
    "saved":1,
    "dramatic":1,
    "sane":1,
    "tryin":1,
    "postcollege":1,
    "melodyll":1,
    "remarried":1,
    "tryinto":1,
    "inthe":1,
    "neighborhood":1,
    "dads":1,
    "confuse":1,
    "yorkll":1,
    "somebodyll":1,
    "woke":1,
    "refrigerator":1,
    "chuckle":1,
    "blows":1,
    "comic":1,
    "status":1,
    "abused":1,
    "bold":1,
    "goingaway":1,
    "present":1,
    "shows":1,
    "gloves":1,
    "pockets":1,
    "coins":1,
    "buttons":1,
    "ialways":1,
    "tried":1,
    "shower":1,
    "threw":1,
    "cleaned":1,
    "sincerely":1,
    "plastic":1,
    "tender":1,
    "glance":1,
    "sip":1,
    "steaming":1,
    "nervousness":1,
    "embarrassment":1,
    "surge":1,
    "goodbye":1,
    "suitcase":1,
    "bye":1,
    "expansively":1,
    "emotionally":1,
    "backward":1,
    "reflections":1,
    "windshield":1,
    "headlights":1,
    "flare":1,
    "mix":1,
    "glare":1,
    "brief":1,
    "totally":1,
    "brilliance":1,
    "upon":1,
    "f1mos":1,
    "lookingin":1,
    "julianna":2,
    "style":2,
    "interesting":2,
    "dead":2,
    "officers":2,
    "newberry":2,
    "whispers":2,
    "totalled":2,
    "destroyed":2,
    "paying":2,
    "distance":2,
    "naked":2,
    "usual":2,
    "approach":2,
    "ms":2,
    "charges":2,
    "handsome":2,
    "wearing":2,
    "near":2,
    "concerned":2,
    "might":2,
    "fathers":2,
    "cop":2,
    "embrace":2,
    "babe":2,
    "hesitates":2,
    "puzzled":2,
    "lawyer":2,
    "seeing":2,
    "screaming":2,
    "wheres":2,
    "truly":2,
    "international":2,
    "disbelief":2,
    "against":2,
    "beer":2,
    "ritual":2,
    "screwdriver":2,
    "able":2,
    "dc":2,
    "trust":2,
    "reluctantly":2,
    "post":2,
    "obituaries":2,
    "die":2,
    "fun":2,
    "enjoy":2,
    "girls":2,
    "russia":2,
    "america":2,
    "presses":2,
    "kinda":2,
    "glass":2,
    "hello":2,
    "double":2,
    "lost":2,
    "steps":2,
    "gently":2,
    "cut":2,
    "seats":2,
    "shoves":2,
    "toilet":2,
    "youd":2,
    "badly":2,
    "releases":2,
    "hair":2,
    "grow":2,
    "senator":2,
    "mirror":2,
    "shakes":2,
    "pals":2,
    "teeth":2,
    "wrap":2,
    "themselves":2,
    "buy":2,
    "lace":2,
    "leather":2,
    "shirt":2,
    "knock":2,
    "spending":2,
    "closet":2,
    "funeral":2,
    "indiana":2,
    "jones":2,
    "rescue":2,
    "quick":2,
    "bike":2,
    "fell":2,
    "art":2,
    "side":2,
    "becoming":2,
    "killing":2,
    "begins":2,
    "pieces":2,
    "planet":2,
    "bitter":2,
    "wonder":2,
    "nobody":2,
    "bought":2,
    "game":2,
    "president":2,
    "others":2,
    "helped":2,
    "locks":2,
    "subtle":2,
    "invented":2,
    "fabulous":2,
    "hope":2,
    "sometime":2,
    "wednesday":2,
    "promote":2,
    "staff":2,
    "scandinavia":2,
    "mine":2,
    "lives":2,
    "husband":2,
    "peppers":2,
    "junior":2,
    "guitar":2,
    "champagne":2,
    "writers":2,
    "thoughts":2,
    "rough":2,
    "wing":2,
    "excitedly":2,
    "heads":2,
    "salesgirl":2,
    "standing":2,
    "stuff":2,
    "violation":2,
    "dinosaurs":2,
    "obsolete":2,
    "happen":2,
    "swig":2,
    "far":2,
    "miss":2,
    "profession":2,
    "janitorial":2,
    "jus":2,
    "desk":2,
    "touch":2,
    "knows":2,
    "rent":2,
    "followed":2,
    "suggested":2,
    "star":2,
    "bargain":2,
    "turning":2,
    "buren":2,
    "arabs":2,
    "words":2,
    "gang":2,
    "bang":2,
    "suite":2,
    "hardly":2,
    "42":2,
    "int":2,
    "walk":2,
    "elevators":2,
    "impressed":2,
    "full":2,
    "middle":2,
    "hotel":2,
    "crosses":2,
    "mind":2,
    "torn":2,
    "morality":2,
    "temptation":2,
    "oclock":2,
    "impress":2,
    "escargot":2,
    "heavy":2,
    "catch":2,
    "clean":2,
    "aye":2,
    "dales":2,
    "chair":2,
    "annie":2,
    "menu":2,
    "medicines":2,
    "telephone":2,
    "cannot":2,
    "removes":2,
    "dryer":2,
    "laundromat":2,
    "twentyfour":2,
    "attack":2,
    "boyfriend":2,
    "52":2,
    "niece":2,
    "nephews":2,
    "horrible":2,
    "sisters":2,
    "human":2,
    "wish":2,
    "headed":2,
    "york":2,
    "shocked":2,
    "matter":2,
    "anyway":2,
    "talented":2,
    "parents":2,
    "glasses":2,
    "skirt":2,
    "legs":2,
    "suit":2,
    "laughs":2,
    "nearby":2,
    "doorway":2,
    "feels":2,
    "glares":2,
    "incandescent":2,
    "credits":2,
    "wave":2,
    "ladies":2,
    "several":2,
    "wondering":2,
    "sort":2,
    "wear":2,
    "grab":2,
    "nervously":2,
    "emotion":2,
    "werent":2,
    "arm":2,
    "shouts":2,
    "immediately":2,
    "week":2,
    "goddamn":2,
    "throws":2,
    "top":2,
    "collar":2,
    "fired":2,
    "birth":2,
    "boys":2,
    "emotions":2,
    "stand":2,
    "loser":2,
    "hotshot":2,
    "speaking":2,
    "aint":2,
    "constantly":2,
    "neurotic":2,
    "problems":2,
    "hasnt":2,
    "realize":2,
    "balls":2,
    "obits":2,
    "building":2,
    "la":2,
    "petite":2,
    "chateau":2,
    "eat":2,
    "fuck":2,
    "worked":2,
    "moi":2,
    "greatest":2,
    "caught":2,
    "legend":2,
    "huge":2,
    "bestseller":2,
    "loved":2,
    "ready":2,
    "asked":2,
    "smoking":2,
    "boy":2,
    "steal":2,
    "magazine":2,
    "bad":2,
    "thinkin":2,
    "troy":2,
    "students":2,
    "pause":2,
    "swear":2,
    "dollars":2,
    "position":2,
    "practicing":2,
    "kim":2,
    "cover":2,
    "kims":2,
    "shell":2,
    "june":2,
    "hard":2,
    "officially":2,
    "interested":2,
    "perhaps":2,
    "undergrads":2,
    "todays":2,
    "society":2,
    "honor":2,
    "celebrity":2,
    "earn":2,
    "laughter":2,
    "jobs":2,
    "bet":2,
    "makeup":2,
    "stepmother":2,
    "body":2,
    "stupid":2,
    "cigarettes":2,
    "raise":2,
    "extracurricular":2,
    "whatd":2,
    "save":2,
    "broken":2,
    "responsible":2,
    "ugly":2,
    "yours":2,
    "straw":2,
    "personal":2,
    "photograph":2,
    "props":2,
    "photos":2,
    "dozens":2,
    "entire":2,
    "dangerous":2,
    "kevins":2,
    "tears":2,
    "fights":2,
    "bra":2,
    "undoes":2,
    "iacoccoa":2,
    "recently":2,
    "situation":2,
    "socalled":2,
    "luxury":2,
    "cars":2,
    "sign":2,
    "points":2,
    "finelooking":2,
    "aggressively":2,
    "chest":2,
    "pants":2,
    "boots":2,
    "gas":2,
    "freeze":2,
    "desperate":2,
    "company":2,
    "win":2,
    "warning":2,
    "polaroid":2,
    "lowlife":2,
    "alive":2,
    "shots":2,
    "fixed":2,
    "pressured":2,
    "crying":2,
    "toughs":2,
    "daddy":2,
    "training":2,
    "learning":2,
    "hugs":2,
    "especially":2,
    "moved":2,
    "valentines":2,
    "manyl":2,
    "police":2,
    "exchange":2,
    "ha":2,
    "fly":2,
    "realized":2,
    "eggs":2,
    "pretty":2,
    "along":2,
    "naomi":2,
    "jr":2,
    "weeks":2,
    "pretending":2,
    "station":2,
    "alley":2,
    "blowtorch":2,
    "peanut":2,
    "jelly":2,
    "sandwich":2,
    "machine":2,
    "saying":2,
    "cup":2,
    "bus":2,
    "buss":2,
    "superimposed":2,
    "images":2,
    "hicks":3,
    "accident":3,
    "certain":3,
    "sexual":3,
    "office":3,
    "legal":3,
    "dealing":3,
    "reach":3,
    "blood":3,
    "months":3,
    "behind":3,
    "except":3,
    "senior":3,
    "georgetown":3,
    "knew":3,
    "races":3,
    "fifty":3,
    "corner":3,
    "continues":3,
    "banking":3,
    "mom":3,
    "undergrad":3,
    "wall":3,
    "college":3,
    "last":3,
    "wally":3,
    "theyve":3,
    "drops":3,
    "obviously":3,
    "record":3,
    "days":3,
    "happy":3,
    "bancroft":3,
    "older":3,
    "sense":3,
    "shouting":3,
    "photo":3,
    "womans":3,
    "heres":3,
    "wrong":3,
    "political":3,
    "thighs":3,
    "works":3,
    "line":3,
    "bout":3,
    "wet":3,
    "himself":3,
    "couldnt":3,
    "forever":3,
    "join":3,
    "longer":3,
    "sofa":3,
    "enters":3,
    "underwear":3,
    "sweet":3,
    "course":3,
    "welfare":3,
    "stepmonster":3,
    "end":3,
    "campus":3,
    "sitting":3,
    "movie":3,
    "infatuation":3,
    "searches":3,
    "manhattan":3,
    "blue":3,
    "fills":3,
    "live":3,
    "financial":3,
    "anyone":3,
    "stinks":3,
    "mad":3,
    "hit":3,
    "easy":3,
    "howd":3,
    "talking":3,
    "pocket":3,
    "goin":3,
    "saturday":3,
    "bucks":3,
    "late":3,
    "whole":3,
    "actually":3,
    "sister":3,
    "butter":3,
    "high":3,
    "fall":3,
    "dear":3,
    "dinner":3,
    "idea":3,
    "dashes":3,
    "closes":3,
    "gay":3,
    "bottle":3,
    "field":3,
    "making":3,
    "supposed":3,
    "nose":3,
    "heard":3,
    "wonderful":3,
    "hours":3,
    "calling":3,
    "beautiful":3,
    "sexy":3,
    "sir":3,
    "davidson":3,
    "restaurant":3,
    "returns":3,
    "r":3,
    "walks":3,
    "speaks":3,
    "enough":3,
    "laundry":3,
    "bring":3,
    "krantz":3,
    "meet":3,
    "apart":3,
    "billys":3,
    "roof":3,
    "crazy":3,
    "minute":3,
    "lived":3,
    "best":3,
    "lied":3,
    "virgin":3,
    "lamp":3,
    "knocks":3,
    "waits":3,
    "stairs":3,
    "sight":3,
    "light":3,
    "screen":3,
    "slowly":3,
    "business":3,
    "greeting":3,
    "cards":3,
    "joined":3,
    "attention":3,
    "watches":3,
    "em":3,
    "laughing":3,
    "needs":3,
    "blow":3,
    "jesus":3,
    "cry":3,
    "dying":3,
    "keeps":3,
    "things":3,
    "piece":3,
    "fool":3,
    "engaged":3,
    "affair":3,
    "torch":3,
    "huh":3,
    "somehow":3,
    "stunned":3,
    "pain":3,
    "bed":3,
    "picks":3,
    "hundred":3,
    "luck":3,
    "talks":3,
    "half":3,
    "known":3,
    "angrily":3,
    "deep":3,
    "brandy":3,
    "coffin":3,
    "part":3,
    "rug":3,
    "roll":3,
    "wrapped":3,
    "holding":3,
    "needed":3,
    "snow":3,
    "pajamas":3,
    "morning":3,
    "happening":3,
    "fight":3,
    "confused":3,
    "soup":3,
    "albums":3,
    "byline":3,
    "leaving":3,
    "lover":3,
    "miracle":3,
    "chevron":3,
    "beamish":4,
    "van":4,
    "ignores":4,
    "graduation":4,
    "owe":4,
    "almost":4,
    "second":4,
    "fraternity":4,
    "rushes":4,
    "alecs":4,
    "kreager":4,
    "started":4,
    "waiter":4,
    "movies":4,
    "hall":4,
    "rubber":4,
    "couple":4,
    "besides":4,
    "til":4,
    "welcome":4,
    "weve":4,
    "drink":4,
    "somebody":4,
    "wend":4,
    "writing":4,
    "write":4,
    "change":4,
    "tommy":4,
    "makes":4,
    "death":4,
    "honey":4,
    "bar":4,
    "today":4,
    "left":4,
    "kid":4,
    "head":4,
    "yourself":4,
    "hodges":4,
    "republican":4,
    "nightgown":4,
    "breath":4,
    "called":4,
    "next":4,
    "coming":4,
    "try":4,
    "hangs":4,
    "roommate":4,
    "seen":4,
    "etc":4,
    "year":4,
    "found":4,
    "illusion":4,
    "lawyers":4,
    "thing":4,
    "drives":4,
    "disappears":4,
    "ah":4,
    "funny":4,
    "lunch":4,
    "wine":4,
    "design":4,
    "flash":4,
    "ran":4,
    "type":4,
    "box":4,
    "pregnant":4,
    "kidding":4,
    "kev":4,
    "mistake":4,
    "without":4,
    "play":4,
    "passes":4,
    "someone":4,
    "bag":4,
    "interest":4,
    "buddy":4,
    "extra":4,
    "family":4,
    "attacks":4,
    "pick":4,
    "beat":4,
    "few":4,
    "number":4,
    "key":4,
    "giving":4,
    "am":4,
    "food":4,
    "saw":4,
    "such":4,
    "wanted":4,
    "mother":4,
    "run":4,
    "those":4,
    "hell":4,
    "eventually":4,
    "tomorrow":4,
    "\u00e2\u0080\u00a2":4,
    "bluecollar":4,
    "jumps":4,
    "street":4,
    "responsibility":4,
    "korean":4,
    "show":4,
    "speak":4,
    "picture":4,
    "hanging":4,
    "myra":4,
    "yet":4,
    "obsessed":4,
    "feelings":4,
    "garbage":4,
    "judith":4,
    "cold":4,
    "moment":4,
    "herself":4,
    "chick":4,
    "throw":4,
    "emergency":4,
    "same":4,
    "sit":4,
    "mouth":4,
    "stands":4,
    "happened":4,
    "smaller":4,
    "arent":5,
    "card":5,
    "looking":5,
    "playing":5,
    "finally":5,
    "driving":5,
    "group":5,
    "woody":5,
    "allen":5,
    "thanks":5,
    "screams":5,
    "follows":5,
    "means":5,
    "angry":5,
    "chance":5,
    "across":5,
    "times":5,
    "waiting":5,
    "passing":5,
    "wants":5,
    "than":5,
    "career":5,
    "important":5,
    "outta":5,
    "five":5,
    "appears":5,
    "may":5,
    "pull":5,
    "many":5,
    "red":5,
    "soon":5,
    "else":5,
    "told":5,
    "care":5,
    "took":5,
    "smile":5,
    "paper":5,
    "notes":5,
    "divorce":5,
    "law":5,
    "world":5,
    "men":5,
    "already":5,
    "kind":5,
    "nothing":5,
    "puts":5,
    "hot":5,
    "taking":5,
    "thinking":5,
    "living":5,
    "myself":5,
    "feeling":5,
    "understand":5,
    "secret":5,
    "clothes":5,
    "s":5,
    "probably":5,
    "x":5,
    "coke":5,
    "pushes":5,
    "forget":5,
    "done":5,
    "lady":5,
    "fold":5,
    "watch":5,
    "onto":5,
    "small":5,
    "boss":5,
    "filled":5,
    "watching":5,
    "ron":5,
    "keep":5,
    "frantically":5,
    "inside":5,
    "gives":6,
    "cops":6,
    "theyre":6,
    "talk":6,
    "gave":6,
    "past":6,
    "laugh":6,
    "mr":6,
    "black":6,
    "serious":6,
    "hospital":6,
    "becomes":6,
    "mean":6,
    "large":6,
    "runs":6,
    "everybody":6,
    "elmos":6,
    "hows":6,
    "whos":6,
    "anything":6,
    "afraid":6,
    "excuse":6,
    "ask":6,
    "moves":6,
    "fat":6,
    "face":6,
    "insane":6,
    "three":6,
    "between":6,
    "girl":6,
    "floor":6,
    "sex":6,
    "moving":6,
    "baby":6,
    "relationship":6,
    "hate":6,
    "seem":6,
    "kitchen":6,
    "eyes":6,
    "check":6,
    "maitre":6,
    "d":6,
    "pulls":6,
    "went":6,
    "uh":6,
    "fluff":6,
    "heart":6,
    "wendys":6,
    "does":6,
    "realizes":6,
    "use":6,
    "stops":6,
    "fucked":6,
    "listen":6,
    "bars":6,
    "keys":6,
    "while":7,
    "fine":7,
    "since":7,
    "two":7,
    "four":7,
    "doctor":7,
    "said":7,
    "madly":7,
    "st":7,
    "holds":7,
    "either":7,
    "reason":7,
    "guys":7,
    "guess":7,
    "stay":7,
    "used":7,
    "met":7,
    "camera":7,
    "once":7,
    "home":7,
    "hi":7,
    "person":7,
    "white":7,
    "quickly":7,
    "came":7,
    "ho":7,
    "kiss":7,
    "because":7,
    "worried":7,
    "lot":7,
    "escape":7,
    "joins":8,
    "thank":8,
    "trying":8,
    "coffee":8,
    "party":8,
    "nice":8,
    "turns":8,
    "dad":8,
    "gone":8,
    "never":8,
    "anymore":8,
    "feel":8,
    "stop":8,
    "sees":8,
    "phone":8,
    "sax":8,
    "break":8,
    "finds":8,
    "through":8,
    "most":8,
    "hand":8,
    "turn":8,
    "become":8,
    "own":8,
    "tries":8,
    "fire":8,
    "friends":9,
    "everyone":9,
    "call":9,
    "wouldnt":9,
    "after":9,
    "every":9,
    "smiles":9,
    "being":9,
    "drunk":9,
    "put":9,
    "move":9,
    "believe":9,
    "wait":9,
    "isnt":9,
    "leaves":9,
    "these":9,
    "id":9,
    "married":9,
    "kisses":9,
    "havent":9,
    "jeep":9,
    "must":9,
    "running":9,
    "women":9,
    "yes":9,
    "youve":9,
    "great":9,
    "forrester":9,
    "made":9,
    "place":9,
    "open":10,
    "another":10,
    "okay":10,
    "let":10,
    "maybe":10,
    "biberman":10,
    "wife":10,
    "perfect":10,
    "meaning":10,
    "yeah":10,
    "al":10,
    "youll":10,
    "working":10,
    "grabs":10,
    "cause":10,
    "help":10,
    "having":10,
    "theres":10,
    "which":10,
    "until":10,
    "window":10,
    "man":11,
    "shes":11,
    "both":11,
    "doesnt":11,
    "where":11,
    "give":11,
    "years":11,
    "hey":11,
    "before":11,
    "our":11,
    "real":11,
    "something":11,
    "arrives":11,
    "leave":11,
    "together":11,
    "find":11,
    "pay":11,
    "lets":11,
    "alone":11,
    "old":11,
    "sure":11,
    "marriage":11,
    "should":11,
    "doing":11,
    "ultimate":11,
    "day":11,
    "marry":11,
    "sits":11,
    "date":12,
    "god":12,
    "start":12,
    "remember":12,
    "kirby":12,
    "gonna":12,
    "getting":12,
    "suddenly":12,
    "room":12,
    "everything":12,
    "whats":12,
    "comes":12,
    "goes":12,
    "tonight":12,
    "guy":12,
    "young":13,
    "even":13,
    "always":13,
    "big":13,
    "us":13,
    "gets":13,
    "table":13,
    "says":13,
    "good":13,
    "way":13,
    "didnt":13,
    "front":13,
    "can":13,
    "little":14,
    "better":14,
    "long":14,
    "around":14,
    "wont":14,
    "each":14,
    "shit":14,
    "house":14,
    "make":15,
    "first":15,
    "starts":15,
    "new":15,
    "woman":15,
    "opens":15,
    "people":15,
    "please":16,
    "looks":16,
    "will":16,
    "apartment":16,
    "bedroom":16,
    "felicia":16,
    "really":16,
    "night":17,
    "too":17,
    "say":17,
    "toward":17,
    "away":17,
    "school":17,
    "only":17,
    "job":17,
    "money":17,
    "look":17,
    "howie":17,
    "much":18,
    "over":18,
    "take":18,
    "any":18,
    "still":18,
    "their":18,
    "sorry":18,
    "ever":18,
    "takes":18,
    "again":19,
    "father":19,
    "come":19,
    "would":19,
    "tell":19,
    "off":19,
    "need":19,
    "had":19,
    "work":19,
    "thought":20,
    "why":20,
    "now":20,
    "by":21,
    "hands":21,
    "oh":21,
    "hes":21,
    "cant":21,
    "more":21,
    "or":21,
    "then":22,
    "other":23,
    "an":23,
    "go":24,
    "very":24,
    "time":25,
    "down":25,
    "right":26,
    "ill":26,
    "if":26,
    "could":26,
    "did":27,
    "dale":28,
    "them":29,
    "has":29,
    "when":29,
    "want":30,
    "been":30,
    "ive":30,
    "door":30,
    "car":31,
    "life":32,
    "thats":32,
    "got":32,
    "going":33,
    "think":34,
    "how":34,
    "see":34,
    "well":34,
    "there":34,
    "some":35,
    "back":36,
    "were":38,
    "here":38,
    "one":38,
    "who":40,
    "about":41,
    "know":42,
    "into":43,
    "was":44,
    "we":45,
    "like":46,
    "do":47,
    "kirbo":47,
    "wendy":48,
    "its":49,
    "love":49,
    "what":49,
    "youre":51,
    "from":55,
    "that":56,
    "be":57,
    "":58,
    "no":58,
    "just":58,
    "him":59,
    "so":59,
    "dont":60,
    "at":60,
    "not":61,
    "are":64,
    "they":66,
    "his":67,
    "all":67,
    "have":68,
    "but":69,
    "up":70,
    "leslie":71,
    "jules":74,
    "kevin":75,
    "out":76,
    "your":78,
    "get":78,
    "this":85,
    "im":88,
    "billy":94,
    "on":102,
    "my":108,
    "as":110,
    "with":114,
    "me":115,
    "alec":116,
    "it":117,
    "for":118,
    "he":120,
    "her":123,
    "she":127,
    "is":144,
    "of":163,
    "in":172,
    "to":317,
    "a":323,
    "i":331,
    "and":373,
    "you":421,
    "the":529
}