{
    "hers":1,
    "commission":1,
    "takes":1,
    "precedent":1,
    "esteemed":1,
    "received":1,
    "tragic":1,
    "disturbing":1,
    "grievous":1,
    "blow":1,
    "especially":1,
    "leader":1,
    "honourable":1,
    "assembly":1,
    "loved":1,
    "fervently":1,
    "mourn":1,
    "relentless":1,
    "champion":1,
    "strife":1,
    "ends":1,
    "confront":1,
    "rebels":1,
    "malastare":1,
    "objective":1,
    "noble":1,
    "concur":1,
    "surprise":1,
    "joy":1,
    "attempt":1,
    "bodyguards":1,
    "six":1,
    "ruthlessly":1,
    "senselessly":1,
    "murdered":1,
    "importantly":1,
    "led":1,
    "opposition":1,
    "body":1,
    "passage":1,
    "experienced":1,
    "firsthand":1,
    "offer":1,
    "foundation":1,
    "disastrous":1,
    "declaration":1,
    "defer":1,
    "dealt":1,
    "law":1,
    "lateness":1,
    "seriousness":1,
    "matters":1,
    "tomorrow":1,
    "stands":1,
    "adjourned":1,
    "joining":1,
    "break":1,
    "keepers":1,
    "soldiers":1,
    "clouds":1,
    "loyalist":1,
    "committee":1,
    "brings":1,
    "warm":1,
    "intelligence":1,
    "points":1,
    "disgruntled":1,
    "spice":1,
    "miners":1,
    "disagree":1,
    "assassinate":1,
    "character":1,
    "political":1,
    "idealist":1,
    "murderer":1,
    "avoided":1,
    "graces":1,
    "manpower":1,
    "stressful":1,
    "comment":1,
    "guards":1,
    "additional":1,
    "disruptive":1,
    "border":1,
    "dispute":1,
    "ansion":1,
    "watched":1,
    "easier":1,
    "scare":1,
    "unbearable":1,
    "immediately":1,
    "republiv":1,
    "stood":1,
    "split":1,
    "sooo":1,
    "smilen":1,
    "wahoooooo":1,
    "wheresa":1,
    "diplodiaclect":1,
    "speak":1,
    "point":1,
    "members":1,
    "prefer":1,
    "nooooooooo":1,
    "noooooooo":1,
    "bitty":1,
    "nooooooo":1,
    "biggen":1,
    "yiyiyiyyi":1,
    "believen":1,
    "hi":1,
    "yiyiyiyiyiyiiii":1,
    "paths":1,
    "crossed":1,
    "unnecessary":1,
    "reasons":1,
    "shorter":1,
    "invisible":1,
    "exceed":1,
    "meant":1,
    "protecting":1,
    "exercise":1,
    "lead":1,
    "killer":1,
    "local":1,
    "overkill":1,
    "implied":1,
    "instructed":1,
    "merely":1,
    "mysteries":1,
    "revealed":1,
    "retire":1,
    "floor":1,
    "command":1,
    "busten":1,
    "happiness":1,
    "seein":1,
    "deesa":1,
    "bombad":1,
    "parted":1,
    "shesa":1,
    "happier":1,
    "den":1,
    "longo":1,
    "focusing":1,
    "negative":1,
    "masking":1,
    "propecy":1,
    "turned":1,
    "possibilities":1,
    "shown":1,
    "certainty":1,
    "chooses":1,
    "destiny":1,
    "typho":1,
    "activity":1,
    "tomb":1,
    "covered":1,
    "camera":1,
    "watching":1,
    "catch":1,
    "using":1,
    "bait":1,
    "harm":1,
    "room":1,
    "risky":1,
    "senses":1,
    "attuned":1,
    "tired":1,
    "anymore":1,
    "pass":1,
    "intoxicating":1,
    "broken":1,
    "trusted":1,
    "experience":1,
    "focused":1,
    "pleasing":1,
    "fund":1,
    "campaigns":1,
    "niceties":1,
    "funds":1,
    "lecture":1,
    "economics":1,
    "besides":1,
    "generalising":1,
    "palpatines":1,
    "observed":1,
    "clever":1,
    "following":1,
    "passions":1,
    "prejudices":1,
    "instincts":1,
    "positive":1,
    "wacky":1,
    "traffic":1,
    "open":1,
    "capabilities":1,
    "gonzo":1,
    "color":1,
    "rival":1,
    "swordsman":1,
    "suicide":1,
    "guys":1,
    "blast":1,
    "flag":1,
    "whooooaaa":1,
    "near":1,
    "couplings":1,
    "yiiii":1,
    "damn":1,
    "stalled":1,
    "didn\u2019t":1,
    "\u2018you":1,
    "think\u2019":1,
    "you\u2019ve":1,
    "chase":1,
    "creep\u2019s":1,
    "fried":1,
    "personally":1,
    "i\u2019d":1,
    "he\u2019s":1,
    "we\u2019re":1,
    "club":1,
    "precious":1,
    "learned":1,
    "closest":1,
    "extra":1,
    "drink":1,
    "wanna":1,
    "buy":1,
    "drinks":1,
    "mistake":1,
    "wounds":1,
    "treatment":1,
    "betchen":1,
    "bottums":1,
    "pardoneay":1,
    "heavy":1,
    "burden":1,
    "responsibility":1,
    "humility":1,
    "tinged":1,
    "overwhelming":1,
    "hiding":1,
    "year":1,
    "military":1,
    "creation":1,
    "fate":1,
    "firm":1,
    "grip":1,
    "reserve":1,
    "opinions":1,
    "manages":1,
    "mentors":1,
    "faults":1,
    "thankful":1,
    "although":1,
    "ahead":1,
    "knows":1,
    "believes":1,
    "unpredictable":1,
    "age":1,
    "late":1,
    "frustrating":1,
    "overly":1,
    "critical":1,
    "listens":1,
    "fair":1,
    "sounded":1,
    "whining":1,
    "hurt":1,
    "fast":1,
    "makes":1,
    "uncomfortable":1,
    "dorme":1,
    "threats":1,
    "protector":1,
    "attract":1,
    "checking":1,
    "bottom":1,
    "plot":1,
    "suddenly":1,
    "kinda":1,
    "scared":1,
    "sensot":1,
    "tray":1,
    "screen":1,
    "culture":1,
    "markings":1,
    "identified":1,
    "probablt":1,
    "selfmade":1,
    "warrior":1,
    "associated":1,
    "society":1,
    "thorough":1,
    "cover":1,
    "percent":1,
    "thanks":1,
    "seemed":1,
    "lightspeed":1,
    "while":1,
    "changes":1,
    "enhance":1,
    "difficult":1,
    "sworn":1,
    "attachment":1,
    "compassion":1,
    "define":1,
    "unconditional":1,
    "central":1,
    "encouraged":1,
    "sweet":1,
    "breeze":1,
    "rolling":1,
    "whenever":1,
    "visualise":1,
    "earlier":1,
    "fading":1,
    "vivid":1,
    "scary":1,
    "dexter":1,
    "seat":1,
    "cup":1,
    "ardees":1,
    "ol":1,
    "buddy":1,
    "whattaya":1,
    "aint":1,
    "prospecting":1,
    "subterrel":1,
    "belongs":1,
    "funny":1,
    "cuts":1,
    "focus":1,
    "symbols":1,
    "wisdom":1,
    "parsecs":1,
    "outside":1,
    "toward":1,
    "kaminoans":1,
    "damned":1,
    "ones":1,
    "friendly":1,
    "depends":1,
    "pocketbook":1,
    "homesick":1,
    "lonely":1,
    "shimmers":1,
    "sunlight":1,
    "air":1,
    "smells":1,
    "flowers":1,
    "distant":1,
    "waterfalls":1,
    "capital":1,
    "waterfall":1,
    "dreamed":1,
    "girl":1,
    "running":1,
    "studied":1,
    "realised":1,
    "legislators":1,
    "senatorial":1,
    "advisor":1,
    "passion":1,
    "partly":1,
    "scored":1,
    "education":1,
    "certificate":1,
    "conviction":1,
    "reform":1,
    "youngest":1,
    "tried":1,
    "amend":1,
    "constitution":1,
    "popular":1,
    "truthfully":1,
    "relieved":1,
    "terms":1,
    "parents":1,
    "family":1,
    "amazing":1,
    "asked":1,
    "refuse":1,
    "chose":1,
    "generation":1,
    "change":1,
    "profound":1,
    "staying":1,
    "circumstances":1,
    "unthinkable":1,
    "fullscale":1,
    "formation":1,
    "threatened":1,
    "provoked":1,
    "defend":1,
    "despite":1,
    "chancellors":1,
    "efforts":1,
    "judges":1,
    "payrolls":1,
    "hearings":1,
    "court":1,
    "nute":1,
    "gunray":1,
    "mongers":1,
    "courts":1,
    "reduce":1,
    "federations":1,
    "rumours":1,
    "reduced":1,
    "economy":1,
    "believing":1,
    "meantime":1,
    "consider":1,
    "safety":1,
    "suggestion":1,
    "isolated":1,
    "charge":1,
    "risk":1,
    "advantage":1,
    "instance":1,
    "remote":1,
    "terrain":1,
    "settled":1,
    "audience":1,
    "yesterday":1,
    "hopes":1,
    "familys":1,
    "face":1,
    "brilliant":1,
    "privilege":1,
    "knowing":1,
    "quit":1,
    "painful":1,
    "likes":1,
    "step":1,
    "decisions":1,
    "quigon":1,
    "jinn":1,
    "alike":1,
    "individual":1,
    "thinkers":1,
    "idealists":1,
    "lightsaber":1,
    "style":1,
    "fencing":1,
    "unique":1,
    "betrayed":1,
    "serving":1,
    "expectations":1,
    "nine":1,
    "head":1,
    "separatist":1,
    "charts":1,
    "according":1,
    "quadrant":1,
    "somewhere":1,
    "directions":1,
    "street":1,
    "tout":1,
    "miner":1,
    "furbog":1,
    "trader":1,
    "exists":1,
    "gravitational":1,
    "scan":1,
    "inconsistencies":1,
    "record":1,
    "unless":1,
    "hate":1,
    "searching":1,
    "incomplete":1,
    "comprehensive":1,
    "secure":1,
    "item":1,
    "house":1,
    "shy":1,
    "eating":1,
    "jev":1,
    "narrans":1,
    "snack":1,
    "dinner":1,
    "polite":1,
    "starving":1,
    "exciting":1,
    "brought":1,
    "bodyguard":1,
    "settle":1,
    "certainly":1,
    "traveled":1,
    "teach":1,
    "university":1,
    "builder":1,
    "obvious":1,
    "saying":1,
    "relationship":1,
    "strictly":1,
    "professional":1,
    "solas":1,
    "daughter":1,
    "attempts":1,
    "chances":1,
    "therell":1,
    "tracking":1,
    "assassins":1,
    "residences":1,
    "warmth":1,
    "group":1,
    "shaddabiboran":1,
    "imploding":1,
    "helping":1,
    "relocate":1,
    "children":1,
    "nakeetula":1,
    "sweethear":1,
    "died":1,
    "adapt":1,
    "legislator":1,
    "notice":1,
    "visitor":1,
    "mighty":1,
    "bear":1,
    "clan":1,
    "described":1,
    "doesn\u2019t":1,
    "maps":1,
    "gather":1,
    "round":1,
    "map":1,
    "reader":1,
    "pulling":1,
    "stars":1,
    "area":1,
    "inward":1,
    "spot":1,
    "gravity\u2019s":1,
    "silhouette":1,
    "planets":1,
    "blew":1,
    "child":1,
    "uncluttered":1,
    "pull":1,
    "harder":1,
    "answer":1,
    "driven":1,
    "paddy":1,
    "accu":1,
    "caretaker":1,
    "landing":1,
    "platform":1,
    "chrome":1,
    "starship":1,
    "rests":1,
    "lodge":1,
    "rises":1,
    "middle":1,
    "level":1,
    "school":1,
    "swim":1,
    "desert":1,
    "names":1,
    "birds":1,
    "singing":1,
    "don\u2019t":1,
    "it\u2019s":1,
    "coarse":1,
    "rough":1,
    "irritating":1,
    "everywhere":1,
    "smooth":1,
    "lived":1,
    "vases":1,
    "necklaces":1,
    "ripples":1,
    "moves":1,
    "wasn\u2019t":1,
    "becomes":1,
    "stress":1,
    "wary":1,
    "prophecy":1,
    "weill":1,
    "abilities":1,
    "arrogant":1,
    "emotional":1,
    "confused":1,
    "distracted":1,
    "path":1,
    "gained":1,
    "insight":1,
    "whether":1,
    "probing":1,
    "seclusion":1,
    "days":1,
    "hed":1,
    "grumpy":1,
    "intuition":1,
    "muddle":1,
    "agony":1,
    "closer":1,
    "mskes":1,
    "stomach":1,
    "mouth":1,
    "goes":1,
    "dizzy":1,
    "haunted":1,
    "beating":1,
    "scar":1,
    "soul":1,
    "tormenting":1,
    "anythings":1,
    "world":1,
    "studying":1,
    "conclusion":1,
    "regardless":1,
    "extraordinary":1,
    "marry":1,
    "swore":1,
    "oath":1,
    "expelled":1,
    "responsibilities":1,
    "destined":1,
    "asking":1,
    "throw":1,
    "living":1,
    "mt":1,
    "tipoca":1,
    "expects":1,
    "expected":1,
    "present":1,
    "lama":1,
    "su":1,
    "enjoy":1,
    "season":1,
    "schedule":1,
    "million":1,
    "confidence":1,
    "sifodyas":1,
    "leading":1,
    "member":1,
    "inspect":1,
    "tricks":1,
    "palo":1,
    "both":1,
    "legislative":1,
    "youth":1,
    "program":1,
    "older":1,
    "cute":1,
    "curly":1,
    "hair":1,
    "dreamy":1,
    "eyes":1,
    "picture":1,
    "artist":1,
    "smart":1,
    "problems":1,
    "interests":1,
    "wlways":1,
    "whom":1,
    "whos":1,
    "awful":1,
    "making":1,
    "frightened":1,
    "tease":1,
    "carrying":1,
    "weight":1,
    "shoulders":1,
    "magnificent":1,
    "modified":1,
    "result":1,
    "obedient":1,
    "picked":1,
    "pattern":1,
    "starts":1,
    "fade":1,
    "fresh":1,
    "supply":1,
    "free":1,
    "pleases":1,
    "apart":1,
    "considerable":1,
    "demanded":1,
    "pure":1,
    "replication":1,
    "tampering":1,
    "docile":1,
    "arrange":1,
    "essential":1,
    "otherwise":1,
    "lifetime":1,
    "items":1,
    "parade":1,
    "ground":1,
    "immensely":1,
    "superior":1,
    "capable":1,
    "hoped":1,
    "pleased":1,
    "contacted":1,
    "repubic":1,
    "agasint":1,
    "seccessionist":1,
    "arranged":1,
    "r4":1,
    "d17":1,
    "astrodroid":1,
    "starfighter":1,
    "switches":1,
    "relay":1,
    "scramble":1,
    "code":1,
    "courscant":1,
    "whistles":1,
    "panels":1,
    "transmitted":1,
    "whoever":1,
    "discover":1,
    "inform":1,
    "impostor":1,
    "nononomomdont":1,
    "soothing":1,
    "night":1,
    "nightmares":1,
    "clearly":1,
    "paintheyre":1,
    "killing":1,
    "punished":1,
    "thrown":1,
    "continue":1,
    "taun":1,
    "wes":1,
    "trip":1,
    "productive":1,
    "fairly":1,
    "progress":1,
    "simple":1,
    "interior":1,
    "twice":1,
    "sido":1,
    "dyas":1,
    "door":1,
    "recuited":1,
    "bogden":1,
    "kept":1,
    "jedi\u2019s":1,
    "involvement":1,
    "arrival":1,
    "guarantee":1,
    "watto":1,
    "naaaah":1,
    "womp":1,
    "rat":1,
    "sprouted":1,
    "weehoo":1,
    "couldda":1,
    "daedbeats":1,
    "owe":1,
    "mine":1,
    "anne":1,
    "moisture":1,
    "farmer":1,
    "least":1,
    "freed":1,
    "married":1,
    "beat":1,
    "someplace":1,
    "mos":1,
    "eisley":1,
    "troops":1,
    "evening":1,
    "terribly":1,
    "somebody":1,
    "stepbrother":1,
    "girlfriend":1,
    "beru":1,
    "cliegg":1,
    "wife":1,
    "dawn":1,
    "nowhere":1,
    "hunting":1,
    "party":1,
    "tusekn":1,
    "raiders":1,
    "pick":1,
    "mushrooms":1,
    "vaporatos":1,
    "tracks":1,
    "halfway":1,
    "tuskens":1,
    "vicious":1,
    "mindless":1,
    "monsters":1,
    "thirty":1,
    "ride":1,
    "heal":1,
    "month":1,
    "lasted":1,
    "daed":1,
    "bike":1,
    "nearly":1,
    "calm":1,
    "yeahhhhh":1,
    "relate":1,
    "inactive":1,
    "inbetween":1,
    "lucky":1,
    "unhappy":1,
    "masters":1,
    "ar":1,
    "trouuble":1,
    "embarrassing":1,
    "naked":1,
    "expression":1,
    "quite":1,
    "covering":1,
    "humiliating":1,
    "circuits":1,
    "showing":1,
    "simply":1,
    "box":1,
    "coverings":1,
    "observant":1,
    "mechanically":1,
    "minded":1,
    "ooooh":1,
    "tickles":1,
    "you\u2019re":1,
    "complete":1,
    "handsome":1,
    "grownup":1,
    "missed":1,
    "guiding":1,
    "starships":1,
    "deliveries":1,
    "forbids":1,
    "building":1,
    "foundry":1,
    "capacity":1,
    "interrogation":1,
    "geonosian":1,
    "techno":1,
    "union":1,
    "representatives":1,
    "pointed":1,
    "questions":1,
    "recruited":1,
    "forename":1,
    "playing":1,
    "mysterious":1,
    "pieces":1,
    "routine":1,
    "preparing":1,
    "fully":1,
    "unfortunately":1,
    "extreme":1,
    "solution":1,
    "akin":1,
    "rely":1,
    "available":1,
    "hundreds":1,
    "thousands":1,
    "corporate":1,
    "speculation":1,
    "prepare":1,
    "worst":1,
    "session":1,
    "closely":1,
    "aligned":1,
    "issue":1,
    "partisan":1,
    "debates":1,
    "proposal":1,
    "neutral":1,
    "source":1,
    "august":1,
    "saddest":1,
    "um":1,
    "topside":1,
    "everybody":1,
    "pledged":1,
    "forming":1,
    "aaaggghhh":1,
    "retransmit":1,
    "priority":1,
    "parsec":1,
    "plan":1,
    "dookus":1,
    "regrettable":1,
    "absence":1,
    "senior":1,
    "dellow":1,
    "felagates":1,
    "accord":1,
    "courtesy":1,
    "hearing":1,
    "response":1,
    "confederacy":1,
    "immediate":1,
    "support":1,
    "dictator":1,
    "sentiment":1,
    "agrees":1,
    "shadow":1,
    "dispersed":1,
    "bright":1,
    "liberty":1,
    "dawned":1,
    "gladly":1,
    "swiftly":1,
    "ancient":1,
    "liberties":1,
    "restored":1,
    "burnished":1,
    "brightly":1,
    "reluctance":1,
    "calling":1,
    "demanding":1,
    "absolute":1,
    "tule":1,
    "evident":1,
    "mild":1,
    "nature":1,
    "lay":1,
    "abated":1,
    "current":1,
    "term":1,
    "allow":1,
    "reture":1,
    "proceed":1,
    "favor":1,
    "signal":1,
    "ate":1,
    "opposed":1,
    "letting":1,
    "final":1,
    "galactic":1,
    "contain":1,
    "confusing":1,
    "generating":1,
    "mutual":1,
    "attraction":1,
    "waves":1,
    "violent":1,
    "hostility":1,
    "empty":1,
    "housebroken":1,
    "formally":1,
    "requesting":1,
    "hours":1,
    "plea":1,
    "clemency":1,
    "rebellion":1,
    "fed":1,
    "corruption":1,
    "hypocrisy":1,
    "institution":1,
    "failing":1,
    "prominent":1,
    "palpatine":1,
    "incompetent":1,
    "promised":1,
    "bureaucracy":1,
    "fixed":1,
    "sham":1,
    "shell":1,
    "game":1,
    "played":1,
    "voters":1,
    "cult":1,
    "greed":1,
    "pretext":1,
    "forsake":1,
    "treaties":1,
    "bought":1,
    "cooperation":1,
    "execution":1,
    "offence":1,
    "individuals":1,
    "demise":1,
    "purely":1,
    "paid":1,
    "sums":1,
    "hard":1,
    "included":1,
    "cooperate":1,
    "bloodshed":1,
    "escape":1,
    "charged":1,
    "guilty":1,
    "committing":1,
    "archduke":1,
    "consequences":1,
    "weapons":1,
    "carry":1,
    "suffer":1,
    "talking":1,
    "forced":1,
    "cured":1,
    "short":1,
    "vow":1,
    "gotten":1,
    "retransmitted":1,
    "rescue":1,
    "felons":1,
    "sovereign":1,
    "henceforth":1,
    "foul":1,
    "shoot":1,
    "okay":1,
    "sort":1,
    "jump":1,
    "finish":1,
    "patiece":1,
    "somethings":1,
    "dull":1,
    "shortly":1,
    "worrying":1,
    "truth":1,
    "boys":1,
    "partys":1,
    "impossibly":1,
    "outnumbered":1,
    "worth":1,
    "scaring":1,
    "imagining":1,
    "taken":1,
    "chance":1,
    "feature":1,
    "gallantly":1,
    "worthy":1,
    "recognition":1,
    "finished":1,
    "surrender":1,
    "spared":1,
    "hostages":1,
    "barter":1,
    "encircle":1,
    "divide":1,
    "probably":1,
    "celebration":1,
    "land":1,
    "excellency":1,
    "stand":1,
    "together":1,
    "slowly":1,
    "spent":1,
    "learning":1,
    "infinitely":1,
    "greater":1,
    "grand":1,
    "holds":1,
    "esteem":1,
    "surely":1,
    "surprised":1,
    "swordsmanship":1,
    "degenerated":1,
    "learnt":1,
    "unusual":1,
    "enought":1,
    "bet":1,
    "contests":1,
    "resistance":1,
    "general":1,
    "excellent":1,
    "escorting":1,
    "cord\u00e9":2,
    "duty":2,
    "assassinated":2,
    "became":2,
    "fought":2,
    "justice":2,
    "public":2,
    "service":2,
    "loss":2,
    "civil":2,
    "assassination":2,
    "needs":2,
    "remind":2,
    "negotiations":2,
    "continuing":2,
    "costs":2,
    "chair":2,
    "recognises":2,
    "hour":2,
    "target":2,
    "measure":2,
    "assure":2,
    "create":2,
    "misery":2,
    "wake":2,
    "violence":2,
    "return":2,
    "pray":2,
    "fear":2,
    "anyone":2,
    "rule":2,
    "due":2,
    "arrived":2,
    "send":2,
    "heart":2,
    "moons":2,
    "appears":2,
    "remains":2,
    "grave":2,
    "conflict":2,
    "tells":2,
    "suggest":2,
    "returned":2,
    "necessary":2,
    "rest":2,
    "big":2,
    "today":2,
    "losing":2,
    "report":2,
    "mindful":2,
    "seeen":2,
    "oops":2,
    "manners":2,
    "forgot":2,
    "myself":2,
    "native":2,
    "lookie":2,
    "forgotten":2,
    "pleasure":2,
    "goodness":2,
    "tatooine":2,
    "grateful":2,
    "admit":2,
    "answers":2,
    "attention":2,
    "assigned":2,
    "surrounding":2,
    "threat":2,
    "officer":2,
    "centre":2,
    "downstairs":2,
    "recognise":2,
    "disturbance":2,
    "coming":2,
    "sith":2,
    "balance":2,
    "quiet":2,
    "waiting":2,
    "liked":2,
    "programmed":2,
    "intruder":2,
    "dreaming":2,
    "rather":2,
    "commitment":2,
    "easily":2,
    "politician":2,
    "willing":2,
    "another":2,
    "early":2,
    "morning":2,
    "appear":2,
    "corrupt":2,
    "almost":2,
    "took":2,
    "cockpit":2,
    "speed":2,
    "spend":2,
    "saber":2,
    "skills":2,
    "walk":2,
    "ahh":2,
    "killed":2,
    "stupid":2,
    "shortcut":2,
    "deep":2,
    "direction":2,
    "patience":2,
    "jedis":2,
    "possession":2,
    "pain":2,
    "sell":2,
    "rethink":2,
    "official":2,
    "soon":2,
    "toxic":2,
    "dart":2,
    "honoured":2,
    "defeat":2,
    "act":2,
    "mentor":2,
    "prove":2,
    "quickly":2,
    "assignment":2,
    "foolish":2,
    "subject":2,
    "eight":2,
    "nobody":2,
    "assistance":2,
    "figure":2,
    "moving":2,
    "nightmare":2,
    "hungry":2,
    "forward":2,
    "perception":2,
    "visit":2,
    "places":2,
    "breathe":2,
    "hills":2,
    "memory":2,
    "waddya":2,
    "trouble":2,
    "rim":2,
    "kyberdart":2,
    "wonder":2,
    "respect":2,
    "between":2,
    "sound":2,
    "twelve":2,
    "rishi":2,
    "maze":2,
    "south":2,
    "grew":2,
    "city":2,
    "problem":2,
    "palace":2,
    "soft":2,
    "though":2,
    "refugee":2,
    "joined":2,
    "later":2,
    "wasnt":2,
    "hoping":2,
    "sisters":2,
    "wonderful":2,
    "kids":2,
    "votes":2,
    "money":2,
    "restrain":2,
    "outrageous":2,
    "four":2,
    "viceroy":2,
    "counsellor":2,
    "investigate":2,
    "anakins":2,
    "yet":2,
    "country":2,
    "view":2,
    "happening":2,
    "understood":2,
    "twenty":2,
    "recent":2,
    "striving":2,
    "match":2,
    "disappeared":2,
    "showed":2,
    "coordinates":2,
    "information":2,
    "sounds":2,
    "ought":2,
    "totally":2,
    "ryoo":2,
    "pooja":2,
    "boyfriend":2,
    "noticed":2,
    "cut":2,
    "sun":2,
    "dying":2,
    "holding":2,
    "means":2,
    "younglings":2,
    "disturb":2,
    "retreat":2,
    "skims":2,
    "across":2,
    "sitting":2,
    "dry":2,
    "gets":2,
    "everything\u2019s":2,
    "magical":2,
    "looked":2,
    "confident":2,
    "connection":2,
    "met":2,
    "kiss":2,
    "suffering":2,
    "knight":2,
    "each":2,
    "rational":2,
    "fall":2,
    "secret":2,
    "wed":2,
    "anxious":2,
    "delighted":2,
    "units":2,
    "weakminded":2,
    "whatever":2,
    "works":2,
    "discuss":2,
    "hardly":2,
    "dictatorship":2,
    "universe":2,
    "structure":2,
    "original":2,
    "host":2,
    "choice":2,
    "hand":2,
    "unaltered":2,
    "curious":2,
    "growth":2,
    "acceleration":2,
    "mentioned":2,
    "half":2,
    "five":2,
    "action":2,
    "impressive":2,
    "top":2,
    "beeps":2,
    "folks":2,
    "light":2,
    "someones":2,
    "disobeying":2,
    "boba":2,
    "expect":2,
    "seems":2,
    "shut":2,
    "skywalker":2,
    "named":2,
    "battalions":2,
    "planned":2,
    "watch":2,
    "hang":2,
    "protocol":2,
    "droid":2,
    "active":2,
    "suppose":2,
    "pardon":2,
    "found":2,
    "foundries":2,
    "becoming":2,
    "debate":2,
    "approve":2,
    "wan":2,
    "begin":2,
    "ah":2,
    "gave":2,
    "strict":2,
    "along":2,
    "authority":2,
    "agreed":2,
    "direct":2,
    "demand":2,
    "measures":2,
    "democratic":2,
    "convicted":2,
    "executed":2,
    "honest":2,
    "executions":2,
    "carried":2,
    "prepared":2,
    "arena":2,
    "new":2,
    "disappoint":2,
    "brave":2,
    "begun":2,
    "wrong":3,
    "colleagues":3,
    "news":3,
    "served":3,
    "believed":3,
    "freedom":3,
    "werent":3,
    "under":3,
    "protection":3,
    "peace":3,
    "others":3,
    "build":3,
    "warn":3,
    "push":3,
    "until":3,
    "friends":3,
    "star":3,
    "lord":3,
    "strong":3,
    "fact":3,
    "desire":3,
    "placed":3,
    "familiar":3,
    "blockade":3,
    "accept":3,
    "completely":3,
    "learn":3,
    "actually":3,
    "seem":3,
    "pay":3,
    "else":3,
    "wit":3,
    "thoughts":3,
    "check":3,
    "growing":3,
    "obiwans":3,
    "captain":3,
    "men":3,
    "assassin":3,
    "possibly":3,
    "sleep":3,
    "dream":3,
    "betray":3,
    "careful":3,
    "easy":3,
    "flying":3,
    "slow":3,
    "minute":3,
    "close":3,
    "clear":3,
    "hurry":3,
    "hell":3,
    "deeply":3,
    "weapon":3,
    "lesson":3,
    "cause":3,
    "listen":3,
    "sticks":3,
    "hired":3,
    "same":3,
    "binks":3,
    "pride":3,
    "upon":3,
    "ordered":3,
    "decided":3,
    "sometimes":3,
    "requested":3,
    "name":3,
    "deny":3,
    "truly":3,
    "trials":3,
    "started":3,
    "understand":3,
    "exactly":3,
    "concerned":3,
    "analysis":3,
    "exist":3,
    "known":3,
    "records":3,
    "galaxy":3,
    "mature":3,
    "allowed":3,
    "forbidden":3,
    "changed":3,
    "bit":3,
    "hasnt":3,
    "recently":3,
    "honey":3,
    "beyond":3,
    "outer":3,
    "baby":3,
    "cloners":3,
    "difference":3,
    "knowledge":3,
    "pleasant":3,
    "felt":3,
    "relief":3,
    "office":3,
    "history":3,
    "such":3,
    "high":3,
    "gives":3,
    "serve":3,
    "highness":3,
    "coruscant":3,
    "leaving":3,
    "bureaucrats":3,
    "faith":3,
    "talk":3,
    "wanted":3,
    "government":3,
    "interesting":3,
    "destroyed":3,
    "theyll":3,
    "sit":3,
    "missing":3,
    "full":3,
    "puzzle":3,
    "gravity":3,
    "erased":3,
    "water":3,
    "lie":3,
    "sand":3,
    "shouldnt":3,
    "stronger":3,
    "beginning":3,
    "process":3,
    "supposed":3,
    "fun":3,
    "ask":3,
    "prime":3,
    "minister":3,
    "hear":3,
    "genetic":3,
    "taking":3,
    "inside":3,
    "message":3,
    "darth":3,
    "tyranus":3,
    "shmi":3,
    "yeah":3,
    "sold":3,
    "ship":3,
    "owen":3,
    "battle":3,
    "treaty":3,
    "alliance":3,
    "propose":3,
    "granting":3,
    "assume":3,
    "espionage":3,
    "ideals":3,
    "geonosians":3,
    "sentence":3,
    "important":4,
    "shall":4,
    "personal":4,
    "elected":4,
    "dear":4,
    "longer":4,
    "comes":4,
    "against":4,
    "destroy":4,
    "does":4,
    "systems":4,
    "realise":4,
    "sense":4,
    "idea":4,
    "behind":4,
    "attack":4,
    "once":4,
    "kind":4,
    "wise":4,
    "during":4,
    "serious":4,
    "possible":4,
    "yourself":4,
    "thousand":4,
    "yousa":4,
    "presence":4,
    "beautiful":4,
    "knew":4,
    "investigation":4,
    "promise":4,
    "mandate":4,
    "learner":4,
    "interest":4,
    "having":4,
    "bad":4,
    "future":4,
    "true":4,
    "ten":4,
    "themselves":4,
    "trust":4,
    "yours":4,
    "forget":4,
    "youd":4,
    "already":4,
    "gonna":4,
    "crazy":4,
    "worked":4,
    "that\u2019s":4,
    "next":4,
    "father":4,
    "anyway":4,
    "deal":4,
    "call":4,
    "seeing":4,
    "powerful":4,
    "gone":4,
    "training":4,
    "fine":4,
    "absolutely":4,
    "without":4,
    "feelings":4,
    "doubt":4,
    "either":4,
    "dex":4,
    "leave":4,
    "movement":4,
    "politicians":4,
    "agree":4,
    "turn":4,
    "armies":4,
    "control":4,
    "lake":4,
    "perfect":4,
    "three":4,
    "archives":4,
    "sister":4,
    "sola":4,
    "hello":4,
    "crisis":4,
    "save":4,
    "isn\u2019t":4,
    "question":4,
    "island":4,
    "glass":4,
    "few":4,
    "independent":4,
    "clones":4,
    "arfour":4,
    "miss":4,
    "geonosis":4,
    "orders":4,
    "join":4,
    "victory":4,
    "motion":5,
    "follow":5,
    "show":5,
    "lives":5,
    "decision":5,
    "off":5,
    "happen":5,
    "worse":5,
    "impossible":5,
    "alive":5,
    "feeling":5,
    "start":5,
    "situation":5,
    "perhaps":5,
    "obi":5,
    "far":5,
    "glad":5,
    "grown":5,
    "lot":5,
    "lets":5,
    "bring":5,
    "thinking":5,
    "artoo":5,
    "worried":5,
    "ways":5,
    "because":5,
    "seen":5,
    "dreams":5,
    "around":5,
    "man":5,
    "speeder":5,
    "working":5,
    "himself":5,
    "work":5,
    "weve":5,
    "bounty":5,
    "hunter":5,
    "representative":5,
    "grow":5,
    "windu":5,
    "move":5,
    "said":5,
    "care":5,
    "put":5,
    "given":5,
    "ya":5,
    "archive":5,
    "part":5,
    "saw":5,
    "commerce":5,
    "guilds":5,
    "trade":5,
    "best":5,
    "told":5,
    "happened":5,
    "used":5,
    "proud":5,
    "dad":5,
    "lars":5,
    "threepio":5,
    "democracy":6,
    "death":6,
    "supreme":6,
    "less":6,
    "which":6,
    "hold":6,
    "kill":6,
    "end":6,
    "might":6,
    "politics":6,
    "mesa":6,
    "moment":6,
    "mean":6,
    "dangerous":6,
    "padawan":6,
    "better":6,
    "whats":6,
    "doing":6,
    "got":6,
    "own":6,
    "left":6,
    "kamino":6,
    "federation":6,
    "real":6,
    "welcome":6,
    "meet":6,
    "exceptional":6,
    "fett":6,
    "emergency":6,
    "danger":7,
    "queen":7,
    "also":7,
    "senators":7,
    "die":7,
    "safe":7,
    "separatists":7,
    "padm\u00e9":7,
    "ago":7,
    "lose":7,
    "arent":7,
    "enough":7,
    "times":7,
    "remember":7,
    "youve":7,
    "youll":7,
    "trying":7,
    "through":7,
    "place":7,
    "ill":7,
    "happy":7,
    "couldnt":7,
    "theres":7,
    "lost":7,
    "i\u2019m":7,
    "business":7,
    "ready":7,
    "hope":7,
    "came":7,
    "things":7,
    "looking":7,
    "looks":7,
    "live":7,
    "last":7,
    "hundred":7,
    "done":7,
    "after":7,
    "become":7,
    "maybe":7,
    "guess":8,
    "vote":8,
    "amidala":8,
    "security":8,
    "nothing":8,
    "cannot":8,
    "away":8,
    "side":8,
    "everything":8,
    "use":8,
    "course":8,
    "job":8,
    "every":8,
    "even":8,
    "since":8,
    "other":8,
    "mind":8,
    "hey":8,
    "isnt":8,
    "power":8,
    "went":8,
    "anything":8,
    "thing":8,
    "son":8,
    "clone":8,
    "excuse":9,
    "some":9,
    "system":9,
    "many":9,
    "dark":9,
    "wouldnt":9,
    "being":9,
    "apprentice":9,
    "afraid":9,
    "council":9,
    "try":9,
    "havent":9,
    "theyre":9,
    "doesnt":9,
    "heard":9,
    "called":9,
    "powers":9,
    "droids":9,
    "ever":9,
    "people":9,
    "give":9,
    "jango":9,
    "friend":10,
    "able":10,
    "wish":10,
    "first":10,
    "yoda":10,
    "worry":10,
    "jar":10,
    "boy":10,
    "didnt":10,
    "wait":10,
    "sidodyas":10,
    "planet":11,
    "stop":11,
    "believe":11,
    "someone":11,
    "into":11,
    "protect":11,
    "really":11,
    "thank":11,
    "kenobi":11,
    "thats":11,
    "years":11,
    "two":11,
    "something":11,
    "keep":11,
    "id":11,
    "cant":11,
    "great":12,
    "these":12,
    "need":12,
    "senate":12,
    "long":12,
    "shes":12,
    "mother":12,
    "should":13,
    "force":13,
    "always":13,
    "old":13,
    "feel":13,
    "stay":13,
    "did":14,
    "naboo":14,
    "home":14,
    "than":14,
    "young":14,
    "may":14,
    "help":14,
    "get":14,
    "say":14,
    "wont":14,
    "made":15,
    "again":15,
    "let":15,
    "ive":15,
    "find":15,
    "day":15,
    "yes":15,
    "look":15,
    "make":15,
    "never":15,
    "padme":15,
    "still":16,
    "chancellor":16,
    "their":16,
    "down":16,
    "count":16,
    "his":16,
    "where":16,
    "most":16,
    "mom":16,
    "back":17,
    "please":17,
    "life":17,
    "take":17,
    "am":17,
    "dooku":17,
    "thought":17,
    "good":17,
    "those":17,
    "love":17,
    "tell":17,
    "by":17,
    "order":18,
    "why":18,
    "war":18,
    "any":18,
    "over":18,
    "little":18,
    "hes":18,
    "mlady":19,
    "army":19,
    "before":19,
    "then":19,
    "them":19,
    "had":19,
    "right":19,
    "or":19,
    "come":20,
    "how":20,
    "obiwan":20,
    "sorry":21,
    "only":21,
    "been":22,
    "she":22,
    "our":22,
    "much":22,
    "oh":22,
    "sure":23,
    "republic":23,
    "want":23,
    "could":24,
    "from":25,
    "when":26,
    "us":26,
    "too":26,
    "way":26,
    "go":26,
    "at":27,
    "":27,
    "time":27,
    "well":27,
    "one":28,
    "annie":29,
    "out":29,
    "who":30,
    "up":30,
    "anakin":30,
    "very":31,
    "just":31,
    "would":31,
    "him":32,
    "there":33,
    "all":33,
    "an":33,
    "has":33,
    "must":33,
    "more":34,
    "were":34,
    "see":34,
    "youre":34,
    "as":35,
    "going":35,
    "can":36,
    "senator":37,
    "now":38,
    "like":38,
    "about":40,
    "her":43,
    "know":46,
    "think":46,
    "so":48,
    "if":48,
    "they":49,
    "here":49,
    "what":54,
    "with":55,
    "no":56,
    "its":60,
    "but":65,
    "jedi":65,
    "on":75,
    "dont":76,
    "do":78,
    "will":79,
    "for":81,
    "he":83,
    "me":84,
    "master":84,
    "was":86,
    "your":87,
    "im":88,
    "have":99,
    "my":99,
    "are":100,
    "this":101,
    "not":105,
    "we":106,
    "in":106,
    "that":119,
    "be":119,
    "and":136,
    "it":154,
    "is":157,
    "of":172,
    "a":194,
    "to":343,
    "you":362,
    "i":399,
    "the":449
}