{
    "st":1,
    "321":1,
    "blue":1,
    "confirmation":1,
    "inform":1,
    "arrived":1,
    "honored":1,
    "dispense":1,
    "pleasantries":1,
    "working":1,
    "motivate":1,
    "share":1,
    "optimistic":1,
    "appraisal":1,
    "situation":1,
    "impossible":1,
    "arrives":1,
    "correct":1,
    "displeased":1,
    "apparent":1,
    "progress":1,
    "double":1,
    "efforts":1,
    "sake":1,
    "forgiving":1,
    "worried":1,
    "poor":1,
    "returned":1,
    "awful":1,
    "half":1,
    "heard":1,
    "probably":1,
    "shortcircuit":1,
    "tee":1,
    "chuta":1,
    "hhat":1,
    "yudd":1,
    "gracious":1,
    "detoowha":1,
    "seethreepiowha":1,
    "ey":1,
    "toota":1,
    "odd":1,
    "mischka":1,
    "du":1,
    "wed":1,
    "rush":1,
    "deliver":1,
    "wanga":1,
    "wauaga":1,
    "nee":1,
    "badda":1,
    "chaade":1,
    "su":1,
    "goodie":1,
    "instructions":1,
    "stubborn":1,
    "nudd":1,
    "chaa":1,
    "morning":1,
    "shuda":1,
    "greetings":1,
    "exalted":1,
    "allow":1,
    "introduce":1,
    "equally":1,
    "audience":1,
    "greatness":1,
    "bargain":1,
    "solos":1,
    "wisdom":1,
    "arrangement":1,
    "mutually":1,
    "beneficial":1,
    "enable":1,
    "avoid":1,
    "unpleasant":1,
    "confrontation":1,
    "token":1,
    "goodwill":1,
    "present":1,
    "gift":1,
    "playing":1,
    "doomed":1,
    "expressed":1,
    "unhappiness":1,
    "ohh":1,
    "acquisitions":1,
    "seethreepio":1,
    "humancy":1,
    "languages":1,
    "readily":1,
    "splendid":1,
    "without":1,
    "interpreter":1,
    "since":1,
    "feisty":1,
    "respect":1,
    "masters":1,
    "sail":1,
    "barge":1,
    "fit":1,
    "nicely":1,
    "da":1,
    "eitha":1,
    "chuba":1,
    "negatorie":1,
    "natoota":1,
    "boscka":1,
    "worshipfulness":1,
    "illustrious":1,
    "bids":1,
    "gladly":1,
    "reward":1,
    "five":1,
    "fifty":1,
    "because":1,
    "thermal":1,
    "detonator":1,
    "offers":1,
    "sum":1,
    "thirtyfive":1,
    "suggest":1,
    "zeebuss":1,
    "agrees":1,
    "relax":1,
    "shhh":1,
    "hibernation":1,
    "sickness":1,
    "eyesight":1,
    "return":1,
    "jabbas":1,
    "palace":1,
    "loves":1,
    "laugh":1,
    "sidetracked":1,
    "triple":1,
    "throwing":1,
    "fortune":1,
    "fool":1,
    "regret":1,
    "ugh":1,
    "bear":1,
    "chewchewie":1,
    "even":1,
    "less":1,
    "anybody":1,
    "ajedi":1,
    "iim":1,
    "gets":1,
    "delusions":1,
    "grandeur":1,
    "rewarded":1,
    "allowed":1,
    "wookiee":1,
    "nevertheless":1,
    "taking":1,
    "either":1,
    "profit":1,
    "warn":1,
    "bascka":1,
    "rancor":1,
    "miss":1,
    "same":1,
    "high":1,
    "exaltedness":1,
    "decreed":1,
    "terminated":1,
    "immediately":1,
    "waits":1,
    "therefore":1,
    "dune":1,
    "sea":1,
    "cast":1,
    "pit":1,
    "carkoon":1,
    "nesting":1,
    "allpowerful":1,
    "belly":1,
    "definition":1,
    "pain":1,
    "suffering":1,
    "slowly":1,
    "digested":1,
    "years":1,
    "second":1,
    "bargained":1,
    "getting":1,
    "instead":1,
    "light":1,
    "used":1,
    "live":1,
    "convenient":1,
    "sor":1,
    "serving":1,
    "drinks":1,
    "execute":1,
    "careful":1,
    "confidence":1,
    "victims":1,
    "almighty":1,
    "excellency":1,
    "hopes":1,
    "honorably":1,
    "mercy":1,
    "listen":1,
    "pleas":1,
    "slimy":1,
    "wormridden":1,
    "filth":1,
    "hell":1,
    "slipping":1,
    "llando":1,
    "gently":1,
    "gun":1,
    "blind":1,
    "trust":1,
    "beast":1,
    "deck":1,
    "forget":1,
    "blowing":1,
    "sand":1,
    "carbon":1,
    "closest":1,
    "sleepin":1,
    "wide":1,
    "crate":1,
    "guess":1,
    "owe":1,
    "figured":1,
    "unfrozen":1,
    "sooner":1,
    "later":1,
    "miserable":1,
    "dust":1,
    "ball":1,
    "dagobah":1,
    "system":1,
    "completed":1,
    "sense":1,
    "grown":1,
    "proceeding":1,
    "sleep":1,
    "earned":1,
    "twilight":1,
    "night":1,
    "fall":1,
    "require":1,
    "mmm":1,
    "strength":1,
    "flows":1,
    "beware":1,
    "fear":1,
    "aggression":1,
    "start":1,
    "path":1,
    "dominate":1,
    "lukelukedo":1,
    "notdo":1,
    "suffer":1,
    "fate":1,
    "runs":1,
    "anotherskyskywalker":1,
    "murdered":1,
    "ceased":1,
    "became":1,
    "certain":1,
    "truths":1,
    "cling":1,
    "depend":1,
    "greatly":1,
    "blame":1,
    "being":1,
    "certainly":1,
    "pilot":1,
    "amazed":1,
    "strongly":1,
    "took":1,
    "train":1,
    "instruct":1,
    "pride":1,
    "terrible":1,
    "consequences":1,
    "machine":1,
    "twisted":1,
    "evil":1,
    "tried":1,
    "humbled":1,
    "met":1,
    "lukebut":1,
    "experience":1,
    "among":1,
    "value":1,
    "impatient":1,
    "defeat":1,
    "finished":1,
    "prepared":1,
    "beyond":1,
    "past":1,
    "impatience":1,
    "easiest":1,
    "held":1,
    "firm":1,
    "reckless":1,
    "patient":1,
    "won":1,
    "protect":1,
    "both":1,
    "hidden":1,
    "born":1,
    "offspring":1,
    "threat":1,
    "reason":1,
    "remains":1,
    "safely":1,
    "anonymous":1,
    "leias":1,
    "insight":1,
    "serves":1,
    "bury":1,
    "credit":1,
    "involved":1,
    "trained":1,
    "avoiding":1,
    "maneuver":1,
    "taanab":1,
    "aint":1,
    "respectable":1,
    "critical":1,
    "error":1,
    "data":1,
    "brought":1,
    "bothan":1,
    "spies":1,
    "pinpoints":1,
    "exact":1,
    "location":1,
    "emperors":1,
    "spread":1,
    "throughout":1,
    "vain":1,
    "effort":1,
    "engage":1,
    "relatively":1,
    "unprotected":1,
    "important":1,
    "personally":1,
    "overseeing":1,
    "stages":1,
    "construction":1,
    "orbiting":1,
    "defense":1,
    "mechanism":1,
    "protected":1,
    "energy":1,
    "generated":1,
    "nearby":1,
    "attempted":1,
    "create":1,
    "perimeter":1,
    "superstructure":1,
    "attempt":1,
    "madine":1,
    "stolen":1,
    "disguised":1,
    "cargo":1,
    "land":1,
    "sounds":1,
    "assembled":1,
    "teams":1,
    "crew":1,
    "rough":1,
    "count":1,
    "hi":1,
    "exciting":1,
    "hardly":1,
    "word":1,
    "fastest":1,
    "sheshe":1,
    "scratch":1,
    "pirate":1,
    "warmed":1,
    "comin":1,
    "empire":1,
    "wookiees":1,
    "mind":1,
    "designed":1,
    "funny":1,
    "junk":1,
    "hang":1,
    "thy":1,
    "bidding":1,
    "until":1,
    "called":1,
    "reports":1,
    "massing":1,
    "sullust":1,
    "pretty":1,
    "tydirium":1,
    "requesting":1,
    "deactivation":1,
    "commencing":1,
    "worth":1,
    "though":1,
    "casual":1,
    "shouldnt":1,
    "imagination":1,
    "kid":1,
    "optimism":1,
    "older":1,
    "checks":1,
    "deal":1,
    "problem":1,
    "around":1,
    "whole":1,
    "partyll":1,
    "quietly":1,
    "closer":1,
    "alongside":1,
    "somebodys":1,
    "separated":1,
    "ahead":1,
    "0300":1,
    "scanners":1,
    "cut":1,
    "looks":1,
    "stuck":1,
    "trouble":1,
    "maybe":1,
    "sit":1,
    "eat":1,
    "hmmm":1,
    "hat":1,
    "arent":1,
    "halt":1,
    "disturbed":1,
    "remain":1,
    "penetrated":1,
    "landed":1,
    "strange":1,
    "matter":1,
    "sanctuary":1,
    "compassion":1,
    "undoing":1,
    "wrecked":1,
    "speeders":1,
    "artoos":1,
    "sensors":1,
    "trace":1,
    "nice":1,
    "stomach":1,
    "figure":1,
    "reach":1,
    "drooop":1,
    "wha":1,
    "someplace":1,
    "else":1,
    "em":1,
    "crossbow":1,
    "telling":1,
    "primitive":1,
    "dialect":1,
    "god":1,
    "divine":1,
    "influence":1,
    "pardon":1,
    "programming":1,
    "impersonate":1,
    "deity":1,
    "embarrassed":1,
    "appears":1,
    "banquet":1,
    "honor":1,
    "royal":1,
    "somehow":1,
    "become":1,
    "whawhawhats":1,
    "happening":1,
    "heeelp":1,
    "thank":1,
    "wonderful":1,
    "tribe":1,
    "wanted":1,
    "scouts":1,
    "quickest":1,
    "ask":1,
    "fresh":1,
    "supplies":1,
    "weapons":1,
    "bit":1,
    "died":1,
    "justimages":1,
    "beautiful":1,
    "butsad":1,
    "asking":1,
    "memory":1,
    "troubling":1,
    "herenow":1,
    "hear":1,
    "talk":1,
    "iti":1,
    "itandmy":1,
    "somehowive":1,
    "known":1,
    "becausethere":1,
    "surrendered":1,
    "denies":1,
    "request":1,
    "permission":1,
    "further":1,
    "area":1,
    "companions":1,
    "name":1,
    "self":1,
    "forgotten":1,
    "driven":1,
    "indeed":1,
    "obey":1,
    "turnand":1,
    "forced":1,
    "within":1,
    "nature":1,
    "truly":1,
    "control":1,
    "bunkers":1,
    "landing":1,
    "platform":1,
    "isnt":1,
    "places":1,
    "heavily":1,
    "guarded":1,
    "ridge":1,
    "accounted":1,
    "countdown":1,
    "groups":1,
    "assume":1,
    "coordinates":1,
    "theyll":1,
    "thisll":1,
    "shortest":1,
    "offensive":1,
    "hyperspace":1,
    "mark":1,
    "takes":1,
    "sound":1,
    "alarm":1,
    "quiet":1,
    "furry":1,
    "companion":1,
    "rash":1,
    "furball":1,
    "decided":1,
    "guards":1,
    "gravely":1,
    "convert":1,
    "mistakenabout":1,
    "deadand":1,
    "refer":1,
    "imminent":1,
    "yesi":1,
    "safe":1,
    "overconfidence":1,
    "weakness":1,
    "faith":1,
    "yours":1,
    "pointless":1,
    "resist":1,
    "ohim":1,
    "arrive":1,
    "charges":1,
    "scum":1,
    "wings":1,
    "report":1,
    "gray":1,
    "sfoils":1,
    "positions":1,
    "able":1,
    "jamming":1,
    "break":1,
    "evasive":1,
    "action":1,
    "mv7":1,
    "enemy":1,
    "47":1,
    "trap":1,
    "accelerate":1,
    "speed":1,
    "draw":1,
    "boy":1,
    "destruction":1,
    "insignificant":1,
    "rebellion":1,
    "swelling":1,
    "unarmed":1,
    "each":1,
    "passing":1,
    "servant":1,
    "unavoidable":1,
    "looking":1,
    "surrender":1,
    "codes":1,
    "changed":1,
    "heres":1,
    "terminal":1,
    "heroics":1,
    "above":1,
    "degrees":1,
    "pressures":1,
    "steady":1,
    "attacking":1,
    "waiting":1,
    "orders":1,
    "special":1,
    "escaping":1,
    "blast":1,
    "came":1,
    "home":1,
    "saw":1,
    "retreat":1,
    "repel":1,
    "magnitude":1,
    "brave":1,
    "hotwire":1,
    "cover":1,
    "range":1,
    "starand":1,
    "blow":1,
    "hit":1,
    "survive":1,
    "dieas":1,
    "defenseless":1,
    "hatred":1,
    "journey":1,
    "towards":1,
    "hands":1,
    "wounded":1,
    "unwise":1,
    "defenses":1,
    "youthe":1,
    "06":1,
    "shot":1,
    "nowcome":1,
    "rebels":1,
    "routed":1,
    "fleeing":1,
    "woods":1,
    "reinforcements":1,
    "pursuit":1,
    "squads":1,
    "open":1,
    "throw":1,
    "charge":1,
    "especially":1,
    "soyou":1,
    "wise":1,
    "failure":1,
    "neverrr":1,
    "fulfill":1,
    "itjedi":1,
    "commence":1,
    "stars":1,
    "theyd":1,
    "foolonly":1,
    "feeble":1,
    "match":1,
    "vision":1,
    "skywalkeryou":1,
    "goes":1,
    "onto":1,
    "strongest":1,
    "source":1,
    "form":1,
    "alert":1,
    "space":1,
    "split":1,
    "surface":1,
    "tie":1,
    "concentrate":1,
    "super":1,
    "destroyer":1,
    "bridge":1,
    "batteries":1,
    "through":1,
    "sisteryou":1,
    "fatheri":1,
    "skywalkerlukes":1,
    "dies":1,
    "regulator":1,
    "north":1,
    "tower":1,
    "blew":1,
    "comes":1,
    "brother":1,
    "puppeteers":1,
    "mccormick":1,
    "roy":1,
    "swim":1,
    "lee":1,
    "quinn":1,
    "richard":1,
    "robinson":1,
    "h":1,
    "balham":1,
    "maureen":1,
    "charlton":1,
    "dan":1,
    "blackner":1,
    "luis":1,
    "de":1,
    "jesus":1,
    "paul":1,
    "grant":1,
    "harrell":1,
    "parker":1,
    "jr":1,
    "jackson":1,
    "carol":1,
    "read":1,
    "gerarld":1,
    "staddon":1,
    "butch":1,
    "wilhelm":1,
    "clearance":2,
    "starting":2,
    "approach":2,
    "deactivate":2,
    "security":2,
    "deactivated":2,
    "transmission":2,
    "proceed":2,
    "vaders":2,
    "unexpected":2,
    "pleasure":2,
    "put":2,
    "schedule":2,
    "assure":2,
    "men":2,
    "fast":2,
    "ways":2,
    "planned":2,
    "asks":2,
    "most":2,
    "lack":2,
    "calrissian":2,
    "chewbacca":2,
    "youd":2,
    "knock":2,
    "suppose":2,
    "bo":2,
    "wanna":2,
    "terribly":2,
    "ever":2,
    "sort":2,
    "mighty":2,
    "seek":2,
    "life":2,
    "droids":2,
    "frozen":2,
    "carbonite":2,
    "protocol":2,
    "droid":2,
    "fluent":2,
    "six":2,
    "million":2,
    "forms":2,
    "communication":2,
    "disintegrated":2,
    "learn":2,
    "twenty":2,
    "holding":2,
    "someone":2,
    "gotta":2,
    "fault":2,
    "crazy":2,
    "rescue":2,
    "everybody":2,
    "serve":2,
    "choice":2,
    "powers":2,
    "fine":2,
    "together":2,
    "doing":2,
    "wheres":2,
    "taken":2,
    "sarlacc":2,
    "pass":2,
    "mistake":2,
    "blur":2,
    "stick":2,
    "everything":2,
    "beg":2,
    "piece":2,
    "such":2,
    "chance":2,
    "boba":2,
    "fett":2,
    "lower":2,
    "trying":2,
    "almost":2,
    "higher":2,
    "quick":2,
    "jump":2,
    "thinking":2,
    "dead":2,
    "awake":2,
    "thanks":2,
    "left":2,
    "means":2,
    "off":2,
    "continue":2,
    "patience":2,
    "upon":2,
    "unfortunate":2,
    "jedis":2,
    "gone":2,
    "learned":2,
    "alone":2,
    "betrayed":2,
    "seduced":2,
    "happened":2,
    "man":2,
    "view":2,
    "galaxy":2,
    "also":2,
    "than":2,
    "ben":2,
    "cannot":2,
    "escape":2,
    "part":2,
    "taught":2,
    "confront":2,
    "found":2,
    "spoke":2,
    "twin":2,
    "deep":2,
    "hasnt":2,
    "systems":2,
    "yet":2,
    "final":2,
    "forest":2,
    "although":2,
    "fly":2,
    "reactor":2,
    "small":2,
    "using":2,
    "secret":2,
    "team":2,
    "ready":2,
    "mean":2,
    "buddy":2,
    "set":2,
    "send":2,
    "near":2,
    "outta":2,
    "price":2,
    "paid":2,
    "jittery":2,
    "ships":2,
    "distance":2,
    "endangering":2,
    "mission":2,
    "ahhh":2,
    "squad":2,
    "wonder":2,
    "wawait":2,
    "lightsaber":2,
    "head":2,
    "anything":2,
    "saying":2,
    "hello":2,
    "mistaken":2,
    "proper":2,
    "mine":2,
    "rather":2,
    "highness":2,
    "magic":2,
    "said":2,
    "show":2,
    "real":2,
    "kind":2,
    "ii":2,
    "run":2,
    "conduct":2,
    "armed":2,
    "expecting":2,
    "accepted":2,
    "fully":2,
    "skills":2,
    "late":2,
    "son":2,
    "entrance":2,
    "position":2,
    "prepare":2,
    "quite":2,
    "hurry":2,
    "green":2,
    "lock":2,
    "reading":2,
    "sector":2,
    "their":2,
    "witness":2,
    "end":2,
    "wedge":2,
    "destroyers":2,
    "apprentice":2,
    "failed":2,
    "few":2,
    "lost":2,
    "love":2,
    "thoughts":2,
    "betray":2,
    "hide":2,
    "intensify":2,
    "forward":2,
    "j":2,
    "presence":3,
    "may":3,
    "hope":3,
    "course":3,
    "really":3,
    "lukes":3,
    "sorry":3,
    "these":3,
    "myself":3,
    "knight":3,
    "which":3,
    "still":3,
    "possibly":3,
    "ah":3,
    "angry":3,
    "na":3,
    "welcome":3,
    "thousand":3,
    "free":3,
    "watch":3,
    "goin":3,
    "much":3,
    "while":3,
    "destroyed":3,
    "underestimate":3,
    "big":3,
    "dangerous":3,
    "hmm":3,
    "wasnt":3,
    "promise":3,
    "luck":3,
    "might":3,
    "meet":3,
    "done":3,
    "foreseen":3,
    "forever":3,
    "truth":3,
    "fathers":3,
    "family":3,
    "true":3,
    "own":3,
    "knew":3,
    "turned":3,
    "stop":3,
    "longer":3,
    "kill":3,
    "another":3,
    "made":3,
    "imperial":3,
    "cruisers":3,
    "yeah":3,
    "try":3,
    "worry":3,
    "hurt":3,
    "felt":3,
    "princess":3,
    "against":3,
    "somebody":3,
    "mother":3,
    "alliance":3,
    "youve":3,
    "save":3,
    "conflict":3,
    "admiral":3,
    "craft":3,
    "copy":3,
    "firepower":3,
    "fight":3,
    "follow":3,
    "michael":3,
    "command":4,
    "station":4,
    "deflector":4,
    "stand":4,
    "clear":4,
    "perhaps":4,
    "new":4,
    "does":4,
    "shall":4,
    "better":4,
    "goodness":4,
    "dear":4,
    "says":4,
    "himself":4,
    "afraid":4,
    "feeling":4,
    "captain":4,
    "anger":4,
    "say":4,
    "many":4,
    "speak":4,
    "soon":4,
    "pay":4,
    "moment":4,
    "ohhh":4,
    "pal":4,
    "standing":4,
    "again":4,
    "wouldnt":4,
    "hate":4,
    "long":4,
    "eyes":4,
    "close":4,
    "threepio":4,
    "okay":4,
    "pull":4,
    "quickly":4,
    "point":4,
    "lot":4,
    "freeze":4,
    "first":4,
    "rest":4,
    "search":4,
    "before":4,
    "complete":4,
    "training":4,
    "darth":4,
    "obiwan":4,
    "other":4,
    "would":4,
    "door":4,
    "destroy":4,
    "battle":4,
    "main":4,
    "ship":4,
    "strike":4,
    "generator":4,
    "shes":4,
    "far":4,
    "itll":4,
    "idea":4,
    "understand":4,
    "believe":4,
    "group":4,
    "fire":4,
    "three":4,
    "shuttle":5,
    "sir":5,
    "should":5,
    "hutt":5,
    "let":5,
    "into":5,
    "message":5,
    "powerful":5,
    "something":5,
    "how":5,
    "some":5,
    "who":5,
    "away":5,
    "care":5,
    "huh":5,
    "make":5,
    "had":5,
    "whoa":5,
    "grab":5,
    "turn":5,
    "face":5,
    "already":5,
    "remember":5,
    "didnt":5,
    "anakin":5,
    "weapon":5,
    "weve":5,
    "endor":5,
    "use":5,
    "rebel":5,
    "very":5,
    "red":5,
    "yourself":5,
    "code":6,
    "lord":6,
    "find":6,
    "operational":6,
    "lando":6,
    "place":6,
    "things":6,
    "ive":6,
    "bad":6,
    "skywalker":6,
    "friend":6,
    "two":6,
    "wrong":6,
    "hold":6,
    "ill":6,
    "always":6,
    "thought":6,
    "nothing":6,
    "easy":6,
    "thing":6,
    "keep":6,
    "old":6,
    "once":6,
    "destiny":6,
    "feelings":6,
    "she":6,
    "moon":6,
    "fighters":6,
    "want":6,
    "coming":6,
    "feel":6,
    "those":6,
    "commander":7,
    "never":7,
    "theyre":7,
    "hes":7,
    "one":7,
    "work":7,
    "any":7,
    "or":7,
    "last":7,
    "where":7,
    "whats":7,
    "great":7,
    "thats":7,
    "theres":7,
    "wish":7,
    "couldnt":7,
    "leave":7,
    "yoda":7,
    "sister":7,
    "stay":7,
    "gold":7,
    "sure":8,
    "about":8,
    "think":8,
    "die":8,
    "bring":8,
    "give":8,
    "uh":8,
    "han":8,
    "general":8,
    "power":8,
    "told":9,
    "wait":9,
    "":9,
    "solo":9,
    "over":9,
    "been":9,
    "youll":9,
    "hey":9,
    "lets":9,
    "help":9,
    "like":9,
    "fleet":9,
    "young":9,
    "leader":9,
    "an":10,
    "jedi":10,
    "his":10,
    "death":10,
    "strong":10,
    "attack":10,
    "wont":10,
    "tell":11,
    "did":11,
    "could":11,
    "little":11,
    "time":11,
    "leia":11,
    "gonna":11,
    "move":11,
    "star":11,
    "by":12,
    "more":12,
    "so":12,
    "too":12,
    "only":12,
    "friends":12,
    "force":12,
    "need":13,
    "then":13,
    "look":13,
    "way":13,
    "up":13,
    "her":13,
    "when":14,
    "vader":14,
    "am":14,
    "going":14,
    "why":14,
    "dark":14,
    "go":15,
    "cant":15,
    "down":15,
    "back":16,
    "got":16,
    "take":16,
    "its":16,
    "at":16,
    "our":17,
    "shield":17,
    "has":17,
    "out":17,
    "there":17,
    "yes":18,
    "from":18,
    "jabba":18,
    "must":18,
    "emperor":19,
    "they":20,
    "if":20,
    "just":20,
    "see":20,
    "side":20,
    "them":21,
    "us":21,
    "youre":21,
    "do":21,
    "good":22,
    "were":23,
    "know":23,
    "right":24,
    "well":24,
    "him":25,
    "master":25,
    "as":26,
    "father":26,
    "can":27,
    "get":27,
    "what":27,
    "come":27,
    "was":27,
    "chewie":27,
    "but":30,
    "now":30,
    "not":31,
    "im":32,
    "here":32,
    "artoo":32,
    "with":34,
    "in":34,
    "no":34,
    "luke":34,
    "he":35,
    "we":37,
    "all":37,
    "dont":39,
    "for":40,
    "this":43,
    "are":43,
    "oh":44,
    "me":53,
    "be":54,
    "on":54,
    "will":56,
    "my":57,
    "have":59,
    "that":62,
    "and":63,
    "is":70,
    "a":74,
    "it":77,
    "of":95,
    "your":96,
    "to":118,
    "i":179,
    "the":211,
    "you":221
}