{
    "useless":1,
    "gearheads":1,
    "greet":1,
    "docking":1,
    "darkly":1,
    "robed":1,
    "figures":1,
    "service":1,
    "please":1,
    "troubledont":1,
    "pr4":1,
    "cloaked":1,
    "shapes":1,
    "camera":1,
    "formal":1,
    "honoured":1,
    "sirs":1,
    "comfortable":1,
    "shortly":1,
    "kenobi":1,
    "qui":1,
    "gon":1,
    "jinn":1,
    "lower":1,
    "hoods":1,
    "lush":1,
    "green":1,
    "sixty":1,
    "years":1,
    "white":1,
    "pov":1,
    "sirtheyre":1,
    "tey":1,
    "theyve":1,
    "ventilation":1,
    "vent":1,
    "careful":1,
    "thousands":1,
    "loading":1,
    "landing":1,
    "barrell":1,
    "nooooo":1,
    "weesa":1,
    "mud":1,
    "dieeee":1,
    "deflects":1,
    "armed":1,
    "electropoles":1,
    "twolegged":1,
    "square":1,
    "lethal":1,
    "poles":1,
    "dripping":1,
    "trio":1,
    "capn":1,
    "tada":1,
    "bosses":1,
    "dudu":1,
    "bench":1,
    "higher":1,
    "cannot":1,
    "bees":1,
    "hair":1,
    "weesong":1,
    "warn":1,
    "ussens":1,
    "smarty":1,
    "usens":1,
    "brains":1,
    "scant":1,
    "witda":1,
    "outlaunders":1,
    "dos":1,
    "symbiont":1,
    "circle":1,
    "noe":1,
    "affect":1,
    "tings":1,
    "outlaunder":1,
    "caren":1,
    "gonna":1,
    "yousaway":1,
    "una":1,
    "speedest":1,
    "tooda":1,
    "core":1,
    "leave":1,
    "bubbles":1,
    "bobs":1,
    "current":1,
    "estuary":1,
    "backward":1,
    "river":1,
    "remaining":1,
    "bubble":1,
    "canopies":1,
    "sigh":1,
    "relief":1,
    "circumstances":1,
    "isuggest":1,
    "wouldnt":1,
    "theirs":1,
    "legal":1,
    "afford":1,
    "approach":1,
    "bibblr":1,
    "quigonjumps":1,
    "sound":1,
    "entry":1,
    "exits":1,
    "deadly":1,
    "blockade":1,
    "navigates":1,
    "communications":1,
    "jammed":1,
    "cramped":1,
    "row":1,
    "dometopped":1,
    "astro":1,
    "alike":1,
    "except":1,
    "paint":1,
    "color":1,
    "seem":1,
    "shut":1,
    "ello":1,
    "boyos":1,
    "disa":1,
    "wanna":1,
    "longo":1,
    "triphey":1,
    "taps":1,
    "bright":1,
    "r2":1,
    "north":1,
    "settlements":1,
    "highranking":1,
    "officials":1,
    "creaure":1,
    "ever":1,
    "embarrassed":1,
    "musters":1,
    "amused":1,
    "courage":1,
    "deep":1,
    "talk":1,
    "moons":1,
    "iego":1,
    "thimk":1,
    "creatures":1,
    "universe":1,
    "pretty":1,
    "even":1,
    "gainda":1,
    "beings":1,
    "hereabouts":1,
    "cawazy":1,
    "robbed":1,
    "crunched":1,
    "likely":1,
    "value":1,
    "walking":1,
    "outdoor":1,
    "cafe":1,
    "rough":1,
    "gang":1,
    "especially":1,
    "ugly":1,
    "spiderlike":1,
    "creature":1,
    "stall":1,
    "selling":1,
    "dead":1,
    "hanging":1,
    "anyone":1,
    "looknig":1,
    "sticks":1,
    "tongue":1,
    "pulling":1,
    "unfortunately":1,
    "tied":1,
    "tightly":1,
    "seven":1,
    "truguts":1,
    "snaps":1,
    "sebulbas":1,
    "soup":1,
    "splashing":1,
    "table":1,
    "hapless":1,
    "meal":1,
    "abrupt":1,
    "never":1,
    "used":1,
    "surprises":1,
    "discovered":1,
    "hovel":1,
    "bedroom":1,
    "shows":1,
    "android":1,
    "lying":1,
    "workbench":1,
    "legs":1,
    "outer":1,
    "coverings":1,
    "isnt":1,
    "finished":1,
    "yet":1,
    "reall":1,
    "droidto":1,
    "sockets":1,
    "seethreepio":1,
    "cyborg":1,
    "relations":1,
    "might":1,
    "perfect":1,
    "storm":1,
    "podracer":1,
    "enthusiasm":1,
    "flurry":1,
    "beg":1,
    "pardonwhat":1,
    "naked":1,
    "showing":1,
    "embarrassing":1,
    "chambers":1,
    "transmission":1,
    "supplies":1,
    "returnthe":1,
    "toll":1,
    "leaves":1,
    "checks":1,
    "cable":1,
    "hitches":1,
    "hok":1,
    "teemto":1,
    "pagalies":1,
    "moonus":1,
    "mandel":1,
    "tatoonine":1,
    "introductions":1,
    "unhitch":1,
    "leads":1,
    "ok":1,
    "pats":1,
    "loony":1,
    "palo":1,
    "cheeek":1,
    "bangs":1,
    "flip":1,
    "poerful":1,
    "binders":1,
    "between":1,
    "carrying":1,
    "flags":1,
    "track":1,
    "covers":1,
    "dissen":1,
    "messy":1,
    "drives":1,
    "rival":1,
    "forcing":1,
    "formation":1,
    "crashes":1,
    "spectacular":1,
    "faster":1,
    "backend":1,
    "stragglers":1,
    "passes":1,
    "easily":1,
    "drivers":1,
    "ansd":1,
    "dropoff":1,
    "guns":1,
    "anajin":1,
    "accelerates":1,
    "sails":1,
    "raiders":1,
    "perched":1,
    "course":1,
    "rifles":1,
    "racing":1,
    "below":1,
    "shot":1,
    "riaders":1,
    "campe":1,
    "dune":1,
    "viewing":1,
    "hutt":1,
    "progress":1,
    "handheld":1,
    "screens":1,
    "shoulder":1,
    "strange":1,
    "alien":1,
    "named":1,
    "wheres":1,
    "musta":1,
    "crashud":1,
    "excited":1,
    "circuits":1,
    "dear":1,
    "racetrack":1,
    "coming":1,
    "bend":1,
    "quickly":1,
    "gaining":1,
    "describes":1,
    "action":1,
    "wild":1,
    "field":1,
    "steeth":1,
    "pa":1,
    "nagoola":1,
    "unbearable":1,
    "pits":1,
    "work":1,
    "sucked":1,
    "spit":1,
    "bent":1,
    "wheeze":1,
    "puff":1,
    "mandrell":1,
    "coona":1,
    "wa":1,
    "wunda":1,
    "dunko":1,
    "terter":1,
    "purposely":1,
    "terters":1,
    "veer":1,
    "unhooks":1,
    "straps":1,
    "links":1,
    "maintain":1,
    "hooked":1,
    "laughs":1,
    "being":1,
    "tah":1,
    "theyre":1,
    "du":1,
    "bongu":1,
    "stretch":1,
    "fights":1,
    "unlock":1,
    "strain":1,
    "rod":1,
    "tremendous":1,
    "pos":1,
    "spinning":1,
    "sends":1,
    "ancient":1,
    "statue":1,
    "fireballs":1,
    "blackened":1,
    "unhurt":1,
    "smoking":1,
    "shifter":1,
    "realizes":1,
    "pants":1,
    "explosion":1,
    "cherring":1,
    "jump":1,
    "excitment":1,
    "screaming":1,
    "hysterically":1,
    "races":1,
    "winner":1,
    "announcers":1,
    "excitedly":1,
    "nuts":1,
    "swindled":1,
    "somehow":1,
    "simply":1,
    "whenever":1,
    "gamble":1,
    "freind":1,
    "eventually":1,
    "shop":1,
    "later":1,
    "wasnt":1,
    "fair":1,
    "bet":1,
    "discuss":1,
    "huttsim":1,
    "settle":1,
    "tricks":1,
    "deserted":1,
    "racers":1,
    "depart":1,
    "geeenough":1,
    "none":1,
    "proud":1,
    "owe":1,
    "slwly":1,
    "slide":1,
    "wave":1,
    "return":1,
    "midday":1,
    "cruises":1,
    "ridses":1,
    "joins":1,
    "installed":1,
    "backsome":1,
    "unfinished":1,
    "business":1,
    "picked":1,
    "pathetic":1,
    "responsible":1,
    "kids":1,
    "yelling":1,
    "shadow":1,
    "cast":1,
    "boys":1,
    "quigomn":1,
    "towering":1,
    "sold":1,
    "money":1,
    "pulls":1,
    "bag":1,
    "pocket":1,
    "longer":1,
    "prize":1,
    "learned":1,
    "lesson":1,
    "gambling":1,
    "dreams":1,
    "true":1,
    "free":1,
    "meeting":1,
    "coincidence":1,
    "accident":1,
    "accepted":1,
    "mighty":1,
    "blasters":1,
    "kneels":1,
    "hands":1,
    "jira":1,
    "buy":1,
    "yourself":1,
    "cooling":1,
    "otherwise":1,
    "worry":1,
    "inspects":1,
    "sparking":1,
    "fizzing":1,
    "unusual":1,
    "running":1,
    "having":1,
    "hard":1,
    "keeping":1,
    "quigonsir":1,
    "answer":1,
    "darkcloaked":1,
    "figure":1,
    "bearing":1,
    "drops":1,
    "sweeps":1,
    "hit":1,
    "swund":1,
    "blow":1,
    "blocked":1,
    "picks":1,
    "galactic":1,
    "offnow":1,
    "friend":1,
    "checking":1,
    "cloud":1,
    "dust":1,
    "theirsword":1,
    "leaping":1,
    "incredible":1,
    "acrobatics":1,
    "warrios":1,
    "feet":1,
    "dissapears":1,
    "knows":1,
    "spacecrats":1,
    "heels":1,
    "hang":1,
    "fortyfoot":1,
    "strike":1,
    "starving":1,
    "governor":1,
    "sooner":1,
    "decided":1,
    "tyranny":1,
    "approaches":1,
    "swamps":1,
    "these":1,
    "rumored":1,
    "underwater":1,
    "villages":1,
    "hidden":1,
    "asleep":1,
    "lights":1,
    "dim":1,
    "monitor":1,
    "plea":1,
    "recording":1,
    "stretched":1,
    "snoring":1,
    "cooing":1,
    "rests":1,
    "tired":1,
    "senses":1,
    "someone":1,
    "watching":1,
    "sitting":1,
    "corner":1,
    "shivering":1,
    "verydejected":1,
    "holding":1,
    "cold":1,
    "overjacket":1,
    "taste":1,
    "first":1,
    "gift":1,
    "alive":1,
    "present":1,
    "honor":1,
    "meet":1,
    "person":1,
    "relay":1,
    "distressed":1,
    "currant":1,
    "called":1,
    "grateful":1,
    "retinue":1,
    "air":1,
    "question":1,
    "precedure":1,
    "confident":1,
    "overcome":1,
    "noticing":1,
    "staying":1,
    "duo":1,
    "nods":1,
    "skeptical":1,
    "grossly":1,
    "nice":1,
    "tinks":1,
    "pitty":1,
    "hot":1,
    "request":1,
    "finding":1,
    "forcei":1,
    "tested":1,
    "tentative":1,
    "hallways":1,
    "palpatines":1,
    "dor":1,
    "flanked":1,
    "son":1,
    "imim":1,
    "handmaiden":1,
    "comlink":1,
    "send":1,
    "id":1,
    "studies":1,
    "peek":1,
    "errand":1,
    "stares":1,
    "eirta":1,
    "sit":1,
    "actually":1,
    "floating":1,
    "defer":1,
    "motionyour":1,
    "ibeg":1,
    "ask":1,
    "resolution":1,
    "had":1,
    "chancellori":1,
    "support":1,
    "usit":1,
    "best":1,
    "truely":1,
    "palapatine":1,
    "distractedhe":1,
    "chair":1,
    "recognizes":1,
    "sovereign":1,
    "floats":1,
    "delegates":1,
    "tragedy":1,
    "occured":1,
    "peaceful":1,
    "caugt":1,
    "dispute":1,
    "addresses":1,
    "convention":1,
    "aks":1,
    "congress":1,
    "concurs":1,
    "honorable":1,
    "delegate":1,
    "commision":1,
    "appointedthat":1,
    "law":1,
    "confers":1,
    "aides":1,
    "vice":1,
    "chairman":1,
    "prince":1,
    "seconds":1,
    "mad":1,
    "seconded":1,
    "delays":1,
    "voted":1,
    "upon":1,
    "lott":1,
    "dod":1,
    "procedures":1,
    "committee":1,
    "study":1,
    "assembly":1,
    "chant":1,
    "talks":1,
    "sadness":1,
    "wonder":1,
    "invent":1,
    "pain":1,
    "motivate":1,
    "imagine":1,
    "pasted":1,
    "eh":1,
    "dat":1,
    "liken":1,
    "metinks":1,
    "rom":1,
    "succeed":1,
    "elected":1,
    "corruption":1,
    "fedreation":1,
    "influence":1,
    "else":1,
    "antilles":1,
    "ainlee":1,
    "teem":1,
    "confidentour":1,
    "sympaphy":1,
    "correct":1,
    "contain":1,
    "high":1,
    "concentration":1,
    "kiadi":1,
    "crestfallen":1,
    "anger":1,
    "annieim":1,
    "allowed":1,
    "mindfulalways":1,
    "remember":1,
    "focus":1,
    "determines":1,
    "reality":1,
    "sirive":1,
    "wonderingwhat":1,
    "microcopic":1,
    "lifeform":1,
    "reside":1,
    "within":1,
    "communicates":1,
    "mutual":1,
    "advantage":1,
    "exist":1,
    "knowledge":1,
    "continually":1,
    "telling":1,
    "learn":1,
    "quiet":1,
    "speaking":1,
    "annieyou":1,
    "taxis":1,
    "briskly":1,
    "pleasure":1,
    "protect":1,
    "fears":1,
    "means":1,
    "night":1,
    "regret":1,
    "further":1,
    "secure":1,
    "pockets":1,
    "primitive":1,
    "things":1,
    "deal":1,
    "fades":1,
    "pointing":1,
    "various":1,
    "buttons":1,
    "gauges":1,
    "eight":1,
    "background":1,
    "daresa":1,
    "nobody":1,
    "kinda":1,
    "gungasno":1,
    "gungas":1,
    "emerge":1,
    "brush":1,
    "captian":1,
    "rolls":1,
    "alln":1,
    "youse":1,
    "sacred":1,
    "rest":1,
    "clearing":1,
    "full":1,
    "refugees":1,
    "carved":1,
    "threequartersubmerged":1,
    "payen":1,
    "nabooi":1,
    "biggen":1,
    "bringen":1,
    "dya":1,
    "busten":1,
    "omm":1,
    "half":1,
    "puzzled":1,
    "laugh":1,
    "greater":1,
    "maybe":1,
    "friends":1,
    "patrols":1,
    "located":1,
    "pile":1,
    "everyones":1,
    "camps":1,
    "hundred":1,
    "police":1,
    "formed":1,
    "underground":1,
    "movement":1,
    "keaders":1,
    "armys":1,
    "larger":1,
    "stronger":1,
    "draw":1,
    "thedroid":1,
    "using":1,
    "passages":1,
    "pnaka":1,
    "capture":1,
    "animals":1,
    "flee":1,
    "directions":1,
    "shake":1,
    "lake":1,
    "shakes":1,
    "lizardlike":1,
    "fambaas":1,
    "mounted":1,
    "grassy":1,
    "hills":1,
    "hundreds":1,
    "lon":1,
    "lines":1,
    "horizon":1,
    "orders":1,
    "halt":1,
    "spread":1,
    "nervous":1,
    "operators":1,
    "energize":1,
    "ray":1,
    "shoots":1,
    "dish":1,
    "faamba":1,
    "spreads":1,
    "umbrella":1,
    "assembled":1,
    "stealthily":1,
    "uses":1,
    "assorted":1,
    "placeto":1,
    "cover":1,
    "deflect":1,
    "aimed":1,
    "herethis":1,
    "told":1,
    "thisthe":1,
    "involved":1,
    "protected":1,
    "racks":1,
    "reconfigure":1,
    "ready":1,
    "command":1,
    "rages":1,
    "defend":1,
    "hides":1,
    "ducking":1,
    "whiz":1,
    "units":1,
    "stacked":1,
    "better":1,
    "kid":1,
    "fires":1,
    "hitting":1,
    "causes":1,
    "pinwheel":1,
    "overwlm":1,
    "guess":1,
    "greeting":1,
    "peeps":1,
    "anakni":1,
    "scatters":1,
    "revealing":1,
    "step":1,
    "handle":1,
    "capes":1,
    "ignite":1,
    "swords":1,
    "cape":1,
    "ignites":1,
    "both":1,
    "ends":1,
    "attention":1,
    "reply":1,
    "systems":1,
    "thanks":1,
    "idea":1,
    "slowly":1,
    "balls":1,
    "starfighter":1,
    "dogfight":1,
    "ensues":1,
    "manual":1,
    "override":1,
    "rewire":1,
    "chirps":1,
    "narrow":1,
    "power":1,
    "trapped":1,
    "try":1,
    "stairway":1,
    "hole":1,
    "raging":1,
    "along":1,
    "attachments":1,
    "thin":1,
    "cables":1,
    "embedded":1,
    "pulse":1,
    "corridor":1,
    "impatient":1,
    "rays":1,
    "meditates":1,
    "patch":1,
    "wounds":1,
    "apart":1,
    "roo":1,
    "skitter":1,
    "trapping":1,
    "middle":1,
    "round":1,
    "held":1,
    "hopen":1,
    "thed":1,
    "neimoidian":1,
    "insurrection":1,
    "treatyand":1,
    "debate":1,
    "sadbe":1,
    "dressed":1,
    "signing":1,
    "because":1,
    "youve":1,
    "decoy":1,
    "slumps":1,
    "security":1,
    "button":1,
    "desk":1,
    "opposite":1,
    "tosses":1,
    "third":1,
    "jams":1,
    "controls":1,
    "fling":1,
    "objects":1,
    "seems":1,
    "upper":1,
    "hand":1,
    "grows":1,
    "weary":1,
    "catches":1,
    "slips":1,
    "able":1,
    "nozzle":1,
    "grin":1,
    "evilly":1,
    "kicks":1,
    "obiwans":1,
    "endless":1,
    "hi":1,
    "throwing":1,
    "vengeance":1,
    "cutting":1,
    "dying":1,
    "wierdind":1,
    "yellow":1,
    "gather":1,
    "thye":1,
    "blasted":1,
    "reactor":1,
    "three":1,
    "amazing":1,
    "teach":1,
    "academy":1,
    "accounted":1,
    "sheepishly":1,
    "amazement":1,
    "gunray":1,
    "explain":1,
    "franchise":1,
    "goodbye":1,
    "lowered":1,
    "assistant":1,
    "walkway":1,
    "masters":1,
    "congratulations":1,
    "youer":1,
    "again":1,
    "boldness":1,
    "saved":1,
    "should":1,
    "congratulated":1,
    "shall":1,
    "prosperity":1,
    "turret":1,
    "late":1,
    "sun":1,
    "streams":1,
    "multiwindowed":1,
    "angle":1,
    "quite":1,
    "kneeling":1,
    "confer":1,
    "level":1,
    "knight":1,
    "padawan":1,
    "learner":1,
    "believed":1,
    "chosen":1,
    "nevertheless":1,
    "grave":1,
    "danger":1,
    "igave":1,
    "word":1,
    "approval":1,
    "defiance":1,
    "funeral":1,
    "drum":1,
    "doves":1,
    "released":1,
    "anakinyou":1,
    "mysterious":1,
    "warrior":1,
    "always":1,
    "areno":1,
    "moreno":1,
    "less":1,
    "maste":1,
    "concerned":1,
    "childeren":1,
    "sing":1,
    "flowers":1,
    "sideboss":1,
    "holds":1,
    "globe":1,
    "pk4":2,
    "eg9":2,
    "important":2,
    "protocol":2,
    "greeted":2,
    "made":2,
    "conference":2,
    "slides":2,
    "past":2,
    "closes":2,
    "old":2,
    "match":2,
    "sir":2,
    "shaft":2,
    "appear":2,
    "giant":2,
    "say":2,
    "staps":2,
    "pops":2,
    "kaadus":2,
    "point":2,
    "heyodalee":2,
    "tis":2,
    "attack":2,
    "un":2,
    "dey":2,
    "den":2,
    "surface":2,
    "talkie":2,
    "nutten":2,
    "comen":2,
    "happens":2,
    "understand":2,
    "speed":2,
    "transport":2,
    "turn":2,
    "sub":2,
    "fast":2,
    "moving":2,
    "switches":2,
    "filled":2,
    "alarms":2,
    "heard":2,
    "sign":2,
    "treaty":2,
    "invasion":2,
    "crew":2,
    "sio":2,
    "sleek":2,
    "still":2,
    "keep":2,
    "five":2,
    "short":2,
    "thier":2,
    "unit":2,
    "bit":2,
    "any":2,
    "beautiful":2,
    "stare":2,
    "angel":2,
    "kind":2,
    "market":2,
    "aliens":2,
    "frogs":2,
    "wire":2,
    "mouth":2,
    "frog":2,
    "hey":2,
    "surprise":2,
    "ricochets":2,
    "lands":2,
    "enough":2,
    "food":2,
    "special":2,
    "secret":2,
    "body":2,
    "arms":2,
    "pushes":2,
    "switch":2,
    "rushes":2,
    "human":2,
    "serve":2,
    "racer":2,
    "building":2,
    "mean":2,
    "goodness":2,
    "bad":2,
    "mawhonic":2,
    "waves":2,
    "continues":2,
    "eopies":2,
    "berry":2,
    "guds":2,
    "rock":2,
    "display":2,
    "smoke":2,
    "cliff":2,
    "top":2,
    "tusken":2,
    "pods":2,
    "canyon":2,
    "fanta":2,
    "jars":2,
    "area":2,
    "whistle":2,
    "complete":2,
    "pack":2,
    "twoheaded":2,
    "announcer":2,
    "tension":2,
    "dum4":2,
    "final":2,
    "explodes":2,
    "breaks":2,
    "part":2,
    "sending":2,
    "struggles":2,
    "rods":2,
    "mind":2,
    "punda":2,
    "trying":2,
    "starts":2,
    "release":2,
    "skids":2,
    "put":2,
    "joy":2,
    "finish":2,
    "line":2,
    "knew":2,
    "face":2,
    "against":2,
    "youll":2,
    "lose":2,
    "would":2,
    "want":2,
    "interest":2,
    "only":2,
    "ahead":2,
    "riding":2,
    "hyperdrive":2,
    "sense":2,
    "whos":2,
    "hill":2,
    "overlooking":2,
    "slave":2,
    "greedo":2,
    "rolling":2,
    "fighting":2,
    "dozen":2,
    "said":2,
    "cheated":2,
    "did":2,
    "coins":2,
    "stunned":2,
    "coucil":2,
    "some":2,
    "anything":2,
    "speeder":2,
    "bike":2,
    "drop":2,
    "himself":2,
    "working":2,
    "says":2,
    "fly":2,
    "happening":2,
    "immediately":2,
    "makes":2,
    "edge":2,
    "swings":2,
    "pointless":2,
    "democracy":2,
    "taken":2,
    "walks":2,
    "tears":2,
    "bow":2,
    "huge":2,
    "concern":2,
    "lead":2,
    "waiting":2,
    "feel":2,
    "bein":2,
    "doubt":2,
    "speaks":2,
    "nervously":2,
    "doors":2,
    "enters":2,
    "greets":2,
    "confidence":2,
    "election":2,
    "chance":2,
    "believe":2,
    "system":2,
    "center":2,
    "moe":2,
    "malastare":2,
    "whispers":2,
    "tinken":2,
    "dien":2,
    "gotta":2,
    "nominated":2,
    "bureaucrats":2,
    "create":2,
    "fear":2,
    "already":2,
    "train":2,
    "living":2,
    "inside":2,
    "symbionts":2,
    "forms":2,
    "happen":2,
    "home":2,
    "use":2,
    "near":2,
    "binks":2,
    "ouch":2,
    "ruins":2,
    "bombad":2,
    "also":2,
    "thought":2,
    "diversion":2,
    "enter":2,
    "entrance":2,
    "marches":2,
    "swamp":2,
    "themselves":2,
    "generators":2,
    "marching":2,
    "march":2,
    "ridge":2,
    "signals":2,
    "shields":2,
    "light":2,
    "signal":2,
    "across":2,
    "find":2,
    "hide":2,
    "runs":2,
    "grass":2,
    "plains":2,
    "cheer":2,
    "transports":2,
    "pulled":2,
    "lined":2,
    "squad":2,
    "fighters":2,
    "levitate":2,
    "passing":2,
    "transform":2,
    "advance":2,
    "deflector":2,
    "autopilot":2,
    "bridge":2,
    "outside":2,
    "stories":2,
    "climb":2,
    "retreat":2,
    "paces":2,
    "pistol":2,
    "weapons":2,
    "dissa":2,
    "destroyed":2,
    "hits":2,
    "panel":2,
    "officer":2,
    "neimodians":2,
    "each":2,
    "melting":2,
    "lightsaber":2,
    "flew":2,
    "courtyard":2,
    "sunset":2,
    "does":2,
    "bows":3,
    "backs":3,
    "window":3,
    "gone":3,
    "craft":3,
    "ride":3,
    "noah":3,
    "goen":3,
    "big":3,
    "sits":3,
    "mackineeks":3,
    "dare":3,
    "new":3,
    "know":3,
    "ussen":3,
    "form":3,
    "wish":3,
    "need":3,
    "give":3,
    "bongo":3,
    "thank":3,
    "pull":3,
    "pass":3,
    "problem":3,
    "under":3,
    "coruscant":3,
    "ambassador":3,
    "place":3,
    "kill":3,
    "cant":3,
    "board":3,
    "race":3,
    "shoot":3,
    "heads":3,
    "massive":3,
    "low":3,
    "red":3,
    "cities":3,
    "searching":3,
    "smile":3,
    "speak":3,
    "live":3,
    "street":3,
    "moment":3,
    "vendor":3,
    "appears":3,
    "tank":3,
    "sorry":3,
    "eye":3,
    "wonderful":3,
    "puts":3,
    "parts":3,
    "hologram":3,
    "cut":3,
    "until":3,
    "death":3,
    "hug":3,
    "kiss":3,
    "safe":3,
    "jabba":3,
    "tuta":3,
    "yells":3,
    "comes":3,
    "energy":3,
    "wall":3,
    "gasgano":3,
    "let":3,
    "few":3,
    "platform":3,
    "screen":3,
    "worried":3,
    "ody":3,
    "die":3,
    "getting":3,
    "young":3,
    "together":3,
    "left":3,
    "calls":3,
    "ah":3,
    "win":3,
    "probe":3,
    "watches":3,
    "almost":3,
    "brought":3,
    "desert":3,
    "generator":3,
    "why":3,
    "weve":3,
    "floor":3,
    "youre":3,
    "just":3,
    "strong":3,
    "starship":3,
    "wait":3,
    "barely":3,
    "continue":3,
    "afraid":3,
    "were":3,
    "warm":3,
    "descend":3,
    "city":3,
    "welcome":3,
    "situation":3,
    "session":3,
    "join":3,
    "leans":3,
    "trained":3,
    "could":3,
    "training":3,
    "congressional":3,
    "vote":3,
    "mas":3,
    "alderaan":3,
    "amedda":3,
    "confused":3,
    "cells":3,
    "officers":3,
    "last":3,
    "steps":3,
    "forward":3,
    "waterfall":3,
    "once":3,
    "kaadu":3,
    "firing":3,
    "explode":3,
    "blast":3,
    "hiding":3,
    "starfighters":3,
    "agree":3,
    "wheel":3,
    "ledge":3,
    "throw":3,
    "bravo":3,
    "apprentice":3,
    "sent":4,
    "opens":4,
    "bay":4,
    "thats":4,
    "battleship":4,
    "open":4,
    "most":4,
    "speeds":4,
    "destroyer":4,
    "ganna":4,
    "throws":4,
    "bolts":4,
    "gain":4,
    "than":4,
    "dis":4,
    "peace":4,
    "whats":4,
    "ten":4,
    "distance":4,
    "many":4,
    "wont":4,
    "make":4,
    "taking":4,
    "freed":4,
    "everyone":4,
    "trouble":4,
    "destroy":4,
    "finally":4,
    "gets":4,
    "good":4,
    "grabs":4,
    "arm":4,
    "nothing":4,
    "mom":4,
    "threepio":4,
    "engines":4,
    "everything":4,
    "eyes":4,
    "tries":4,
    "view":4,
    "looking":4,
    "sure":4,
    "causing":4,
    "close":4,
    "steering":4,
    "become":4,
    "flies":4,
    "box":4,
    "lost":4,
    "quigons":4,
    "quarters":4,
    "hear":4,
    "sword":4,
    "oom9":4,
    "position":4,
    "group":4,
    "taxi":4,
    "handmaidens":4,
    "temple":4,
    "trade":4,
    "something":4,
    "organa":4,
    "without":4,
    "followed":4,
    "falls":4,
    "blasts":4,
    "second":4,
    "ships":4,
    "sabe":4,
    "roll":4,
    "pistols":4,
    "parade":4,
    "those":5,
    "republic":5,
    "cruiser":5,
    "seen":5,
    "tc14":5,
    "led":5,
    "hope":5,
    "planet":5,
    "run":5,
    "how":5,
    "laser":5,
    "tink":5,
    "after":5,
    "help":5,
    "begins":5,
    "four":5,
    "tanks":5,
    "members":5,
    "standing":5,
    "pilot":5,
    "hold":5,
    "little":5,
    "ive":5,
    "walk":5,
    "stops":5,
    "ill":5,
    "yes":5,
    "great":5,
    "when":5,
    "smiles":5,
    "beeps":5,
    "kitster":5,
    "may":5,
    "pod":5,
    "fodebeed":5,
    "b":5,
    "another":5,
    "pit":5,
    "watto":5,
    "bring":5,
    "tatooine":5,
    "or":5,
    "been":5,
    "warriors":5,
    "dont":5,
    "stand":5,
    "majesty":5,
    "senate":5,
    "follow":5,
    "next":5,
    "motion":5,
    "bail":5,
    "grand":5,
    "midichlorians":5,
    "six":5,
    "exit":5,
    "soldiers":5,
    "shield":5,
    "think":6,
    "doorway":6,
    "others":6,
    "which":6,
    "guard":6,
    "where":6,
    "takes":6,
    "space":6,
    "life":6,
    "front":6,
    "very":6,
    "queens":6,
    "promise":6,
    "skywalker":6,
    "crowd":6,
    "goes":6,
    "arena":6,
    "engine":6,
    "far":6,
    "several":6,
    "fight":6,
    "twenty":6,
    "move":7,
    "long":7,
    "rune":7,
    "control":7,
    "small":7,
    "stands":7,
    "lets":7,
    "plaza":7,
    "too":7,
    "highness":7,
    "bibble":7,
    "ramp":7,
    "ground":7,
    "more":7,
    "sees":7,
    "its":7,
    "sidious":7,
    "mos":7,
    "espa":7,
    "behind":7,
    "suddenly":7,
    "moves":7,
    "much":7,
    "am":7,
    "whistles":7,
    "gives":7,
    "annie":7,
    "above":7,
    "me":7,
    "start":7,
    "begin":7,
    "mace":7,
    "windu":7,
    "senator":7,
    "end":7,
    "council":7,
    "general":7,
    "ceel":7,
    "viceroy":8,
    "hallway":8,
    "fire":8,
    "tarpals":8,
    "come":8,
    "through":8,
    "supreme":8,
    "cockpit":8,
    "ric":8,
    "olie":8,
    "jumps":8,
    "force":8,
    "central":8,
    "if":9,
    "master":9,
    "droid":9,
    "now":9,
    "army":9,
    "us":9,
    "go":9,
    "people":9,
    "sebulba":9,
    "was":9,
    "eirtae":9,
    "rabe":9,
    "right":9,
    "turns":9,
    "fighter":9,
    "door":10,
    "way":10,
    "here":10,
    "large":10,
    "onto":10,
    "time":10,
    "oh":10,
    "mesa":10,
    "wesa":10,
    "take":10,
    "palace":10,
    "gungan":10,
    "get":10,
    "anakins":10,
    "hes":10,
    "boy":10,
    "stop":10,
    "throne":10,
    "federation":11,
    "what":11,
    "stay":11,
    "head":11,
    "like":11,
    "rush":11,
    "toward":11,
    "shmi":11,
    "side":11,
    "lord":11,
    "valorum":11,
    "yoda":11,
    "watch":12,
    "must":12,
    "has":12,
    "troops":12,
    "back":12,
    "who":12,
    "about":12,
    "but":12,
    "going":12,
    "pilots":12,
    "from":12,
    "looks":12,
    "she":12,
    "sith":12,
    "can":13,
    "look":13,
    "capt":13,
    "yousa":13,
    "da":13,
    "see":13,
    "do":13,
    "boss":14,
    "so":14,
    "our":14,
    "around":14,
    "chancellor":14,
    "gungans":14,
    "im":15,
    "then":15,
    "spacecraft":15,
    "theed":15,
    "away":15,
    "maul":15,
    "my":16,
    "before":16,
    "main":16,
    "nass":16,
    "down":17,
    "room":17,
    "their":17,
    "guards":17,
    "ship":17,
    "all":17,
    "there":18,
    "an":18,
    "nute":19,
    "ext":21,
    "have":22,
    "palpatine":22,
    "two":23,
    "hanger":23,
    "darth":23,
    "int":24,
    "battle":24,
    "that":24,
    "her":24,
    "artoo":24,
    "them":25,
    "this":26,
    "not":26,
    "jedi":26,
    "we":26,
    "other":26,
    "him":26,
    "amidala":27,
    "over":27,
    "queen":27,
    "off":28,
    "it":28,
    "captain":28,
    "by":29,
    "up":32,
    "one":33,
    "no":33,
    "panaka":34,
    "at":35,
    "out":35,
    "he":36,
    "day":36,
    "droids":37,
    "be":38,
    "will":38,
    "into":39,
    "with":39,
    "your":40,
    "obiwan":40,
    "as":40,
    "his":42,
    "for":44,
    "naboo":47,
    "they":52,
    "are":57,
    "on":61,
    "padme":61,
    "i":68,
    "quigon":83,
    "in":89,
    "you":91,
    "is":99,
    "anakin":105,
    "jar":117,
    "of":130,
    "a":153,
    "to":178,
    "and":225,
    "":373,
    "the":518
}