{
    "restrict":1,
    "parameters":1,
    "19":1,
    "98":1,
    "2084":1,
    "calculate":1,
    "coordinates":1,
    "jfourteen":1,
    "endeavor":1,
    "dispersive":1,
    "armor":1,
    "modified":1,
    "shields":1,
    "effective":1,
    "support":1,
    "informed":1,
    "win":1,
    "opinion":1,
    "irrelevant":1,
    "casualties":1,
    "minor":1,
    "buckling":1,
    "nacelle":1,
    "starship":1,
    "intrepid":1,
    "fortyseven":1,
    "fifteen":1,
    "broken":1,
    "hunting":1,
    "pursuit":1,
    "maximum":1,
    "terran":1,
    "correction":1,
    "sort":1,
    "tactic":1,
    "unknown":1,
    "tactics":1,
    "associated":1,
    "show":1,
    "emanating":1,
    "concentrations":1,
    "tachyons":1,
    "chronometric":1,
    "particles":1,
    "though":1,
    "forming":1,
    "switching":1,
    "backups":1,
    "energy":1,
    "traveled":1,
    "collapsing":1,
    "response":1,
    "traffic":1,
    "sector":1,
    "scanned":1,
    "concentration":1,
    "methane":1,
    "carbon":1,
    "monoxide":1,
    "fluorine":1,
    "oceans":1,
    "chemically":1,
    "altered":1,
    "population":1,
    "thirtyfive":1,
    "billion":1,
    "covered":1,
    "moon":1,
    "solar":1,
    "went":1,
    "protected":1,
    "changes":1,
    "follow":1,
    "laid":1,
    "engaging":1,
    "steady":1,
    "goes":1,
    "vessels":1,
    "according":1,
    "astrometric":1,
    "planetfiring":1,
    "intercept":1,
    "western":1,
    "hemisphere":1,
    "north":1,
    "american":1,
    "continent":1,
    "taking":1,
    "evasive":1,
    "firing":1,
    "central":1,
    "date":1,
    "oheightforty":1,
    "longrange":1,
    "bio":1,
    "civilian":1,
    "clothes":1,
    "twentyfour":1,
    "conduct":1,
    "killing":1,
    "destroying":1,
    "humans":1,
    "beaming":1,
    "agree":1,
    "case":1,
    "mission":1,
    "requires":1,
    "knowledge":1,
    "number":1,
    "historian":1,
    "somebody":1,
    "energize":1,
    "answers":1,
    "bearing":1,
    "zero":1,
    "distance":1,
    "injured":1,
    "inventor":1,
    "gone":1,
    "preventing":1,
    "dark":1,
    "age":1,
    "easy":1,
    "arrive":1,
    "sandra":1,
    "farrel":1,
    "death":1,
    "discharge":1,
    "note":1,
    "record":1,
    "shortly":1,
    "enterprisee":1,
    "commissioned":1,
    "promising":1,
    "difficulty":1,
    "integrating":1,
    "programming":1,
    "grief":1,
    "loss":1,
    "remorse":1,
    "reports":1,
    "crewmen":1,
    "deactivate":1,
    "beings":1,
    "luxury":1,
    "neither":1,
    "times":1,
    "leak":1,
    "tanks":1,
    "subsystem":1,
    "nova":1,
    "class":1,
    "regulates":1,
    "hydropressure":1,
    "variance":1,
    "corrosive":1,
    "liquefy":1,
    "guest":1,
    "diagnostic":1,
    "safety":1,
    "interlocks":1,
    "during":1,
    "porter":1,
    "assistance":1,
    "scanning":1,
    "underground":1,
    "leaking":1,
    "planning":1,
    "picking":1,
    "faint":1,
    "nearby":1,
    "alphanumeric":1,
    "mitchell":1,
    "depaul":1,
    "named":1,
    "kirby":1,
    "launched":1,
    "release":1,
    "restore":1,
    "exposure":1,
    "stabilized":1,
    "coma":1,
    "radiometric":1,
    "therapy":1,
    "respond":1,
    "listen":1,
    "carefully":1,
    "flying":1,
    "started":1,
    "combadges":1,
    "responding":1,
    "recall":1,
    "east":1,
    "extremely":1,
    "paranoid":1,
    "shoot":1,
    "sight":1,
    "watched":1,
    "collapse":1,
    "dies":1,
    "die":1,
    "assigned":1,
    "teams":1,
    "locate":1,
    "source":1,
    "assign":1,
    "reestablish":1,
    "soon":1,
    "possible":1,
    "danger":1,
    "planetary":1,
    "era":1,
    "extraterrestrials":1,
    "thinking":1,
    "analyze":1,
    "classthree":1,
    "alerts":1,
    "shipwide":1,
    "decompression":1,
    "initiated":1,
    "venting":1,
    "happening":1,
    "beamed":1,
    "wil":1,
    "priority":1,
    "isolating":1,
    "efforts":1,
    "unsuccessful":1,
    "brave":1,
    "words":1,
    "species":1,
    "across":1,
    "worlds":1,
    "encountered":1,
    "android":1,
    "contained":1,
    "forcibly":1,
    "removed":1,
    "finding":1,
    "weakness":1,
    "matter":1,
    "unconscious":1,
    "hemorrhaging":1,
    "kna":1,
    "talking":1,
    "studying":1,
    "advanced":1,
    "theories":1,
    "scanner":1,
    "precise":1,
    "xray":1,
    "machine":1,
    "japanese":1,
    "run":1,
    "hasnt":1,
    "wind":1,
    "couple":1,
    "weeks":1,
    "depleted":1,
    "generators":1,
    "sources":1,
    "patient":1,
    "bozemen":1,
    "miles":1,
    "automatic":1,
    "reflexes":1,
    "fluctuating":1,
    "bag":1,
    "water":1,
    "tank":1,
    "heartbeats":1,
    "irregular":1,
    "adrenaline":1,
    "ccs":1,
    "compress":1,
    "tinkering":1,
    "stable":1,
    "thatll":1,
    "explosion":1,
    "series":1,
    "fresh":1,
    "plates":1,
    "special":1,
    "pants":1,
    "telephone":1,
    "story":1,
    "solution":1,
    "ozone":1,
    "jonathan":1,
    "head":1,
    "protective":1,
    "sound":1,
    "england":1,
    "born":1,
    "recently":1,
    "california":1,
    "city":1,
    "anyway":1,
    "lived":1,
    "clever":1,
    "hospitals":1,
    "howd":1,
    "electrical":1,
    "huh":1,
    "came":1,
    "engine":1,
    "cells":1,
    "burst":1,
    "seem":1,
    "put":1,
    "protecting":1,
    "releasing":1,
    "dampening":1,
    "tricorders":1,
    "enter":1,
    "themselves":1,
    "negative":1,
    "however":1,
    "reconfigured":1,
    "odn":1,
    "rerouted":1,
    "hawk":1,
    "falling":1,
    "booster":1,
    "depend":1,
    "chemical":1,
    "heres":1,
    "thrust":1,
    "vaporized":1,
    "ways":1,
    "eighteen":1,
    "schematics":1,
    "blueprints":1,
    "tearing":1,
    "apart":1,
    "computers":1,
    "half":1,
    "filesso":1,
    "part":1,
    "rebuild":1,
    "orville":1,
    "wrights":1,
    "airplane":1,
    "canvass":1,
    "sticks":1,
    "guy":1,
    "walked":1,
    "front":1,
    "picture":1,
    "photograph":1,
    "blocking":1,
    "view":1,
    "clear":1,
    "configuration":1,
    "illogical":1,
    "simply":1,
    "learn":1,
    "secrets":1,
    "contradiction":1,
    "act":1,
    "consciousness":1,
    "individuals":1,
    "beginning":1,
    "end":1,
    "guiding":1,
    "ambition":1,
    "desire":1,
    "chaos":1,
    "unfortunate":1,
    "obtain":1,
    "automaton":1,
    "define":1,
    "blending":1,
    "highest":1,
    "form":1,
    "galaxy":1,
    "definition":1,
    "applies":1,
    "components":1,
    "wondered":1,
    "sensations":1,
    "which":1,
    "frame":1,
    "reference":1,
    "decks":1,
    "cargo":1,
    "bays":1,
    "shuttlebay":1,
    "dealing":1,
    "thirtyand":1,
    "twentytwo":1,
    "crewmembers":1,
    "reported":1,
    "missing":1,
    "including":1,
    "datas":1,
    "classified":1,
    "codes":1,
    "protocols":1,
    "concentrate":1,
    "gain":1,
    "locations":1,
    "possibilities":1,
    "fortress":1,
    "gets":1,
    "idiot":1,
    "ah":1,
    "fixed":1,
    "shot":1,
    "screw":1,
    "printed":1,
    "fabric":1,
    "prints":1,
    "best":1,
    "clean":1,
    "paper":1,
    "buy":1,
    "dome":1,
    "real":1,
    "currency":1,
    "sometimes":1,
    "meant":1,
    "willing":1,
    "undergraduate":1,
    "fraid":1,
    "lying":1,
    "easily":1,
    "obvious":1,
    "sucha":1,
    "judge":1,
    "character":1,
    "widening":1,
    "fuse":1,
    "bones":1,
    "worried":1,
    "move":1,
    "hemorrhage":1,
    "involved":1,
    "mix":1,
    "batch":1,
    "operate":1,
    "besides":1,
    "night":1,
    "double":1,
    "assault":1,
    "sophisticated":1,
    "worfthe":1,
    "charge":1,
    "bypassing":1,
    "referring":1,
    "properly":1,
    "stimulated":1,
    "graft":1,
    "onto":1,
    "endoskeletal":1,
    "structure":1,
    "description":1,
    "such":1,
    "gift":1,
    "pay":1,
    "lights":1,
    "perfectly":1,
    "justified":1,
    "shooting":1,
    "flatter":1,
    "junk":1,
    "explanation":1,
    "broke":1,
    "house":1,
    "key":1,
    "shows":1,
    "urgent":1,
    "couldnt":1,
    "afternoon":1,
    "plutonium":1,
    "deteriorate":1,
    "day":1,
    "become":1,
    "radioactive":1,
    "near":1,
    "pull":1,
    "trigger":1,
    "steal":1,
    "thief":1,
    "petty":1,
    "burglar":1,
    "liar":1,
    "zombies":1,
    "walking":1,
    "surround":1,
    "knows":1,
    "everyone":1,
    "crime":1,
    "poverty":1,
    "war":1,
    "reach":1,
    "seek":1,
    "fiber":1,
    "chance":1,
    "regret":1,
    "modifying":1,
    "weapon":1,
    "couldve":1,
    "bank":1,
    "bay":1,
    "doesnt":1,
    "magnify":1,
    "grid":1,
    "thermal":1,
    "enhancement":1,
    "connecting":1,
    "communications":1,
    "converting":1,
    "antennae":1,
    "borgthe":1,
    "period":1,
    "agreed":1,
    "options":1,
    "aim":1,
    "dorsal":1,
    "transporters":1,
    "shuttlecraft":1,
    "zerog":1,
    "combat":1,
    "training":1,
    "sick":1,
    "stroll":1,
    "itself":1,
    "copper":1,
    "pipes":1,
    "plumbing":1,
    "melted":1,
    "fused":1,
    "tritanium":1,
    "casings":1,
    "strongest":1,
    "crude":1,
    "aluminum":1,
    "steel":1,
    "brought":1,
    "trinary":1,
    "language":1,
    "archaic":1,
    "schedule":1,
    "detect":1,
    "enhanced":1,
    "injectors":1,
    "land":1,
    "same":1,
    "familiarizing":1,
    "crushers":1,
    "sit":1,
    "fly":1,
    "crazy":1,
    "assure":1,
    "favor":1,
    "promise":1,
    "questions":1,
    "short":1,
    "performed":1,
    "surgery":1,
    "metal":1,
    "scalpels":1,
    "needle":1,
    "thread":1,
    "surgical":1,
    "almack":1,
    "react":1,
    "confused":1,
    "noticed":1,
    "word":1,
    "wed":1,
    "living":1,
    "looker":1,
    "regardless":1,
    "advice":1,
    "exactly":1,
    "reasons":1,
    "excuses":1,
    "lists":1,
    "convinced":1,
    "ambient":1,
    "point":1,
    "degrees":1,
    "celsius":1,
    "tells":1,
    "visual":1,
    "acuity":1,
    "reduced":1,
    "seventyeight":1,
    "perceive":1,
    "infrared":1,
    "trapped":1,
    "truly":1,
    "guide":1,
    "betray":1,
    "held":1,
    "kept":1,
    "true":1,
    "tried":1,
    "becoming":1,
    "learning":1,
    "breath":1,
    "face":1,
    "yours":1,
    "intend":1,
    "realign":1,
    "reprogram":1,
    "localized":1,
    "detonation":1,
    "guess":1,
    "undoubtedly":1,
    "rotating":1,
    "modulation":1,
    "depressurize":1,
    "activate":1,
    "magnetic":1,
    "constrictors":1,
    "alright":1,
    "queasy":1,
    "eyes":1,
    "vomit":1,
    "exosuit":1,
    "unpleasant":1,
    "atr":1,
    "active":1,
    "bus":1,
    "acknowledged":1,
    "checks":1,
    "initiating":1,
    "outer":1,
    "names":1,
    "sloan":1,
    "wants":1,
    "making":1,
    "leave":1,
    "launches":1,
    "shes":1,
    "ms":1,
    "sloane":1,
    "seat":1,
    "charging":1,
    "emitters":1,
    "deanna":1,
    "destruct":1,
    "authorization":1,
    "gamma":1,
    "enable":1,
    "underway":1,
    "withstand":1,
    "insist":1,
    "kill":1,
    "wholl":1,
    "talked":1,
    "matters":1,
    "suspended":1,
    "join":1,
    "leaves":1,
    "thick":1,
    "plans":1,
    "calling":1,
    "troops":1,
    "tractor":1,
    "engaged":1,
    "em":1,
    "prismify":1,
    "rid":1,
    "intelligent":1,
    "canada":1,
    "forgot":1,
    "green":1,
    "blood":1,
    "pointed":1,
    "ears":1,
    "entertaining":1,
    "also":1,
    "drop":1,
    "plane":1,
    "fifeteen":1,
    "fourteen":1,
    "thirteen":1,
    "twelve":1,
    "nine":1,
    "kilograms":1,
    "altitude":1,
    "entering":1,
    "upper":1,
    "ionospere":1,
    "ignore":1,
    "prepare":1,
    "stage":1,
    "shutdown":1,
    "separation":1,
    "grateful":1,
    "universe":1,
    "explore":1,
    "together":1,
    "deactivated":1,
    "sensory":1,
    "inputs":1,
    "body":1,
    "meat":1,
    "early":1,
    "hurt":1,
    "empty":1,
    "deploy":1,
    "barrier":1,
    "lay":1,
    "charged":1,
    "standing":1,
    "engage":1,
    "structural":1,
    "heart":1,
    "weak":1,
    "stomach":1,
    "override":1,
    "functions":1,
    "location":1,
    "eliminate":1,
    "remaining":1,
    "rest":1,
    "crew":1,
    "alert":1,
    "sensor":1,
    "onehalf":1,
    "hot":1,
    "inertial":1,
    "dampers":1,
    "compensating":1,
    "built":1,
    "thing":1,
    "comfort":1,
    "seventyfive":1,
    "relativistic":1,
    "effects":1,
    "read":1,
    "working":1,
    "optical":1,
    "functioning":1,
    "diagnostics":1,
    "error":1,
    "between":1,
    "console":1,
    "configured":1,
    "flow":1,
    "configure":1,
    "getting":1,
    "awfully":1,
    "crossing":1,
    "dropping":1,
    "landing":1,
    "procedure":1,
    "captains":1,
    "log":1,
    "3rd":1,
    "voyage":1,
    "build":1,
    "push":1,
    "buttons":1,
    "secret":1,
    "live":1,
    "prosper":1,
    "leaving":1,
    "arent":1,
    "further":1,
    "werent":1,
    "venus":1,
    "dutybound":1,
    "interfere":1,
    "necessary":1,
    "interfering":1,
    "fate":1,
    "hows":1,
    "sickbay":1,
    "return":1,
    "unless":1,
    "stay":1,
    "onscreen":1,
    "fleet":1,
    "threat":1,
    "disappeared":1,
    "explain":1,
    "forward":1,
    "rip":1,
    "bulkhead":1,
    "bracing":1,
    "members":1,
    "above":1,
    "remains":1,
    "daystrom":1,
    "institute":1,
    "analysis":1,
    "realized":1,
    "powerful":1,
    "said":1,
    "ruse":1,
    "manipulating":1,
    "nearly":1,
    "perfect":1,
    "sounds":1,
    "miss":1,
    "search":2,
    "signal":2,
    "fall":2,
    "cover":2,
    "holding":2,
    "alpha":2,
    "side":2,
    "starboard":2,
    "starting":2,
    "hold":2,
    "perimeter":2,
    "useless":2,
    "break":2,
    "realize":2,
    "futile":2,
    "serious":2,
    "defenses":2,
    "handle":2,
    "absolutely":2,
    "entered":2,
    "toward":2,
    "suicide":2,
    "normally":2,
    "high":2,
    "create":2,
    "attempting":2,
    "fifty":2,
    "wake":2,
    "helm":2,
    "com":2,
    "atmosphere":2,
    "contains":2,
    "planets":2,
    "mustve":2,
    "past":2,
    "changed":2,
    "timeline":2,
    "closing":2,
    "percent":2,
    "year":2,
    "readings":2,
    "status":2,
    "manual":2,
    "track":2,
    "within":2,
    "seen":2,
    "action":2,
    "locked":2,
    "exact":2,
    "march":2,
    "meet":2,
    "transporter":2,
    "test":2,
    "succeed":2,
    "officer":2,
    "21st":2,
    "hello":2,
    "remain":2,
    "24th":2,
    "caused":2,
    "plasma":2,
    "post":2,
    "after":2,
    "emotions":2,
    "killed":2,
    "chip":2,
    "admit":2,
    "turn":2,
    "gas":2,
    "check":2,
    "diathermic":2,
    "oxygen":2,
    "temperature":2,
    "highly":2,
    "material":2,
    "hear":2,
    "probably":2,
    "ignite":2,
    "protect":2,
    "lock":2,
    "password":2,
    "ones":2,
    "sign":2,
    "behind":2,
    "blast":2,
    "designed":2,
    "fires":2,
    "severe":2,
    "passing":2,
    "does":2,
    "needs":2,
    "space":2,
    "town":2,
    "waiting":2,
    "simple":2,
    "difficult":2,
    "saying":2,
    "hope":2,
    "communication":2,
    "success":2,
    "detected":2,
    "fight":2,
    "each":2,
    "start":2,
    "recreate":2,
    "seal":2,
    "top":2,
    "heard":2,
    "thousands":2,
    "created":2,
    "unlike":2,
    "imperfect":2,
    "cranial":2,
    "occipital":2,
    "plate":2,
    "apr":2,
    "cell":2,
    "count":2,
    "um":2,
    "respirator":2,
    "juice":2,
    "last":2,
    "away":2,
    "beverly":2,
    "tricorder":2,
    "told":2,
    "next":2,
    "happened":2,
    "tonight":2,
    "excuse":2,
    "catch":2,
    "zone":2,
    "ultraviolet":2,
    "protection":2,
    "french":2,
    "raised":2,
    "states":2,
    "san":2,
    "francisco":2,
    "beautiful":2,
    "pretty":2,
    "wasnt":2,
    "engineer":2,
    "cochranes":2,
    "lucky":2,
    "explosions":2,
    "network":2,
    "stand":2,
    "solid":2,
    "lift":2,
    "took":2,
    "assembly":2,
    "controls":2,
    "completely":2,
    "without":2,
    "knew":2,
    "design":2,
    "under":2,
    "looking":2,
    "intake":2,
    "photos":2,
    "collective":2,
    "intelligence":2,
    "order":2,
    "destroy":2,
    "unique":2,
    "synthetic":2,
    "idea":2,
    "close":2,
    "artificial":2,
    "impossible":2,
    "imagine":2,
    "assume":2,
    "positronic":2,
    "both":2,
    "shut":2,
    "enough":2,
    "silver":2,
    "halide":2,
    "sorry":2,
    "ask":2,
    "bed":2,
    "sheets":2,
    "pictures":2,
    "able":2,
    "hard":2,
    "trade":2,
    "okay":2,
    "cornell":2,
    "makes":2,
    "bone":2,
    "fragments":2,
    "closer":2,
    "brain":2,
    "bad":2,
    "setting":2,
    "step":2,
    "cold":2,
    "yourself":2,
    "core":2,
    "asking":2,
    "vision":2,
    "destiny":2,
    "every":2,
    "telling":2,
    "happen":2,
    "sense":2,
    "rerouting":2,
    "conduits":2,
    "subspace":2,
    "sending":2,
    "made":2,
    "suggesting":2,
    "alloy":2,
    "lange":2,
    "tight":2,
    "flight":2,
    "shake":2,
    "hand":2,
    "pick":2,
    "mean":2,
    "fates":2,
    "along":2,
    "paths":2,
    "duty":2,
    "ourselves":2,
    "inside":2,
    "world":2,
    "sensation":2,
    "against":2,
    "creator":2,
    "array":2,
    "preignition":2,
    "says":2,
    "determined":2,
    "seven":2,
    "troi":2,
    "self":2,
    "twentyfive":2,
    "thanks":2,
    "aliens":2,
    "thought":2,
    "spaceman":2,
    "shit":2,
    "interface":2,
    "per":2,
    "threshold":2,
    "welcome":2,
    "flew":2,
    "france":2,
    "temptation":2,
    "four":3,
    "port":3,
    "hull":3,
    "integrity":3,
    "running":3,
    "field":3,
    "straight":3,
    "incoming":3,
    "transmission":3,
    "defense":3,
    "resistance":3,
    "admiral":3,
    "hayes":3,
    "torpedoes":3,
    "trick":3,
    "heading":3,
    "approaching":3,
    "impulse":3,
    "signature":3,
    "travel":3,
    "offline":3,
    "caught":3,
    "reading":3,
    "signs":3,
    "technology":3,
    "done":3,
    "repair":3,
    "whatever":3,
    "engines":3,
    "thirty":3,
    "2063":3,
    "found":3,
    "targeting":3,
    "today":3,
    "looks":3,
    "security":3,
    "team":3,
    "supposed":3,
    "certain":3,
    "century":3,
    "things":3,
    "luck":3,
    "everything":3,
    "find":3,
    "dead":3,
    "god":3,
    "afraid":3,
    "place":3,
    "met":3,
    "having":3,
    "emotion":3,
    "ensign":3,
    "trouble":3,
    "warhead":3,
    "use":3,
    "below":3,
    "hatch":3,
    "men":3,
    "door":3,
    "less":3,
    "medical":3,
    "attention":3,
    "hospital":3,
    "because":3,
    "problems":3,
    "home":3,
    "taken":3,
    "fields":3,
    "assimilate":3,
    "appear":3,
    "since":3,
    "lifeform":3,
    "complete":3,
    "information":3,
    "cannot":3,
    "fracture":3,
    "xrays":3,
    "batteries":3,
    "fuel":3,
    "outside":3,
    "youll":3,
    "interesting":3,
    "care":3,
    "call":3,
    "fine":3,
    "actually":3,
    "scrimm":3,
    "name":3,
    "really":3,
    "few":3,
    "friend":3,
    "answer":3,
    "myself":3,
    "reconstruct":3,
    "looked":3,
    "already":3,
    "perfection":3,
    "saw":3,
    "theyll":3,
    "red":3,
    "years":3,
    "money":3,
    "work":3,
    "lies":3,
    "talk":3,
    "important":3,
    "phaser":3,
    "mind":3,
    "skin":3,
    "zephrams":3,
    "shielding":3,
    "come":3,
    "beyond":3,
    "strong":3,
    "understand":3,
    "geordi":3,
    "anything":3,
    "experience":3,
    "else":3,
    "shell":3,
    "given":3,
    "initiate":3,
    "final":3,
    "six":3,
    "seconds":3,
    "selfdestruct":3,
    "doors":3,
    "whole":3,
    "nacelles":3,
    "moment":3,
    "repaired":3,
    "battery":4,
    "longer":4,
    "ahead":4,
    "screen":4,
    "assimilated":4,
    "online":4,
    "jeanluc":4,
    "ships":4,
    "own":4,
    "directly":4,
    "orbit":4,
    "surface":4,
    "sphere":4,
    "emergency":4,
    "starfleet":4,
    "planet":4,
    "position":4,
    "nuclear":4,
    "damaged":4,
    "crusher":4,
    "zephram":4,
    "change":4,
    "human":4,
    "wont":4,
    "havent":4,
    "appears":4,
    "most":4,
    "maybe":4,
    "wish":4,
    "organic":4,
    "twenty":4,
    "woman":4,
    "resurrection":4,
    "might":4,
    "even":4,
    "whats":4,
    "someone":4,
    "deck":4,
    "force":4,
    "neural":4,
    "yeah":4,
    "youd":4,
    "youve":4,
    "eight":4,
    "different":4,
    "thank":4,
    "great":4,
    "wanted":4,
    "morning":4,
    "valve":4,
    "almost":4,
    "piece":4,
    "ever":4,
    "stars":4,
    "send":4,
    "sequence":4,
    "countdown":4,
    "mark":4,
    "invasion":4,
    "stop":5,
    "bring":5,
    "target":5,
    "phasers":5,
    "quantum":5,
    "worry":5,
    "full":5,
    "much":5,
    "understood":5,
    "off":5,
    "attack":5,
    "message":5,
    "lost":5,
    "course":5,
    "wheres":5,
    "sensors":5,
    "command":5,
    "range":5,
    "kilometers":5,
    "entire":5,
    "damage":5,
    "she":5,
    "thousand":5,
    "meters":5,
    "computer":5,
    "second":5,
    "many":5,
    "please":5,
    "anyone":5,
    "drive":5,
    "oh":5,
    "riker":5,
    "environmental":5,
    "flesh":5,
    "begin":5,
    "access":5,
    "remember":5,
    "vulcan":5,
    "speed":5,
    "wrong":5,
    "help":5,
    "people":5,
    "being":5,
    "internal":5,
    "net":5,
    "least":5,
    "friends":5,
    "old":5,
    "rocket":5,
    "yet":5,
    "throttle":5,
    "minute":5,
    "engineering":5,
    "truth":5,
    "believe":5,
    "beam":5,
    "phoenix":5,
    "through":6,
    "torpedo":6,
    "left":6,
    "hours":6,
    "keep":6,
    "light":6,
    "nothing":6,
    "destroyed":6,
    "far":6,
    "set":6,
    "system":6,
    "trying":6,
    "contact":6,
    "then":6,
    "theyve":6,
    "report":6,
    "missile":6,
    "vulcans":6,
    "tomorrow":6,
    "hundred":6,
    "lets":6,
    "lieutenant":6,
    "never":6,
    "radiation":6,
    "something":6,
    "those":6,
    "isnt":6,
    "around":6,
    "another":6,
    "systems":6,
    "before":6,
    "always":6,
    "problem":6,
    "wait":6,
    "itll":6,
    "too":6,
    "lie":6,
    "dish":6,
    "aye":7,
    "fire":7,
    "la":7,
    "forge":7,
    "main":7,
    "new":7,
    "kind":7,
    "life":7,
    "give":7,
    "ten":7,
    "had":7,
    "who":7,
    "lot":7,
    "try":7,
    "got":7,
    "man":7,
    "long":7,
    "photographs":7,
    "feel":7,
    "only":8,
    "history":8,
    "montana":8,
    "his":8,
    "should":8,
    "didnt":8,
    "these":8,
    "ruby":8,
    "look":8,
    "let":8,
    "temporal":9,
    "must":9,
    "cant":9,
    "ive":9,
    "other":9,
    "tell":9,
    "would":9,
    "hell":9,
    "again":9,
    "until":9,
    "over":9,
    "future":9,
    "deflector":9,
    "up":10,
    "doing":10,
    "earth":10,
    "vortex":10,
    "weapons":10,
    "their":10,
    "doctor":10,
    "very":10,
    "first":10,
    "him":10,
    "make":10,
    "ill":10,
    "sure":10,
    "could":10,
    "than":10,
    "id":10,
    "better":10,
    "thats":10,
    "minutes":10,
    "ready":11,
    "weve":11,
    "good":11,
    "room":11,
    "where":11,
    "may":11,
    "commander":11,
    "little":11,
    "used":11,
    "three":12,
    "power":12,
    "still":12,
    "into":12,
    "why":12,
    "silo":12,
    "cochrane":12,
    "when":12,
    "just":12,
    "say":12,
    "more":12,
    "way":12,
    "picard":12,
    "bridge":13,
    "as":13,
    "five":13,
    "down":13,
    "hes":13,
    "am":13,
    "launch":13,
    "by":14,
    "see":14,
    "want":14,
    "yes":14,
    "well":15,
    "time":15,
    "worf":15,
    "did":15,
    "or":15,
    "think":15,
    "them":16,
    "us":16,
    "theyre":16,
    "two":16,
    "take":16,
    "he":16,
    "theres":16,
    "enterprise":16,
    "any":17,
    "like":17,
    "her":17,
    "has":18,
    "go":18,
    "out":18,
    "mister":18,
    "warp":18,
    "sir":19,
    "back":20,
    "been":20,
    "some":20,
    "get":20,
    "so":21,
    "control":21,
    "right":21,
    "about":22,
    "our":22,
    "know":22,
    "need":22,
    "how":23,
    "going":23,
    "data":23,
    "youre":23,
    "an":23,
    "dont":24,
    "if":24,
    "captain":25,
    "with":25,
    "can":26,
    "my":26,
    "now":27,
    "here":28,
    "will":29,
    "at":29,
    "":30,
    "all":31,
    "was":31,
    "its":32,
    "me":32,
    "one":32,
    "ship":33,
    "they":33,
    "from":34,
    "im":35,
    "were":35,
    "there":35,
    "do":35,
    "borg":37,
    "on":40,
    "not":40,
    "your":42,
    "no":43,
    "but":43,
    "for":44,
    "what":49,
    "this":51,
    "be":56,
    "we":62,
    "that":63,
    "are":67,
    "is":75,
    "have":78,
    "it":85,
    "and":86,
    "in":86,
    "of":91,
    "a":123,
    "i":133,
    "you":163,
    "to":227,
    "the":287
}