{
    "read":1,
    "loud":1,
    "circle":1,
    "ice":1,
    "cube":1,
    "fill":1,
    "space":1,
    "cruiser":1,
    "placed":1,
    "shortly":1,
    "girl":1,
    "aaargh":1,
    "temper":1,
    "hand":1,
    "comes":1,
    "reported":1,
    "checking":1,
    "meteor":1,
    "activity":1,
    "spot":1,
    "anymore":1,
    "marks":1,
    "live":1,
    "mushy":1,
    "highnessness":1,
    "decided":1,
    "ran":1,
    "ord":1,
    "mantell":1,
    "probably":1,
    "precisely":1,
    "natural":1,
    "aahhh":1,
    "imagining":1,
    "following":1,
    "without":1,
    "goodbye":1,
    "arrange":1,
    "thermal":1,
    "heater":1,
    "merely":1,
    "commented":1,
    "dry":1,
    "clothes":1,
    "both":1,
    "communicator":1,
    "inqu":1,
    "inquire":1,
    "ourselves":1,
    "considerable":1,
    "likely":1,
    "adapting":1,
    "tauntauns":1,
    "temperatures":1,
    "dropping":1,
    "rapidly":1,
    "comcontrol":1,
    "screen":1,
    "alpha":1,
    "tauntaunll":1,
    "marker":1,
    "joints":1,
    "shortcircuit":1,
    "mistress":1,
    "unable":1,
    "signals":1,
    "although":1,
    "abandon":1,
    "tonight":1,
    "closed":1,
    "chances":1,
    "survival":1,
    "seventyfive":1,
    "known":1,
    "mistakes":1,
    "clever":1,
    "instructed":1,
    "whew":1,
    "warm":1,
    "til":1,
    "shelter":1,
    "ooh":1,
    "smelled":1,
    "form":1,
    "morning":1,
    "guys":1,
    "drop":1,
    "repeat":1,
    "functional":1,
    "expresses":1,
    "relief":1,
    "also":1,
    "fact":1,
    "ears":1,
    "gundark":1,
    "owe":1,
    "junior":1,
    "managed":1,
    "rieekan":1,
    "thinks":1,
    "activated":1,
    "story":1,
    "bear":1,
    "gorgeous":1,
    "guy":1,
    "sight":1,
    "brain":1,
    "laugh":1,
    "fuzzball":1,
    "passage":1,
    "expressed":1,
    "stuck":1,
    "half":1,
    "witted":1,
    "nerf":1,
    "herder":1,
    "mark":1,
    "riled":1,
    "women":1,
    "headquarters":1,
    "personnel":1,
    "visitor":1,
    "picked":1,
    "zone":1,
    "metal":1,
    "creatures":1,
    "attacked":1,
    "speeder":1,
    "ours":1,
    "fluent":1,
    "six":1,
    "million":1,
    "communication":1,
    "used":1,
    "alliance":1,
    "whatever":1,
    "rogues":1,
    "eleven":1,
    "threeeight":1,
    "hard":1,
    "selfdestruct":1,
    "bet":1,
    "fragment":1,
    "thousands":1,
    "searching":1,
    "proof":1,
    "visuals":1,
    "indicate":1,
    "followed":1,
    "devoid":1,
    "uncharted":1,
    "settlements":1,
    "smugglers":1,
    "veers":1,
    "groups":1,
    "fly":1,
    "each":1,
    "immediate":1,
    "tforty":1,
    "sevens":1,
    "forget":1,
    "equipment":1,
    "plenty":1,
    "smaller":1,
    "modules":1,
    "hi":1,
    "reason":1,
    "hyperspace":1,
    "four":1,
    "reroute":1,
    "till":1,
    "moves":1,
    "comscan":1,
    "detected":1,
    "protecting":1,
    "sixth":1,
    "planet":1,
    "deflect":1,
    "bombardment":1,
    "alerted":1,
    "presence":1,
    "ozzel":1,
    "surprise":1,
    "wiser":1,
    "clumsy":1,
    "surface":1,
    "moved":1,
    "preparing":1,
    "aaagh":1,
    "failed":1,
    "beyond":1,
    "gets":1,
    "troop":1,
    "carriers":1,
    "assemble":1,
    "escorts":1,
    "per":1,
    "opened":1,
    "short":1,
    "against":1,
    "cannon":1,
    "several":1,
    "shots":1,
    "flight":1,
    "proceed":1,
    "directly":1,
    "understood":1,
    "stations":1,
    "primary":1,
    "rebel":1,
    "day":1,
    "whole":1,
    "myself":1,
    "threeteight":1,
    "spotted":1,
    "ridge":1,
    "fiveseven":1,
    "approach":1,
    "vector":1,
    "pattern":1,
    "delta":1,
    "armors":1,
    "blasters":1,
    "group":1,
    "harpoons":1,
    "stopping":1,
    "malfunction":1,
    "cut":1,
    "auxiliary":1,
    "reached":1,
    "gunner":1,
    "activate":1,
    "janson":1,
    "detached":1,
    "whooha":1,
    "risky":1,
    "remaining":1,
    "staff":1,
    "debark":1,
    "cross":1,
    "low":1,
    "heard":1,
    "slope":1,
    "konezero":1,
    "disengage":1,
    "retreat":1,
    "distance":1,
    "oneseven":1,
    "decimal":1,
    "twoeight":1,
    "maximum":1,
    "typical":1,
    "goldenrod":1,
    "permanent":1,
    "resident":1,
    "helped":1,
    "pushed":1,
    "bolts":1,
    "blockade":1,
    "babys":1,
    "burnout":1,
    "someday":1,
    "setting":1,
    "regroup":1,
    "outmaneuver":1,
    "evasive":1,
    "action":1,
    "earlier":1,
    "motivator":1,
    "horizontal":1,
    "boosters":1,
    "alluvial":1,
    "dampers":1,
    "hydrospanners":1,
    "oww":1,
    "blast":1,
    "twoseven":1,
    "impress":1,
    "possibility":1,
    "successfully":1,
    "navigating":1,
    "approximately":1,
    "thousand":1,
    "twenty":1,
    "wanted":1,
    "argue":1,
    "ones":1,
    "suicide":1,
    "thatll":1,
    "nicely":1,
    "maam":1,
    "change":1,
    "picking":1,
    "cities":1,
    "technology":1,
    "massive":1,
    "lifeform":1,
    "cycle":1,
    "lucky":1,
    "taste":1,
    "saying":1,
    "idea":1,
    "agree":1,
    "dream":1,
    "maybe":1,
    "sighted":1,
    "risk":1,
    "concern":1,
    "excuses":1,
    "emergency":1,
    "systems":1,
    "include":1,
    "shutting":1,
    "glad":1,
    "professor":1,
    "plug":1,
    "behavior":1,
    "job":1,
    "sshh":1,
    "held":1,
    "else":1,
    "exists":1,
    "weapon":1,
    "harm":1,
    "ahhh":1,
    "wars":1,
    "dinner":1,
    "eating":1,
    "puddle":1,
    "aww":1,
    "making":1,
    "lamp":1,
    "home":1,
    "fella":1,
    "oohhh":1,
    "seek":1,
    "camp":1,
    "communicate":1,
    "peculiar":1,
    "dialect":1,
    "axis":1,
    "polarized":1,
    "calling":1,
    "nicer":1,
    "occasionally":1,
    "acting":1,
    "scoundrels":1,
    "happen":1,
    "isolated":1,
    "reverse":1,
    "flux":1,
    "appeared":1,
    "considering":1,
    "amount":1,
    "damage":1,
    "sustained":1,
    "available":1,
    "sweep":1,
    "transmission":1,
    "thy":1,
    "bidding":1,
    "disturbance":1,
    "asset":1,
    "delicious":1,
    "hot":1,
    "rootleaf":1,
    "cook":1,
    "mostly":1,
    "wasting":1,
    "hah":1,
    "eight":1,
    "years":1,
    "counsel":1,
    "deepest":1,
    "commitment":1,
    "serious":1,
    "horizon":1,
    "hmph":1,
    "adventure":1,
    "excitement":1,
    "craves":1,
    "begins":1,
    "venture":1,
    "tear":1,
    "guard":1,
    "feels":1,
    "awful":1,
    "moisture":1,
    "mynock":1,
    "chewing":1,
    "mynocks":1,
    "inside":1,
    "clean":1,
    "beastly":1,
    "wise":1,
    "discuss":1,
    "sit":1,
    "taking":1,
    "doomed":1,
    "collapsing":1,
    "run":1,
    "jedis":1,
    "flows":1,
    "beware":1,
    "aggression":1,
    "easily":1,
    "dominate":1,
    "consume":1,
    "obiwans":1,
    "apprentice":1,
    "stronger":1,
    "quicker":1,
    "easier":1,
    "seductive":1,
    "peace":1,
    "passive":1,
    "uses":1,
    "knowledge":1,
    "defense":1,
    "today":1,
    "mmmmmmmm":1,
    "domain":1,
    "hunters":1,
    "scum":1,
    "priority":1,
    "avenger":1,
    "substantial":1,
    "reward":1,
    "free":1,
    "methods":1,
    "necessary":1,
    "disintegrations":1,
    "goodness":1,
    "transfer":1,
    "circuits":1,
    "working":1,
    "rear":1,
    "quarter":1,
    "front":1,
    "surviving":1,
    "shields":1,
    "track":1,
    "appears":1,
    "disappeared":1,
    "cloaking":1,
    "device":1,
    "trace":1,
    "demands":1,
    "update":1,
    "pursuit":1,
    "shall":1,
    "assume":1,
    "losing":1,
    "apologize":1,
    "meanwhile":1,
    "continue":1,
    "stone":1,
    "certain":1,
    "stones":1,
    "totally":1,
    "unlearn":1,
    "judge":1,
    "creates":1,
    "makes":1,
    "grow":1,
    "surrounds":1,
    "binds":1,
    "luminous":1,
    "beings":1,
    "tree":1,
    "everywhere":1,
    "apology":1,
    "accepted":1,
    "completed":1,
    "went":1,
    "itll":1,
    "calculate":1,
    "destination":1,
    "trajectory":1,
    "anyone":1,
    "break":1,
    "claw":1,
    "surrender":1,
    "acceptable":1,
    "alternative":1,
    "extreme":1,
    "circumstances":1,
    "gracious":1,
    "standard":1,
    "procedure":1,
    "dump":1,
    "float":1,
    "port":1,
    "somewhere":1,
    "ideas":1,
    "card":1,
    "player":1,
    "gambler":1,
    "youd":1,
    "bespin":1,
    "colony":1,
    "tibanna":1,
    "conned":1,
    "places":1,
    "pain":1,
    "motion":1,
    "decide":1,
    "serve":1,
    "fought":1,
    "suffered":1,
    "permit":1,
    "whoa":1,
    "explain":1,
    "deviate":1,
    "present":1,
    "rather":1,
    "touchy":1,
    "person":1,
    "ago":1,
    "permission":1,
    "granted":1,
    "threetwoseven":1,
    "worried":1,
    "everythings":1,
    "fine":1,
    "eyes":1,
    "doublecrossing":1,
    "nogood":1,
    "swindler":1,
    "guts":1,
    "pulled":1,
    "pirate":1,
    "seems":1,
    "ahh":1,
    "repairs":1,
    "square":1,
    "administrator":1,
    "smoothie":1,
    "seethreepio":1,
    "humancyborg":1,
    "relations":1,
    "facilities":1,
    "saved":1,
    "times":1,
    "fastest":1,
    "hunk":1,
    "paying":1,
    "outpost":1,
    "selfsufficient":1,
    "supply":1,
    "labor":1,
    "difficulties":1,
    "funny":1,
    "businessman":1,
    "whod":1,
    "seeing":1,
    "brings":1,
    "days":1,
    "successful":1,
    "e":1,
    "chu":1,
    "ta":1,
    "rude":1,
    "r2":1,
    "unit":1,
    "wonder":1,
    "vision":1,
    "fate":1,
    "tempted":1,
    "failure":1,
    "finish":1,
    "abilities":1,
    "suffer":1,
    "stopped":1,
    "depends":1,
    "knight":1,
    "conquer":1,
    "agent":1,
    "sacrifice":1,
    "honor":1,
    "interfere":1,
    "converters":1,
    "shape":1,
    "sooner":1,
    "relax":1,
    "either":1,
    "besides":1,
    "pile":1,
    "repair":1,
    "interrupting":1,
    "absolutely":1,
    "beautiful":1,
    "truly":1,
    "belong":1,
    "among":1,
    "refreshment":1,
    "everyones":1,
    "invited":1,
    "problem":1,
    "jurisdiction":1,
    "part":1,
    "guild":1,
    "advantageous":1,
    "everybody":1,
    "customers":1,
    "anxious":1,
    "avoid":1,
    "attracting":1,
    "themselves":1,
    "empires":1,
    "looming":1,
    "shadow":1,
    "developed":1,
    "insure":1,
    "honored":1,
    "arrived":1,
    "threepios":1,
    "stormtroopers":1,
    "permanently":1,
    "condition":1,
    "agreement":1,
    "nor":1,
    "treated":1,
    "unfairly":1,
    "unfortunate":1,
    "garrison":1,
    "deals":1,
    "backwards":1,
    "furball":1,
    "overgrown":1,
    "mophead":1,
    "terrible":1,
    "asked":1,
    "agreed":1,
    "vaders":1,
    "called":1,
    "bait":1,
    "real":1,
    "hero":1,
    "certainly":1,
    "adequate":1,
    "journey":1,
    "xwing":1,
    "class":1,
    "monitor":1,
    "allow":1,
    "kill":1,
    "emperors":1,
    "prize":1,
    "test":1,
    "ridiculous":1,
    "foolish":1,
    "worth":1,
    "compensate":1,
    "dies":1,
    "therell":1,
    "round":1,
    "theyve":1,
    "encased":1,
    "carbonite":1,
    "wellprotected":1,
    "survives":1,
    "process":1,
    "hibernation":1,
    "yours":1,
    "reset":1,
    "landed":1,
    "supervision":1,
    "altering":1,
    "pray":1,
    "alter":1,
    "further":1,
    "tower":1,
    "haaa":1,
    "cargo":1,
    "wooly":1,
    "piece":1,
    "lies":1,
    "controlled":1,
    "hatred":1,
    "codes":1,
    "override":1,
    "takes":1,
    "advise":1,
    "arrive":1,
    "interpreter":1,
    "socket":1,
    "terminal":1,
    "door":1,
    "lump":1,
    "doubted":1,
    "wonderful":1,
    "hurt":1,
    "bend":1,
    "thoughtless":1,
    "hairy":1,
    "beast":1,
    "beaten":1,
    "useless":1,
    "resist":1,
    "realize":1,
    "importance":1,
    "discover":1,
    "combined":1,
    "destructive":1,
    "conflict":1,
    "order":1,
    "killed":1,
    "search":1,
    "foreseen":1,
    "rule":1,
    "someones":1,
    "top":1,
    "hatch":1,
    "coordinates":1,
    "trusted":1,
    "deactivate":1,
    "boarding":1,
    "party":1,
    "stun":1,
    "noisy":1,
    "brute":1,
    "deactivated":1,
    "citys":1,
    "central":1,
    "artoodetoo":1,
    "than":1,
    "standing":1,
    "pieces":1,
    "grandeur":1,
    "tatooine":1,
    "waiting":1,
    "buddy":2,
    "pick":2,
    "sensors":2,
    "meteorite":2,
    "near":2,
    "matter":2,
    "smell":2,
    "sign":2,
    "approaching":2,
    "price":2,
    "head":2,
    "death":2,
    "hate":2,
    "changed":2,
    "talking":2,
    "blame":2,
    "ask":2,
    "chamber":2,
    "switch":2,
    "apart":2,
    "pull":2,
    "word":2,
    "shes":2,
    "turned":2,
    "wondering":2,
    "hasnt":2,
    "she":2,
    "nobody":2,
    "deck":2,
    "officer":2,
    "seen":2,
    "came":2,
    "forgotten":2,
    "speeders":2,
    "cold":2,
    "reach":2,
    "patrols":2,
    "does":2,
    "admit":2,
    "range":2,
    "weak":2,
    "doors":2,
    "built":2,
    "fully":2,
    "worship":2,
    "dangerous":2,
    "until":2,
    "delusions":2,
    "laser":2,
    "alone":2,
    "feelings":2,
    "scruffylooking":2,
    "whos":2,
    "report":2,
    "center":2,
    "east":2,
    "couldnt":2,
    "forms":2,
    "code":2,
    "ten":2,
    "wed":2,
    "best":2,
    "lead":2,
    "droids":2,
    "leads":2,
    "many":2,
    "behind":2,
    "loaded":2,
    "clearance":2,
    "launch":2,
    "evacuate":2,
    "heavy":2,
    "second":2,
    "careful":2,
    "destroyers":2,
    "felt":2,
    "piett":2,
    "deploy":2,
    "north":2,
    "fighters":2,
    "ion":2,
    "enemy":2,
    "youve":2,
    "gotten":2,
    "point":2,
    "everyone":2,
    "generators":2,
    "catch":2,
    "walkers":2,
    "boys":2,
    "tight":2,
    "hobbie":2,
    "tow":2,
    "cables":2,
    "legs":2,
    "chance":2,
    "generator":2,
    "wedge":2,
    "next":2,
    "detach":2,
    "protect":2,
    "goes":2,
    "entered":2,
    "begin":2,
    "fall":2,
    "hows":2,
    "suggest":2,
    "bucket":2,
    "surprises":2,
    "punch":2,
    "takeoff":2,
    "others":2,
    "manual":2,
    "deflector":2,
    "jump":2,
    "noticed":2,
    "asteroids":2,
    "theyd":2,
    "wouldnt":2,
    "odds":2,
    "mistake":2,
    "pulverized":2,
    "though":2,
    "broken":2,
    "beginning":2,
    "entirely":2,
    "stable":2,
    "excited":2,
    "familiar":2,
    "watched":2,
    "someone":2,
    "hmmm":2,
    "warrior":2,
    "ohhh":2,
    "mess":2,
    "mudhole":2,
    "believe":2,
    "negative":2,
    "sound":2,
    "hands":2,
    "dirty":2,
    "trembling":2,
    "destroyed":2,
    "wish":2,
    "teach":2,
    "taught":2,
    "looked":2,
    "heh":2,
    "reckless":2,
    "opinion":2,
    "interested":2,
    "threepio":2,
    "strange":2,
    "rock":2,
    "rest":2,
    "attached":2,
    "shoo":2,
    "minute":2,
    "committee":2,
    "fear":2,
    "flow":2,
    "quick":2,
    "fight":2,
    "forever":2,
    "calm":2,
    "questions":2,
    "evil":2,
    "weapons":2,
    "escape":2,
    "finds":2,
    "fair":2,
    "direct":2,
    "shuttle":2,
    "full":2,
    "responsibility":2,
    "scan":2,
    "concentrate":2,
    "size":2,
    "matters":2,
    "crude":2,
    "quiet":2,
    "release":2,
    "garbage":2,
    "anoat":2,
    "interesting":2,
    "landos":2,
    "mining":2,
    "gas":2,
    "somebody":2,
    "love":2,
    "clouds":2,
    "which":2,
    "platform":2,
    "meet":2,
    "junk":2,
    "problems":2,
    "responsible":2,
    "face":2,
    "sounds":2,
    "terribly":2,
    "intrude":2,
    "complete":2,
    "return":2,
    "begun":2,
    "wants":2,
    "choose":2,
    "worse":2,
    "somethings":2,
    "deal":2,
    "perhaps":2,
    "least":2,
    "perfect":2,
    "carbon":2,
    "survive":2,
    "under":2,
    "young":2,
    "impressive":2,
    "ouch":2,
    "ow":2,
    "slow":2,
    "tractor":2,
    "beam":2,
    "clear":3,
    "readings":3,
    "isnt":3,
    "lose":3,
    "place":3,
    "difficult":3,
    "pay":3,
    "jabba":3,
    "hut":3,
    "fighter":3,
    "highness":3,
    "guess":3,
    "huh":3,
    "giving":3,
    "kiss":3,
    "together":3,
    "talk":3,
    "havent":3,
    "entrance":3,
    "between":3,
    "danger":3,
    "having":3,
    "some":3,
    "cover":3,
    "twelve":3,
    "freeze":3,
    "contact":3,
    "says":3,
    "own":3,
    "hundred":3,
    "actually":3,
    "human":3,
    "learn":3,
    "outside":3,
    "copy":3,
    "feeling":3,
    "looks":3,
    "while":3,
    "everything":3,
    "command":3,
    "moving":3,
    "friendly":3,
    "send":3,
    "station":3,
    "left":3,
    "kind":3,
    "probe":3,
    "evacuation":3,
    "rebels":3,
    "men":3,
    "yourself":3,
    "other":3,
    "assault":3,
    "area":3,
    "path":3,
    "past":3,
    "rendezvous":3,
    "luck":3,
    "target":3,
    "new":3,
    "main":3,
    "moments":3,
    "shot":3,
    "harpoon":3,
    "follow":3,
    "pass":3,
    "work":3,
    "position":3,
    "hurry":3,
    "few":3,
    "light":3,
    "speed":3,
    "damaged":3,
    "bring":3,
    "crazy":3,
    "said":3,
    "made":3,
    "big":3,
    "perfectly":3,
    "safe":3,
    "scopes":3,
    "almost":3,
    "sometimes":3,
    "mmmm":3,
    "food":3,
    "slimy":3,
    "coupling":3,
    "replace":3,
    "welcome":3,
    "boy":3,
    "son":3,
    "hm":3,
    "anger":3,
    "trained":3,
    "fail":3,
    "strength":3,
    "fault":3,
    "another":3,
    "needa":3,
    "always":3,
    "should":3,
    "alert":3,
    "hello":3,
    "facility":3,
    "since":3,
    "promise":3,
    "happened":3,
    "fix":3,
    "operation":3,
    "attention":3,
    "trap":3,
    "seven":4,
    "finished":4,
    "steady":4,
    "commander":4,
    "dead":4,
    "man":4,
    "supposed":4,
    "because":4,
    "id":4,
    "wookiee":4,
    "these":4,
    "knows":4,
    "possible":4,
    "through":4,
    "south":4,
    "getting":4,
    "impossible":4,
    "trouble":4,
    "sector":4,
    "before":4,
    "first":4,
    "hell":4,
    "say":4,
    "close":4,
    "dear":4,
    "base":4,
    "nice":4,
    "thanks":4,
    "true":4,
    "those":4,
    "signal":4,
    "droid":4,
    "start":4,
    "hoth":4,
    "every":4,
    "end":4,
    "hold":4,
    "destroyer":4,
    "open":4,
    "stand":4,
    "cable":4,
    "landing":4,
    "once":4,
    "choice":4,
    "sweetheart":4,
    "over":4,
    "closer":4,
    "alive":4,
    "most":4,
    "move":4,
    "lot":4,
    "hmm":4,
    "mmm":4,
    "eat":4,
    "commands":4,
    "become":4,
    "powerful":4,
    "ally":4,
    "die":4,
    "different":4,
    "remember":4,
    "training":4,
    "destiny":4,
    "small":4,
    "theyll":4,
    "city":4,
    "knew":4,
    "people":4,
    "save":4,
    "security":4,
    "fixed":4,
    "computer":4,
    "ground":5,
    "wont":5,
    "hear":5,
    "easy":5,
    "thing":5,
    "leader":5,
    "soon":5,
    "use":5,
    "try":5,
    "freezing":5,
    "excuse":5,
    "doesnt":5,
    "along":5,
    "friends":5,
    "again":5,
    "stupid":5,
    "worry":5,
    "hang":5,
    "longer":5,
    "pretty":5,
    "galaxy":5,
    "transport":5,
    "transports":5,
    "attack":5,
    "last":5,
    "their":5,
    "lost":5,
    "understand":5,
    "watch":5,
    "wrong":5,
    "saw":5,
    "millennium":5,
    "even":5,
    "looking":5,
    "ah":5,
    "scoundrel":5,
    "destroy":5,
    "patience":5,
    "future":5,
    "cave":5,
    "gone":5,
    "chewbacca":5,
    "told":5,
    "echo":6,
    "three":6,
    "old":6,
    "kid":6,
    "check":6,
    "hunter":6,
    "far":6,
    "hope":6,
    "being":6,
    "dagobah":6,
    "bad":6,
    "care":6,
    "fleet":6,
    "star":6,
    "land":6,
    "dack":6,
    "shut":6,
    "friend":6,
    "learned":6,
    "arent":6,
    "obiwan":6,
    "calrissian":6,
    "hey":7,
    "give":7,
    "youll":7,
    "anything":7,
    "yet":7,
    "ships":7,
    "bounty":7,
    "uh":7,
    "things":7,
    "really":7,
    "trying":7,
    "course":7,
    "little":7,
    "found":7,
    "strong":7,
    "energy":7,
    "prepare":7,
    "troops":7,
    "theyre":7,
    "fire":7,
    "cannot":7,
    "after":7,
    "listen":7,
    "mine":7,
    "emperor":7,
    "done":7,
    "join":7,
    "hit":8,
    "long":8,
    "general":8,
    "sorry":8,
    "thank":8,
    "into":8,
    "mind":8,
    "great":8,
    "afraid":8,
    "didnt":8,
    "turn":8,
    "please":8,
    "mean":8,
    "still":8,
    "who":8,
    "may":8,
    "very":8,
    "imperial":8,
    "better":8,
    "admiral":8,
    "okay":8,
    "away":8,
    "when":8,
    "falcon":8,
    "asteroid":8,
    "father":8,
    "trust":8,
    "whats":9,
    "life":9,
    "enough":9,
    "thought":9,
    "need":9,
    "put":9,
    "dark":9,
    "lets":9,
    "nothing":9,
    "quite":9,
    "keep":9,
    "let":9,
    "empire":9,
    "control":9,
    "lightspeed":9,
    "field":9,
    "hyperdrive":9,
    "tell":9,
    "side":9,
    "leave":10,
    "princess":10,
    "set":10,
    "from":10,
    "his":10,
    "sure":10,
    "by":10,
    "look":10,
    "weve":10,
    "solo":11,
    "way":11,
    "feel":11,
    "then":11,
    "her":11,
    "might":11,
    "or":11,
    "shield":11,
    "yoda":11,
    "much":11,
    "rogue":11,
    "coming":11,
    "yeah":11,
    "doing":11,
    "did":11,
    "stay":12,
    "am":12,
    "find":12,
    "make":12,
    "ben":12,
    "had":12,
    "down":12,
    "stop":12,
    "something":13,
    "more":13,
    "never":13,
    "han":14,
    "want":14,
    "off":14,
    "been":14,
    "master":14,
    "too":14,
    "two":14,
    "wait":14,
    "would":14,
    "any":15,
    "around":15,
    "hes":15,
    "cant":15,
    "help":15,
    "think":15,
    "jedi":15,
    "captain":15,
    "power":15,
    "skywalker":16,
    "an":16,
    "was":16,
    "how":16,
    "leia":16,
    "ready":16,
    "at":16,
    "force":16,
    "lando":16,
    "ive":17,
    "thats":17,
    "could":17,
    "where":17,
    "back":18,
    "system":18,
    "time":18,
    "only":18,
    "our":18,
    "must":19,
    "ship":19,
    "ill":20,
    "theres":20,
    "got":20,
    "about":20,
    "":20,
    "as":20,
    "one":20,
    "has":20,
    "up":21,
    "us":21,
    "just":21,
    "take":22,
    "so":23,
    "why":23,
    "now":23,
    "they":24,
    "vader":24,
    "chewie":26,
    "youre":26,
    "can":27,
    "artoo":27,
    "like":27,
    "come":28,
    "go":28,
    "lord":28,
    "see":29,
    "them":29,
    "luke":29,
    "were":31,
    "good":32,
    "if":33,
    "its":33,
    "get":33,
    "there":34,
    "him":34,
    "with":34,
    "do":35,
    "going":35,
    "here":37,
    "know":37,
    "right":38,
    "but":39,
    "sir":39,
    "he":40,
    "well":41,
    "yes":42,
    "oh":43,
    "out":45,
    "will":48,
    "are":53,
    "we":53,
    "my":55,
    "on":55,
    "what":56,
    "all":57,
    "for":58,
    "im":61,
    "your":62,
    "this":64,
    "have":64,
    "be":66,
    "dont":67,
    "not":67,
    "that":68,
    "me":70,
    "in":70,
    "and":72,
    "no":83,
    "of":84,
    "is":84,
    "it":108,
    "a":126,
    "i":189,
    "to":211,
    "the":264,
    "you":280
}