{
    "upshot":1,
    "fault":1,
    "flaky":1,
    "forthis":1,
    "overbuilt":1,
    "deanza":1,
    "community":1,
    "shh":1,
    "overeverything":1,
    "ifwho\u2019s":1,
    "shadowing":1,
    "filled":1,
    "condition":1,
    "track":1,
    "sampling":1,
    "rates":1,
    "twohour":1,
    "ran":1,
    "could\u2019ve":1,
    "oscar":1,
    "short":1,
    "film":1,
    "backandrea":1,
    "iswhat":1,
    "recompile":1,
    "screwdriver":1,
    "fairness":1,
    "shrugsandy":1,
    "christcut":1,
    "rule":1,
    "backyeah":1,
    "explained":1,
    "properties":1,
    "causes":1,
    "stampede":1,
    "unmarked":1,
    "survive":1,
    "leaves":1,
    "followed":1,
    "heads2":1,
    "jobs\u201d":1,
    "into3":1,
    "alienating":1,
    "batman":1,
    "villain":1,
    "bell":1,
    "realistic":1,
    "held":1,
    "26":1,
    "stringer":1,
    "alameda":1,
    "shopper\u2019s":1,
    "guide":1,
    "welistenwe":1,
    "advertised":1,
    "disappointed":1,
    "reasonable":1,
    "unimportant":1,
    "agrees":1,
    "hack":1,
    "flaps":1,
    "\u201cmachine":1,
    "year\u201d":1,
    "iswhy":1,
    "ofwho":1,
    "thoughtwho":1,
    "matterthought":1,
    "nipped":1,
    "bud":1,
    "buildingthey\u2019re":1,
    "soproblem":1,
    "solved":1,
    "enthusiastically":1,
    "notamacintosh":1,
    "handing":1,
    "hewlettpackard":1,
    "bushel":1,
    "apples":1,
    "wasyeah":1,
    "removed":1,
    "stack":1,
    "kottke\u2019s":1,
    "\u201chappy":1,
    "you\u201d":1,
    "campus":1,
    "betrayal":1,
    "bozo":1,
    "malice":1,
    "daysjoanna":1,
    "forecasts":1,
    "manage":1,
    "fanning":1,
    "twentyfour":1,
    "competitive":1,
    "1500":1,
    "replaced":1,
    "motorola":1,
    "6809":1,
    "68000steve":1,
    "supports":1,
    "menus":1,
    "res":1,
    "graphicsjoanna":1,
    "rectangles":1,
    "rounded":1,
    "corners":1,
    "coach":1,
    "lands":1,
    "runway":1,
    "2500":1,
    "oncewhat":1,
    "idiot":1,
    "wantif":1,
    "collar":1,
    "club":1,
    "person\u2019s":1,
    "goal":1,
    "ease":1,
    "should\u2019ve":1,
    "costs":1,
    "glad":1,
    "feelings":1,
    "redesign":1,
    "instantly":1,
    "tore":1,
    "chairs":1,
    "revolutionary":1,
    "provocative":1,
    "igor":1,
    "1913":1,
    "weren\u2019ti":1,
    "properly":1,
    "sodomized":1,
    "obviouslylet":1,
    "thisobviously":1,
    "saidwhen":1,
    "\u201cdan":1,
    "lisa\u201d":1,
    "\u201cyeah\u201d":1,
    "him\u201d":1,
    "\u201cyes\u201d":1,
    "answered":1,
    "excepti":1,
    "denying":1,
    "paternity":1,
    "ai":1,
    "isthat\u2019s":1,
    "brennan":1,
    "session":1,
    "credentials":1,
    "interviews":1,
    "pal":1,
    "longing":1,
    "halcyon":1,
    "lemme":1,
    "she\u2019ll":1,
    "excruciatingly":1,
    "surprise":1,
    "safe":1,
    "butanywaythey":1,
    "into5":1,
    "anyone\u2019s":1,
    "poland":1,
    "earth":1,
    "north":1,
    "pole":1,
    "pressed":1,
    "sojoanna":1,
    "whydo":1,
    "yoursteve":1,
    "actuallydo":1,
    "\u201clocal":1,
    "architecture\u201d":1,
    "hi":1,
    "absorbing":1,
    "\u201clisa\u201d":1,
    "aroundi":1,
    "hon":1,
    "fathersteve":1,
    "remotechrisann":1,
    "that\u2018s":1,
    "remotely":1,
    "facility":1,
    "assassins":1,
    "\u201cjobs":1,
    "insists\u201di\u2019m":1,
    "quotingsteve":1,
    "\u201d\u201928":1,
    "population":1,
    "father\u2019\u201d":1,
    "based":1,
    "slut":1,
    "whore":1,
    "twomillion":1,
    "would\u2019ve":1,
    "welli":1,
    "dramatically":1,
    "undervalued":1,
    "hovel":1,
    "menlo":1,
    "park":1,
    "heating":1,
    "sleeps":1,
    "parka":1,
    "reported":1,
    "americano":1,
    "itjoanna":1,
    "into6":1,
    "how\u2019re":1,
    "doin\u2019":1,
    "dick":1,
    "asteve":1,
    "goddammit":1,
    "crew":1,
    "daytona":1,
    "fixed":1,
    "created":1,
    "someday":1,
    "demoi\u2019m":1,
    "susan":1,
    "kare":1,
    "font":1,
    "scrolling":1,
    "capps":1,
    "starry":1,
    "skywriting":1,
    "bruce":1,
    "horn":1,
    "macwrite":1,
    "alice":1,
    "calculator":1,
    "realizes":1,
    "others":1,
    "saving":1,
    "surviving":1,
    "russian":1,
    "roulette":1,
    "reversed":1,
    "disgraced":1,
    "colleagues":1,
    "stockholders":1,
    "arguing":1,
    "bullets":1,
    "gun":1,
    "diskette":1,
    "sizedoes":1,
    "wears":1,
    "psychiatrist":1,
    "fits":1,
    "pocketi":1,
    "845":1,
    "return":1,
    "trade":1,
    "mimes":1,
    "rolling":1,
    "cartridge":1,
    "revolver":1,
    "along":1,
    "effects":1,
    "maclisa":1,
    "borrow":1,
    "arrowand":1,
    "engaged":1,
    "welcome":1,
    "distraction":1,
    "ordered":1,
    "385":1,
    "decided":1,
    "amount":1,
    "feelif":1,
    "youthat":1,
    "mothersteve":1,
    "notchrisann":1,
    "thereand":1,
    "underfunded":1,
    "imagine":1,
    "underprivileged":1,
    "teacher":1,
    "24":1,
    "mateo":1,
    "plenty":1,
    "itandrea":1,
    "visitor":1,
    "amiable":1,
    "undisputed":1,
    "polish":1,
    "into8":1,
    "thanksyou":1,
    "likethe":1,
    "patiently":1,
    "anymoresteve":1,
    "launching":1,
    "morale":1,
    "booster":1,
    "minutewoz":1,
    "dna":1,
    "voluntarily":1,
    "individually":1,
    "deranged":1,
    "endanger":1,
    "fourteen":1,
    "greatest":1,
    "weighing":1,
    "affect":1,
    "economy":1,
    "conclusively":1,
    "frankly":1,
    "otherwise":1,
    "abuse":1,
    "proved":1,
    "thatsteve":1,
    "casket":1,
    "buried":1,
    "extort":1,
    "humiliate":1,
    "reminders":1,
    "disappearing":1,
    "reporteronefound":1,
    "symptom":1,
    "progressing":1,
    "narcissistic":1,
    "personality":1,
    "disorder":1,
    "enters":1,
    "abstract":1,
    "glancing":1,
    "\u201cs\u201d":1,
    "type":1,
    "brennan\u201d":1,
    "someplace":1,
    "ways":1,
    "tough":1,
    "kidchrisann":1,
    "himshe\u2019s":1,
    "discuss":1,
    "deeply":1,
    "uncomfortable":1,
    "seem":1,
    "capable":1,
    "mit":1,
    "humor":1,
    "health":1,
    "dental":1,
    "dumber":1,
    "tying":1,
    "insult":1,
    "backwardlooking":1,
    "thingat":1,
    "planet\u2019s":1,
    "axis":1,
    "nigh":1,
    "significant":1,
    "20th":1,
    "centurythe":1,
    "allies":1,
    "scold":1,
    "testjoanna":1,
    "mensteve":1,
    "grabs":1,
    "jacketsteve":1,
    "trees":1,
    "ms":1,
    "into10":1,
    "vending":1,
    "browsing":1,
    "friday":1,
    "nah":1,
    "ontoa11":1,
    "forsteve":1,
    "evenyes":1,
    "oversight":1,
    "entirely":1,
    "within":1,
    "pays":1,
    "disrespect":1,
    "knowget":1,
    "remaining":1,
    "blowing":1,
    "mindif":1,
    "frame":1,
    "whom":1,
    "millionaires":1,
    "\u2018":1,
    "cause":1,
    "abouti":1,
    "whose":1,
    "drain":1,
    "religious":1,
    "fight":1,
    "concede":1,
    "possibly":1,
    "andwoz":1,
    "slotssteve":1,
    "canthis":1,
    "huge":1,
    "engineering":1,
    "\u2018causewoz":1,
    "breakthrough":1,
    "issteve":1,
    "edison":1,
    "versus":1,
    "candle":1,
    "flip":1,
    "switch":1,
    "whale":1,
    "oil":1,
    "userssteve":1,
    "explaining":1,
    "customize":1,
    "modify":1,
    "jack":1,
    "expand":1,
    "capabilities":1,
    "keyboards":1,
    "boardscut":1,
    "improved":1,
    "ports":1,
    "\u201cshelter":1,
    "storm\u201d":1,
    "contribute":1,
    "plays":1,
    "playwright":1,
    "painterwoz":1,
    "hobbyistssteve":1,
    "verge":1,
    "tectonichobbyistsa":1,
    "allowed":1,
    "example":1,
    "visicalc":1,
    "singlehandedly":1,
    "threehundred":1,
    "affection":1,
    "loving":1,
    "paintings":1,
    "stevesay":1,
    "incompatible":1,
    "flaws":1,
    "incept":1,
    "nothing\u2019s":1,
    "occasion":1,
    "topsthey":1,
    "intoa21":1,
    "leonardo":1,
    "da":1,
    "vinci":1,
    "ii\u2019s":1,
    "7":1,
    "shoulderwoz":1,
    "raskin\u2019s":1,
    "computer\u2019s":1,
    "steveandrea":1,
    "pforzheimer\u2019s":1,
    "clarification":1,
    "into21":1,
    "seats":1,
    "vip\u2019s":1,
    "patting":1,
    "hug\u201dgood":1,
    "luck\u201d":1,
    "\u201cknock":1,
    "dead\u201d":1,
    "\u201chere":1,
    "etc":1,
    "emptyjoel":1,
    "onsteve":1,
    "palo":1,
    "alto":1,
    "centerxerox":1,
    "\u201cgooey\u201dguigraphical":1,
    "user":1,
    "typing":1,
    "commands":1,
    "mcdonald\u2019s":1,
    "cash":1,
    "register":1,
    "cheeseburger":1,
    "draw":1,
    "saysteve":1,
    "piano":1,
    "\u201cmoonlight":1,
    "sonata\u201d":1,
    "beethoven":1,
    "into22":1,
    "begin":1,
    "toward":1,
    "stageandy":1,
    "are23":1,
    "deceptive":1,
    "fivetwelve":1,
    "128":1,
    "pleaseyou":1,
    "hollywood":1,
    "scary":1,
    "reminds":1,
    "slot":1,
    "goofy":1,
    "grin":1,
    "playful":1,
    "audienceseated":1,
    "balconystart":1,
    "stamp":1,
    "rhythm":1,
    "style":1,
    "fraud":1,
    "eastern":1,
    "disapproval":1,
    "2001":1,
    "ofsteve":1,
    "disappears":1,
    "runthroughs":1,
    "41":1,
    "theyeah":1,
    "clock\u2019s":1,
    "welcoming":1,
    "sightthe":1,
    "easygoing":1,
    "bottle":1,
    "wine":1,
    "glasses":1,
    "hugs":1,
    "quietlysteve":1,
    "merciful":1,
    "cavalry\u2019s":1,
    "usual":1,
    "dispatched":1,
    "whisperer":1,
    "pouring":1,
    "glassessculley":1,
    "dress":1,
    "littlesteve":1,
    "10000":1,
    "gallon":1,
    "ceiling":1,
    "mike":1,
    "index":1,
    "relax":1,
    "one\u2019s":1,
    "julius":1,
    "caesar":1,
    "boardsculley":1,
    "window":1,
    "nearest":1,
    "banging":1,
    "\u201cspringtime":1,
    "hitler\u201d":1,
    "highlight":1,
    "\u201cit\u2019s":1,
    "book":1,
    "right\u201d":1,
    "spot\u2019s":1,
    "airsoncethe":1,
    "publisher":1,
    "replace":1,
    "screenwe\u2019re":1,
    "behindand":1,
    "roars":1,
    "adsteve":1,
    "payroll":1,
    "currently":1,
    "butwhy":1,
    "\u2018kay":1,
    "ourselves":1,
    "offend":1,
    "boardroom":1,
    "scaresthelivingshitouttame":1,
    "blocking":1,
    "terrorists":1,
    "tv":1,
    "peoplethe":1,
    "nature":1,
    "peopleis":1,
    "overcome":1,
    "focusing":1,
    "18to55":1,
    "olds":1,
    "violent":1,
    "hunch":1,
    "win\u201d":1,
    "\u201cit\u2019ll":1,
    "rattle":1,
    "walls\u201d":1,
    "geek":1,
    "french":1,
    "\u201ccome":1,
    "mothers":1,
    "throughout":1,
    "criticize":1,
    "daughters\u201d":1,
    "\u201care":1,
    "command\u201d":1,
    "selected":1,
    "\u201cyour":1,
    "daughters":1,
    "road":1,
    "rapidly":1,
    "aging":1,
    "achangin\u2019\u201d":1,
    "\u201cnah":1,
    "one\u201d":1,
    "progress":1,
    "destroying":1,
    "clocks":1,
    "destroy":1,
    "consciously":1,
    "someone\u2019s":1,
    "articulated":1,
    "exactlyseethat\u2019s":1,
    "whatyou\u2019re":1,
    "onegodthat\u2019s":1,
    "inspired":1,
    "warning":1,
    "replacing":1,
    "stevefriendly":1,
    "loop":1,
    "motion":1,
    "controli":1,
    "weepy":1,
    "boss":1,
    "nearmythological":1,
    "rocky":1,
    "industrytitan":1,
    "originally":1,
    "projected":1,
    "quarter":1,
    "35000":1,
    "userfriendly":1,
    "disappointing":1,
    "flagship":1,
    "experts":1,
    "lack":1,
    "insistence":1,
    "compatible":1,
    "shakespearian":1,
    "flaw":1,
    "potential":1,
    "macs":1,
    "announced":1,
    "dallas":1,
    "barry":1,
    "peterson":1,
    "\u201cmoney":1,
    "matters\u201d":1,
    "corridors":1,
    "northern":1,
    "california":1,
    "directors":1,
    "voted":1,
    "cofounder":1,
    "prophesize":1,
    "wide":1,
    "wheel\u2019s":1,
    "spin":1,
    "tellin\u2019":1,
    "achangin\u2019":1,
    "universities":1,
    "departments":1,
    "600":1,
    "faculty":1,
    "students":1,
    "stanford\u2019s":1,
    "annual":1,
    "budget\u2019s":1,
    "750":1,
    "michiganover":1,
    "ohio":1,
    "state":1,
    "cal":1,
    "colorado":1,
    "ucla":1,
    "georgia":1,
    "techthese":1,
    "disguised":1,
    "calling":1,
    "creative":1,
    "director":1,
    "magnificent":1,
    "produce":1,
    "scarf":1,
    "personally":1,
    "fan":1,
    "aesthetic":1,
    "refocus":1,
    "onethe":1,
    "walked":1,
    "wellwishers":1,
    "heading":1,
    "stagesteve":1,
    "performers":1,
    "unbelievable":1,
    "mastered":1,
    "incredibly":1,
    "albeit":1,
    "useful":1,
    "skillsi":1,
    "ukraineand":1,
    "presented":1,
    "morei\u2019m":1,
    "revolutionize":1,
    "frustration":1,
    "into32":1,
    "tents":1,
    "yellow":1,
    "costumes":1,
    "transvestite":1,
    "makeupa":1,
    "respects":1,
    "unassimilated":1,
    "commie":1,
    "wished":1,
    "sweetheart":1,
    "specifically":1,
    "education":1,
    "putatively":1,
    "suing":1,
    "magnanimous":1,
    "amicable":1,
    "divorce":1,
    "joe":1,
    "dimaggio":1,
    "kindly":1,
    "dumping":1,
    "marilyn":1,
    "suppressed":1,
    "loud":1,
    "shutting":1,
    "fists":1,
    "traced":1,
    "100000":1,
    "rand":1,
    "corporate":1,
    "logo":1,
    "650000":1,
    "guggenheim":1,
    "forgetting":1,
    "coats":1,
    "\u201cyou":1,
    "color":1,
    "walls":1,
    "plant":1,
    "fort":1,
    "worth\u201d":1,
    "attitude":1,
    "att":1,
    "nowhy":1,
    "avail":1,
    "trust":1,
    "into33":1,
    "breakfast":1,
    "forget":1,
    "chores":1,
    "hates":1,
    "stillwhere\u2019s":1,
    "saidlisa":1,
    "raises":1,
    "raise":1,
    "pops":1,
    "helpsteve":1,
    "grade":1,
    "fourth":1,
    "bottom":1,
    "design":1,
    "cent":1,
    "measure":1,
    "motherlisa":1,
    "\u2019cause":1,
    "saybecause":1,
    "exception":1,
    "fit":1,
    "pattern":1,
    "enterjoanna":1,
    "taller":1,
    "madhouse":1,
    "\u201cinsanely":1,
    "great\u201d":1,
    "insanely":1,
    "played":1,
    "releasing":1,
    "solo":1,
    "album":1,
    "knowsome":1,
    "saidthey":1,
    "clumsy":1,
    "guesssteve":1,
    "wassteve":1,
    "insulting":1,
    "hurtful":1,
    "guy\u201d":1,
    "successyeah":1,
    "\u201cbut":1,
    "integrity":1,
    "cannot":1,
    "trust\u201d":1,
    "onto":1,
    "understands":1,
    "wiping":1,
    "housegood":1,
    "megeorge":1,
    "cued":1,
    "we\u2019rei\u2019ve":1,
    "beforewe\u2019re":1,
    "feature":1,
    "definitions":1,
    "\u201cof":1,
    "relating":1,
    "mercury\u201d":1,
    "glances":1,
    "offstage":1,
    "\u201ccharacterized":1,
    "unpredictable":1,
    "changeableness":1,
    "mood\u201d":1,
    "scroll":1,
    "antonym":1,
    "\u201csaturnine\u201d":1,
    "doubleclicking":1,
    "immediately":1,
    "\u201ccold":1,
    "steady":1,
    "moods":1,
    "slow":1,
    "gloomy":1,
    "surly":1,
    "disposition\u201d":1,
    "jump":1,
    "141":1,
    "wingssteve":1,
    "law":1,
    "into35":1,
    "manufacturers":1,
    "cheat":1,
    "bit89":1,
    "91so":1,
    "easier":1,
    "object":1,
    "cake":1,
    "pan":1,
    "insisted":1,
    "perfectionist":1,
    "36":1,
    "father\u2019s":1,
    "aroundthen":1,
    "follows":1,
    "doubledoor":1,
    "\u201cauthorized":1,
    "personnel":1,
    "only\u201d":1,
    "into37":1,
    "francisco":1,
    "opera":1,
    "seiji":1,
    "ozawa":1,
    "tanglewood":1,
    "ungodly":1,
    "artfulness":1,
    "metronome":1,
    "surprisinglywoz":1,
    "musicians":1,
    "orchestra\u201d":1,
    "slag":1,
    "siege":1,
    "accounted":1,
    "revenue":1,
    "tempered":1,
    "reflection":1,
    "chunky":1,
    "large":1,
    "readout":1,
    "timebomb":1,
    "counts":1,
    "movies":1,
    "40yearold":1,
    "technologycold":1,
    "cathode":1,
    "140":1,
    "volts":1,
    "tilt":1,
    "therehours":1,
    "minutesthe":1,
    "favorset":1,
    "zones":1,
    "unscrews":1,
    "macgyverbomb":1,
    "tiny":1,
    "buttons":1,
    "flight":1,
    "attendant":1,
    "appear":1,
    "detonating":1,
    "tonope":1,
    "treating":1,
    "wozyou":1,
    "onstage":1,
    "bywoz":1,
    "condescending":1,
    "airplane":1,
    "plastic":1,
    "handcuffs":1,
    "thatwoz":1,
    "stroke":1,
    "li\u2019l":1,
    "buddy":1,
    "fourthgraders":1,
    "write":1,
    "code":1,
    "hammer":1,
    "nail":1,
    "circuit":1,
    "graphical":1,
    "stolen":1,
    "raskin":1,
    "leader":1,
    "musician":1,
    "fail":1,
    "advisory":1,
    "powerful":1,
    "workstation":1,
    "2":1,
    "priced":1,
    "6500":1,
    "include":1,
    "thousanddollar":1,
    "weak":1,
    "laser":1,
    "brings":1,
    "twelvethousand":1,
    "entire":1,
    "cares":1,
    "housed":1,
    "slogan":1,
    "\u201cnext":1,
    "crashes\u201d":1,
    "swallow":1,
    "cyanide":1,
    "edsel":1,
    "notjoanna":1,
    "can\u2019tlose":1,
    "acid":1,
    "goddamn":1,
    "due":1,
    "christ":1,
    "timesfine":1,
    "conwe\u2019re":1,
    "stuff":1,
    "treated":1,
    "experience":1,
    "into39":1,
    "where\u2019s":1,
    "lovesteve":1,
    "morally":1,
    "parentally":1,
    "primary":1,
    "degraded":1,
    "charge":1,
    "fifteenhundred":1,
    "spendfuck":1,
    "\u201chow":1,
    "spend":1,
    "business\u201d":1,
    "thrown":1,
    "cereal":1,
    "headwhat":1,
    "ring":1,
    "\u201cwe\u2019re":1,
    "set\u201d":1,
    "learn":1,
    "crai":1,
    "neari":1,
    "grown":1,
    "clearing":1,
    "waking":1,
    "creepy":1,
    "meanssteve":1,
    "admit":1,
    "responsibilities":1,
    "sleep":1,
    "neveri":1,
    "there\u2019ll":1,
    "into40":1,
    "andy\u2019s":1,
    "briefly":1,
    "catches":1,
    "reaction":1,
    "volume":1,
    "backgroundjoel":1,
    "hoping":1,
    "journal":1,
    "page":1,
    "\u201cwhy":1,
    "notifying":1,
    "macy\u2019s":1,
    "christmas\u201d":1,
    "headline":1,
    "\u201cdear":1,
    "machine\u201d":1,
    "810":1,
    "alsop\u2019s":1,
    "subscribers":1,
    "rehearse":1,
    "joel\u2019s":1,
    "understanding":1,
    "layman\u2019s":1,
    "terms":1,
    "sort":1,
    "into41":1,
    "program":1,
    "engine":1,
    "golf":1,
    "cart":1,
    "battery":1,
    "thiswe\u2019re":1,
    "recordis":1,
    "problemsteve":1,
    "interrupts":1,
    "andysteve":1,
    "proprietary":1,
    "name\u2019s":1,
    "patents":1,
    "email\u2019s":1,
    "assume":1,
    "received":1,
    "trash":1,
    "absofruitly":1,
    "privatelyandy":1,
    "triumph":1,
    "miraculous":1,
    "magnitude":1,
    "translating":1,
    "mellowed":1,
    "learning":1,
    "dreamed":1,
    "fly":1,
    "parody":1,
    "release":1,
    "imagines":1,
    "nearfuture":1,
    "microsoft":1,
    "donating":1,
    "bright":1,
    "interview":1,
    "folds":1,
    "puzzle":1,
    "happening":1,
    "shout":1,
    "onto42":1,
    "pretending":1,
    "kneels":1,
    "rewind":1,
    "momentthen":1,
    "aboutthere":1,
    "verses":1,
    "knowsteve":1,
    "conclusion":1,
    "joni":1,
    "mitchell":1,
    "land43":1,
    "truant":1,
    "pilgrims":1,
    "declaration":1,
    "independence":1,
    "centuries":1,
    "chrisann\u2019s":1,
    "quiet":1,
    "momentwe":1,
    "soldout":1,
    "notsteve":1,
    "hell\u201dsteve":1,
    "wanting":1,
    "wishing":1,
    "sounded":1,
    "security":1,
    "sworn":1,
    "enemy":1,
    "bigger":1,
    "plans":1,
    "devil":1,
    "newborn":1,
    "\u201884":1,
    "saidyeah":1,
    "sosculley":1,
    "mequick":1,
    "unannounced":1,
    "confirm":1,
    "furniture":1,
    "process":1,
    "couch":1,
    "interior":1,
    "decorating":1,
    "bitch":1,
    "nineteen":1,
    "bodies":1,
    "internal":1,
    "fileserver":1,
    "finally":1,
    "lee\u2019s":1,
    "mistaken":1,
    "agreed":1,
    "understood":1,
    "concerns":1,
    "concern":1,
    "diagram":1,
    "butsteve":1,
    "keepthe":1,
    "1995":1,
    "stereos":1,
    "mix":1,
    "match":1,
    "components":1,
    "recommendation":1,
    "marketingi":1,
    "dystopian":1,
    "galaxy":1,
    "headache":1,
    "figuring":1,
    "whatinvent":1,
    "resorts":1,
    "minuteare":1,
    "terminating":1,
    "wasit":1,
    "boardsteve":1,
    "lifestyle":1,
    "\u201cour":1,
    "brand\u201d":1,
    "drinking":1,
    "dr":1,
    "pepper":1,
    "opened":1,
    "poured":1,
    "consumedsteve":1,
    "secret":1,
    "assuming":1,
    "embarrasses":1,
    "pride":1,
    "allsculley":1,
    "aboutthe":1,
    "hired":1,
    "represents":1,
    "phasing":1,
    "bowltwo":1,
    "60for":1,
    "sixhundred":1,
    "screened":1,
    "unhappy":1,
    "brilliant":1,
    "euthanizing":1,
    "mercy":1,
    "protecting":1,
    "delusional":1,
    "earthly":1,
    "storyof":1,
    "applewhich":1,
    "becoming":1,
    "mythologizedisn\u2019t":1,
    "imploring":1,
    "necessary":1,
    "silent":1,
    "mail":1,
    "employee":1,
    "taunted":1,
    "unrehearsed":1,
    "mesculley":1,
    "choice":1,
    "chose":1,
    "spotsculley":1,
    "lounge":1,
    "matters":1,
    "civil":1,
    "planemy":1,
    "shit\u2019s":1,
    "beijingi":1,
    "fuckingquick":1,
    "quorum":1,
    "homicide":1,
    "bullshit":1,
    "sudden":1,
    "homework":1,
    "study":1,
    "guarantee":1,
    "complaining":1,
    "spending":1,
    "studying":1,
    "doorbell":1,
    "ringssteve":1,
    "kitchen":1,
    "stunned":1,
    "heartbreakingly":1,
    "sincere":1,
    "somethinganythingwhen":1,
    "emergency":1,
    "askedsteve":1,
    "\u201cno\u201dsteve":1,
    "toshe":1,
    "leesi":1,
    "forfeit":1,
    "resources":1,
    "evidencesteve":1,
    "evidence":1,
    "issuing":1,
    "contradictory":1,
    "instructions":1,
    "insubordinate":1,
    "miserable":1,
    "fleeing":1,
    "sun":1,
    "hpwall":1,
    "driving":1,
    "bus":1,
    "hundreds":1,
    "value":1,
    "carbonated":1,
    "sugar":1,
    "sat":1,
    "artists":1,
    "lead":1,
    "hacks":1,
    "tenseeven":1,
    "scaredexcept":1,
    "sayssculley":1,
    "wellthis":1,
    "guy\u2019s":1,
    "resignation":1,
    "tonight":1,
    "sever":1,
    "connection":1,
    "secretary":1,
    "leans":1,
    "dare":1,
    "outstanding":1,
    "cultivating":1,
    "manipulating":1,
    "editors":1,
    "editors\u2019":1,
    "publishers":1,
    "unanimously":1,
    "remembering":1,
    "rightand":1,
    "bled":1,
    "bleed":1,
    "time\u2019s":1,
    "stevehe\u2019s":1,
    "center":1,
    "order":1,
    "meal":1,
    "autographs":1,
    "slap":1,
    "arthur":1,
    "rainman":1,
    "manipulate":1,
    "protect":1,
    "into74":1,
    "award":1,
    "helljoanna":1,
    "reaches":1,
    "folded":1,
    "thisguy":1,
    "macworldhe":1,
    "dragging":1,
    "energy":1,
    "diabolical":1,
    "managerstage":1,
    "introduction":1,
    "momentjoanna":1,
    "confidant":1,
    "thingwhat":1,
    "itwork":1,
    "wife":1,
    "yearsstage":1,
    "standby":1,
    "vo":1,
    "1":1,
    "revenge":1,
    "skylab":1,
    "unmanned":1,
    "satellite":1,
    "nasa":1,
    "early":1,
    "data":1,
    "gathering":1,
    "orbit":1,
    "thousandmile":1,
    "swath":1,
    "indian":1,
    "ocean":1,
    "coulda":1,
    "innovating":1,
    "13000":1,
    "endtoend":1,
    "unveiled":1,
    "insiders":1,
    "retail":1,
    "abc":1,
    "news":1,
    "senior":1,
    "correspondent":1,
    "martin":1,
    "rath":1,
    "meanwhile":1,
    "continuing":1,
    "pet":1,
    "canon":1,
    "former":1,
    "that80":1,
    "excited":1,
    "stock\u2019s":1,
    "fallen":1,
    "heartbeat":1,
    "amelio":1,
    "formerly":1,
    "national":1,
    "semiconductor":1,
    "installed":1,
    "inherited":1,
    "sinking":1,
    "amelio\u2019s":1,
    "copland\u2019s":1,
    "bust":1,
    "mollify":1,
    "alternative":1,
    "next\u2019s":1,
    "objectoriented":1,
    "unixlike":1,
    "valley85":1,
    "prodigal":1,
    "buzz":1,
    "reserved":1,
    "jobs88":1,
    "jobs89":1,
    "\u201cinterim\u201d":1,
    "title":1,
    "founded":1,
    "fans":1,
    "counting":1,
    "unto":1,
    "born\u201d":1,
    "100mb":1,
    "ethernet":1,
    "speed":1,
    "networks":1,
    "valley":1,
    "wiring":1,
    "davies":1,
    "slides":1,
    "reflect":1,
    "mentioning":1,
    "jeans":1,
    "buttoned":1,
    "sport":1,
    "jacket":1,
    "loose":1,
    "revved":1,
    "4mb":1,
    "irda":1,
    "beam":1,
    "photographs":1,
    "outno":1,
    "notes":1,
    "note":1,
    "cardsready":1,
    "io12mb":1,
    "portswe\u2019re":1,
    "leaving":1,
    "io":1,
    "surround":1,
    "mice":1,
    "horsing":1,
    "sheepish":1,
    "wave":1,
    "yourselves":1,
    "keyboard\u201d":1,
    "flashes":1,
    "production":1,
    "yanks":1,
    "cheers":1,
    "clicks":1,
    "shows":1,
    "lightning":1,
    "succession":1,
    "applications":1,
    "complete":1,
    "heartracing":1,
    "percussion":1,
    "scoreafter":1,
    "\u201chello":1,
    "\u201d":1,
    "usually":1,
    "stageandrea":1,
    "hersteve":1,
    "i\u2019mthe":1,
    "wired":1,
    "theory":1,
    "stapled":1,
    "pieces":1,
    "mouths":1,
    "\u201ci\u2019m":1,
    "sorry\u201d":1,
    "saysjoanna":1,
    "pick":1,
    "84":1,
    "bringing":1,
    "wireless":1,
    "panasonic":1,
    "operator":1,
    "wings":1,
    "circles":1,
    "describes":1,
    "translucent":1,
    "compromise":1,
    "fair":1,
    "infra":1,
    "red":1,
    "cdrom":1,
    "dual":1,
    "headphone":1,
    "jacks":1,
    "connectors":1,
    "inside":1,
    "hereethernet":1,
    "exciting":1,
    "fullblooded":1,
    "targeting":1,
    "isstage":1,
    "internet\u201d":1,
    "meet":1,
    "edge":1,
    "blends":1,
    "scifi":1,
    "shimmer":1,
    "kitsch":1,
    "whimsy":1,
    "cocktail":1,
    "umbrella\u201d":1,
    "levy":1,
    "newsweek":1,
    "\u201cit":1,
    "chestthumping":1,
    "statement":1,
    "valley\u2019s":1,
    "dream":1,
    "somnambulant\u201d":1,
    "sleepwalking":1,
    "reset":1,
    "cheerssteve":1,
    "head94":1,
    "\u201che":1,
    "implemented":1,
    "promote":1,
    "terrific":1,
    "marketing\u201d":1,
    "sightings":1,
    "jd":1,
    "salinger":1,
    "sarcastic":1,
    "\u201888":1,
    "boom":1,
    "into95":1,
    "providing":1,
    "leadership":1,
    "colors\u201d":1,
    "mesteve":1,
    "ofthey":1,
    "into96":1,
    "tool":1,
    "knowjoannaboundaries":1,
    "apartment":1,
    "1am":1,
    "cleaned":1,
    "boundary":1,
    "repeat":1,
    "conservative":1,
    "marketing\u2019s":1,
    "managing":1,
    "holyyeah":1,
    "32":1,
    "machinethat\u2019s":1,
    "youand":1,
    "fastest":1,
    "misery":1,
    "laying":1,
    "cutting":1,
    "stevenit\u2019s":1,
    "overyou\u2019re":1,
    "criminal":1,
    "enjoying":1,
    "knowcome":1,
    "multibillionaire":1,
    "sting":1,
    "complaint":1,
    "department":1,
    "housing":1,
    "urban":1,
    "development":1,
    "voicing":1,
    "bizarre":1,
    "overreaction":1,
    "19year":1,
    "allowing":1,
    "becausehow\u2019s":1,
    "motherthat":1,
    "particular":1,
    "motherfrom":1,
    "pipe":1,
    "heater":1,
    "acting":1,
    "weird":1,
    "turned":1,
    "shoves":1,
    "stevefix":1,
    "witness":1,
    "complicit":1,
    "caused":1,
    "decades":1,
    "agony":1,
    "contact":1,
    "anywhere":1,
    "knewno":1,
    "forno":1,
    "assure":1,
    "phrase":1,
    "\u201creality":1,
    "friends\u2019":1,
    "applies":1,
    "\u201csteve\u2019s":1,
    "prosecutorial":1,
    "crossing":1,
    "lines":1,
    "sung":1,
    "joan":1,
    "baez":1,
    "fieldand":1,
    "coined":1,
    "phraseis":1,
    "bank":1,
    "jo":1,
    "childthat":1,
    "earnest":1,
    "unironic":1,
    "kidsteve":1,
    "twentyfive":1,
    "whysteve":1,
    "aboutthis":1,
    "unjoanna":1,
    "becausejoanna":1,
    "landlordhertzfeldi":1,
    "ranting":1,
    "wouldi":1,
    "pissed":1,
    "intent":1,
    "ended":1,
    "badjoanna":1,
    "harto":1,
    "foris":1,
    "grandmother":1,
    "yentl":1,
    "hertzfeldthere\u2019s":1,
    "devil\u2019s":1,
    "ya":1,
    "carefully":1,
    "embarrassing":1,
    "howsteve":1,
    "appropriate":1,
    "analogy":1,
    "cambridge":1,
    "deputize":1,
    "interim":1,
    "override":1,
    "decisions":1,
    "considerchrisann\u2019s":1,
    "ioutside":1,
    "advisor":1,
    "fascinated":1,
    "specializes":1,
    "insteve":1,
    "iyou":1,
    "wholewho":1,
    "stigmatizingit\u2019s":1,
    "notmy":1,
    "meansteve":1,
    "saidit":1,
    "role":1,
    "model":1,
    "miracle":1,
    "robbing":1,
    "banks":1,
    "symbionese":1,
    "liberation":1,
    "army":1,
    "helped":1,
    "afternoon":1,
    "attracted":1,
    "talent":1,
    "threatening":1,
    "debug":1,
    "solution":1,
    "indifferent":1,
    "whether":1,
    "wellsince":1,
    "remarkable":1,
    "fathom":1,
    "rate":1,
    "marks":1,
    "gold":1,
    "forthere\u2019s":1,
    "doorcome":1,
    "day\u2019s":1,
    "youjoel":1,
    "knocks":1,
    "doorexcuse":1,
    "into97":1,
    "andyhertzfeldand":1,
    "scrub":1,
    "drano":1,
    "turning":1,
    "themjoanna":1,
    "changes":1,
    "doorandrea":1,
    "handedly":1,
    "encore":1,
    "into100":1,
    "powerbook":1,
    "laptop":1,
    "teeth":1,
    "bared":1,
    "39th":1,
    "39":1,
    "38":1,
    "92b":1,
    "eats":1,
    "notebooks":1,
    "snack":1,
    "fish":1,
    "lock":1,
    "poison":1,
    "statues":1,
    "lips":1,
    "schoolchildren":1,
    "rainbow":1,
    "flag":1,
    "picked":1,
    "sounding":1,
    "stagewoz":1,
    "prepare":1,
    "spectacularly":1,
    "owe":1,
    "acknowledging":1,
    "prank":1,
    "300":1,
    "searches":1,
    "path":1,
    "resistance":1,
    "backstagesteve":1,
    "joannajoanna":1,
    "hertake":1,
    "aside":1,
    "fuckin\u2019joanna":1,
    "looksteve":1,
    "wise":1,
    "broad":1,
    "tragic":1,
    "canvas":1,
    "19th":1,
    "shtetl":1,
    "member":1,
    "insolvent":1,
    "streamlined":1,
    "startedandrea":1,
    "gonnasteve":1,
    "mimosa":1,
    "discourage":1,
    "insolvency":1,
    "joelleave":1,
    "aboutsteve":1,
    "shipped":1,
    "gone":1,
    "computingsteve":1,
    "downsize":1,
    "peoplesteve":1,
    "houses":1,
    "unemployment":1,
    "during":1,
    "hackers":1,
    "hobbyists":1,
    "ham":1,
    "radios":1,
    "nearly":1,
    "grand":1,
    "luncheon":1,
    "connect":1,
    "imacwoz":1,
    "blunt":1,
    "loves":1,
    "patronized":1,
    "became":1,
    "winning":1,
    "raffle":1,
    "harrison":1,
    "\u201cticket":1,
    "ride\u201d":1,
    "moves":1,
    "easiest":1,
    "\u201ca\u201d":1,
    "homestead":1,
    "praise":1,
    "justit\u2019s":1,
    "democratization":1,
    "consider":1,
    "happeningjoanna":1,
    "nodsthen":1,
    "halfinch":1,
    "putting":1,
    "solid":1,
    "workbench":1,
    "knowing":1,
    "thatthat\u2019s":1,
    "binary":1,
    "waited":1,
    "hoped":1,
    "clocked":1,
    "exchange":1,
    "temperamental":1,
    "5":1,
    "bar":1,
    "drunk":1,
    "dressing":1,
    "feud":1,
    "lives":1,
    "feuds":1,
    "settled":1,
    "mad":1,
    "denyingthey":1,
    "into102":1,
    "commissioned":1,
    "init\u2019s":1,
    "rocked":1,
    "thenjoanna":1,
    "wrong\u201d":1,
    "insculley":1,
    "shock":1,
    "mana":1,
    "wellscrubbed":1,
    "connecticut":1,
    "guybut":1,
    "florida":1,
    "secluded":1,
    "babe":1,
    "ruth":1,
    "entrance":1,
    "one\u2019ll":1,
    "appreciates":1,
    "slip":1,
    "findyeah":1,
    "boxsteve":1,
    "pointed":1,
    "obvious":1,
    "aboutit":1,
    "street\u2019s":1,
    "fluctuation":1,
    "traders":1,
    "respond":1,
    "everyi":1,
    "1957":1,
    "xerography":1,
    "invents":1,
    "minicomputer":1,
    "dismisses":1,
    "corporation":1,
    "decides":1,
    "owner":1,
    "balding":1,
    "syrianamerican":1,
    "mr":1,
    "owns":1,
    "john\u2019s":1,
    "lawyer":1,
    "mediterranean":1,
    "lettuce":1,
    "salad":1,
    "purslane":1,
    "mint":1,
    "cucumbersjandali":1,
    "sumaclemon":1,
    "vinaigrette":1,
    "stipulated":1,
    "wealthy":1,
    "clara":1,
    "papers":1,
    "\u201881":1,
    "popular":1,
    "upwards":1,
    "rd":1,
    "bankrupt":1,
    "refused":1,
    "refuse":1,
    "ibm\u2019s":1,
    "guns":1,
    "trained":1,
    "domination":1,
    "testing":1,
    "condor":1,
    "inefficient":1,
    "animals":1,
    "humans":1,
    "computera":1,
    "eyesore":1,
    "beauty":1,
    "tensor":1,
    "lampthe":1,
    "objectperfect":1,
    "flawless":1,
    "interpersonal":1,
    "tectonic":1,
    "sinceever":1,
    "age":1,
    "sets":1,
    "\u201c1984":1,
    "\u20181984\u2019\u201d":1,
    "otherthe":1,
    "beginning":1,
    "adventure":1,
    "astronomical":1,
    "sister":1,
    "bragged":1,
    "mona":1,
    "tono":1,
    "reststeve":1,
    "clearlymaybe":1,
    "ahsteve":1,
    "legacy":1,
    "form":1,
    "rich":1,
    "collegeeducated":1,
    "doorjoanna":1,
    "screw":1,
    "meanssculley":1,
    "attached":1,
    "into119":1,
    "misunderstood":1,
    "hostile":1,
    "1988":1,
    "angers":1,
    "died":1,
    "level":1,
    "creates":1,
    "space":1,
    "sevenhundred":1,
    "magic":1,
    "rocks":1,
    "soup":1,
    "travel":1,
    "europelisa":1,
    "beg":1,
    "aboutgoing":1,
    "offthecharts":1,
    "nearby":1,
    "comfortsteve":1,
    "opinion":1,
    "sending":1,
    "gulf":1,
    "stream":1,
    "pasteur":1,
    "institute":1,
    "fetch":1,
    "finest":1,
    "spends":1,
    "antiques":1,
    "yousteve":1,
    "irrationallylisa":1,
    "thirteen":1,
    "timethe":1,
    "stress":1,
    "spiritual":1,
    "healerlisa":1,
    "core":1,
    "freshman":1,
    "required":1,
    "somelisa":1,
    "internet":1,
    "wastime":1,
    "mangled":1,
    "journalyou":1,
    "thatlisa":1,
    "statisticians":1,
    "reverse":1,
    "equation":1,
    "troubled":1,
    "impressed":1,
    "unconscionable":1,
    "coward":1,
    "nothin\u2019":1,
    "\u201cthink\u201d":1,
    "verb":1,
    "adverb":1,
    "differently\u201d":1,
    "bauhaus":1,
    "movement":1,
    "braun":1,
    "simplicity":1,
    "sophistication":1,
    "issey":1,
    "miyake":1,
    "uniforms":1,
    "bob":1,
    "judy":1,
    "jetson\u2019s":1,
    "bake":1,
    "oven":1,
    "colon":1,
    "acronym\u201d":1,
    "daffy":1,
    "honeyi":1,
    "child\u2019s":1,
    "poorly":1,
    "checks":1,
    "yoked":1,
    "butlisa":1,
    "lame":1,
    "belittle":1,
    "feeding":1,
    "baseline":1,
    "parenting":1,
    "obligation":1,
    "devalue":1,
    "i\u2018m":1,
    "noun":1,
    "smartass":1,
    "victory\u201d":1,
    "\u201cvote":1,
    "freedom\u201d":1,
    "freedom":1,
    "chapter":1,
    "alumni":1,
    "association":1,
    "that\u2019sc\u2019mon":1,
    "suit":1,
    "contents":1,
    "cabriolet":1,
    "believing":1,
    "thisshe":1,
    "unzips":1,
    "pockets":1,
    "collect":1,
    "unhurriedly":1,
    "collects":1,
    "spilled":1,
    "somedon\u2019t":1,
    "hasn\u2019t":1,
    "draft":1,
    "reads":1,
    "essay":1,
    "crumpled":1,
    "coffeestainedsteve":1,
    "byline":1,
    "essay\u201dlisa":1,
    "brennanjobs\u201d":1,
    "stare":1,
    "interrupted":1,
    "bydad":1,
    "bay":1,
    "strewn":1,
    "spirits":1,
    "handle":1,
    "crack":1,
    "smile":1,
    "picks":1,
    "backpackgood":1,
    "aroundwhat":1,
    "inexplicable":1,
    "carrying":1,
    "brick":1,
    "cassette":1,
    "tape":1,
    "savages":1,
    "musical":1,
    "intro":1,
    "describing":1,
    "malefemale":1,
    "duet":1,
    "heartbreaking":1,
    "harmonies":1,
    "mature":1,
    "wiser":1,
    "haunted":1,
    "cherish":1,
    "into121":1,
    "nervous":1,
    "manager\u201di\u2019m":1,
    "begins":1,
    "anticipationstage":1,
    "louder":1,
    "misfits":1,
    "rebels":1,
    "troublemakers":1,
    "slowly":1,
    "prepares":1,
    "pegs":1,
    "square":1,
    "holes":1,
    "differently":1,
    "intercut":1,
    "various":1,
    "packed":1,
    "eager":1,
    "peopleandy":1,
    "hertzfeldwoz":1,
    "fond":1,
    "rules":1,
    "disagree":1,
    "glorify":1,
    "vilify":1,
    "ignore":1,
    "slips":1,
    "backwith":1,
    "thinksand":1,
    "hears":1,
    "wipes":1,
    "sleeve":1,
    "pa":1,
    "microphonepa":1,
    "ladies":1,
    "gentlemen":1,
    "flint":2,
    "auditorium":2,
    "40":2,
    "gq":2,
    "reveal":2,
    "capacity":2,
    "synthesizer":2,
    "keeps":2,
    "crashing":2,
    "game":2,
    "26yearold":2,
    "users":2,
    "issued":2,
    "office":2,
    "crash":2,
    "blackout":2,
    "spoken":2,
    "marshal":2,
    "marked":2,
    "\u201csteve":2,
    "blow":2,
    "they\u2019ll":2,
    "polite":2,
    "county":2,
    "cancel":2,
    "neither":2,
    "insane":2,
    "worry":2,
    "pulls":2,
    "issue":2,
    "carton":2,
    "desk":2,
    "access":2,
    "bandley":2,
    "thy":2,
    "daniel":2,
    "halfhour":2,
    "begging":2,
    "field":2,
    "expectations":2,
    "ninetyfive":2,
    "exact":2,
    "centimeters":2,
    "button":2,
    "command":2,
    "soda":2,
    "works":2,
    "complain":2,
    "\u201crite":2,
    "spring\u201d":2,
    "theater":2,
    "symphony":2,
    "century":2,
    "stravinsky":2,
    "20000":2,
    "\u201cwhat":2,
    "simply":2,
    "honestly":2,
    "magazine\u2019s":2,
    "335":2,
    "piss":2,
    "staying":2,
    "favorite":2,
    "shy":2,
    "anybody":2,
    "judge":2,
    "america":2,
    "training":2,
    "math":2,
    "male":2,
    "united":2,
    "states":2,
    "algorithm":2,
    "paint":2,
    "applied":2,
    "441":2,
    "felt":2,
    "bills":2,
    "steps":2,
    "caught":2,
    "pit":2,
    "announce":2,
    "introduce":2,
    "bag":2,
    "across":2,
    "macpaint":2,
    "themselves":2,
    "busy":2,
    "odds":2,
    "bulb":2,
    "wear":2,
    "closest":2,
    "breast":2,
    "stores":2,
    "wearing":2,
    "beige":2,
    "sticking":2,
    "breath":2,
    "demonstrates":2,
    "become":2,
    "donates":2,
    "millions":2,
    "sued":2,
    "san":2,
    "anger":2,
    "waits":2,
    "metaphor":2,
    "acknowledgement":2,
    "it\u2019d":2,
    "stick":2,
    "pin":2,
    "ipo":2,
    "possibility":2,
    "skipped":2,
    "ridiculous":2,
    "far":2,
    "key":2,
    "\u201csave\u201d":2,
    "\u201clisa":2,
    "near":2,
    "decent":2,
    "teach":2,
    "coat":2,
    "bulky":2,
    "bye":2,
    "educated":2,
    "sense":2,
    "choose":2,
    "tie":2,
    "must":2,
    "shift":2,
    "events":2,
    "believes":2,
    "tries":2,
    "suicide":2,
    "mission":2,
    "wanna":2,
    "lie":2,
    "meeting":2,
    "maui":2,
    "upset":2,
    "mentioned":2,
    "thissteve":2,
    "power":2,
    "iisteve":2,
    "cared":2,
    "credit":2,
    "brain":2,
    "strong":2,
    "objection":2,
    "sells":2,
    "burn":2,
    "display":2,
    "3000":2,
    "lyrics":2,
    "machines":2,
    "die":2,
    "completely":2,
    "ruin":2,
    "friendship":2,
    "30":2,
    "jeff":2,
    "vip":2,
    "file":2,
    "shaking":2,
    "go\u201d":2,
    "\u201870s":2,
    "interface":2,
    "desktop":2,
    "roughly":2,
    "stole":2,
    "borderline":2,
    "unethical":2,
    "tested":2,
    "512":2,
    "warm":2,
    "inviting":2,
    "clap":2,
    "concert":2,
    "absolve":2,
    "european":2,
    "thunderous":2,
    "dent":2,
    "introduced":2,
    "handsome":2,
    "background":2,
    "worse":2,
    "possible":2,
    "imagination":2,
    "quarterly":2,
    "reports":2,
    "tanks":2,
    "surrounded":2,
    "enemies":2,
    "frozen":2,
    "silence":2,
    "broken":2,
    "orwell":2,
    "chiatday":2,
    "speaking":2,
    "extras":2,
    "might":2,
    "customers":2,
    "success":2,
    "hate":2,
    "forth":2,
    "\u201cfor":2,
    "loser":2,
    "shake":2,
    "leading":2,
    "revolution":2,
    "fathers":2,
    "sons":2,
    "bucks":2,
    "rejected":2,
    "baby":2,
    "interested":2,
    "present":2,
    "happy":2,
    "pleasure":2,
    "battle":2,
    "consumers":2,
    "factories":2,
    "catch":2,
    "public":2,
    "pen":2,
    "colleges":2,
    "university":2,
    "fortune":2,
    "500":2,
    "coates":2,
    "presentation":2,
    "sharp":2,
    "slide":2,
    "angle":2,
    "instruments":2,
    "holding":2,
    "pushes":2,
    "stars":2,
    "honest":2,
    "clowns":2,
    "wish":2,
    "compete":2,
    "paul":2,
    "mold":2,
    "forbid":2,
    "901":2,
    "factory":2,
    "funny":2,
    "answers":2,
    "alarm":2,
    "dressed":2,
    "measured":2,
    "geometry":2,
    "logic":2,
    "millimeter":2,
    "shorter":2,
    "expert":2,
    "doubt":2,
    "forgot":2,
    "optical":2,
    "anomaly":2,
    "eye":2,
    "doorsteve":2,
    "dad\u2019s":2,
    "apologize":2,
    "turnout":2,
    "wipe":2,
    "slate":2,
    "clean":2,
    "published":2,
    "tricked":2,
    "\u201ci":2,
    "forward":2,
    "pool":2,
    "conversation":2,
    "\u201cmercurial\u201d":2,
    "watching":2,
    "dinner":2,
    "opposite":2,
    "degree":2,
    "degrees":2,
    "closes":2,
    "wozsteve":2,
    "orchestra":2,
    "conductor":2,
    "nuance":2,
    "beat":2,
    "sounds":2,
    "what\u2019d":2,
    "happen":2,
    "believed":2,
    "nixie":2,
    "tubes":2,
    "actually":2,
    "changed":2,
    "tip":2,
    "gotta":2,
    "stopped":2,
    "dragged":2,
    "project":2,
    "row":2,
    "optional":2,
    "discover":2,
    "biggest":2,
    "tear":2,
    "considers":2,
    "mop":2,
    "joke":2,
    "position":2,
    "common":2,
    "likes":2,
    "imprisoned":2,
    "doctor":2,
    "dentist":2,
    "fifteen":2,
    "bless":2,
    "private":2,
    "throw":2,
    "scaring":2,
    "chore":2,
    "parent":2,
    "screaming":2,
    "runs":2,
    "bother":2,
    "tomorrow":2,
    "stewart":2,
    "alsop":2,
    "newsletter":2,
    "date":2,
    "car":2,
    "demonstrate":2,
    "strategy":2,
    "knowledge":2,
    "email":2,
    "specialists":2,
    "avie\u2019s":2,
    "recompiling":2,
    "fantastic":2,
    "gifted":2,
    "treat":2,
    "kawasaki":2,
    "enjoy":2,
    "copy":2,
    "mmhm":2,
    "metal":2,
    "stairs":2,
    "headphones":2,
    "neck":2,
    "hiding":2,
    "holds":2,
    "girlish":2,
    "crime":2,
    "miss":2,
    "area":2,
    "case":2,
    "offered":2,
    "couches":2,
    "board\u2019s":2,
    "failing":2,
    "whoever":2,
    "customer":2,
    "recommend":2,
    "brand":2,
    "moving":2,
    "liberating":2,
    "advertising":2,
    "andsteve":2,
    "we\u2019d":2,
    "spots":2,
    "60":2,
    "killing":2,
    "launched":2,
    "wecut":2,
    "death":2,
    "threats":2,
    "dump":2,
    "china":2,
    "bags":2,
    "cupertino":2,
    "middle":2,
    "maid":2,
    "bed":2,
    "simple":2,
    "losing":2,
    "world\u2019s":2,
    "resume":2,
    "dell":2,
    "future":2,
    "outta":2,
    "willing":2,
    "settle":2,
    "worst":2,
    "truth":2,
    "sign":2,
    "generation":2,
    "send":2,
    "accidentally":2,
    "speakers":2,
    "lose":2,
    "pipeline":2,
    "laid":2,
    "gil":2,
    "returning":2,
    "standard":2,
    "homes":2,
    "ten":2,
    "sheet":2,
    "usb":2,
    "keyboard":2,
    "correct":2,
    "\u201ca":2,
    "fills":2,
    "certain":2,
    "quotes":2,
    "paper":2,
    "360":2,
    "original":2,
    "unit":2,
    "forbes":2,
    "successful":2,
    "products":2,
    "cross":2,
    "heavy":2,
    "bill":2,
    "privacy":2,
    "list":2,
    "spite":2,
    "quit":2,
    "19":2,
    "field\u201d":2,
    "traded":2,
    "impossible":2,
    "tosteve":2,
    "wire":2,
    "byte":2,
    "found":2,
    "alan":2,
    "turing":2,
    "campaign":2,
    "profile":2,
    "bite":2,
    "accountants":2,
    "thesteve":2,
    "destroyed":2,
    "tired":2,
    "ringo":2,
    "advance":2,
    "sculpture":2,
    "healthy":2,
    "looked":2,
    "adoption":2,
    "dec":2,
    "restaurant":2,
    "vegan":2,
    "catholic":2,
    "weaker":2,
    "efficient":2,
    "bicycle":2,
    "status":2,
    "quo":2,
    "food":2,
    "feed":2,
    "herself":2,
    "callous":2,
    "hysterical":2,
    "\u201cdifferent\u201d":2,
    "\u201cthink":2,
    "local":2,
    "architecture":2,
    "crimson":2,
    "backpack":2,
    "ground":2,
    "falling":2,
    "walkman":2,
    "dumb":2,
    "classes":2,
    "\u201chistory":2,
    "food\u201d":2,
    "clapping":2,
    "voices":3,
    "worked":3,
    "skip":3,
    "hearing":3,
    "2600":3,
    "race":3,
    "super":3,
    "save":3,
    "3":3,
    "andjoanna":3,
    "letting":3,
    "turn":3,
    "unless":3,
    "50":3,
    "phone":3,
    "information":3,
    "company\u2019s":3,
    "feels":3,
    "everyone\u2019s":3,
    "stares":3,
    "click":3,
    "class":3,
    "14":3,
    "given":3,
    "faces":3,
    "units":3,
    "he\u2019d":3,
    "lobby":3,
    "scene":3,
    "hallway":3,
    "hoffman":3,
    "marketing":3,
    "integrated":3,
    "slept":3,
    "invent":3,
    "american":3,
    "yesterday":3,
    "article":3,
    "terrible":3,
    "thinks":3,
    "universe":3,
    "third":3,
    "laughs":3,
    "round":3,
    "sits":3,
    "continue":3,
    "court":3,
    "proud":3,
    "schools":3,
    "child":3,
    "support":3,
    "sticks":3,
    "genius":3,
    "crowd":3,
    "mention":3,
    "applause":3,
    "minds":3,
    "obviously":3,
    "prove":3,
    "fraction":3,
    "hits":3,
    "painting":3,
    "asshole":3,
    "spent":3,
    "bet":3,
    "guess":3,
    "forever":3,
    "win":3,
    "war":3,
    "buying":3,
    "son":3,
    "gimme":3,
    "cold":3,
    "doors":3,
    "angry":3,
    "fuckin\u2019":3,
    "brother":3,
    "argument":3,
    "started":3,
    "garage":3,
    "printer":3,
    "modem":3,
    "research":3,
    "music":3,
    "dylan":3,
    "either":3,
    "yours":3,
    "silently":3,
    "shouldn\u2019t":3,
    "number":3,
    "meantime":3,
    "side":3,
    "giving":3,
    "shown":3,
    "choices":3,
    "important":3,
    "friendly":3,
    "dozen":3,
    "committing":3,
    "lights":3,
    "markkula\u2019s":3,
    "older":3,
    "speak":3,
    "\u201855":3,
    "margaux":3,
    "\u201c1984\u201d":3,
    "commercial":3,
    "playing":3,
    "brought":3,
    "verse":3,
    "land":3,
    "beyond":3,
    "dangerous":3,
    "crucial":3,
    "apple\u2019s":3,
    "wake":3,
    "sight":3,
    "move":3,
    "surprised":3,
    "eyes":3,
    "12":3,
    "growing":3,
    "companies":3,
    "focus":3,
    "seems":3,
    "floor":3,
    "silk":3,
    "30\u2019s":3,
    "mood":3,
    "perfectly":3,
    "questions":3,
    "asks":3,
    "bring":3,
    "foot":3,
    "reporter":3,
    "describe":3,
    "dictionary":3,
    "though":3,
    "act":3,
    "mercurial":3,
    "rehearsal":3,
    "pressured":3,
    "\u201cthe":3,
    "begged":3,
    "70":3,
    "wrist":3,
    "digital":3,
    "numbers":3,
    "plane":3,
    "bomb":3,
    "percent":3,
    "passes":3,
    "engineer":3,
    "designer":3,
    "drive":3,
    "dollar":3,
    "total":3,
    "computing":3,
    "drawing":3,
    "infection":3,
    "blessing":3,
    "budget":3,
    "respect":3,
    "finish":3,
    "operating":3,
    "chief":3,
    "bit":3,
    "glitches":3,
    "\u2018bout":3,
    "macworld":3,
    "gates":3,
    "innovations":3,
    "versions":3,
    "clouds":3,
    "singing":3,
    "corridor":3,
    "kidding":3,
    "feeling":3,
    "young":3,
    "known":3,
    "stupid":3,
    "overpriced":3,
    "double":3,
    "invest":3,
    "certainly":3,
    "among":3,
    "tells":3,
    "direction":3,
    "quickly":3,
    "longer":3,
    "somewhere":3,
    "forced":3,
    "piece":3,
    "developed":3,
    "attention":3,
    "silicon":3,
    "stereo":3,
    "coolest":3,
    "legal":3,
    "how\u2019s":3,
    "hit":3,
    "parking":3,
    "reality":3,
    "threatened":3,
    "dislike":3,
    "pentium":3,
    "266":3,
    "watches":3,
    "least":3,
    "b":3,
    "animal":3,
    "missed":3,
    "honey":3,
    "stylus":3,
    "absolutely":4,
    "nobody\u2019s":4,
    "pforzheimer":4,
    "week":4,
    "notice":4,
    "publicist":4,
    "break":4,
    "hardware":4,
    "oh":4,
    "jesus":4,
    "signs":4,
    "changing":4,
    "literally":4,
    "available":4,
    "michael":4,
    "twenty":4,
    "windows":4,
    "memory":4,
    "story":4,
    "blood":4,
    "help":4,
    "dad":4,
    "stops":4,
    "coincidence":4,
    "publicly":4,
    "welfare":4,
    "living":4,
    "chris":4,
    "weeks":4,
    "here\u2019s":4,
    "names":4,
    "family":4,
    "blue":4,
    "mouse":4,
    "explain":4,
    "trouble":4,
    "outside":4,
    "favor":4,
    "remarks":4,
    "worried":4,
    "sue":4,
    "941":4,
    "dead":4,
    "mine":4,
    "account":4,
    "girl":4,
    "appreciate":4,
    "itself":4,
    "options":4,
    "single":4,
    "market":4,
    "cards":4,
    "vote":4,
    "xerox":4,
    "shoulder":4,
    "technology":4,
    "leads":4,
    "feet":4,
    "rock":4,
    "ship":4,
    "steven":4,
    "opening":4,
    "water":4,
    "pepsi":4,
    "quote":4,
    "45":4,
    "adopted":4,
    "nowhere":4,
    "times":4,
    "home":4,
    "sales":4,
    "industry":4,
    "failure":4,
    "close":4,
    "street":4,
    "tech":4,
    "billion":4,
    "circus":4,
    "joanna\u2019s":4,
    "four":4,
    "build":4,
    "saw":4,
    "eat":4,
    "sometimes":4,
    "equal":4,
    "ruler":4,
    "thesaurus":4,
    "giant":4,
    "showing":4,
    "against":4,
    "using":4,
    "threw":4,
    "air":4,
    "twice":4,
    "anymore":4,
    "kids":4,
    "myself":4,
    "sinus":4,
    "tevanian":4,
    "he\u2019ll":4,
    "finished":4,
    "fact":4,
    "share":4,
    "may":4,
    "seriously":4,
    "writing":4,
    "\u201cboth":4,
    "now\u201d":4,
    "true":4,
    "regretful":4,
    "easy":4,
    "place":4,
    "recommended":4,
    "nobody":4,
    "shareholders":4,
    "half":4,
    "cheer":4,
    "beautiful":4,
    "projections":4,
    "distortion":4,
    "socks":4,
    "megahertz":4,
    "g3":4,
    "biological":4,
    "stood":4,
    "essays":4,
    "\u201chello\u201d":5,
    "college":5,
    "hours":5,
    "everything\u2019s":5,
    "yet":5,
    "20":5,
    "won":5,
    "special":5,
    "engineers":5,
    "walking":5,
    "manager":5,
    "worth":5,
    "less":5,
    "rid":5,
    "closed":5,
    "push":5,
    "human":5,
    "software":5,
    "pull":5,
    "promise":5,
    "magazine":5,
    "copies":5,
    "probably":5,
    "face":5,
    "moritz":5,
    "everybody":5,
    "waiting":5,
    "high":5,
    "except":5,
    "born":5,
    "seven":5,
    "personal":5,
    "alone":5,
    "himself":5,
    "stands":5,
    "28":5,
    "paid":5,
    "nine":5,
    "months":5,
    "six":5,
    "you\u2019ll":5,
    "serious":5,
    "15":5,
    "sit":5,
    "minute":5,
    "puts":5,
    "becomes":5,
    "parents":5,
    "making":5,
    "we\u2019ll":5,
    "luck":5,
    "hang":5,
    "thanks":5,
    "small":5,
    "boards":5,
    "scared":5,
    "points":5,
    "continues":5,
    "woman":5,
    "anyway":5,
    "kill":5,
    "rather":5,
    "live":5,
    "planet":5,
    "between":5,
    "line":5,
    "few":5,
    "under":5,
    "clock":5,
    "dropped":5,
    "lee":5,
    "clow":5,
    "seeing":5,
    "pass":5,
    "almost":5,
    "past":5,
    "set":5,
    "gotten":5,
    "wall":5,
    "george":5,
    "chip":5,
    "step":5,
    "straight":5,
    "standing":5,
    "crashes":5,
    "plan":5,
    "drop":5,
    "hurt":5,
    "lying":5,
    "semester":5,
    "words":5,
    "fired":5,
    "bought":5,
    "employees":5,
    "camera":5,
    "imac":5,
    "cue":5,
    "harvard":5,
    "she\u2019d":5,
    "sharks":5,
    "jandali":5,
    "crazy":5,
    "songs":5,
    "working":6,
    "pretty":6,
    "means":6,
    "seat":6,
    "able":6,
    "fast":6,
    "bowl":6,
    "calls":6,
    "tools":6,
    "real":6,
    "none":6,
    "fire":6,
    "leave":6,
    "knew":6,
    "gives":6,
    "taken":6,
    "whole":6,
    "happens":6,
    "fucking":6,
    "price":6,
    "pc":6,
    "both":6,
    "won\u2019t":6,
    "test":6,
    "they\u2019ve":6,
    "met":6,
    "talked":6,
    "coming":6,
    "ahead":6,
    "friends":6,
    "nods":6,
    "starts":6,
    "away":6,
    "size":6,
    "anyone":6,
    "disk":6,
    "tried":6,
    "smiles":6,
    "table":6,
    "kid":6,
    "answer":6,
    "happened":6,
    "members":6,
    "embarrass":6,
    "together":6,
    "went":6,
    "hour":6,
    "each":6,
    "yourself":6,
    "everything":6,
    "eight":6,
    "it\u2019ll":6,
    "soon":6,
    "parc":6,
    "shakes":6,
    "\u201cno\u201d":6,
    "invented":6,
    "another":6,
    "listening":6,
    "hands":6,
    "shit":6,
    "running":6,
    "knows":6,
    "you\u2019d":6,
    "figure":6,
    "makes":6,
    "version":6,
    "clear":6,
    "killed":6,
    "garbage":6,
    "difference":6,
    "selling":6,
    "gets":6,
    "players":6,
    "night":7,
    "seconds":7,
    "machine":7,
    "exit":7,
    "whatever":7,
    "change":7,
    "black":7,
    "10":7,
    "already":7,
    "since":7,
    "markkula":7,
    "without":7,
    "point":7,
    "spot":7,
    "mind":7,
    "record":7,
    "cool":7,
    "liked":7,
    "lisa\u2019s":7,
    "men":7,
    "they\u2019d":7,
    "feel":7,
    "designed":7,
    "light":7,
    "run":7,
    "free":7,
    "sound":7,
    "play":7,
    "course":7,
    "wozniak":7,
    "listen":7,
    "god":7,
    "sent":7,
    "turns":7,
    "showed":7,
    "seen":7,
    "ready":7,
    "ones":7,
    "later":7,
    "meant":7,
    "hold":7,
    "history":7,
    "job":7,
    "perfect":7,
    "word":7,
    "getting":7,
    "os":7,
    "needed":7,
    "tuition":7,
    "therapist":7,
    "sitting":8,
    "fine":8,
    "best":8,
    "cunningham":8,
    "many":8,
    "full":8,
    "building":8,
    "exits":8,
    "sculley\u2019s":8,
    "having":8,
    "says":8,
    "kottke":8,
    "dan":8,
    "daughter":8,
    "named":8,
    "hall":8,
    "wants":8,
    "stand":8,
    "nice":8,
    "hell":8,
    "believe":8,
    "stock":8,
    "knock":8,
    "excuse":8,
    "white":8,
    "paying":8,
    "computers":8,
    "question":8,
    "until":8,
    "different":8,
    "laugh":8,
    "deal":8,
    "lost":8,
    "show":8,
    "angles":8,
    "sides":8,
    "starting":8,
    "avie":8,
    "dark":8,
    "newton":8,
    "shark":8,
    "voice":9,
    "else":9,
    "person":9,
    "kind":9,
    "enough":9,
    "days":9,
    "andrea":9,
    "part":9,
    "we\u2019ve":9,
    "pay":9,
    "also":9,
    "own":9,
    "called":9,
    "picture":9,
    "hand":9,
    "thinking":9,
    "these":9,
    "once":9,
    "heard":9,
    "instead":9,
    "stop":9,
    "stay":9,
    "room":9,
    "check":9,
    "matter":9,
    "hey":9,
    "screen":9,
    "work":9,
    "pocket":9,
    "acknowledge":9,
    "couldn\u2019t":9,
    "sold":9,
    "wrote":9,
    "control":9,
    "couple":9,
    "behind":9,
    "skinheads":9,
    "ceo":9,
    "mom":9,
    "any":9,
    "weren\u2019t":9,
    "who\u2019s":10,
    "joel":10,
    "haven\u2019t":10,
    "taking":10,
    "am":10,
    "needs":10,
    "us":10,
    "ibm":10,
    "front":10,
    "try":10,
    "month":10,
    "sell":10,
    "maybe":10,
    "use":10,
    "asking":10,
    "looking":10,
    "top":10,
    "wouldn\u2019t":10,
    "goes":10,
    "again":10,
    "audience":10,
    "aren\u2019t":10,
    "\u2018em":10,
    "song":10,
    "long":10,
    "hard":10,
    "guy":10,
    "fix":11,
    "five":11,
    "let":11,
    "cover":11,
    "somebody":11,
    "idea":11,
    "thought":11,
    "million":11,
    "90":11,
    "most":11,
    "took":11,
    "chance":11,
    "wait":11,
    "please":11,
    "slots":11,
    "today":11,
    "through":11,
    "walks":11,
    "late":11,
    "backstage":11,
    "cube":11,
    "watch":11,
    "built":12,
    "fuck":12,
    "understand":12,
    "those":12,
    "system":12,
    "nothing":12,
    "year":12,
    "business":12,
    "name":12,
    "find":12,
    "lot":12,
    "doing":12,
    "morning":12,
    "sees":12,
    "dollars":12,
    "heads":12,
    "asked":12,
    "much":12,
    "great":12,
    "demo":13,
    "three":13,
    "saying":13,
    "problem":13,
    "macintosh":13,
    "box":13,
    "thousand":13,
    "walk":13,
    "hertzfeld":13,
    "trying":13,
    "friend":13,
    "father":13,
    "read":13,
    "big":13,
    "day":13,
    "every":13,
    "better":13,
    "telling":14,
    "everyone":14,
    "opens":14,
    "reason":14,
    "comes":14,
    "isn\u2019t":14,
    "buy":14,
    "supposed":14,
    "takes":14,
    "life":14,
    "never":14,
    "end":14,
    "always":14,
    "keep":15,
    "ago":15,
    "bad":15,
    "care":15,
    "hello":15,
    "hundred":15,
    "left":15,
    "very":15,
    "product":15,
    "even":15,
    "our":15,
    "same":15,
    "while":15,
    "press":15,
    "used":15,
    "its":15,
    "love":15,
    "last":16,
    "ad":16,
    "thank":16,
    "i\u2019d":16,
    "call":16,
    "shirt":16,
    "second":16,
    "someone":16,
    "sorry":16,
    "mother":16,
    "old":16,
    "jobs":16,
    "alright":17,
    "world":17,
    "around":17,
    "exactly":17,
    "wanted":17,
    "guys":18,
    "open":18,
    "man":18,
    "stage":18,
    "company":18,
    "done":18,
    "anything":18,
    "made":18,
    "minutes":19,
    "launch":19,
    "than":19,
    "talk":19,
    "remember":19,
    "ask":19,
    "told":19,
    "ever":19,
    "put":19,
    "team":19,
    "hear":19,
    "steve\u2019s":19,
    "before":20,
    "start":20,
    "still":20,
    "sure":20,
    "gave":20,
    "their":20,
    "mean":20,
    "let\u2019s":20,
    "came":20,
    "should":21,
    "next":21,
    "new":21,
    "way":22,
    "well":22,
    "yes":22,
    "head":22,
    "you\u2019ve":22,
    "other":23,
    "wrong":23,
    "where":23,
    "too":23,
    "wasn\u2019t":23,
    "down":24,
    "over":24,
    "\u2018cause":24,
    "she\u2019s":24,
    "chrisann":24,
    "looks":24,
    "moment":24,
    "what\u2019s":25,
    "some":25,
    "into":25,
    "years":25,
    "after":25,
    "does":25,
    "give":25,
    "little":25,
    "school":25,
    "there\u2019s":26,
    "got":26,
    "only":26,
    "quick":27,
    "they\u2019re":27,
    "being":27,
    "had":27,
    "has":27,
    "could":28,
    "john":28,
    "money":28,
    "make":28,
    "board":28,
    "will":29,
    "really":29,
    "i\u2019ve":30,
    "thing":30,
    "two":30,
    "more":30,
    "i\u2019ll":30,
    "sculley":30,
    "things":30,
    "he\u2019s":31,
    "talking":31,
    "first":32,
    "doesn\u2019t":32,
    "okay":32,
    "something":32,
    "":33,
    "need":33,
    "which":33,
    "would":34,
    "door":34,
    "then":35,
    "going":35,
    "take":37,
    "ii":37,
    "mac":38,
    "andy":39,
    "come":39,
    "good":40,
    "tell":41,
    "by":41,
    "been":42,
    "house":42,
    "because":42,
    "woz":43,
    "here":44,
    "or":45,
    "off":46,
    "when":47,
    "him":47,
    "up":47,
    "cut":48,
    "joanna":48,
    "his":48,
    "computer":49,
    "all":49,
    "look":50,
    "said":51,
    "yeah":52,
    "can\u2019t":52,
    "go":52,
    "didn\u2019t":55,
    "them":55,
    "there":56,
    "an":56,
    "see":57,
    "say":58,
    "we\u2019re":58,
    "were":58,
    "that\u2019s":59,
    "now":60,
    "from":61,
    "did":62,
    "think":62,
    "how":64,
    "people":66,
    "right":67,
    "one":68,
    "so":70,
    "as":70,
    "who":71,
    "back":71,
    "no":72,
    "if":73,
    "why":76,
    "get":76,
    "apple":77,
    "lisa":80,
    "can":81,
    "time":81,
    "she":81,
    "my":84,
    "want":85,
    "gonna":86,
    "he":86,
    "just":90,
    "like":90,
    "at":99,
    "her":100,
    "about":102,
    "are":107,
    "you\u2019re":108,
    "we":115,
    "they":115,
    "out":116,
    "be":118,
    "but":119,
    "your":127,
    "with":130,
    "this":130,
    "know":131,
    "have":137,
    "not":139,
    "don\u2019t":145,
    "do":145,
    "it\u2019s":146,
    "i\u2019m":153,
    "on":162,
    "was":165,
    "what":182,
    "for":184,
    "steve":189,
    "me":196,
    "is":230,
    "that":261,
    "in":263,
    "of":339,
    "it":386,
    "and":515,
    "i":523,
    "a":632,
    "to":677,
    "you":740,
    "the":1108
}