{
    "thirteen":1,
    "access":1,
    "web":1,
    "cam":1,
    "works":1,
    "banging":1,
    "stuffs":1,
    "faking":1,
    "plus":1,
    "shows":1,
    "sounding":1,
    "weapons":1,
    "destructions":1,
    "project":1,
    "rome":1,
    "orgies":1,
    "jobs":1,
    "jealous":1,
    "senior":1,
    "graduate":1,
    "suckin":1,
    "stealing":1,
    "hells":1,
    "dimitri":1,
    "forgot":1,
    "knocked":1,
    "capture":1,
    "flag":1,
    "9th":1,
    "camp":1,
    "whiplash":1,
    "king":1,
    "ring":1,
    "nipples":1,
    "toes":1,
    "erection":1,
    "sometimes":1,
    "pounding":1,
    "feeds":1,
    "becomes":1,
    "thisthingthats":1,
    "attached":1,
    "weirded":1,
    "human":1,
    "female":1,
    "nipple":1,
    "besides":1,
    "liat":1,
    "insanely":1,
    "sucks":1,
    "possibly":1,
    "psyched":1,
    "dozen":1,
    "handjobs":1,
    "quarters":1,
    "blowjob":1,
    "peak":1,
    "early":1,
    "built":1,
    "mediocrelooking":1,
    "honestly":1,
    "ate":1,
    "death":1,
    "key":1,
    "mad":1,
    "clearly":1,
    "hasnt":1,
    "flirts":1,
    "joking":1,
    "hereshe":1,
    "dated":1,
    "remick":1,
    "matt":1,
    "muir":1,
    "josh":1,
    "corber":1,
    "whatshisface":1,
    "ariel":1,
    "shafir":1,
    "complete":1,
    "nailthe":1,
    "constantly":1,
    "pride":1,
    "themselves":1,
    "abilities":1,
    "faggot":1,
    "across":1,
    "thisisbullshit":1,
    "poosay":1,
    "worries":1,
    "borrow":1,
    "thanksuhi":1,
    "terrys":1,
    "nightso":1,
    "uhdidnt":1,
    "double":1,
    "feature":1,
    "mingle":1,
    "interesting":1,
    "entertaining":1,
    "music":1,
    "wouldve":1,
    "loved":1,
    "yeahwell":1,
    "upuhfun":1,
    "littleevents":1,
    "nah":1,
    "grier":1,
    "joined":1,
    "marks":1,
    "invent":1,
    "unit":1,
    "isolated":1,
    "alone":1,
    "eating":1,
    "terribletasting":1,
    "properly":1,
    "mix":1,
    "ingredients":1,
    "wash":1,
    "dry":1,
    "bs":1,
    "pair":1,
    "station":1,
    "personal":1,
    "question":1,
    "kidnapped":1,
    "forced":1,
    "success":1,
    "marscampone":1,
    "scamponee":1,
    "tastes":1,
    "except":1,
    "town":1,
    "usually":1,
    "lovehate":1,
    "uhhow":1,
    "address":1,
    "number":1,
    "havin":1,
    "walking":1,
    "white":1,
    "g":1,
    "string":1,
    "nine":1,
    "thirty":1,
    "nicest":1,
    "knee":1,
    "slappers":1,
    "junior":1,
    "thus":1,
    "likely":1,
    "fingerbang":1,
    "arranged":1,
    "brand":1,
    "false":1,
    "card":1,
    "happy":1,
    "nimrod":1,
    "poontang":1,
    "repellent":1,
    "dishes":1,
    "cuddle":1,
    "cutting":1,
    "cord":1,
    "dependent":1,
    "8":1,
    "everything":1,
    "graduation":1,
    "dating":1,
    "killin":1,
    "beginning":1,
    "third":1,
    "hadlikean":1,
    "thingwhere":1,
    "wouldlike":1,
    "kindasit":1,
    "draw":1,
    "pictures":1,
    "paper":1,
    "secretive":1,
    "loon":1,
    "drawings":1,
    "stick":1,
    "muppet":1,
    "lunchbox":1,
    "finishing":1,
    "picture":1,
    "veiny":1,
    "sudden":1,
    "flipped":1,
    "started":1,
    "ratted":1,
    "finds":1,
    "cockmuppet":1,
    "box":1,
    "turns":1,
    "religious":1,
    "possessed":1,
    "devil":1,
    "calls":1,
    "psychologist":1,
    "kept":1,
    "asking":1,
    "dickshaped":1,
    "carrots":1,
    "popsicles":1,
    "hotdogs":1,
    "shaped":1,
    "messed":1,
    "stand":1,
    "butuh":1,
    "ummm":1,
    "thinkmaybe":1,
    "backs":1,
    "located":1,
    "favor":1,
    "full":1,
    "spend":1,
    "extra":1,
    "appreciate":1,
    "game":1,
    "miracle":1,
    "paired":1,
    "afterwards":1,
    "decide":1,
    "funness":1,
    "using":1,
    "straight":1,
    "become":1,
    "possible":1,
    "able":1,
    "rolls":1,
    "master":1,
    "hypnosis":1,
    "potion":1,
    "mindcontrol":1,
    "helmet":1,
    "letters":1,
    "flowers":1,
    "pussywhipped":1,
    "greg":1,
    "eight":1,
    "part":1,
    "ignored":1,
    "hatred":1,
    "retard":1,
    "needed":1,
    "hassle":1,
    "beg":1,
    "sister":1,
    "absolutely":1,
    "treat":1,
    "tit":1,
    "friendly":1,
    "nudge":1,
    "arm":1,
    "standing":1,
    "thumb":1,
    "offered":1,
    "trusting":1,
    "mental":1,
    "midget":1,
    "pussied":1,
    "dickless":1,
    "incompetents":1,
    "laid":1,
    "assfuck":1,
    "brains":1,
    "attack":1,
    "flawless":1,
    "mrmclovin":1,
    "irish":1,
    "common":1,
    "commonly":1,
    "earth":1,
    "federal":1,
    "agents":1,
    "tracking":1,
    "considering":1,
    "dig":1,
    "circumstances":1,
    "25":1,
    "dozens":1,
    "ids":1,
    "joe":1,
    "happens":1,
    "yearolds":1,
    "fool":1,
    "canada":1,
    "aware":1,
    "fagell":1,
    "cake":1,
    "wear":1,
    "unbecoming":1,
    "towed":1,
    "grounded":1,
    "weekend":1,
    "monday":1,
    "dirt":1,
    "bike":1,
    "boom":1,
    "die":1,
    "piggies":1,
    "eh":1,
    "730":1,
    "sneak":1,
    "receive":1,
    "marked":1,
    "theyoh":1,
    "wewetake":1,
    "fill":1,
    "gin":1,
    "literally":1,
    "undrinkable":1,
    "sweety":1,
    "smell":1,
    "glory":1,
    "mmm":1,
    "barely":1,
    "scent":1,
    "highest":1,
    "tolerance":1,
    "superman":1,
    "beat":1,
    "meet":1,
    "fuckfine":1,
    "text":1,
    "pinocchio":1,
    "schoolers":1,
    "vests":1,
    "ton":1,
    "faster":1,
    "twentyfive":1,
    "mouth":1,
    "equation":1,
    "drastic":1,
    "measures":1,
    "seal":1,
    "vertlieb":1,
    "keg":1,
    "scoliosis":1,
    "stepping":1,
    "piggy":1,
    "certainly":1,
    "thatll":1,
    "eighty":1,
    "welcome":1,
    "maam":1,
    "dropped":1,
    "purse":1,
    "young":1,
    "remaining":1,
    "choice":1,
    "tv":1,
    "lavalamps":1,
    "strobe":1,
    "stolen":1,
    "security":1,
    "locker":1,
    "sambuca":1,
    "ouzo":1,
    "drambuie":1,
    "jager":1,
    "goldshlayger":1,
    "forget":1,
    "alize":1,
    "captain":1,
    "morgan":1,
    "rum":1,
    "smirnoff":1,
    "rasberry":1,
    "popov":1,
    "turn":1,
    "humiliating":1,
    "sees":1,
    "kicking":1,
    "shelf":1,
    "asshead":1,
    "jerkoff":1,
    "ugly":1,
    "self":1,
    "technology":1,
    "procedure":1,
    "bought":1,
    "`sup":1,
    "whatre":1,
    "uhnothing":1,
    "moscovitch":1,
    "whatsoever":1,
    "floor":1,
    "may":1,
    "ided":1,
    "thirtyfive":1,
    "laughed":1,
    "prepared":1,
    "consulting":1,
    "harm":1,
    "bringing":1,
    "18":1,
    "dried":1,
    "mindy":1,
    "recently":1,
    "decided":1,
    "adding":1,
    "hops":1,
    "distance":1,
    "cary":1,
    "hutchins":1,
    "switched":1,
    "breastreduction":1,
    "surgery":1,
    "must":1,
    "pretend":1,
    "trip":1,
    "theyve":1,
    "healed":1,
    "12359":1,
    "iti":1,
    "waste":1,
    "reduced":1,
    "reshaped":1,
    "nicer":1,
    "supple":1,
    "begin":1,
    "justification":1,
    "breasts":1,
    "smaller":1,
    "saggier":1,
    "busted":1,
    "apparently":1,
    "son":1,
    "mcmacladdle":1,
    "micmac":1,
    "ohthats":1,
    "uha":1,
    "oneits":1,
    "aan":1,
    "interestinguhevent":1,
    "cantthis":1,
    "matter":1,
    "impossible":1,
    "justcalm":1,
    "irrational":1,
    "strange":1,
    "names":1,
    "days":1,
    "manlady":1,
    "legally":1,
    "pearl":1,
    "necklace":1,
    "changed":1,
    "illegal":1,
    "insisted":1,
    "tear":1,
    "fist":1,
    "near":1,
    "thirteenth":1,
    "granville":1,
    "letting":1,
    "somebody":1,
    "shoulder":1,
    "plenty":1,
    "gone":1,
    "fogells":1,
    "option":1,
    "donti":1,
    "creepy":1,
    "jimmy":1,
    "perchance":1,
    "lady":1,
    "boofuckinhoo":1,
    "taken":1,
    "found":1,
    "general":1,
    "rule":1,
    "ride":1,
    "whiny":1,
    "bros":1,
    "sat":1,
    "aaah":1,
    "8756611":1,
    "haps":1,
    "speak":1,
    "begging":1,
    "essentially":1,
    "buddies":1,
    "weird":1,
    "haul":1,
    "buckets":1,
    "relax":1,
    "heck":1,
    "chi":1,
    "ahhhh":1,
    "francis":1,
    "flipping":1,
    "shiv":1,
    "stinking":1,
    "respect":1,
    "unfair":1,
    "pressure":1,
    "poons":1,
    "beef":1,
    "leaving":1,
    "killed":1,
    "okayif":1,
    "neither":1,
    "umheyuh":1,
    "answer":1,
    "gist":1,
    "robbed":1,
    "catching":1,
    "trouble":1,
    "finding":1,
    "trained":1,
    "walks":1,
    "force":1,
    "six":1,
    "belt":1,
    "example":1,
    "245":1,
    "east":1,
    "24":1,
    "montgomery":1,
    "grill":1,
    "43":1,
    "respond":1,
    "situation":1,
    "whaa":1,
    "theoh":1,
    "evalo":1,
    "minutes":1,
    "wellwhats":1,
    "goin":1,
    "everywhere":1,
    "pissin":1,
    "rummy":1,
    "resisting":1,
    "bum":1,
    "wut":1,
    "spill":1,
    "perioded":1,
    "unfuckingbelievable":1,
    "gives":1,
    "yuk":1,
    "assholes":1,
    "period":1,
    "age":1,
    "clean":1,
    "armed":1,
    "dangerous":1,
    "vicinity":1,
    "charmin":1,
    "stories":1,
    "bonk":1,
    "asks":1,
    "inside":1,
    "kitchen":1,
    "cream":1,
    "slaps":1,
    "throws":1,
    "bars":1,
    "gym":1,
    "art":1,
    "missus":1,
    "paint":1,
    "neck":1,
    "trick":1,
    "soyou":1,
    "ican":1,
    "gun":1,
    "bullets":1,
    "held":1,
    "worth":1,
    "outshoot":1,
    "sack":1,
    "tucked":1,
    "legs":1,
    "settle":1,
    "jesuss":1,
    "reception":1,
    "caught":1,
    "funevent":1,
    "splotch":1,
    "rap":1,
    "outtro":1,
    "shitter":1,
    "dancing":1,
    "jacinda":1,
    "ii":1,
    "tried":1,
    "rubbed":1,
    "against":1,
    "wes":1,
    "whores":1,
    "vice":1,
    "magnum":1,
    "9take":1,
    "glok":1,
    "design":1,
    "hennessy":1,
    "benignfuck":1,
    "asses":1,
    "fight":1,
    "swear":1,
    "iuh":1,
    "motherfucker":1,
    "ruined":1,
    "birthday":1,
    "humiliated":1,
    "tampon":1,
    "bold":1,
    "words":1,
    "booyakasha":1,
    "gentle":1,
    "shotgun":1,
    "257":1,
    "area":1,
    "sonofabitch":1,
    "wish":1,
    "lame":1,
    "huffhufffyou":1,
    "youhuffbailed":1,
    "mehuffman":1,
    "definition":1,
    "bottom":1,
    "line":1,
    "bailer":1,
    "terry":1,
    "spat":1,
    "finally":1,
    "lazy":1,
    "selfish":1,
    "chasing":1,
    "threw":1,
    "friendless":1,
    "less":1,
    "expect":1,
    "driving":1,
    "imac":1,
    "sitting":1,
    "desk":1,
    "ummy":1,
    "french":1,
    "teacher":1,
    "susette":1,
    "boot":1,
    "dad":1,
    "somewhere":1,
    "side":1,
    "dark":1,
    "flashlights":1,
    "clubs":1,
    "godis":1,
    "heare":1,
    "pushed":1,
    "push":1,
    "oncoming":1,
    "traffic":1,
    "accidents":1,
    "maniacs":1,
    "hop":1,
    "curb":1,
    "pardon":1,
    "pabst":1,
    "fix":1,
    "stains":1,
    "play":1,
    "ground":1,
    "spread":1,
    "puhplease":1,
    "awake":1,
    "private":1,
    "also":1,
    "probation":1,
    "trashed":1,
    "cars":1,
    "fault":1,
    "second":1,
    "bee":1,
    "flew":1,
    "freaked":1,
    "witness":1,
    "jumped":1,
    "tall":1,
    "uhi":1,
    "fivefootten":1,
    "eleven":1,
    "pumas":1,
    "monster":1,
    "aaahhhhhh":1,
    "children":1,
    "sonsofbitches":1,
    "aaaahhh":1,
    "arggg":1,
    "fire":1,
    "drank":1,
    "shitaint":1,
    "boozegimme":1,
    "kick":1,
    "lunatic":1,
    "goooooooldschlllaaaaaaagerrrrrrrrrr":1,
    "gold":1,
    "blocks":1,
    "safe":1,
    "broke":1,
    "evanll":1,
    "somethings":1,
    "arrangement":1,
    "load":1,
    "open":1,
    "sethclutchnicei":1,
    "itseth":1,
    "late":1,
    "starting":1,
    "becca":1,
    "blew":1,
    "yammering":1,
    "jordana":1,
    "tequila":1,
    "department":1,
    "invite":1,
    "pronto":1,
    "butshes":1,
    "hammered":1,
    "hatch":1,
    "none":1,
    "uhwelluh":1,
    "cute":1,
    "butuhheres":1,
    "lightweight":1,
    "heyme":1,
    "totell":1,
    "uhuhuhyou":1,
    "peeps":1,
    "comin":1,
    "hostess":1,
    "mostest":1,
    "hour":1,
    "blowin":1,
    "uhyou":1,
    "conversing":1,
    "theuhbalcony":1,
    "conversed":1,
    "ages":1,
    "flirt":1,
    "math":1,
    "heleni":1,
    "likeso":1,
    "fuckstupid":1,
    "shoe":1,
    "fuckincareful":1,
    "youtake":1,
    "slow":1,
    "iduhprefer":1,
    "butthere":1,
    "timewhats":1,
    "butbut":1,
    "imuhthrowin":1,
    "touh":1,
    "ahhhmanfuck":1,
    "coolest":1,
    "ricky":1,
    "quarter":1,
    "wet":1,
    "beautiful":1,
    "smooth":1,
    "umthank":1,
    "incredible":1,
    "mereal":1,
    "imimim":1,
    "relationship":1,
    "hairy":1,
    "crack":1,
    "christ":1,
    "isits":1,
    "intense":1,
    "process":1,
    "apussy":1,
    "yeaha":1,
    "scared":1,
    "beccabecca":1,
    "illuhill":1,
    "ohim":1,
    "puking":1,
    "youuh":1,
    "lifes":1,
    "wax":1,
    "noim":1,
    "helping":1,
    "jerk":1,
    "hurting":1,
    "shoulders":1,
    "christina":1,
    "britney":1,
    "boning":1,
    "complaint":1,
    "noise":1,
    "underage":1,
    "touched":1,
    "ohuhoh":1,
    "ran":1,
    "crashed":1,
    "disoriented":1,
    "wandered":1,
    "confused":1,
    "minute":1,
    "16":1,
    "17":1,
    "statutory":1,
    "violating":1,
    "law":1,
    "fucko":1,
    "type":1,
    "sleepover":1,
    "fuckinyou":1,
    "pizza":1,
    "bagels":1,
    "gots":1,
    "soam":1,
    "azkaban":1,
    "morons":1,
    "greatest":1,
    "donut":1,
    "spinning":1,
    "history":1,
    "behold":1,
    "reverse":1,
    "figureeight":1,
    "official":1,
    "position":1,
    "cumming":1,
    "signing":1,
    "officially":1,
    "stopped":1,
    "mugged":1,
    "crackhead":1,
    "cruiser":1,
    "mugger":1,
    "murder":1,
    "owe":1,
    "throwin":1,
    "gauntlet":1,
    "50":1,
    "hits":1,
    "gas":1,
    "tank":1,
    "embarrassed":1,
    "feels":1,
    "easter":1,
    "andi":1,
    "residence":1,
    "placement":1,
    "thingy":1,
    "afraid":1,
    "strangers":1,
    "likewe":1,
    "yeahat":1,
    "ohuhhey":1,
    "uhmorning":1,
    "pillow":1,
    "ohdo":1,
    "wasgonna":1,
    "mall":1,
    "someones":1,
    "opinion":1,
    "encourage":1,
    "lose":1,
    "weight":1,
    "chicksll":1,
    "male":1,
    "camel":1,
    "toe":1,
    "accident":1,
    "dodged":1,
    "whizzed":1,
    "acted":1,
    "deserve":1,
    "iumim":1,
    "gentleman":1,
    "eye":1,
    "photo":1,
    "linen":1,
    "acne":1,
    "became":1,
    "expert":1,
    "waityou":1,
    "lift":1,
    "research":2,
    "chicks":2,
    "month":2,
    "total":2,
    "feed":2,
    "touch":2,
    "disgusting":2,
    "truly":2,
    "park":2,
    "balls":2,
    "fair":2,
    "boners":2,
    "nervous":2,
    "starts":2,
    "boner":2,
    "werent":2,
    "actual":2,
    "moms":2,
    "gotten":2,
    "gettin":2,
    "career":2,
    "orson":2,
    "welles":2,
    "steady":2,
    "fat":2,
    "dan":2,
    "longer":2,
    "step":2,
    "fucker":2,
    "single":2,
    "insult":2,
    "women":2,
    "street":2,
    "insane":2,
    "parties":2,
    "dimitris":2,
    "bunch":2,
    "couple":2,
    "seths":2,
    "cocktail":2,
    "downtown":2,
    "cooking":2,
    "numbers":2,
    "food":2,
    "mother":2,
    "today":2,
    "four":2,
    "attempt":2,
    "humour":2,
    "anyway":2,
    "eats":2,
    "whoever":2,
    "miroki":2,
    "nicola":2,
    "wearing":2,
    "black":2,
    "yourself":2,
    "lunch":2,
    "mike":2,
    "snider":2,
    "identification":2,
    "cares":2,
    "done":2,
    "uhno":2,
    "yet":2,
    "left":2,
    "foot":2,
    "ah":2,
    "weeks":2,
    "elementary":2,
    "hours":2,
    "couldnt":2,
    "penis":2,
    "lord":2,
    "real":2,
    "principle":2,
    "flips":2,
    "foods":2,
    "peace":2,
    "scratch":2,
    "yours":2,
    "cock":2,
    "hundred":2,
    "shitload":2,
    "whatever":2,
    "mikes":2,
    "lemonade":2,
    "means":2,
    "trust":2,
    "looked":2,
    "likes":2,
    "universe":2,
    "chick":2,
    "both":2,
    "goes":2,
    "sweet":2,
    "pay":2,
    "bet":2,
    "almost":2,
    "goddamn":2,
    "trying":2,
    "rb":2,
    "singer":2,
    "picked":2,
    "says":2,
    "sounded":2,
    "casual":2,
    "five":2,
    "yearold":2,
    "organ":2,
    "donor":2,
    "drive":2,
    "dumb":2,
    "staff":2,
    "bit":2,
    "piece":2,
    "completely":2,
    "screw":2,
    "bigger":2,
    "heres":2,
    "shh":2,
    "biggest":2,
    "punch":2,
    "bust":2,
    "crap":2,
    "nobody":2,
    "dollars":2,
    "kindly":2,
    "excuse":2,
    "lovely":2,
    "enjoy":2,
    "aaahhhhh":2,
    "light":2,
    "rooming":2,
    "try":2,
    "mess":2,
    "difference":2,
    "damn":2,
    "anymore":2,
    "hows":2,
    "killing":2,
    "mine":2,
    "hands":2,
    "pull":2,
    "heh":2,
    "figured":2,
    "spermicidal":2,
    "hello":2,
    "bastards":2,
    "comes":2,
    "itsits":2,
    "aaahhh":2,
    "lost":2,
    "umokay":2,
    "wife":2,
    "woman":2,
    "dead":2,
    "information":2,
    "kinda":2,
    "catch":2,
    "arresting":2,
    "quick":2,
    "tons":2,
    "feeling":2,
    "break":2,
    "scare":2,
    "cab":2,
    "trash":2,
    "soon":2,
    "practically":2,
    "prick":2,
    "slip":2,
    "move":2,
    "bail":2,
    "officers":2,
    "buying":2,
    "computer":2,
    "bob":2,
    "whos":2,
    "learn":2,
    "baileys":2,
    "tenfour":2,
    "drop":2,
    "anywhere":2,
    "ahhh":2,
    "units":2,
    "telling":2,
    "shootouts":2,
    "homeless":2,
    "head":2,
    "cop":2,
    "front":2,
    "coffee":2,
    "screaming":2,
    "ball":2,
    "whore":2,
    "mysterious":2,
    "care":2,
    "guns":2,
    "took":2,
    "brothers":2,
    "dance":2,
    "pigs":2,
    "dudes":2,
    "ahh":2,
    "98":2,
    "instead":2,
    "burn":2,
    "morning":2,
    "wasted":2,
    "virgin":2,
    "gimme":2,
    "eyes":2,
    "careful":2,
    "arrest":2,
    "dump":2,
    "hang":2,
    "puh":2,
    "daddy":2,
    "honest":2,
    "pissed":2,
    "waiting":2,
    "date":2,
    "funniest":2,
    "partys":2,
    "problems":2,
    "knowi":2,
    "person":2,
    "eighth":2,
    "release":2,
    "anger":2,
    "sixteen":2,
    "saved":2,
    "seventeen":2,
    "missed":2,
    "living":2,
    "small":2,
    "puke":2,
    "macys":2,
    "coverup":2,
    "drove":2,
    "ones":3,
    "bucks":3,
    "live":3,
    "bill":3,
    "dirty":3,
    "funny":3,
    "imagine":3,
    "places":3,
    "miss":3,
    "bye":3,
    "baby":3,
    "shouldnt":3,
    "life":3,
    "week":3,
    "grade":3,
    "gave":3,
    "heart":3,
    "half":3,
    "since":3,
    "seen":3,
    "ago":3,
    "guess":3,
    "though":3,
    "point":3,
    "summer":3,
    "realized":3,
    "high":3,
    "loser":3,
    "months":3,
    "leave":3,
    "talk":3,
    "friend":3,
    "bitched":3,
    "douche":3,
    "bag":3,
    "pen":3,
    "keep":3,
    "saturday":3,
    "basement":3,
    "club":3,
    "called":3,
    "mrs":3,
    "partner":3,
    "twice":3,
    "odd":3,
    "blue":3,
    "older":3,
    "moldy":3,
    "anyways":3,
    "write":3,
    "through":3,
    "smart":3,
    "perfect":3,
    "happen":3,
    "helens":3,
    "story":3,
    "knew":3,
    "few":3,
    "used":3,
    "around":3,
    "sit":3,
    "drawing":3,
    "very":3,
    "bastard":3,
    "questions":3,
    "punk":3,
    "piss":3,
    "figure":3,
    "talked":3,
    "sleep":3,
    "girlfriend":3,
    "most":3,
    "wanna":3,
    "deal":3,
    "looking":3,
    "someone":3,
    "thatd":3,
    "cause":3,
    "punched":3,
    "promised":3,
    "between":3,
    "21":3,
    "kids":3,
    "act":3,
    "might":3,
    "theyll":3,
    "twenty":3,
    "idea":3,
    "wore":3,
    "own":3,
    "dads":3,
    "fuckers":3,
    "vest":3,
    "stole":3,
    "promise":3,
    "later":3,
    "list":3,
    "cut":3,
    "luck":3,
    "nope":3,
    "um":3,
    "bring":3,
    "plan":3,
    "ladies":3,
    "drinking":3,
    "check":3,
    "tomorrow":3,
    "happening":3,
    "arrested":3,
    "hurry":3,
    "ow":3,
    "hah":3,
    "calling":3,
    "ya":3,
    "arent":3,
    "city":3,
    "blood":3,
    "leg":3,
    "shot":3,
    "paysview":3,
    "slater":3,
    "bailed":3,
    "graham":3,
    "mind":3,
    "already":3,
    "rape":3,
    "hilarious":3,
    "comforter":3,
    "under":4,
    "blow":4,
    "state":4,
    "tits":4,
    "hide":4,
    "chance":4,
    "than":4,
    "end":4,
    "bitch":4,
    "their":4,
    "grad":4,
    "either":4,
    "awesome":4,
    "pretty":4,
    "while":4,
    "save":4,
    "youd":4,
    "yes":4,
    "tight":4,
    "place":4,
    "room":4,
    "hold":4,
    "schools":4,
    "start":4,
    "reason":4,
    "knows":4,
    "hit":4,
    "crying":4,
    "crazy":4,
    "many":4,
    "asked":4,
    "has":4,
    "once":4,
    "best":4,
    "pimp":4,
    "else":4,
    "named":4,
    "roll":4,
    "wheres":4,
    "clothes":4,
    "grab":4,
    "ready":4,
    "water":4,
    "run":4,
    "lot":4,
    "feel":4,
    "anyone":4,
    "condom":4,
    "brought":4,
    "lube":4,
    "made":4,
    "making":4,
    "exam":4,
    "report":4,
    "definitely":4,
    "weve":4,
    "mark":4,
    "gats":4,
    "fifth":4,
    "detergent":4,
    "saying":4,
    "officer":4,
    "bailing":4,
    "upstairs":4,
    "yo":5,
    "which":5,
    "myself":5,
    "bullshit":5,
    "different":5,
    "hope":5,
    "wouldnt":5,
    "least":5,
    "taking":5,
    "youll":5,
    "hate":5,
    "every":5,
    "saw":5,
    "hot":5,
    "exactly":5,
    "happened":5,
    "probably":5,
    "sex":5,
    "wow":5,
    "such":5,
    "ask":5,
    "drinks":5,
    "home":5,
    "isnt":5,
    "thinking":5,
    "ha":5,
    "heard":5,
    "jesus":5,
    "terrible":5,
    "problem":5,
    "fucked":5,
    "kid":5,
    "let":5,
    "fully":5,
    "whole":5,
    "wants":5,
    "understand":5,
    "asshole":5,
    "goldschlager":5,
    "muhammad":5,
    "calm":5,
    "mom":5,
    "stay":5,
    "totally":5,
    "umm":5,
    "wed":5,
    "doesnt":5,
    "nuts":5,
    "jail":5,
    "friends":5,
    "bang":6,
    "pick":6,
    "without":6,
    "idiot":6,
    "three":6,
    "wont":6,
    "`em":6,
    "sick":6,
    "girl":6,
    "`cause":6,
    "before":6,
    "day":6,
    "hear":6,
    "worry":6,
    "another":6,
    "theres":6,
    "sounds":6,
    "cheese":6,
    "thank":6,
    "huh":6,
    "fake":6,
    "met":6,
    "together":6,
    "dicks":6,
    "face":6,
    "enough":6,
    "course":6,
    "havent":6,
    "shell":6,
    "find":6,
    "store":6,
    "great":6,
    "bad":6,
    "put":6,
    "steal":6,
    "kill":6,
    "remember":6,
    "wasnt":6,
    "hi":6,
    "cops":6,
    "bitches":6,
    "itll":7,
    "class":7,
    "thanks":7,
    "boys":7,
    "those":7,
    "wrong":7,
    "wanted":7,
    "does":7,
    "youve":7,
    "school":7,
    "stop":7,
    "talking":7,
    "gotta":7,
    "went":7,
    "came":7,
    "same":7,
    "again":7,
    "call":7,
    "new":7,
    "eat":7,
    "better":7,
    "things":7,
    "give":7,
    "seriously":7,
    "":7,
    "long":7,
    "bottle":7,
    "show":7,
    "bar":7,
    "sir":7,
    "beer":7,
    "michaels":7,
    "drink":7,
    "next":8,
    "each":8,
    "into":8,
    "suck":8,
    "being":8,
    "away":8,
    "girls":8,
    "by":8,
    "holy":8,
    "his":8,
    "everyone":8,
    "pussy":8,
    "fun":8,
    "kind":8,
    "brother":8,
    "listen":8,
    "us":8,
    "nice":8,
    "wait":8,
    "please":8,
    "only":8,
    "supposed":8,
    "shoot":8,
    "bus":9,
    "theyre":9,
    "having":9,
    "college":9,
    "still":9,
    "coming":9,
    "any":9,
    "stuff":9,
    "first":9,
    "always":9,
    "nothing":9,
    "more":9,
    "after":9,
    "hard":9,
    "house":9,
    "whoa":9,
    "money":9,
    "maybe":10,
    "two":10,
    "years":10,
    "big":10,
    "uh":10,
    "work":10,
    "as":10,
    "shut":10,
    "booze":10,
    "getting":10,
    "make":10,
    "help":10,
    "night":11,
    "year":11,
    "parents":11,
    "told":11,
    "over":11,
    "looks":11,
    "say":11,
    "anything":11,
    "hell":11,
    "alright":11,
    "mean":11,
    "stupid":11,
    "will":11,
    "old":11,
    "fuckin":12,
    "our":12,
    "thing":12,
    "tonight":12,
    "hes":12,
    "car":12,
    "where":13,
    "ass":13,
    "fine":13,
    "dude":13,
    "time":13,
    "cool":13,
    "shes":13,
    "sure":13,
    "pants":13,
    "buy":13,
    "ever":13,
    "drunk":13,
    "god":13,
    "whats":14,
    "last":14,
    "am":14,
    "an":14,
    "actually":14,
    "said":14,
    "much":14,
    "because":14,
    "back":14,
    "alcohol":14,
    "believe":14,
    "way":15,
    "take":15,
    "never":15,
    "people":15,
    "who":15,
    "them":16,
    "when":16,
    "from":16,
    "something":16,
    "thought":16,
    "down":16,
    "other":17,
    "dick":17,
    "lets":17,
    "these":17,
    "ive":18,
    "had":18,
    "little":18,
    "doing":19,
    "name":19,
    "should":19,
    "him":19,
    "been":19,
    "liquor":19,
    "evan":20,
    "too":20,
    "come":20,
    "love":21,
    "could":22,
    "he":22,
    "now":22,
    "guys":22,
    "fogell":22,
    "id":23,
    "jules":23,
    "off":23,
    "or":24,
    "sorry":24,
    "need":24,
    "guy":25,
    "would":25,
    "tell":26,
    "seth":26,
    "hey":26,
    "think":27,
    "then":27,
    "some":27,
    "party":27,
    "look":28,
    "want":28,
    "helen":28,
    "gonna":29,
    "there":29,
    "even":29,
    "okay":29,
    "didnt":30,
    "see":30,
    "why":30,
    "ill":30,
    "right":31,
    "they":32,
    "how":32,
    "about":33,
    "cant":34,
    "did":34,
    "thats":35,
    "if":35,
    "good":38,
    "really":38,
    "mclovin":38,
    "all":39,
    "can":39,
    "but":40,
    "go":41,
    "one":41,
    "here":41,
    "fucking":42,
    "she":43,
    "fuck":45,
    "at":46,
    "got":46,
    "were":47,
    "oh":47,
    "out":48,
    "well":49,
    "going":51,
    "up":52,
    "for":52,
    "man":52,
    "youre":53,
    "not":55,
    "your":56,
    "no":58,
    "her":58,
    "know":59,
    "was":61,
    "shit":61,
    "be":62,
    "its":63,
    "on":64,
    "yeah":64,
    "in":66,
    "have":68,
    "with":71,
    "so":71,
    "are":75,
    "just":79,
    "get":81,
    "is":81,
    "this":82,
    "im":83,
    "dont":87,
    "do":89,
    "like":94,
    "we":98,
    "my":101,
    "me":101,
    "of":106,
    "what":120,
    "that":141,
    "it":143,
    "and":166,
    "a":195,
    "the":230,
    "to":242,
    "i":374,
    "you":431
}