{
    "james":1,
    "gunn":1,
    "1":1,
    "helgelands":1,
    "lowbudget":1,
    "wedding":1,
    "fills":1,
    "beneath":1,
    "provisional":1,
    "minister":1,
    "applauding":1,
    "dogs":1,
    "breeding":1,
    "barking":1,
    "glimpses":1,
    "socially":1,
    "physically":1,
    "weathered":1,
    "haunted":1,
    "downtown":1,
    "buying":1,
    "plums":1,
    "panicked":1,
    "rounding":1,
    "snatcher":1,
    "bodega":1,
    "barrel":1,
    "lost":1,
    "yells":1,
    "officers":1,
    "offset":1,
    "father":1,
    "sr":1,
    "dispassionate":1,
    "eyedistorting":1,
    "glasses":1,
    "beats":1,
    "scattered":1,
    "pinup":1,
    "80s":1,
    "heather":1,
    "locklear":1,
    "humiliation":1,
    "brick":1,
    "urinating":1,
    "rejection":1,
    "wake":1,
    "inform":1,
    "everybodys":1,
    "concerned":1,
    "losing":1,
    "rug":1,
    "bong":1,
    "goofy":1,
    "burnout":1,
    "surprised":1,
    "drove":1,
    "sock":1,
    "doof":1,
    "weak":1,
    "avoids":1,
    "gaze":1,
    "breakfast":1,
    "stove":1,
    "dewdrenched":1,
    "handsome":1,
    "unshaven":1,
    "hip":1,
    "expensive":1,
    "disheveled":1,
    "mmm":1,
    "babies":1,
    "shoveling":1,
    "piehole":1,
    "examines":1,
    "special":1,
    "damn":1,
    "graced":1,
    "goddamn":1,
    "eggcooking":1,
    "horses":1,
    "bucks":1,
    "winks":1,
    "slaps":1,
    "reading":1,
    "inspirational":1,
    "magazine":1,
    "considers":1,
    "today":1,
    "hairpin":1,
    "drawers":1,
    "distorted":1,
    "fulllength":1,
    "pop":1,
    "song":1,
    "plays":1,
    "animated":1,
    "version":1,
    "coloredpencil":1,
    "featuring":1,
    "getaway":1,
    "crunching":1,
    "stretches":1,
    "powerful":1,
    "winds":1,
    "flesh":1,
    "villains":1,
    "skeletons":1,
    "triumphant":1,
    "culminate":1,
    "cartoon":1,
    "versions":1,
    "characters":1,
    "dancing":1,
    "peeks":1,
    "dividers":1,
    "hypnotized":1,
    "passionless":1,
    "strippers":1,
    "mess":1,
    "goddammit":1,
    "manuel":1,
    "napkins":1,
    "pass":1,
    "exit":1,
    "depends":1,
    "silent":1,
    "loves":1,
    "shell":1,
    "consoled":1,
    "feels":1,
    "looked":1,
    "exactly":1,
    "cunts":1,
    "anyway":1,
    "burning":1,
    "em":1,
    "cancer":1,
    "eatin":1,
    "burnt":1,
    "sucked":1,
    "cock":1,
    "victor":1,
    "cumworm":1,
    "lazy":1,
    "banging":1,
    "quintel":1,
    "station":1,
    "strip":1,
    "marker":1,
    "scrawl":1,
    "letters":1,
    "evasive":1,
    "questions":1,
    "discover":1,
    "recovering":1,
    "alcoholic":1,
    "addict":1,
    "jerk":1,
    "herself":1,
    "vegas":1,
    "hypnotists":1,
    "accept":1,
    "hole":1,
    "ad":1,
    "licked":1,
    "caption":1,
    "female":1,
    "dry":1,
    "enthusiastic":1,
    "teenager":1,
    "blue":1,
    "companion":1,
    "absolutely":1,
    "litter":1,
    "types":1,
    "angora":1,
    "dutch":1,
    "dwarf":1,
    "vienna":1,
    "himalayan":1,
    "zealand":1,
    "flat":1,
    "freakish":1,
    "punch":1,
    "hones":1,
    "adorable":1,
    "bunny":1,
    "cutie":1,
    "cage":1,
    "reacts":1,
    "bm":1,
    "soft":1,
    "breathing":1,
    "screw":1,
    "laziness":1,
    "valley":1,
    "gestures":1,
    "cafeteria":1,
    "students":1,
    "tables":1,
    "lazily":1,
    "playing":1,
    "jacks":1,
    "bathing":1,
    "beam":1,
    "sloth":1,
    "affected":1,
    "continued":1,
    "schoolwork":1,
    "chores":1,
    "importantly":1,
    "forgotten":1,
    "forms":1,
    "instead":1,
    "satan":1,
    "easier":1,
    "christ":1,
    "savior":1,
    "heavens":1,
    "sweet":1,
    "bathe":1,
    "glows":1,
    "cowers":1,
    "transfixed":1,
    "merry":1,
    "drunk":1,
    "ecstasy":1,
    "sensation":1,
    "wander":1,
    "lawn":1,
    "kissing":1,
    "trickedout":1,
    "electronically":1,
    "fr":1,
    "pupils":1,
    "hurting":1,
    "complimented":1,
    "warning":1,
    "kindness":1,
    "touch":1,
    "harder":1,
    "meant":1,
    "maneuver":1,
    "frankss":1,
    "stalker":1,
    "unconscious":1,
    "motherfuckers":1,
    "cook":1,
    "twentyseven":1,
    "aids":1,
    "older":1,
    "hairdo":1,
    "bigwig":1,
    "nervous":1,
    "breakdown":1,
    "aside":1,
    "hat":1,
    "dmitri":1,
    "guinea":1,
    "guides":1,
    "breaks":1,
    "uncomfortable":1,
    "shaking":1,
    "sobs":1,
    "pick":1,
    "remind":1,
    "retarded":1,
    "mashedup":1,
    "prays":1,
    "guide":1,
    "tenderness":1,
    "humiliated":1,
    "starving":1,
    "africa":1,
    "unlucky":1,
    "soul":1,
    "born":1,
    "disgusting":1,
    "comb":1,
    "dumb":1,
    "idiotic":1,
    "amazed":1,
    "exist":1,
    "selfish":1,
    "asking":1,
    "amen":1,
    "unable":1,
    "events":1,
    "jerks":1,
    "upward":1,
    "curtains":1,
    "slightly":1,
    "parted":1,
    "jogs":1,
    "nearby":1,
    "plagued":1,
    "throughout":1,
    "shock":1,
    "crawling":1,
    "spider":1,
    "age":1,
    "eight":1,
    "climbing":1,
    "trophy":1,
    "shelf":1,
    "stockwells":1,
    "chair":1,
    "twelve":1,
    "discovered":1,
    "appeared":1,
    "met":1,
    "smiles":1,
    "marry":1,
    "divinely":1,
    "implanted":1,
    "ceiling":1,
    "further":1,
    "blinding":1,
    "angels":1,
    "singing":1,
    "experienced":1,
    "comforter":1,
    "shackles":1,
    "numerous":1,
    "mix":1,
    "organics":1,
    "electronics":1,
    "walls":1,
    "grab":1,
    "centering":1,
    "additional":1,
    "ending":1,
    "slice":1,
    "sides":1,
    "yelps":1,
    "fear":1,
    "finished":1,
    "grabber":1,
    "attachments":1,
    "jut":1,
    "scalp":1,
    "fliptop":1,
    "tubelike":1,
    "squirts":1,
    "orange":1,
    "swipes":1,
    "squeegeetype":1,
    "sponge":1,
    "smallest":1,
    "beings":1,
    "peanut":1,
    "comprehend":1,
    "speechless":1,
    "plan":1,
    "normal":1,
    "airconditioner":1,
    "clock":1,
    "birds":1,
    "dim":1,
    "sounds":1,
    "breathes":1,
    "freaked":1,
    "eats":1,
    "cereal":1,
    "doodles":1,
    "vision":1,
    "ways":1,
    "decipher":1,
    "handwritten":1,
    "word":1,
    "particular":1,
    "mumble":1,
    "blebble":1,
    "rumrum":1,
    "bluh":1,
    "issues":1,
    "h":1,
    "eat":1,
    "tuna":1,
    "avocado":1,
    "salad":1,
    "pretend":1,
    "widescreen":1,
    "reception":1,
    "flipping":1,
    "flips":1,
    "comics":1,
    "grabbed":1,
    "christy":1,
    "warn":1,
    "gay":1,
    "art":1,
    "everyones":1,
    "drawn":1,
    "mongoloid":1,
    "mongoloids":1,
    "choice":1,
    "echo":1,
    "wonder":1,
    "stood":1,
    "awe":1,
    "sink":1,
    "yanks":1,
    "half":1,
    "doodle":1,
    "scissors":1,
    "scotchtaped":1,
    "gapes":1,
    "combined":1,
    "picture":1,
    "clear":1,
    "shelves":1,
    "spread":1,
    "pattern":1,
    "parchment":1,
    "fly":1,
    "touched":1,
    "using":1,
    "machine":1,
    "irons":1,
    "removes":1,
    "insignia":1,
    "surrounded":1,
    "yellow":1,
    "burst":1,
    "stolen":1,
    "propelling":1,
    "wriggles":1,
    "tight":1,
    "became":1,
    "entire":1,
    "revealed":1,
    "found":1,
    "skin":1,
    "mostly":1,
    "illfitting":1,
    "patchy":1,
    "poorly":1,
    "sewn":1,
    "voices":1,
    "heroic":1,
    "poses":1,
    "persona":1,
    "barren":1,
    "minitape":1,
    "match":1,
    "innocents":1,
    "forces":1,
    "appearing":1,
    "suspicious":1,
    "might":1,
    "planning":1,
    "toni":1,
    "flapping":1,
    "expose":1,
    "position":1,
    "college":1,
    "buy":1,
    "checking":1,
    "internet":1,
    "librarians":1,
    "web":1,
    "site":1,
    "busts":1,
    "prostitution":1,
    "mentioned":1,
    "parked":1,
    "filled":1,
    "pushers":1,
    "thin":1,
    "scurvyesque":1,
    "teeth":1,
    "argues":1,
    "agreeance":1,
    "such":1,
    "wobbling":1,
    "shoes":1,
    "jetson":1,
    "fender":1,
    "hides":1,
    "teenagers":1,
    "drive":1,
    "struts":1,
    "flashing":1,
    "playas":1,
    "motherfucking":1,
    "flashes":1,
    "yeeah":1,
    "goodlookin":1,
    "yoselves":1,
    "flattered":1,
    "eighty":1,
    "sixty":1,
    "miles":1,
    "smell":1,
    "stinky":1,
    "share":1,
    "grudgingly":1,
    "agrees":1,
    "monies":1,
    "dope":1,
    "scum":1,
    "sunflower":1,
    "seeds":1,
    "glued":1,
    "popsicle":1,
    "nose":1,
    "knowing":1,
    "grade":1,
    "particularly":1,
    "recess":1,
    "brawl":1,
    "stretch":1,
    "shirts":1,
    "backs":1,
    "scratched":1,
    "twists":1,
    "eyeholes":1,
    "worms":1,
    "blinded":1,
    "swinging":1,
    "putting":1,
    "lid":1,
    "slamming":1,
    "toppling":1,
    "defend":1,
    "themselves":1,
    "batarang":1,
    "green":1,
    "arrow":1,
    "bow":1,
    "arrows":1,
    "shield":1,
    "minute":1,
    "soldier":1,
    "catwoman":1,
    "whip":1,
    "nightwing":1,
    "punisher":1,
    "superpowered":1,
    "ring":1,
    "research":1,
    "mannequin":1,
    "decimating":1,
    "thatll":1,
    "meesta":1,
    "punches":1,
    "avenue":1,
    "escape":1,
    "cement":1,
    "block":1,
    "dealing":1,
    "wails":1,
    "bloody":1,
    "molest":1,
    "peering":1,
    "majestic":1,
    "pose":1,
    "gaining":1,
    "courage":1,
    "creep":1,
    "bic":1,
    "lighter":1,
    "sizzles":1,
    "hardly":1,
    "quickly":1,
    "distant":1,
    "able":1,
    "drugged":1,
    "remembering":1,
    "grills":1,
    "ride":1,
    "pos":1,
    "simple":1,
    "drunks":1,
    "laugh":1,
    "wave":1,
    "area":1,
    "cold":1,
    "cigarette":1,
    "break":1,
    "warm":1,
    "spending":1,
    "joyous":1,
    "overrated":1,
    "matters":1,
    "sadness":1,
    "anger":1,
    "arrogant":1,
    "also":1,
    "major":1,
    "decisions":1,
    "year":1,
    "cull":1,
    "jennifer":1,
    "drunken":1,
    "guiding":1,
    "naked":1,
    "women":1,
    "uneasy":1,
    "musics":1,
    "exits":1,
    "waves":1,
    "farewell":1,
    "employees":1,
    "meth":1,
    "disease":1,
    "probations":1,
    "urine":1,
    "test":1,
    "toasting":1,
    "uturn":1,
    "opposite":1,
    "reporter":1,
    "newsdesk":1,
    "brutal":1,
    "assaults":1,
    "pretending":1,
    "witnesses":1,
    "unusual":1,
    "wears":1,
    "attacked":1,
    "mavin":1,
    "provocation":1,
    "sgt":1,
    "lawrence":1,
    "interviewed":1,
    "situation":1,
    "amusing":1,
    "leap":1,
    "psychopath":1,
    "beatings":1,
    "murders":1,
    "appear":1,
    "described":1,
    "muscular":1,
    "caucasian":1,
    "six":1,
    "foot":1,
    "information":1,
    "1800kljcrime":1,
    "fuuuuck":1,
    "must":1,
    "interest":1,
    "dressed":1,
    "supermans":1,
    "whacking":1,
    "wham":1,
    "whacked":1,
    "watched":1,
    "whole":1,
    "caught":1,
    "monkey":1,
    "tisha":1,
    "movies":1,
    "early":1,
    "tickets":1,
    "cashier":1,
    "curling":1,
    "building":1,
    "far":1,
    "ahead":1,
    "grumble":1,
    "peeved":1,
    "hour":1,
    "step":1,
    "difference":1,
    "goes":1,
    "clumsily":1,
    "accidentally":1,
    "honks":1,
    "horn":1,
    "mom":1,
    "cross":1,
    "tightiewhitied":1,
    "sticking":1,
    "slips":1,
    "trousers":1,
    "determined":1,
    "fooling":1,
    "splits":1,
    "pulses":1,
    "shriek":1,
    "sirens":1,
    "wear":1,
    "plastic":1,
    "gloves":1,
    "doors":1,
    "fixing":1,
    "prom":1,
    "finally":1,
    "become":1,
    "joke":1,
    "label":1,
    "bums":1,
    "during":1,
    "discussions":1,
    "brought":1,
    "bubbly":1,
    "itll":1,
    "freak":1,
    "detective":1,
    "weeks":1,
    "chilly":1,
    "preoccupied":1,
    "glancing":1,
    "conclusion":1,
    "likes":1,
    "kidnapping":1,
    "serious":1,
    "wideeyed":1,
    "intensity":1,
    "blinking":1,
    "follow":1,
    "freaky":1,
    "agreed":1,
    "volition":1,
    "intense":1,
    "fumbles":1,
    "pen":1,
    "signing":1,
    "cancels":1,
    "charges":1,
    "forgot":1,
    "conniption":1,
    "fit":1,
    "signs":1,
    "whatever":1,
    "blind":1,
    "stuck":1,
    "evidence":1,
    "rod":1,
    "patterns":1,
    "kneels":1,
    "praying":1,
    "darkened":1,
    "raped":1,
    "rolling":1,
    "carts":1,
    "handing":1,
    "magazines":1,
    "violence":1,
    "bible":1,
    "longer":1,
    "shouldnt":1,
    "float":1,
    "snaps":1,
    "nothings":1,
    "floating":1,
    "hours":1,
    "shower":1,
    "leaning":1,
    "letting":1,
    "water":1,
    "cleansing":1,
    "robe":1,
    "decompresses":1,
    "flicks":1,
    "channels":1,
    "episode":1,
    "fearful":1,
    "spray":1,
    "caused":1,
    "jimmy":1,
    "dress":1,
    "outfits":1,
    "download":1,
    "pornographic":1,
    "images":1,
    "computer":1,
    "rope":1,
    "struggling":1,
    "act":1,
    "within":1,
    "loving":1,
    "marriage":1,
    "pair":1,
    "doubt":1,
    "virginity":1,
    "proud":1,
    "taken":1,
    "missed":1,
    "field":1,
    "hockey":1,
    "tournament":1,
    "petting":1,
    "thank":1,
    "premarital":1,
    "sexual":1,
    "won":1,
    "peer":1,
    "pressure":1,
    "society":1,
    "hearts":1,
    "disappointed":1,
    "intersection":1,
    "surveys":1,
    "landscape":1,
    "closer":1,
    "arrives":1,
    "music":1,
    "sneaks":1,
    "tightlywound":1,
    "picking":1,
    "sill":1,
    "glare":1,
    "careful":1,
    "doublenegative":1,
    "grinds":1,
    "fist":1,
    "realize":1,
    "worked":1,
    "country":1,
    "hurt":1,
    "enter":1,
    "loading":1,
    "track":1,
    "weighing":1,
    "recliner":1,
    "barefoot":1,
    "worried":1,
    "impatient":1,
    "ends":1,
    "crap":1,
    "mikey":1,
    "offense":1,
    "anticipation":1,
    "champagne":1,
    "bottle":1,
    "boat":1,
    "horror":1,
    "slides":1,
    "needle":1,
    "toes":1,
    "injecting":1,
    "euphoria":1,
    "wrath":1,
    "pistol":1,
    "dashes":1,
    "chasing":1,
    "somebodys":1,
    "bum":1,
    "molly":1,
    "ryan":1,
    "grant":1,
    "assorted":1,
    "grunts":1,
    "exchanged":1,
    "faint":1,
    "profusely":1,
    "ty":1,
    "jr":1,
    "bob":1,
    "following":1,
    "poon":1,
    "bullshit":1,
    "oily":1,
    "towel":1,
    "knee":1,
    "soaked":1,
    "excited":1,
    "gunshot":1,
    "wound":1,
    "underwear":1,
    "trembling":1,
    "standing":1,
    "enjoy":1,
    "candy":1,
    "bullet":1,
    "passed":1,
    "fragments":1,
    "shoves":1,
    "pliers":1,
    "given":1,
    "tremendous":1,
    "identity":1,
    "live":1,
    "tonight":1,
    "welcome":1,
    "pointing":1,
    "silhouette":1,
    "riddled":1,
    "badge":1,
    "tells":1,
    "hangs":1,
    "pneumonia":1,
    "yuh":1,
    "original":1,
    "torch":1,
    "twentytwo":1,
    "compared":1,
    "list":1,
    "imagine":1,
    "robins":1,
    "whys":1,
    "phrase":1,
    "favorite":1,
    "lying":1,
    "cocksuckers":1,
    "healing":1,
    "nicely":1,
    "shape":1,
    "yet":1,
    "crouching":1,
    "boring":1,
    "lesson":1,
    "illegal":1,
    "paid":1,
    "price":1,
    "mellow":1,
    "longhaired":1,
    "answers":1,
    "tvs":1,
    "background":1,
    "welltodo":1,
    "eating":1,
    "bowl":1,
    "loops":1,
    "halloween":1,
    "kicks":1,
    "tumbles":1,
    "furious":1,
    "waterford":1,
    "vase":1,
    "swings":1,
    "clutching":1,
    "glassimbedded":1,
    "gasps":1,
    "calm":1,
    "wailing":1,
    "agony":1,
    "rage":1,
    "enormous":1,
    "bronze":1,
    "western":1,
    "statue":1,
    "wild":1,
    "horseback":1,
    "bring":1,
    "clearly":1,
    "hed":1,
    "key":1,
    "anybodys":1,
    "brand":1,
    "jetta":1,
    "angrily":1,
    "scared":1,
    "learning":1,
    "upset":1,
    "buttoning":1,
    "civilian":1,
    "duds":1,
    "shallow":1,
    "dashboard":1,
    "grandmother":1,
    "corpse":1,
    "rather":1,
    "pointed":1,
    "choose":1,
    "grandma":1,
    "least":1,
    "working":1,
    "smokes":1,
    "marl":1,
    "pumping":1,
    "psst":1,
    "ignore":1,
    "shops":1,
    "barely":1,
    "avoiding":1,
    "honking":1,
    "alleys":1,
    "narrow":1,
    "hobbleruns":1,
    "rips":1,
    "jump":1,
    "passersby":1,
    "911":1,
    "cell":1,
    "phone":1,
    "blow":1,
    "sending":1,
    "careening":1,
    "fingers":1,
    "lips":1,
    "jacket":1,
    "forming":1,
    "ushering":1,
    "internal":1,
    "fucker":1,
    "whoooo":1,
    "closing":1,
    "drivers":1,
    "engine":1,
    "anytime":1,
    "bastard":1,
    "commit":1,
    "gayass":1,
    "crushing":1,
    "parts":1,
    "garagedoor":1,
    "cracks":1,
    "battered":1,
    "wow":1,
    "boltmobile":1,
    "license":1,
    "plate":1,
    "handled":1,
    "cuss":1,
    "agree":1,
    "wolverine":1,
    "broken":1,
    "course":1,
    "total":1,
    "mistake":1,
    "ran":1,
    "throwing":1,
    "rodeo":1,
    "whoa":1,
    "somewhat":1,
    "innocent":1,
    "bond":1,
    "celebrate":1,
    "somehow":1,
    "bake":1,
    "cake":1,
    "northington":1,
    "draped":1,
    "hicks":1,
    "trucks":1,
    "auditorium":1,
    "checks":1,
    "pumpaction":1,
    "rifle":1,
    "pretends":1,
    "trouble":1,
    "bulletproof":1,
    "wavers":1,
    "leafs":1,
    "munitions":1,
    "page":1,
    "grins":1,
    "shopping":1,
    "cart":1,
    "loads":1,
    "dangerous":1,
    "mesh":1,
    "baseball":1,
    "caps":1,
    "progun":1,
    "slogans":1,
    "knocks":1,
    "pissed":1,
    "load":1,
    "trunk":1,
    "public":1,
    "opinion":1,
    "regard":1,
    "severely":1,
    "disturbed":1,
    "individual":1,
    "assaulting":1,
    "purse":1,
    "forced":1,
    "sexually":1,
    "arrived":1,
    "partner":1,
    "excitement":1,
    "offering":1,
    "reward":1,
    "capture":1,
    "wouldbe":1,
    "dirk":1,
    "kirkpatrick":1,
    "weather":1,
    "feeling":1,
    "someday":1,
    "welding":1,
    "metal":1,
    "cuffs":1,
    "attached":1,
    "cuff":1,
    "projected":1,
    "wooden":1,
    "piping":1,
    "gunpowders":1,
    "whatre":1,
    "paint":1,
    "emblems":1,
    "colors":1,
    "asleep":1,
    "pleeeeeease":1,
    "stereo":1,
    "rubbing":1,
    "crotch":1,
    "since":1,
    "whens":1,
    "liar":1,
    "gushy":1,
    "aaah":1,
    "crawls":1,
    "faster":1,
    "vomit":1,
    "toilet":1,
    "dispersing":1,
    "sleepwalking":1,
    "either":1,
    "business":1,
    "bars":1,
    "tinted":1,
    "mikes":1,
    "kicking":1,
    "walkietalkie":1,
    "gotcha":1,
    "eastern":1,
    "european":1,
    "hookers":1,
    "assembled":1,
    "nodding":1,
    "tightlywrapped":1,
    "stacked":1,
    "antibacterial":1,
    "lotion":1,
    "perched":1,
    "atop":1,
    "gazing":1,
    "colorful":1,
    "insignias":1,
    "uniforms":1,
    "elaborate":1,
    "ramboesque":1,
    "ammunitions":1,
    "strapped":1,
    "sharp":1,
    "wolverinetype":1,
    "sprouting":1,
    "forearms":1,
    "heroes":1,
    "picked":1,
    "greet":1,
    "sizable":1,
    "carrying":1,
    "titanium":1,
    "handshake":1,
    "gross":1,
    "post":1,
    "already":1,
    "son":1,
    "directing":1,
    "weight":1,
    "ladies":1,
    "facilitating":1,
    "friendships":1,
    "company":1,
    "job":1,
    "peruses":1,
    "chuckles":1,
    "heh":1,
    "girlfriends":1,
    "hood":1,
    "voice":1,
    "trips":1,
    "fishing":1,
    "wire":1,
    "strung":1,
    "pavement":1,
    "puddle":1,
    "gently":1,
    "rocks":1,
    "chemical":1,
    "flames":1,
    "flickers":1,
    "trees":1,
    "rushes":1,
    "flaming":1,
    "stabs":1,
    "shuts":1,
    "balcony":1,
    "approach":1,
    "gulping":1,
    "blowing":1,
    "bubble":1,
    "upon":1,
    "slicing":1,
    "glee":1,
    "explosion":1,
    "whered":1,
    "fury":1,
    "glares":1,
    "lungs":1,
    "stumbling":1,
    "third":1,
    "wrenching":1,
    "looming":1,
    "hurtles":1,
    "halfdressed":1,
    "everythings":1,
    "fruitcake":1,
    "joker":1,
    "siccing":1,
    "fucks":1,
    "packing":1,
    "funny":1,
    "boned":1,
    "ignores":1,
    "whelp":1,
    "wheres":1,
    "safety":1,
    "trigger":1,
    "full":1,
    "nobody":1,
    "blame":1,
    "taking":1,
    "driveway":1,
    "roof":1,
    "swung":1,
    "fountain":1,
    "shouting":1,
    "lunges":1,
    "grabbing":1,
    "grapple":1,
    "slams":1,
    "rail":1,
    "win":1,
    "fat":1,
    "downstairs":1,
    "assistant":1,
    "offers":1,
    "glances":1,
    "weeping":1,
    "pumpkin":1,
    "covering":1,
    "hero":1,
    "interesting":1,
    "forearm":1,
    "device":1,
    "imbeds":1,
    "chin":1,
    "pinning":1,
    "hyperventilating":1,
    "halfcovering":1,
    "execute":1,
    "sins":1,
    "psycho":1,
    "killed":1,
    "butting":1,
    "sell":1,
    "profit":1,
    "misery":1,
    "rules":1,
    "responsibility":1,
    "stabbing":1,
    "death":1,
    "remaining":1,
    "wipe":1,
    "forehead":1,
    "weeps":1,
    "sleeps":1,
    "deluded":1,
    "lies":1,
    "covers":1,
    "washes":1,
    "stitches":1,
    "truth":1,
    "followed":1,
    "stayed":1,
    "crappy":1,
    "likely":1,
    "sense":1,
    "obligation":1,
    "dear":1,
    "letter":1,
    "histrionics":1,
    "classroom":1,
    "pays":1,
    "attention":1,
    "class":1,
    "professor":1,
    "notes":1,
    "finish":1,
    "study":1,
    "anthropology":1,
    "speaker":1,
    "aa":1,
    "shy":1,
    "humble":1,
    "meetings":1,
    "insights":1,
    "struck":1,
    "uniquely":1,
    "shifts":1,
    "nightmares":1,
    "tentatively":1,
    "reaches":1,
    "comfort":1,
    "wakes":1,
    "patrick":1,
    "trevor":1,
    "laura":1,
    "joy":1,
    "probably":1,
    "mail":1,
    "earth":1,
    "peace":1,
    "lucky":1,
    "pets":1,
    "completely":1,
    "backyard":2,
    "bright":2,
    "lettering":2,
    "kiss":2,
    "gazebo":2,
    "surround":2,
    "cages":2,
    "black":2,
    "pursesnatcher":2,
    "darts":2,
    "2":2,
    "points":2,
    "went":2,
    "childhood":2,
    "sobbing":2,
    "pictures":2,
    "girls":2,
    "cover":2,
    "meet":2,
    "enters":2,
    "giggling":2,
    "close":2,
    "cop":2,
    "done":2,
    "leaves":2,
    "sunday":2,
    "leads":2,
    "appears":2,
    "lives":2,
    "fantastic":2,
    "friend":2,
    "gift":2,
    "goodbye":2,
    "club":2,
    "five":2,
    "single":2,
    "knees":2,
    "mirror":2,
    "driving":2,
    "credits":2,
    "cartoons":2,
    "lined":2,
    "beams":2,
    "criminals":2,
    "blows":2,
    "tear":2,
    "leaving":2,
    "may":2,
    "beyond":2,
    "stare":2,
    "youd":2,
    "bare":2,
    "assets":2,
    "posse":2,
    "aston":2,
    "martin":2,
    "cooks":2,
    "seen":2,
    "deep":2,
    "breath":2,
    "wants":2,
    "believe":2,
    "moved":2,
    "continues":2,
    "burgers":2,
    "bitch":2,
    "brother":2,
    "faggot":2,
    "beard":2,
    "closeup":2,
    "photograph":2,
    "used":2,
    "circle":2,
    "above":2,
    "told":2,
    "stole":2,
    "gave":2,
    "arrest":2,
    "proof":2,
    "asked":2,
    "howd":2,
    "kidnaped":2,
    "best":2,
    "quite":2,
    "apron":2,
    "animals":2,
    "trained":2,
    "shows":2,
    "stacks":2,
    "lopeared":2,
    "cats":2,
    "thumping":2,
    "cause":2,
    "sleeping":2,
    "etc":2,
    "apple":2,
    "crisp":2,
    "tater":2,
    "tots":2,
    "lunch":2,
    "giving":2,
    "gazes":2,
    "intently":2,
    "power":2,
    "avengers":2,
    "emerge":2,
    "drinking":2,
    "brushes":2,
    "giggles":2,
    "pulling":2,
    "gates":2,
    "bedlington":2,
    "road":2,
    "theyve":2,
    "seriously":2,
    "pokes":2,
    "push":2,
    "ground":2,
    "tried":2,
    "nigger":2,
    "wheel":2,
    "peoples":2,
    "customers":2,
    "pickup":2,
    "mans":2,
    "ass":2,
    "fault":2,
    "next":2,
    "hate":2,
    "seem":2,
    "fair":2,
    "goodness":2,
    "enough":2,
    "personality":2,
    "ask":2,
    "rumbling":2,
    "visions":2,
    "catches":2,
    "worry":2,
    "stockwell":2,
    "tied":2,
    "sister":2,
    "crack":2,
    "bursts":2,
    "damned":2,
    "wrapped":2,
    "arms":2,
    "trapped":2,
    "growing":2,
    "keeping":2,
    "skull":2,
    "exposed":2,
    "tendril":2,
    "sick":2,
    "liquid":2,
    "preparing":2,
    "tip":2,
    "chosen":2,
    "heavily":2,
    "notebook":2,
    "hoodedmask":2,
    "secret":2,
    "tapes":2,
    "embarrassed":2,
    "great":2,
    "unless":2,
    "awesome":2,
    "anyone":2,
    "true":2,
    "admit":2,
    "louder":2,
    "hasnt":2,
    "anybody":2,
    "cuts":2,
    "mumbles":2,
    "library":2,
    "sketches":2,
    "person":2,
    "iron":2,
    "cowl":2,
    "chest":2,
    "depths":2,
    "pants":2,
    "violent":2,
    "suit":2,
    "basically":2,
    "same":2,
    "heres":2,
    "alleyway":2,
    "crouched":2,
    "peeking":2,
    "painted":2,
    "journal":2,
    "hiding":2,
    "wind":2,
    "detroit":2,
    "dealers":2,
    "writing":2,
    "shoulder":2,
    "calls":2,
    "newspaper":2,
    "tilt":2,
    "whores":2,
    "gold":2,
    "fitty":2,
    "sadly":2,
    "heel":2,
    "leans":2,
    "smile":2,
    "weed":2,
    "brothers":2,
    "party":2,
    "teens":2,
    "snicker":2,
    "bet":2,
    "driver":2,
    "lap":2,
    "school":2,
    "cans":2,
    "comic":2,
    "superheroes":2,
    "america":2,
    "count":2,
    "counter":2,
    "needs":2,
    "weapon":2,
    "smashes":2,
    "punching":2,
    "strikes":2,
    "transvestite":2,
    "finishes":2,
    "steal":2,
    "spattered":2,
    "boltrod":2,
    "lights":2,
    "screeches":2,
    "coffee":2,
    "beautiful":2,
    "wiping":2,
    "meeting":2,
    "miss":2,
    "church":2,
    "week":2,
    "jail":2,
    "months":2,
    "happiness":2,
    "weird":2,
    "disapproving":2,
    "fast":2,
    "put":2,
    "hostess":2,
    "money":2,
    "furniture":2,
    "walk":2,
    "fellow":2,
    "beer":2,
    "month":2,
    "costumed":2,
    "calling":2,
    "check":2,
    "eye":2,
    "criminal":2,
    "dpd":2,
    "finding":2,
    "serial":2,
    "deserve":2,
    "hit":2,
    "tomorrow":2,
    "theater":2,
    "buys":2,
    "girlfriend":2,
    "weve":2,
    "butted":2,
    "spots":2,
    "pedestrians":2,
    "smacks":2,
    "backwards":2,
    "knocking":2,
    "sweetheart":2,
    "hope":2,
    "continue":2,
    "sheet":2,
    "busy":2,
    "john":2,
    "unsure":2,
    "came":2,
    "basement":2,
    "bite":2,
    "charge":2,
    "capn":2,
    "pieces":2,
    "drawings":2,
    "late":2,
    "concentrates":2,
    "leaps":2,
    "bathroom":2,
    "dust":2,
    "sacred":2,
    "camera":2,
    "tilts":2,
    "nipple":2,
    "rings":2,
    "intercourse":2,
    "forever":2,
    "speaking":2,
    "directly":2,
    "matter":2,
    "means":2,
    "covered":2,
    "bush":2,
    "walking":2,
    "stack":2,
    "setting":2,
    "darkness":2,
    "feet":2,
    "syringe":2,
    "husband":2,
    "four":2,
    "garbage":2,
    "bags":2,
    "melissa":2,
    "sweating":2,
    "ellen":2,
    "uncle":2,
    "hospital":2,
    "law":2,
    "alone":2,
    "bye":2,
    "daddy":2,
    "sugar":2,
    "ibuprofens":2,
    "die":2,
    "fine":2,
    "bullets":2,
    "robin":2,
    "toro":2,
    "kidding":2,
    "happens":2,
    "lets":2,
    "happen":2,
    "keyed":2,
    "asshole":2,
    "sonofabitch":2,
    "stomps":2,
    "loved":2,
    "chases":2,
    "sore":2,
    "bleeding":2,
    "alley":2,
    "regular":2,
    "shirt":2,
    "rolls":2,
    "claps":2,
    "claws":2,
    "control":2,
    "inbetween":2,
    "convention":2,
    "center":2,
    "banner":2,
    "reveal":2,
    "helmets":2,
    "items":2,
    "hadnt":2,
    "knows":2,
    "crimefighters":2,
    "button":2,
    "air":2,
    "projectile":2,
    "awake":2,
    "quiet":2,
    "layzboy":2,
    "uses":2,
    "including":2,
    "bodyguard":2,
    "limp":2,
    "equipment":2,
    "scientisttypes":2,
    "freeze":2,
    "starting":2,
    "spurting":2,
    "listening":2,
    "abes":2,
    "along":2,
    "garden":2,
    "times":2,
    "postcard":2,
    "awkward":3,
    "fruit":3,
    "notices":3,
    "run":3,
    "pal":3,
    "thick":3,
    "hide":3,
    "edge":3,
    "every":3,
    "set":3,
    "direction":3,
    "knew":3,
    "saved":3,
    "peers":3,
    "sitting":3,
    "buddy":3,
    "favor":3,
    "lie":3,
    "book":3,
    "thinks":3,
    "somebody":3,
    "days":3,
    "cars":3,
    "flies":3,
    "lust":3,
    "werent":3,
    "couldnt":3,
    "touching":3,
    "forget":3,
    "once":3,
    "laughs":3,
    "wouldnt":3,
    "answer":3,
    "turned":3,
    "stands":3,
    "having":3,
    "use":3,
    "white":3,
    "free":3,
    "faces":3,
    "arent":3,
    "human":3,
    "rabbit":3,
    "huge":3,
    "heart":3,
    "pack":3,
    "cut":3,
    "youll":3,
    "wont":3,
    "rest":3,
    "gang":3,
    "forth":3,
    "happened":3,
    "hitting":3,
    "nice":3,
    "bro":3,
    "order":3,
    "read":3,
    "fire":3,
    "changes":3,
    "fall":3,
    "piece":3,
    "rear":3,
    "clean":3,
    "helping":3,
    "ugly":3,
    "swear":3,
    "tosses":3,
    "few":3,
    "jumps":3,
    "seems":3,
    "fun":3,
    "deal":3,
    "johnny":3,
    "else":3,
    "light":3,
    "tendrils":3,
    "pages":3,
    "panels":3,
    "holly":3,
    "itself":3,
    "bit":3,
    "myself":3,
    "bolts":3,
    "waiting":3,
    "protect":3,
    "tape":3,
    "pushing":3,
    "fake":3,
    "stories":3,
    "flash":3,
    "many":3,
    "whore":3,
    "teen":3,
    "roll":3,
    "sidewalk":3,
    "batman":3,
    "utility":3,
    "captain":3,
    "wait":3,
    "guns":3,
    "making":3,
    "drops":3,
    "lands":3,
    "confused":3,
    "sober":3,
    "waitress":3,
    "parking":3,
    "dmitris":3,
    "coat":3,
    "youve":3,
    "save":3,
    "places":3,
    "though":3,
    "baby":3,
    "problem":3,
    "small":3,
    "fitzgibbon":3,
    "city":3,
    "sex":3,
    "crazy":3,
    "moving":3,
    "called":3,
    "filed":3,
    "ago":3,
    "most":3,
    "wanted":3,
    "actually":3,
    "sets":3,
    "closes":3,
    "stuffs":3,
    "thinking":3,
    "watching":3,
    "jim":3,
    "garage":3,
    "dead":3,
    "shakes":3,
    "creeping":3,
    "bam":3,
    "bird":3,
    "teach":3,
    "cocksucker":3,
    "elbow":3,
    "neck":3,
    "both":3,
    "aims":3,
    "bored":3,
    "vests":3,
    "hunting":3,
    "board":3,
    "pan":3,
    "foyer":3,
    "wrong":3,
    "briefcase":3,
    "upstairs":3,
    "stairs":3,
    "forward":3,
    "shooting":3,
    "married":4,
    "parents":4,
    "members":4,
    "fill":4,
    "moment":4,
    "stand":4,
    "corner":4,
    "cops":4,
    "past":4,
    "pain":4,
    "boys":4,
    "outside":4,
    "hard":4,
    "hits":4,
    "named":4,
    "throws":4,
    "tobys":4,
    "cooking":4,
    "sound":4,
    "watch":4,
    "stopped":4,
    "saying":4,
    "empty":4,
    "finds":4,
    "cry":4,
    "paper":4,
    "heads":4,
    "help":4,
    "anymore":4,
    "leave":4,
    "coming":4,
    "crowd":4,
    "thugs":4,
    "approaches":4,
    "love":4,
    "remember":4,
    "everyone":4,
    "yo":4,
    "talk":4,
    "news":4,
    "police":4,
    "kidnapped":4,
    "took":4,
    "drug":4,
    "care":4,
    "high":4,
    "box":4,
    "various":4,
    "important":4,
    "fight":4,
    "food":4,
    "holds":4,
    "scene":4,
    "hair":4,
    "everybody":4,
    "ow":4,
    "fucked":4,
    "finger":4,
    "aint":4,
    "woman":4,
    "crying":4,
    "children":4,
    "bushes":4,
    "everything":4,
    "heard":4,
    "known":4,
    "legs":4,
    "knives":4,
    "move":4,
    "brain":4,
    "movie":4,
    "stuff":4,
    "really":4,
    "point":4,
    "frame":4,
    "books":4,
    "shoot":4,
    "revealing":4,
    "steps":4,
    "recorder":4,
    "dark":4,
    "start":4,
    "old":4,
    "sign":4,
    "motherfucker":4,
    "thai":4,
    "pussy":4,
    "passenger":4,
    "kids":4,
    "stumbles":4,
    "without":4,
    "weapons":4,
    "cool":4,
    "windows":4,
    "uniform":4,
    "stay":4,
    "try":4,
    "call":4,
    "friends":4,
    "felkners":4,
    "couch":4,
    "moves":4,
    "heavy":4,
    "heroin":4,
    "shrieks":4,
    "id":4,
    "jerrys":4,
    "fired":4,
    "gas":4,
    "running":4,
    "kevlar":4,
    "blade":4,
    "learn":4,
    "until":4,
    "suvs":4,
    "super":5,
    "pretty":5,
    "before":5,
    "young":5,
    "tries":5,
    "laughing":5,
    "clothes":5,
    "brown":5,
    "gone":5,
    "shoots":5,
    "picks":5,
    "sir":5,
    "dude":5,
    "always":5,
    "saw":5,
    "left":5,
    "someone":5,
    "pet":5,
    "rabbits":5,
    "hear":5,
    "leg":5,
    "havent":5,
    "our":5,
    "arm":5,
    "isnt":5,
    "sort":5,
    "turn":5,
    "comes":5,
    "hell":5,
    "pushes":5,
    "sits":5,
    "sleep":5,
    "hears":5,
    "between":5,
    "top":5,
    "world":5,
    "sewing":5,
    "whos":5,
    "powers":5,
    "gives":5,
    "body":5,
    "whispers":5,
    "waits":5,
    "hold":5,
    "report":5,
    "euclid":5,
    "ave":5,
    "elroy":5,
    "stick":5,
    "bombs":5,
    "puts":5,
    "almost":5,
    "montage":5,
    "bomb":5,
    "supposed":5,
    "thug":5,
    "gonna":5,
    "kill":5,
    "keep":5,
    "find":5,
    "rude":5,
    "newscaster":5,
    "talking":5,
    "butt":5,
    "name":5,
    "throw":5,
    "grounds":5,
    "christian":5,
    "shot":5,
    "totally":5,
    "knife":5,
    "ranges":5,
    "perfect":6,
    "first":6,
    "darbo":6,
    "screen":6,
    "last":6,
    "store":6,
    "thanks":6,
    "which":6,
    "belt":6,
    "morning":6,
    "big":6,
    "should":6,
    "eggs":6,
    "us":6,
    "nothing":6,
    "own":6,
    "tears":6,
    "very":6,
    "three":6,
    "place":6,
    "yeah":6,
    "change":6,
    "bad":6,
    "ever":6,
    "drugs":6,
    "listen":6,
    "reads":6,
    "any":6,
    "makes":6,
    "demonswill":6,
    "words":6,
    "others":6,
    "pull":6,
    "getting":6,
    "home":6,
    "yourself":6,
    "show":6,
    "does":6,
    "another":6,
    "trying":6,
    "each":6,
    "under":6,
    "thought":6,
    "bin":6,
    "guess":6,
    "smoke":6,
    "drives":6,
    "seat":6,
    "stops":6,
    "packets":6,
    "sidekick":6,
    "needed":6,
    "long":7,
    "girl":7,
    "gate":7,
    "opens":7,
    "yes":7,
    "still":7,
    "than":7,
    "dog":7,
    "red":7,
    "missing":7,
    "walks":7,
    "things":7,
    "new":7,
    "better":7,
    "too":7,
    "jesus":7,
    "mind":7,
    "let":7,
    "shut":7,
    "am":7,
    "together":7,
    "wasnt":7,
    "different":7,
    "photo":7,
    "dealer":7,
    "while":7,
    "lead":7,
    "bag":7,
    "holding":7,
    "second":7,
    "theres":7,
    "gun":7,
    "ready":7,
    "ive":8,
    "large":8,
    "closet":8,
    "kind":8,
    "give":8,
    "uh":8,
    "superhero":8,
    "sorry":8,
    "say":8,
    "hamilton":8,
    "much":8,
    "happy":8,
    "will":8,
    "ones":8,
    "real":8,
    "stop":8,
    "open":8,
    "diner":8,
    "being":8,
    "flashback":8,
    "screams":8,
    "side":8,
    "guys":8,
    "watches":8,
    "inside":9,
    "bed":9,
    "floor":9,
    "work":9,
    "could":9,
    "stupid":9,
    "takes":9,
    "staring":9,
    "whats":9,
    "tv":9,
    "libbys":9,
    "onto":9,
    "runs":9,
    "life":10,
    "family":10,
    "couple":10,
    "ill":10,
    "hands":10,
    "shes":10,
    "shit":10,
    "jock":10,
    "sarahs":10,
    "said":10,
    "mike":10,
    "sometimes":10,
    "mean":10,
    "sure":10,
    "hand":10,
    "house":10,
    "suv":10,
    "against":10,
    "take":10,
    "crime":10,
    "nathaniel":10,
    "pipe":10,
    "falls":10,
    "jerry":10,
    "thing":11,
    "well":11,
    "nods":11,
    "way":11,
    "eyes":11,
    "sees":11,
    "wife":11,
    "starts":11,
    "more":11,
    "huh":11,
    "felkner":11,
    "wearing":11,
    "lot":11,
    "evil":11,
    "blood":11,
    "line":11,
    "wall":12,
    "doing":12,
    "good":12,
    "quill":12,
    "kid":12,
    "because":12,
    "avenger":12,
    "grabs":12,
    "please":12,
    "anything":12,
    "turns":12,
    "doesnt":13,
    "beside":13,
    "after":13,
    "himself":13,
    "these":13,
    "hey":13,
    "table":13,
    "across":13,
    "got":13,
    "make":13,
    "gets":13,
    "did":13,
    "range":13,
    "would":14,
    "those":14,
    "front":14,
    "holy":14,
    "tell":14,
    "even":14,
    "were":14,
    "didnt":14,
    "mask":14,
    "ranch":14,
    "when":15,
    "toby":15,
    "kitchen":15,
    "maybe":15,
    "where":15,
    "theyre":15,
    "men":15,
    "pulls":15,
    "or":15,
    "need":15,
    "by":16,
    "looking":16,
    "bedroom":16,
    "has":16,
    "street":16,
    "stares":17,
    "think":17,
    "an":17,
    "cant":17,
    "mr":17,
    "never":17,
    "going":17,
    "trash":17,
    "had":18,
    "two":18,
    "some":18,
    "face":18,
    "through":18,
    "again":18,
    "behind":19,
    "only":19,
    "room":19,
    "off":19,
    "ha":19,
    "their":19,
    "time":19,
    "moments":20,
    "come":20,
    "now":20,
    "away":20,
    "window":20,
    "boltie":20,
    "why":21,
    "costume":21,
    "guy":21,
    "little":21,
    "toward":21,
    "head":21,
    "door":23,
    "then":23,
    "been":23,
    "how":23,
    "fuck":23,
    "over":24,
    "hes":24,
    "okay":24,
    "other":25,
    "abe":25,
    "something":26,
    "go":26,
    "look":26,
    "later":27,
    "see":29,
    "fucking":29,
    "there":29,
    "oh":29,
    "youre":29,
    "want":29,
    "ext":30,
    "we":31,
    "who":31,
    "god":31,
    "car":31,
    "around":32,
    "night":32,
    "looks":33,
    "day":34,
    "about":34,
    "down":34,
    "them":35,
    "man":35,
    "can":35,
    "get":35,
    "thats":36,
    "be":36,
    "here":37,
    "so":37,
    "if":37,
    "one":37,
    "as":38,
    "people":38,
    "she":39,
    "not":39,
    "your":39,
    "right":40,
    "know":41,
    "into":43,
    "im":44,
    "libby":45,
    "from":47,
    "no":47,
    "was":48,
    "they":50,
    "dont":50,
    "do":50,
    "but":51,
    "like":51,
    "back":51,
    "franks":52,
    "int":52,
    "all":52,
    "jacques":54,
    "just":55,
    "have":58,
    "for":58,
    "its":61,
    "my":64,
    "out":65,
    "me":67,
    "up":69,
    "are":70,
    "this":80,
    "her":81,
    "what":82,
    "sarah":83,
    "with":85,
    "him":90,
    "that":97,
    "crimson":99,
    "bolt":102,
    "at":110,
    "it":112,
    "he":113,
    "on":115,
    "is":121,
    "his":134,
    "":142,
    "in":147,
    "of":169,
    "i":202,
    "you":225,
    "and":264,
    "to":267,
    "frank":274,
    "a":320,
    "the":646
}