{
    "jaaacckk":1,
    "jaaaccckjaaacccckkkkyyyyy":1,
    "sawyers":1,
    "blinks":1,
    "registering":1,
    "repsonds":1,
    "jackwhat":1,
    "picking":1,
    "respect":1,
    "curiosity":1,
    "private":1,
    "shuts":1,
    "pictures":1,
    "foreground":1,
    "hellosusie":1,
    "overhuhhuh":1,
    "ohdid":1,
    "somethingha":1,
    "nutshahah":1,
    "forgets":1,
    "strangeness":1,
    "hugs":1,
    "lovingly":1,
    "wanders":1,
    "warm":1,
    "inviting":1,
    "mementos":1,
    "earthy":1,
    "okre":1,
    "pumpkin":1,
    "browns":1,
    "snugly":1,
    "titles":1,
    "teachings":1,
    "secret":1,
    "schools":1,
    "arcane":1,
    "laws":1,
    "ages":1,
    "einsteins":1,
    "theory":1,
    "relativity":1,
    "tacked":1,
    "pristine":1,
    "unspoiled":1,
    "civilization":1,
    "bluethe":1,
    "shimmering":1,
    "indigothe":1,
    "sparkling":1,
    "orange":1,
    "red":1,
    "perfectly":1,
    "captivated":1,
    "quiver":1,
    "vibrate":1,
    "abruptly":1,
    "yffpskv":1,
    "earthquake":1,
    "thinkgo":1,
    "loving":1,
    "troubled":1,
    "gaze":1,
    "deeper":1,
    "understands":1,
    "closing":1,
    "voices":1,
    "chill":1,
    "curious":1,
    "apprehensive":1,
    "hints":1,
    "pleasenot":1,
    "c":1,
    "jf":1,
    "tuna":1,
    "fish":1,
    "counter":1,
    "sunbathing":1,
    "plays":1,
    "evocative":1,
    "period":1,
    "hiding":1,
    "whileis":1,
    "level":1,
    "missing":1,
    "beautif":1,
    "whatwhat":1,
    "whatoh":1,
    "godoh":1,
    "present":1,
    "manhattant":1,
    "gray":1,
    "boxes":1,
    "knapsack":1,
    "paperback":1,
    "kerouacs":1,
    "broncodialting":1,
    "manhattan":1,
    "foyer":1,
    "bhorror":1,
    "70s":1,
    "starring":1,
    "downing":1,
    "scotch":1,
    "albums":1,
    "sarcastic":1,
    "selfdeprecating":1,
    "hurts":1,
    "sexy":1,
    "siren":1,
    "tormented":1,
    "hunted":1,
    "coveted":1,
    "pallid":1,
    "trace":1,
    "anxiety":1,
    "mans":1,
    "whisper":1,
    "bigger":1,
    "problems":1,
    "crossed":1,
    "hides":1,
    "uneasiness":1,
    "statement":1,
    "wed":1,
    "relaxchrist":1,
    "sabbatical":1,
    "deali":1,
    "teacher":1,
    "indicates":1,
    "grimaces":1,
    "parties":1,
    "seriously":1,
    "reflection":1,
    "floating":1,
    "eeriely":1,
    "darkening":1,
    "jmffaf":1,
    "serve":1,
    "intravenous":1,
    "entrees":1,
    "menu":1,
    "curt":1,
    "approaches":1,
    "dialogue":1,
    "deadpan":1,
    "irony":1,
    "bar":1,
    "martini":1,
    "dry":1,
    "neat":1,
    "section":1,
    "equally":1,
    "irritated":1,
    "ashtray":1,
    "giggling":1,
    "remain":1,
    "teh":1,
    "ybv":1,
    "tvyou":1,
    "october":1,
    "beaches":1,
    "polluted":1,
    "bury":1,
    "seagulls":1,
    "channel":1,
    "25s":1,
    "week":1,
    "halloween":1,
    "babysitting":1,
    "killer":1,
    "delivering":1,
    "pizzas":1,
    "bronx":1,
    "correctly":1,
    "tehyou":1,
    "fanswhy":1,
    "kvetch":1,
    "tickle":1,
    "medication":1,
    "agoit":1,
    "winter":1,
    "picturing":1,
    "humping":1,
    "puffs":1,
    "cigarettethen":1,
    "till":1,
    "smelled":1,
    "likeburnt":1,
    "waiters":1,
    "salads":1,
    "weathervane":1,
    "projected":1,
    "alternately":1,
    "reappears":1,
    "magicians":1,
    "vanishing":1,
    "illusions":1,
    "cocktail":1,
    "softer":1,
    "calmer":1,
    "mi":1,
    "nuclear":1,
    "war":1,
    "aids":1,
    "pc":1,
    "theyn":1,
    "backjesuswhen":1,
    "yoi":1,
    "brea":1,
    "tooi":1,
    "belie":1,
    "size":1,
    "seniors":1,
    "aged":1,
    "college":1,
    "wha":1,
    "survive":1,
    "ecomomy":1,
    "mines":1,
    "athlet":1,
    "bald":1,
    "one11":1,
    "ohyou":1,
    "besides":1,
    "dating":1,
    "meyoure":1,
    "dame":1,
    "k":1,
    "grownup":1,
    "banquet":1,
    "motherinlaws":1,
    "cannibal":1,
    "ones":1,
    "gruesome":1,
    "conversation":1,
    "tablejack":1,
    "recites":1,
    "lines":1,
    "actors":1,
    "newlywedyou":1,
    "chops":1,
    "shouldve":1,
    "gotten":1,
    "goddman":1,
    "quiz":1,
    "blown":1,
    "deserves":1,
    "mutes":1,
    "difficulty":1,
    "becausebecause":1,
    "iveive":1,
    "unc":1,
    "hadhe":1,
    "education":1,
    "wellhes":1,
    "butsee":1,
    "isyour":1,
    "blow":1,
    "honeynow":1,
    "tommywell":1,
    "thursday":1,
    "andno":1,
    "inhales":1,
    "resting":1,
    "planned":1,
    "beforebut":1,
    "nowmaybe":1,
    "montana":1,
    "rutagbagas":1,
    "lots":1,
    "choices":1,
    "giving":1,
    "lacks":1,
    "dressed":1,
    "seizes":1,
    "doctors":1,
    "specialty":1,
    "chairs":1,
    "napping":1,
    "library":1,
    "mutters":1,
    "sweet":1,
    "elderly":1,
    "offers":1,
    "planning":1,
    "ohitssome":1,
    "medical":1,
    "gentleman":1,
    "meexcuse":1,
    "wondered":1,
    "whatononcology":1,
    "bewilderment":1,
    "sighs":1,
    "serveral":1,
    "blocks":1,
    "oceanhe":1,
    "shadow":1,
    "backlit":1,
    "hazy":1,
    "shadowman":1,
    "curiously":1,
    "recognition":1,
    "dropping":1,
    "swallowed":1,
    "waves":1,
    "ffsfti":1,
    "okoknot":1,
    "furtively":1,
    "skeletal":1,
    "abandoned":1,
    "barnlike":1,
    "spaces":1,
    "pinball":1,
    "machines":1,
    "surround":1,
    "fashioned":1,
    "respond":1,
    "hardbut":1,
    "feely":1,
    "reprimanded":1,
    "straightens":1,
    "challenge":1,
    "stings":1,
    "shoulders":1,
    "hereand":1,
    "needed":1,
    "cruising":1,
    "deserted":1,
    "roughly":1,
    "squat":1,
    "peers":1,
    "sigh":1,
    "relief":1,
    "whos":1,
    "fol":1,
    "telliill":1,
    "butyou":1,
    "nowok":1,
    "apprehensively":1,
    "thisphil":1,
    "vision":1,
    "believed":1,
    "oursmore":1,
    "andand":1,
    "andandimagine":1,
    "elselike":1,
    "hu":1,
    "va":1,
    "ittheres":1,
    "panel":1,
    "carouselcausing":1,
    "aro":1,
    "additional":1,
    "dabs":1,
    "fi":1,
    "hesitating":1,
    "carouse":1,
    "perfect":1,
    "trained":1,
    "circus":1,
    "animalshe":1,
    "amazed":1,
    "arebut":1,
    "extraordinaryly":1,
    "vivid":1,
    "normally":1,
    "blowing":1,
    "indigo":1,
    "meets":1,
    "faded":1,
    "derointhe":1,
    "horizonline":1,
    "shows":1,
    "unmistakable":1,
    "curve":1,
    "brown":1,
    "worksuit":1,
    "7p":1,
    "canvas":1,
    "cloth":1,
    "tan":1,
    "wearing":1,
    "shitwhat":1,
    "sshhh":1,
    "beachthey":1,
    "various":1,
    "kinds":1,
    "carnival":1,
    "performers":1,
    "practising":1,
    "crafts":1,
    "sights":1,
    "awe":1,
    "staggers":1,
    "breathing":1,
    "oksit":1,
    "downi11":1,
    "bamboo":1,
    "reed":1,
    "breathbut":1,
    "easily":1,
    "fooled":1,
    "cupping":1,
    "explains":1,
    "wellits":1,
    "inbut":1,
    "backhere":1,
    "hesitantly":1,
    "boiling":1,
    "pots":1,
    "preindustrial":1,
    "revolution":1,
    "skilled":1,
    "labor":1,
    "sandthen":1,
    "trade":1,
    "buthowhow":1,
    "unison":1,
    "asking":1,
    "andwellthe":1,
    "attommy":1,
    "shrugs":1,
    "cars":1,
    "factories":1,
    "farmer":1,
    "ironsmith":1,
    "heaven":1,
    "centuries":1,
    "philosopher":1,
    "scientist":1,
    "easiest":1,
    "knowit":1,
    "minds":1,
    "imaginations":1,
    "elsesome":1,
    "science":1,
    "created":1,
    "somebodys":1,
    "alive":1,
    "magiclikelike":1,
    "astonishment":1,
    "worldcan":1,
    "affect":1,
    "soso":1,
    "parts":1,
    "ruinedbad":1,
    "breathsick":1,
    "fault":1,
    "anywaygreed":1,
    "ambition":1,
    "especially":1,
    "serpent":1,
    "enwtined":1,
    "pole":1,
    "piercing":1,
    "circlebut":1,
    "shocking":1,
    "innsonly":1,
    "twisted":1,
    "subservient":1,
    "role":1,
    "presense":1,
    "republic":1,
    "birth":1,
    "ow":1,
    "limits":1,
    "quieting":1,
    "disturbing":1,
    "occasion":1,
    "harm":1,
    "sincerely":1,
    "beg":1,
    "pardon":1,
    "drags":1,
    "keen":1,
    "shack":1,
    "severe":1,
    "believeme":1,
    "orrisactually":1,
    "exceptshit":1,
    "s0":1,
    "doubles":1,
    "twinners":1,
    "less":1,
    "didand":1,
    "maiahes":1,
    "chief":1,
    "executor":1,
    "closest":1,
    "allyand":1,
    "enemy":1,
    "homethey":1,
    "diedsame":1,
    "procession":1,
    "files":1,
    "band":1,
    "musical":1,
    "accompaninment":1,
    "maiacome":1,
    "join":1,
    "multicolored":1,
    "chaasey":1,
    "village":1,
    "myjishe":1,
    "bow":1,
    "heights":1,
    "adults":1,
    "realize":1,
    "maias":1,
    "overwhelmed":1,
    "faints":1,
    "glimpse":1,
    "elation":1,
    "fearshe":1,
    "murmuring":1,
    "jasonjasonjason":1,
    "attracts":1,
    "lady":1,
    "calms":1,
    "maiait":1,
    "magicbut":1,
    "worshipped":1,
    "allowed":1,
    "estate":1,
    "company":1,
    "jiref":1,
    "nonow":1,
    "meno":1,
    "andmorgan":1,
    "stealing":1,
    "value":1,
    "inland":1,
    "differentmorgans":1,
    "arranges":1,
    "intact":1,
    "anbody":1,
    "faith":1,
    "refuses":1,
    "landgets":1,
    "exiting":1,
    "mile":1,
    "times":1,
    "thejack":1,
    "minute":1,
    "momand":1,
    "fairy":1,
    "tale":1,
    "messiah":1,
    "comingthey":1,
    "born":1,
    "flesh":1,
    "otherfrom":1,
    "reminded":1,
    "diedjack":1,
    "note":1,
    "written":1,
    "thingsdont":1,
    "infant":1,
    "suffocated":1,
    "reels":1,
    "prevent":1,
    "prohecy":1,
    "sse":1,
    "momshell":1,
    "justbelieve":1,
    "jackyou":1,
    "situation":1,
    "extended":1,
    "accepts":1,
    "packs":1,
    "boyits":1,
    "spoke":1,
    "hasnt":1,
    "drag":1,
    "early":1,
    "staying":1,
    "jackjack":1,
    "jolly":1,
    "demeanor":1,
    "driver":1,
    "mint":1,
    "wrapper":1,
    "jackwho":1,
    "nobodythey":1,
    "uhwanted":1,
    "covertly":1,
    "receiver":1,
    "screw":1,
    "lunchill":1,
    "kisses":1,
    "tenderly":1,
    "uncomfortable":1,
    "rideseven":1,
    "walknever":1,
    "careful":1,
    "rearview":1,
    "srv":1,
    "gains":1,
    "rear":1,
    "floors":1,
    "pedal":1,
    "herself":1,
    "expressive":1,
    "nonoyougotta":1,
    "rate":1,
    "speeding":1,
    "tommyyou":1,
    "nnnoooooooooooooooooooooo":1,
    "honda":1,
    "smashing":1,
    "entirely":1,
    "pushing":1,
    "somersaulting":1,
    "explosion":1,
    "tumbling":1,
    "dolly":1,
    "telli":1,
    "hahah":1,
    "hahawolf":1,
    "youwolf":1,
    "shakin":1,
    "wolfthats":1,
    "mewolf":1,
    "jacknice":1,
    "heyheyget":1,
    "sprint":1,
    "sheep":1,
    "breed":1,
    "equivalent":1,
    "uses":1,
    "carry":1,
    "backhe":1,
    "jobprotect":1,
    "vtfiwfr":1,
    "interrupt":1,
    "knowprotecting":1,
    "meati":1,
    "itmmm":1,
    "fearing":1,
    "rsn":1,
    "grabbed":1,
    "playfully":1,
    "okif":1,
    "insistthis":1,
    "finejack":1,
    "wolfok":1,
    "amidst":1,
    "crowd":1,
    "teaming":1,
    "roasted":1,
    "meats":1,
    "traders":1,
    "beautifully":1,
    "woven":1,
    "baskets":1,
    "dealers":1,
    "sacks":1,
    "sizechildren":1,
    "attend":1,
    "merchant":1,
    "mainflow":1,
    "crosses":1,
    "cotton":1,
    "wool":1,
    "irritates":1,
    "jointed":1,
    "happenedi":1,
    "handing":1,
    "thoroughly":1,
    "astall":1,
    "intently":1,
    "shrunken":1,
    "scale":1,
    "studies":1,
    "carefully":1,
    "milky":1,
    "faced":1,
    "suits":1,
    "canes":1,
    "belts":1,
    "flanked":1,
    "resemble":1,
    "hitler":1,
    "ducks":1,
    "action":1,
    "signalling":1,
    "halt":1,
    "immediate":1,
    "dismounts":1,
    "manner":1,
    "sadistic":1,
    "fascistic":1,
    "speechless":1,
    "expresses":1,
    "confusion":1,
    "peeks":1,
    "pushes":1,
    "children":1,
    "harmi":1,
    "merely":1,
    "scolded":1,
    "severely":1,
    "evenosmond":1,
    "retrieve":1,
    "texts":1,
    "possible":1,
    "offer":1,
    "knowledge":1,
    "posseses":1,
    "mmmm":1,
    "inthen":1,
    "mounts":1,
    "jagged":1,
    "brillant":1,
    "steel":1,
    "blink":1,
    "plunges":1,
    "disgust":1,
    "uniformed":1,
    "copies":1,
    "trampled":1,
    "relish":1,
    "destroy":1,
    "markplace":1,
    "oversees":1,
    "destruction":1,
    "rides":1,
    "marketplacebegining":1,
    "jason":1,
    "acting":1,
    "instinct":1,
    "handful":1,
    "throws":1,
    "rears":1,
    "tossing":1,
    "osmonds":1,
    "injuring":1,
    "group":1,
    "safely":1,
    "shielded":1,
    "eerily":1,
    "increasing":1,
    "dim":1,
    "fall":1,
    "petrified":1,
    "intensity":1,
    "nightmarish":1,
    "slomo":1,
    "although":1,
    "similarity":1,
    "ends":1,
    "sleek":1,
    "flies":1,
    "sculpted":1,
    "jaw":1,
    "pearls":1,
    "cape":1,
    "jt0":1,
    "pour":1,
    "quickkly":1,
    "retrieves":1,
    "applies":1,
    "fingertip":1,
    "temple":1,
    "eyesand":1,
    "beaming":1,
    "bearing":1,
    "fiddling":1,
    "heavy":1,
    "downpour":1,
    "begun":1,
    "neon":1,
    "barren":1,
    "situated":1,
    "uhmymother":1,
    "usshe":1,
    "pickpockets":1,
    "\u00bb":1,
    "tonight":1,
    "stuffi":1,
    "tickets":1,
    "resignedly":1,
    "innocently":1,
    "service":1,
    "kidscome":1,
    "consist":1,
    "whining":1,
    "reprimand":1,
    "longing":1,
    "partof":1,
    "problemshe":1,
    "terribly":1,
    "lonely":1,
    "collect":1,
    "youlily":1,
    "yesget":1,
    "momis":1,
    "sayi":1,
    "oatleywhere":1,
    "christ":1,
    "itif":1,
    "forcefully":1,
    "conviction":1,
    "maturity":1,
    "approach":1,
    "dadwhat":1,
    "lived":1,
    "youever":1,
    "orortalk":1,
    "kidall":1,
    "wasya":1,
    "24":1,
    "momi":1,
    "nervous":1,
    "st":1,
    "nonoi":1,
    "mommom":1,
    "sink":1,
    "xpn":1,
    "youbut":1,
    "nonsense":1,
    "legend":1,
    "wasting":1,
    "timeyou":1,
    "youstay":1,
    "mothmorgan":1,
    "cuts":1,
    "barely":1,
    "threateningly":1,
    "ourselves":1,
    "dial":1,
    "shaky":1,
    "fsn":1,
    "political":1,
    "independent":1,
    "hopeful":1,
    "denied":1,
    "charges":1,
    "active":1,
    "kkk":1,
    "earlier":1,
    "reported":1,
    "clan":1,
    "member":1,
    "19671985":1,
    "rumbled":1,
    "replaced":1,
    "stormed":1,
    "weird":1,
    "travelled":1,
    "stood":1,
    "shelter":1,
    "previous":1,
    "tidings":1,
    "princes":1,
    "thee":1,
    "thy":1,
    "task":1,
    "loveand":1,
    "journey":1,
    "kings":1,
    "events":1,
    "wellit":1,
    "runaway":1,
    "yeahwell":1,
    "midnight":1,
    "calling":1,
    "sweetheartsweetheart":1,
    "timefrancis":1,
    "upquickly":1,
    "wakes":1,
    "jolt":1,
    "waking":1,
    "hurrying":1,
    "creep":1,
    "cynthia":1,
    "warton":1,
    "spilled":1,
    "gutsshe":1,
    "spills":1,
    "upi":1,
    "ohohwhat":1,
    "officer":1,
    "painted":1,
    "iffljs":1,
    "jed":1,
    "againopen":1,
    "franitc":1,
    "vase":1,
    "barge":1,
    "foundthe":1,
    "messy":1,
    "dresser":1,
    "pops":1,
    "coast":1,
    "clearhe":1,
    "poking":1,
    "scrambles":1,
    "scampers":1,
    "broom":1,
    "poke":1,
    "shis":1,
    "checking":1,
    "drawers":1,
    "fifteen":1,
    "dollars":1,
    "backside":1,
    "flashlight":1,
    "dreamily":1,
    "replaying":1,
    "exhausted":1,
    "fallen":1,
    "spending":1,
    "beneatha":1,
    "pillow":1,
    "parallel":1,
    "licking":1,
    "facejack":1,
    "nails":1,
    "fore":1,
    "bite":1,
    "upright":1,
    "familar":1,
    "wolfcrossing":1,
    "daintily":1,
    "blocking":1,
    "aintcha":1,
    "itwolfgood":1,
    "pumping":1,
    "slot":1,
    "i1":1,
    "yai":1,
    "ooooyou":1,
    "yflsv":1,
    "groceries":1,
    "protests":1,
    "noreally":1,
    "showered":1,
    "wold":1,
    "dumps":1,
    "sinks":1,
    "resurfaces":1,
    "panting":1,
    "ways":1,
    "swims":1,
    "joined":1,
    "absolutely":1,
    "breeze":1,
    "wow":1,
    "latter":1,
    "cares":1,
    "believes":1,
    "initiaion":1,
    "visited":1,
    "spirit":1,
    "guide":1,
    "mighty":1,
    "divine":1,
    "suniight":1,
    "badthat":1,
    "mining":1,
    "flippin":1,
    "reports":1,
    "nowait":1,
    "minutehow":1,
    "talked":1,
    "brought":1,
    "shook":1,
    "couldhe":1,
    "overalls":1,
    "oshkoshbygosh":1,
    "wearem":1,
    "timehe":1,
    "yougod":1,
    "itget":1,
    "absorb":1,
    "coaxes":1,
    "fold":1,
    "hahahahanothey":1,
    "theyou":1,
    "awkwardly":1,
    "touching":1,
    "refrains":1,
    "belongs":1,
    "skies":1,
    "cattiesthats":1,
    "allsays":1,
    "readbut":1,
    "guides":1,
    "isand":1,
    "flee":1,
    "fills":1,
    "changeback":1,
    "selves":1,
    "dayswe":1,
    "meanyoure":1,
    "oflike":1,
    "werewolf":1,
    "yep":1,
    "megod":1,
    "hahaha":1,
    "strange":1,
    "butif":1,
    "subject":1,
    "bookmaybe":1,
    "inches":1,
    "remind":1,
    "liked":1,
    "ssshhhh":1,
    "sensitive":1,
    "began":1,
    "clot":1,
    "sounded":1,
    "effect":1,
    "bedsheet":1,
    "blistering":1,
    "seeming":1,
    "twist":1,
    "wound":1,
    "struggling":1,
    "lift":1,
    "panicked":1,
    "floats":1,
    "limped":1,
    "mangled":1,
    "lazily":1,
    "joins":1,
    "comingweve":1,
    "gottawolf":1,
    "clap":1,
    "jaaaack":1,
    "seam":1,
    "shudders":1,
    "fascination":1,
    "hole":1,
    "universes":1,
    "swimming":1,
    "plastic":1,
    "clutching":1,
    "undergoes":1,
    "transformation":1,
    "droopy":1,
    "jowls":1,
    "thinning":1,
    "taunt":1,
    "needy":1,
    "selfdeluded":1,
    "concentrated":1,
    "weather":1,
    "parka":1,
    "changing":1,
    "cloak":1,
    "hood":1,
    "tipped":1,
    "stumbles":1,
    "waving":1,
    "trample":1,
    "sizzling":1,
    "noooooo":1,
    "hitting":1,
    "trunk":1,
    "bob":1,
    "surface":1,
    "weeds":1,
    "slopes":1,
    "nolonger":1,
    "vantage":1,
    "gallops":1,
    "wolfjust":1,
    "slope":1,
    "towering":1,
    "painwolf":1,
    "touches":1,
    "caught":1,
    "tips":1,
    "continuing":1,
    "fluid":1,
    "n0000":1,
    "roll":1,
    "divider":1,
    "resulted":1,
    "ours":1,
    "muddy":1,
    "sideand":1,
    "oncoming":1,
    "element":1,
    "thisdont":1,
    "pleasedont":1,
    "wolfdo":1,
    "sadly":1,
    "involved":1,
    "wonti":1,
    "zooms":1,
    "j0s":1,
    "curdled":1,
    "newspapers":1,
    "sweetly":1,
    "slowing":1,
    "sleeping":1,
    "edge":1,
    "mail":1,
    "loading":1,
    "packages":1,
    "list":1,
    "dates":1,
    "diagrams":1,
    "shape":1,
    "diagram":1,
    "30":1,
    "thens":1,
    "yesterdays":1,
    "bought":1,
    "paperit":1,
    "27":1,
    "wolfand":1,
    "i1haveuh":1,
    "fights":1,
    "theytl":1,
    "owlitte":1,
    "potato":1,
    "sack":1,
    "knocking":1,
    "platform":1,
    "throat":1,
    "gleem":1,
    "nostop":1,
    "heywhat":1,
    "runjumping":1,
    "backend":1,
    "ofthe":1,
    "developed":1,
    "ford":1,
    "slows":1,
    "reluctantly":1,
    "sickly":1,
    "ashen":1,
    "wheel":1,
    "spite":1,
    "hop":1,
    "wolfget":1,
    "stare":1,
    "thefloor":1,
    "pleasewe":1,
    "outout":1,
    "draining":1,
    "disease":1,
    "hopeless":1,
    "insideits":1,
    "part":1,
    "surrendering":1,
    "futility":1,
    "jackplease":1,
    "frustrated":1,
    "youcome":1,
    "pats":1,
    "adjusts":1,
    "backjack":1,
    "adjust":1,
    "nonehe":1,
    "dreading":1,
    "roomjack":1,
    "runback":1,
    "backwards":1,
    "prairie":1,
    "hurdles":1,
    "yfp":1,
    "yougo":1,
    "leaps":1,
    "sickness":1,
    "sflv":1,
    "medicinewe":1,
    "watertheres":1,
    "farm":1,
    "sneak":1,
    "youjack":1,
    "beer":1,
    "mixing":1,
    "beercan":1,
    "hating":1,
    "stinks":1,
    "terrirtories":1,
    "ragweed":1,
    "poison":1,
    "oak":1,
    "herethere":1,
    "weak":1,
    "onceclean":1,
    "hairs":1,
    "palms":1,
    "tohave":1,
    "placeyou":1,
    "wellwe11":1,
    "hardware":1,
    "terrible":1,
    "distress":1,
    "drinks":1,
    "spin":1,
    "hefeels":1,
    "slipping":1,
    "worldthe":1,
    "waver":1,
    "locki":1,
    "perimeter":1,
    "blazing":1,
    "lsd":1,
    "altered":1,
    "consciousness":1,
    "exultant":1,
    "woolf":1,
    "ha":1,
    "acts":1,
    "charged":1,
    "lower":1,
    "okim":1,
    "shedremember":1,
    "holdlets":1,
    "shitless":1,
    "nowrong":1,
    "doorhe":1,
    "imjure":1,
    "herdwolfright":1,
    "plenty":1,
    "jackthen":1,
    "rightlets":1,
    "fervently":1,
    "yn":1,
    "padlock":1,
    "oksee":1,
    "uhi":1,
    "guessslip":1,
    "heretheres":1,
    "ijust":1,
    "nosit":1,
    "y":1,
    "secoi":1,
    "meditative":1,
    "faintly":1,
    "se":1,
    "ng":1,
    "si":1,
    "trance":1,
    "co":1,
    "iguess":1,
    "resists":1,
    "harder":1,
    "darkened":1,
    "doinc":1,
    "fist":1,
    "hunt":1,
    "wolfd":1,
    "flattened":1,
    "angrywolf":1,
    "nowsosoon":1,
    "grunting":1,
    "groaning":1,
    "utter":1,
    "aaah":1,
    "earsplitting":1,
    "signifies":1,
    "departure":1,
    "series":1,
    "settles":1,
    "glowinthe":1,
    "numbered":1,
    "disgusted":1,
    "rabbit":1,
    "31":1,
    "occupy":1,
    "stated":1,
    "daleville":1,
    "indiana":1,
    "traces":1,
    "coloradohe":1,
    "waited":1,
    "release":1,
    "remarks":1,
    "helping":1,
    "tellin":1,
    "daadddlet":1,
    "nonstop":1,
    "althought":1,
    "rapidly":1,
    "losing":1,
    "energy":1,
    "delirious":1,
    "hunger":1,
    "thirst":1,
    "rap":1,
    "tonite":1,
    "bitedont":1,
    "spoon":1,
    "lips":1,
    "parched":1,
    "soaked":1,
    "rapping":1,
    "sleepuntil":1,
    "scary":1,
    "wobbly":1,
    "husky":1,
    "animimalistic":1,
    "pounds":1,
    "proprotect":1,
    "shivering":1,
    "fearheertestdbe":1,
    "tne":1,
    "sternly":1,
    "wolfisdamned":1,
    "incessantly":1,
    "v":1,
    "tremendous":1,
    "scurries":1,
    "1":1,
    "pushed":1,
    "ev":1,
    "self":1,
    "kicks":1,
    "0foy":1,
    "bitch":1,
    "jackits":1,
    "overyou":1,
    "uncontrollably":1,
    "wheeler":1,
    "illinos":1,
    "roadside":1,
    "favor":1,
    "strongi":1,
    "wellwhy":1,
    "attack":1,
    "behaving":1,
    "hopefully":1,
    "dread":1,
    "shitits":1,
    "nonothat11":1,
    "tellem":1,
    "lane":1,
    "imposing":1,
    "sunglasses":1,
    "uhnot":1,
    "reallyuhwere":1,
    "uhwe":1,
    "hitchikin":1,
    "law":1,
    "wethat":1,
    "ismy":1,
    "cousin":1,
    "kicked":1,
    "account":1,
    "policman":1,
    "rightcome":1,
    "thisnot":1,
    "dowhat":1,
    "sickupchucks":1,
    "tffffcv":1,
    "surpriser":1,
    "understandbut":1,
    "frightens":1,
    "cayuga":1,
    "municipal":1,
    "judges":1,
    "mass":1,
    "wrinkles":1,
    "dyed":1,
    "stale":1,
    "pratically":1,
    "ishelen":1,
    "eotarou":1,
    "m":1,
    "p":1,
    "mindedyou":1,
    "com":1,
    "nobut":1,
    "usually":1,
    "roads":1,
    "targets":1,
    "county":1,
    "unusual":1,
    "facility":1,
    "approved":1,
    "funded":1,
    "benfit":1,
    "scripture":1,
    "wayward":1,
    "famous":1,
    "tough":1,
    "cases":1,
    "regular":1,
    "miracle":1,
    "selfless":1,
    "dedicated":1,
    "couple":1,
    "rev":1,
    "repay":1,
    "giftwhat":1,
    "finders":1,
    "fee":1,
    "urgent":1,
    "doubt":1,
    "contact":1,
    "thishelen":1,
    "sixteen":1,
    "r":1,
    "franky":1,
    "farmland":1,
    "brick":1,
    "buildings":1,
    "topped":1,
    "barbed":1,
    "shards":1,
    "monitor":1,
    "rapped":1,
    "tightly":1,
    "tools":1,
    "newcomers":1,
    "parks":1,
    "militaristic":1,
    "porch":1,
    "haughty":1,
    "mastiffs":1,
    "wear":1,
    "trangular":1,
    "tag":1,
    "wellwhere":1,
    "efforts":1,
    "officers":1,
    "williams":1,
    "jennings":1,
    "usual":1,
    "vagrants":1,
    "foundem":1,
    "hitchin":1,
    "94":1,
    "refused":1,
    "namesnamesand":1,
    "imjackjack":1,
    "youwhat":1,
    "philipphilip":1,
    "ahwell":1,
    "sunglight":1,
    "special":1,
    "outfitted":1,
    "led":1,
    "wellim":1,
    "exchange":1,
    "glances":1,
    "relieved":1,
    "wards":1,
    "thirty":1,
    "longer":1,
    "sixty":1,
    "percent":1,
    "voluntarily":1,
    "ranking":1,
    "wooden":1,
    "bibles":1,
    "bunkmates":1,
    "fieldwork":1,
    "seven":1,
    "plus":1,
    "bible":1,
    "readings":1,
    "paid":1,
    "hourly":1,
    "wage":1,
    "cost":1,
    "boarding":1,
    "fifty":1,
    "cents":1,
    "sundays":1,
    "spent":1,
    "gospel":1,
    "meandered":1,
    "foursome":1,
    "personal":1,
    "possessions":1,
    "tend":1,
    "tie":1,
    "destructive":1,
    "helpful":1,
    "tool":1,
    "employ":1,
    "strip":1,
    "necessary":1,
    "cornered":1,
    "uhyeah":1,
    "itsits":1,
    "wellperhaps":1,
    "protective":1,
    "response":1,
    "dummys":1,
    "searched":1,
    "morons":1,
    "bust":1,
    "stones":1,
    "sonny":1,
    "furious":1,
    "foolish":1,
    "shuffle":1,
    "steaming":1,
    "grown":1,
    "simply":1,
    "memories":1,
    "hatred":1,
    "dawn":1,
    "notebook":1,
    "yfps":1,
    "bell":1,
    "corner":1,
    "ceiling":1,
    "loudly":1,
    "500":1,
    "paces":1,
    "dull":1,
    "bars":1,
    "adjacent":1,
    "yelling":1,
    "ringing":1,
    "somebody":1,
    "mindwill":1,
    "sinners":1,
    "sight":1,
    "glares":1,
    "anticipation":1,
    "dozen":1,
    "hector":1,
    "thanking":1,
    "important":1,
    "bodies":1,
    "best":1,
    "nourishment":1,
    "impressed":1,
    "eager":1,
    "confess":1,
    "hoping":1,
    "gawky":1,
    "pimply":1,
    "teenager":1,
    "owderfelt":1,
    "bucks":1,
    "mommas":1,
    "heat":1,
    "pneumonia":1,
    "forgiven":1,
    "0k":1,
    "begotten":1,
    "entrances":1,
    "guarded":1,
    "goons":1,
    "confessing":1,
    "smelling":1,
    "drawn":1,
    "smacking":1,
    "wolfie":1,
    "ontry":1,
    "dummy":1,
    "heres":1,
    "jogging":1,
    "f0":1,
    "eva":1,
    "adolph":1,
    "dickbrain":1,
    "mistake":1,
    "intimidated":1,
    "asshole":1,
    "coward":1,
    "insolence":1,
    "amongst":1,
    "clearing":1,
    "hauling":1,
    "breaking":1,
    "shovels":1,
    "lookout":1,
    "fences":1,
    "electronic":1,
    "cameras":1,
    "spots":1,
    "warick":1,
    "cellar":1,
    "velvet":1,
    "trimmed":1,
    "glassedin":1,
    "techinical":1,
    "manned":1,
    "casey1":1,
    "serves":1,
    "backdrop":1,
    "file":1,
    "seats":1,
    "adorned":1,
    "humble":1,
    "prophet":1,
    "smock":1,
    "podium":1,
    "fret":1,
    "thyself":1,
    "neither":1,
    "thou":1,
    "envious":1,
    "wither":1,
    "herbfor":1,
    "inherit":1,
    "growing":1,
    "apprehension":1,
    "lovely":1,
    "37":1,
    "negative":1,
    "perspiration":1,
    "sin":1,
    "everythingg":1,
    "cool":1,
    "naw":1,
    "toke":1,
    "joint":1,
    "sissy":1,
    "j0fc":1,
    "teaching":1,
    "makesem":1,
    "madwe":1,
    "scaarred":1,
    "spies":1,
    "plant":1,
    "garbage":1,
    "counters":1,
    "cockroaches":1,
    "flour":1,
    "vile":1,
    "rumors":1,
    "sent":1,
    "reporters":1,
    "hatchet":1,
    "outsmartedem":1,
    "chained":1,
    "confined":1,
    "strait":1,
    "shaved":1,
    "board":1,
    "jackals":1,
    "testify":1,
    "throne":1,
    "lie":1,
    "detector":1,
    "spare":1,
    "spoil":1,
    "gimme":1,
    "hallelujah":1,
    "protects":1,
    "dope":1,
    "tattletaled":1,
    "socalled":1,
    "spreadem":1,
    "technological":1,
    "device":1,
    "fact":1,
    "eaten":1,
    "beasts":1,
    "bows":1,
    "royal":1,
    "perks":1,
    "recalling":1,
    "mumurs":1,
    "memorizing":1,
    "fascinium":1,
    "arrived":1,
    "deliver":1,
    "anybody":1,
    "paraphenalia":1,
    "tempted":1,
    "bookcases":1,
    "latinenglish":1,
    "trepidation":1,
    "larger":1,
    "folio":1,
    "edition":1,
    "english":1,
    "attempts":1,
    "shelf":1,
    "freeze":1,
    "framed":1,
    "problem":1,
    "course":1,
    "plans":1,
    "anxiously":1,
    "return":1,
    "whip":1,
    "carries":1,
    "wolfplease":1,
    "eventually":1,
    "outta":1,
    "i110":1,
    "y0\u2122":1,
    "goal":1,
    "singers":1,
    "remark":1,
    "collar":1,
    "nearest":1,
    "beeline":1,
    "squeeze":1,
    "intefere":1,
    "reenters":1,
    "syringe":1,
    "henchman":1,
    "scares":1,
    "appendage":1,
    "struggles":1,
    "stabs":1,
    "hypo":1,
    "weaken":1,
    "drug":1,
    "hhooooooooowwllllllll":1,
    "dragged":1,
    "noooooooo":1,
    "wounds":1,
    "awakened":1,
    "throbbing":1,
    "occasional":1,
    "growl":1,
    "jff":1,
    "cone":1,
    "thinkingtell":1,
    "flares":1,
    "sweeps":1,
    "followed":1,
    "slam":1,
    "jackim":1,
    "eases":1,
    "awfulweakened":1,
    "diminished":1,
    "helps":1,
    "changeswolf":1,
    "noits":1,
    "madi":1,
    "themselves":1,
    "medicinewell":1,
    "flipping":1,
    "okbut":1,
    "remeber":1,
    "dyshes":1,
    "sssshh":1,
    "lays":1,
    "rainy":1,
    "sunless":1,
    "lugging":1,
    "wonderful":1,
    "share":1,
    "fucking":1,
    "staunch":1,
    "faithful":1,
    "democratic":1,
    "americans":1,
    "purification":1,
    "revitalization":1,
    "states":1,
    "nominee":1,
    "ardent":1,
    "supporters":1,
    "fundraising":1,
    "benefit":1,
    "honor":1,
    "monday":1,
    "evening":1,
    "therefore":1,
    "california":1,
    "intrigued":1,
    "mention":1,
    "addition":1,
    "guest":1,
    "stopping":1,
    "benevolent":1,
    "generous":1,
    "largest":1,
    "fundraiser":1,
    "sioat":1,
    "track":1,
    "battle":1,
    "ignorance":1,
    "deceit":1,
    "crusaders":1,
    "yore":1,
    "finished":1,
    "socking":1,
    "ot":1,
    "chooses":1,
    "nowtomorrow":1,
    "toilet":1,
    "imaginationlets":1,
    "andlets":1,
    "dojack":1,
    "okwant":1,
    "dadi":1,
    "tip":1,
    "juicein":1,
    "rubbing":1,
    "jackas":1,
    "images":1,
    "float":1,
    "screetv":1,
    "reminding":1,
    "imaginative":1,
    "ability":1,
    "territory":1,
    "magicits":1,
    "makebelieve":1,
    "realim":1,
    "spinning":1,
    "tile":1,
    "working":1,
    "territoriesi":1,
    "smellcut":1,
    "horrified":1,
    "potted":1,
    "nucleur":1,
    "bomb":1,
    "mountains":1,
    "forces":1,
    "mined":1,
    "craters":1,
    "crawl":1,
    "glowing":1,
    "barrels":1,
    "moved":1,
    "team":1,
    "ominous":1,
    "blackened":1,
    "tags":1,
    "horrific":1,
    "due":1,
    "nature":1,
    "deformed":1,
    "blisters":1,
    "miamed":1,
    "egological":1,
    "diaster":1,
    "wolfwe":1,
    "theyve":1,
    "toilets":1,
    "welcomeframeboys":1,
    "devils":1,
    "hypodermic":1,
    "needles":1,
    "refreshed":1,
    "neednt":1,
    "bother":1,
    "didntkill":1,
    "contrary":1,
    "valuable":1,
    "soldier":1,
    "directed":1,
    "confuse":1,
    "astrayor":1,
    "perhaps":1,
    "easier":1,
    "eliminate":1,
    "admiration":1,
    "deny":1,
    "loudspeakers":1,
    "receivers":1,
    "assignment":1,
    "conceived":1,
    "scenario":1,
    "attempt":1,
    "remained":1,
    "appear":1,
    "untying":1,
    "shortly":1,
    "tonights":1,
    "wejack":1,
    "pressed":1,
    "interrogation":1,
    "realization":1,
    "yfi\u00ae":1,
    "throw":1,
    "bone":1,
    "chagrined":1,
    "hasty":1,
    "warn":1,
    "hunches":1,
    "stories":1,
    "eyed":1,
    "flicks":1,
    "underneath":1,
    "blends":1,
    "signals":1,
    "pass":1,
    "jfn":1,
    "escaped":1,
    "istell":1,
    "focus":1,
    "eyesight":1,
    "brighten":1,
    "scumbag":1,
    "shithead":1,
    "reprimands":1,
    "gohe":1,
    "hardly":1,
    "considers":1,
    "bluffing":1,
    "bluff":1,
    "consider":1,
    "jsn":1,
    "slamming":1,
    "hesitation":1,
    "dumbsinger":1,
    "petulant":1,
    "lungs":1,
    "hmmmi":1,
    "gut":1,
    "lyinggardener":1,
    "bookscases":1,
    "dimly":1,
    "illuminates":1,
    "bats":1,
    "clubs":1,
    "shithe":1,
    "backyard":1,
    "weapons":1,
    "illuminated":1,
    "warwickgo":1,
    "fuck":1,
    "bat":1,
    "othey":1,
    "thump":1,
    "thrown":1,
    "emerges":1,
    "covered":1,
    "bloodied":1,
    "indistinguishable":1,
    "monster":1,
    "retribution":1,
    "studiosound":1,
    "investigate":1,
    "opened":1,
    "a0f":1,
    "keys":1,
    "heyhey":1,
    "whatsstop":1,
    "deal":1,
    "lunges":1,
    "throatwith":1,
    "\u2014":1,
    "raised":1,
    "horror":1,
    "smack":1,
    "fasciniumamulet":1,
    "penes":1,
    "definition":1,
    "possession":1,
    "clue":1,
    "ideahe":1,
    "tied":1,
    "securingly":1,
    "firmly":1,
    "whatopen":1,
    "ongardener":1,
    "|fp5\u00abn":1,
    "nonoooooo":1,
    "falling":1,
    "streaming":1,
    "thrhough":1,
    "victorian":1,
    "semidarkness":1,
    "closerhe":1,
    "unlock":1,
    "killing":1,
    "rupture":1,
    "houseour":1,
    "flinging":1,
    "drawer":1,
    "orders":1,
    "matters":1,
    "shield":1,
    "staircase":1,
    "descends":1,
    "enter":1,
    "yflr\u00a3gv":1,
    "pointed":1,
    "winces":1,
    "secure":1,
    "interrogates":1,
    "this11":1,
    "smke":1,
    "bombs":1,
    "guns":1,
    "elevated":1,
    "eyeview":1,
    "reverenddid":1,
    "dir":1,
    "explodes":1,
    "leaping":1,
    "punching":1,
    "aim":1,
    "misses":1,
    "struggle":1,
    "crunch":1,
    "bitten":1,
    "bites":1,
    "agony":1,
    "hind":1,
    "wipes":1,
    "altar":1,
    "golden":1,
    "smattering":1,
    "fly":1,
    "crucifixion":1,
    "pose":1,
    "madness":1,
    "cradles":1,
    "seenjack":1,
    "onget":1,
    "here1":1,
    "climbs":1,
    "escape":1,
    "sirens":1,
    "shootdid":1,
    "i1keptmyherdsafe":1,
    "didyou":1,
    "goodgood":1,
    "nonot":1,
    "wolfdoesnt":1,
    "smellssmells":1,
    "listeni":1,
    "ideawe":1,
    "wolfright":1,
    "handlike":1,
    "aloneplease":1,
    "14":1,
    "checked":1,
    "punches":1,
    "terminal":1,
    "transferred":1,
    "tenthirty":1,
    "scoots":1,
    "newspaper":1,
    "headline":1,
    "slain":1,
    "bizarre":1,
    "ritual":1,
    "killingsin":1,
    "sources":1,
    "claim":1,
    "withdraw":1,
    "details":1,
    "revealed":1,
    "childi":1,
    "particular":1,
    "shoving":1,
    "china":1,
    "frames":1,
    "linenuntil":1,
    "marked":1,
    "artifacts":1,
    "childhood":1,
    "rubber":1,
    "etchasketch":1,
    "notebooks":1,
    "baseball":1,
    "cards":1,
    "narrow":1,
    "item":1,
    "wrapped":1,
    "scribbled":1,
    "childs":1,
    "handwriting":1,
    "daddys":1,
    "unwraps":1,
    "history":1,
    "experienced":1,
    "warehouse":1,
    "rundown":1,
    "marquee":1,
    "double":1,
    "rows":1,
    "visible":1,
    "baby":1,
    "months":1,
    "tss":1,
    "mountainous":1,
    "plateau":1,
    "mountain":1,
    "realizing":1,
    "showing":1,
    "row":1,
    "whatcha":1,
    "backing":1,
    "ho":1,
    "fighting":1,
    "handas":1,
    "gradually":1,
    "releasing":1,
    "mouthing":1,
    "themdont":1,
    "tightens":1,
    "transform":1,
    "fantasy":1,
    "nnoooooooooooooaaaaahhhhh":1,
    "jellify":1,
    "liquifying":1,
    "amorphous":1,
    "transparent":1,
    "vielhe":1,
    "million":1,
    "pieces":1,
    "rumbles":1,
    "atop":1,
    "grand":1,
    "tetons":1,
    "healed":1,
    "ignites":1,
    "pavillioneastern":1,
    "attendents":1,
    "praying":1,
    "gulp":1,
    "arises":1,
    "hooked":1,
    "oxygen":1,
    "tents":1,
    "pulled":1,
    "mask":1,
    "joy":1,
    "jfm":1,
    "freshman":1,
    "oni11":1,
    "cleaned":1,
    "ushers":1,
    "bedroom":2,
    "dream":2,
    "ready":2,
    "doin":2,
    "remote":2,
    "lined":2,
    "swear":2,
    "felt":2,
    "sudden":2,
    "appearance":2,
    "releases":2,
    "wonders":2,
    "soft":2,
    "leather":2,
    "sides":2,
    "physics":2,
    "imagine":2,
    "surreal":2,
    "bright":2,
    "rich":2,
    "holographic":2,
    "starting":2,
    "utters":2,
    "meaning":2,
    "forgot":2,
    "whispering":2,
    "tone":2,
    "telling":2,
    "shake":2,
    "taxi":2,
    "sandwich":2,
    "eating":2,
    "bg":2,
    "torso":2,
    "yard":2,
    "slides":2,
    "hello":2,
    "kiddo":2,
    "midsection":2,
    "daddy":2,
    "jump":2,
    "apartment":2,
    "reveal":2,
    "copy":2,
    "posters":2,
    "cavanaugh":2,
    "slips":2,
    "senses":2,
    "pack":2,
    "encino":2,
    "junk":2,
    "given":2,
    "bones":2,
    "message":2,
    "forever":2,
    "listening":2,
    "turned":2,
    "report":2,
    "lap":2,
    "drive":2,
    "drunk":2,
    "sarcastically":2,
    "hates":2,
    "leans":2,
    "else":2,
    "dirty":2,
    "wet":2,
    "crack":2,
    "broke":2,
    "live":2,
    "vacation":2,
    "relax":2,
    "hang":2,
    "kept":2,
    "slice":2,
    "biggest":2,
    "disturbed":2,
    "nomination":2,
    "softly":2,
    "wanting":2,
    "silhouette":2,
    "galloping":2,
    "steed":2,
    "moonlight":2,
    "mirror":2,
    "trick":2,
    "create":2,
    "breathes":2,
    "chain":2,
    "having":2,
    "ending":2,
    "nazis":2,
    "age":2,
    "practically":2,
    "married":2,
    "uneasy":2,
    "push":2,
    "o":2,
    "squeezes":2,
    "ugh":2,
    "actor":2,
    "engaged":2,
    "eerie":2,
    "nerves":2,
    "lamb":2,
    "quit":2,
    "plan":2,
    "trusted":2,
    "gathers":2,
    "courage":2,
    "anxious":2,
    "glare":2,
    "imim":2,
    "grow":2,
    "wouldnt":2,
    "meant":2,
    "complete":2,
    "saying":2,
    "cold":2,
    "ran":2,
    "entrance":2,
    "funhouse":2,
    "structure":2,
    "held":2,
    "video":2,
    "center":2,
    "grows":2,
    "pause":2,
    "dangerous":2,
    "elseand":2,
    "lead":2,
    "low":2,
    "momentary":2,
    "explain":2,
    "smarter":2,
    "able":2,
    "daydream":2,
    "wild":2,
    "parked":2,
    "spot":2,
    "nose":2,
    "control":2,
    "protection":2,
    "rubs":2,
    "beyond":2,
    "miles":2,
    "sea":2,
    "grass":2,
    "breaths":2,
    "clearer":2,
    "horizon":2,
    "color":2,
    "faint":2,
    "changed":2,
    "drab":2,
    "uniform":2,
    "flipped":2,
    "butwhat":2,
    "passing":2,
    "step":2,
    "heavily":2,
    "dizzy":2,
    "quite":2,
    "washes":2,
    "brings":2,
    "flinches":2,
    "okits":2,
    "sips":2,
    "amazement":2,
    "huts":2,
    "machinery":2,
    "robes":2,
    "worker":2,
    "skill":2,
    "proud":2,
    "worlds":2,
    "gods":2,
    "played":2,
    "worldthere":2,
    "connected":2,
    "shocked":2,
    "crest":2,
    "smacks":2,
    "quiet":2,
    "area":2,
    "butthe":2,
    "wanted":2,
    "knocks":2,
    "beating":2,
    "distance":2,
    "surrounded":2,
    "blocked":2,
    "reverently":2,
    "revealing":2,
    "stays":2,
    "mine":2,
    "west":2,
    "prison":2,
    "parking":2,
    "lot":2,
    "smaller":2,
    "understood":2,
    "became":2,
    "childish":2,
    "charm":2,
    "truth":2,
    "asthma":2,
    "prepared":2,
    "chance":2,
    "sense":2,
    "danger":2,
    "calmly":2,
    "crazy":2,
    "pauses":2,
    "yells":2,
    "named":2,
    "hook":2,
    "quickens":2,
    "pace":2,
    "mostly":2,
    "intercut":2,
    "bumps":2,
    "speeds":2,
    "alongside":2,
    "rams":2,
    "shell":2,
    "smashes":2,
    "sad":2,
    "incredible":2,
    "uturn":2,
    "headon":2,
    "collision":2,
    "fades":2,
    "yellow":2,
    "meadow":2,
    "together":2,
    "rolling":2,
    "hills":2,
    "foward":2,
    "tower":2,
    "odd":2,
    "keeps":2,
    "cannot":2,
    "friends":2,
    "whatever":2,
    "nice":2,
    "errant":2,
    "works":2,
    "uh":2,
    "resist":2,
    "limp":2,
    "rag":2,
    "doll":2,
    "activity":2,
    "sell":2,
    "blankets":2,
    "selling":2,
    "sticks":2,
    "dollar":2,
    "snake":2,
    "attached":2,
    "leader":2,
    "four":2,
    "responds":2,
    "form":2,
    "forbidden":2,
    "expressly":2,
    "dear":2,
    "life":2,
    "whom":2,
    "keeping":2,
    "crimminal":2,
    "forward":2,
    "brink":2,
    "cane":2,
    "transforms":2,
    "tear":2,
    "pure":2,
    "dirt":2,
    "fling":2,
    "stone":2,
    "volume":2,
    "deafening":2,
    "covers":2,
    "kneels":2,
    "discover":2,
    "none":2,
    "muscular":2,
    "wears":2,
    "stretch":2,
    "pans":2,
    "backseat":2,
    "feeling":2,
    "struck":2,
    "tin":2,
    "oately":2,
    "isolated":2,
    "wad":2,
    "suspicious":2,
    "purse":2,
    "distracted":2,
    "motel":2,
    "someplace":2,
    "havent":2,
    "click":2,
    "presidential":2,
    "dennis":2,
    "lightening":2,
    "hidden":2,
    "send":2,
    "recording":2,
    "myself":2,
    "midst":2,
    "loud":2,
    "propably":2,
    "thatll":2,
    "unlocks":2,
    "n":2,
    "ditch":2,
    "pounding":2,
    "towers":2,
    "bath":2,
    "swim":2,
    "animal":2,
    "excited":2,
    "during":2,
    "filius":2,
    "regis":2,
    "twenty":2,
    "unto":2,
    "indeed":2,
    "skimming":2,
    "information":2,
    "laughing":2,
    "drink":2,
    "eats":2,
    "worries":2,
    "teach":2,
    "glad":2,
    "ripping":2,
    "patch":2,
    "rippling":2,
    "knees":2,
    "river":2,
    "neck":2,
    "silvery":2,
    "object":2,
    "burn":2,
    "directly":2,
    "sets":2,
    "fires":2,
    "free":2,
    "remaining":2,
    "crash":2,
    "trucks":2,
    "railway":2,
    "jammed":2,
    "factory":2,
    "badly":2,
    "ohio":2,
    "stirs":2,
    "crawls":2,
    "skims":2,
    "gaining":2,
    "passenger":2,
    "momentarily":2,
    "thanks":2,
    "stopped":2,
    "healthy":2,
    "daze":2,
    "happy":2,
    "swings":2,
    "likes":2,
    "doorway":2,
    "whose":2,
    "unshaven":2,
    "bursts":2,
    "roots":2,
    "charred":2,
    "stronger":2,
    "fears":2,
    "landscape":2,
    "everytime":2,
    "talks":2,
    "become":2,
    "cautiously":2,
    "jacky":2,
    "locks":2,
    "damned":2,
    "slip":2,
    "foot":2,
    "lit":2,
    "j":2,
    "putting":2,
    "pounded":2,
    "checks":2,
    "united":2,
    "currently":2,
    "companion":2,
    "frustration":2,
    "making":2,
    "tears":2,
    "silence":2,
    "force":2,
    "hinges":2,
    "interstate":2,
    "policemen":2,
    "establishing":2,
    "fairchild":2,
    "vaughn":2,
    "issue":2,
    "television":2,
    "fellows":2,
    "pretty":2,
    "wondering":2,
    "amen":2,
    "barred":2,
    "wire":2,
    "foreboding":2,
    "stiff":2,
    "turtlenecks":2,
    "hmmmm":2,
    "bold":2,
    "actually":2,
    "gentlemen":2,
    "rooms":2,
    "grabbing":2,
    "adds":2,
    "cupboard":2,
    "breakfast":2,
    "noon":2,
    "colored":2,
    "jackass":2,
    "cell":2,
    "today":2,
    "bottom":2,
    "language":2,
    "terror":2,
    "slap":2,
    "confessions":2,
    "prayer":2,
    "almighty":2,
    "0":2,
    "raise":2,
    "roy":2,
    "momma":2,
    "bill":2,
    "charge":2,
    "memory":2,
    "grounds":2,
    "studio":2,
    "stage":2,
    "flock":2,
    "inequity":2,
    "pslam":2,
    "picture":2,
    "cause":2,
    "enemies":2,
    "twice":2,
    "tried":2,
    "makeem":2,
    "letem":2,
    "radical":2,
    "humanists":2,
    "spanked":2,
    "fed":2,
    "fancy":2,
    "imagery":2,
    "pray":2,
    "phrase":2,
    "passage":2,
    "storms":2,
    "six":2,
    "painful":2,
    "anyway":2,
    "hed":2,
    "supporter":2,
    "keynote":2,
    "los":2,
    "angeles":2,
    "nights":2,
    "proceed":2,
    "continue":2,
    "opening":2,
    "dug":2,
    "radioactive":2,
    "energies":2,
    "sawyer":2,
    "plane":2,
    "milk":2,
    "ball":2,
    "mouth":2,
    "disappear":2,
    "thumping":2,
    "shutup":2,
    "property":2,
    "stomach":2,
    "human":2,
    "cleaver":2,
    "twords":2,
    "upstairs":2,
    "frantically":2,
    "impact":2,
    "werent":2,
    "airport":2,
    "flight":2,
    "attendent":2,
    "seat":2,
    "paper":2,
    "glimmering":2,
    "aisle":2,
    "writes":2,
    "nurses":2,
    "staring":3,
    "w":3,
    "tremor":3,
    "york":3,
    "dads":3,
    "finish":3,
    "gold":3,
    "filled":3,
    "colors":3,
    "couch":3,
    "bookshelves":3,
    "lay":3,
    "photograph":3,
    "sand":3,
    "round":3,
    "slightly":3,
    "j0":3,
    "surprise":3,
    "afraid":3,
    "toy":3,
    "also":3,
    "whispers":3,
    "u":3,
    "stool":3,
    "radio":3,
    "song":3,
    "hi":3,
    "watching":3,
    "crying":3,
    "drops":3,
    "waits":3,
    "twilight":3,
    "packed":3,
    "bring":3,
    "living":3,
    "coat":3,
    "la":3,
    "lives":3,
    "eighteen":3,
    "rest":3,
    "others":3,
    "queen":3,
    "prescription":3,
    "tosses":3,
    "easy":3,
    "point":3,
    "wonder":3,
    "smoking":3,
    "\u201e":3,
    "whole":3,
    "looked":3,
    "ass":3,
    "came":3,
    "stuff":3,
    "used":3,
    "job":3,
    "wrong":3,
    "bills":3,
    "marry":3,
    "girl":3,
    "die":3,
    "lucky":3,
    "thin":3,
    "jesus":3,
    "break":3,
    "wheres":3,
    "reason":3,
    "future":3,
    "exactly":3,
    "angles":3,
    "fast":3,
    "quietly":3,
    "lobby":3,
    "reading":3,
    "town":3,
    "doctor":3,
    "excuse":3,
    "shock":3,
    "read":3,
    "view":3,
    "breaks":3,
    "slow":3,
    "louder":3,
    "jacket":3,
    "arcadia":3,
    "funworld":3,
    "games":3,
    "carousel":3,
    "anymore":3,
    "meet":3,
    "worst":3,
    "ive":3,
    "turning":3,
    "driving":3,
    "arent":3,
    "sometimes":3,
    "rub":3,
    "apart":3,
    "meanwhile":3,
    "pov":3,
    "scans":3,
    "clear":3,
    "tented":3,
    "clothes":3,
    "piece":3,
    "kind":3,
    "holy":3,
    "happened":3,
    "reeling":3,
    "searches":3,
    "villages":3,
    "tubes":3,
    "direction":3,
    "nuts":3,
    "unless":3,
    "started":3,
    "somehow":3,
    "animals":3,
    "person":3,
    "act":3,
    "weve":3,
    "respects":3,
    "visit":3,
    "completely":3,
    "hard":3,
    "everybody":3,
    "uniforms":3,
    "guards":3,
    "strikes":3,
    "familiar":3,
    "registers":3,
    "suspiciously":3,
    "speak":3,
    "begining":3,
    "forcing":3,
    "searching":3,
    "forth":3,
    "destiny":3,
    "blank":3,
    "spake":3,
    "king":3,
    "lose":3,
    "knowing":3,
    "candy":3,
    "em":3,
    "tired":3,
    "gas":3,
    "faces":3,
    "welcome":3,
    "birds":3,
    "stranger":3,
    "jolted":3,
    "rather":3,
    "thinks":3,
    "hungry":3,
    "marketplace":3,
    "past":3,
    "huge":3,
    "every":3,
    "parents":3,
    "thank":3,
    "buy":3,
    "thunder":3,
    "sword":3,
    "saw":3,
    "rumbling":3,
    "beside":3,
    "source":3,
    "roar":3,
    "shoots":3,
    "seeing":3,
    "bus":3,
    "trust":3,
    "t":3,
    "thinking":3,
    "kills":3,
    "paralyzed":3,
    "hearing":3,
    "speaking":3,
    "bathroom":3,
    "flying":3,
    "brother":3,
    "lover":3,
    "policeman":3,
    "freezes":3,
    "returning":3,
    "d":3,
    "using":3,
    "bank":3,
    "drinking":3,
    "met":3,
    "l":3,
    "went":3,
    "wrote":3,
    "wanna":3,
    "sir":3,
    "rocks":3,
    "shit":3,
    "stupid":3,
    "asked":3,
    "stole":3,
    "remembering":3,
    "bends":3,
    "known":3,
    "death":3,
    "sort":3,
    "bit":3,
    "rough":3,
    "hill":3,
    "causes":3,
    "manages":3,
    "leading":3,
    "tracks":3,
    "terrified":3,
    "wolfi":3,
    "border":3,
    "date":3,
    "oct":3,
    "frame":3,
    "hells":3,
    "nearly":3,
    "angrily":3,
    "growling":3,
    "dog":3,
    "stick":3,
    "shouldnt":3,
    "burned":3,
    "store":3,
    "howl":3,
    "wolfwolf":3,
    "remembered":3,
    "injure":3,
    "happens":3,
    "becoming":3,
    "bangs":3,
    "howls":3,
    "kansas":3,
    "hitching":3,
    "ride":3,
    "building":3,
    "judge":3,
    "souls":3,
    "gate":3,
    "afternoon":3,
    "decide":3,
    "hospital":3,
    "enraged":3,
    "smart":3,
    "news":3,
    "torn":3,
    "speaker":3,
    "ticket":3,
    "burnt":3,
    "atlas":3,
    "hallway":3,
    "grip":3,
    "house":4,
    "heads":4,
    "plants":4,
    "disappears":4,
    "rings":4,
    "gently":4,
    "huh":4,
    "play":4,
    "write":4,
    "wall":4,
    "beneath":4,
    "giant":4,
    "photo":4,
    "continues":4,
    "knob":4,
    "angry":4,
    "lies":4,
    "upset":4,
    "panics":4,
    "listens":4,
    "gone":4,
    "hangs":4,
    "twelve":4,
    "remembers":4,
    "quick":4,
    "hit":4,
    "movies":4,
    "mood":4,
    "lilys":4,
    "image":4,
    "evil":4,
    "different":4,
    "older":4,
    "bag":4,
    "recognize":4,
    "susie":4,
    "such":4,
    "mothers":4,
    "dinner":4,
    "gives":4,
    "straight":4,
    "tells":4,
    "serious":4,
    "smile":4,
    "nazi":4,
    "wants":4,
    "business":4,
    "question":4,
    "appears":4,
    "awakens":4,
    "wind":4,
    "spins":4,
    "high":4,
    "kids":4,
    "supposed":4,
    "years":4,
    "tight":4,
    "blood":4,
    "papers":4,
    "nobody":4,
    "bet":4,
    "opportunity":4,
    "everyone":4,
    "forget":4,
    "lowers":4,
    "loses":4,
    "figure":4,
    "standing":4,
    "somewhere":4,
    "dying":4,
    "strong":4,
    "alot":4,
    "phil":4,
    "forgive":4,
    "simple":4,
    "many":4,
    "damn":4,
    "barn":4,
    "liquid":4,
    "forehead":4,
    "circle":4,
    "lighter":4,
    "made":4,
    "material":4,
    "priests":4,
    "took":4,
    "except":4,
    "wasnt":4,
    "powerful":4,
    "official":4,
    "happen":4,
    "idiot":4,
    "fit":4,
    "safe":4,
    "matter":4,
    "done":4,
    "guy":4,
    "leads":4,
    "waiting":4,
    "land":4,
    "further":4,
    "cover":4,
    "five":4,
    "died":4,
    "country":4,
    "promise":4,
    "suitcase":4,
    "yours":4,
    "hitch":4,
    "theyll":4,
    "itll":4,
    "green":4,
    "finally":4,
    "wide":4,
    "grab":4,
    "pulling":4,
    "bunch":4,
    "maps":4,
    "map":4,
    "pale":4,
    "youths":4,
    "young":4,
    "carrying":4,
    "names":4,
    "fury":4,
    "shaking":4,
    "bridge":4,
    "light":4,
    "ears":4,
    "diligence":4,
    "tunnel":4,
    "limosine":4,
    "leaving":4,
    "errand":4,
    "hour":4,
    "bastard":4,
    "within":4,
    "heart":4,
    "shut":4,
    "flings":4,
    "anger":4,
    "awake":4,
    "lost":4,
    "expression":4,
    "couldnt":4,
    "cattle":4,
    "protect":4,
    "points":4,
    "screaming":4,
    "truck":4,
    "overpass":4,
    "late":4,
    "howling":4,
    "shot":4,
    "teeth":4,
    "backs":4,
    "locked":4,
    "arrive":4,
    "sweat":4,
    "sounds":4,
    "springfield":4,
    "smoke":4,
    "h":4,
    "motions":4,
    "bunk":4,
    "thesaurus":4,
    "shoot":4,
    "basts":4,
    "evildoers":4,
    "basement":4,
    "oregon":4,
    "check":4,
    "theatre":4,
    "screen":4,
    "drives":5,
    "cab":5,
    "table":5,
    "passes":5,
    "calls":5,
    "guys":5,
    "walls":5,
    "itself":5,
    "own":5,
    "realizes":5,
    "kitchen":5,
    "playing":5,
    "returns":5,
    "instead":5,
    "jackie":5,
    "family":5,
    "seems":5,
    "beaten":5,
    "hall":5,
    "pills":5,
    "answer":5,
    "lets":5,
    "gave":5,
    "hate":5,
    "half":5,
    "sleep":5,
    "worried":5,
    "waiter":5,
    "id":5,
    "dining":5,
    "beat":5,
    "coughing":5,
    "cigarette":5,
    "asks":5,
    "use":5,
    "already":5,
    "cancer":5,
    "nightmare":5,
    "pay":5,
    "aside":5,
    "anyone":5,
    "tomorrow":5,
    "show":5,
    "facing":5,
    "word":5,
    "state":5,
    "inns":5,
    "true":5,
    "interest":5,
    "main":5,
    "street":5,
    "between":5,
    "close":5,
    "banging":5,
    "start":5,
    "someone":5,
    "trying":5,
    "hurry":5,
    "deep":5,
    "clean":5,
    "shoes":5,
    "walking":5,
    "catch":5,
    "imagination":5,
    "catches":5,
    "may":5,
    "travelling":5,
    "writing":5,
    "cross":5,
    "happening":5,
    "hope":5,
    "speed":5,
    "places":5,
    "closer":5,
    "fields":5,
    "heading":5,
    "market":5,
    "stalls":5,
    "shoulder":5,
    "tree":5,
    "flips":5,
    "keep":5,
    "innkeeper":5,
    "ten":5,
    "broadcast":5,
    "aint":5,
    "broken":5,
    "screams":5,
    "rod":5,
    "trouble":5,
    "s":5,
    "page":5,
    "master":5,
    "mad":5,
    "woodshed":5,
    "calm":5,
    "collapses":5,
    "lifts":5,
    "e":5,
    "pews":5,
    "latin":5,
    "rage":5,
    "corridor":6,
    "nowhere":6,
    "remains":6,
    "rushes":6,
    "opposite":6,
    "chair":6,
    "angle":6,
    "sick":6,
    "decides":6,
    "legs":6,
    "pain":6,
    "towards":6,
    "follow":6,
    "year":6,
    "either":6,
    "stand":6,
    "story":6,
    "skin":6,
    "bottle":6,
    "machine":6,
    "real":6,
    "told":6,
    "taking":6,
    "maybe":6,
    "lights":6,
    "always":6,
    "smiles":6,
    "cry":6,
    "startled":6,
    "few":6,
    "f":6,
    "fine":6,
    "set":6,
    "taken":6,
    "tommys":6,
    "strength":6,
    "morning":6,
    "clerk":6,
    "confused":6,
    "shore":6,
    "though":6,
    "windows":6,
    "gotta":6,
    "scared":6,
    "wish":6,
    "ahead":6,
    "tall":6,
    "fresh":6,
    "workers":6,
    "earth":6,
    "lying":6,
    "laura":6,
    "alone":6,
    "killed":6,
    "pages":6,
    "juice":6,
    "stall":6,
    "while":6,
    "cries":6,
    "shirt":6,
    "fade":6,
    "near":6,
    "horse":6,
    "friend":6,
    "search":6,
    "falls":6,
    "trees":6,
    "oatley":6,
    "sloat":6,
    "inn":6,
    "shall":6,
    "steps":6,
    "growls":6,
    "iron":6,
    "gun":6,
    "warwick":6,
    "henchmen":6,
    "gardeners":6,
    "lunch":7,
    "scream":7,
    "across":7,
    "hey":7,
    "small":7,
    "line":7,
    "magic":7,
    "sun":7,
    "glass":7,
    "yet":7,
    "hears":7,
    "puts":7,
    "pocket":7,
    "ya":7,
    "talk":7,
    "leaves":7,
    "idea":7,
    "highway":7,
    "must":7,
    "yourself":7,
    "wait":7,
    "since":7,
    "aunt":7,
    "blue":7,
    "much":7,
    "wont":7,
    "asleep":7,
    "several":7,
    "dictionary":7,
    "hits":7,
    "rises":7,
    "without":7,
    "guess":7,
    "save":7,
    "scene":7,
    "pavillion":7,
    "morgans":7,
    "orris":7,
    "attention":7,
    "running":7,
    "medicine":7,
    "immediately":7,
    "son":7,
    "exit":7,
    "farming":7,
    "stop":7,
    "tully":7,
    "kill":7,
    "field":7,
    "large":7,
    "bang":7,
    "chapel":7,
    "pockets":7,
    "keggins":7,
    "lord":7,
    "stay":8,
    "new":8,
    "arms":8,
    "nods":8,
    "pick":8,
    "sitting":8,
    "feels":8,
    "closes":8,
    "end":8,
    "full":8,
    "storage":8,
    "entire":8,
    "along":8,
    "follows":8,
    "mind":8,
    "outside":8,
    "middle":8,
    "theres":8,
    "enough":8,
    "raises":8,
    "sign":8,
    "change":8,
    "woman":8,
    "once":8,
    "dark":8,
    "means":8,
    "horses":8,
    "found":8,
    "begin":8,
    "breath":8,
    "theyre":8,
    "air":8,
    "food":8,
    "blanket":8,
    "maia":8,
    "holding":8,
    "frightened":8,
    "cowsheep":8,
    "osmond":8,
    "darkness":8,
    "upon":8,
    "blasted":8,
    "pull":8,
    "holds":8,
    "arm":8,
    "dormitory":8,
    "casey":8,
    "fathers":9,
    "makes":9,
    "feel":9,
    "turn":9,
    "beautiful":9,
    "top":9,
    "notices":9,
    "ii":9,
    "later":9,
    "help":9,
    "called":9,
    "hell":9,
    "second":9,
    "care":9,
    "hurt":9,
    "ground":9,
    "hair":9,
    "soon":9,
    "seen":9,
    "still":9,
    "goes":9,
    "quickly":9,
    "smells":9,
    "finger":9,
    "above":9,
    "ocean":9,
    "salt":9,
    "talking":9,
    "under":9,
    "worse":9,
    "twinner":9,
    "three":9,
    "lands":9,
    "toward":9,
    "power":9,
    "days":9,
    "eat":9,
    "feet":9,
    "parker":9,
    "any":10,
    "moving":10,
    "watches":10,
    "pen":10,
    "books":10,
    "sky":10,
    "jumps":10,
    "left":10,
    "enters":10,
    "inhaler":10,
    "movie":10,
    "love":10,
    "comes":10,
    "doing":10,
    "youll":10,
    "money":10,
    "shakes":10,
    "reads":10,
    "stares":10,
    "far":10,
    "isnt":10,
    "vial":10,
    "flip":10,
    "each":10,
    "onto":10,
    "key":10,
    "lock":10,
    "reverend":10,
    "mr":10,
    "study":11,
    "empty":11,
    "eye":11,
    "doors":11,
    "both":11,
    "clearly":11,
    "anything":11,
    "need":11,
    "worry":11,
    "dead":11,
    "ask":11,
    "really":11,
    "shes":11,
    "should":11,
    "work":11,
    "home":11,
    "finds":11,
    "alhambra":11,
    "leave":11,
    "fire":11,
    "whats":11,
    "next":11,
    "talisman":11,
    "police":11,
    "station":11,
    "hold":11,
    "shed":11,
    "booth":11,
    "cu":12,
    "yeah":12,
    "desk":12,
    "most":12,
    "ever":12,
    "reaches":12,
    "being":12,
    "am":12,
    "said":12,
    "bed":12,
    "thing":12,
    "tv":12,
    "give":12,
    "sorry":12,
    "could":12,
    "thought":12,
    "better":12,
    "prince":12,
    "might":12,
    "please":12,
    "pound":12,
    "forest":12,
    "changes":12,
    "floor":12,
    "phone":13,
    "open":13,
    "speaks":13,
    "big":13,
    "words":13,
    "understand":13,
    "walk":13,
    "voice":13,
    "mean":13,
    "men":13,
    "had":13,
    "kid":13,
    "hotel":13,
    "moment":13,
    "stands":13,
    "first":13,
    "yes":13,
    "van":13,
    "listen":13,
    "fear":13,
    "office":13,
    "stream":13,
    "until":13,
    "moon":13,
    "call":14,
    "coming":14,
    "sits":14,
    "beach":14,
    "than":14,
    "exits":14,
    "road":14,
    "long":14,
    "those":14,
    "didnt":14,
    "tries":14,
    "getting":14,
    "youve":14,
    "great":14,
    "us":14,
    "looking":14,
    "believe":14,
    "say":14,
    "even":14,
    "opens":14,
    "name":14,
    "knew":14,
    "try":14,
    "everything":15,
    "almost":15,
    "inside":15,
    "gets":15,
    "front":15,
    "watch":15,
    "things":15,
    "move":15,
    "white":15,
    "box":15,
    "train":15,
    "last":16,
    "another":16,
    "find":16,
    "body":16,
    "run":16,
    "heard":16,
    "window":16,
    "very":16,
    "world":16,
    "after":16,
    "nothing":17,
    "let":17,
    "does":17,
    "put":17,
    "hands":17,
    "knows":17,
    "child":17,
    "mother":18,
    "way":18,
    "os":18,
    "camera":18,
    "side":18,
    "himself":18,
    "sure":18,
    "these":18,
    "runs":19,
    "moves":19,
    "again":19,
    "picks":19,
    "mom":19,
    "grabs":19,
    "place":19,
    "gonna":19,
    "never":19,
    "sound":19,
    "sunlight":19,
    "slowly":20,
    "hear":20,
    "too":20,
    "against":20,
    "walks":20,
    "says":20,
    "why":20,
    "dad":21,
    "because":21,
    "oh":21,
    "boy":21,
    "tell":21,
    "would":21,
    "stops":22,
    "doesnt":22,
    "god":22,
    "school":22,
    "make":22,
    "remember":22,
    "territories":22,
    "water":23,
    "suddenly":23,
    "which":23,
    "something":23,
    "think":23,
    "take":23,
    "thats":23,
    "more":23,
    "bast":23,
    "want":24,
    "ok":24,
    "black":24,
    "car":24,
    "smell":24,
    "father":25,
    "little":25,
    "takes":25,
    "only":26,
    "behind":26,
    "same":26,
    "old":26,
    "bad":26,
    "before":26,
    "wolfs":26,
    "turns":27,
    "come":27,
    "will":27,
    "did":27,
    "herd":27,
    "ill":28,
    "off":28,
    "pulls":28,
    "our":29,
    "singer":29,
    "around":30,
    "uncle":30,
    "starts":30,
    "how":30,
    "hand":30,
    "eyes":31,
    "their":31,
    "look":31,
    "sees":31,
    "face":31,
    "boys":31,
    "where":32,
    "book":32,
    "youre":32,
    "cant":32,
    "hes":32,
    "been":32,
    "or":33,
    "begins":33,
    "man":33,
    "were":33,
    "people":34,
    "two":34,
    "through":34,
    "lily":36,
    "away":38,
    "got":38,
    "night":38,
    "them":39,
    "ext":39,
    "going":39,
    "good":39,
    "head":39,
    "who":40,
    "well":41,
    "other":42,
    "int":45,
    "time":45,
    "some":45,
    "so":46,
    "has":46,
    "morgan":47,
    "room":48,
    "see":48,
    "into":49,
    "jacks":49,
    "an":49,
    "she":50,
    "tommy":52,
    "over":52,
    "day":53,
    "then":53,
    "im":53,
    "my":53,
    "now":53,
    "about":53,
    "one":55,
    "right":56,
    "when":56,
    "go":58,
    "down":59,
    "there":59,
    "looks":61,
    "get":62,
    "if":64,
    "gardener":64,
    "its":65,
    "just":66,
    "door":67,
    "do":70,
    "her":70,
    "not":71,
    "was":72,
    "all":74,
    "here":75,
    "can":75,
    "like":75,
    "know":75,
    "they":75,
    "by":76,
    "your":82,
    "be":82,
    "at":83,
    "no":85,
    "back":88,
    "cut":90,
    "have":91,
    "we":94,
    "dont":99,
    "from":100,
    "me":100,
    "this":113,
    "up":116,
    "what":121,
    "out":129,
    "are":133,
    "but":134,
    "for":141,
    "that":147,
    "him":152,
    "with":165,
    "as":174,
    "on":202,
    "it":228,
    "wolf":234,
    "":269,
    "in":292,
    "i":293,
    "his":303,
    "is":315,
    "of":355,
    "you":394,
    "jack":417,
    "he":440,
    "a":472,
    "and":545,
    "to":665,
    "the":1333
}