{
    "shortest":1,
    "longest":1,
    "divide":1,
    "privileged":1,
    "promotional":1,
    "unanimous":1,
    "declaring":1,
    "extraordinary":1,
    "21yearold":1,
    "immigrant":1,
    "gods":1,
    "naturally":1,
    "gifted":1,
    "generation":1,
    "cars":1,
    "festival":1,
    "britain":1,
    "flags":1,
    "flying":1,
    "pasted":1,
    "facade":1,
    "monochrome":1,
    "publicity":1,
    "blowups":1,
    "lean":1,
    "byronic":1,
    "plastered":1,
    "diagonally":1,
    "posters":1,
    "banners":1,
    "\u201cinternational":1,
    "730":1,
    "pm":1,
    "november":1,
    "3rd":1,
    "smaller":1,
    "overplastered":1,
    "\u201csold":1,
    "only\u201d":1,
    "touts":1,
    "priced":1,
    "tickets":1,
    "control":1,
    "bobbies":1,
    "glistening":1,
    "capes":1,
    "phalanx":1,
    "damp":1,
    "press":1,
    "photographers":1,
    "st":1,
    "john\u2019s":1,
    "ambulance":1,
    "crew":1,
    "standby":1,
    "limousines":1,
    "dignitaries":1,
    "chauffeurs":1,
    "assistants":1,
    "shepherding":1,
    "umbrellas":1,
    "event":1,
    "anxiously":1,
    "scanning":1,
    "classical":1,
    "tends":1,
    "tonight\u2019s":1,
    "frenzy":1,
    "activity":1,
    "scale":1,
    "irritation":1,
    "mildly":1,
    "inconvenienced":1,
    "soloist\u2019s":1,
    "lateness":1,
    "hysteria":1,
    "affected":1,
    "chief":1,
    "promoter":1,
    "56":1,
    "gentlemanimpresario":1,
    "fianc\u00e9e":1,
    "rejoins":1,
    "agitated":1,
    "explanationenid":1,
    "hospitals":1,
    "sanderson\u2019s":1,
    "sanderson":1,
    "theatre":1,
    "urgently":1,
    "informed":1,
    "afternoon":1,
    "fine":1,
    "everywhere":1,
    "loo":1,
    "disapproving":1,
    "offended":1,
    "indelicacy":1,
    "comment":1,
    "attitude":1,
    "froth":1,
    "selfwinding":1,
    "wristwatch":1,
    "stuck":1,
    "traffic":1,
    "likes":1,
    "distinguishedlooking":1,
    "peers":1,
    "realm":1,
    "parliament":1,
    "times":1,
    "critic":1,
    "waitingmartin":1,
    "lying":1,
    "gutter":1,
    "hurt":1,
    "ange":1,
    "clock":1,
    "750":1,
    "edge":1,
    "tapping":1,
    "tilting":1,
    "enquiringly":1,
    "cancel":1,
    "lords":1,
    "ladies":1,
    "gentlemen":1,
    "regret":1,
    "performer":1,
    "refunds":1,
    "claimed":1,
    "office":1,
    "hurries":1,
    "offstage":1,
    "midfifties":1,
    "slim":1,
    "cheek":1,
    "kissing":1,
    "handsome":1,
    "pills":1,
    "shirt":1,
    "born":1,
    "stick":1,
    "start":1,
    "\u2018it\u2019":1,
    "scan\u2019s":1,
    "granddaughter":1,
    "grand":1,
    "estimate":1,
    "straight":1,
    "taxi\u2019s":1,
    "horn":1,
    "sounds":1,
    "civic":1,
    "reception":1,
    "ermine":1,
    "underwear":1,
    "driver":1,
    "towards":1,
    "station":1,
    "exit":1,
    "diy":1,
    "superstore":1,
    "themselves":1,
    "peddling":1,
    "sheet":1,
    "schools":1,
    "\u2018til":1,
    "friday":1,
    "hanging":1,
    "committee":1,
    "service":1,
    "under18\u2019s":1,
    "slipped":1,
    "education":1,
    "net":1,
    "nonplaying":1,
    "chairman":1,
    "joking":1,
    "figurehead":1,
    "paderewski":1,
    "chrissake":1,
    "judge":1,
    "paderewski\u2019s":1,
    "longhairs":1,
    "tom":1,
    "noble":1,
    "burrows":1,
    "casting":1,
    "vote":1,
    "hang":1,
    "kids":1,
    "customers":1,
    "connected":1,
    "pick":1,
    "confidence":1,
    "finalists":1,
    "maintain":1,
    "justly":1,
    "shouts":1,
    "approval":1,
    "vienna":1,
    "northeast":1,
    "further":1,
    "ado":1,
    "commence":1,
    "louder":1,
    "modest":1,
    "montage":1,
    "follows":1,
    "performers":1,
    "judges":1,
    "completing":1,
    "finalist":1,
    "10":1,
    "chaconne":1,
    "clarinet":1,
    "panning":1,
    "homemade":1,
    "councilheaded":1,
    "notepaper":1,
    "divided":1,
    "handdrawn":1,
    "columns":1,
    "headed":1,
    "\u201ctechnique\u201d":1,
    "\u201cinterpretation\u201d":1,
    "\u201cmusicality\u201d":1,
    "fourth":1,
    "column":1,
    "totals":1,
    "uniformly":1,
    "fourfive":1,
    "lowest":1,
    "interpretation":1,
    "aye":1,
    "gateshead":1,
    "hails":1,
    "14":1,
    "toured":1,
    "internationally":1,
    "youth":1,
    "wales":1,
    "isle":1,
    "acne":1,
    "readies":1,
    "threeyearold":1,
    "japanese":1,
    "proud":1,
    "row":1,
    "odd":1,
    "prior":1,
    "ritualistically":1,
    "broad":1,
    "matching":1,
    "finally":1,
    "tucking":1,
    "chinhe":1,
    "tittering":1,
    "keeping":1,
    "occurred":1,
    "shock":1,
    "drained":1,
    "movement":1,
    "tartini\u2019s":1,
    "\u201cdevil\u2019s":1,
    "trill\u201d":1,
    "sonata":1,
    "difficult":1,
    "skill":1,
    "level":1,
    "exceptional":1,
    "clear":1,
    "oldfashioned":1,
    "kreislerian":1,
    "countenance":1,
    "exhibit":1,
    "inexpertly":1,
    "listens":1,
    "flourishes":1,
    "statement":1,
    "calculated":1,
    "precocity":1,
    "brings":1,
    "chuckles":1,
    "month":1,
    "accepts":1,
    "daughters":1,
    "somebody":1,
    "safer":1,
    "situation":1,
    "happens":1,
    "cost":1,
    "share":1,
    "outrage":1,
    "brilliant":1,
    "interloper":1,
    "admitted":1,
    "residence":1,
    "consultation":1,
    "zygmunt\u2019s":1,
    "sparkling":1,
    "embraces":1,
    "stiffly":1,
    "embrace":1,
    "unenglish":1,
    "gesture":1,
    "knowing":1,
    "stepping":1,
    "velvetcovered":1,
    "ceremoniously":1,
    "presents":1,
    "overflowing":1,
    "lid":1,
    "stamped":1,
    "leaf":1,
    "lettering":1,
    "\u201crapoport":1,
    "warszawa\u201d":1,
    "amber":1,
    "pristine":1,
    "gleaming":1,
    "everybody":1,
    "removes":1,
    "experimentally":1,
    "stylish":1,
    "flourish":1,
    "applaud":1,
    "subtle":1,
    "eluded":1,
    "jeweller\u2019s":1,
    "farewell":1,
    "prize":1,
    "posh":1,
    "decision":1,
    "winner":1,
    "discuss":1,
    "yacht":1,
    "peter\u2019s":1,
    "holidays":1,
    "nodding":1,
    "what\u2019sherface":1,
    "pete\u2019s":1,
    "heifetz":1,
    "tips":1,
    "hesitation":1,
    "thenpeter":1,
    "smiling":1,
    "dsark":1,
    "harshness":1,
    "worked":1,
    "bursary":1,
    "promise":1,
    "management":1,
    "contract":1,
    "dining":1,
    "calling":1,
    "lovely":1,
    "sunday":1,
    "request":1,
    "identify":1,
    "\u201chim\u201d":1,
    "goodnight":1,
    "sleep":1,
    "wrong":1,
    "clever":1,
    "\u201cchoose\u201d":1,
    "germans":1,
    "invade":1,
    "yellow":1,
    "star":1,
    "bashed":1,
    "brownshirts":1,
    "\u201cbashed":1,
    "up\u201d":1,
    "tune":1,
    "accompanist":1,
    "bet":1,
    "down\u201d":1,
    "jumps":1,
    "operative":1,
    "definition":1,
    "grunting":1,
    "snorting":1,
    "eventually":1,
    "wiry":1,
    "wrestles":1,
    "chest":1,
    "pinning":1,
    "fight":1,
    "foreigner":1,
    "proper":1,
    "russian":1,
    "yiddish":1,
    "german":1,
    "\u201clot\u201d":1,
    "foreigners":1,
    "stupid":1,
    "retrieves":1,
    "wags":1,
    "l":1,
    "checks":1,
    "corridor":1,
    "busker":1,
    "unkempt":1,
    "grizzlybearded":1,
    "seventies":1,
    "stained":1,
    "raincoat":1,
    "socks":1,
    "dirty":1,
    "plimsolls":1,
    "echoes":1,
    "tiled":1,
    "walls":1,
    "floor":1,
    "crisp":1,
    "packets":1,
    "banana":1,
    "skins":1,
    "dotted":1,
    "handful":1,
    "lowvalue":1,
    "coins":1,
    "gonna":1,
    "he\u2019d":1,
    "discovered":1,
    "helping":1,
    "showed":1,
    "meself":1,
    "wallet":1,
    "customer":1,
    "meet":1,
    "work":1,
    "west":1,
    "thenwhat":1,
    "noon":1,
    "\u201852":1,
    "odeon":1,
    "theme":1,
    "film":1,
    "cheeky":1,
    "bugger":1,
    "\u2018oh":1,
    "yeah\u2019":1,
    "\u2018who":1,
    "from\u2019":1,
    "\u2018i":1,
    "normally":1,
    "lessons\u2019":1,
    "saving":1,
    "knotted":1,
    "demonstrated":1,
    "wireless":1,
    "chucking":1,
    "crowns":1,
    "tenbob":1,
    "fair\u2019s":1,
    "meal":1,
    "deposits":1,
    "sticky":1,
    "top":1,
    "must\u2019ve":1,
    "cricket":1,
    "innit":1,
    "australia":1,
    "\u2018cos":1,
    "aussie":1,
    "\u2018who\u2019re":1,
    "then\u2019":1,
    "\u2018don":1,
    "bleeding":1,
    "bradman\u2019":1,
    "brow":1,
    "furrows":1,
    "effort":1,
    "recall":1,
    "contains":1,
    "lad":1,
    "permit":1,
    "granted":1,
    "chap":1,
    "prepares":1,
    "tablemartin":1,
    "dispensation":1,
    "finish":1,
    "bacon":1,
    "puddings":1,
    "preparing":1,
    "whether":1,
    "eats":1,
    "liar":1,
    "weeks":1,
    "tales":1,
    "friends":1,
    "adults":1,
    "considering":1,
    "cheer":1,
    "wicked":1,
    "unexpected":1,
    "shaft":1,
    "pierces":1,
    "juvenile":1,
    "smash":1,
    "jerries":1,
    "army":1,
    "game":1,
    "lucky":1,
    "thieving":1,
    "bleeders":1,
    "where\u2019d":1,
    "proffers":1,
    "bottle":1,
    "swig":1,
    "acknowledgement":1,
    "remain":1,
    "implicit":1,
    "sprays":1,
    "jumping":1,
    "playfully":1,
    "step":1,
    "tacit":1,
    "boxers":1,
    "routine":1,
    "consists":1,
    "slomo":1,
    "punch":1,
    "option":1,
    "dodge":1,
    "simulated":1,
    "blow":1,
    "pretended":1,
    "appropriate":1,
    "facial":1,
    "grimaces":1,
    "hungary":1,
    "waffen":1,
    "ss":1,
    "bridge":1,
    "glance":1,
    "leatherettecovered":1,
    "doubtless":1,
    "containing":1,
    "mentioned":1,
    "dr":1,
    "steiner":1,
    "leipzig":1,
    "mozart":1,
    "physics":1,
    "recommending":1,
    "humility":1,
    "sad":1,
    "steiner\u2019s":1,
    "skip":1,
    "tricky":1,
    "bits":1,
    "swings":1,
    "fiftyfive":1,
    "fiveone":1,
    "percent":1,
    "oneandsix":1,
    "change":1,
    "katsgilbert":1,
    "undertaking":1,
    "demonstrating":1,
    "maturity":1,
    "difficulty":1,
    "arise":1,
    "needed":1,
    "conflict":1,
    "loyalties":1,
    "loyalty\u2019s":1,
    "boys\u2019":1,
    "shoulders":1,
    "burglar":1,
    "key":1,
    "locksmith":1,
    "trade":1,
    "blooming":1,
    "isolde":1,
    "write":1,
    "tomorrow":1,
    "whatever":1,
    "turning":1,
    "thirtyodd":1,
    "hobby":1,
    "spit":1,
    "brotherhelen":1,
    "felt":1,
    "everything\u2019s":1,
    "darwin":1,
    "tired":1,
    "bath":1,
    "conversation":1,
    "fed":1,
    "rested":1,
    "parts":1,
    "interested":1,
    "historical":1,
    "curiosity":1,
    "chair":1,
    "resume":1,
    "marking":1,
    "26a":1,
    "nb":1,
    "less":1,
    "heavily":1,
    "accented":1,
    "swivels":1,
    "keyboard":1,
    "decide":1,
    "tittletattle":1,
    "baby":1,
    "blackout":1,
    "curtains":1,
    "switches":1,
    "rosenthal\u2019s":1,
    "getting":1,
    "cohen":1,
    "joined":1,
    "raf":1,
    "religious":1,
    "exchanges":1,
    "rat":1,
    "staccato":1,
    "till":1,
    "herr":1,
    "hitler\u2019s":1,
    "g\u00f6tterdammerung":1,
    "siren":1,
    "electricity":1,
    "fails":1,
    "lights":1,
    "destiny":1,
    "worse":1,
    "mum":1,
    "shelters":1,
    "beautiful":1,
    "plaque":1,
    "\u201cjozef":1,
    "cowered":1,
    "1940\u201d":1,
    "acknowledging":1,
    "shelter":1,
    "majestic":1,
    "putdown":1,
    "surges":1,
    "regally":1,
    "musicians\u2019":1,
    "nie":1,
    "rozumiem":1,
    "blitz":1,
    "footnote":1,
    "protruding":1,
    "halfdemolished":1,
    "pockets":1,
    "bracelet":1,
    "carpeted":1,
    "staircase":1,
    "intact":1,
    "kat":1,
    "unwraps":1,
    "surveying":1,
    "wreckage":1,
    "munches":1,
    "reappears":1,
    "paper":1,
    "round":1,
    "triumphant":1,
    "yell":1,
    "treasure":1,
    "mummy\u2019s":1,
    "tomb":1,
    "robbing":1,
    "firing":1,
    "squad":1,
    "pausing":1,
    "flapping":1,
    "banknote":1,
    "eighty":1,
    "kats":1,
    "mott":1,
    "mounts":1,
    "bike":1,
    "pedals":1,
    "ace":1,
    "clubs":1,
    "tits":1,
    "diamonds":1,
    "bum":1,
    "mitzvah\u2019s":1,
    "pictures":1,
    "shirley":1,
    "smith":1,
    "undress":1,
    "binoculars":1,
    "scientific":1,
    "experiment":1,
    "wanking":1,
    "bollocks":1,
    "scholar":1,
    "wise":1,
    "respecting":1,
    "respected":1,
    "noone\u2019s":1,
    "meant":1,
    "planning":1,
    "ends":1,
    "rubble":1,
    "died":1,
    "occupied":1,
    "europe":1,
    "shot":1,
    "bayonetted":1,
    "blown":1,
    "starved":1,
    "burnt":1,
    "hungmartin":1,
    "tens":1,
    "thousands":1,
    "nw3":1,
    "\u201cfeel\u201d":1,
    "morning":1,
    "sitting":1,
    "skullcaps":1,
    "respect":1,
    "hottentots":1,
    "greek":1,
    "wedding":1,
    "attracting":1,
    "curious":1,
    "regular":1,
    "women\u2019s":1,
    "section":1,
    "isolated":1,
    "blue":1,
    "bimah":1,
    "fluently":1,
    "reciting":1,
    "portion":1,
    "lay":1,
    "yisyatzev":1,
    "ish":1,
    "bifneychem":1,
    "pakhd\u2019khem":1,
    "umayraakhem":1,
    "yiten":1,
    "elaykhekhem":1,
    "al":1,
    "penay":1,
    "khol":1,
    "hooretz":1,
    "tidrekhi":1,
    "vah":1,
    "kaasher":1,
    "diber":1,
    "lokhem":1,
    "stand":1,
    "lord":1,
    "dread":1,
    "whole":1,
    "land":1,
    "foot":1,
    "atoh":1,
    "elayheyni":1,
    "melekh":1,
    "hoaylom":1,
    "nosan":1,
    "loni":1,
    "tayras":1,
    "emes":1,
    "v\u2019khayei":1,
    "aylom":1,
    "nota":1,
    "b\u2019saykheni":1,
    "ato":1,
    "adonai":1,
    "nayseyn":1,
    "hatayroh":1,
    "shekoyach":1,
    "sovereign":1,
    "universe":1,
    "truth":1,
    "implanting":1,
    "giver":1,
    "force":1,
    "grow":1,
    "dobry":1,
    "dzien":1,
    "obviously":1,
    "language":1,
    "receptionist":1,
    "tilts":1,
    "tentative":1,
    "\u2018fifties":1,
    "36a":1,
    "store":1,
    "sr\u00f3dmiescie":1,
    "sharply":1,
    "demonstration":1,
    "secretary":1,
    "snap":1,
    "tap":1,
    "violation":1,
    "although":1,
    "instant":1,
    "success":1,
    "disappointment":1,
    "realizes":1,
    "hopeless":1,
    "task":1,
    "knowledge":1,
    "dziekuje":1,
    "ci":1,
    "thirteen":1,
    "culture":1,
    "flexes":1,
    "luthier":1,
    "expensive":1,
    "let\u2019s":1,
    "strads":1,
    "millionaires":1,
    "scowling":1,
    "awkward":1,
    "pass":1,
    "avarice":1,
    "reverence":1,
    "due":1,
    "relic":1,
    "tribute":1,
    "fathermartin":1,
    "rothschild":1,
    "forced":1,
    "aware":1,
    "cruel":1,
    "distracted":1,
    "spare":1,
    "examining":1,
    "lustful":1,
    "bowstrings":1,
    "kisses":1,
    "enquiring":1,
    "explanation":1,
    "offered":1,
    "tucked":1,
    "chin":1,
    "testing":1,
    "resonance":1,
    "short":1,
    "snatches":1,
    "various":1,
    "styles":1,
    "rapid":1,
    "succession":1,
    "pleasure":1,
    "extends":1,
    "marriage":1,
    "1950\u2019s":1,
    "enquiry":1,
    "rates":1,
    "pieniadze":1,
    "charge":1,
    "assignment":1,
    "troubled":1,
    "speaks":1,
    "line":1,
    "city":1,
    "triggers":1,
    "hard":1,
    "tenement":1,
    "exists":1,
    "sympathetic":1,
    "shoulder":1,
    "manage":1,
    "cases":1,
    "uprising":1,
    "\u201843":1,
    "hates":1,
    "mass":1,
    "revolt":1,
    "escaped":1,
    "search":1,
    "number":1,
    "dp":1,
    "russia":1,
    "possiblydovidl":1,
    "ready":1,
    "looked":1,
    "authorities":1,
    "responsible":1,
    "happened":1,
    "asylum":1,
    "likely":1,
    "silly":1,
    "sake":1,
    "certainly":1,
    "wiped":1,
    "topped":1,
    "prodigal":1,
    "quasison":1,
    "goody":1,
    "quasifatted":1,
    "calf":1,
    "dindins":1,
    "flops":1,
    "beside":1,
    "killing":1,
    "varnished":1,
    "tyrant":1,
    "murder":1,
    "witnesses":1,
    "noticing":1,
    "photograph":1,
    "hiding":1,
    "one\u2019s":1,
    "nine":1,
    "praying":1,
    "lullaby":1,
    "bedtime":1,
    "wander":1,
    "imagine":1,
    "sabbath":1,
    "jewellery":1,
    "while":1,
    "catches":1,
    "throat":1,
    "presumption":1,
    "kiddish":1,
    "manages":1,
    "kiddush":1,
    "certain":1,
    "waving":1,
    "\u201cisraelites":1,
    "philistines":1,
    "upon":1,
    "us\u201d":1,
    "barmy":1,
    "stabilising":1,
    "influence":1,
    "ordinary":1,
    "boring":1,
    "leaning":1,
    "tree":1,
    "fishing":1,
    "compliments":1,
    "hey":1,
    "suicide":1,
    "drive":1,
    "nuts":1,
    "recover":1,
    "lunatics":1,
    "ice":1,
    "heap":1,
    "it\u2019d":1,
    "tour":1,
    "unaware":1,
    "appeals":1,
    "silently":1,
    "nurse":1,
    "forth":1,
    "wondering":1,
    "visited":1,
    "visitor":1,
    "slightly":1,
    "despite":1,
    "solidarnosc":1,
    "thaw":1,
    "begun":1,
    "bring":1,
    "active":1,
    "1986":1,
    "guises":1,
    "trying":1,
    "struck":1,
    "48a":1,
    "queen":1,
    "coronated":1,
    "grew":1,
    "visa":1,
    "forthcoming":1,
    "sees":1,
    "private":1,
    "homes":1,
    "implication":1,
    "intimacy":1,
    "\u201cwith":1,
    "me\u201d":1,
    "acknowledge":1,
    "pleased":1,
    "fan":1,
    "believing":1,
    "agnostic":1,
    "ceremony":1,
    "quite":1,
    "raise":1,
    "quorum":1,
    "thingies":1,
    "count":1,
    "thinking":1,
    "convert":1,
    "baptised":1,
    "wash":1,
    "jew":1,
    "ethnicity":1,
    "arrive":1,
    "synagogue":1,
    "enter":1,
    "ceremony\u2019s":1,
    "drapes":1,
    "wore":1,
    "listen":1,
    "nineteenth":1,
    "sivan":1,
    "5707":1,
    "forefathers":1,
    "quiet":1,
    "solemnly":1,
    "repudiate":1,
    "surviving":1,
    "reviled":1,
    "discredited":1,
    "abraham":1,
    "jacob":1,
    "funny":1,
    "dovdovidl":1,
    "accursed":1,
    "despised":1,
    "mocked":1,
    "persecuted":1,
    "slaughtered":1,
    "divorce":1,
    "dipping":1,
    "knife":1,
    "shawl":1,
    "garment":1,
    "beliefs":1,
    "practices":1,
    "traditions":1,
    "rituals":1,
    "obligations":1,
    "drifted":1,
    "tatters":1,
    "pulling":1,
    "skull":1,
    "reconstructed":1,
    "postwar":1,
    "blocks":1,
    "built":1,
    "razed":1,
    "displaced":1,
    "ancient":1,
    "battlefield":1,
    "echoless":1,
    "design":1,
    "ruins":1,
    "belongs":1,
    "interrogations":1,
    "sherlock":1,
    "holmes":1,
    "story":1,
    "pension":1,
    "him\u2019s":1,
    "loyalty":1,
    "anger":1,
    "bursts":1,
    "disappeared":1,
    "friendship":1,
    "ended":1,
    "covers":1,
    "soloist":1,
    "accompanists":1,
    "use":1,
    "unfaithful":1,
    "lured":1,
    "obverse":1,
    "reads":1,
    "question":1,
    "lies":1,
    "goebbels\u2019":1,
    "bathroom":1,
    "mirror":1,
    "1953":1,
    "obsession":1,
    "permitted":1,
    "waited":1,
    "fields":1,
    "railway":1,
    "tracks":1,
    "eleven":1,
    "appeared":1,
    "lists":1,
    "encouraged":1,
    "hoping":1,
    "shouldn\u2019t":1,
    "pole":1,
    "stole":1,
    "persecutors":1,
    "polski":1,
    "purpose":1,
    "precious":1,
    "airport":1,
    "send":1,
    "retrieving":1,
    "passenger":1,
    "conduct":1,
    "lied":1,
    "called":1,
    "suddenly":1,
    "hurry":1,
    "surge":1,
    "excitement":1,
    "pulsing":1,
    "thirtythree":1,
    "57a":1,
    "stairs":1,
    "enters":1,
    "flick":1,
    "what\u2019re":1,
    "making":1,
    "difference":1,
    "feminist":1,
    "literary":1,
    "criticism":1,
    "kahn":1,
    "green":1,
    "published":1,
    "1985":1,
    "ending":1,
    "ignored":1,
    "busies":1,
    "unpacking":1,
    "removing":1,
    "jacket":1,
    "etc":1,
    "\u2018great":1,
    "quest\u2019":1,
    "pony":1,
    "stories":1,
    "fun":1,
    "charismatic":1,
    "faults":1,
    "waste":1,
    "import":1,
    "register":1,
    "rival":1,
    "jaunty":1,
    "hora":1,
    "nayeem":1,
    "unusual":1,
    "riffs60":1,
    "muchadvertised":1,
    "mottl\u2019s":1,
    "bashing":1,
    "neighbours":1,
    "keyneynahora":1,
    "reputation":1,
    "draftdodging":1,
    "celebrating":1,
    "parties":1,
    "missed":1,
    "516":1,
    "bc":1,
    "dump":1,
    "lectures":1,
    "ucl":1,
    "trinity":1,
    "cambridge":1,
    "plus":1,
    "equals":1,
    "simmonds\u2019":1,
    "equation":1,
    "eyebrows":1,
    "science":1,
    "major":1,
    "doubly":1,
    "exotic":1,
    "brushes":1,
    "stray":1,
    "\u201clamor":1,
    "che":1,
    "muove":1,
    "sole":1,
    "e":1,
    "laltre":1,
    "stelle\u201d":1,
    "impressed":1,
    "kidding":1,
    "dante":1,
    "terraced":1,
    "meeting":1,
    "offmartin":1,
    "impregnable":1,
    "fortress":1,
    "61a":1,
    "ulysses":1,
    "pissing":1,
    "ithaca":1,
    "absolutely":1,
    "grins":1,
    "\u201cnervous\u201d":1,
    "lexicon":1,
    "terrific":1,
    "drunk":1,
    "droll":1,
    "tiddly":1,
    "fiddlycomedian":1,
    "vic":1,
    "oliver":1,
    "ought":1,
    "seriously":1,
    "relax":1,
    "totally":1,
    "advice":1,
    "kid":1,
    "laid":1,
    "haircut":1,
    "manicure":1,
    "handfuls":1,
    "nails":1,
    "quick":1,
    "trenches":1,
    "wanders":1,
    "watches":1,
    "grandson":1,
    "nicolos":1,
    "englishsounding":1,
    "hunting":1,
    "dodos":1,
    "filios":1,
    "\u201835":1,
    "fake":1,
    "bought":1,
    "broadwick":1,
    "business":1,
    "adrian":1,
    "fakes":1,
    "owner":1,
    "sale":1,
    "larger":1,
    "auction":1,
    "houses":1,
    "examines":1,
    "valuation":1,
    "ii":1,
    "\u201cbring":1,
    "look\u201d":1,
    "schlep":1,
    "husband":1,
    "herschel\u2019s":1,
    "sympathies":1,
    "crown":1,
    "heights":1,
    "bother":1,
    "appearance":1,
    "therefore":1,
    "manoeuvres":1,
    "protectively":1,
    "gay":1,
    "holen":1,
    "deyn":1,
    "tate":1,
    "fetch":1,
    "gaglianohe":1,
    "breaks":1,
    "appears":1,
    "clutching":1,
    "legs":1,
    "following":1,
    "younger":1,
    "stranger":1,
    "constrained":1,
    "circumstances":1,
    "encounter":1,
    "react":1,
    "saying":1,
    "hook":1,
    "shutting":1,
    "expected":1,
    "taken":1,
    "punish":1,
    "ungrateful":1,
    "baconless":1,
    "breakfasts":1,
    "puddingless":1,
    "dinners":1,
    "laid\u201d":1,
    "71":1,
    "arrives":1,
    "boards":1,
    "meynt":1,
    "gemore":1,
    "gehat":1,
    "perzenlekhe":1,
    "taytsh":1,
    "eybishter":1,
    "entshuldigtz":1,
    "brekh":1,
    "inter":1,
    "kent":1,
    "efsher":1,
    "zugn":1,
    "ikh\u2026":1,
    "zeynt":1,
    "heym":1,
    "originally":1,
    "oykh":1,
    "mitn":1,
    "nokh":1,
    "yetzt":1,
    "doo":1,
    "eynige":1,
    "eyer":1,
    "geharget":1,
    "ya":1,
    "meyn":1,
    "\u2026":1,
    "\u2026ikh":1,
    "keynmohl":1,
    "nisht\u2026":1,
    "eynem":1,
    "nein":1,
    "tit":1,
    "mir":1,
    "leyd":1,
    "yinguerman":1,
    "wilt":1,
    "nemtz":1,
    "ehm":1,
    "habmir":1,
    "iz":1,
    "er":1,
    "willt":1,
    "aleikhem":1,
    "eynker":1,
    "davenen":1,
    "disturb":1,
    "bitte":1,
    "zetzt":1,
    "aykh":1,
    "kehilah":1,
    "siz":1,
    "shpetzieler":1,
    "tafkid":1,
    "alter":1,
    "gegeben":1,
    "haltn":1,
    "memorbukh":1,
    "shriftliche":1,
    "zichroynos":1,
    "gehalten":1,
    "gevorn":1,
    "dorkh":1,
    "mentshen":1,
    "wayl":1,
    "azoyfil":1,
    "dos":1,
    "leben":1,
    "woltn":1,
    "gedarft":1,
    "denken":1,
    "azoy":1,
    "shwakh":1,
    "eltere":1,
    "oysgeklibn":1,
    "als":1,
    "zikorn":1,
    "beoyftragt":1,
    "oyfhaltn":1,
    "eybig":1,
    "drey":1,
    "survive":1,
    "camp\u2019s":1,
    "predicted":1,
    "committed":1,
    "lives":1,
    "tasked":1,
    "fragile":1,
    "elders":1,
    "chosen":1,
    "shpeter":1,
    "m\u2019hat":1,
    "upgeshribn":1,
    "natirlekh":1,
    "liste":1,
    "oyb":1,
    "tayere":1,
    "keroyvim":1,
    "nishtu":1,
    "maynt":1,
    "hobn":1,
    "incomplete":1,
    "necessarily":1,
    "avrum":1,
    "berel":1,
    "chayehsoroh":1,
    "kutne":1,
    "yossl":1,
    "yechiel":1,
    "leah":1,
    "chaimdovid":1,
    "shuachaim":1,
    "zychlin":1,
    "yerachmiel":1,
    "mizinke":1,
    "elke":1,
    "kleyner":1,
    "shloime":1,
    "shneyurzalmen":1,
    "rivke":1,
    "anya":1,
    "bella":1,
    "reuben":1,
    "rifke":1,
    "wayb":1,
    "seeing":1,
    "halts":1,
    "awash":1,
    "unlikely":1,
    "settings":1,
    "seemingly":1,
    "included":1,
    "roll":1,
    "supposition":1,
    "closure":1,
    "katzenberg\u2019s":1,
    "enfolds":1,
    "grieving":1,
    "weeps":1,
    "unashamed":1,
    "strangers":1,
    "tribe":1,
    "easier":1,
    "oral":1,
    "tradition":1,
    "mouth":1,
    "hundred":1,
    "generations":1,
    "break":1,
    "girls":1,
    "grandfather":1,
    "yom":1,
    "hashoah":1,
    "fears":1,
    "souls":1,
    "brought":1,
    "explain":1,
    "wrote":1,
    "message":1,
    "shifts":1,
    "rabbis":1,
    "afterwards":1,
    "shiva":1,
    "79":1,
    "ha":1,
    "mokaym":1,
    "yenakhem":1,
    "eskhem":1,
    "besokh":1,
    "shar":1,
    "avaleh":1,
    "tzion":1,
    "virusholayim":1,
    "console":1,
    "mourners":1,
    "jerusalem":1,
    "deferred":1,
    "wild":1,
    "gust":1,
    "rocks":1,
    "vehicle":1,
    "seemed":1,
    "almighty":1,
    "remembered":1,
    "hadn\u2019t":1,
    "bright":1,
    "discovery":1,
    "anybody":1,
    "empty":1,
    "memorial":1,
    "restarts":1,
    "engine":1,
    "backs":1,
    "parking":1,
    "area":1,
    "80b":1,
    "fade":1,
    "welcome":1,
    "81c":1,
    "changes":1,
    "selfish":1,
    "arsehole":1,
    "risk":1,
    "risking":1,
    "spend":1,
    "penny":1,
    "funeral":1,
    "declines":1,
    "respond":1,
    "artistic":1,
    "circles":1,
    "tunes":1,
    "rusty":1,
    "broadway":1,
    "rehearse":1,
    "condition":1,
    "gives":1,
    "illusion":1,
    "controlhelen":1,
    "newsflash":1,
    "illusion\u2019s":1,
    "magician":1,
    "real":1,
    "aged":1,
    "strict":1,
    "orthodox":1,
    "rules":1,
    "handshake":1,
    "unwelcoming":1,
    "guarded":1,
    "peruse":1,
    "35":1,
    "hellohelenwhat\u2019sfordinner":1,
    "hotel":1,
    "adequate":1,
    "agreed":1,
    "select":1,
    "organizer":1,
    "confirm":1,
    "include":1,
    "\u201cdoh":1,
    "deer":1,
    "female":1,
    "deer\u201d":1,
    "you\u201d":1,
    "kill":1,
    "idle":1,
    "threat":1,
    "restaurant":1,
    "list":1,
    "matter":1,
    "produces":1,
    "unfolds":1,
    "cranes":1,
    "insert":1,
    "concerto":1,
    "g":1,
    "minor":1,
    "numbers":1,
    "2":1,
    "wines":1,
    "audible":1,
    "carrying":1,
    "warm":1,
    "martinmartin":1,
    "mounting":1,
    "anxiety":1,
    "verging":1,
    "relishing":1,
    "increasingly":1,
    "noshow":1,
    "halfsix":1,
    "guard":1,
    "handcuffed":1,
    "thug":1,
    "cartoon":1,
    "buzzing":1,
    "expectationthe":1,
    "tuning":1,
    "timethe":1,
    "hall":1,
    "clockmartin":1,
    "hell":1,
    "guess":1,
    "thirty":1,
    "thousand":1,
    "tibetan":1,
    "monastery":1,
    "rolls":1,
    "crossing":1,
    "fingers\u201d":1,
    "wiping":1,
    "sweat":1,
    "sodden":1,
    "handkerchief":1,
    "frustration":1,
    "starting":1,
    "apparition":1,
    "wings":1,
    "discreet":1,
    "skullcap":1,
    "comme":1,
    "faut":1,
    "strides":1,
    "clamorous":1,
    "relieved":1,
    "introduction":1,
    "disaster":1,
    "brain":1,
    "popular":1,
    "tinear":1,
    "monstrosity":1,
    "ironical":1,
    "effect":1,
    "close":1,
    "expelled":1,
    "relief":1,
    "hears":1,
    "advertised":1,
    "professional":1,
    "missing":1,
    "feeling":1,
    "engagement":1,
    "artist\u2019s":1,
    "distinguishes":1,
    "bowing":1,
    "appreciative":1,
    "flow":1,
    "direction":1,
    "lobby":1,
    "compliant":1,
    "similar":1,
    "foreboding":1,
    "gripped":1,
    "uncharacteristic":1,
    "compliance":1,
    "magician\u2019s":1,
    "misdirection":1,
    "presaging":1,
    "outrageous":1,
    "rebellion":1,
    "scheduled":1,
    "latitude":1,
    "rogue":1,
    "cleared":1,
    "chairs":1,
    "corridors":1,
    "rooms":1,
    "packing":1,
    "instruments":1,
    "coats":1,
    "uhoh":1,
    "composed":1,
    "fidelity":1,
    "vow":1,
    "complex":1,
    "exquisitely":1,
    "harmonized":1,
    "arrangement":1,
    "simple":1,
    "unbearably":1,
    "soulful":1,
    "immediately":1,
    "memorable":1,
    "technically":1,
    "stunning":1,
    "masterwork":1,
    "nuance":1,
    "shadow":1,
    "description":1,
    "people\u2019s":1,
    "suffering":1,
    "via":1,
    "single":1,
    "finishes":1,
    "draws":1,
    "melancholy":1,
    "possible":1,
    "fading":1,
    "slowly":1,
    "moved":1,
    "capacity":1,
    "seconds":1,
    "recovers":1,
    "itself":1,
    "lifts":1,
    "low":1,
    "encore":1,
    "coda":1,
    "dearest":1,
    "forbidden":1,
    "deaths":1,
    "saddened":1,
    "disappearance":1,
    "above":1,
    "spared":1,
    "individual":1,
    "artist":1,
    "required":1,
    "chose":1,
    "submerge":1,
    "social":1,
    "organism":1,
    "borrow":1,
    "nature":1,
    "values":1,
    "price":1,
    "admission":1,
    "surrender":1,
    "self":1,
    "enduring":1,
    "impossible":1,
    "extinguish":1,
    "ways":1,
    "individuality":1,
    "thrust":1,
    "gift":1,
    "consider":1,
    "debts":1,
    "paid":1,
    "today":1,
    "free":1,
    "depths":1,
    "accordingly":1,
    "affectionate":1,
    "selfless":1,
    "refusing":1,
    "staring":1,
    "recalls":1,
    "clearly":1,
    "discernible":1,
    "romantic":1,
    "liaison":1,
    "slept":1,
    "revelation":1,
    "balances":1,
    "scales":1,
    "assuages":1,
    "guilt":1,
    "hers":1,
    "dispel":1,
    "myth":1,
    "v\u2019yitqadash":1,
    "sh\u2019mai":1,
    "rabah":1,
    "widening":1,
    "gown":1,
    "copy":1,
    "brewer\u2019s":1,
    "dictionary":1,
    "phrase":1,
    "fable":1,
    "postcardsized":1,
    "card":1,
    "printed":1,
    "transliterated":1,
    "characters":1,
    "mourner\u2019s":1,
    "reform":1,
    "synagogues":1,
    "issue":1,
    "vyitkadash":1,
    "vra":1,
    "chirutei":1,
    "vyamlich":1,
    "malchutei":1,
    "bchayeichon":1,
    "uvyomeichon":1,
    "uvchayei":1,
    "dchol":1,
    "beit":1,
    "yisraelbaagala":1,
    "uvizman":1,
    "kariv":1,
    "mvarach":1,
    "lalam":1,
    "ulalmei":1,
    "almaya":1,
    "yitbarach":1,
    "vyishtabach":1,
    "vyitpaar":1,
    "vyitromam":1,
    "vyitnasei":1,
    "vyithadar":1,
    "vyitaleh":1,
    "vyithalal":1,
    "dkudsha":1,
    "brich":1,
    "leila":1,
    "birchata":1,
    "vshirata":1,
    "tushbchata":1,
    "vnechemata":1,
    "daamiran":1,
    "shlama":1,
    "shmaya":1,
    "vchayim":1,
    "oseh":1,
    "bimromav":1,
    "yaaseh":1,
    "magnified":1,
    "sanctified":1,
    "throughout":1,
    "created":1,
    "governs":1,
    "divine":1,
    "kingdom":1,
    "established":1,
    "yea":1,
    "speedily":1,
    "future":1,
    "exalted":1,
    "glorified":1,
    "honored":1,
    "glory":1,
    "blessings":1,
    "hymns":1,
    "praises":1,
    "render":1,
    "emanate":1,
    "heavens":1,
    "distance":2,
    "truly":2,
    "possibly":2,
    "passing":2,
    "building":2,
    "debut":2,
    "returns":2,
    "busy":2,
    "outrageously":2,
    "rain":2,
    "delivering":2,
    "big":2,
    "camera":2,
    "wet":2,
    "checking":2,
    "impact":2,
    "rapoport\u2019s":2,
    "forget":2,
    "known":2,
    "international":2,
    "sliding":2,
    "panic":2,
    "concert\u2019s":2,
    "shaking":2,
    "dress":2,
    "accident":2,
    "manager":2,
    "anyone":2,
    "soon":2,
    "shoots":2,
    "stopped":2,
    "drop":2,
    "might\u2019ve":2,
    "walking":2,
    "several":2,
    "members":2,
    "really":2,
    "somewhere":2,
    "auditorium":2,
    "conductor":2,
    "they\u2019ll":2,
    "unable":2,
    "valediction":2,
    "wear":2,
    "twice":2,
    "emily":2,
    "minute":2,
    "baby\u2019s":2,
    "asleep":2,
    "roof":2,
    "walk":2,
    "save":2,
    "froggatt":2,
    "chain":2,
    "worn":2,
    "suitcase":2,
    "opening":2,
    "they\u2019d":2,
    "libraries":2,
    "buy":2,
    "favour":2,
    "pull":2,
    "started":2,
    "jury":2,
    "famous":2,
    "who\u2019ve":2,
    "actually":2,
    "joke":2,
    "dad":2,
    "musicianship":2,
    "we\u2019ve":2,
    "couple":2,
    "next":2,
    "year\u2019s":2,
    "talk":2,
    "eight":2,
    "musical":2,
    "standard":2,
    "sits":2,
    "cuts":2,
    "bach":2,
    "girl\u2019s":2,
    "scores":2,
    "range":2,
    "onstage":2,
    "south":2,
    "shields":2,
    "fiddle":2,
    "piece":2,
    "upward":2,
    "sweep":2,
    "downward":2,
    "touches":2,
    "lips":2,
    "emotion":2,
    "sudden":2,
    "overwhelming":2,
    "colour":2,
    "treatment":2,
    "teachers":2,
    "history":2,
    "public":2,
    "geniuses":2,
    "bedroom":2,
    "receive":2,
    "embarrassed":2,
    "ritual":2,
    "meaning":2,
    "giving":2,
    "expression":2,
    "having":2,
    "lunch":2,
    "tuition":2,
    "fancy":2,
    "cover":2,
    "else":2,
    "pete":2,
    "entered":2,
    "dinner":2,
    "cressida":2,
    "choose":2,
    "notebook":2,
    "pencil":2,
    "records":2,
    "\u201cget":2,
    "wrestle":2,
    "ground":2,
    "arms":2,
    "bloody":2,
    "lot":2,
    "england":2,
    "where\u2019s":2,
    "football":2,
    "unwanted":2,
    "cap":2,
    "drops":2,
    "kind":2,
    "billy\u2019s":2,
    "cinema":2,
    "queues":2,
    "yeah":2,
    "tells":2,
    "magic":2,
    "fair":2,
    "square":2,
    "waits":2,
    "exact":2,
    "writing":2,
    "permission":2,
    "finished":2,
    "food":2,
    "eat":2,
    "exchange":2,
    "position":2,
    "wetting":2,
    "compassion":2,
    "british":2,
    "child":2,
    "weren\u2019t":2,
    "rabbi":2,
    "team":2,
    "boy\u2019s":2,
    "agreement":2,
    "slow":2,
    "motion":2,
    "rocking":2,
    "finding":2,
    "spoken":2,
    "practise":2,
    "whom":2,
    "shake":2,
    "hurting":2,
    "stool":2,
    "hah":2,
    "older":2,
    "point":2,
    "mature":2,
    "suppose":2,
    "asked":2,
    "puts":2,
    "how\u2019s":2,
    "read":2,
    "hot":2,
    "reason":2,
    "alive":2,
    "lifetime":2,
    "lost":2,
    "hungry":2,
    "remains":2,
    "crosses":2,
    "light":2,
    "promised":2,
    "could\u2019ve":2,
    "view":2,
    "air":2,
    "raid":2,
    "killed":2,
    "couldn\u2019t":2,
    "move":2,
    "sisters":2,
    "hampstead":2,
    "delivered":2,
    "reply":2,
    "union":2,
    "wall":2,
    "bite":2,
    "harris":2,
    "recognise":2,
    "pound":2,
    "yours":2,
    "sharing":2,
    "reaching":2,
    "naked":2,
    "talmud":2,
    "interest":2,
    "miss":2,
    "human":2,
    "person":2,
    "dark":2,
    "suit":2,
    "embroidered":2,
    "silk":2,
    "kippah":2,
    "adonay":2,
    "asher":2,
    "shall":2,
    "fear":2,
    "set":2,
    "praise":2,
    "within":2,
    "graduates":2,
    "performed":2,
    "musicians":2,
    "taps":2,
    "closing":2,
    "disappears":2,
    "gleam":2,
    "filio":2,
    "receives":2,
    "alessandro":2,
    "foster":2,
    "mine":2,
    "laughter":2,
    "natural":2,
    "smile":2,
    "bailey\u2019s":2,
    "early":2,
    "course":2,
    "asking":2,
    "afraid":2,
    "fluent":2,
    "tried":2,
    "dzielna":2,
    "apartment":2,
    "news":2,
    "definitely":2,
    "deported":2,
    "hundreds":2,
    "camps":2,
    "family\u2019s":2,
    "poles":2,
    "shed":2,
    "run":2,
    "band":2,
    "almost":2,
    "doubt":2,
    "secret":2,
    "suicidal":2,
    "type":2,
    "artists":2,
    "bastard":2,
    "glad":2,
    "haven\u2019t":2,
    "safe":2,
    "points":2,
    "baths":2,
    "streets":2,
    "except":2,
    "rest":2,
    "wine":2,
    "mad":2,
    "crisis":2,
    "joint":2,
    "laughs":2,
    "wonder":2,
    "exactly":2,
    "entirely":2,
    "remembers":2,
    "striped":2,
    "15":2,
    "wozniak":2,
    "nod":2,
    "suspicious":2,
    "able":2,
    "hardly":2,
    "visit":2,
    "duty":2,
    "15th":2,
    "ask":2,
    "anna\u2019s":2,
    "met":2,
    "trusting":2,
    "crucifix":2,
    "unsure":2,
    "ambivalent":2,
    "witness":2,
    "converting":2,
    "disraeli":2,
    "soluble":2,
    "water":2,
    "perfect":2,
    "tallith":2,
    "freely":2,
    "perished":2,
    "isaac":2,
    "thus":2,
    "separate":2,
    "zion":2,
    "site":2,
    "goodbye":2,
    "loving":2,
    "mistake":2,
    "trust":2,
    "die":2,
    "disappear":2,
    "gave":2,
    "stroke":2,
    "accept":2,
    "betrayal":2,
    "often":2,
    "car":2,
    "fifteen":2,
    "spoke":2,
    "guilty":2,
    "terminal":2,
    "flight":2,
    "york":2,
    "bless":2,
    "heads":2,
    "seats":2,
    "care":2,
    "meets":2,
    "ah":2,
    "dance":2,
    "apostate":2,
    "blood":2,
    "state":2,
    "touch":2,
    "heaven":2,
    "il":2,
    "nervous":2,
    "hours":2,
    "stern":2,
    "feinman":2,
    "listed":2,
    "olav":2,
    "hasholem":2,
    "phoned":2,
    "brooklyn":2,
    "passed":2,
    "crowding":2,
    "thirtyfive":2,
    "blessed":2,
    "eagerness":2,
    "cab":2,
    "text":2,
    "personal":2,
    "wi":2,
    "bin":2,
    "ayer":2,
    "mishpokhe":2,
    "siedlice":2,
    "dem":2,
    "habn":2,
    "geworn":2,
    "weiss":2,
    "geven":2,
    "ober":2,
    "gekent":2,
    "wissn":2,
    "inzer":2,
    "wus":2,
    "tzi":2,
    "s\u2019zeynen":2,
    "toyte":2,
    "nor":2,
    "gewen":2,
    "tzen":2,
    "alte":2,
    "remembrance":2,
    "since":2,
    "kinder":2,
    "tochter":2,
    "until":2,
    "cannot":2,
    "named":2,
    "dying":2,
    "version":2,
    "sat":2,
    "full":2,
    "measures":2,
    "washing":2,
    "shaving":2,
    "diversions":2,
    "prayers":2,
    "nobody":2,
    "late":2,
    "rehearsing":2,
    "\u201cwhat":2,
    "fool":2,
    "original":2,
    "\u201851":2,
    "partitas":2,
    "1":2,
    "soundproof":2,
    "nightmare":2,
    "instead":2,
    "nods":2,
    "breath":2,
    "visions":2,
    "act":2,
    "sung":2,
    "melody":2,
    "anguish":2,
    "caused":2,
    "families":2,
    "yitgadal":2,
    "balma":2,
    "yhei":2,
    "hu":2,
    "min":2,
    "aleinu":2,
    "val":2,
    "yisrael":2,
    "sometimes":3,
    "art":3,
    "between":3,
    "cross":3,
    "voice":3,
    "strip":3,
    "1951":3,
    "crowd":3,
    "selling":3,
    "police":3,
    "presence":3,
    "front":3,
    "finds":3,
    "21":3,
    "open":3,
    "street":3,
    "moments":3,
    "near":3,
    "enid":3,
    "talking":3,
    "perhaps":3,
    "arm":3,
    "who\u2019s":3,
    "men":3,
    "showing":3,
    "holding":3,
    "body":3,
    "whose":3,
    "kiss":3,
    "train":3,
    "charlie":3,
    "gold":3,
    "living":3,
    "staying":3,
    "war":3,
    "musician":3,
    "live":3,
    "jenny":3,
    "high":3,
    "words":3,
    "mark":3,
    "sheets":3,
    "three":3,
    "final":3,
    "together":3,
    "ellen":3,
    "mother":3,
    "reaches":3,
    "block":3,
    "swipes":3,
    "strings":3,
    "putting":3,
    "reaction":3,
    "answer":3,
    "stunned":3,
    "second":3,
    "beyond":3,
    "shows":3,
    "taught":3,
    "particular":3,
    "plays":3,
    "kreisler":3,
    "teach":3,
    "sent":3,
    "pan":3,
    "pay":3,
    "ring":3,
    "along":3,
    "partly":3,
    "father\u2019s":3,
    "blessing":3,
    "needs":3,
    "better":3,
    "gets":3,
    "afford":3,
    "looks":3,
    "luck":3,
    "virtuoso":3,
    "hair":3,
    "thanks":3,
    "sound":3,
    "climbs":3,
    "six":3,
    "complete":3,
    "sir":3,
    "sets":3,
    "assume":3,
    "table":3,
    "week":3,
    "turn":3,
    "written":3,
    "letter":3,
    "hasn\u2019t":3,
    "seat":3,
    "allowed":3,
    "milk":3,
    "noone":3,
    "minutes":3,
    "responds":3,
    "each":3,
    "either":3,
    "hour":3,
    "thinks":3,
    "teacher":3,
    "einstein":3,
    "idea":3,
    "fingers":3,
    "kit":3,
    "1952":3,
    "trail":3,
    "because":3,
    "eye":3,
    "interrupt":3,
    "window":3,
    "happy":3,
    "studies":3,
    "death":3,
    "past":3,
    "moves":3,
    "sight":3,
    "against":3,
    "purse":3,
    "watching":3,
    "o":3,
    "fishcakes":3,
    "night":3,
    "congregation":3,
    "eternal":3,
    "pani":3,
    "1735":3,
    "cut":3,
    "scene":3,
    "places":3,
    "confirmed":3,
    "entire":3,
    "join":3,
    "god\u2019s":3,
    "everyone":3,
    "pieces":3,
    "bows":3,
    "pyjamas":3,
    "aren\u2019t":3,
    "jesus":3,
    "prayer":3,
    "bag":3,
    "renounce":3,
    "community":3,
    "love":3,
    "return":3,
    "helen\u2019s":3,
    "lock":3,
    "it\u2019ll":3,
    "herschel":3,
    "black":3,
    "dus":3,
    "az":3,
    "der":3,
    "warshe":3,
    "inz":3,
    "shalom":3,
    "ay":3,
    "varsheh":3,
    "yehi":3,
    "zikhrom":3,
    "leaving":3,
    "conditions":3,
    "common":3,
    "shmei":3,
    "raba":3,
    "kol":3,
    "recording":4,
    "its":4,
    "steps":4,
    "inside":4,
    "yearold":4,
    "backstage":4,
    "evening":4,
    "phone":4,
    "working":4,
    "yourself":4,
    "women":4,
    "waiting":4,
    "such":4,
    "kept":4,
    "he\u2019ll":4,
    "means":4,
    "money":4,
    "shakes":4,
    "girl":4,
    "call":4,
    "fare":4,
    "tyneside":4,
    "applause":4,
    "bad":4,
    "himself":4,
    "slides":4,
    "professor":4,
    "flesch":4,
    "david\u2019s":4,
    "seems":4,
    "stands":4,
    "opens":4,
    "small":4,
    "we\u2019re":4,
    "mrs":4,
    "teaching":4,
    "school":4,
    "cheap":4,
    "stay":4,
    "wants":4,
    "shrugs":4,
    "maybe":4,
    "she\u2019s":4,
    "feet":4,
    "snore":4,
    "chess":4,
    "everything":4,
    "months":4,
    "anyway":4,
    "alone":4,
    "billy":4,
    "fiver":4,
    "outside":4,
    "trip":4,
    "starts":4,
    "notes":4,
    "saw":4,
    "important":4,
    "anything":4,
    "special":4,
    "leaves":4,
    "nice":4,
    "least":4,
    "cold":4,
    "soul":4,
    "kosher":4,
    "coming":4,
    "around":4,
    "note":4,
    "closes":4,
    "neck":4,
    "owe":4,
    "passes":4,
    "makes":4,
    "four":4,
    "neither":4,
    "loved":4,
    "record":4,
    "book":4,
    "nicolo":4,
    "address":4,
    "lived":4,
    "worst":4,
    "survived":4,
    "show":4,
    "religion":4,
    "understand":4,
    "june":4,
    "minyan":4,
    "coat":4,
    "esther":4,
    "abandoned":4,
    "swear":4,
    "taxi":4,
    "fucking":4,
    "maths":4,
    "dressing":4,
    "changed":4,
    "ultraorthodox":4,
    "bus":4,
    "ibergelebt":4,
    "zeynen":4,
    "zey":4,
    "nemen":4,
    "un":4,
    "ear":4,
    "peace":4,
    "menu":4,
    "bruch":4,
    "vimru":4,
    "tonight":5,
    "most":5,
    "reading":5,
    "performance":5,
    "standing":5,
    "watch":5,
    "wife":5,
    "though":5,
    "things":5,
    "people":5,
    "tears":5,
    "through":5,
    "box":5,
    "piano":5,
    "comes":5,
    "wouldn\u2019t":5,
    "expect":5,
    "competition":5,
    "young":5,
    "these":5,
    "every":5,
    "five":5,
    "please":5,
    "hands":5,
    "begins":5,
    "solo":5,
    "many":5,
    "learn":5,
    "leave":5,
    "given":5,
    "jewish":5,
    "hope":5,
    "taking":5,
    "found":5,
    "pause":5,
    "word":5,
    "help":5,
    "wait":5,
    "best":5,
    "gone":5,
    "sense":5,
    "ashes":5,
    "should":5,
    "i\u2019ve":5,
    "believe":5,
    "done":5,
    "picks":5,
    "okay":5,
    "ones":5,
    "place":5,
    "mitzvah":5,
    "borikh":5,
    "left":5,
    "memory":5,
    "ghetto":5,
    "woman":5,
    "anna":5,
    "ikh":5,
    "hear":6,
    "polish":6,
    "violinist":6,
    "across":6,
    "martin\u2019s":6,
    "wearing":6,
    "none":6,
    "rehearsal":6,
    "seen":6,
    "age":6,
    "myself":6,
    "instrument":6,
    "genius":6,
    "stemp":6,
    "case":6,
    "bow":6,
    "someone":6,
    "wasn\u2019t":6,
    "lessons":6,
    "during":6,
    "used":6,
    "they\u2019re":6,
    "you\u2019ll":6,
    "new":6,
    "hebrew":6,
    "dovid":6,
    "came":6,
    "extracts":6,
    "hat":6,
    "ago":6,
    "sure":6,
    "house":6,
    "we\u2019ll":6,
    "played":6,
    "days":6,
    "knows":6,
    "longer":6,
    "enough":6,
    "torah":6,
    "holy":6,
    "must":6,
    "yet":6,
    "wanted":6,
    "pessia":6,
    "jews":6,
    "kaddish":6,
    "oh":6,
    "faith":6,
    "always":6,
    "crap":6,
    "nisht":6,
    "rebbe":6,
    "under":7,
    "few":7,
    "goes":7,
    "concert":7,
    "much":7,
    "already":7,
    "angle":7,
    "stop":7,
    "probably":7,
    "sell":7,
    "might":7,
    "home":7,
    "you\u2019d":7,
    "speak":7,
    "put":7,
    "pocket":7,
    "far":7,
    "zygmunt":7,
    "moment":7,
    "response":7,
    "heard":7,
    "bit":7,
    "also":7,
    "says":7,
    "feel":7,
    "thought":7,
    "keep":7,
    "later":7,
    "behind":7,
    "supposed":7,
    "turns":7,
    "thank":7,
    "bar":7,
    "bailey":7,
    "malkeh":7,
    "ihr":7,
    "said":8,
    "both":8,
    "world":8,
    "among":8,
    "english":8,
    "other":8,
    "i\u2019d":8,
    "doing":8,
    "orchestra":8,
    "old":8,
    "what\u2019s":8,
    "ten":8,
    "boy":8,
    "mind":8,
    "thing":8,
    "silence":8,
    "boys":8,
    "even":8,
    "remember":8,
    "song":8,
    "bed":8,
    "need":8,
    "once":8,
    "took":8,
    "israel":8,
    "mit":8,
    "eli":9,
    "those":9,
    "stage":9,
    "way":9,
    "can\u2019t":9,
    "away":9,
    "knew":9,
    "than":9,
    "pulls":9,
    "ever":9,
    "eyes":9,
    "smiles":9,
    "hand":9,
    "being":9,
    "half":9,
    "last":9,
    "dov":9,
    "names":9,
    "amen":9,
    "programme":9,
    "there\u2019s":10,
    "little":10,
    "own":10,
    "same":10,
    "get":10,
    "our":10,
    "years":10,
    "rosin":10,
    "face":10,
    "am":10,
    "warsaw":10,
    "made":10,
    "won\u2019t":10,
    "sorry":10,
    "day":10,
    "brother":10,
    "treblinka":10,
    "well":11,
    "without":11,
    "door":11,
    "son":11,
    "again":11,
    "right":11,
    "takes":11,
    "gagliano":11,
    "i\u2019ll":11,
    "long":11,
    "any":11,
    "audience":11,
    "give":11,
    "more":11,
    "room":11,
    "yes":11,
    "mean":11,
    "wechsler":11,
    "very":12,
    "playing":12,
    "after":12,
    "first":12,
    "got":12,
    "looking":12,
    "two":12,
    "something":12,
    "some":12,
    "nothing":12,
    "dovidl\u2019s":12,
    "went":12,
    "di":12,
    "great":13,
    "name":13,
    "too":13,
    "could":13,
    "want":13,
    "let":13,
    "year":13,
    "you\u2019ve":13,
    "which":13,
    "before":13,
    "doesn\u2019t":13,
    "make":13,
    "off":13,
    "over":13,
    "jozef":13,
    "god":13,
    "gilbert":14,
    "their":14,
    "mr":14,
    "take":14,
    "into":14,
    "going":14,
    "see":14,
    "friend":14,
    "peter":14,
    "poland":14,
    "us":15,
    "another":15,
    "you\u2019re":15,
    "that\u2019s":15,
    "man":15,
    "find":15,
    "may":16,
    "simmonds":16,
    "had":16,
    "dead":16,
    "mottl":16,
    "life":16,
    "music":17,
    "head":17,
    "father":17,
    "or":17,
    "told":17,
    "tell":17,
    "down":17,
    "were":17,
    "who":18,
    "come":18,
    "about":18,
    "would":18,
    "fin":18,
    "does":19,
    "there":19,
    "play":19,
    "never":19,
    "only":19,
    "been":20,
    "still":20,
    "look":20,
    "time":20,
    "london":20,
    "family":20,
    "here":22,
    "think":22,
    "helen":23,
    "just":23,
    "when":23,
    "them":24,
    "an":24,
    "violin":24,
    "why":24,
    "can":24,
    "then":24,
    "her":24,
    "didn\u2019t":25,
    "now":26,
    "will":27,
    "she":27,
    "isn\u2019t":27,
    "say":28,
    "good":29,
    "david":29,
    "back":29,
    "by":29,
    "like":30,
    "go":30,
    "he\u2019s":32,
    "we":32,
    "where":33,
    "they":33,
    "rapoport":34,
    "has":34,
    "all":35,
    "but":35,
    "how":36,
    "it\u2019s":36,
    "out":37,
    "so":37,
    "if":38,
    "one":40,
    "at":40,
    "don\u2019t":40,
    "up":42,
    "i\u2019m":42,
    "did":44,
    "as":47,
    "are":48,
    "":48,
    "what":48,
    "know":52,
    "no":55,
    "from":56,
    "dovidl":57,
    "my":57,
    "be":58,
    "with":60,
    "me":61,
    "on":62,
    "your":64,
    "was":65,
    "do":65,
    "have":68,
    "this":68,
    "martin":74,
    "not":85,
    "that":87,
    "him":97,
    "for":99,
    "is":120,
    "it":138,
    "his":154,
    "in":158,
    "and":170,
    "of":201,
    "he":214,
    "i":218,
    "to":267,
    "you":277,
    "a":291,
    "the":505
}