{
    "empire":1,
    "issued":1,
    "unidentified":1,
    "circling":1,
    "incredible":1,
    "tracked":1,
    "radar":1,
    "flying":1,
    "saucer":1,
    "program":1,
    "bulletin":1,
    "received":1,
    "naval":1,
    "units":1,
    "supersonic":1,
    "headed":1,
    "atlantic":1,
    "toward":1,
    "east":1,
    "coast":1,
    "capital":1,
    "anxiety":1,
    "outward":1,
    "fact":1,
    "signs":1,
    "normalcy":1,
    "strangely":1,
    "beautiful":1,
    "spring":1,
    "weather":1,
    "tourist":1,
    "crowds":1,
    "monuments":1,
    "public":1,
    "buildings":1,
    "chief":1,
    "staff":1,
    "drew":1,
    "pearson":1,
    "bring":1,
    "radiotelevision":1,
    "broadcast":1,
    "latest":1,
    "information":1,
    "defense":1,
    "officials":1,
    "cities":1,
    "authorized":1,
    "reasonable":1,
    "cause":1,
    "alarm":1,
    "invading":1,
    "mass":1,
    "destruction":1,
    "based":1,
    "hysteria":1,
    "designed":1,
    "travel":1,
    "347":1,
    "pm":1,
    "standard":1,
    "reveal":1,
    "considering":1,
    "possibilities":1,
    "unfriendly":1,
    "resting":1,
    "troops":1,
    "rushed":1,
    "fort":1,
    "myer":1,
    "formed":1,
    "cordon":1,
    "supported":1,
    "machine":1,
    "artillery":1,
    "behind":1,
    "lines":1,
    "crowd":1,
    "seekers":1,
    "precaution":1,
    "require":1,
    "weapon":1,
    "trained":1,
    "visit":1,
    "deglet":1,
    "ovrosco":1,
    "gift":1,
    "studied":1,
    "hit":1,
    "shoulder":1,
    "ambulance":1,
    "blood":1,
    "pressures":1,
    "high":1,
    "aggravation":1,
    "blame":1,
    "shoots":1,
    "informed":1,
    "drop":1,
    "hints":1,
    "reporters":1,
    "swarming":1,
    "lobby":1,
    "harleys":1,
    "language":1,
    "convey":1,
    "deepest":1,
    "apologies":1,
    "arrival":1,
    "surprise":1,
    "neighbors":1,
    "neighbor":1,
    "learn":1,
    "reasons":1,
    "representatives":1,
    "awkward":1,
    "precedent":1,
    "practical":1,
    "considerations":1,
    "enormous":1,
    "distances":1,
    "traveled":1,
    "monitoring":1,
    "broadcasts":1,
    "languages":1,
    "lately":1,
    "impression":1,
    "convinced":1,
    "wrestle":1,
    "broad":1,
    "casts":1,
    "evil":1,
    "forces":1,
    "produced":1,
    "agree":1,
    "internal":1,
    "affairs":1,
    "consider":1,
    "hoping":1,
    "solve":1,
    "squabbles":1,
    "existence":1,
    "simultaneously":1,
    "proceed":1,
    "assembly":1,
    "un":1,
    "represent":1,
    "table":1,
    "threats":1,
    "simply":1,
    "future":1,
    "transmit":1,
    "recommendation":1,
    "honesty":1,
    "extremely":1,
    "dubious":1,
    "results":1,
    "cynical":1,
    "dealing":1,
    "politics":1,
    "beats":1,
    "ramp":1,
    "side":1,
    "crack":1,
    "carlson":1,
    "blowtorch":1,
    "drill":1,
    "inch":1,
    "toughest":1,
    "hardness":1,
    "strength":1,
    "skeletal":1,
    "structure":1,
    "organs":1,
    "heart":1,
    "liver":1,
    "spleen":1,
    "kidneys":1,
    "lungs":1,
    "pressure":1,
    "old":1,
    "fortyfive":1,
    "seventyeight":1,
    "expectancy":1,
    "hundred":1,
    "advanced":1,
    "thirdclass":1,
    "witch":1,
    "doctor":1,
    "took":1,
    "bullet":1,
    "arm":1,
    "wound":1,
    "healed":1,
    "salve":1,
    "analyzed":1,
    "whether":1,
    "drunk":1,
    "practice":1,
    "cabled":1,
    "invitations":1,
    "read":1,
    "replies":1,
    "premier":1,
    "wishes":1,
    "inform":1,
    "attend":1,
    "suggested":1,
    "unless":1,
    "regarding":1,
    "possibility":1,
    "unacceptable":1,
    "her":1,
    "majestys":1,
    "representation":1,
    "sent":1,
    "mistrust":1,
    "done":1,
    "clearly":1,
    "add":1,
    "contribution":1,
    "childish":1,
    "problems":1,
    "complex":1,
    "harshly":1,
    "impatience":1,
    "understandable":1,
    "impatient":1,
    "stupidity":1,
    "otherwise":1,
    "decisions":1,
    "familiar":1,
    "basis":1,
    "unreasoning":1,
    "attitudes":1,
    "attempt":1,
    "insisted":1,
    "authorities":1,
    "refused":1,
    "comment":1,
    "managed":1,
    "escape":1,
    "apprehend":1,
    "effort":1,
    "minimize":1,
    "crisis":1,
    "urged":1,
    "remain":1,
    "calm":1,
    "facilities":1,
    "federal":1,
    "agencies":1,
    "bought":1,
    "bear":1,
    "pointed":1,
    "ordinary":1,
    "hunt":1,
    "warned":1,
    "beyond":1,
    "control":1,
    "stand":1,
    "drive":1,
    "barley":1,
    "krull":1,
    "crockett":1,
    "family":1,
    "second":1,
    "floor":1,
    "help":1,
    "square":1,
    "head":1,
    "eyes":1,
    "annoy":1,
    "goes":1,
    "hall":1,
    "exchanged":1,
    "polite":1,
    "smile":1,
    "quiet":1,
    "mouse":1,
    "england":1,
    "accent":1,
    "mile":1,
    "sunday":1,
    "plaguing":1,
    "build":1,
    "fly":1,
    "terrors":1,
    "unleash":1,
    "obviously":1,
    "monster":1,
    "track":1,
    "wild":1,
    "animal":1,
    "disappear":1,
    "woods":1,
    "slither":1,
    "sewers":1,
    "agrees":1,
    "protect":1,
    "ourselves":1,
    "foot":1,
    "democrats":1,
    "shakes":1,
    "standing":1,
    "tenfoot":1,
    "tall":1,
    "assume":1,
    "hiding":1,
    "open":1,
    "shot":1,
    "moment":1,
    "wondering":1,
    "deciding":1,
    "orient":1,
    "environment":1,
    "disagree":1,
    "opinion":1,
    "airplanes":1,
    "stands":1,
    "admit":1,
    "confused":1,
    "coffee":1,
    "carsons":1,
    "wed":1,
    "eleven":1,
    "set":1,
    "picked":1,
    "sandwiches":1,
    "gas":1,
    "car":1,
    "radios":1,
    "busted":1,
    "able":1,
    "spend":1,
    "awfully":1,
    "listened":1,
    "show":1,
    "feels":1,
    "america":1,
    "meant":1,
    "philosopher":1,
    "thinker":1,
    "smartest":1,
    "nicely":1,
    "scientist":1,
    "near":1,
    "commerce":1,
    "shes":1,
    "mothers":1,
    "strong":1,
    "knock":1,
    "shouldnt":1,
    "surprised":1,
    "imagine":1,
    "bombs":1,
    "f":1,
    "36":1,
    "ways":1,
    "reduce":1,
    "mister":1,
    "fallin":1,
    "theyll":1,
    "inclined":1,
    "doubt":1,
    "change":1,
    "kidding":1,
    "screwball":1,
    "betcha":1,
    "celestial":1,
    "mechanics":1,
    "probably":1,
    "card":1,
    "dare":1,
    "working":1,
    "weeks":1,
    "catch":1,
    "unruffled":1,
    "desk":1,
    "scribbles":1,
    "scratch":1,
    "pad":1,
    "tears":1,
    "piece":1,
    "paper":1,
    "erase":1,
    "badly":1,
    "classified":1,
    "instructions":1,
    "unusual":1,
    "1615":1,
    "st":1,
    "nw":1,
    "father":1,
    "anzio":1,
    "die":1,
    "hear":1,
    "arlington":1,
    "cemetery":1,
    "cemeteries":1,
    "foolin":1,
    "accept":1,
    "easy":1,
    "carry":1,
    "wear":1,
    "steal":1,
    "wonderful":1,
    "answered":1,
    "boss":1,
    "chicago":1,
    "dependents":1,
    "insurance":1,
    "hi":1,
    "bradys":1,
    "cop":1,
    "swell":1,
    "ice":1,
    "cream":1,
    "cones":1,
    "daddy":1,
    "enjoyed":1,
    "station":1,
    "fun":1,
    "bm":1,
    "alberts":1,
    "prior":1,
    "arrests":1,
    "wife":1,
    "baxter":1,
    "bother":1,
    "cappo":1,
    "john":1,
    "c":1,
    "priors":1,
    "theft":1,
    "shoplifting":1,
    "jonny":1,
    "sometimes":1,
    "record":1,
    "comes":1,
    "handy":1,
    "professors":1,
    "marks":1,
    "helpful":1,
    "difficulty":1,
    "helping":1,
    "names":1,
    "drivers":1,
    "social":1,
    "doc":1,
    "treatment":1,
    "caught":1,
    "lookin":1,
    "window":1,
    "figured":1,
    "neighborhood":1,
    "ganged":1,
    "hadnt":1,
    "along":1,
    "prowler":1,
    "book":1,
    "fixed":1,
    "everybodys":1,
    "nuts":1,
    "hysterical":1,
    "identify":1,
    "heres":1,
    "wrote":1,
    "clumsy":1,
    "introduce":1,
    "myself":1,
    "substitute":1,
    "expression":1,
    "reproduce":1,
    "effect":1,
    "almost":1,
    "negligible":1,
    "variation":1,
    "parameters":1,
    "tested":1,
    "theory":1,
    "study":1,
    "though":1,
    "unsure":1,
    "heard":1,
    "spent":1,
    "309":1,
    "attractive":1,
    "nurse":1,
    "ruth":1,
    "wednesday":1,
    "interested":1,
    "neednt":1,
    "waste":1,
    "gentleman":1,
    "intention":1,
    "allowed":1,
    "opportunity":1,
    "fears":1,
    "merely":1,
    "reactions":1,
    "society":1,
    "observation":1,
    "rudimentary":1,
    "experimenting":1,
    "rockets":1,
    "mature":1,
    "civilization":1,
    "considered":1,
    "weapons":1,
    "observed":1,
    "aggressive":1,
    "tendencies":1,
    "unfortunate":1,
    "potentiality":1,
    "developments":1,
    "disturbed":1,
    "children":1,
    "discarded":1,
    "instruments":1,
    "centuries":1,
    "yourselves":1,
    "unconcerned":1,
    "apply":1,
    "cannot":1,
    "tolerate":1,
    "thousands":1,
    "fought":1,
    "bows":1,
    "arrows":1,
    "slowly":1,
    "leads":1,
    "chaos":1,
    "nature":1,
    "warn":1,
    "threatening":1,
    "faces":1,
    "entrusted":1,
    "individual":1,
    "gather":1,
    "efforts":1,
    "official":1,
    "entirely":1,
    "successful":1,
    "confess":1,
    "patience":1,
    "wearing":1,
    "thin":1,
    "drastic":1,
    "violent":1,
    "leveling":1,
    "island":1,
    "manhattan":1,
    "dropping":1,
    "rock":1,
    "gibraltar":1,
    "willing":1,
    "peoples":1,
    "ignored":1,
    "misunderstood":1,
    "field":1,
    "educators":1,
    "philosophers":1,
    "church":1,
    "vision":1,
    "finest":1,
    "minds":1,
    "objection":1,
    "revealing":1,
    "meantime":1,
    "earthy":1,
    "character":1,
    "living":1,
    "respectable":1,
    "boarding":1,
    "influence":1,
    "interplanetary":1,
    "conspiracy":1,
    "reject":1,
    "proposals":1,
    "eliminated":1,
    "mentioned":1,
    "dramatize":1,
    "seriousness":1,
    "affect":1,
    "arranged":1,
    "harm":1,
    "dramatic":1,
    "destructive":1,
    "interesting":1,
    "pick":1,
    "dark":1,
    "courting":1,
    "homework":1,
    "occupied":1,
    "warm":1,
    "friendly":1,
    "intelligent":1,
    "none":1,
    "detective":1,
    "secrets":1,
    "ready":1,
    "starts":1,
    "eightfifty":1,
    "intruding":1,
    "both":1,
    "tired":1,
    "attached":1,
    "common":1,
    "denominator":1,
    "subtract":1,
    "best":1,
    "helps":1,
    "showed":1,
    "wrong":1,
    "account":1,
    "policeman":1,
    "bank":1,
    "robber":1,
    "gangster":1,
    "prefer":1,
    "scout":1,
    "light":1,
    "opened":1,
    "iron":1,
    "dreaming":1,
    "lawn":1,
    "mall":1,
    "front":1,
    "grabbed":1,
    "dragged":1,
    "frightened":1,
    "bad":1,
    "dream":1,
    "prove":1,
    "opposite":1,
    "hard":1,
    "follow":1,
    "liar":1,
    "carpenters":1,
    "guys":1,
    "crook":1,
    "smuggler":1,
    "wonder":1,
    "excitement":1,
    "lock":1,
    "door":1,
    "shoes":1,
    "soaking":1,
    "grass":1,
    "wet":1,
    "walk":1,
    "bleekers":1,
    "appraisal":1,
    "later":1,
    "pay":1,
    "active":1,
    "asking":1,
    "elevator":1,
    "twelve":1,
    "stuck":1,
    "minutes":1,
    "try":1,
    "pushing":1,
    "buttons":1,
    "purse":1,
    "electricitys":1,
    "neutralized":1,
    "telling":1,
    "truth":1,
    "ol":1,
    "lady":1,
    "shoulda":1,
    "wot":1,
    "enjoying":1,
    "stopped":1,
    "running":1,
    "ants":1,
    "brilliant":1,
    "830":1,
    "frighten":1,
    "insecure":1,
    "cut":1,
    "everywhere":1,
    "exceptions":1,
    "hospitals":1,
    "flight":1,
    "communications":1,
    "telephone":1,
    "cable":1,
    "declare":1,
    "emergency":1,
    "start":1,
    "discussing":1,
    "ryder":1,
    "directed":1,
    "joint":1,
    "immobilizing":1,
    "accomplished":1,
    "encasing":1,
    "kl":1,
    "93":1,
    "plastic":1,
    "stronger":1,
    "steel":1,
    "broken":1,
    "locked":1,
    "tight":1,
    "drum":1,
    "desirability":1,
    "capturing":1,
    "afford":1,
    "particular":1,
    "clear":1,
    "eleanor":1,
    "electrician":1,
    "bleeker":1,
    "either":1,
    "company":1,
    "sell":1,
    "price":1,
    "appreciate":1,
    "importance":1,
    "apprehended":1,
    "fail":1,
    "twelvethirty":1,
    "boardinghouse":1,
    "someone":1,
    "else":1,
    "definite":1,
    "hed":1,
    "anyway":1,
    "terribly":1,
    "electric":1,
    "gong":1,
    "gets":1,
    "further":1,
    "notice":1,
    "mary":1,
    "pentagon":1,
    "charge":1,
    "whoever":1,
    "bensons":1,
    "nervous":1,
    "terrific":1,
    "hasnt":1,
    "mind":1,
    "duty":1,
    "silly":1,
    "honey":1,
    "guy":1,
    "thisd":1,
    "biggest":1,
    "ticket":1,
    "somebodys":1,
    "rid":1,
    "literally":1,
    "papers":1,
    "hero":1,
    "aide":1,
    "steven":1,
    "s":1,
    "staying":1,
    "yellow":1,
    "cab":1,
    "b":1,
    "ninth":1,
    "woman":1,
    "seat":1,
    "w":1,
    "4936":1,
    "maintain":1,
    "positions":1,
    "fire":1,
    "passes":1,
    "blocks":1,
    "worried":1,
    "limit":1,
    "section":1,
    "2":1,
    "tenth":1,
    "massachusetts":1,
    "close":1,
    "dead":1,
    "cutlers":1,
    "squad":1,
    "post":1,
    "guard":1,
    "reserved":1,
    "almighty":1,
    "spirit":1,
    "technique":1,
    "certain":1,
    "restimulate":1,
    "period":1,
    "refinement":1,
    "principles":1,
    "known":1,
    "permission":1,
    "loose":1,
    "friends":1,
    "miss":1,
    "finished":1,
    "lucky":1,
    "homes":1,
    "share":1,
    "bitterness":1,
    "disappointment":1,
    "berengo":1,
    "comply":1,
    "forgive":1,
    "universe":1,
    "grows":1,
    "smaller":1,
    "anywhere":1,
    "tolerated":1,
    "giving":1,
    "except":1,
    "irresponsibly":1,
    "ancestors":1,
    "laws":1,
    "govern":1,
    "themselves":1,
    "hired":1,
    "enforce":1,
    "principle":1,
    "organization":1,
    "complete":1,
    "elimination":1,
    "planetary":1,
    "test":1,
    "higher":1,
    "authority":1,
    "supports":1,
    "created":1,
    "race":1,
    "function":1,
    "patrol":1,
    "preserve":1,
    "matters":1,
    "given":1,
    "absolute":1,
    "aggressor":1,
    "penalty":1,
    "provoking":1,
    "terrible":1,
    "risk":1,
    "result":1,
    "arms":1,
    "knowledge":1,
    "war":1,
    "profitable":1,
    "enterprises":1,
    "pretend":1,
    "achieved":1,
    "perfection":1,
    "system":1,
    "threaten":1,
    "extend":1,
    "yours":1,
    "reduced":1,
    "burned":1,
    "cinder":1,
    "choice":1,
    "join":1,
    "face":1,
    "obliteration":1,
    "decision":1,
    "rests":1,
    "veracto":1,
    "reports":2,
    "statement":2,
    "actually":2,
    "object":2,
    "rate":2,
    "four":2,
    "already":2,
    "agreed":2,
    "interrupt":2,
    "sea":2,
    "states":2,
    "panic":2,
    "seem":2,
    "various":2,
    "special":2,
    "department":2,
    "eastern":2,
    "assure":2,
    "rumors":2,
    "armies":2,
    "absolutely":2,
    "false":2,
    "repeat":2,
    "leaders":2,
    "hours":2,
    "guns":2,
    "curiosity":2,
    "taken":2,
    "eye":2,
    "tension":2,
    "mad":2,
    "somebody":2,
    "wants":2,
    "asked":2,
    "five":2,
    "months":2,
    "250":2,
    "naturally":2,
    "personally":2,
    "concerns":2,
    "involved":2,
    "many":2,
    "television":2,
    "also":2,
    "recognize":2,
    "surely":2,
    "mine":2,
    "petty":2,
    "chiefs":2,
    "state":2,
    "resort":2,
    "bluntly":2,
    "stake":2,
    "apparently":2,
    "deal":2,
    "sergeant":2,
    "moved":2,
    "officially":2,
    "normal":2,
    "major":2,
    "ours":2,
    "similar":2,
    "examined":2,
    "thirty":2,
    "medicine":2,
    "mans":2,
    "yesterday":2,
    "put":2,
    "downstairs":2,
    "accepted":2,
    "suggestion":2,
    "impossible":2,
    "held":2,
    "moscow":2,
    "jealousies":2,
    "thinking":2,
    "nation":2,
    "judge":2,
    "making":2,
    "among":2,
    "become":2,
    "under":2,
    "circumstances":2,
    "measures":2,
    "fbi":2,
    "being":2,
    "however":2,
    "against":2,
    "powers":2,
    "followed":2,
    "arent":2,
    "new":2,
    "hide":2,
    "grave":2,
    "everyone":2,
    "george":2,
    "concentrate":2,
    "orders":2,
    "automatically":2,
    "nothing":2,
    "theyd":2,
    "forget":2,
    "arrange":2,
    "theyve":2,
    "talked":2,
    "words":2,
    "speaking":2,
    "makes":2,
    "faster":2,
    "position":2,
    "talks":2,
    "couldnt":2,
    "ought":2,
    "calling":2,
    "write":2,
    "blackboard":2,
    "till":2,
    "evening":2,
    "turns":2,
    "touch":2,
    "needs":2,
    "use":2,
    "married":2,
    "salesman":2,
    "story":2,
    "school":2,
    "play":2,
    "g2":2,
    "next":2,
    "found":2,
    "having":2,
    "trouble":2,
    "secret":2,
    "case":2,
    "simple":2,
    "body":2,
    "doctors":2,
    "order":2,
    "terms":2,
    "faith":2,
    "science":2,
    "questions":2,
    "mutual":2,
    "scientific":2,
    "discovered":2,
    "trust":2,
    "limited":2,
    "fighting":2,
    "planes":2,
    "ships":2,
    "threat":2,
    "prepared":2,
    "offer":2,
    "specific":2,
    "level":2,
    "together":2,
    "easily":2,
    "imagination":2,
    "safety":2,
    "protection":2,
    "cases":2,
    "alternative":2,
    "exists":2,
    "force":2,
    "noon":2,
    "jittery":2,
    "word":2,
    "bobbys":2,
    "picture":2,
    "talking":2,
    "remember":2,
    "again":2,
    "arithmetic":2,
    "sleep":2,
    "walked":2,
    "promise":2,
    "soldiers":2,
    "em":2,
    "lunch":2,
    "bye":2,
    "most":2,
    "national":2,
    "means":2,
    "block":2,
    "checked":2,
    "alive":2,
    "seen":2,
    "stone":2,
    "knew":2,
    "facts":2,
    "chance":2,
    "death":2,
    "flights":2,
    "airport":2,
    "canceled":2,
    "run":2,
    "margaret":2,
    "nobody":2,
    "rest":2,
    "marry":2,
    "target":2,
    "vehicle":2,
    "vehicles":2,
    "happen":2,
    "cell":2,
    "robots":2,
    "secure":2,
    "freedom":2,
    "act":2,
    "policemen":2,
    "violence":2,
    "free":2,
    "pursue":2,
    "yet":3,
    "seems":3,
    "speed":3,
    "\u2013":3,
    "traveling":3,
    "scare":3,
    "military":3,
    "whatever":3,
    "north":3,
    "concern":3,
    "sign":3,
    "matter":3,
    "ladies":3,
    "landing":3,
    "concerned":3,
    "several":3,
    "outside":3,
    "atmosphere":3,
    "landed":3,
    "arrived":3,
    "tanks":3,
    "moving":3,
    "send":3,
    "walter":3,
    "reed":3,
    "always":3,
    "white":3,
    "excuse":3,
    "colonel":3,
    "happened":3,
    "point":3,
    "million":3,
    "curious":3,
    "lets":3,
    "rather":3,
    "difficult":3,
    "care":3,
    "alone":3,
    "discuss":3,
    "personal":3,
    "completely":3,
    "learned":3,
    "creature":3,
    "lives":3,
    "intend":3,
    "message":3,
    "everything":3,
    "stuff":3,
    "material":3,
    "news":3,
    "suspicions":3,
    "wish":3,
    "while":3,
    "country":3,
    "entire":3,
    "crazy":3,
    "hearing":3,
    "looks":3,
    "three":3,
    "big":3,
    "stay":3,
    "helen":3,
    "days":3,
    "himself":3,
    "city":3,
    "waiting":3,
    "menace":3,
    "reason":3,
    "sense":3,
    "stevens":3,
    "anyone":3,
    "thatll":3,
    "fine":3,
    "those":3,
    "guess":3,
    "mother":3,
    "lot":3,
    "things":3,
    "velocity":3,
    "goin":3,
    "idea":3,
    "aw":3,
    "knows":3,
    "doing":3,
    "better":3,
    "hilda":3,
    "street":3,
    "killed":3,
    "wars":3,
    "places":3,
    "movies":3,
    "certainly":3,
    "diamonds":3,
    "worth":3,
    "couple":3,
    "leaving":3,
    "brady":3,
    "mistake":3,
    "identification":3,
    "license":3,
    "solution":3,
    "primitive":3,
    "energy":3,
    "true":3,
    "soon":3,
    "sort":3,
    "safe":3,
    "until":3,
    "demonstration":3,
    "anybody":3,
    "few":3,
    "wasnt":3,
    "awful":3,
    "thanks":3,
    "left":3,
    "flashlight":3,
    "phone":3,
    "because":3,
    "hold":3,
    "own":3,
    "barada":3,
    "nikto":3,
    "large":4,
    "gentlemen":4,
    "far":4,
    "exactly":4,
    "ago":4,
    "inside":4,
    "house":4,
    "sit":4,
    "glad":4,
    "without":4,
    "radio":4,
    "years":4,
    "strange":4,
    "business":4,
    "mission":4,
    "same":4,
    "suggest":4,
    "longer":4,
    "tried":4,
    "diamond":4,
    "ever":4,
    "said":4,
    "group":4,
    "live":4,
    "person":4,
    "hey":4,
    "whos":4,
    "look":4,
    "she":4,
    "home":4,
    "danger":4,
    "turn":4,
    "fella":4,
    "finish":4,
    "plans":4,
    "kind":4,
    "greatest":4,
    "building":4,
    "keep":4,
    "scared":4,
    "barnhardts":4,
    "called":4,
    "different":4,
    "youve":4,
    "money":4,
    "gave":4,
    "dollars":4,
    "okay":4,
    "tomorrow":4,
    "security":4,
    "number":4,
    "lieutenant":4,
    "captain":4,
    "cutler":4,
    "wanted":4,
    "since":4,
    "possible":4,
    "friend":4,
    "hope":4,
    "honest":4,
    "zone":4,
    "5":4,
    "coming":5,
    "thousand":5,
    "miles":5,
    "hour":5,
    "scientists":5,
    "united":5,
    "youll":5,
    "washington":5,
    "earths":5,
    "police":5,
    "yourself":5,
    "meet":5,
    "situation":5,
    "may":5,
    "hospital":5,
    "present":5,
    "getting":5,
    "explain":5,
    "believe":5,
    "than":5,
    "even":5,
    "report":5,
    "says":5,
    "nice":5,
    "let":5,
    "mustnt":5,
    "quite":5,
    "looking":5,
    "bed":5,
    "into":5,
    "really":5,
    "destroy":5,
    "trying":5,
    "yeah":5,
    "action":5,
    "day":5,
    "whole":5,
    "works":5,
    "atomic":5,
    "problem":5,
    "hell":5,
    "darling":5,
    "work":5,
    "wait":5,
    "please":5,
    "question":6,
    "still":6,
    "life":6,
    "peace":6,
    "planets":6,
    "tonight":6,
    "secretary":6,
    "feel":6,
    "talk":6,
    "whats":6,
    "made":6,
    "much":6,
    "thank":6,
    "realize":6,
    "havent":6,
    "leave":6,
    "boy":6,
    "robot":6,
    "thing":6,
    "suppose":6,
    "answer":6,
    "never":6,
    "back":6,
    "hands":6,
    "hello":6,
    "aggression":6,
    "attention":6,
    "government":7,
    "men":7,
    "place":7,
    "theyre":7,
    "speak":7,
    "today":7,
    "army":7,
    "every":7,
    "his":7,
    "first":7,
    "morning":7,
    "their":7,
    "might":7,
    "great":7,
    "off":7,
    "maybe":7,
    "theres":8,
    "another":8,
    "real":8,
    "am":8,
    "way":8,
    "cant":8,
    "when":8,
    "wont":8,
    "harley":8,
    "too":8,
    "weve":8,
    "last":8,
    "then":8,
    "saw":8,
    "night":8,
    "should":8,
    "ask":8,
    "enough":8,
    "bet":8,
    "youre":8,
    "isnt":8,
    "after":8,
    "around":9,
    "give":9,
    "sorry":9,
    "these":9,
    "power":9,
    "gort":9,
    "away":9,
    "little":9,
    "didnt":9,
    "them":9,
    "down":9,
    "long":9,
    "perhaps":9,
    "goodnight":9,
    "find":9,
    "room":9,
    "benson":9,
    "went":9,
    "dear":9,
    "such":9,
    "thought":9,
    "nations":10,
    "minute":10,
    "name":10,
    "id":10,
    "youd":10,
    "make":10,
    "who":10,
    "does":10,
    "more":10,
    "take":10,
    "important":10,
    "by":11,
    "afternoon":11,
    "two":11,
    "has":11,
    "told":11,
    "call":11,
    "doesnt":11,
    "wouldnt":11,
    "gee":11,
    "earth":12,
    "one":12,
    "so":12,
    "came":12,
    "other":12,
    "sir":12,
    "klaatu":12,
    "say":12,
    "oh":12,
    "before":12,
    "mrs":12,
    "anything":12,
    "president":13,
    "general":13,
    "ive":13,
    "understand":13,
    "going":13,
    "tom":13,
    "something":14,
    "some":14,
    "planet":14,
    "us":14,
    "mean":14,
    "only":14,
    "ill":14,
    "over":15,
    "an":15,
    "as":15,
    "had":15,
    "course":15,
    "world":16,
    "our":16,
    "ship":16,
    "time":16,
    "were":16,
    "afraid":16,
    "up":16,
    "mom":16,
    "why":17,
    "barnhardt":17,
    "or":18,
    "could":18,
    "got":18,
    "any":18,
    "did":18,
    "well":18,
    "good":19,
    "must":19,
    "very":19,
    "sure":20,
    "meeting":20,
    "go":20,
    "space":21,
    "come":21,
    "now":21,
    "will":22,
    "people":22,
    "thats":22,
    "professor":22,
    "where":23,
    "want":23,
    "tell":23,
    "if":23,
    "they":25,
    "how":25,
    "been":26,
    "there":27,
    "out":27,
    "yes":27,
    "would":28,
    "like":28,
    "just":29,
    "think":29,
    "man":31,
    "bobby":31,
    "at":32,
    "get":32,
    "right":32,
    "dont":35,
    "its":35,
    "hes":35,
    "are":36,
    "from":36,
    "here":36,
    "do":38,
    "see":38,
    "with":39,
    "know":40,
    "can":40,
    "not":41,
    "was":41,
    "my":41,
    "but":42,
    "on":43,
    "me":45,
    "carpenter":46,
    "no":47,
    "him":51,
    "about":53,
    "im":54,
    "your":56,
    "all":59,
    "be":59,
    "mr":61,
    "for":63,
    "what":65,
    "have":71,
    "this":77,
    "we":85,
    "in":89,
    "it":92,
    "is":95,
    "he":95,
    "that":113,
    "and":114,
    "of":137,
    "a":157,
    "":222,
    "you":231,
    "i":231,
    "to":250,
    "the":300
}