{
    "tamara":1,
    "jenkins":1,
    "upsy":1,
    "daisy":1,
    "thatta":1,
    "sunshine":1,
    "vitamin":1,
    "7":1,
    "cheerfully":1,
    "offscreen":1,
    "distinct":1,
    "banging":1,
    "porcelain":1,
    "reemerges":1,
    "8":1,
    "tremor":1,
    "aggressive":1,
    "restroom":1,
    "housekeeper":1,
    "homehealth":1,
    "professional":1,
    "hers":1,
    "pointed":1,
    "jurisdiction":1,
    "snatches":1,
    "wheat":1,
    "chex":1,
    "flings":1,
    "magnet":1,
    "cruise":1,
    "happier":1,
    "healthier":1,
    "glasses":1,
    "champagne":1,
    "festive":1,
    "toast":1,
    "dining":1,
    "bereft":1,
    "wearing":1,
    "highwaisted":1,
    "jockey":1,
    "briefs":1,
    "pair":1,
    "nylon":1,
    "knee":1,
    "socks":1,
    "cleaning":1,
    "deaf":1,
    "disgust":1,
    "doom":1,
    "confrontation":1,
    "excrement":1,
    "confirm":1,
    "sneaky":1,
    "creeps":1,
    "waits":1,
    "cracks":1,
    "eduardo\u2019s":1,
    "14":1,
    "bette":1,
    "davis":1,
    "margo":1,
    "channing":1,
    "incoming":1,
    "recorded":1,
    "tenement":1,
    "flea":1,
    "market":1,
    "furnishings":1,
    "hissing":1,
    "lonely":1,
    "partially":1,
    "blowing":1,
    "sheer":1,
    "curtains":1,
    "streets":1,
    "city\u2019s":1,
    "wintery":1,
    "lachman":1,
    "metzgers":1,
    "honolulu":1,
    "weve":1,
    "spoken":1,
    "disturbing":1,
    "16":1,
    "dear":1,
    "committee":1,
    "awarded":1,
    "fellowship":1,
    "artistic":1,
    "creation":1,
    "complete":1,
    "subversive":1,
    "entitled":1,
    "cubicle":1,
    "disembodied":1,
    "manager":1,
    "approaching":1,
    "mouse":1,
    "brings":1,
    "spreadsheet":1,
    "folder":1,
    "power":1,
    "kill":1,
    "soon":1,
    "gone":1,
    "female":1,
    "pierced":1,
    "lowerlip":1,
    "smirks":1,
    "conspiratorially":1,
    "acknowledges":1,
    "letter":1,
    "clear":1,
    "higher":1,
    "inspired":1,
    "jean":1,
    "genet":1,
    "cartoons":1,
    "lynda":1,
    "barry":1,
    "dramas":1,
    "eugene":1,
    "o\u2019neill":1,
    "tells":1,
    "abandoned":1,
    "abusive":1,
    "forced":1,
    "fend":1,
    "themselves":1,
    "depressive":1,
    "accompanying":1,
    "voiceover":1,
    "montage":1,
    "mailbox":1,
    "donna":1,
    "dr":1,
    "reisman\u2019s":1,
    "pap":1,
    "results":1,
    "buzzer":1,
    "buzzes":1,
    "slightly":1,
    "startled":1,
    "panning":1,
    "pushing":1,
    "blinking":1,
    "ominously":1,
    "attractive":1,
    "fluff":1,
    "justyou":1,
    "disturb":1,
    "golden":1,
    "lab":1,
    "greying":1,
    "muzzle":1,
    "devour":1,
    "disgusted":1,
    "cock":1,
    "toss":1,
    "pillows":1,
    "used":1,
    "moved":1,
    "practiced":1,
    "maneuver":1,
    "flump":1,
    "transforming":1,
    "medical":1,
    "forbid":1,
    "chest":1,
    "rubs":1,
    "belly":1,
    "basks":1,
    "affection":1,
    "annie":1,
    "mounting":1,
    "went":1,
    "appointment":1,
    "painless":1,
    "sore":1,
    "afterwards":1,
    "basicallywendy":1,
    "wifes":1,
    "cervix":1,
    "comforting":1,
    "overhead":1,
    "closeup":1,
    "rhythmically":1,
    "finds":1,
    "paw":1,
    "gazing":1,
    "fucks":1,
    "semidarkness":1,
    "licks":1,
    "hobbles":1,
    "clock":1,
    "nightstand":1,
    "walls":1,
    "paces":1,
    "talks":1,
    "clenched":1,
    "during":1,
    "conversation":1,
    "losing":1,
    "acting":1,
    "caregiver":1,
    "fumbles":1,
    "speaker":1,
    "pitched":1,
    "chipmunk":1,
    "hired":1,
    "teach":1,
    "deadline":1,
    "desert":1,
    "somewhere":1,
    "sam":1,
    "shepard":1,
    "qualifies":1,
    "alarm":1,
    "orange":1,
    "aware":1,
    "becautious":1,
    "miss":1,
    "metzger":1,
    "ravishing":1,
    "sighs":1,
    "shaking":1,
    "korean":1,
    "quickly":1,
    "paints":1,
    "sexy":1,
    "color":1,
    "andy":1,
    "plugging":1,
    "complex":1,
    "emerges":1,
    "jetway":1,
    "spots":1,
    "index":1,
    "stanford":1,
    "footsie":1,
    "beckons":1,
    "gate":1,
    "obeys":1,
    "annoyed":1,
    "favor":1,
    "died":1,
    "everybody":1,
    "nine":1,
    "monday":1,
    "oedipal":1,
    "rage":1,
    "beckett":1,
    "baggage":1,
    "claim":1,
    "sec":1,
    "checked":1,
    "plan":1,
    "changing":1,
    "scans":1,
    "sloppy":1,
    "outfit":1,
    "wear":1,
    "longjohn":1,
    "tshirt":1,
    "cargo":1,
    "respect":1,
    "unzips":1,
    "appropriate":1,
    "gained":1,
    "weight":1,
    "pack":1,
    "buttondown":1,
    "fashion":1,
    "deep":1,
    "broke":1,
    "expired":1,
    "presents":1,
    "expires":1,
    "romantic":1,
    "advice":1,
    "wonder":1,
    "shoot":1,
    "ease":1,
    "prayers":1,
    "thoughts":1,
    "sent":1,
    "sympathy":1,
    "impatiently":1,
    "steering":1,
    "wheel":1,
    "leonard\u2019s":1,
    "uhhuh":1,
    "toileting":1,
    "incident":1,
    "tests":1,
    "order":1,
    "man\u2019s":1,
    "insisted":1,
    "rise":1,
    "awkwardly":1,
    "gathering":1,
    "remembers":1,
    "mom":1,
    "encouraging":1,
    "smiling":1,
    "gratefully":1,
    "means":1,
    "correct":1,
    "uhoh":1,
    "instantly":1,
    "understands":1,
    "baffled":1,
    "asked":1,
    "boarder":1,
    "twelveyearold":1,
    "mother\u2019s":1,
    "leg":1,
    "suspiciously":1,
    "nervously":1,
    "glaring":1,
    "throw":1,
    "street":1,
    "legally":1,
    "speaking":1,
    "common":1,
    "law":1,
    "marriage":1,
    "hitches":1,
    "valise":1,
    "warily":1,
    "balloon":1,
    "leads":1,
    "men":1,
    "patio":1,
    "area":1,
    "excruciatingly":1,
    "nonmarital":1,
    "drafted":1,
    "ago":1,
    "prenup":1,
    "without":1,
    "nup":1,
    "legal":1,
    "separate":1,
    "basically":1,
    "property":1,
    "bet":1,
    "listed":1,
    "exist":1,
    "blankly":1,
    "burst":1,
    "applause":1,
    "hogtied":1,
    "straight":1,
    "ones":1,
    "restraints":1,
    "wild":1,
    "flicker":1,
    "fear":1,
    "coast":1,
    "philosophy":1,
    "college":1,
    "medicine":1,
    "broadway":1,
    "zasu":1,
    "pitts":1,
    "social":1,
    "unrest\u201d":1,
    "promises":1,
    "obedient":1,
    "reward":1,
    "climbing":1,
    "unsteady":1,
    "fall":1,
    "vascular":1,
    "multiinfarct":1,
    "strokes":1,
    "stroke":1,
    "tumor":1,
    "disinhibition":1,
    "aggression":1,
    "\u201cmasked":1,
    "face\u201d":1,
    "blank":1,
    "slowness":1,
    "speech":1,
    "memory":1,
    "fairly":1,
    "indicators":1,
    "illnesses":1,
    "cause":1,
    "prepared":1,
    "diagnosis":1,
    "symptoms":1,
    "characteristic":1,
    "disease":1,
    "tremors":1,
    "limb":1,
    "shuffling":1,
    "initiate":1,
    "movement":1,
    "mysterious":1,
    "boxes":1,
    "increases":1,
    "eventually":1,
    "drowning":1,
    "doctor\u2019s":1,
    "young":1,
    "spring":1,
    "sprung":1,
    "song":1,
    "45":1,
    "every":1,
    "grin":1,
    "such":1,
    "individual":1,
    "abandon":1,
    "brian":1,
    "deener":1,
    "english":1,
    "campus":1,
    "picturing":1,
    "wipe":1,
    "ass":1,
    "catheter":1,
    "afford":1,
    "falls":1,
    "disoriented":1,
    "hasn\u2019t":1,
    "lying":1,
    "evil":1,
    "ice":1,
    "cocktail":1,
    "straw":1,
    "aunt":1,
    "dad\u2019ll":1,
    "rich":1,
    "united":1,
    "fort":1,
    "regress":1,
    "\u201cwhhhaaaaa\u201d":1,
    "sleepily":1,
    "cash":1,
    "anxious":1,
    "barely":1,
    "stash":1,
    "dewey":1,
    "elementary":1,
    "kept":1,
    "fishes":1,
    "goofy":1,
    "funniest":1,
    "bills":1,
    "orthodontist":1,
    "pissed":1,
    "pulled":1,
    "snortlaughs":1,
    "homes":1,
    "lead":1,
    "consolation":1,
    "center":1,
    "delay":1,
    "glimmer":1,
    "vague":1,
    "unlike":1,
    "senses":1,
    "beloved":1,
    "planning":1,
    "vacation":1,
    "baseball":1,
    "forehead":1,
    "how\u2019re":1,
    "unclipping":1,
    "suspenders":1,
    "resist":1,
    "grandpa":1,
    "walton":1,
    "trip":1,
    "wiggle":1,
    "seatbelt":1,
    "faces":1,
    "passengers":1,
    "stumbles":1,
    "readies":1,
    "shimmy":1,
    "facing":1,
    "mismatched":1,
    "dance":1,
    "partners":1,
    "inching":1,
    "backwards":1,
    "slowly":1,
    "leading":1,
    "patent":1,
    "leather":1,
    "loafers":1,
    "swelled":1,
    "shoves":1,
    "unattended":1,
    "flat":1,
    "plate":1,
    "sitting":1,
    "image":1,
    "sinking":1,
    "helpless":1,
    "d\u2019you":1,
    "ahead":1,
    "driving":1,
    "cracking":1,
    "dummies":1,
    "o\u2019clock":1,
    "what\u2019d":1,
    "scarce":1,
    "downattheheels":1,
    "scattered":1,
    "communal":1,
    "spaces":1,
    "hallways":1,
    "others":1,
    "wander":1,
    "dirty":1,
    "sheets":1,
    "whiff":1,
    "nostrils":1,
    "flare":1,
    "unaware":1,
    "peaceful":1,
    "mayor":1,
    "bare":1,
    "essentials":1,
    "anyway":1,
    "neighbor":1,
    "expose":1,
    "80":1,
    "gown":1,
    "print":1,
    "agatha":1,
    "christie":1,
    "mystery":1,
    "greets":1,
    "wave":1,
    "yourselves":1,
    "send":1,
    "green":1,
    "produces":1,
    "markers":1,
    "evening":1,
    "sir":1,
    "ditto":1,
    "include":1,
    "collar":1,
    "l":1,
    "flourish":1,
    "draws":1,
    "silly":1,
    "smiley":1,
    "charmed":1,
    "mirror":1,
    "above":1,
    "night\u2019s":1,
    "sleep":1,
    "gimme":1,
    "arrest":1,
    "casual":1,
    "goodbyes":1,
    "adjusts":1,
    "settles":1,
    "bends":1,
    "expecting":1,
    "worst":1,
    "heaving":1,
    "unibomber":1,
    "stacks":1,
    "specific":1,
    "discovers":1,
    "lifting":1,
    "system":1,
    "oooohkay":1,
    "obsessively":1,
    "reorganizing":1,
    "depression":1,
    "high":1,
    "most":1,
    "aren\u2019t":1,
    "fullcolor":1,
    "leaf":1,
    "hill":1,
    "haven":1,
    "vermont":1,
    "hadn\u2019t":1,
    "brought":1,
    "blanket":1,
    "squirms":1,
    "uncomfortably":1,
    "cushions":1,
    "crushed":1,
    "absurd\u201d":1,
    "retrieves":1,
    "proper":1,
    "hover":1,
    "piles":1,
    "switching":1,
    "sister\u2019s":1,
    "troubled":1,
    "\u2018night":1,
    "hisses":1,
    "lies":1,
    "note":1,
    "narrator":1,
    "toughest":1,
    "decisions":1,
    "dissolve":1,
    "crashing":1,
    "surf":1,
    "longer":1,
    "themself":1,
    "promotional":1,
    "videotape":1,
    "luxury":1,
    "covered":1,
    "brochures":1,
    "committed":1,
    "providing":1,
    "highest":1,
    "quality":1,
    "transfixed":1,
    "beautifully":1,
    "landscaped":1,
    "estate":1,
    "england":1,
    "prep":1,
    "school":1,
    "appear":1,
    "disappear":1,
    "community":1,
    "compassion":1,
    "sentimental":1,
    "gauzy":1,
    "photos":1,
    "seniors":1,
    "attended":1,
    "caring":1,
    "orchestral":1,
    "swells":1,
    "ghostly":1,
    "fred":1,
    "astaire":1,
    "sing":1,
    "performing":1,
    "beyond":1,
    "beats":1,
    "hardly":1,
    "tilt":1,
    "squared":1,
    "advance":1,
    "directive":1,
    "leafs":1,
    "xanax":1,
    "anxiety":1,
    "here\u2019s":1,
    "health":1,
    "proxy":1,
    "material":1,
    "signed":1,
    "desk":1,
    "reach":1,
    "feels":1,
    "slighted":1,
    "paperwork":1,
    "regarding":1,
    "funeral":1,
    "arrangements":1,
    "burial":1,
    "cremation":1,
    "plans":1,
    "aback":1,
    "volume":1,
    "easier":1,
    "reasonably":1,
    "event":1,
    "uhjon":1,
    "suppose":1,
    "coma":1,
    "breathing":1,
    "alive":1,
    "nothing\u2019s":1,
    "records":1,
    "plug":1,
    "customers":1,
    "direction":1,
    "lower":1,
    "voices":1,
    "unplug":1,
    "fit":1,
    "wheezing":1,
    "idiots":1,
    "outburst":1,
    "unsure":1,
    "whether":1,
    "scare":1,
    "brother\u2019s":1,
    "kash":1,
    "hoists":1,
    "upstairs":1,
    "latest":1,
    "630":1,
    "marry":1,
    "cook":1,
    "eggs":1,
    "cries":1,
    "selfrespecting":1,
    "feminist":1,
    "how\u2019d":1,
    "loves":1,
    "practical":1,
    "considerations":1,
    "races":1,
    "lobs":1,
    "net":1,
    "bounds":1,
    "court":1,
    "retrieve":1,
    "wayward":1,
    "complitcritical":1,
    "theory":1,
    "phds":1,
    "stayed":1,
    "teaching":1,
    "university":1,
    "farther":1,
    "wouldn\u2019t":1,
    "comically":1,
    "game":1,
    "judgements":1,
    "insane":1,
    "asylum":1,
    "grunt":1,
    "angry":1,
    "backhanded":1,
    "racket":1,
    "grips":1,
    "neck":1,
    "grimaces":1,
    "oww":1,
    "fill":1,
    "pounds":1,
    "measuring":1,
    "marks":1,
    "numbers":1,
    "indicating":1,
    "poundage":1,
    "fills":1,
    "apparatus":1,
    "fully":1,
    "assembled":1,
    "sight":1,
    "pains":1,
    "further":1,
    "ow":1,
    "relieve":1,
    "pressure":1,
    "thirty":1,
    "contain":1,
    "round":1,
    "mendelsohn":1,
    "forwarding":1,
    "narrows":1,
    "pinned":1,
    "starving":1,
    "eat":1,
    "seeing":1,
    "creep":1,
    "tuna":1,
    "melts":1,
    "mmm":1,
    "thanksgiving":1,
    "instance":1,
    "self":1,
    "involved":1,
    "else\u2019s":1,
    "aside":1,
    "finished":1,
    "editor":1,
    "everyone\u2019s":1,
    "itching":1,
    "holiday":1,
    "portable":1,
    "portapotty":1,
    "obligations":1,
    "freelance":1,
    "couldn\u2019t":1,
    "agency":1,
    "shaky":1,
    "funded":1,
    "selfinvolved":1,
    "faith":1,
    "given":1,
    "sniffs":1,
    "measured":1,
    "surprised":1,
    "half":1,
    "dozen":1,
    "hundredsomething":1,
    "considered":1,
    "promising":1,
    "field":1,
    "criteria":1,
    "playwrights":1,
    "keeping":1,
    "secret":1,
    "major":1,
    "writers\u2019":1,
    "colony":1,
    "peels":1,
    "spills":1,
    "pill":1,
    "considers":1,
    "tonight":1,
    "pained":1,
    "promised":1,
    "mmmm":1,
    "lavender":1,
    "sweat":1,
    "wanna":1,
    "misses":1,
    "giving":1,
    "medication":1,
    "visibly":1,
    "dehydrated":1,
    "toronto":1,
    "visit":1,
    "tub":1,
    "silent":1,
    "parents\u2019":1,
    "twentyfifth":1,
    "anniversary":1,
    "wellup":1,
    "didya":1,
    "lose":1,
    "afternoon":1,
    "greatest":1,
    "offer":1,
    "i\u2019d":1,
    "page":1,
    "section":1,
    "caregivers":1,
    "folding":1,
    "chairs":1,
    "flipping":1,
    "photocopied":1,
    "handy":1,
    "member":1,
    "applaud":1,
    "packets":1,
    "volunteer":1,
    "setting":1,
    "juice":1,
    "plenty":1,
    "remain":1,
    "standing":1,
    "claps":1,
    "chuckles":1,
    "cultish":1,
    "dynamic":1,
    "activities":1,
    "culled":1,
    "bookshe":1,
    "canvas":1,
    "\u201celdercare":1,
    "dummies\u201d":1,
    "giggles":1,
    "series":1,
    "diagnosed":1,
    "bible":1,
    "consider":1,
    "assigned":1,
    "laid":1,
    "sweets":1,
    "napkins":1,
    "obvious":1,
    "dealing":1,
    "gotta":1,
    "asking":1,
    "stimulate":1,
    "memories":1,
    "movies":1,
    "stuffed":1,
    "served":1,
    "refreshments":1,
    "indignant":1,
    "730":1,
    "pm":1,
    "neighborhood":1,
    "cooking":1,
    "dinner":1,
    "screen":1,
    "figure":1,
    "mcgill":1,
    "perpetually":1,
    "disgruntled":1,
    "asserts":1,
    "smacks":1,
    "protests":1,
    "oblivious":1,
    "realizing":1,
    "creating":1,
    "calms":1,
    "quieter":1,
    "judge":1,
    "today\u2019s":1,
    "standards":1,
    "historical":1,
    "context":1,
    "enjoy":1,
    "arrive":1,
    "elevator":1,
    "doors":1,
    "situated":1,
    "station":1,
    "aides":1,
    "gathered":1,
    "punches":1,
    "\u201cdown\u201d":1,
    "follows":1,
    "concentrate":1,
    "important":1,
    "ohkay":1,
    "ginkoabiloba":1,
    "boosts":1,
    "functions":1,
    "ancient":1,
    "making":1,
    "purse":1,
    "uncovers":1,
    "prescription":1,
    "dispenses":1,
    "drugstore":1,
    "ignores":1,
    "anthidaprethens":1,
    "thoud":1,
    "thry":1,
    "pleethe":1,
    "landress":1,
    "admissions":1,
    "counselor":1,
    "tucked":1,
    "loudly":1,
    "proclaiming":1,
    "formal":1,
    "michael":1,
    "joseph":1,
    "kindly":1,
    "\u201cthis":1,
    "cinch\u201d":1,
    "winter":1,
    "d\u2019ya":1,
    "november":1,
    "\u2018east":1,
    "coast\u2019":1,
    "lowered":1,
    "taps":1,
    "elbow":1,
    "\u201cbuffalo\u201d":1,
    "confidently":1,
    "announces":1,
    "mass":1,
    "widens":1,
    "conducting":1,
    "shake":1,
    "bob":1,
    "exertion":1,
    "silenced":1,
    "except":1,
    "beds":1,
    "urgently":1,
    "several":1,
    "yards":1,
    "catches":1,
    "wasting":1,
    "fantasies":1,
    "she\u2019d":1,
    "lists":1,
    "improve":1,
    "adjust":1,
    "yanking":1,
    "upward":1,
    "mobility":1,
    "fixation":1,
    "counter":1,
    "productive":1,
    "guilt":1,
    "prey":1,
    "upon":1,
    "nicer":1,
    "consumer":1,
    "target":1,
    "guilty":1,
    "demographic":1,
    "\u201cneighborhoods":1,
    "care\u201d":1,
    "relatives":1,
    "bellows":1,
    "dying":1,
    "building":1,
    "horror":1,
    "wellness":1,
    "propaganda":1,
    "obscure":1,
    "miserable":1,
    "fact":1,
    "death":1,
    "gaseous":1,
    "gruesome":1,
    "rot":1,
    "stink":1,
    "squeaking":1,
    "nana":1,
    "women":1,
    "deeply":1,
    "ashamed":1,
    "display":1,
    "worse":1,
    "newly":1,
    "decorated":1,
    "less":1,
    "dorm":1,
    "thursday":1,
    "helping":1,
    "bedrail":1,
    "mechanical":1,
    "hum":1,
    "position":1,
    "bedside":1,
    "blankets":1,
    "exposed":1,
    "globs":1,
    "hypnotically":1,
    "simple":1,
    "unromantic":1,
    "whoa":1,
    "easy":1,
    "footwell":1,
    "passenger":1,
    "caged":1,
    "meowing":1,
    "bundle":1,
    "manila":1,
    "bothering":1,
    "animal":1,
    "physical":1,
    "whirlpool":1,
    "twice":1,
    "missed":1,
    "yells":1,
    "loved":1,
    "essay":1,
    "\u201cmother":1,
    "courage\u201d":1,
    "showed":1,
    "production":1,
    "huge":1,
    "buying":1,
    "flattery":1,
    "hint":1,
    "poking":1,
    "killed":1,
    "thriving":1,
    "heaves":1,
    "sigh":1,
    "squarely":1,
    "mfa":1,
    "christsakes":1,
    "motel":1,
    "embarrassing":1,
    "cliche":1,
    "whose":1,
    "cheating":1,
    "classic":1,
    "gentle":1,
    "entirely":1,
    "successful":1,
    "thirtynine":1,
    "fiftytwo":1,
    "technically":1,
    "paradigm":1,
    "prototypical":1,
    "winterspring":1,
    "romance":1,
    "fortysix":1,
    "oddly":1,
    "cocks":1,
    "exaggerated":1,
    "confusion":1,
    "character":1,
    "poor":1,
    "slob":1,
    "destroyed":1,
    "stroheim":1,
    "sternberg":1,
    "dietrich":1,
    "nightclub":1,
    "singer":1,
    "francine":1,
    "prose":1,
    "novel":1,
    "professorstudent":1,
    "relationship":1,
    "insult":1,
    "telling":1,
    "instead":1,
    "seeking":1,
    "intimacy":1,
    "available":1,
    "keeps":1,
    "healthy":1,
    "betraying":1,
    "anyone":1,
    "socked":1,
    "stomach":1,
    "winded":1,
    "cant":1,
    "participating":1,
    "tight":1,
    "rumble":1,
    "resentment":1,
    "growing":1,
    "homey":1,
    "concentrates":1,
    "flops":1,
    "thumbs":1,
    "aarp":1,
    "magazine":1,
    "\u201cmodern":1,
    "maturity\u201d":1,
    "effect":1,
    "perfectly":1,
    "prove":1,
    "shots":1,
    "animals":1,
    "residents\u2019":1,
    "wellbeing":1,
    "reduce":1,
    "stress":1,
    "final":1,
    "gas":1,
    "tanks":1,
    "shoots":1,
    "wildly":1,
    "tank":1,
    "immolates":1,
    "end\u201d":1,
    "switches":1,
    "difficulty":1,
    "wheres":1,
    "dads":1,
    "urban":1,
    "outfitters":1,
    "storms":1,
    "split":1,
    "lounge":1,
    "simone":1,
    "private":1,
    "tilts":1,
    "knotty":1,
    "stroking":1,
    "pet":1,
    "maam":1,
    "unclear":1,
    "referring":1,
    "quizzical":1,
    "panicked":1,
    "release":1,
    "grip":1,
    "doesnt":1,
    "succeeds":1,
    "removing":1,
    "bellowing":1,
    "unearthly":1,
    "moan":1,
    "nooooh":1,
    "terrified":1,
    "corridor":1,
    "background":1,
    "mrs":1,
    "friedman":1,
    "flinches":1,
    "attendant\u2019s":1,
    "escaping":1,
    "sandwiches":1,
    "headboard":1,
    "caretaking":1,
    "accomplishment":1,
    "brushes":1,
    "wannit":1,
    "payin\u2019":1,
    "bother":1,
    "affirmative":1,
    "smokes":1,
    "smoke":1,
    "especially":1,
    "spending":1,
    "politely":1,
    "takin\u2019":1,
    "smoking":1,
    "among":1,
    "cars":1,
    "meows":1,
    "van":1,
    "shiver":1,
    "breath":1,
    "intimate":1,
    "introduce":1,
    "khan":1,
    "lover":1,
    "fighter":1,
    "likes":1,
    "tatertots":1,
    "touches":1,
    "slip":1,
    "extras":1,
    "double":1,
    "serving":1,
    "obsolete":1,
    "neither":1,
    "husband":1,
    "blushes":1,
    "aide":1,
    "i\u2019maa":1,
    "moneybut":1,
    "main":1,
    "shakespeare":1,
    "kidding":1,
    "somebody\u2019s":1,
    "unproduced":1,
    "printed":1,
    "copy":1,
    "draft":1,
    "graveyard":1,
    "noticed":1,
    "jamaican":1,
    "folklore":1,
    "learned":1,
    "witch":1,
    "wizard":1,
    "oz\u201d":1,
    "floats":1,
    "nigeria":1,
    "\u201cwhat\u2019re":1,
    "doing\u201d":1,
    "glows":1,
    "sickening":1,
    "cheery":1,
    "jingleing":1,
    "ting":1,
    "tingleing":1,
    "lovely":1,
    "wonderland":1,
    "lap":1,
    "carries":1,
    "foldedup":1,
    "closes":1,
    "locked":1,
    "published":1,
    "wasnt":1,
    "announcing":1,
    "fellows":1,
    "unlocks":1,
    "policing":1,
    "consulting":1,
    "youve":1,
    "eight":1,
    "talent":1,
    "couldnt":1,
    "bickering":1,
    "wool":1,
    "hat":1,
    "sinks":1,
    "ecu":1,
    "trembling":1,
    "aural":1,
    "relief":1,
    "content":1,
    "resignation":1,
    "eyelids":1,
    "heavy":1,
    "continue":1,
    "argue":1,
    "murky":1,
    "wanted":1,
    "suspicions":1,
    "confirmed":1,
    "highway":1,
    "passing":1,
    "crap":1,
    "win":1,
    "deal":1,
    "agonized":1,
    "finally":1,
    "surrenders":1,
    "management":1,
    "granted":1,
    "nineeleven":1,
    "months":1,
    "stealing":1,
    "government":1,
    "steal":1,
    "apply":1,
    "twentyfive":1,
    "percent":1,
    "income":1,
    "details":1,
    "bedroom":1,
    "ringing":1,
    "fight":1,
    "rushes":1,
    "freaked":1,
    "ignore":1,
    "liked":1,
    "middleclass":1,
    "whining":1,
    "spoiled":1,
    "american":1,
    "brat":1,
    "moaning":1,
    "difficult":1,
    "haiti":1,
    "odd":1,
    "amusement":1,
    "parents":1,
    "hit":1,
    "pathologically":1,
    "narcissistic":1,
    "bluntness":1,
    "observation":1,
    "throat":1,
    "tightens":1,
    "warmly":1,
    "overwhelmed":1,
    "kindness":1,
    "lunges":1,
    "gently":1,
    "thatumyou":1,
    "nicethat":1,
    "greatyou\u2019re":1,
    "writhing":1,
    "corn":1,
    "rally":1,
    "corny":1,
    "groggily":1,
    "rear":1,
    "hooded":1,
    "lid":1,
    "hiding":1,
    "slammed":1,
    "reappears":1,
    "emotion":1,
    "interest":1,
    "whereas":1,
    "crosses":1,
    "\u201cemotion\u201d":1,
    "underlines":1,
    "\u201cthinking\u201d":1,
    "\u201cdramatic":1,
    "theater\u201d":1,
    "suggestion":1,
    "argument":1,
    "cellphone":1,
    "rings":1,
    "caller":1,
    "id":1,
    "class":1,
    "mumbles":1,
    "students":1,
    "difference":1,
    "wrote":1,
    "board":1,
    "chalkboard":1,
    "written":1,
    "opposite":1,
    "categories":1,
    "stumped":1,
    "form":1,
    "asleep":1,
    "approaches":1,
    "reaching":1,
    "touch":1,
    "hollow":1,
    "spent":1,
    "shivering":1,
    "driver":1,
    "thrilled":1,
    "hyatt":1,
    "decided":1,
    "meaning":1,
    "burt\u2019s":1,
    "nettie":1,
    "adelson":1,
    "lizzie":1,
    "launches":1,
    "soulful":1,
    "rendition":1,
    "\u201cweeping":1,
    "willow":1,
    "tree\u201d":1,
    "scenes":1,
    "160":1,
    "scent":1,
    "deli":1,
    "florist":1,
    "mists":1,
    "ridiculous":1,
    "compared":1,
    "significant":1,
    "mopey":1,
    "surgery":1,
    "guarantees":1,
    "brutal":1,
    "hug":1,
    "hang":1,
    "limply":1,
    "lust":1,
    "reindulge":1,
    "compromising":1,
    "behavior":1,
    "brimming":1,
    "react":1,
    "actors":1,
    "witnessing":1,
    "technical":1,
    "lighting":1,
    "designer":1,
    "programming":1,
    "cues":1,
    "responds":1,
    "actor":1,
    "director":1,
    "seated":1,
    "beside":1,
    "manifestation":1,
    "boy\u2019s":1,
    "internal":1,
    "paul":1,
    "beating":1,
    "pummels":1,
    "sat":1,
    "suspended":1,
    "midair":1,
    "despite":1,
    "best":1,
    "efforts":1,
    "streaked":1,
    "wipes":1,
    "naturalism":1,
    "magicrealism":1,
    "effective":1,
    "impressed":1,
    "inviting":1,
    "flag":1,
    "hate":1,
    "selfindulgent":1,
    "bourgeois":1,
    "\u201cno":1,
    "comedy":1,
    "brecht\u201d":1,
    "title":1,
    "conference":1,
    "warsaw":1,
    "check":1,
    "amused":1,
    "familiar":1,
    "habit":1,
    "backpeddling":1,
    "goodbye":1,
    "tracking":1,
    "converse":1,
    "sneakers":1,
    "slapping":1,
    "cement":1,
    "slows":1,
    "vertical":1,
    "posts":1,
    "iron":1,
    "fence":1,
    "panting":1,
    "closer":1,
    "lame":1,
    "affixed":1,
    "pneumatic":1,
    "wheels":1,
    "roll":1,
    "deter":1,
    "favorite":1,
    "outdoor":1,
    "activity":1,
    "alongside":1,
    "defies":1,
    "expectations":1,
    "runs":1,
    "gloriously":1,
    "pump":1,
    "vigorously":1,
    "flares":1,
    "extended":1,
    "amount":1,
    "flash":1,
    "girl":2,
    "warm":2,
    "d":2,
    "following":2,
    "pans":2,
    "hallway":2,
    "fixed":2,
    "pictures":2,
    "humming":2,
    "disappears":2,
    "adjoining":2,
    "toilet":2,
    "base":2,
    "business":2,
    "paid":2,
    "photo":2,
    "humiliated":2,
    "spoon":2,
    "revealing":2,
    "knows":2,
    "true":2,
    "swings":2,
    "beep":2,
    "radiator":2,
    "rest":2,
    "aloha":2,
    "quite":2,
    "arizona":2,
    "trouble":2,
    "selection":2,
    "prestigious":2,
    "semiautobiographical":2,
    "childhood":2,
    "wake":2,
    "fast":2,
    "click":2,
    "computer":2,
    "anywhere":2,
    "coworker":2,
    "temps":2,
    "date":2,
    "messages":2,
    "ms":2,
    "office":2,
    "today":2,
    "normal":2,
    "loud":2,
    "stays":2,
    "answering":2,
    "presses":2,
    "peephole":2,
    "hair":2,
    "gross":2,
    "yanks":2,
    "depressing":2,
    "matter":2,
    "ive":2,
    "cervical":2,
    "protectively":2,
    "procedure":2,
    "shakes":2,
    "sex":2,
    "moments":2,
    "staring":2,
    "other\u2019s":2,
    "joins":2,
    "int":2,
    "intercut":2,
    "wall":2,
    "fuck":2,
    "using":2,
    "button":2,
    "middle":2,
    "sun":2,
    "yellow":2,
    "manicurist":2,
    "nail":2,
    "polish":2,
    "hurries":2,
    "playing":2,
    "last":2,
    "serious":2,
    "eyebrows":2,
    "girlfriend":2,
    "luggage":2,
    "pay":2,
    "irritated":2,
    "shirt":2,
    "goddamn":2,
    "dies":2,
    "dress":2,
    "poland":2,
    "visa":2,
    "driver\u2019s":2,
    "climb":2,
    "therapy":2,
    "weird":2,
    "sign":2,
    "may":2,
    "grabs":2,
    "card":2,
    "leans":2,
    "signs":2,
    "kids":2,
    "five":2,
    "minutes":2,
    "he\u2019d":2,
    "faint":2,
    "you\u2019ll":2,
    "charity":2,
    "boyfriend":2,
    "years":2,
    "attaches":2,
    "child":2,
    "picks":2,
    "step":2,
    "glass":2,
    "silently":2,
    "awkward":2,
    "says":2,
    "though":2,
    "obligation":2,
    "they\u2019ve":2,
    "notice":2,
    "level":2,
    "children":2,
    "late":2,
    "momentarily":2,
    "son":2,
    "professor":2,
    "teaches":2,
    "\u201ctheater":2,
    "untie":2,
    "dog":2,
    "usually":2,
    "talked":2,
    "lots":2,
    "parkinson\u2019s":2,
    "freezing":2,
    "brain":2,
    "who\u2019s":2,
    "department":2,
    "near":2,
    "nuts":2,
    "putting":2,
    "alternative":2,
    "nurse":2,
    "fallen":2,
    "\u2018cause":2,
    "pokes":2,
    "gertie":2,
    "independent":2,
    "try":2,
    "flight":2,
    "that\u2019ll":2,
    "myself":2,
    "visible":2,
    "full":2,
    "metal":2,
    "gave":2,
    "looked":2,
    "crooked":2,
    "opening":2,
    "facility":2,
    "country":2,
    "rehabilitation":2,
    "smells":2,
    "medicaid":2,
    "house":2,
    "taken":2,
    "along":2,
    "removes":2,
    "cap":2,
    "style":2,
    "stuffs":2,
    "luck":2,
    "calm":2,
    "lady":2,
    "concerned":2,
    "aisle":2,
    "tucks":2,
    "pop":2,
    "bags":2,
    "massive":2,
    "parka":2,
    "pivots":2,
    "parked":2,
    "person":2,
    "lousy":2,
    "weather":2,
    "drive":2,
    "backseat":2,
    "admit":2,
    "staff":2,
    "lightly":2,
    "laundry":2,
    "cart":2,
    "filled":2,
    "dreamy":2,
    "winston":2,
    "curtain":2,
    "reading":2,
    "stiff":2,
    "write":2,
    "tshirts":2,
    "writes":2,
    "done":2,
    "agitated":2,
    "tip":2,
    "expect":2,
    "sobs":2,
    "comfortable":2,
    "nearly":2,
    "moves":2,
    "cholesterol":2,
    "brochure":2,
    "wish":2,
    "better":2,
    "parent":2,
    "reverse":2,
    "commitment":2,
    "white":2,
    "appears":2,
    "heaven":2,
    "far":2,
    "ad":2,
    "switch":2,
    "hearing":2,
    "aid":2,
    "happens":2,
    "answer":2,
    "breaks":2,
    "laughter":2,
    "unnerved":2,
    "early":2,
    "emotional":2,
    "many":2,
    "running":2,
    "end":2,
    "idiot":2,
    "interview":2,
    "beautiful":2,
    "drops":2,
    "pain":2,
    "hook":2,
    "observe":2,
    "contraption":2,
    "funny":2,
    "stopped":2,
    "spend":2,
    "working":2,
    "riding":2,
    "job":2,
    "temp":2,
    "frankly":2,
    "applied":2,
    "whatever":2,
    "set":2,
    "amazing":2,
    "proud":2,
    "ride":2,
    "holidays":2,
    "it\u2019ll":2,
    "inspire":2,
    "vial":2,
    "swigs":2,
    "coffee":2,
    "totally":2,
    "hardon":2,
    "bunny":2,
    "yep":2,
    "ficus":2,
    "annie\u2019s":2,
    "bring":2,
    "handouts":2,
    "\u201ccreating":2,
    "moments\u201d":2,
    "visiting":2,
    "jeanine":2,
    "cookies":2,
    "packet":2,
    "enough":2,
    "share":2,
    "terrific":2,
    "offering":2,
    "distracted":2,
    "mouths":2,
    "bastard":2,
    "resident":2,
    "program":2,
    "nurses":2,
    "stairs":2,
    "lips":2,
    "depressed":2,
    "savages":2,
    "file":2,
    "arm":2,
    "cold":2,
    "boston":2,
    "exchange":2,
    "body":2,
    "peering":2,
    "waiting":2,
    "crime":2,
    "selfish":2,
    "landscaping":2,
    "die":2,
    "watch":2,
    "bewildered":2,
    "jimmy\u2019s":2,
    "sleeping":2,
    "shuts":2,
    "scared":2,
    "wiggles":2,
    "hind":2,
    "vet":2,
    "hangs":2,
    "buffalo":2,
    "unhealthy":2,
    "box":2,
    "perfect":2,
    "clich\u00e9":2,
    "midlife":2,
    "younger":2,
    "angel\u201d":2,
    "comment":2,
    "film":2,
    "affair":2,
    "von":2,
    "shes":2,
    "louder":2,
    "cagney":2,
    "apparently":2,
    "heat":2,
    "lean":2,
    "attendant":2,
    "started":2,
    "shift":2,
    "woman\u2019s":2,
    "belongs":2,
    "belong":2,
    "tracks":2,
    "happened":2,
    "dont":2,
    "you\u2019d":2,
    "immediately":2,
    "shrugs":2,
    "stupid":2,
    "drag":2,
    "crazy":2,
    "bells":2,
    "shopping":2,
    "roof":2,
    "paper":2,
    "oversight":2,
    "rejected":2,
    "low":2,
    "state":2,
    "emergency":2,
    "downtown":2,
    "scream":2,
    "shot":2,
    "word":2,
    "beeep":2,
    "\u201cplot\u201d":2,
    "\u201cnarrative\u201d":2,
    "realizes":2,
    "burt":2,
    "flowers":2,
    "human":2,
    "reveals":2,
    "space":2,
    "rehearsal":2,
    "doorway":3,
    "marches":3,
    "hall":3,
    "flush":3,
    "cereal":3,
    "use":3,
    "kitchen":3,
    "refrigerator":3,
    "return":3,
    "frozen":3,
    "shuffles":3,
    "pants":3,
    "almost":3,
    "pov":3,
    "wide":3,
    "reveal":3,
    "apartment":3,
    "large":3,
    "york":3,
    "east":3,
    "since":3,
    "wait":3,
    "matt":3,
    "covers":3,
    "neighboring":3,
    "story":3,
    "smear":3,
    "food":3,
    "middleaged":3,
    "saw":3,
    "lights":3,
    "nearby":3,
    "pulling":3,
    "personal":3,
    "test":3,
    "disbelief":3,
    "cut":3,
    "lost":3,
    "ceiling":3,
    "sad":3,
    "later":3,
    "cigarette":3,
    "fingers":3,
    "snaps":3,
    "left":3,
    "piss":3,
    "doris\u2019s":3,
    "morning":3,
    "alone":3,
    "anymore":3,
    "city":3,
    "finger":3,
    "terminal":3,
    "town":3,
    "day":3,
    "confused":3,
    "digs":3,
    "walk":3,
    "either":3,
    "nobody":3,
    "loss":3,
    "gives":3,
    "speak":3,
    "able":3,
    "rises":3,
    "outside":3,
    "across":3,
    "rolls":3,
    "agreement":3,
    "liquid":3,
    "violently":3,
    "haven\u2019t":3,
    "seen":3,
    "theater":3,
    "bertolt":3,
    "seem":3,
    "stunned":3,
    "thinking":3,
    "change":3,
    "older":3,
    "lowers":3,
    "we\u2019ve":3,
    "assisted":3,
    "also":3,
    "course":3,
    "start":3,
    "bureau":3,
    "leaves":3,
    "braces":3,
    "teeth":3,
    "smell":3,
    "empty":3,
    "twists":3,
    "tiny":3,
    "tosses":3,
    "lemme":3,
    "waves":3,
    "small":3,
    "second":3,
    "helps":3,
    "feet":3,
    "wheelchair":3,
    "snow":3,
    "always":3,
    "year":3,
    "where\u2019s":3,
    "understand":3,
    "pass":3,
    "sperry":3,
    "meet":3,
    "number":3,
    "arms":3,
    "laughs":3,
    "kisses":3,
    "forget":3,
    "bury":3,
    "music":3,
    "angle":3,
    "sits":3,
    "greenhill":3,
    "manor":3,
    "pops":3,
    "pen":3,
    "missing":3,
    "run":3,
    "question":3,
    "case":3,
    "jesus":3,
    "attack":3,
    "krakow":3,
    "ball":3,
    "saying":3,
    "supposed":3,
    "thinks":3,
    "season":3,
    "hurt":3,
    "support":3,
    "tears":3,
    "control":3,
    "gestures":3,
    "fun":3,
    "c\u2019mere":3,
    "beast":3,
    "blue":3,
    "special":3,
    "elder":3,
    "group":3,
    "extra":3,
    "enters":3,
    "scene":3,
    "chair":3,
    "movie":3,
    "everyone":3,
    "sometimes":3,
    "yours":3,
    "fucking":3,
    "lava":3,
    "whats":3,
    "student":3,
    "\u201cthe":3,
    "lands":3,
    "prop":3,
    "silence":3,
    "dead":3,
    "curl":3,
    "sleigh":3,
    "giddyyap":3,
    "thats":3,
    "sick":3,
    "feema":3,
    "fema":3,
    "federal":3,
    "affected":3,
    "crying":3,
    "stage":3,
    "frame":3,
    "daughter":4,
    "exits":4,
    "forgot":4,
    "seat":4,
    "eating":4,
    "mine":4,
    "bowl":4,
    "hold":4,
    "table":4,
    "close":4,
    "slams":4,
    "response":4,
    "message":4,
    "comes":4,
    "calling":4,
    "research":4,
    "top":4,
    "quick":4,
    "returns":4,
    "which":4,
    "worry":4,
    "clicks":4,
    "machine":4,
    "eye":4,
    "strange":4,
    "pause":4,
    "slides":4,
    "pull":4,
    "feel":4,
    "until":4,
    "moving":4,
    "reaches":4,
    "clothes":4,
    "goodnight":4,
    "problem":4,
    "hanging":4,
    "talk":4,
    "lives":4,
    "hits":4,
    "bottle":4,
    "speaks":4,
    "follow":4,
    "walks":4,
    "raises":4,
    "guess":4,
    "anything":4,
    "kasia":4,
    "show":4,
    "closed":4,
    "must":4,
    "feeling":4,
    "thank":4,
    "happening":4,
    "twenty":4,
    "starts":4,
    "drifts":4,
    "point":4,
    "picture":4,
    "much":4,
    "stop":4,
    "stops":4,
    "different":4,
    "images":4,
    "happy":4,
    "maybe":4,
    "give":4,
    "else":4,
    "diapers":4,
    "those":4,
    "hotel":4,
    "found":4,
    "stiffly":4,
    "climbs":4,
    "alright":4,
    "isn\u2019t":4,
    "huh":4,
    "what\u2019re":4,
    "bunch":4,
    "laughing":4,
    "took":4,
    "move":4,
    "papers":4,
    "b26":4,
    "air":4,
    "lifts":4,
    "turn":4,
    "coming":4,
    "notices":4,
    "administrator":4,
    "cab":4,
    "water":4,
    "another":4,
    "mail":4,
    "foundation":4,
    "honey":4,
    "plant":4,
    "next":4,
    "week":4,
    "world":4,
    "audience":4,
    "probably":4,
    "pills":4,
    "roz":4,
    "lamp":4,
    "bought":4,
    "read":4,
    "toes":4,
    "grant":4,
    "doris":5,
    "voice":5,
    "somebody":5,
    "ya":5,
    "already":5,
    "hell":5,
    "comfort":5,
    "gets":5,
    "yourself":5,
    "leonard":5,
    "idea":5,
    "smile":5,
    "while":5,
    "how\u2019s":5,
    "wants":5,
    "came":5,
    "continues":5,
    "first":5,
    "couch":5,
    "cry":5,
    "might":5,
    "light":5,
    "talking":5,
    "wrong":5,
    "mind":5,
    "hes":5,
    "tomorrow":5,
    "crisis":5,
    "exactly":5,
    "brecht":5,
    "jon\u2019s":5,
    "attention":5,
    "ready":5,
    "situation":5,
    "hope":5,
    "hospital":5,
    "told":5,
    "again":5,
    "living":5,
    "tv":5,
    "airport":5,
    "weren\u2019t":5,
    "boy":5,
    "stuff":5,
    "won\u2019t":5,
    "unable":5,
    "friend":5,
    "will":5,
    "sounds":5,
    "once":5,
    "coat":5,
    "shoulder":5,
    "ear":5,
    "residents":5,
    "steps":5,
    "lot":5,
    "books":5,
    "list":5,
    "heart":5,
    "both":5,
    "tell":5,
    "having":5,
    "lets":5,
    "guggenheim":5,
    "legs":5,
    "fade":5,
    "youre":5,
    "against":6,
    "same":6,
    "times":6,
    "own":6,
    "seems":6,
    "hear":6,
    "valley":6,
    "because":6,
    "very":6,
    "money":6,
    "writing":6,
    "getting":6,
    "mother":6,
    "let":6,
    "everything":6,
    "you\u2019ve":6,
    "please":6,
    "heads":6,
    "stand":6,
    "hard":6,
    "yet":6,
    "god":6,
    "between":6,
    "kiss":6,
    "days":6,
    "married":6,
    "love":6,
    "doctor":6,
    "taking":6,
    "um":6,
    "before":6,
    "live":6,
    "couple":6,
    "watching":6,
    "dad\u2019s":6,
    "stare":6,
    "help":6,
    "dementia":6,
    "father\u2019s":6,
    "mouth":6,
    "suddenly":6,
    "whole":6,
    "could":6,
    "horrible":6,
    "laugh":6,
    "hand":6,
    "howard":6,
    "carrier":6,
    "remember":7,
    "shut":7,
    "pushes":7,
    "holding":7,
    "black":7,
    "glances":7,
    "expression":7,
    "nancy":7,
    "would":7,
    "trying":7,
    "than":7,
    "two":7,
    "questions":7,
    "guy":7,
    "opens":7,
    "im":7,
    "floor":7,
    "forward":7,
    "makes":7,
    "said":7,
    "few":7,
    "stay":7,
    "c\u2019mon":7,
    "words":7,
    "leaving":7,
    "find":7,
    "i\u2019ve":7,
    "man":7,
    "ever":7,
    "heard":7,
    "book":7,
    "minute":7,
    "excuse":7,
    "someone":7,
    "real":7,
    "bill":7,
    "dark":7,
    "keep":7,
    "put":7,
    "places":7,
    "view":7,
    "plays":7,
    "its":8,
    "eduardo":8,
    "shit":8,
    "puts":8,
    "i\u2019ll":8,
    "looking":8,
    "leave":8,
    "sees":8,
    "hey":8,
    "sister":8,
    "bad":8,
    "let\u2019s":8,
    "had":8,
    "sure":8,
    "pretty":8,
    "watches":8,
    "holds":8,
    "should":8,
    "front":8,
    "himself":8,
    "ask":8,
    "say":8,
    "trunk":8,
    "stares":8,
    "uh":8,
    "nods":8,
    "long":8,
    "thanks":8,
    "does":8,
    "yes":8,
    "name":8,
    "there\u2019s":9,
    "inside":9,
    "toward":9,
    "herself":9,
    "brother":9,
    "being":9,
    "goes":9,
    "stands":9,
    "begins":9,
    "called":9,
    "phone":9,
    "we\u2019ll":9,
    "even":9,
    "red":9,
    "great":9,
    "side":9,
    "sit":9,
    "wasn\u2019t":9,
    "make":9,
    "woman":9,
    "genghis":9,
    "nice":10,
    "sound":10,
    "bathroom":10,
    "lenny\u2019s":10,
    "under":10,
    "life":10,
    "window":10,
    "believe":10,
    "work":10,
    "nothing":10,
    "still":10,
    "tries":10,
    "things":10,
    "actually":10,
    "big":10,
    "these":10,
    "too":10,
    "any":11,
    "never":11,
    "thought":11,
    "each":11,
    "wendy\u2019s":11,
    "bag":11,
    "doesn\u2019t":11,
    "gonna":12,
    "camera":12,
    "am":12,
    "only":12,
    "play":12,
    "cat":12,
    "new":12,
    "family":12,
    "behind":12,
    "old":12,
    "moment":12,
    "why":12,
    "together":12,
    "nursing":12,
    "they\u2019re":12,
    "pillow":12,
    "our":13,
    "open":13,
    "night":13,
    "call":13,
    "head":13,
    "wen":13,
    "fine":13,
    "turns":13,
    "or":13,
    "people":13,
    "car":13,
    "takes":14,
    "face":14,
    "hello":14,
    "other":14,
    "oh":14,
    "mean":14,
    "kind":14,
    "eyes":14,
    "were":14,
    "home":14,
    "way":14,
    "doing":15,
    "after":15,
    "through":15,
    "little":15,
    "hands":15,
    "she\u2019s":15,
    "us":15,
    "their":16,
    "hi":16,
    "how":16,
    "care":17,
    "mr":17,
    "where":17,
    "been":17,
    "marley":17,
    "bed":17,
    "pulls":17,
    "did":17,
    "place":17,
    "need":18,
    "what\u2019s":18,
    "smiles":18,
    "more":18,
    "sorry":18,
    "thing":18,
    "who":19,
    "off":19,
    "jimmy":19,
    "away":20,
    "savage":20,
    "didn\u2019t":20,
    "come":20,
    "now":21,
    "has":21,
    "time":21,
    "think":21,
    "take":22,
    "room":22,
    "father":22,
    "can\u2019t":22,
    "when":23,
    "that\u2019s":23,
    "down":24,
    "if":24,
    "them":24,
    "around":24,
    "we\u2019re":25,
    "all":25,
    "door":26,
    "by":27,
    "some":27,
    "well":27,
    "really":27,
    "something":28,
    "go":28,
    "see":29,
    "look":29,
    "one":29,
    "want":29,
    "larry":30,
    "right":31,
    "he\u2019s":31,
    "got":32,
    "can":33,
    "you\u2019re":34,
    "yeah":34,
    "into":35,
    "over":35,
    "back":36,
    "then":37,
    "be":37,
    "going":37,
    "so":38,
    "don\u2019t":40,
    "was":41,
    "okay":42,
    "good":42,
    "no":43,
    "there":43,
    "get":44,
    "know":44,
    "have":44,
    "an":45,
    "":45,
    "about":45,
    "here":46,
    "looks":48,
    "as":51,
    "me":51,
    "are":52,
    "dad":52,
    "do":53,
    "from":55,
    "they":56,
    "but":57,
    "your":59,
    "him":59,
    "my":61,
    "like":61,
    "lenny":62,
    "up":63,
    "out":64,
    "i\u2019m":68,
    "just":69,
    "we":69,
    "she":72,
    "not":82,
    "this":83,
    "he":85,
    "with":90,
    "what":91,
    "at":91,
    "for":96,
    "on":103,
    "that":103,
    "his":104,
    "it\u2019s":106,
    "her":119,
    "jon":137,
    "is":141,
    "it":142,
    "in":178,
    "of":194,
    "i":196,
    "wendy":228,
    "you":272,
    "and":294,
    "to":300,
    "a":327,
    "the":564
}