{
    "horrible":1,
    "missing":1,
    "action":1,
    "felix":1,
    "unger":1,
    "evaluate":1,
    "propose":1,
    "realized":1,
    "unhappy":1,
    "shifts":1,
    "pulled":1,
    "besides":1,
    "spent":1,
    "weeks":1,
    "advice":1,
    "idiot":1,
    "none":1,
    "5553837":1,
    "idiots":1,
    "collect":1,
    "retirement":1,
    "pension":1,
    "tardy":1,
    "bed":1,
    "n":1,
    "bath":1,
    "cats":1,
    "pad":1,
    "comment":1,
    "card":1,
    "mail":1,
    "boss":1,
    "perfectioniss\u2026t":1,
    "dealing":1,
    "spot":1,
    "preparing":1,
    "previously":1,
    "wired":1,
    "across":1,
    "1268":1,
    "chestnut":1,
    "billing":1,
    "transferred":1,
    "smells":1,
    "heartbreak":1,
    "install":1,
    "dressed":1,
    "hallway":1,
    "access":1,
    "floorboards":1,
    "spooked":1,
    "crawling":1,
    "underneath":1,
    "bathing":1,
    "suit":1,
    "surfing":1,
    "ends":1,
    "fiftyfour":1,
    "accused":1,
    "shooting":1,
    "cold":1,
    "twins":1,
    "stars":1,
    "sitcom":1,
    "aired":1,
    "seventyseven":1,
    "eightyfour":1,
    "cancellation":1,
    "program":1,
    "hollywood":1,
    "chewed":1,
    "spit":1,
    "frustrated":1,
    "turned":1,
    "petty":1,
    "larceny":1,
    "impressionable":1,
    "fringe":1,
    "cult":1,
    "brotherhood":1,
    "reduced":1,
    "tabloid":1,
    "fodder":1,
    "fury":1,
    "growing":1,
    "inside":1,
    "burning":1,
    "recognized":1,
    "individual":1,
    "identical":1,
    "blasts":1,
    "november":1,
    "fourteenth":1,
    "attorneys":1,
    "continue":1,
    "unusual":1,
    "defense":1,
    "envy":1,
    "guiltfreakintee":1,
    "fry":1,
    "bastard":1,
    "arrangement":1,
    "major":1,
    "appliances":1,
    "causing":1,
    "noisy":1,
    "pics":1,
    "hum":1,
    "bars":1,
    "reception":1,
    "cleared":1,
    "programmed":1,
    "slave":1,
    "remotes":1,
    "levels":1,
    "paperwork":1,
    "fill":1,
    "attorney":1,
    "joking":1,
    "finished":1,
    "bribe":1,
    "state":1,
    "convicted":1,
    "fined":1,
    "fivethousand":1,
    "dollars":1,
    "correctional":1,
    "please\u2026":1,
    "dumb":1,
    "making":1,
    "conversation":1,
    "jerking":1,
    "chain":1,
    "snoozy":1,
    "juice":1,
    "push":1,
    "button":1,
    "booted":1,
    "consider":1,
    "solid":1,
    "plumber":1,
    "beeper":1,
    "marks":1,
    "satellite":1,
    "bout":1,
    "tomorrows":1,
    "stew":1,
    "ex":1,
    "crossed":1,
    "cross":1,
    "sixthirty":1,
    "\u2026there":1,
    "twentyfour":1,
    "classrooms":1,
    "converted":1,
    "1400":1,
    "square":1,
    "tennis":1,
    "courts":1,
    "olympic":1,
    "size":1,
    "pool":1,
    "full":1,
    "gym":1,
    "stage":1,
    "residents":1,
    "decide":1,
    "perform":1,
    "oklahoma":1,
    "kitsch":1,
    "appeal":1,
    "attractive":1,
    "young":1,
    "upwardly":1,
    "buyers":1,
    "structure":1,
    "foreclosure":1,
    "cash":1,
    "bid":1,
    "steveo":1,
    "troubles":1,
    "difficult":1,
    "temporary":1,
    "gotcha":1,
    "project":1,
    "fails":1,
    "corporates":1,
    "confidence":1,
    "pull":1,
    "area":1,
    "pop":1,
    "teen":1,
    "crush":1,
    "article":1,
    "daniels":1,
    "proposal":1,
    "renovate":1,
    "wonderful":1,
    "celebrate":1,
    "biggest":1,
    "career":1,
    "share":1,
    "mean\u2026":1,
    "broke":1,
    "broken":1,
    "separation":1,
    "disturb":1,
    "means":1,
    "deserve":1,
    "special":1,
    "report":1,
    "loneliness":1,
    "americas":1,
    "silent":1,
    "killer":1,
    "howdy":1,
    "partner":1,
    "climb":1,
    "aboard":1,
    "simple":1,
    "coax":1,
    "comes":1,
    "wall":1,
    "goin":1,
    "\u2026it":1,
    "mecca":1,
    "emotional":1,
    "clear":1,
    "sending":1,
    "millions":1,
    "satisfied":1,
    "citizens":1,
    "impressive":1,
    "possibilities":1,
    "imagine":1,
    "billions":1,
    "bits":1,
    "surging":1,
    "watched":1,
    "granted":1,
    "kid":1,
    "worked":1,
    "nights":1,
    "stewardess":1,
    "abandonment":1,
    "issues":1,
    "father":1,
    "knows":1,
    "stronger":1,
    "speech":1,
    "therapist":1,
    "struck":1,
    "miss":1,
    "pressured":1,
    "labyrinth":1,
    "frank":1,
    "knowledge":1,
    "truly":1,
    "tenfold":1,
    "insightful":1,
    "fridays":1,
    "suckers":1,
    "hbo":1,
    "bait":1,
    "cooking":1,
    "watching":1,
    "happier":1,
    "pig":1,
    "shell":1,
    "running":1,
    "betcha":1,
    "embarrassed":1,
    "pretend":1,
    "detail":1,
    "office":1,
    "cook":1,
    "myself":1,
    "drop":1,
    "case":1,
    "prosecution":1,
    "911":1,
    "murdered":1,
    "confessed":1,
    "asian":1,
    "gang":1,
    "speaking":1,
    "language":1,
    "hmm":1,
    "indeed":1,
    "rare":1,
    "interview":1,
    "michael":1,
    "jacksons":1,
    "zoo":1,
    "keeper":1,
    "zone":1,
    "stopping":1,
    "neighborhood":1,
    "run":1,
    "court":1,
    "couple":1,
    "innings":1,
    "douglas\u2026":1,
    "during":1,
    "routine":1,
    "installation":1,
    "known":1,
    "skins":1,
    "warm":1,
    "boards":1,
    "type":1,
    "definitely":1,
    "foul":1,
    "wallet":1,
    "fear":1,
    "hole":1,
    "switch":1,
    "cover":1,
    "bringing":1,
    "brought":1,
    "higher":1,
    "level":1,
    "payback":1,
    "protecting":1,
    "ruined":1,
    "tone":1,
    "fix":1,
    "heineken":1,
    "uh":1,
    "shower":1,
    "me\u2026":1,
    "low":1,
    "slow":1,
    "5554329":1,
    "buzz":1,
    "quick":1,
    "whiz":1,
    "\u2026were":1,
    "ourselves":1,
    "tag":1,
    "\u2026i":1,
    "drying":1,
    "ringing":1,
    "choices":1,
    "laying":1,
    "movers":1,
    "change":1,
    "nows":1,
    "page":1,
    "was\u2026":1,
    "fast":1,
    "yeah\u2026":1,
    "bless":1,
    "cord":1,
    "effect":1,
    "kiss":1,
    "urge":1,
    "costs":1,
    "with\u2026":1,
    "flick":1,
    "yesterday":1,
    "mood":1,
    "peek":1,
    "surprise":1,
    "sesame":1,
    "buying":1,
    "twice":1,
    "ow":1,
    "oughta":1,
    "law":1,
    "fair":1,
    "pooooon":1,
    "tang":1,
    "melinda":1,
    "serving":1,
    "wench":1,
    "dost":1,
    "ale":1,
    "mate":1,
    "pitched":1,
    "fortnight":1,
    "kings":1,
    "eyeing":1,
    "meat":1,
    "eaten":1,
    "shoes":1,
    "hottie":1,
    "fire":1,
    "total":1,
    "robobabe":1,
    "waitress":1,
    "haha":1,
    "horny":1,
    "indian":1,
    "chief":1,
    "rap":1,
    "magnificent":1,
    "journey":1,
    "past":1,
    "prepapred":1,
    "feasting":1,
    "sport":1,
    "likes":1,
    "ye":1,
    "stand":1,
    "feet":1,
    "cheer":1,
    "sections":1,
    "blue":1,
    "knife":1,
    "fork":1,
    "refill":1,
    "tables":1,
    "spill":1,
    "kead":1,
    "mercy":1,
    "enjoyed":1,
    "hanging":1,
    "became":1,
    "possibility":1,
    "walked":1,
    "climax":1,
    "competition":1,
    "noble":1,
    "men":1,
    "resolve":1,
    "grievance":1,
    "master":1,
    "m":1,
    "fighting":1,
    "pit":1,
    "normal":1,
    "safe":1,
    "armors":1,
    "careful":1,
    "sworn":1,
    "demise":1,
    "voices":1,
    "kirk":1,
    "spirit":1,
    "rought":1,
    "rough":1,
    "both":1,
    "muster":1,
    "steed":1,
    "choice":1,
    "victor":1,
    "shall":1,
    "warriors":1,
    "instinct":1,
    "jousting":1,
    "lancelot":1,
    "zero":1,
    "liberty":1,
    "updating":1,
    "plus":1,
    "magic":1,
    "practically":1,
    "connection":1,
    "hook":1,
    "hooks":1,
    "valuable\u2026":1,
    "given":1,
    "personally":1,
    "pickup":1,
    "gesture":1,
    "mmhmm":1,
    "tonights":1,
    "history":1,
    "virgin":1,
    "jam":1,
    "ifs":1,
    "ands":1,
    "buts":1,
    "gator":1,
    "king":1,
    "freaked":1,
    "allowed":1,
    "pressuring":1,
    "shoot":1,
    "words":1,
    "express\u2026":1,
    "mission":1,
    "plenty":1,
    "acquaintances":1,
    "airport":1,
    "whoa":1,
    "chick":1,
    "alert":1,
    "oclock":1,
    "barn":1,
    "burner":1,
    "sirree":1,
    "lampshade":1,
    "hotter":1,
    "whod":1,
    "strike":1,
    "iron":1,
    "hesitates":1,
    "masturbates":1,
    "nerdy":1,
    "balding":1,
    "throw":1,
    "chips":1,
    "admire":1,
    "hooked":1,
    "slowly":1,
    "drink":1,
    "tequila":1,
    "invitation":1,
    "changing":1,
    "oooh":1,
    "whacked":1,
    "news":1,
    "basketball":1,
    "terific":1,
    "host":1,
    "spinach":1,
    "aint":1,
    "join":1,
    "crew":1,
    "sing":1,
    "no\u2026":1,
    "dedicated":1,
    "ladies":1,
    "sounded":1,
    "olivia":1,
    "newton":1,
    "john":1,
    "practicing":1,
    "barely":1,
    "also":1,
    "sleepy":1,
    "crashed":1,
    "bacon":1,
    "early":1,
    "rejected":1,
    "bought":1,
    "course":1,
    "paying":1,
    "assure":1,
    "tried":1,
    "drip":1,
    "ask":1,
    "yours":1,
    "ashamed":1,
    "freebie":1,
    "hint":1,
    "appreciated":1,
    "wanna":1,
    "sun":1,
    "block":1,
    "twist":1,
    "skiing":1,
    "skiblock":1,
    "sunski":1,
    "gail":1,
    "pattern":1,
    "commitment":1,
    "powered":1,
    "snow":1,
    "flies":1,
    "glass":1,
    "chicken":1,
    "hatched":1,
    "hired":1,
    "towel":1,
    "pleasure":1,
    "meal":1,
    "weathers":1,
    "winters":1,
    "mild":1,
    "serve":1,
    "bother":1,
    "advantage":1,
    "services":1,
    "instance":1,
    "cleanliness":1,
    "variety":1,
    "skin":1,
    "products":1,
    "younger":1,
    "lotion":1,
    "superb":1,
    "removing":1,
    "liver":1,
    "spots":1,
    "excellent":1,
    "moisturizer":1,
    "underestimate":1,
    "effects":1,
    "cologne":1,
    "mm\u2026":1,
    "karate":1,
    "properly":1,
    "tweezed":1,
    "fresh":1,
    "breath":1,
    "mouth":1,
    "reminds":1,
    "proper":1,
    "air":1,
    "angle":1,
    "neil":1,
    "armstrong":1,
    "experiencing":1,
    "gforce":1,
    "bizarre":1,
    "downtown":1,
    "beaten":1,
    "restroom":1,
    "assailant":1,
    "disguised":1,
    "bathroom":1,
    "attendant":1,
    "victim":1,
    "unable":1,
    "since":1,
    "unmotivated":1,
    "sketch":1,
    "artist":1,
    "drawing":1,
    "witnesses":1,
    "descriptions":1,
    "captured":1,
    "nation":1,
    "chilling":1,
    "facts":1,
    "eric":1,
    "roberts":1,
    "debut":1,
    "stanton":1,
    "excuse":1,
    "202":1,
    "upgrade":1,
    "rainbow":1,
    "package":1,
    "secret":1,
    "admirer":1,
    "promised":1,
    "slipped":1,
    "proud":1,
    "installed":1,
    "recently":1,
    "devoted":1,
    "crossing":1,
    "boundary":1,
    "minutes":1,
    "frankly":1,
    "sick":1,
    "mentioned":1,
    "reassess":1,
    "feelings":1,
    "other\u2026":1,
    "longer":1,
    "bungee":1,
    "jumping":1,
    "mexico":1,
    "well\u2026":1,
    "goofy":1,
    "im\u2026":1,
    "concert":1,
    "breaks":1,
    "girls":1,
    "starts":1,
    "byebye":1,
    "fall":1,
    "smooth":1,
    "knock":1,
    "juiced":1,
    "ultimate":1,
    "aphrodisiac":1,
    "caused":1,
    "bite":1,
    "helping":1,
    "extra":1,
    "honesty":1,
    "straight":1,
    "shooter":1,
    "boy":1,
    "right\u2026":1,
    "just\u2026":1,
    "himself":1,
    "nope":1,
    "nervous":1,
    "nellie":1,
    "eyes":1,
    "response":1,
    "initial":1,
    "remarkable":1,
    "local":1,
    "investment":1,
    "group":1,
    "complex":1,
    "rentals":1,
    "retrospect":1,
    "cajones":1,
    "slam":1,
    "dunked":1,
    "business\u2026":1,
    "pssst":1,
    "receipt":1,
    "merchandise":1,
    "follow":1,
    "goods":1,
    "relax":1,
    "whos":1,
    "jail":1,
    "extravagant":1,
    "gifts":1,
    "looked":1,
    "truth":1,
    "deliberately":1,
    "ruin":1,
    "fortieth":1,
    "anniversary":1,
    "monday":1,
    "plan":1,
    "unfortunately":1,
    "lottery":1,
    "questions":1,
    "taught":1,
    "lesson":1,
    "worst":1,
    "choose":1,
    "latter\u2026":1,
    "contact":1,
    "midnight":1,
    "express":1,
    "awesome":1,
    "film":1,
    "oliver":1,
    "stone":1,
    "academy":1,
    "award":1,
    "screenplay":1,
    "near":1,
    "framed":1,
    "louis":1,
    "tyson":1,
    "circumstances":1,
    "common":1,
    "concern":1,
    "somethings":1,
    "acknowledge":1,
    "refuses":1,
    "bottom":1,
    "lawyer":1,
    "search":1,
    "pseudonym":1,
    "harass":1,
    "stripper":1,
    "tate":1,
    "received":1,
    "cornered":1,
    "wives":1,
    "tales":1,
    "triggered":1,
    "pressure":1,
    "perfect":1,
    "baywatch":1,
    "babe":1,
    "witty":1,
    "seinfeld":1,
    "turkey":1,
    "mashed":1,
    "potatoes":1,
    "food":1,
    "bring":1,
    "laugh":1,
    "small":1,
    "request":1,
    "often":1,
    "thrown":1,
    "chaos":1,
    "result":1,
    "videotape":1,
    "copy":1,
    "exclusive":1,
    "intoxicated":1,
    "puts":1,
    "macabre":1,
    "whether":1,
    "tape":1,
    "admissible":1,
    "evidence":1,
    "and\u2026":1,
    "dead":1,
    "goofing":1,
    "pain":1,
    "die":1,
    "xmen":1,
    "comic":1,
    "book":1,
    "underwear":1,
    "drawer":1,
    "mentioning":1,
    "jump":1,
    "hire":1,
    "bounty":1,
    "hunter":1,
    "hunt":1,
    "concerned":1,
    "rage":1,
    "joshing":1,
    "invite":1,
    "rested":1,
    "energy":1,
    "drag":1,
    "apology":1,
    "realize":1,
    "seriousness":1,
    "obviously":1,
    "understanding":1,
    "involved":1,
    "age":1,
    "chin":1,
    "carrying":1,
    "ax":1,
    "chasing":1,
    "swinging":1,
    "yelling":1,
    "takes":1,
    "seriously":1,
    "goodfellas":1,
    "intro":1,
    "johnny":1,
    "copper":1,
    "wear":1,
    "disguise":1,
    "aaah":1,
    "messes":1,
    "booo":1,
    "classic":1,
    "robins":1,
    "guts":1,
    "mess":1,
    "coffee":1,
    "fatten":1,
    "porno":1,
    "adult":1,
    "version":1,
    "popular":1,
    "schlong":1,
    "pass":1,
    "tit":1,
    "erection":1,
    "areola":1,
    "wed":1,
    "pronounce":1,
    "grown":1,
    "ruining":1,
    "xrated":1,
    "reacting":1,
    "overreacting":1,
    "fooled":1,
    "felon":1,
    "christ":1,
    "sake":1,
    "asshole":1,
    "idea":1,
    "birthmark":1,
    "shoulder":1,
    "sexy":1,
    "delightful":1,
    "completely":1,
    "days":1,
    "sociopath":1,
    "leaves":1,
    "wherever":1,
    "credit":1,
    "manipulating":1,
    "feels":1,
    "honest":1,
    "finally":1,
    "wanting":1,
    "photograph":1,
    "seduced":1,
    "professionals":1,
    "setting":1,
    "whore":1,
    "responsibility":1,
    "happiness":1,
    "bet":1,
    "offer":1,
    "psychopath":1,
    "research":1,
    "track":1,
    "anyone":1,
    "notice":1,
    "hour":1,
    "girlfriend":1,
    "gettin":1,
    "notified":1,
    "reaching":1,
    "verdict":1,
    "deliberating":1,
    "african":1,
    "eightyfive":1,
    "wheelchair":1,
    "nowhere":1,
    "snap":1,
    "favor":1,
    "tapping":1,
    "bingo":1,
    "sons":1,
    "list":1,
    "physical":1,
    "description":1,
    "murray":1,
    "slaughter":1,
    "brendan":1,
    "walsh":1,
    "malone":1,
    "alex":1,
    "reiger":1,
    "ragu":1,
    "carmine":1,
    "laverne":1,
    "shirley":1,
    "sad":1,
    "darren":1,
    "stole":1,
    "disappeared":1,
    "beating":1,
    "yelled":1,
    "denver":1,
    "thinks":1,
    "lead":1,
    "info":1,
    "listening":1,
    "icing":1,
    "cloth":1,
    "dearest":1,
    "world":1,
    "second":1,
    "wrath":1,
    "sensitive":1,
    "understands":1,
    "soul":1,
    "arent":1,
    "picking":1,
    "closer":1,
    "cd":1,
    "rack":1,
    "nose":1,
    "school":1,
    "ninethirty":1,
    "following":1,
    "obsessive":1,
    "boyfriend":1,
    "excited":1,
    "nut":1,
    "holy":1,
    "grail":1,
    "deeply":1,
    "troubled":1,
    "arrested":1,
    "prostitution":1,
    "solicitation":1,
    "pioneer":1,
    "discharged":1,
    "marines":1,
    "sergeant":1,
    "weapons":1,
    "silo":1,
    "defcon":1,
    "using":1,
    "radio":1,
    "shack":1,
    "wacked":1,
    "somebody":1,
    "nosey":1,
    "hundred":1,
    "currently":1,
    "residing":1,
    "intensive":1,
    "unit":1,
    "samaritan":1,
    "hospital":1,
    "legatos":1,
    "205":1,
    "shock":1,
    "poor":1,
    "accident":1,
    "business":1,
    "anonymous":1,
    "placed":1,
    "leading":1,
    "crime":1,
    "fingerprints":1,
    "romantic":1,
    "stroll":1,
    "fascinating":1,
    "ought":1,
    "rats":1,
    "interests":1,
    "ichabod":1,
    "crane":1,
    "disney":1,
    "ruuuuuummmmbbble":1,
    "changed":1,
    "fought":1,
    "win":1,
    "without":1,
    "sister":1,
    "cousin":1,
    "missed":1,
    "land":1,
    "myth":1,
    "kevin":1,
    "costner":1,
    "waterworld":1,
    "fuss":1,
    "ruled":1,
    "wevve":1,
    "wound":1,
    "thunk":1,
    "jason":1,
    "trapeze":1,
    "starring":1,
    "curtis":1,
    "lifestyles":1,
    "rich":1,
    "terrific":1,
    "anticlimactic":1,
    "sleeper":1,
    "hulk":1,
    "hogan":1,
    "sly":1,
    "stallone":1,
    "rocky":1,
    "thirty":1,
    "seconds":1,
    "happen":1,
    "mistreat":1,
    "secen":1,
    "clint":1,
    "eastwood":1,
    "harry":1,
    "hurting":1,
    "nooo":1,
    "anywhere":1,
    "sat":1,
    "boys":1,
    "sitter":1,
    "america":1,
    "render":1,
    "decision":1,
    "unanimous":1,
    "vote":1,
    "defendant":1,
    "stings":1,
    "gods":1,
    "already":2,
    "move":2,
    "sometime":2,
    "between":2,
    "eight":2,
    "smotherer":2,
    "forced":2,
    "double":2,
    "camera":2,
    "piece":2,
    "slip":2,
    "fifty":2,
    "bucks":2,
    "channels":2,
    "dirty":2,
    "ones":2,
    "says":2,
    "message":2,
    "reached":2,
    "hours":2,
    "closed":2,
    "perfectioniss\u2026":2,
    "heres":2,
    "lady":2,
    "kicked":2,
    "service":2,
    "half":2,
    "sweat":2,
    "former":2,
    "child":2,
    "trouble":2,
    "nineteen":2,
    "till":2,
    "fell":2,
    "person":2,
    "famous":2,
    "form":2,
    "shotgun":2,
    "guilty":2,
    "furniture":2,
    "moved":2,
    "few":2,
    "remote":2,
    "everything":2,
    "check":2,
    "sign":2,
    "power":2,
    "illegal":2,
    "offering":2,
    "spend":2,
    "months":2,
    "facility":2,
    "wake":2,
    "youd":2,
    "surprised":2,
    "many":2,
    "personal":2,
    "preferred":2,
    "incredible":2,
    "flip":2,
    "side":2,
    "foot":2,
    "schoolhouse":2,
    "mobile":2,
    "steal":2,
    "bro":2,
    "absolutely":2,
    "accepted":2,
    "congratulations":2,
    "stevey":2,
    "ride":2,
    "superhighway":2,
    "pennsylvania":2,
    "panther":2,
    "valley":2,
    "assistance":2,
    "jerrod":2,
    "electronics":2,
    "created":2,
    "entertainment":2,
    "moment":2,
    "future":2,
    "integrate":2,
    "visit":2,
    "louvre":2,
    "female":2,
    "wrestling":2,
    "shopping":2,
    "mortal":2,
    "kombat":2,
    "gone":2,
    "saturday":2,
    "makes":2,
    "huh":2,
    "thirst":2,
    "splendor":2,
    "remarkably":2,
    "jerry":2,
    "springers":2,
    "final":2,
    "sleepless":2,
    "seattle":2,
    "loves":2,
    "walk":2,
    "lives":2,
    "lucky":2,
    "interested":2,
    "learning":2,
    "taking":2,
    "apart":2,
    "healthy":2,
    "played":2,
    "whole":2,
    "shirts":2,
    "team":2,
    "sec":2,
    "traveling":2,
    "prison":2,
    "mug":2,
    "eleven":2,
    "checking":2,
    "ring":2,
    "quite":2,
    "blow":2,
    "hair":2,
    "\u2026youre":2,
    "busy":2,
    "interesting":2,
    "actually":2,
    "mr":2,
    "magoo":2,
    "worthless":2,
    "step":2,
    "corporate":2,
    "smartened":2,
    "dump":2,
    "starting":2,
    "alright":2,
    "fixed":2,
    "quickly":2,
    "cut":2,
    "restaurant":2,
    "thinking":2,
    "butts":2,
    "hurts":2,
    "hot":2,
    "bar":2,
    "thou":2,
    "beer":2,
    "thust":2,
    "hasnt":2,
    "serious":2,
    "shows":2,
    "games":2,
    "begin":2,
    "red":2,
    "pepsi":2,
    "before":2,
    "door":2,
    "audience":2,
    "part":2,
    "knights":2,
    "weve":2,
    "cannot":2,
    "instructions":2,
    "enemy":2,
    "spock":2,
    "trek":2,
    "daddy":2,
    "jim":2,
    "top":2,
    "horse":2,
    "sir":2,
    "holding":2,
    "stick":2,
    "begging":2,
    "laid":2,
    "pal":2,
    "screen":2,
    "thx":2,
    "george":2,
    "lucas":2,
    "else":2,
    "cost":2,
    "nothing":2,
    "customer":2,
    "wouldnt":2,
    "truck":2,
    "wrong":2,
    "equipment":2,
    "pity":2,
    "karaoke":2,
    "machine":2,
    "freak":2,
    "freaking":2,
    "lisp":2,
    "theyre":2,
    "walks":2,
    "either":2,
    "alive":2,
    "learn":2,
    "dramatic":2,
    "outta":2,
    "expect":2,
    "clean":2,
    "song":2,
    "oh\u2026":2,
    "needed":2,
    "morning":2,
    "eggs":2,
    "used":2,
    "forgive":2,
    "meeting":2,
    "yet":2,
    "blockski":2,
    "skidoo":2,
    "high":2,
    "powder":2,
    "use":2,
    "pleasant":2,
    "wash":2,
    "almost":2,
    "dry":2,
    "suck":2,
    "tip":2,
    "attack":2,
    "fox":2,
    "behind":2,
    "upstairs":2,
    "order":2,
    "hearing":2,
    "promise":2,
    "anyway":2,
    "heart":2,
    "screw":2,
    "ahead":2,
    "arrest":2,
    "stolen":2,
    "present":2,
    "stereo":2,
    "shouldnt":2,
    "bail":2,
    "weekend":2,
    "county":2,
    "lock":2,
    "comfort":2,
    "human":2,
    "killed":2,
    "guard":2,
    "per":2,
    "view":2,
    "sea":2,
    "shells":2,
    "salmon":2,
    "silverware":2,
    "suspicious":2,
    "sensational":2,
    "race":2,
    "judge":2,
    "sent":2,
    "long":2,
    "owe":2,
    "scene":2,
    "tony":2,
    "beat":2,
    "vagina":2,
    "peeeenis":2,
    "nipple":2,
    "breast":2,
    "hard\u2026":2,
    "center":2,
    "clitoris":2,
    "nuisance":2,
    "seems":2,
    "showed":2,
    "familiar":2,
    "communicating":2,
    "blackmailing":2,
    "better":2,
    "responsible":2,
    "sex":2,
    "installer":2,
    "tired":2,
    "control":2,
    "answer":2,
    "mommy":2,
    "stupid":2,
    "lonely":2,
    "wheres":3,
    "death":3,
    "giving":3,
    "space":3,
    "marry":3,
    "rest":3,
    "couldnt":3,
    "hi":3,
    "ago":3,
    "noticed":3,
    "harris":3,
    "star":3,
    "twin":3,
    "blood":3,
    "wasnt":3,
    "hope":3,
    "ooh":3,
    "alone":3,
    "six":3,
    "customers":3,
    "number":3,
    "theyll":3,
    "sit":3,
    "living":3,
    "available":3,
    "than":3,
    "howd":3,
    "agreed":3,
    "werent":3,
    "breaking":3,
    "position":3,
    "exactly":3,
    "because":3,
    "lansford":3,
    "head":3,
    "met":3,
    "american":3,
    "computer":3,
    "able":3,
    "mud":3,
    "vietnam":3,
    "end":3,
    "taken":3,
    "reality":3,
    "face":3,
    "doesnt":3,
    "brothers":3,
    "hate":3,
    "felt":3,
    "women":3,
    "try":3,
    "complicated":3,
    "remember":3,
    "entire":3,
    "find":3,
    "true":3,
    "apartment":3,
    "shot":3,
    "fault":3,
    "feed":3,
    "playing":3,
    "rock":3,
    "open":3,
    "chance":3,
    "bitch":3,
    "mine":3,
    "calling":3,
    "fight":3,
    "welcome":3,
    "lord":3,
    "turn":3,
    "messing":3,
    "utensils":3,
    "job":3,
    "friendship":3,
    "itll":3,
    "easy":3,
    "kidding":3,
    "admit":3,
    "saw":3,
    "telling":3,
    "left":3,
    "quality":3,
    "cream":3,
    "house":3,
    "accept":3,
    "five":3,
    "live":3,
    "probably":3,
    "heather":3,
    "glad":3,
    "seen":3,
    "bad":3,
    "everyone":3,
    "break":3,
    "handle":3,
    "hard":3,
    "start":3,
    "crazy":3,
    "evening":3,
    "whoops":3,
    "jury":3,
    "anymore":3,
    "lately":3,
    "mistake":3,
    "table":3,
    "swear":3,
    "happening":3,
    "needs":3,
    "larry":3,
    "found":3,
    "lunch":3,
    "family":3,
    "pow":3,
    "penis":3,
    "point":3,
    "same":3,
    "jesus":4,
    "havent":4,
    "kick":4,
    "relationship":4,
    "couch":4,
    "reach":4,
    "decided":4,
    "supposed":4,
    "four":4,
    "place":4,
    "happened":4,
    "town":4,
    "trial":4,
    "hit":4,
    "which":4,
    "while":4,
    "today":4,
    "i\u2026":4,
    "heard":4,
    "charge":4,
    "girl":4,
    "shit":4,
    "line":4,
    "pick":4,
    "most":4,
    "important":4,
    "ass":4,
    "talking":4,
    "own":4,
    "system":4,
    "went":4,
    "once":4,
    "theres":4,
    "waiting":4,
    "tv":4,
    "mom":4,
    "dad":4,
    "tough":4,
    "must":4,
    "wants":4,
    "goodbye":4,
    "catch":4,
    "is\u2026":4,
    "stevens":4,
    "pants":4,
    "speak":4,
    "buy":4,
    "messages":4,
    "pay":4,
    "bye":4,
    "question":4,
    "hal":4,
    "vision":4,
    "son":4,
    "set":4,
    "enjoy":4,
    "weird":4,
    "em":4,
    "funny":4,
    "may":4,
    "wish":4,
    "looking":4,
    "knight":4,
    "won":4,
    "bartowsky":4,
    "staple":4,
    "three":4,
    "shut":4,
    "looks":4,
    "story":4,
    "money":4,
    "sounds":4,
    "problems":4,
    "blowing":4,
    "worried":4,
    "hands":4,
    "wont":4,
    "married":4,
    "password":4,
    "close":4,
    "fired":4,
    "apparently":5,
    "working":5,
    "first":5,
    "forget":5,
    "baby":5,
    "whatever":5,
    "channel":5,
    "stan":5,
    "after":5,
    "their":5,
    "took":5,
    "does":5,
    "gave":5,
    "uh\u2026":5,
    "worry":5,
    "another":5,
    "treat":5,
    "feeling":5,
    "month":5,
    "rules":5,
    "dinner":5,
    "next":5,
    "understand":5,
    "information":5,
    "started":5,
    "sometimes":5,
    "soon":5,
    "through":5,
    "kill":5,
    "sound":5,
    "ya":5,
    "saying":5,
    "came":5,
    "around":5,
    "new":5,
    "gun":5,
    "such":5,
    "any":5,
    "still":5,
    "problem":5,
    "nobody":5,
    "medieval":5,
    "killing":5,
    "fun":5,
    "meet":5,
    "deal":5,
    "invited":5,
    "years":5,
    "prostitute":5,
    "police":5,
    "named":5,
    "late":5,
    "called":6,
    "asked":6,
    "mad":6,
    "enough":6,
    "hell":6,
    "them":6,
    "wait":6,
    "yourself":6,
    "\u2013":6,
    "much":6,
    "damn":6,
    "each":6,
    "old":6,
    "thank":6,
    "liked":6,
    "listen":6,
    "knew":6,
    "watch":6,
    "always":6,
    "made":6,
    "care":6,
    "under":6,
    "hang":6,
    "touch":6,
    "hurt":6,
    "being":6,
    "ready":6,
    "last":7,
    "movie":7,
    "life":7,
    "things":7,
    "thing":7,
    "told":7,
    "hold":7,
    "thanks":7,
    "works":7,
    "coming":7,
    "buddy":7,
    "appreciate":7,
    "mind":7,
    "game":7,
    "room":7,
    "battle":7,
    "stop":7,
    "by":8,
    "week":8,
    "gonna":8,
    "cool":8,
    "done":8,
    "these":8,
    "someone":8,
    "cause":8,
    "youll":8,
    "day":8,
    "guess":8,
    "nice":8,
    "god":8,
    "company":8,
    "tomorrow":8,
    "id":8,
    "tonight":8,
    "television":8,
    "phone":8,
    "together":8,
    "keep":8,
    "times":8,
    "stay":8,
    "wanted":8,
    "hows":9,
    "free":9,
    "stuff":9,
    "later":9,
    "leave":9,
    "trying":9,
    "put":9,
    "having":9,
    "let":9,
    "maybe":9,
    "pretty":9,
    "said":9,
    "ever":9,
    "into":9,
    "down":9,
    "guys":9,
    "every":9,
    "getting":9,
    "party":9,
    "date":9,
    "away":9,
    "isnt":10,
    "lot":10,
    "sam":10,
    "little":10,
    "sure":10,
    "might":10,
    "best":10,
    "woman":10,
    "way":10,
    "real":10,
    "kind":10,
    "":10,
    "shes":11,
    "two":11,
    "show":11,
    "yes":11,
    "brother":11,
    "more":11,
    "then":11,
    "name":11,
    "or":11,
    "mother":11,
    "people":11,
    "whats":11,
    "make":11,
    "our":11,
    "please":12,
    "say":12,
    "feel":12,
    "talk":12,
    "only":12,
    "over":12,
    "anything":12,
    "very":12,
    "us":12,
    "ernie":12,
    "am":13,
    "believe":13,
    "give":13,
    "even":13,
    "sweet":13,
    "friends":13,
    "love":13,
    "big":13,
    "off":13,
    "why":13,
    "play":13,
    "chip":13,
    "again":13,
    "had":14,
    "great":14,
    "could":14,
    "hear":14,
    "thought":14,
    "too":14,
    "rick":14,
    "help":14,
    "hello":15,
    "fine":15,
    "mean":15,
    "something":15,
    "work":15,
    "tell":16,
    "they":16,
    "yeah":16,
    "douglas":16,
    "would":17,
    "other":17,
    "an":17,
    "okay":17,
    "sorry":17,
    "lets":18,
    "has":18,
    "home":18,
    "will":18,
    "call":19,
    "never":19,
    "should":19,
    "night":19,
    "back":19,
    "need":19,
    "friend":19,
    "cant":20,
    "doing":20,
    "where":20,
    "as":20,
    "see":20,
    "hes":21,
    "when":21,
    "take":21,
    "youve":21,
    "his":22,
    "man":22,
    "who":23,
    "did":23,
    "how":24,
    "him":24,
    "look":25,
    "oh":26,
    "from":26,
    "time":27,
    "go":27,
    "her":28,
    "some":28,
    "well":29,
    "been":30,
    "one":31,
    "hey":31,
    "robin":32,
    "didnt":32,
    "if":32,
    "ill":32,
    "think":32,
    "ive":32,
    "there":32,
    "come":33,
    "thats":33,
    "want":34,
    "now":34,
    "at":36,
    "can":36,
    "she":38,
    "were":40,
    "guy":41,
    "all":41,
    "about":42,
    "really":43,
    "right":44,
    "not":45,
    "good":45,
    "got":46,
    "cable":48,
    "no":48,
    "going":49,
    "here":49,
    "but":49,
    "up":53,
    "we":55,
    "like":57,
    "out":58,
    "do":59,
    "he":60,
    "get":61,
    "know":62,
    "be":63,
    "its":63,
    "with":64,
    "so":66,
    "steven":67,
    "was":69,
    "are":69,
    "for":70,
    "youre":71,
    "have":73,
    "my":76,
    "dont":76,
    "what":80,
    "on":80,
    "your":81,
    "just":86,
    "in":91,
    "and":98,
    "that":98,
    "im":107,
    "of":112,
    "is":114,
    "this":120,
    "me":132,
    "it":137,
    "the":262,
    "a":265,
    "to":287,
    "i":351,
    "you":412
}