{
    "\u201cquestion":1,
    "describe":1,
    "extreme":1,
    "lone":1,
    "its":1,
    "descent":1,
    "rack":1,
    "\u201cskin\u201d":1,
    "bottle":1,
    "belong":1,
    "boyishly":1,
    "killer":1,
    "twin":1,
    "decorations":1,
    "include":1,
    "photo":1,
    "rat":1,
    "\u201cdear":1,
    "yesterday":1,
    "world\u201d":1,
    "types":1,
    "\u201cfuck\u201d":1,
    "definition":1,
    "beautifully":1,
    "proportions":1,
    "dated":1,
    "months":1,
    "longer":1,
    "magic":1,
    "mulls":1,
    "openness":1,
    "horizon":1,
    "unsettlingly":1,
    "kicking":1,
    "rock":1,
    "soft":1,
    "7up":1,
    "sheepishly":1,
    "tugs":1,
    "borrow":1,
    "tasty":1,
    "exit":1,
    "realizes":1,
    "granted":1,
    "barren":1,
    "branches":1,
    "treelined":1,
    "streets":1,
    "effects":1,
    "fighting":1,
    "mmhmm":1,
    "9":1,
    "breaking":1,
    "credit":1,
    "cards":1,
    "florida\u2019s":1,
    "hungry":1,
    "gun":1,
    "knife":1,
    "fishing":1,
    "rod":1,
    "explain":1,
    "situation":1,
    "pardon":1,
    "sort":1,
    "upset":1,
    "name\u2019s":1,
    "slamming":1,
    "nerve":1,
    "bedside":1,
    "hobby":1,
    "parks":1,
    "diversion":1,
    "annoying":1,
    "laps":1,
    "crack":1,
    "antics":1,
    "dangers":1,
    "harmful":1,
    "including":1,
    "leading":1,
    "dimension":1,
    "ideas":1,
    "compassionate":1,
    "toothless":1,
    "derelict":1,
    "supposed":1,
    "blaring":1,
    "gorgeous":1,
    "gutter":1,
    "rips":1,
    "tailbone":1,
    "yelp":1,
    "crossed":1,
    "livid":1,
    "rubbing":1,
    "injuries":1,
    "paces":1,
    "reprimands":1,
    "rant":1,
    "die":1,
    "virtually":1,
    "resolve":1,
    "crumbles":1,
    "undress":1,
    "feminine":1,
    "species":1,
    "rule":1,
    "signaling":1,
    "spill":1,
    "directions":1,
    "toughlooking":1,
    "jock":1,
    "varsity":1,
    "quigley":1,
    "sports":1,
    "longhaired":1,
    "jim":1,
    "morrison":1,
    "josh":1,
    "green":1,
    "fan":1,
    "entrance":1,
    "indian":1,
    "rejects":1,
    "ol\u2019":1,
    "colleen":1,
    "marshall":1,
    "tall":1,
    "tired":1,
    "excuses":1,
    "\u201ctonight\u2019s":1,
    "night\u201d":1,
    "score":1,
    "office":1,
    "cooler":1,
    "brim":1,
    "improvise":1,
    "faces":1,
    "canals":1,
    "canal":1,
    "rows":1,
    "buildings":1,
    "canyon":1,
    "shrug":1,
    "cream":1,
    "radio":1,
    "careening":1,
    "furious":1,
    "private":1,
    "pushes":1,
    "kendra":1,
    "socassidy":1,
    "else\u2019s":1,
    "feelings":1,
    "person":1,
    "unselfish":1,
    "misunderstanding":1,
    "crosstown":1,
    "announcer":1,
    "fills":1,
    "nips":1,
    "cul":1,
    "de":1,
    "sac":1,
    "nicer":1,
    "nowhere":1,
    "block":1,
    "en":1,
    "plucks":1,
    "neighbor\u2019s":1,
    "garden":1,
    "expensively":1,
    "decorated":1,
    "occasional":1,
    "partygoers":1,
    "highfive":1,
    "social":1,
    "unexpected":1,
    "hides":1,
    "seemed":1,
    "goddamn":1,
    "definitely":1,
    "sympathy":1,
    "outsidesutter":1,
    "speaking":1,
    "honor":1,
    "excellency":1,
    "necessary":1,
    "fairminded":1,
    "thoroughly":1,
    "understands":1,
    "meaning":1,
    "phrase":1,
    "\u2018kicked":1,
    "curb\u2019":1,
    "struggling":1,
    "backs":1,
    "bid":1,
    "vote":1,
    "understanding":1,
    "arrivederci":1,
    "flourish":1,
    "flurry":1,
    "unbelievable":1,
    "jump":1,
    "cuts":1,
    "weakerminded":1,
    "depressed":1,
    "count":1,
    "exams":1,
    "pointless":1,
    "apps":1,
    "matters":1,
    "psyching":1,
    "walkmen":1,
    "\u201cthe":1,
    "rat\u201d":1,
    "dumped":1,
    "delighted":1,
    "dances":1,
    "pinch":1,
    "cheeks":1,
    "innocent":1,
    "yells":1,
    "holy":1,
    "motherfuckingsmashcut":1,
    "black":1,
    "title":1,
    "female":1,
    "shadow":1,
    "sun":1,
    "thus":1,
    "spent":1,
    "disoriented":1,
    "younger":1,
    "freckles":1,
    "blonde":1,
    "public":1,
    "swimming":1,
    "discovered":1,
    "blinks":1,
    "pink":1,
    "nearby":1,
    "cars":1,
    "6am":1,
    "motions":1,
    "pickup":1,
    "truck":1,
    "pulled":1,
    "casino":1,
    "manage":1,
    "reel":1,
    "aw":1,
    "raw":1,
    "subject":1,
    "natural":1,
    "booming":1,
    "pro":1,
    "stuck":1,
    "stick":1,
    "sideways":1,
    "assumes":1,
    "spotted":1,
    "helping":1,
    "delivering":1,
    "fire":1,
    "torpedo":1,
    "agent":1,
    "danger":1,
    "launches":1,
    "direct":1,
    "share":1,
    "rotten":1,
    "cafeteria":1,
    "relive":1,
    "greatest":1,
    "triumphs":1,
    "delivery":1,
    "nerdy":1,
    "endearing":1,
    "modest":1,
    "rung":1,
    "readies":1,
    "early":1,
    "shift":1,
    "dammit":1,
    "tracks":1,
    "uhoh":1,
    "utility":1,
    "uniform":1,
    "act":1,
    "suggests":1,
    "tornado":1,
    "leftovers":1,
    "k":1,
    "lays":1,
    "softly":1,
    "alarm":1,
    "slept":1,
    "relaxed":1,
    "self":1,
    "cost":1,
    "bucks":1,
    "paid":1,
    "popcorn":1,
    "mmm":1,
    "tongue":1,
    "barons":1,
    "fatherson":1,
    "pretend":1,
    "brothers":1,
    "promised":1,
    "newspapers":1,
    "5am":1,
    "schooldays":1,
    "bullshit\u2019s":1,
    "nail":1,
    "solves":1,
    "chalkboard":1,
    "succeed":1,
    "acute":1,
    "measure":1,
    "siddown":1,
    "eat":1,
    "starving":1,
    "gesturing":1,
    "tots":1,
    "solid":1,
    "25":1,
    "per":1,
    "jumped":1,
    "hanging":1,
    "snow":1,
    "listener":1,
    "wore":1,
    "mascot":1,
    "larry":1,
    "rourke\u2019s":1,
    "stoner":1,
    "greg":1,
    "jacoby\u2019s":1,
    "rich":1,
    "french":1,
    "club":1,
    "meeting":1,
    "worries":1,
    "freshmen":1,
    "tutor":1,
    "anytime":1,
    "unable":1,
    "eats":1,
    "tot":1,
    "sale":1,
    "passing":1,
    "owner":1,
    "wife":1,
    "adopt":1,
    "two\u2019s":1,
    "mouths":1,
    "feed":1,
    "whiskey":1,
    "soda":1,
    "careful":1,
    "yank":1,
    "overdrive":1,
    "extint":1,
    "brick":1,
    "cube":1,
    "surrounded":1,
    "bare":1,
    "shingles":1,
    "original":1,
    "paint":1,
    "faded":1,
    "effort":1,
    "notably":1,
    "brother":1,
    "charming":1,
    "study":1,
    "lead":1,
    "narrow":1,
    "tacky":1,
    "hangings":1,
    "nap":1,
    "awesomely":1,
    "neat":1,
    "colorful":1,
    "sanctuary":1,
    "clean":1,
    "admiring":1,
    "giant":1,
    "map":1,
    "milky":1,
    "ceramic":1,
    "cats":1,
    "scattered":1,
    "massive":1,
    "bookshelf":1,
    "notebooks":1,
    "paperbacks":1,
    "science":1,
    "fiction":1,
    "mysteries":1,
    "\u201cembrace":1,
    "weird\u201d":1,
    "animestyle":1,
    "leader":1,
    "neexo":1,
    "ark":1,
    "escape":1,
    "galaxy":1,
    "system":1,
    "commander":1,
    "everywhere":1,
    "exceedingly":1,
    "straighten":1,
    "quadrilaterals":1,
    "figure":1,
    "4":1,
    "wonderful":1,
    "vectors":1,
    "coplanar":1,
    "lines":1,
    "calculates":1,
    "craggy":1,
    "saps":1,
    "vibe":1,
    "milk":1,
    "crissakes":1,
    "putting":1,
    "shoes":1,
    "ship":1,
    "crashed":1,
    "grab":1,
    "830":1,
    "comic":1,
    "mixing":1,
    "thelonious":1,
    "monk\u2019s":1,
    "\u201cstraight":1,
    "chaser\u201d":1,
    "carry":1,
    "chilly":1,
    "\u201chi\u201d":1,
    "parties":1,
    "dear":1,
    "brew":1,
    "illusion":1,
    "whattup":1,
    "intrigued":1,
    "hurries":1,
    "nonetheless":1,
    "preppy":1,
    "cap":1,
    "picnic":1,
    "sheepish":1,
    "\u201chellos\u201d":1,
    "cody\u2019s":1,
    "reader":1,
    "galactic":1,
    "warlord":1,
    "fucks":1,
    "\u201cinner":1,
    "prosperity\u201d":1,
    "happiness":1,
    "within":1,
    "convo":1,
    "appear":1,
    "beauty":1,
    "wince":1,
    "\u201csolar":1,
    "bull\u201d":1,
    "solar":1,
    "bull":1,
    "enthusiastically":1,
    "discuss":1,
    "however":1,
    "discover":1,
    "waving":1,
    "tightly":1,
    "ducks":1,
    "beirut":1,
    "pumped":1,
    "refills":1,
    "cup":1,
    "keeping":1,
    "mike\u2019s":1,
    "surf":1,
    "use":1,
    "fish":1,
    "fsshh":1,
    "dog":1,
    "legs":1,
    "guessed":1,
    "why\u2019d":1,
    "ass":1,
    "canary":1,
    "officially":1,
    "nuts":1,
    "attractive":1,
    "spanktaculiciously":1,
    "catcalls":1,
    "\u201cfight":1,
    "fight\u201d":1,
    "audible":1,
    "closer":1,
    "pushing":1,
    "beaten":1,
    "tree":1,
    "handle":1,
    "competition":1,
    "douchebag":1,
    "dirt":1,
    "revelers":1,
    "dick":1,
    "hammered":1,
    "touching":1,
    "nip":1,
    "memory":1,
    "flies":1,
    "threw":1,
    "choke":1,
    "example":1,
    "congratulations":1,
    "grown":1,
    "buts":1,
    "extraordinary":1,
    "chick":1,
    "\u201cmom":1,
    "back\u201d":1,
    "motherfuck":1,
    "motherfucker":1,
    "aaaah":1,
    "sorta":1,
    "clamps":1,
    "17":1,
    "horrible":1,
    "sweetheart":1,
    "convinced":1,
    "convince":1,
    "tilts":1,
    "plants":1,
    "whew":1,
    "\u201cwhew\u201d":1,
    "asleep":1,
    "wrappers":1,
    "stray":1,
    "littered":1,
    "clock":1,
    "1206pm":1,
    "stirs":1,
    "moans":1,
    "hangover":1,
    "upon":1,
    "shower":1,
    "nonsense":1,
    "gaze":1,
    "studying":1,
    "reacts":1,
    "listens":1,
    "note":1,
    "chicken":1,
    "microwave":1,
    "whistling":1,
    "bypasses":1,
    "liquor":1,
    "cabinet":1,
    "stirring":1,
    "written":1,
    "highlights":1,
    "\u201ccassidy210":1,
    "online\u201d":1,
    "chat":1,
    "\u201csutter7\u201d":1,
    "\u201chey":1,
    "\u201chello":1,
    "you\u201d":1,
    "out\u201d":1,
    "debates":1,
    "sending":1,
    "\u201ci\u2019m":1,
    "mall\u201d":1,
    "\u201cwanna":1,
    "come\u201d":1,
    "forth":1,
    "reminiscing":1,
    "bleachers":1,
    "lightning":1,
    "storm":1,
    "invincible":1,
    "disappear":1,
    "\u2018just":1,
    "ahead\u2019":1,
    "\u201cmoments\u201d":1,
    "contemporary":1,
    "folk":1,
    "acoustic":1,
    "utterly":1,
    "birthday":1,
    "pop":1,
    "pigtailed":1,
    "downstairs":1,
    "atrium":1,
    "yo":1,
    "bravissimo":1,
    "whatchoo":1,
    "doin":1,
    "tryin\u2019":1,
    "dem":1,
    "stiffs":1,
    "upstairs":1,
    "dat":1,
    "lameass":1,
    "ayoh":1,
    "goin\u2019":1,
    "aaaay":1,
    "burst":1,
    "party\u2019s":1,
    "lame":1,
    "arcade":1,
    "difference":1,
    "brown":1,
    "smashes":1,
    "sucker":1,
    "pong\u2019s":1,
    "races":1,
    "bullshit":1,
    "outdo":1,
    "tshirt":1,
    "clinging":1,
    "shawnee":1,
    "won":1,
    "favorite":1,
    "splashes":1,
    "disbelief":1,
    "estate":1,
    "developer":1,
    "cook":1,
    "county":1,
    "naked":1,
    "beauty\u2019s":1,
    "text":1,
    "friendly":1,
    "splash":1,
    "blank":1,
    "glance":1,
    "krittenbrink":1,
    "called":1,
    "sweet":1,
    "bossing":1,
    "personal":1,
    "assistant":1,
    "treat":1,
    "buzzkill":1,
    "uturn":1,
    "dusk":1,
    "bye":1,
    "staticky":1,
    "brushing":1,
    "\u2018i":1,
    "doing\u2019":1,
    "swanky":1,
    "forced":1,
    "ten":1,
    "dining":1,
    "\u201ccould":1,
    "else\u201d":1,
    "leaned":1,
    "puffed":1,
    "\u201cyou":1,
    "gorgeous\u201d":1,
    "\u201cvomit\u201d":1,
    "fancy":1,
    "lawyer":1,
    "leg":1,
    "pecks":1,
    "signals":1,
    "topoff":1,
    "provides":1,
    "fresh":1,
    "air":1,
    "rare":1,
    "couples":1,
    "nowadays":1,
    "friend\u2019s":1,
    "kid\u2019s":1,
    "doomed":1,
    "died":1,
    "shuffle":1,
    "seats":1,
    "painkillers":1,
    "bunch":1,
    "marriage":1,
    "mine\u2019s":1,
    "ranch":1,
    "nasa":1,
    "offset":1,
    "common":1,
    "also":1,
    "dimensions":1,
    "relationship":1,
    "dream":1,
    "raises":1,
    "pause":1,
    "starting":1,
    "sets":1,
    "hood":1,
    "resumes":1,
    "lasts":1,
    "whistles":1,
    "joins":1,
    "disapproving":1,
    "attracted":1,
    "giving":1,
    "needed":1,
    "experience":1,
    "tops":1,
    "maliciously":1,
    "lewis\u2019s":1,
    "shadowboxing":1,
    "shop":1,
    "plus":1,
    "fighter":1,
    "online":1,
    "victim":1,
    "chose":1,
    "ex":1,
    "grasp":1,
    "consequences":1,
    "locking":1,
    "intimidating":1,
    "physical":1,
    "honestly":1,
    "drop":1,
    "fuck\u2019s":1,
    "sake":1,
    "vulnerable":1,
    "jokes":1,
    "improving":1,
    "roll":1,
    "loosen":1,
    "tense":1,
    "volunteering":1,
    "sighs":1,
    "received":1,
    "remain":1,
    "manga":1,
    "fly":1,
    "goddamit":1,
    "flushes":1,
    "red":1,
    "shrinks":1,
    "gotten":1,
    "touchy":1,
    "yelled":1,
    "forehead":1,
    "eyelids":1,
    "grows":1,
    "intensity":1,
    "fondling":1,
    "bra":1,
    "pants":1,
    "romance":1,
    "amazed":1,
    "nudity":1,
    "safe":1,
    "girl\u2019s":1,
    "bases":1,
    "condom":1,
    "closed":1,
    "intimate":1,
    "connected":1,
    "entranced":1,
    "postcoital":1,
    "incredible":1,
    "knees":1,
    "unhatable":1,
    "sleeping":1,
    "stepfather":1,
    "knock":1,
    "climbed":1,
    "smooth":1,
    "talker":1,
    "spoke":1,
    "finished":1,
    "creeps":1,
    "quietly":1,
    "secret":1,
    "uncomfortable":1,
    "hesitates":1,
    "instead":1,
    "answering":1,
    "lay":1,
    "strokes":1,
    "ceiling":1,
    "auditorium":1,
    "admire":1,
    "\u201cadmire\u201d":1,
    "usually":1,
    "kinds":1,
    "evolving":1,
    "amount":1,
    "exhales":1,
    "aster\u2019s":1,
    "f":1,
    "c":1,
    "final":1,
    "smart":1,
    "thoughtful":1,
    "rushing":1,
    "grow":1,
    "tuxedoclad":1,
    "camera":1,
    "readying":1,
    "pose":1,
    "likely":1,
    "yellow":1,
    "quite":1,
    "match":1,
    "tone":1,
    "leaning":1,
    "pisa":1,
    "style":1,
    "fabuloso":1,
    "boutonniere":1,
    "corsage":1,
    "goodbyes":1,
    "washed":1,
    "limo":1,
    "wrapped":1,
    "glove":1,
    "compartment":1,
    "shall":1,
    "racing":1,
    "arrive":1,
    "venue":1,
    "hosting":1,
    "lit":1,
    "adjusts":1,
    "straps":1,
    "illfitting":1,
    "sneaks":1,
    "banquet":1,
    "hall":1,
    "swing":1,
    "expect":1,
    "padded":1,
    "chairs":1,
    "tablecloths":1,
    "sparkles":1,
    "greet":1,
    "highfives":1,
    "halfempty":1,
    "gentleman":1,
    "jiff":1,
    "push":1,
    "issue":1,
    "cares":1,
    "c\u2019mon":1,
    "lush":1,
    "spins":1,
    "accidentally":1,
    "bumps":1,
    "pissed":1,
    "apologizes":1,
    "curtsies":1,
    "ways":1,
    "twirling":1,
    "patrick\u2019s":1,
    "slower":1,
    "resist":1,
    "main":1,
    "grounds":1,
    "kings":1,
    "queens":1,
    "bench":1,
    "stars":1,
    "neither":1,
    "summer":1,
    "store\u2019s":1,
    "pay":1,
    "junior":1,
    "jobs":1,
    "free":1,
    "forest":1,
    "mississippi":1,
    "tons":1,
    "vacancies":1,
    "economy":1,
    "expensive":1,
    "june":1,
    "dazed":1,
    "possibilities":1,
    "ridiculous":1,
    "feedback":1,
    "yell":1,
    "\u201cwoo":1,
    "sutter\u201d":1,
    "less":1,
    "enthusiastic":1,
    "add":1,
    "\u201cyou\u2019re":1,
    "cares\u201d":1,
    "\u201chead":1,
    "grinning":1,
    "dickhead":1,
    "rehab":1,
    "warming":1,
    "asterhole":1,
    "cheer":1,
    "dig":1,
    "prom\u2019s":1,
    "elsewhere":1,
    "otherwise":1,
    "ouch":1,
    "none":1,
    "practically":1,
    "dancefucking":1,
    "whoa":1,
    "bitch":1,
    "winds":1,
    "process":1,
    "loses":1,
    "\u201clook":1,
    "her\u201d":1,
    "brushes":1,
    "gently":1,
    "vomits":1,
    "partying":1,
    "everything\u2019s":1,
    "gunshot":1,
    "nicelooking":1,
    "suit":1,
    "present":1,
    "dartmouth":1,
    "gators":1,
    "importantly":1,
    "customers":1,
    "regret":1,
    "given":1,
    "loaded":1,
    "buzz":1,
    "disappointed":1,
    "hoping":1,
    "reconsider":1,
    "honesty":1,
    "shake":1,
    "pleasure":1,
    "\u2018bout":1,
    "loosening":1,
    "tie":1,
    "sidewalk":1,
    "\u2018we\u2019re":1,
    "worried":1,
    "drinking\u2019":1,
    "hungover":1,
    "mouse":1,
    "hide":1,
    "whose":1,
    "fact":1,
    "using":1,
    "dealing":1,
    "expert":1,
    "lean":1,
    "blame":1,
    "garbage":1,
    "blown":1,
    "knowledge":1,
    "relationships":1,
    "she\u2019ll":1,
    "clear":1,
    "graduation":1,
    "attack":1,
    "weeks":1,
    "bird":1,
    "shocked":1,
    "shouts":1,
    "pukeareena":1,
    "celebrating":1,
    "walked":1,
    "nancy":1,
    "guilt":1,
    "refused":1,
    "afford":1,
    "him\u201d":1,
    "lobby":1,
    "upscale":1,
    "checking":1,
    "automatic":1,
    "patiently":1,
    "beckons":1,
    "guest":1,
    "standoff":1,
    "mints":1,
    "jar":1,
    "patio":1,
    "usual":1,
    "overdressed":1,
    "amusement":1,
    "fusses":1,
    "relandscaped":1,
    "planted":1,
    "backyard":1,
    "vacation":1,
    "\u2018where":1,
    "belt":1,
    "buckle":1,
    "museum\u2019":1,
    "\u2018why":1,
    "artichoke":1,
    "cream\u2019":1,
    "embarrassing":1,
    "muchacha":1,
    "remembers":1,
    "version":1,
    "admit":1,
    "suspicious":1,
    "expectantly":1,
    "returns":1,
    "psyched":1,
    "apprehensive":1,
    "dials":1,
    "masculine":1,
    "answers":1,
    "heckuva":1,
    "friday":1,
    "o\u2019clock":1,
    "speed":1,
    "excitement":1,
    "windows":1,
    "recently":1,
    "released":1,
    "further":1,
    "touched":1,
    "anticipation":1,
    "area":1,
    "townhouses":1,
    "poorly":1,
    "vodka":1,
    "doorbell":1,
    "third":1,
    "ring":1,
    "extremely":1,
    "worn":1,
    "creased":1,
    "blankly":1,
    "buddy":1,
    "striking":1,
    "lady":1,
    "taste":1,
    "followed":1,
    "invite":1,
    "beatup":1,
    "wagoneer":1,
    "whisky":1,
    "stat":1,
    "welcomes":1,
    "raised":1,
    "pats":1,
    "elated":1,
    "entire":1,
    "introduce":1,
    "manners":1,
    "ladyfriend":1,
    "beams":1,
    "ain\u2019t":1,
    "somethin\u2019":1,
    "nobody\u2019s":1,
    "minding":1,
    "sunsets":1,
    "butterscotch":1,
    "sundae":1,
    "swirls":1,
    "mixed":1,
    "melting":1,
    "ocean":1,
    "grins":1,
    "ran":1,
    "dough":1,
    "forever":1,
    "stare":1,
    "lingers":1,
    "refill":1,
    "martin\u2019s":1,
    "\u201caint":1,
    "head\u201d":1,
    "whispers":1,
    "ear":1,
    "flirtatiously":1,
    "martin":1,
    "eh":1,
    "mother\u2019s":1,
    "shock":1,
    "imagine":1,
    "married":1,
    "processes":1,
    "increasingly":1,
    "concerned":1,
    "blames":1,
    "kicked":1,
    "uncool":1,
    "traditional":1,
    "leads":1,
    "tally":1,
    "throw":1,
    "settle":1,
    "tab":1,
    "anytommy":1,
    "duplex":1,
    "pounding":1,
    "ignition":1,
    "condition":1,
    "we\u2019d":1,
    "pluto":1,
    "sunday":1,
    "silver":1,
    "stallions":1,
    "lowlife":1,
    "asshole":1,
    "stays":1,
    "pour":1,
    "bristles":1,
    "showed":1,
    "horn":1,
    "blares":1,
    "oncoming":1,
    "nearly":1,
    "possibly":1,
    "sorr":1,
    "approaching":1,
    "fog":1,
    "knocked":1,
    "blow":1,
    "changes":1,
    "freaks":1,
    "grass":1,
    "soaked":1,
    "caked":1,
    "mud":1,
    "dripping":1,
    "scalp":1,
    "kneels":1,
    "apart":1,
    "swear":1,
    "collapses":1,
    "bone":1,
    "fragments":1,
    "partially":1,
    "split":1,
    "require":1,
    "surgery":1,
    "suffered":1,
    "concussion":1,
    "dizziness":1,
    "cops":1,
    "hospital":1,
    "arguing":1,
    "voices":1,
    "muffled":1,
    "level":1,
    "twice":1,
    "legal":1,
    "willing":1,
    "bet":1,
    "harsh":1,
    "parent":1,
    "15":1,
    "support":1,
    "silenced":1,
    "chance":1,
    "inch":1,
    "randi":1,
    "wave":1,
    "continuous":1,
    "enters":1,
    "cast":1,
    "sor":1,
    "silences":1,
    "pained":1,
    "principal":1,
    "excitedly":1,
    "claps":1,
    "folder":1,
    "tiny":1,
    "empty":1,
    "happier":1,
    "weekends":1,
    "ready":1,
    "california":1,
    "sudden":1,
    "exciting":1,
    "era":1,
    "driver":1,
    "sadness":1,
    "overwhelms":1,
    "crying":1,
    "breaths":1,
    "suitcase":1,
    "boards":1,
    "silently":1,
    "convincing":1,
    "rearview":1,
    "beckoning":1,
    "lowest":1,
    "low":1,
    "dank":1,
    "dusty":1,
    "thuggish":1,
    "rumpled":1,
    "60s":1,
    "bartender":1,
    "wispy":1,
    "goatee":1,
    "teeth":1,
    "earl":1,
    "serving":1,
    "chimes":1,
    "save":1,
    "saved":1,
    "suther":1,
    "19":1,
    "wasted":1,
    "friendship":1,
    "driveway":1,
    "mailbox":1,
    "exits":1,
    "vehicle":1,
    "stumble":1,
    "remind":1,
    "climb":1,
    "rummaging":1,
    "reappears":1,
    "handing":1,
    "cu":1,
    "address":1,
    "protect":1,
    "allows":1,
    "man\u2019s":1,
    "composure":1,
    "3rd":1,
    "grade":1,
    "crutches":1,
    "carried":1,
    "10":1,
    "rosemary":1,
    "clark":1,
    "invited":1,
    "crumble":1,
    "\u201cdescribe":1,
    "life\u201d":1,
    "wet":1,
    "compared":1,
    "hardships":1,
    "shit\u2019s":1,
    "pauses":1,
    "\u201cshit\u201d":1,
    "replaces":1,
    "stuff\u2019s":1,
    "whether":1,
    "continue":1,
    "wheel":1,
    "failure":1,
    "letting":1,
    "catching":1,
    "guard":1,
    "focused":1,
    "bringing":1,
    "hooking":1,
    "coaching":1,
    "harm":1,
    "excessively":1,
    "goofing":1,
    "reaction":1,
    "pity":1,
    "pain":1,
    "peacefully":1,
    "reaching":1,
    "disappointment":1,
    "pulling":1,
    "hugging":1,
    "empties":1,
    "sink":1,
    "uses":1,
    "lighter":1,
    "ablaze":1,
    "burn":1,
    "\u201clive":1,
    "now\u201d":1,
    "\u201cnow\u201d":1,
    "tomorrow":1,
    "waste":1,
    "sincerely":1,
    "sparkling":1,
    "ps":1,
    "due":1,
    "secure":1,
    "steps":1,
    "cleaned":1,
    "steady":1,
    "purple":1,
    "ski":1,
    "experienced":2,
    "fade":2,
    "single":2,
    "belongs":2,
    "focus":2,
    "prepared":2,
    "future\u201d":2,
    "slow":2,
    "staring":2,
    "glimpse":2,
    "minor":2,
    "league":2,
    "team":2,
    "framed":2,
    "pack":2,
    "type":2,
    "admissions":2,
    "revealing":2,
    "voluptuous":2,
    "lies":2,
    "fat":2,
    "immaculate":2,
    "strip":2,
    "highway":2,
    "vast":2,
    "burrito":2,
    "pockets":2,
    "counter":2,
    "clerk":2,
    "dollar":2,
    "musketeers":2,
    "anywhere":2,
    "florida":2,
    "five":2,
    "8":2,
    "brave":2,
    "money":2,
    "cash":2,
    "hunt":2,
    "ha":2,
    "sutterman":2,
    "found":2,
    "711":2,
    "stunning":2,
    "angrily":2,
    "moms":2,
    "shoulders":2,
    "enjoy":2,
    "lancer":2,
    "pleasant":2,
    "responsibilities":2,
    "backwards":2,
    "xmas":2,
    "words":2,
    "besides":2,
    "confident":2,
    "calls":2,
    "lands":2,
    "arms":2,
    "absolutely":2,
    "lips":2,
    "honest":2,
    "cross":2,
    "impossible":2,
    "shame":2,
    "grateful":2,
    "bell":2,
    "points":2,
    "action":2,
    "step":2,
    "gestures":2,
    "pops":2,
    "trunk":2,
    "awkwardly":2,
    "boat":2,
    "river":2,
    "bottom":2,
    "30":2,
    "wallet":2,
    "run":2,
    "land":2,
    "strange":2,
    "speak":2,
    "sec":2,
    "selfish":2,
    "she\u2019d":2,
    "park":2,
    "decides":2,
    "handful":2,
    "wanders":2,
    "huge":2,
    "mood":2,
    "equals":2,
    "b":2,
    "individual":2,
    "bows":2,
    "balance":2,
    "confidence":2,
    "stumbles":2,
    "mirror":2,
    "passed":2,
    "age":2,
    "pale":2,
    "strawberry":2,
    "color":2,
    "pool":2,
    "dead":2,
    "yard":2,
    "lives":2,
    "ugly":2,
    "mom\u2019s":2,
    "newspaper":2,
    "allowance":2,
    "fair":2,
    "bills":2,
    "sad":2,
    "gift":2,
    "flips":2,
    "aye":2,
    "captain":2,
    "doorstep":2,
    "ohk":2,
    "barely":2,
    "holding":2,
    "wrinkled":2,
    "passes":2,
    "fridge":2,
    "finish":2,
    "davis":2,
    "background":2,
    "who\u2019s":2,
    "date":2,
    "check":2,
    "eating":2,
    "choice":2,
    "rebound":2,
    "interest":2,
    "dating":2,
    "6":2,
    "sucks":2,
    "rescue":2,
    "bring":2,
    "students":2,
    "begin":2,
    "homework":2,
    "reason":2,
    "means":2,
    "large":2,
    "scene":2,
    "tater":2,
    "hour":2,
    "sophomore":2,
    "guy\u2019s":2,
    "writes":2,
    "lewis":2,
    "welcome":2,
    "bud":2,
    "limit":2,
    "liked":2,
    "kinda":2,
    "boyfriend\u2019s":2,
    "lipstick":2,
    "he\u2019d":2,
    "rather":2,
    "catches":2,
    "pencil":2,
    "reading":2,
    "why\u2019s":2,
    "works":2,
    "space":2,
    "shirei":2,
    "migoto":2,
    "dark":2,
    "star":2,
    "they\u2019ve":2,
    "complementary":2,
    "earth":2,
    "slopes":2,
    "almost":2,
    "immediately":2,
    "quiet":2,
    "expression":2,
    "saturday":2,
    "stopping":2,
    "keg":2,
    "pass":2,
    "slaps":2,
    "lake":2,
    "norman":2,
    "killed":2,
    "winces":2,
    "dennis":2,
    "exchange":2,
    "genius":2,
    "either":2,
    "awesome":2,
    "chatting":2,
    "athlete":2,
    "approaches":2,
    "laughing":2,
    "hilarious":2,
    "trouble":2,
    "wonder":2,
    "weren\u2019t":2,
    "choose":2,
    "blushes":2,
    "causing":2,
    "rises":2,
    "marcus\u2019s":2,
    "aid":2,
    "able":2,
    "rest":2,
    "leans":2,
    "sips":2,
    "warm":2,
    "airline":2,
    "country":2,
    "divorced":2,
    "ago":2,
    "matter":2,
    "though":2,
    "teach":2,
    "repeat":2,
    "\u201cmom\u201d":2,
    "\u201cget":2,
    "curse":2,
    "hitting":2,
    "disgust":2,
    "fixes":2,
    "falls":2,
    "dismisses":2,
    "message":2,
    "working":2,
    "react":2,
    "straight":2,
    "deletes":2,
    "screen":2,
    "window":2,
    "send":2,
    "beautiful\u201d":2,
    "\u201cwhat":2,
    "wills":2,
    "heading":2,
    "receives":2,
    "telling":2,
    "problems":2,
    "tenderly":2,
    "cheek":2,
    "deciding":2,
    "bites":2,
    "lip":2,
    "guitar":2,
    "stairs":2,
    "ay":2,
    "doin\u2019":2,
    "distance":2,
    "fuggettaboudit":2,
    "woo":2,
    "row":2,
    "water":2,
    "drops":2,
    "tub":2,
    "engage":2,
    "fight":2,
    "mexico":2,
    "avoiding":2,
    "open":2,
    "doorway":2,
    "appears":2,
    "busy":2,
    "boys":2,
    "\u2018em":2,
    "honey":2,
    "worked":2,
    "squeezes":2,
    "view":2,
    "others":2,
    "fault":2,
    "lying":2,
    "he\u2019ll":2,
    "it\u2019ll":2,
    "aback":2,
    "glass":2,
    "tower":2,
    "control":2,
    "case":2,
    "scenario":2,
    "month":2,
    "yay":2,
    "reach":2,
    "lights":2,
    "win":2,
    "president":2,
    "charity":2,
    "brigade":2,
    "sense":2,
    "flinches":2,
    "likes":2,
    "important":2,
    "tight":2,
    "sex":2,
    "14":2,
    "randy\u2019s":2,
    "covers":2,
    "drove":2,
    "stayed":2,
    "awful":2,
    "refuses":2,
    "yearbook":2,
    "odd":2,
    "miraculous":2,
    "marvel":2,
    "harder":2,
    "surprise":2,
    "graduate":2,
    "everybody\u2019s":2,
    "pictures":2,
    "pretends":2,
    "elegant":2,
    "attention":2,
    "occasion":2,
    "notice":2,
    "full":2,
    "toast":2,
    "dj":2,
    "etc":2,
    "spikes":2,
    "dancer":2,
    "hadn\u2019t":2,
    "downs":2,
    "ends":2,
    "lecture":2,
    "alcohol":2,
    "falling":2,
    "excellent":2,
    "downtown":2,
    "remains":2,
    "hops":2,
    "riser":2,
    "3":2,
    "till":2,
    "somebody":2,
    "sing":2,
    "spinning":2,
    "bathroom":2,
    "across":2,
    "crashing":2,
    "happen":2,
    "bob\u2019s":2,
    "minute":2,
    "intervention":2,
    "fall":2,
    "moving":2,
    "set":2,
    "grace":2,
    "staying":2,
    "\u201ci":2,
    "hotel":2,
    "we\u2019ve":2,
    "wish":2,
    "ignores":2,
    "tent":2,
    "cheated":2,
    "sides":2,
    "holl":2,
    "piece":2,
    "picks":2,
    "pitcher":2,
    "overcome":2,
    "emotion":2,
    "cared":2,
    "follow":2,
    "doctor":2,
    "jukebox":2,
    "roberta\u2019s":2,
    "growing":2,
    "defend":2,
    "caught":2,
    "tommy\u2019s":2,
    "jumping":2,
    "blood":2,
    "respond":2,
    "diploma":2,
    "closes":2,
    "write":2,
    "seedy":2,
    "campus":2,
    "challenge":3,
    "misfortune":3,
    "bead":3,
    "sweat":3,
    "skin":3,
    "learned":3,
    "reveal":3,
    "slowly":3,
    "pull":3,
    "show":3,
    "handsome":3,
    "body":3,
    "top":3,
    "lucky":3,
    "tremendous":3,
    "typing":3,
    "beginning":3,
    "suburban":3,
    "mall":3,
    "mine":3,
    "breakfast":3,
    "pours":3,
    "true":3,
    "bat":3,
    "where\u2019s":3,
    "worry":3,
    "walter\u2019s":3,
    "ma\u2019am":3,
    "picture":3,
    "showing":3,
    "continues":3,
    "mitsubishi":3,
    "gym":3,
    "smiling":3,
    "talks":3,
    "knew":3,
    "loud":3,
    "angry":3,
    "meanwhile":3,
    "taking":3,
    "100":3,
    "percent":3,
    "throws":3,
    "romantic":3,
    "building":3,
    "jacket":3,
    "biggest":3,
    "doors":3,
    "state":3,
    "friend":3,
    "relax":3,
    "beers":3,
    "ladies":3,
    "filled":3,
    "ice":3,
    "plan":3,
    "ride":3,
    "whaddaya":3,
    "terrible":3,
    "cute":3,
    "plays":3,
    "storms":3,
    "own":3,
    "met":3,
    "hearing":3,
    "neighborhood":3,
    "flowers":3,
    "haircut":3,
    "evening":3,
    "wants":3,
    "finishes":3,
    "dressed":3,
    "cry":3,
    "alive":3,
    "years":3,
    "round":3,
    "realize":3,
    "stepdad":3,
    "pays":3,
    "lawn":3,
    "enjoying":3,
    "light":3,
    "jumps":3,
    "sometime":3,
    "monday":3,
    "finds":3,
    "taken":3,
    "miles":3,
    "ricky\u2019s":3,
    "half":3,
    "needs":3,
    "classroom":3,
    "geometry":3,
    "noticed":3,
    "sir":3,
    "teacher":3,
    "fail":3,
    "angles":3,
    "line":3,
    "hurt":3,
    "known":3,
    "waiting":3,
    "terrific":3,
    "men\u2019s":3,
    "goodbye":3,
    "baby":3,
    "neutral":3,
    "missing":3,
    "wearing":3,
    "expecting":3,
    "drawings":3,
    "covered":3,
    "shows":3,
    "planet":3,
    "stupid":3,
    "here\u2019s":3,
    "seriously":3,
    "dive":3,
    "shitting":3,
    "classes":3,
    "seeing":3,
    "stings":3,
    "classmates":3,
    "classmate":3,
    "eye":3,
    "break":3,
    "kick":3,
    "confused":3,
    "against":3,
    "games":3,
    "nah":3,
    "felt":3,
    "pilot":3,
    "key":3,
    "trust":3,
    "mom\u201d":3,
    "chin":3,
    "reads":3,
    "rolls":3,
    "tv":3,
    "happens":3,
    "response":3,
    "beats":3,
    "nervous":3,
    "many":3,
    "lose":3,
    "touches":3,
    "motel":3,
    "distraught":3,
    "seem":3,
    "anymore":3,
    "carmine":3,
    "breakin\u2019":3,
    "balls":3,
    "pong":3,
    "queen":3,
    "mouth":3,
    "without":3,
    "hot":3,
    "quick":3,
    "holly\u2019s":3,
    "chest":3,
    "guests":3,
    "story":3,
    "horse":3,
    "dreams":3,
    "kidding":3,
    "kissing":3,
    "looked":3,
    "boyfriend":3,
    "nothing\u2019s":3,
    "you\u2019d":3,
    "appreciate":3,
    "soon":3,
    "kept":3,
    "hugs":3,
    "lifts":3,
    "spectacular":3,
    "lie":3,
    "silence":3,
    "troy":3,
    "yours":3,
    "comfortable":3,
    "excuse":3,
    "men":3,
    "dress":3,
    "bowl":3,
    "cheers":3,
    "dancing":3,
    "shoulder":3,
    "mic":3,
    "loves":3,
    "da":3,
    "feet":3,
    "drive":3,
    "dredge":3,
    "slip":3,
    "hours":3,
    "everybody":3,
    "boy":3,
    "rain":3,
    "mrs":3,
    "hardship":4,
    "begins":4,
    "voice":4,
    "application":4,
    "pennant":4,
    "dean":4,
    "damn":4,
    "myself":4,
    "direction":4,
    "notices":4,
    "shrugs":4,
    "three":4,
    "minutes":4,
    "huh":4,
    "food":4,
    "least":4,
    "track":4,
    "middle":4,
    "running":4,
    "dinner":4,
    "flying":4,
    "funny":4,
    "hope":4,
    "making":4,
    "turned":4,
    "saw":4,
    "wanted":4,
    "truth":4,
    "double":4,
    "playing":4,
    "knowing":4,
    "meet":4,
    "play":4,
    "hello":4,
    "bright":4,
    "ground":4,
    "glasses":4,
    "times":4,
    "sleep":4,
    "those":4,
    "parked":4,
    "coming":4,
    "white":4,
    "papers":4,
    "driving":4,
    "each":4,
    "throwing":4,
    "such":4,
    "business":4,
    "sounds":4,
    "herself":4,
    "question":4,
    "special":4,
    "shot":4,
    "laugh":4,
    "along":4,
    "kitchen":4,
    "moves":4,
    "sometimes":4,
    "may":4,
    "movie":4,
    "week":4,
    "keeps":4,
    "uhhuh":4,
    "problem":4,
    "turning":4,
    "corner":4,
    "fast":4,
    "20":4,
    "clothing":4,
    "customer":4,
    "leaves":4,
    "afternoon":4,
    "roof":4,
    "mess":4,
    "worst":4,
    "outside":4,
    "mostly":4,
    "weird":4,
    "books":4,
    "understand":4,
    "job":4,
    "book":4,
    "coat":4,
    "alisa":4,
    "1":4,
    "joke":4,
    "shout":4,
    "crowd":4,
    "gave":4,
    "aim":4,
    "yourself":4,
    "exboyfriend":4,
    "holds":4,
    "deep":4,
    "breath":4,
    "hears":4,
    "hit":4,
    "chair":4,
    "asking":4,
    "agree":4,
    "whatever":4,
    "singing":4,
    "ping":4,
    "totally":4,
    "husband":4,
    "glad":4,
    "seems":4,
    "parents":4,
    "stunned":4,
    "onto":4,
    "tears":4,
    "dad\u2019s":4,
    "because":4,
    "silent":4,
    "proud":4,
    "hurting":4,
    "phone":4,
    "kiddo":4,
    "news":4,
    "afraid":4,
    "bus":4,
    "close":5,
    "18":5,
    "swig":5,
    "computer":5,
    "small":5,
    "desk":5,
    "clothes":5,
    "name":5,
    "living":5,
    "shouldn\u2019t":5,
    "convenience":5,
    "stories":5,
    "nods":5,
    "follows":5,
    "heard":5,
    "pick":5,
    "leave":5,
    "side":5,
    "road":5,
    "any":5,
    "knocks":5,
    "might":5,
    "ya":5,
    "walking":5,
    "talked":5,
    "try":5,
    "tries":5,
    "mad":5,
    "quickly":5,
    "everyone\u2019s":5,
    "denver":5,
    "feel":5,
    "bethany":5,
    "waves":5,
    "plans":5,
    "seconds":5,
    "lost":5,
    "asked":5,
    "completely":5,
    "sound":5,
    "sitting":5,
    "west":5,
    "touch":5,
    "awkward":5,
    "both":5,
    "started":5,
    "forget":5,
    "must":5,
    "hasn\u2019t":5,
    "lunch":5,
    "heads":5,
    "christ":5,
    "today":5,
    "2":5,
    "crazy":5,
    "year":5,
    "easy":5,
    "gives":5,
    "shut":5,
    "hallway":5,
    "wall":5,
    "wow":5,
    "tried":5,
    "sip":5,
    "mind":5,
    "beth":5,
    "watching":5,
    "different":5,
    "stand":5,
    "drinks":5,
    "exactly":5,
    "under":5,
    "kisses":5,
    "happy":5,
    "joe":5,
    "stares":5,
    "moved":5,
    "loved":5,
    "hate":5,
    "answer":6,
    "girlfriend":6,
    "cassidy\u2019s":6,
    "shirt":6,
    "ahead":6,
    "start":6,
    "morning":6,
    "far":6,
    "front":6,
    "young":6,
    "moments":6,
    "walter":6,
    "made":6,
    "heart":6,
    "hmm":6,
    "behind":6,
    "being":6,
    "runs":6,
    "family":6,
    "series":6,
    "standing":6,
    "couch":6,
    "went":6,
    "end":6,
    "helps":6,
    "left":6,
    "bit":6,
    "couple":6,
    "wait":6,
    "put":6,
    "turn":6,
    "hug":6,
    "gotta":6,
    "deal":6,
    "towards":6,
    "change":6,
    "leaving":6,
    "puts":6,
    "clearly":6,
    "hell":6,
    "gone":6,
    "watch":6,
    "impressed":6,
    "waits":6,
    "having":6,
    "came":6,
    "part":6,
    "days":6,
    "word":6,
    "kind":6,
    "miss":6,
    "second":6,
    "haven\u2019t":6,
    "perfect":6,
    "guess":6,
    "grabs":6,
    "louis":6,
    "told":6,
    "anyway":6,
    "new":6,
    "punch":6,
    "how\u2019s":6,
    "roberta":6,
    "actually":7,
    "thinks":7,
    "until":7,
    "hands":7,
    "rings":7,
    "couldn\u2019t":7,
    "woman":7,
    "father":7,
    "kids":7,
    "essay":7,
    "nobody":7,
    "world":7,
    "hear":7,
    "stands":7,
    "move":7,
    "kiss":7,
    "stay":7,
    "since":7,
    "feeling":7,
    "hi":7,
    "alone":7,
    "enough":7,
    "place":7,
    "someone":7,
    "knows":7,
    "surprised":7,
    "arm":7,
    "yet":7,
    "these":7,
    "past":7,
    "future":7,
    "king":7,
    "jesus":7,
    "used":7,
    "our":7,
    "forgot":7,
    "alright":7,
    "seat":7,
    "amazing":7,
    "finally":7,
    "shane":7,
    "randy":7,
    "read":7,
    "laughs":7,
    "real":7,
    "st":7,
    "number":8,
    "fucking":8,
    "else":8,
    "late":8,
    "drives":8,
    "aren\u2019t":8,
    "shakes":8,
    "feels":8,
    "song":8,
    "hard":8,
    "god":8,
    "cause":8,
    "their":8,
    "hero":8,
    "game":8,
    "most":8,
    "route":8,
    "hair":8,
    "stop":8,
    "find":8,
    "wouldn\u2019t":8,
    "hang":8,
    "yes":8,
    "mother":8,
    "already":8,
    "call":8,
    "care":8,
    "krystal":8,
    "fine":8,
    "cool":8,
    "cody":8,
    "trying":8,
    "motherfucking":8,
    "things":8,
    "moment":8,
    "shawnie":8,
    "beer":9,
    "floor":9,
    "baseball":9,
    "idea":9,
    "starts":9,
    "probably":9,
    "stops":9,
    "every":9,
    "gulp":9,
    "inside":9,
    "opens":9,
    "which":9,
    "angle":9,
    "even":9,
    "listen":9,
    "promise":9,
    "tara":9,
    "between":9,
    "give":9,
    "girls":9,
    "drunk":9,
    "old":9,
    "bar":9,
    "live":9,
    "while":9,
    "seen":9,
    "wanna":9,
    "we\u2019ll":9,
    "mr":9,
    "aster":9,
    "makes":9,
    "doyle":9,
    "whole":9,
    "dance":9,
    "bed":10,
    "high":10,
    "getting":10,
    "parking":10,
    "pulls":10,
    "dude":10,
    "pretty":10,
    "work":10,
    "drinking":10,
    "beat":10,
    "shots":10,
    "music":10,
    "thanks":10,
    "son":10,
    "cut":10,
    "long":10,
    "you\u2019ll":10,
    "ask":10,
    "beautiful":10,
    "finecky":10,
    "hold":10,
    "first":10,
    "serious":10,
    "you\u2019ve":10,
    "smile":11,
    "comes":11,
    "best":11,
    "believe":11,
    "bout":11,
    "sister":11,
    "home":11,
    "once":11,
    "last":11,
    "class":11,
    "does":11,
    "friends":11,
    "always":11,
    "saying":11,
    "tonight":11,
    "done":11,
    "through":11,
    "keep":11,
    "everyone":11,
    "thinking":11,
    "wasn\u2019t":11,
    "prom":11,
    "holly":11,
    "life":12,
    "than":12,
    "anyone":12,
    "himself":12,
    "next":12,
    "point":12,
    "everything":12,
    "girl":12,
    "i\u2019d":12,
    "make":12,
    "please":12,
    "fuck":12,
    "thank":12,
    "sit":12,
    "after":12,
    "bad":12,
    "nice":12,
    "says":12,
    "jason":12,
    "anything":12,
    "same":13,
    "lot":13,
    "goes":13,
    "turns":13,
    "happened":13,
    "door":13,
    "only":13,
    "guy":13,
    "paper":13,
    "watches":13,
    "college":14,
    "store":14,
    "walk":14,
    "very":14,
    "flask":14,
    "stuff":14,
    "remember":14,
    "talking":14,
    "am":14,
    "looking":14,
    "won\u2019t":14,
    "mary":14,
    "table":14,
    "bob":14,
    "keely":15,
    "bedroom":15,
    "great":15,
    "fun":15,
    "course":15,
    "party":15,
    "let":15,
    "they\u2019re":15,
    "isn\u2019t":16,
    "cass":16,
    "nothing":16,
    "eyes":16,
    "head":16,
    "people":16,
    "before":16,
    "other":16,
    "better":16,
    "sees":16,
    "hand":16,
    "together":16,
    "school":17,
    "could":17,
    "tell":17,
    "still":17,
    "guys":17,
    "we\u2019re":17,
    "will":17,
    "help":17,
    "had":18,
    "shit":18,
    "let\u2019s":18,
    "gets":18,
    "little":18,
    "sits":18,
    "uh":18,
    "house":18,
    "um":18,
    "few":18,
    "big":19,
    "talk":19,
    "much":19,
    "them":19,
    "said":19,
    "i\u2019ve":19,
    "ever":19,
    "gonna":20,
    "maybe":20,
    "should":20,
    "thought":20,
    "face":20,
    "kid":21,
    "walks":21,
    "need":21,
    "dad":21,
    "us":21,
    "ext":22,
    "doing":22,
    "around":22,
    "ricky":22,
    "mean":23,
    "never":23,
    "love":23,
    "didn\u2019t":23,
    "wrong":23,
    "take":23,
    "sorry":24,
    "man":24,
    "what\u2019s":24,
    "thing":24,
    "by":24,
    "again":24,
    "too":24,
    "more":24,
    "would":24,
    "two":25,
    "an":25,
    "another":25,
    "into":25,
    "were":25,
    "smiles":25,
    "room":26,
    "there\u2019s":26,
    "hey":26,
    "where":26,
    "been":26,
    "night":26,
    "or":27,
    "has":27,
    "drink":27,
    "ok":27,
    "i\u2019ll":27,
    "aimee\u2019s":27,
    "tommy":27,
    "something":28,
    "away":28,
    "why":28,
    "can\u2019t":29,
    "going":29,
    "oh":29,
    "did":29,
    "day":30,
    "yeah":30,
    "marcus":31,
    "down":32,
    "over":32,
    "when":32,
    "got":32,
    "time":32,
    "way":33,
    "sure":33,
    "he\u2019s":35,
    "she\u2019s":36,
    "well":36,
    "doesn\u2019t":36,
    "think":37,
    "look":38,
    "some":39,
    "later":39,
    "come":39,
    "want":39,
    "here":39,
    "who":40,
    "say":40,
    "there":40,
    "really":40,
    "mom":41,
    "off":42,
    "takes":43,
    "car":43,
    "good":44,
    "if":44,
    "sutter\u2019s":45,
    "cassidy":46,
    "int":49,
    "how":50,
    "then":50,
    "now":51,
    "one":51,
    "as":52,
    "looks":52,
    "see":52,
    "get":53,
    "right":54,
    "they":55,
    "go":57,
    "all":58,
    "be":58,
    "from":61,
    "can":63,
    "was":65,
    "your":68,
    "no":69,
    "are":69,
    "that\u2019s":70,
    "so":72,
    "back":76,
    "out":77,
    "we":79,
    "have":81,
    "about":82,
    "do":84,
    "up":86,
    "just":88,
    "but":89,
    "don\u2019t":89,
    "know":91,
    "like":91,
    "you\u2019re":93,
    "him":100,
    "not":102,
    "she":105,
    "i\u2019m":112,
    "it\u2019s":112,
    "my":115,
    "for":119,
    "with":120,
    "his":122,
    "at":123,
    "this":125,
    "":133,
    "what":135,
    "that":135,
    "me":136,
    "he":156,
    "aimee":163,
    "on":170,
    "is":171,
    "her":183,
    "in":185,
    "it":189,
    "of":191,
    "and":315,
    "a":398,
    "to":405,
    "i":414,
    "sutter":427,
    "you":565,
    "the":597
}