{
    "iphones":1,
    "64":1,
    "gigabytes":1,
    "16s":1,
    "bartender":1,
    "forgot":1,
    "eyesight":1,
    "palazzo":1,
    "filmed":1,
    "hills\u201d":1,
    "seasons":1,
    "neat":1,
    "happily":1,
    "weaves":1,
    "grove\u2019s":1,
    "crowd":1,
    "extra":1,
    "mario":1,
    "lopez":1,
    "fountain":1,
    "played":1,
    "buys":1,
    "wetzel":1,
    "sunny":1,
    "wake":1,
    "\u201cthank":1,
    "possible\u201d":1,
    "bell":1,
    "packages":1,
    "crate":1,
    "barrel":1,
    "\u2018til":1,
    "kitchen":1,
    "table":1,
    "balconies":1,
    "roof":1,
    "eyeing":1,
    "suspicious":1,
    "spot":1,
    "underground":1,
    "sprints":1,
    "bags":1,
    "shipped":1,
    "artwork":1,
    "localartist":1,
    "painting":1,
    "kermit":1,
    "frog":1,
    "woods":1,
    "handmade":1,
    "replicated":1,
    "matching":1,
    "pictures":1,
    "honeymoon":1,
    "smoked":1,
    "neglected":1,
    "mutts":1,
    "sniff":1,
    "pets":1,
    "clearly":1,
    "doggies":1,
    "six":1,
    "salt":1,
    "spruce":1,
    "delicate":1,
    "sadly":1,
    "whispers":1,
    "heaven":1,
    "charge":1,
    "man\u2019s":1,
    "pressure":1,
    "die\u201d":1,
    "watered":1,
    "plants":1,
    "plant":1,
    "forget":1,
    "mail":1,
    "invitation":1,
    "emily\u2019s":1,
    "somebody":1,
    "stopped":1,
    "cigarettes":1,
    "especially":1,
    "bites":1,
    "cheek":1,
    "wide":1,
    "pops":1,
    "\u201cfight":1,
    "school\u201d":1,
    "magnified":1,
    "address":1,
    "type":1,
    "label":1,
    "twentythree":1,
    "october":1,
    "birthday":1,
    "libra":1,
    "scales":1,
    "justice":1,
    "diplomatic":1,
    "transitions":1,
    "regular":1,
    "sunglasses":1,
    "lenscrafters":1,
    "appointment":1,
    "interrupts":1,
    "clean":1,
    "windex":1,
    "infertile":1,
    "tip":1,
    "upsidedown":1,
    "conceived":1,
    "one\u2019s":1,
    "among":1,
    "muchyounger":1,
    "underdressed":1,
    "awkwardly":1,
    "squeezed":1,
    "tree":1,
    "unwrap":1,
    "\u201cooh\u201d":1,
    "\u201cah\u201d":1,
    "list":1,
    "filipino":1,
    "boy":1,
    "practically":1,
    "programs":1,
    "download":1,
    "barney\u2019s":1,
    "circus":1,
    "nemoemily":1,
    "sooooo":1,
    "scone":1,
    "brunette":1,
    "countdown":1,
    "tonight":1,
    "haven\u2019t":1,
    "gotten":1,
    "coulda":1,
    "blonde":1,
    "curlyhaired":1,
    "dog":1,
    "nod":1,
    "agreement":1,
    "o":1,
    "shut":1,
    "onesie":1,
    "size":1,
    "ah":1,
    "thursday":1,
    "visiting":1,
    "son":1,
    "carry":1,
    "london":1,
    "grew":1,
    "brooklyn":1,
    "near":1,
    "park":1,
    "corner":1,
    "48th":1,
    "7th":1,
    "43rd":1,
    "4th":1,
    "public":1,
    "pool":1,
    "became":1,
    "summer":1,
    "aunt":1,
    "greenwood":1,
    "lake":1,
    "ran":1,
    "similar":1,
    "flustered":1,
    "piling":1,
    "settling":1,
    "papers":1,
    "babysitting":1,
    "backs":1,
    "volume":1,
    "progress":1,
    "verse":1,
    "otherwise":1,
    "demons":1,
    "dicks":1,
    "miles":1,
    "skeletal":1,
    "remains":1,
    "suspect":1,
    "2005":1,
    "startled":1,
    "homeless":1,
    "soda":1,
    "backing":1,
    "panicked":1,
    "shaving":1,
    "fucking":1,
    "doorbell":1,
    "key":1,
    "company":1,
    "curtain":1,
    "southern":1,
    "caught":1,
    "\u201ceyes":1,
    "crotch\u201d":1,
    "scan":1,
    "reverse":1,
    "2015":1,
    "green":1,
    "painful":1,
    "suicide":1,
    "valium":1,
    "agencies":1,
    "ton":1,
    "requires":1,
    "research":1,
    "faucet":1,
    "robe":1,
    "shape":1,
    "entertaining":1,
    "rushes":1,
    "pet":1,
    "correctly":1,
    "establish":1,
    "awhile":1,
    "stage":1,
    "grief":1,
    "ways":1,
    "marijuana":1,
    "stressed":1,
    "tickets":1,
    "weather":1,
    "remind":1,
    "\u201cred":1,
    "ripper\u201d":1,
    "gruesome":1,
    "photos":1,
    "forever":1,
    "send":1,
    "\u201ccl":1,
    "texts":1,
    "onesided":1,
    "occasion":1,
    "mmmmm":1,
    "bread":1,
    "pretzels":1,
    "risotto":1,
    "\u201cmarnie":1,
    "killing":1,
    "yourself\u201d":1,
    "reachable":1,
    "rush":1,
    "crash":1,
    "that\u2019d":1,
    "assistant":1,
    "timing":1,
    "elise":1,
    "interrupt":1,
    "driveby":1,
    "aw":1,
    "cute":1,
    "wish":1,
    "older":1,
    "flops":1,
    "couch":1,
    "cannon":1,
    "milkshakes":1,
    "waterpark":1,
    "haunted":1,
    "eject":1,
    "button":1,
    "session":1,
    "eighty":1,
    "terrible":1,
    "blinks":1,
    "stung":1,
    "less":1,
    "breaks":1,
    "sobbing":1,
    "texting":1,
    "sex":1,
    "shoving":1,
    "slams":1,
    "talks":1,
    "drags":1,
    "suitcases":1,
    "shutting":1,
    "safely":1,
    "drives":1,
    "deafening":1,
    "wheel":1,
    "determined":1,
    "placing":1,
    "bunny":1,
    "142":1,
    "pain":1,
    "nurse":1,
    "curling":1,
    "fulltime":1,
    "salary":1,
    "hire":1,
    "decent":1,
    "funniest":1,
    "wonder":1,
    "eat":1,
    "tells":1,
    "lonely":1,
    "grown":1,
    "normal":1,
    "someday":1,
    "conversations":1,
    "complex":1,
    "foot":1,
    "fetish":1,
    "kinda":1,
    "blind":1,
    "anytime":1,
    "lucky":1,
    "gone":1,
    "quickie":1,
    "selfish":1,
    "slamming":1,
    "toy":1,
    "danny":1,
    "dani\u2019s":1,
    "chef":1,
    "bouchon":1,
    "fifth":1,
    "wheels":1,
    "turning":1,
    "gift":1,
    "per":1,
    "taxes":1,
    "dreams":1,
    "upset":1,
    "renewing":1,
    "vows":1,
    "leaps":1,
    "extravagant":1,
    "navy":1,
    "nautical":1,
    "sailor":1,
    "gentleman":1,
    "submarine":1,
    "submarines":1,
    "bunch":1,
    "boats":1,
    "yacht":1,
    "club":1,
    "marina":1,
    "del":1,
    "rey":1,
    "magnifies":1,
    "squinting":1,
    "image":1,
    "jeez":1,
    "clicks":1,
    "buttons":1,
    "decided":1,
    "engineering":1,
    "programming":1,
    "work\u2019ll":1,
    "marveling":1,
    "freaky":1,
    "credit":1,
    "card":1,
    "swipes":1,
    "driver\u2019s":1,
    "freeway":1,
    "avoid":1,
    "sleep":1,
    "dissolve":1,
    "headset":1,
    "\u201cbackground\u201d":1,
    "losing":1,
    "filming":1,
    "\u201chomeless":1,
    "man\u201d":1,
    "pockets":1,
    "unsure":1,
    "happening":1,
    "background":1,
    "craziest":1,
    "happened":1,
    "wandered":1,
    "wild":1,
    "stars":1,
    "glad":1,
    "nights":1,
    "class":1,
    "scalps":1,
    "victims":1,
    "brains":1,
    "coconut":1,
    "true":1,
    "allergic":1,
    "chats":1,
    "checks":1,
    "chart":1,
    "staff":1,
    "cos":1,
    "dominic":1,
    "actual":1,
    "settled":1,
    "thicker":1,
    "spins":1,
    "dogsitting":1,
    "fix":1,
    "finish":1,
    "unless":1,
    "million":1,
    "bucks":1,
    "bands":1,
    "sister":1,
    "singer":1,
    "karaoke":1,
    "machine":1,
    "throughout":1,
    "celebration":1,
    "dedicated":1,
    "wanders":1,
    "shifts":1,
    "attention":1,
    "expensive":1,
    "pare":1,
    "phoneno":1,
    "quartet":1,
    "records":1,
    "kickass":1,
    "spare":1,
    "expense":1,
    "\u201ctitanic\u201d":1,
    "blow":1,
    "mix":1,
    "squeal":1,
    "tickle":1,
    "glee":1,
    "boss":1,
    "sends":1,
    "email":1,
    "wreck":1,
    "strapless":1,
    "trish":1,
    "stacy":1,
    "casey":1,
    "p":1,
    "molly":1,
    "gina":1,
    "amy":1,
    "fern":1,
    "windy":1,
    "forgetting":1,
    "dresses":1,
    "coordinated":1,
    "odd":1,
    "blues":1,
    "traveler":1,
    "harmonica":1,
    "fantastic":1,
    "murder":1,
    "seriously":1,
    "skinnier":1,
    "fall":1,
    "exact":1,
    "copy":1,
    "cheaper":1,
    "fabric":1,
    "hears":1,
    "rip":1,
    "pricetag":1,
    "gasp":1,
    "flurry":1,
    "envelop":1,
    "huge":1,
    "birth":1,
    "surround":1,
    "joins":1,
    "mom\u2019s":1,
    "dead":1,
    "circle":1,
    "squealing":1,
    "name\u2019s":1,
    "century":1,
    "reshoots":1,
    "spots":1,
    "yellow":1,
    "telephone":1,
    "pole":1,
    "follows":1,
    "sign\u2019s":1,
    "dying":1,
    "lanes":1,
    "shoulder":1,
    "can\u2019tcrunch":1,
    "crashed":1,
    "realized":1,
    "books":1,
    "using":1,
    "amazon":1,
    "price":1,
    "poor":1,
    "education":1,
    "proper":1,
    "lesbian":1,
    "figured":1,
    "jillian\u2019s":1,
    "k":1,
    "cage":1,
    "received":1,
    "consolation":1,
    "prize":1,
    "possibly":1,
    "replacing":1,
    "replace":1,
    "anybody":1,
    "worked":1,
    "would\u2019ve":1,
    "cinderella":1,
    "bippityboppityboo":1,
    "asking":1,
    "fluffs":1,
    "grateful":1,
    "et":1,
    "tracing":1,
    "fixated":1,
    "trapped":1,
    "whoa":1,
    "twin":1,
    "wearing":1,
    "carrying":1,
    "explode":1,
    "pleasant":1,
    "shotgun":1,
    "memorization":1,
    "technique":1,
    "executive\u2019s":1,
    "legs":1,
    "juicy":1,
    "executive":1,
    "legislative":1,
    "judicial":1,
    "paint":1,
    "matte":1,
    "tre":1,
    "stole":1,
    "hearse":1,
    "pissed":1,
    "pants":1,
    "rundown":1,
    "thug":1,
    "knowing":1,
    "unlikely":1,
    "pounds":1,
    "doctors":1,
    "kidney":1,
    "toxins":1,
    "spread":1,
    "\u201cmom":1,
    "smart":1,
    "worth":1,
    "saving":1,
    "is\u201d":1,
    "lower":1,
    "marvels":1,
    "fredo\u2019s":1,
    "generosity":1,
    "showing":1,
    "63a":1,
    "point":1,
    "between":1,
    "president":1,
    "bill":1,
    "congress":1,
    "overrule":1,
    "ha":1,
    "passenger":1,
    "reluctantly":1,
    "filled":1,
    "orange":1,
    "lights":1,
    "flash":1,
    "throws":1,
    "chunk":1,
    "knocks":1,
    "campus":1,
    "shakes":1,
    "shaking":1,
    "road":1,
    "howm":1,
    "uch":1,
    "betterlooking":1,
    "glazed":1,
    "panic":1,
    "actress":1,
    "officerman":1,
    "pies":1,
    "nervous":1,
    "paranoid":1,
    "technically":1,
    "calls":1,
    "maiden":1,
    "confusing":1,
    "steadies":1,
    "casual":1,
    "join":1,
    "naked":1,
    "wind":1,
    "saluting":1,
    "crack":1,
    "belligerent":1,
    "refused":1,
    "suggested":1,
    "taze":1,
    "tazing":1,
    "tazer":1,
    "bernie\u2019s":1,
    "aim":1,
    "low":1,
    "stood":1,
    "vibrating":1,
    "north":1,
    "pardon":1,
    "language":1,
    "hearing":1,
    "themselves":1,
    "streetlamp":1,
    "weakening":1,
    "dogsit":1,
    "bout":1,
    "davidson":1,
    "kickstart":1,
    "ridealong":1,
    "whatalong":1,
    "tour":1,
    "safest":1,
    "promise":1,
    "helmet":1,
    "cb":1,
    "unofficial":1,
    "backup":1,
    "letting":1,
    "ripper":1,
    "eight":1,
    "force":1,
    "binoculars":1,
    "randall":1,
    "oxnard":1,
    "originally":1,
    "ventura":1,
    "smiled":1,
    "teeth":1,
    "known":1,
    "counting":1,
    "symbiotic":1,
    "parmesan":1,
    "cheese":1,
    "ameraucana":1,
    "easter":1,
    "egger":1,
    "toughie":1,
    "bar":1,
    "joan":1,
    "gertude":1,
    "henrietta":1,
    "sass":1,
    "attitude":1,
    "account":1,
    "ladies":1,
    "shyly":1,
    "messes":1,
    "extension":1,
    "cord":1,
    "cleaning":1,
    "experiment":1,
    "dig":1,
    "rock":1,
    "\u2018n\u2019":1,
    "lay":1,
    "classical":1,
    "reggae":1,
    "perfect":1,
    "balance":1,
    "productivity":1,
    "roads":1,
    "pushes":1,
    "chicken":1,
    "twostepping":1,
    "chickens\u2019":1,
    "august":1,
    "forty":1,
    "met\u201d":1,
    "decorated":1,
    "60s":1,
    "flew":1,
    "served":1,
    "fondue":1,
    "spectacular":1,
    "treatments":1,
    "delivery":1,
    "shipping":1,
    "handling":1,
    "stayed":1,
    "brave":1,
    "shining":1,
    "likes":1,
    "palm":1,
    "springs":1,
    "high":1,
    "fell":1,
    "7030":1,
    "6040":1,
    "slip":1,
    "gripping":1,
    "held":1,
    "tightly":1,
    "rehab":1,
    "hoping":1,
    "hot":1,
    "strict":1,
    "rules":1,
    "curfews":1,
    "killers":1,
    "nevermind":1,
    "clears":1,
    "moments":1,
    "learned":1,
    "calm":1,
    "meditate":1,
    "garage":1,
    "exercise":1,
    "patience":1,
    "ex":1,
    "respect":1,
    "messages":1,
    "mothers":1,
    "fathers":1,
    "struck":1,
    "barrels":1,
    "speeding":1,
    "ticket":1,
    "hurries":1,
    "united":1,
    "352":1,
    "landing":1,
    "430":1,
    "dropped":1,
    "they\u2019d":1,
    "honest":1,
    "stomping":1,
    "grounds":1,
    "midtown":1,
    "garment":1,
    "district":1,
    "building":1,
    "when\u2019s":1,
    "cans":1,
    "pair":1,
    "headphones":1,
    "\u201ccantaloupe\u201d":1,
    "goodnight":1,
    "crap":1,
    "picked":1,
    "cookie":1,
    "dough":1,
    "seemed":1,
    "slutty":1,
    "violation":1,
    "yelling":1,
    "enters":1,
    "fills":1,
    "violated":1,
    "peed":1,
    "upstairs":1,
    "chuckles":1,
    "pained":1,
    "mesmerized":1,
    "images":1,
    "facing":1,
    "monitors":1,
    "smell":1,
    "push":1,
    "blinking":1,
    "riveted":1,
    "retire":1,
    "grandchildren":1,
    "hang":1,
    "lorraine":1,
    "aaaaaaand":1,
    "moving":1,
    "dazed":1,
    "nostalgic":1,
    "character":1,
    "based":1,
    "overcoughing":1,
    "races":1,
    "jungle":1,
    "seaplane":1,
    "going\u201d":1,
    "natives":1,
    "vine":1,
    "swinging":1,
    "sings":1,
    "enchanted":1,
    "splewsh":1,
    "poison":1,
    "arrows":1,
    "firing":1,
    "lifts":1,
    "giant":1,
    "\u201cjock":1,
    "plane\u201d":1,
    "\u201coh":1,
    "reggie\u201d":1,
    "\u201cbut":1,
    "hate":1,
    "snakes\u201d":1,
    "\u201cindiana":1,
    "jones":1,
    "raiders":1,
    "ark\u201d":1,
    "claps":1,
    "entertained":1,
    "hardest":1,
    "wiping":1,
    "brow":1,
    "we\u2019ll":1,
    "invited":1,
    "meeting":1,
    "scandalous":1,
    "homewrecking":1,
    "proposed":1,
    "agree":1,
    "hurry":1,
    "booth":1,
    "secret":1,
    "halfassed":1,
    "russell":1,
    "boyd":1,
    "rodney":1,
    "charters":1,
    "don":1,
    "mcalpine":1,
    "cinematographers":1,
    "operator":1,
    "intense":1,
    "youtube":1,
    "videos":1,
    "truck":1,
    "radio":1,
    "choreographed":1,
    "ends":1,
    "appearing":1,
    "knee":1,
    "tracking":1,
    "bastardized":1,
    "everybody\u2019s":1,
    "notes":1,
    "challenge":1,
    "hyper":1,
    "belowtheline":1,
    "evolves":1,
    "matteo":1,
    "attracted":1,
    "atlantic":1,
    "girlfriends":1,
    "lie":1,
    "halfsmiles":1,
    "cutest":1,
    "writes":1,
    "blog":1,
    "empowering":1,
    "impressed":1,
    "phone\u2019s":1,
    "323":1,
    "picture":1,
    "stifles":1,
    "curiosity":1,
    "toasts":1,
    "88":1,
    "ordered":1,
    "scrambled":1,
    "hotel":1,
    "ate":1,
    "yours":1,
    "briefly":1,
    "boyfriend":1,
    "fiancee":1,
    "hanging":1,
    "tosses":1,
    "mangia":1,
    "ariancini":1,
    "recipe":1,
    "grave":1,
    "wives":1,
    "noises":1,
    "done":1,
    "boiling":1,
    "broke":1,
    "italians":1,
    "collective":1,
    "\u201cugh\u201d":1,
    "threw":1,
    "pot":1,
    "itself":1,
    "touched":1,
    "napkin":1,
    "\u201cwhat":1,
    "doing\u201d":1,
    "mother\u201d":1,
    "recovers":1,
    "buried":1,
    "elizabeth":1,
    "swirls":1,
    "sensitive":1,
    "lately":1,
    "excuses":1,
    "sweat":1,
    "bury":1,
    "parents":1,
    "\u201ca":1,
    "there\u201d":1,
    "catch":1,
    "panting":1,
    "walls":1,
    "caving":1,
    "joseph":1,
    "handed":1,
    "mistake":1,
    "handing":1,
    "straighter":1,
    "welcome":1,
    "local":1,
    "937am":1,
    "remain":1,
    "seats":1,
    "taxi":1,
    "gate":1,
    "may":1,
    "straightens":1,
    "shade":1,
    "blares":1,
    "depending":1,
    "reception":1,
    "canyon":1,
    "treating":1,
    "expanded":1,
    "musical":1,
    "library":1,
    "include":1,
    "peggy":1,
    "lee":1,
    "forward":1,
    "click":1,
    "shocked":1,
    "granted":1,
    "accepted":1,
    "notice":1,
    "counts":1,
    "trespassing":1,
    "musictype":1,
    "fuzz":1,
    "avian":1,
    "fanbase":1,
    "human":1,
    "notices":1,
    "beats":1,
    "wannna":1,
    "courage":1,
    "waning":1,
    "missed":1,
    "ya":1,
    "respond":1,
    "genuinely":1,
    "yelled":1,
    "trip":1,
    "moral":1,
    "supporti":1,
    "understanding":1,
    "wrangle":1,
    "gorgeous":1,
    "everywhere":1,
    "admit":1,
    "quite":1,
    "remarkable":1,
    "\u201cnow":1,
    "pilot\u2019s":1,
    "license\u201d":1,
    "jilly":1,
    "bean":1,
    "could\u2019ve":1,
    "fools":1,
    "rushing":1,
    "rest":1,
    "nearly":1,
    "sheds":1,
    "tear":1,
    "shares":1,
    "sweet":1,
    "microphone":1,
    "wife":1,
    "judgment":1,
    "agreed":1,
    "awwwws":1,
    "surprised":1,
    "words":1,
    "describe":1,
    "gratitude":1,
    "truly":1,
    "selfless":1,
    "imagined":1,
    "proof":1,
    "leaves":1,
    "newer":1,
    "slower":1,
    "catching":1,
    "danced":1,
    "dancing\u201d":1,
    "slowdancing":1,
    "beyond":1,
    "ohkay":1,
    "huffs":1,
    "puffs":1,
    "unhappy":1,
    "split":1,
    "awkward":1,
    "slightest":1,
    "devastated":1,
    "heels":1,
    "arrives":1,
    "empty":1,
    "stolen":1,
    "night\u2019s":1,
    "ending":1,
    "brooklynites":1,
    "knockout":1,
    "match":1,
    "touch":1,
    "grip":1,
    "crotch":1,
    "pokes":1,
    "chops":1,
    "punches":1,
    "balls":1,
    "ow":1,
    "laptop":1,
    "contacts":1,
    "propose":1,
    "video":1,
    "explain":1,
    "buzzes":1,
    "answers":1,
    "pitch":1,
    "choose":1,
    "percentage":1,
    "scripts":1,
    "five":1,
    "film":1,
    "seinfeld":1,
    "stays":1,
    "remote":1,
    "traces":1,
    "puzzle":1,
    "decipher":1,
    "pregnancy":1,
    "jumbo":1,
    "times":1,
    "unveils":1,
    "pee":1,
    "slept":1,
    "barren":1,
    "testosterone":1,
    "grandkids":1,
    "congratulations":1,
    "toilet":1,
    "piled":1,
    "shoots":1,
    "second":1,
    "double":1,
    "abortion":1,
    "buries":1,
    "winces":1,
    "needle":1,
    "sell":1,
    "carpets":1,
    "dad\u2019s":1,
    "anna":1,
    "dr":1,
    "segal\u2019s":1,
    "negative":1,
    "tested":1,
    "urine":1,
    "online":1,
    "types":1,
    "fuck":1,
    "peeing":1,
    "bought":1,
    "rollercoaster":1,
    "laughter":1,
    "hysterically":1,
    "plan":1,
    "decision":1,
    "sobs":1,
    "mother\u2019s":1,
    "missing":1,
    "tight":1,
    "wipes":1,
    "leaning":1,
    "follow":1,
    "rests":1,
    "rocks":1,
    "forth":1,
    "nine":1,
    "darn":1,
    "dials":1,
    "9":1,
    "energy":1,
    "5":1,
    "1":1,
    "ear":1,
    "brushes":1,
    "kissing":1,
    "fill":1,
    "spirit":1,
    "sand":1,
    "malibu":1,
    "none":1,
    "private":1,
    "illegal":1,
    "step":1,
    "resident":1,
    "greater":1,
    "ocean":1,
    "drag":1,
    "hell":1,
    "soaking":1,
    "here\u201d":1,
    "footprints":1,
    "sands":1,
    "regrets":1,
    "forget\u201d":1,
    "bail":1,
    "law":1,
    "rubs":1,
    "hers":1,
    "interlocks":1,
    "lean":1,
    "fire":1,
    "pull":1,
    "slide":1,
    "rides":1,
    "brighter":1,
    "mad":1,
    "officially":1,
    "wondering":1,
    "seven":1,
    "clock":1,
    "lifesaver":1,
    "shouts":1,
    "grandma":1,
    "running":1,
    "bends":1,
    "tehya\u2019s":1,
    "greatest":1,
    "stairs":1,
    "story":1,
    "peels":1,
    "pages":1,
    "others":1,
    "coat":1,
    "bald":1,
    "patches":1,
    "seams":1,
    "underneath":1,
    "hairs":1,
    "tail":1,
    "pulled":1,
    "bead":1,
    "necklaces":1,
    "succession":1,
    "mechanical":1,
    "arrive":1,
    "boast":1,
    "swagger":1,
    "byandby":1,
    "mainsprings":1,
    "pass":1,
    "magic":1,
    "wonderful":1,
    "playthings":1,
    "experienced":1,
    "lies":1,
    "\u2018what":1,
    "real\u2019":1,
    "velveteen":1,
    "\u2018does":1,
    "buzz":1,
    "stickout":1,
    "handle\u2019":1,
    "\u2019real":1,
    "isnt":1,
    "\u2018its":1,
    "child":1,
    "truthful":1,
    "thats":1,
    "often":1,
    "easily":1,
    "sharp":1,
    "edges":1,
    "carefully":1,
    "generally":1,
    "loose":1,
    "joints":1,
    "shabby":1,
    "cant":1,
    "ugly":1,
    "understand\u201d":1,
    "service":1,
    "credits":1,
    "begin":1,
    "jason":1,
    "statham":1,
    "fabulous":1,
    "fade":1,
    "weekend":1,
    "hung":1,
    "realizes":1,
    "apple":2,
    "64s":2,
    "showed":2,
    "bigger":2,
    "safari":2,
    "\u201cthe":2,
    "grove":2,
    "\u201ccome":2,
    "fly":2,
    "me\u201d":2,
    "pretzel":2,
    "trolley":2,
    "scuttles":2,
    "cup":2,
    "decaf":2,
    "balcony":2,
    "elevator":2,
    "jersey":2,
    "guitar":2,
    "doll":2,
    "sets":2,
    "kid":2,
    "mirror":2,
    "younger":2,
    "handsome":2,
    "gives":2,
    "granddogs":2,
    "uncomfortable":2,
    "orchid":2,
    "amount":2,
    "toaster":2,
    "pile":2,
    "sees":2,
    "bring":2,
    "cabinet":2,
    "hurts":2,
    "word":2,
    "hobby":2,
    "volunteer":2,
    "fingers":2,
    "search":2,
    "must":2,
    "lawyer":2,
    "glasses":2,
    "walk":2,
    "anywhere":2,
    "engaged":2,
    "white":2,
    "ipad":2,
    "confused":2,
    "generous":2,
    "ipads":2,
    "gifts":2,
    "eating":2,
    "sitting":2,
    "she\u2019d":2,
    "babysit":2,
    "keeps":2,
    "g":2,
    "except":2,
    "greg\u2019s":2,
    "mark":2,
    "til":2,
    "divorced":2,
    "sunset":2,
    "lived":2,
    "church":2,
    "weren\u2019t":2,
    "bet":2,
    "lunch":2,
    "frozen":2,
    "unable":2,
    "breathe":2,
    "holocaust":2,
    "museum":2,
    "order":2,
    "volunteering":2,
    "prelap":2,
    "it\u2019ll":2,
    "reach":2,
    "we\u2019ve":2,
    "scary":2,
    "sprite":2,
    "within":2,
    "targeting":2,
    "area":2,
    "doors":2,
    "jesus":2,
    "california":2,
    "system":2,
    "barely":2,
    "computer":2,
    "quick":2,
    "girlfriend":2,
    "stool":2,
    "la":2,
    "bed":2,
    "wraps":2,
    "write":2,
    "coworkers":2,
    "sit":2,
    "boundaries":2,
    "hide":2,
    "cross":2,
    "angry":2,
    "seem":2,
    "quit":2,
    "grass":2,
    "besides":2,
    "career":2,
    "crime":2,
    "such":2,
    "reminds":2,
    "downs":2,
    "he\u2019d":2,
    "figure":2,
    "pack":2,
    "airport":2,
    "sighs":2,
    "exactly":2,
    "valentine\u2019s":2,
    "sleeping":2,
    "stuffed":2,
    "pillow":2,
    "week":2,
    "live":2,
    "means":2,
    "couldn\u2019t":2,
    "percent":2,
    "explodes":2,
    "idea":2,
    "kisses":2,
    "silence":2,
    "humming":2,
    "along":2,
    "raises":2,
    "hall":2,
    "needed":2,
    "babysitter":2,
    "brown":2,
    "literally":2,
    "cost":2,
    "days":2,
    "flying":2,
    "fake":2,
    "aisle":2,
    "special":2,
    "we\u2019d":2,
    "thirteen":2,
    "thousand":2,
    "romantic":2,
    "amazing":2,
    "you\u2019ll":2,
    "theme":2,
    "wear":2,
    "uniform":2,
    "officer":2,
    "rent":2,
    "boat":2,
    "venue":2,
    "classes":2,
    "schedule":2,
    "bus":2,
    "uses":2,
    "helping":2,
    "paying":2,
    "rubberbanded":2,
    "stack":2,
    "cards":2,
    "flowers":2,
    "camera":2,
    "crew":2,
    "middle":2,
    "twenty":2,
    "shhhhh":2,
    "crosses":2,
    "hollywood":2,
    "ended":2,
    "eats":2,
    "chocolate":2,
    "doctor":2,
    "keeping":2,
    "hopefully":2,
    "voice":2,
    "familiar":2,
    "strong":2,
    "tony":2,
    "dom":2,
    "flight":2,
    "how\u2019s":2,
    "ang":2,
    "quote":2,
    "problem":2,
    "suck":2,
    "lady":2,
    "elaine":2,
    "dj":2,
    "sing":2,
    "songs":2,
    "immediately":2,
    "string":2,
    "dance":2,
    "might":2,
    "fourpiece":2,
    "overwhelmed":2,
    "scream":2,
    "flower":2,
    "bailed":2,
    "wrap":2,
    "katie":2,
    "she\u2019ll":2,
    "number":2,
    "employee":2,
    "towards":2,
    "rips":2,
    "screaming":2,
    "hug":2,
    "earth":2,
    "sign":2,
    "arrow":2,
    "studying":2,
    "consonant":2,
    "feels":2,
    "guilty":2,
    "relationship":2,
    "kept":2,
    "questions":2,
    "points":2,
    "sky":2,
    "stirring":2,
    "appears":2,
    "backpack":2,
    "surprise":2,
    "turned":2,
    "minutes":2,
    "ice":2,
    "cream":2,
    "thirty":2,
    "difference":2,
    "picks":2,
    "seat":2,
    "plastic":2,
    "disappointed":2,
    "panicking":2,
    "chews":2,
    "closer":2,
    "faster":2,
    "swallows":2,
    "ma\u2019am":2,
    "security":2,
    "damn":2,
    "starting":2,
    "director":2,
    "throwing":2,
    "waving":2,
    "cops":2,
    "echoes":2,
    "clothes":2,
    "bernie":2,
    "dupar\u2019s":2,
    "knees":2,
    "gotta":2,
    "harley":2,
    "\u201ckickstarts\u201d":2,
    "thumb":2,
    "bike":2,
    "sort":2,
    "wrong":2,
    "cool":2,
    "red":2,
    "hadn\u2019t":2,
    "realize":2,
    "try":2,
    "sense":2,
    "randy":2,
    "moved":2,
    "topanga":2,
    "egg":2,
    "waves":2,
    "faces":2,
    "lead":2,
    "parton":2,
    "plays":2,
    "wider":2,
    "dancing":2,
    "throw":2,
    "\u201cwhy":2,
    "1969":2,
    "forces":2,
    "wound":2,
    "sea":2,
    "sun":2,
    "drops":2,
    "apart":2,
    "fault":2,
    "temper":2,
    "scared":2,
    "its":2,
    "unconditionally":2,
    "weight":2,
    "jfk":2,
    "jacob\u2019s":2,
    "tall":2,
    "chair":2,
    "guest":2,
    "reading":2,
    "characters":2,
    "frame":2,
    "bcamera":2,
    "cantaloupe":2,
    "ben":2,
    "plane":2,
    "snake":2,
    "lap":2,
    "usually":2,
    "fast":2,
    "rebounding":2,
    "date":2,
    "rebound":2,
    "dream":2,
    "dreamt":2,
    "writer":2,
    "wheelchair":2,
    "industry":2,
    "selfie":2,
    "sending":2,
    "obviously":2,
    "beep":2,
    "bye":2,
    "possible":2,
    "tina":2,
    "pina":2,
    "coast":2,
    "sprinkle":2,
    "headed":2,
    "relieved":2,
    "covers":2,
    "kiss":2,
    "speaker":2,
    "plug":2,
    "iphone":2,
    "silenced":2,
    "overnight":2,
    "incredible":2,
    "touches":2,
    "including":2,
    "cheers":2,
    "loved":2,
    "angel":2,
    "overstepping":2,
    "bounds":2,
    "matters":2,
    "strange":2,
    "neck":2,
    "mark\u2019s":2,
    "writers":2,
    "studios":2,
    "handful":2,
    "paper":2,
    "tests":2,
    "garbage":2,
    "lines":2,
    "false":2,
    "positive":2,
    "hon":2,
    "tumors":2,
    "ovulating":2,
    "ovulation":2,
    "happens":2,
    "dial":2,
    "4":2,
    "waits":2,
    "gently":2,
    "worried":2,
    "voicemail":2,
    "longer":2,
    "wise":2,
    "toys":2,
    "become":2,
    "doesnt":2,
    "across":3,
    "store":3,
    "morning":3,
    "program":3,
    "stand":3,
    "main":3,
    "disneyland":3,
    "man":3,
    "hit":3,
    "apartment":3,
    "peoples\u2019":3,
    "run":3,
    "toyota":3,
    "toward":3,
    "photo":3,
    "slides":3,
    "alive":3,
    "brought":3,
    "should\u2019ve":3,
    "answer":3,
    "hugs":3,
    "shuts":3,
    "outside":3,
    "daddy\u2019s":3,
    "bonsai":3,
    "tried":3,
    "tsks":3,
    "bagel":3,
    "dressed":3,
    "screen":3,
    "you\u2019d":3,
    "google":3,
    "history":3,
    "proud":3,
    "guess":3,
    "turn":3,
    "outta":3,
    "\u2018em":3,
    "group":3,
    "wow":3,
    "tiny":3,
    "giving":3,
    "m":3,
    "kidding":3,
    "nursery":3,
    "bite":3,
    "ago":3,
    "um":3,
    "circles":3,
    "check":3,
    "food":3,
    "full":3,
    "hard":3,
    "listening":3,
    "same":3,
    "lowers":3,
    "end":3,
    "continues":3,
    "chasing":3,
    "buy":3,
    "ten":3,
    "killer":3,
    "jumps":3,
    "excuse":3,
    "bursts":3,
    "ring":3,
    "drop":3,
    "mailer":3,
    "weird":3,
    "color":3,
    "kill":3,
    "yourself":3,
    "adoption":3,
    "desk":3,
    "breath":3,
    "certain":3,
    "you\u2019ve":3,
    "talked":3,
    "sad":3,
    "advice":3,
    "beat":3,
    "watching":3,
    "accent":3,
    "york":3,
    "headstone":3,
    "tomorrow":3,
    "dinner":3,
    "news":3,
    "gasps":3,
    "onto":3,
    "book":3,
    "extends":3,
    "pointing":3,
    "without":3,
    "nanny":3,
    "runs":3,
    "moment":3,
    "lets":3,
    "it\u2019d":3,
    "opposite":3,
    "line":3,
    "pay":3,
    "save":3,
    "sounds":3,
    "sound":3,
    "neighborhood":3,
    "late":3,
    "hat":3,
    "excited":3,
    "ideas":3,
    "coming":3,
    "joe\u2019s":3,
    "anniversary":3,
    "angie":3,
    "mine":3,
    "somewhere":3,
    "shows":3,
    "big":3,
    "beams":3,
    "brother":3,
    "trouble":3,
    "chance":3,
    "bridesmaids":3,
    "rolls":3,
    "looking":3,
    "thinks":3,
    "under":3,
    "country":3,
    "begins":3,
    "freddy\u2019s":3,
    "opens":3,
    "months":3,
    "scar":3,
    "different":3,
    "veto":3,
    "pocket":3,
    "ready":3,
    "floor":3,
    "weed":3,
    "mouth":3,
    "window":3,
    "climbs":3,
    "twelve":3,
    "motorcycle":3,
    "cop":3,
    "widen":3,
    "retired":3,
    "edge":3,
    "loud":3,
    "gestures":3,
    "wanna":3,
    "slow":3,
    "following":3,
    "hits":3,
    "break":3,
    "boom":3,
    "couple":3,
    "roll":3,
    "stress":3,
    "happiness":3,
    "brothers":3,
    "lizzy":3,
    "coffee":3,
    "matter":3,
    "journal":3,
    "towel":3,
    "wet":3,
    "flies":3,
    "putting":3,
    "tips":3,
    "cooked":3,
    "against":3,
    "wall":3,
    "ask":3,
    "test":3,
    "calling":3,
    "desert":3,
    "hair":3,
    "pilots":3,
    "pregnant":3,
    "sheep":3,
    "7":3,
    "dont":3,
    "happen":3,
    "genius":4,
    "shot":4,
    "swear":4,
    "basically":4,
    "making":4,
    "arms":4,
    "far":4,
    "enough":4,
    "jump":4,
    "whatever":4,
    "parking":4,
    "smoking":4,
    "called":4,
    "front":4,
    "leaving":4,
    "yes":4,
    "\u201ci":4,
    "alright":4,
    "disappears":4,
    "stomach":4,
    "heard":4,
    "shouldn\u2019t":4,
    "deadline":4,
    "meaning":4,
    "working":4,
    "holding":4,
    "pretty":4,
    "came":4,
    "important":4,
    "lives":4,
    "sip":4,
    "which":4,
    "exhales":4,
    "plus":4,
    "start":4,
    "beyonce":4,
    "comes":4,
    "police":4,
    "serial":4,
    "young":4,
    "message":4,
    "text":4,
    "throat":4,
    "least":4,
    "steps":4,
    "stories":4,
    "office":4,
    "therapist":4,
    "safe":4,
    "single":4,
    "visit":4,
    "ashes":4,
    "care":4,
    "job":4,
    "space":4,
    "screams":4,
    "move":4,
    "ahead":4,
    "anyone":4,
    "arm":4,
    "smile":4,
    "business":4,
    "cracks":4,
    "person":4,
    "city":4,
    "sometime":4,
    "works":4,
    "gave":4,
    "dollars":4,
    "tears":4,
    "totally":4,
    "planning":4,
    "party":4,
    "husband\u2019s":4,
    "cut":4,
    "definitely":4,
    "uh":4,
    "sinatra":4,
    "drive":4,
    "stands":4,
    "cover":4,
    "play":4,
    "telling":4,
    "beautiful":4,
    "change":4,
    "case":4,
    "walking":4,
    "once":4,
    "seen":4,
    "years":4,
    "eggs":4,
    "music":4,
    "dolly":4,
    "mostly":4,
    "knows":4,
    "east":4,
    "jock":4,
    "grabs":4,
    "says":4,
    "bathroom":4,
    "pasta":4,
    "stuck":4,
    "hold":4,
    "blood":4,
    "aids":4,
    "wasn\u2019t":5,
    "seems":5,
    "hours":5,
    "almost":5,
    "started":5,
    "crying":5,
    "joey":5,
    "rings":5,
    "die":5,
    "wait":5,
    "nobody":5,
    "small":5,
    "our":5,
    "italian":5,
    "hope":5,
    "bagels":5,
    "best":5,
    "lor":5,
    "trying":5,
    "asked":5,
    "baby":5,
    "shower":5,
    "probably":5,
    "won\u2019t":5,
    "going":5,
    "pilot":5,
    "find":5,
    "keep":5,
    "both":5,
    "daughter\u2019s":5,
    "saw":5,
    "moves":5,
    "wants":5,
    "ooh":5,
    "girls":5,
    "plate":5,
    "else":5,
    "found":5,
    "behind":5,
    "fine":5,
    "remember":5,
    "each":5,
    "saying":5,
    "tries":5,
    "stuff":5,
    "left":5,
    "action":5,
    "myself":5,
    "laugh":5,
    "listen":5,
    "few":5,
    "weeks":5,
    "shoot":5,
    "will":5,
    "mind":5,
    "close":5,
    "ride":5,
    "face":5,
    "than":5,
    "entire":5,
    "lost":5,
    "dress":5,
    "school":5,
    "night":5,
    "smiling":5,
    "top":5,
    "blue":5,
    "aren\u2019t":5,
    "loves":5,
    "most":5,
    "cell":5,
    "rabbit":5,
    "use":5,
    "also":5,
    "read":5,
    "family":5,
    "world":5,
    "los":5,
    "angeles":5,
    "coop":5,
    "open":5,
    "pew":5,
    "met":5,
    "sticks":5,
    "long":5,
    "stick":5,
    "skin":5,
    "horse":5,
    "today":6,
    "street":6,
    "looked":6,
    "living":6,
    "next":6,
    "bad":6,
    "busy":6,
    "inside":6,
    "door":6,
    "kind":6,
    "someone":6,
    "supposed":6,
    "better":6,
    "father":6,
    "hurt":6,
    "three":6,
    "mrs":6,
    "sits":6,
    "box":6,
    "bit":6,
    "leans":6,
    "dani":6,
    "i\u2019d":6,
    "us":6,
    "walks":6,
    "finally":6,
    "funny":6,
    "holds":6,
    "worry":6,
    "fun":6,
    "taking":6,
    "girl":6,
    "later":6,
    "alone":6,
    "anymore":6,
    "understand":6,
    "body":6,
    "own":6,
    "watches":6,
    "slowly":6,
    "finger":6,
    "woman\u2019s":6,
    "kids":6,
    "took":6,
    "license":6,
    "whole":6,
    "band":6,
    "everybody":6,
    "many":6,
    "am":6,
    "knew":6,
    "beach":6,
    "thank":6,
    "air":6,
    "pick":6,
    "went":7,
    "already":7,
    "used":7,
    "watch":7,
    "great":7,
    "husband":7,
    "hello":7,
    "dogs":7,
    "goes":7,
    "water":7,
    "hospital":7,
    "feeling":7,
    "sick":7,
    "help":7,
    "drink":7,
    "soon":7,
    "since":7,
    "quickly":7,
    "friends":7,
    "until":7,
    "seeing":7,
    "movie":7,
    "spend":7,
    "sometimes":7,
    "tv":7,
    "show":7,
    "actually":7,
    "together":7,
    "because":7,
    "friend":7,
    "side":7,
    "stay":7,
    "laughing":7,
    "married":7,
    "being":7,
    "name":7,
    "\u201cmy":7,
    "way\u201d":7,
    "stop":7,
    "miss":7,
    "fredo":7,
    "black":7,
    "hangs":8,
    "made":8,
    "hi":8,
    "life":8,
    "part":8,
    "please":8,
    "joe":8,
    "minervini":8,
    "women":8,
    "thanks":8,
    "year":8,
    "song":8,
    "talking":8,
    "some":8,
    "money":8,
    "makes":8,
    "while":8,
    "suddenly":8,
    "meet":8,
    "half":8,
    "first":8,
    "indy":8,
    "new":9,
    "things":9,
    "nice":9,
    "thinking":9,
    "daddy":9,
    "playing":9,
    "put":9,
    "lori\u2019s":9,
    "after":9,
    "died":9,
    "emily":9,
    "these":9,
    "we\u2019re":9,
    "lot":9,
    "getting":9,
    "herself":9,
    "reaches":9,
    "last":9,
    "doing":9,
    "nothing":9,
    "gets":9,
    "another":9,
    "having":9,
    "before":10,
    "every":10,
    "everything":10,
    "still":10,
    "crazy":10,
    "any":10,
    "work":10,
    "very":10,
    "town":10,
    "dad":10,
    "leave":10,
    "there\u2019s":10,
    "place":10,
    "home":10,
    "hear":10,
    "always":10,
    "pulls":10,
    "only":10,
    "car":10,
    "zipper":10,
    "those":10,
    "isn\u2019t":11,
    "happy":11,
    "has":11,
    "hand":11,
    "believe":11,
    "bag":11,
    "they\u2019re":11,
    "puts":11,
    "everyone":11,
    "laughs":11,
    "real":11,
    "thing":11,
    "even":11,
    "hands":11,
    "guys":11,
    "chickens":11,
    "daughter":12,
    "anyway":12,
    "more":12,
    "ever":12,
    "where":12,
    "he\u2019s":12,
    "guy":12,
    "room":12,
    "wouldn\u2019t":12,
    "set":12,
    "head":12,
    "through":13,
    "i\u2019ll":13,
    "what\u2019s":13,
    "again":13,
    "would":13,
    "old":13,
    "woman":13,
    "told":13,
    "stops":13,
    "tell":13,
    "wedding":13,
    "course":14,
    "house":14,
    "give":14,
    "thought":14,
    "never":14,
    "i\u2019ve":14,
    "their":14,
    "anything":14,
    "hey":14,
    "cause":15,
    "god":15,
    "eyes":15,
    "does":15,
    "doesn\u2019t":15,
    "starts":15,
    "take":15,
    "something":15,
    "marnie\u2019s":15,
    "wanted":16,
    "people":16,
    "sure":17,
    "two":17,
    "let":17,
    "smiles":17,
    "away":17,
    "around":17,
    "little":18,
    "jacob":18,
    "turns":18,
    "come":18,
    "now":18,
    "jillian":18,
    "feel":19,
    "by":19,
    "off":19,
    "had":19,
    "did":19,
    "were":19,
    "sorry":19,
    "tehya":19,
    "much":19,
    "good":20,
    "didn\u2019t":20,
    "say":20,
    "why":20,
    "mother":20,
    "takes":20,
    "phone":20,
    "talk":20,
    "make":21,
    "look":21,
    "an":21,
    "love":21,
    "got":22,
    "day":22,
    "other":22,
    "way":23,
    "down":23,
    "them":23,
    "too":23,
    "into":23,
    "been":23,
    "gonna":24,
    "over":25,
    "who":25,
    "mom":26,
    "need":27,
    "freddy":27,
    "there":29,
    "go":29,
    "think":29,
    "right":29,
    "mean":29,
    "from":30,
    "call":30,
    "said":31,
    "maybe":31,
    "she\u2019s":31,
    "see":33,
    "can\u2019t":33,
    "yeah":33,
    "really":34,
    "okay":34,
    "no":34,
    "one":35,
    "time":35,
    "should":36,
    "can":36,
    "when":37,
    "you\u2019re":37,
    "or":38,
    "how":38,
    "they":38,
    "as":40,
    "here":42,
    "want":42,
    "":43,
    "that\u2019s":43,
    "him":43,
    "could":45,
    "his":45,
    "back":47,
    "about":50,
    "your":52,
    "looks":53,
    "not":53,
    "do":60,
    "was":60,
    "if":62,
    "get":62,
    "are":62,
    "all":63,
    "we":63,
    "then":64,
    "with":65,
    "oh":65,
    "like":66,
    "i\u2019m":69,
    "up":70,
    "well":71,
    "it\u2019s":72,
    "don\u2019t":72,
    "be":75,
    "what":76,
    "he":78,
    "know":78,
    "lori":79,
    "for":83,
    "out":85,
    "have":87,
    "but":89,
    "at":90,
    "this":93,
    "is":99,
    "on":99,
    "just":100,
    "me":105,
    "so":107,
    "that":114,
    "my":115,
    "she":127,
    "in":161,
    "her":167,
    "of":172,
    "it":184,
    "marnie":201,
    "a":308,
    "and":374,
    "to":383,
    "i":436,
    "you":436,
    "the":502
}