{
    "hobbling":1,
    "blowing":1,
    "scotland":1,
    "enthusiasm":1,
    "notes":1,
    "disappears":1,
    "source":1,
    "openly":1,
    "helmeted":1,
    "parlour":1,
    "dining":1,
    "hobbles":1,
    "masham":1,
    "travail":1,
    "signet":1,
    "kiss":1,
    "obligingly":1,
    "lowered":1,
    "ring":1,
    "jugs":1,
    "bowls":1,
    "rinse":1,
    "fills":1,
    "latin":1,
    "blessing":1,
    "benedic":1,
    "nos":1,
    "d\u00f3mine":1,
    "et":1,
    "haec":1,
    "d\u00f3na":1,
    "quae":1,
    "largit\u00e1te":1,
    "s\u00famus":1,
    "sumpt\u00fari":1,
    "per":1,
    "christum":1,
    "d\u00f3minum":1,
    "n\u00f3strum":1,
    "note":1,
    "designation":1,
    "filled":1,
    "traitor":1,
    "improbable":1,
    "staved":1,
    "conclude":1,
    "betrayed":1,
    "agree":1,
    "pr\u00e9cis":1,
    "crazy":1,
    "demon":1,
    "harry":1,
    "saturated":1,
    "malice":1,
    "mistrust":1,
    "schloss":1,
    "eating":1,
    "pays":1,
    "inviting":1,
    "emboldened":1,
    "served":1,
    "uncle":1,
    "aided":1,
    "ascension":1,
    "slobber":1,
    "chicken\u2019s":1,
    "shivers":1,
    "prison":1,
    "mutilation":1,
    "witches":1,
    "advocate":1,
    "securing":1,
    "release":1,
    "mistake":1,
    "indulge":1,
    "hateful":1,
    "riven":1,
    "rebellion":1,
    "stewing":1,
    "finished":1,
    "blame":1,
    "protracted":1,
    "chickens":1,
    "fly":1,
    "eke":1,
    "flap":1,
    "foxes":1,
    "dull":1,
    "gleeful":1,
    "crypticism":1,
    "wounds":1,
    "scottish":1,
    "speedily":1,
    "heaves":1,
    "meekly":1,
    "unable":1,
    "read":1,
    "disposition":1,
    "venomous":1,
    "he\u2019ll":1,
    "betray":1,
    "chicken":1,
    "\u2018hal\u2018":1,
    "naked":1,
    "spartan":1,
    "singleroom":1,
    "sprawled":1,
    "snoring":1,
    "daylight":1,
    "punches":1,
    "sounds":1,
    "animals":1,
    "keys":1,
    "unkempt":1,
    "bleeds":1,
    "badly":1,
    "shuts":1,
    "start":1,
    "gain":1,
    "accusing":1,
    "secret":1,
    "rifles":1,
    "stuff":1,
    "particulars":1,
    "injury":1,
    "accrued":1,
    "mysterious":1,
    "liquor":1,
    "perform":1,
    "repairs":1,
    "task":1,
    "requires":1,
    "expertise":1,
    "assist":1,
    "friendship":1,
    "pours":1,
    "gash":1,
    "there\u2019s":1,
    "undiminished":1,
    "til":1,
    "megiddo":1,
    "negotiator":1,
    "fireplace":1,
    "iron":1,
    "rod":1,
    "trickles":1,
    "booze":1,
    "wasting":1,
    "keeping":1,
    "wipes":1,
    "strip":1,
    "linen":1,
    "presses":1,
    "red":1,
    "poker":1,
    "scream":1,
    "maniacal":1,
    "mangy":1,
    "part":1,
    "london":1,
    "butchers\u2019":1,
    "stalls":1,
    "garbage":1,
    "kids":1,
    "doorway":1,
    "alley":1,
    "mouths":1,
    "noses":1,
    "covered":1,
    "handkerchiefs":1,
    "reach":1,
    "coats":1,
    "quick":1,
    "covering":1,
    "registers":1,
    "earnest":1,
    "cloaked":1,
    "darkened":1,
    "alcove":1,
    "kerchief":1,
    "forcing":1,
    "fetid":1,
    "requests":1,
    "processing":1,
    "mention":1,
    "requested":1,
    "instructed":1,
    "dingy":1,
    "popes":1,
    "rome":1,
    "lord\u2019s":1,
    "puzzled":1,
    "question\u2019s":1,
    "pope":1,
    "quarrel":1,
    "roman":1,
    "convey":1,
    "they\u2019re":1,
    "arundel":1,
    "claims":1,
    "damned":1,
    "slickly":1,
    "ruse":1,
    "warm":1,
    "believer":1,
    "poison":1,
    "riles":1,
    "kick":1,
    "confront":1,
    "tavern\u2019s":1,
    "yells":1,
    "petal":1,
    "brutish":1,
    "belly":1,
    "straighten":1,
    "queer":1,
    "cleared":1,
    "stage":1,
    "\u2018cocks\u2019":1,
    "crouched":1,
    "haunches":1,
    "facing":1,
    "horizontal":1,
    "stick":1,
    "plain":1,
    "level":1,
    "un":1,
    "deux":1,
    "trois":1,
    "swiping":1,
    "grabbing":1,
    "yelp":1,
    "topples":1,
    "howl":1,
    "covers":1,
    "lady":1,
    "gathers":1,
    "clothes":1,
    "groggily":1,
    "shhh":1,
    "underway":1,
    "miss":1,
    "herself":1,
    "spirit":1,
    "interrupt":1,
    "slumber":1,
    "ushers":1,
    "muffled":1,
    "groggy":1,
    "grunts":1,
    "add":1,
    "succumb":1,
    "squared":1,
    "ledger":1,
    "lucid":1,
    "penetrating":1,
    "percolates":1,
    "advice":1,
    "gates":1,
    "granted":1,
    "observes":1,
    "dishevelment":1,
    "visibly":1,
    "presiding":1,
    "lancaster":1,
    "18":1,
    "younger":1,
    "addressing":1,
    "bumptious":1,
    "majesty\u2019s":1,
    "piety":1,
    "remind":1,
    "service":1,
    "bounty":1,
    "strain":1,
    "treasury":1,
    "canker":1,
    "lollardy":1,
    "somehow":1,
    "suggestion":1,
    "tax":1,
    "relieve":1,
    "church\u2019s":1,
    "derision":1,
    "taking":1,
    "frailty":1,
    "son\u2019s":1,
    "slovenliness":1,
    "nearing":1,
    "natural":1,
    "ruder":1,
    "health":1,
    "smirk":1,
    "eldest":1,
    "reasons":1,
    "evident":1,
    "inherit":1,
    "sought":1,
    "privilege":1,
    "responsibility":1,
    "straightens":1,
    "postures":1,
    "regally":1,
    "degree":1,
    "resolution":1,
    "provide":1,
    "commitment":1,
    "treasonous":1,
    "meeting":1,
    "disappointment":1,
    "week\u2019s":1,
    "feuds":1,
    "summonsed":1,
    "measurements":1,
    "ones":1,
    "worn":1,
    "shoes":1,
    "overwhelmed":1,
    "wanly":1,
    "uncertainty":1,
    "marshals":1,
    "unfold":1,
    "complete":1,
    "muscular":1,
    "descends":1,
    "mythical":1,
    "renegade":1,
    "tyrannical":1,
    "parts":1,
    "havoc":1,
    "transpire":1,
    "stopped":1,
    "challenges":1,
    "today\u2019s":1,
    "score":1,
    "herald\u2019s":1,
    "gallop":1,
    "defected":1,
    "inner":1,
    "foresee":1,
    "lived":1,
    "marked":1,
    "spend":1,
    "recrimination":1,
    "concluded":1,
    "solemnly":1,
    "meticulously":1,
    "furious":1,
    "unconscionable":1,
    "commandeer":1,
    "compelled":1,
    "skirted":1,
    "perimeter":1,
    "brews":1,
    "sane":1,
    "aspire":1,
    "sincere":1,
    "recruited":1,
    "wars":1,
    "turned":1,
    "birthright":1,
    "disapprove":1,
    "necessary":1,
    "upstage":1,
    "steal":1,
    "thunder":1,
    "agitated":1,
    "battleready":1,
    "officers":1,
    "customary":1,
    "glorious":1,
    "memories":1,
    "distrustful":1,
    "weakly":1,
    "pillars":1,
    "murmuring":1,
    "difficulty":1,
    "hearing":1,
    "rattled":1,
    "steels":1,
    "yelling":1,
    "unworthy":1,
    "knight\u2019s":1,
    "elaborate":1,
    "decked":1,
    "powerfully":1,
    "murderous":1,
    "gallops":1,
    "loke":1,
    "steadily":1,
    "nears":1,
    "angry":1,
    "reconsidered":1,
    "forestalled":1,
    "barking":1,
    "countless":1,
    "whoring":1,
    "fool":1,
    "advances":1,
    "calmly":1,
    "plague":1,
    "swinging":1,
    "blocks":1,
    "deflects":1,
    "cocksure":1,
    "regathers":1,
    "attacks":1,
    "steadier":1,
    "surefooted":1,
    "powerful":1,
    "battlefit":1,
    "struggling":1,
    "separate":1,
    "ascendency":1,
    "surprised":1,
    "expected":1,
    "easier":1,
    "concentrates":1,
    "vicious":1,
    "break":1,
    "fixes":1,
    "brutal":1,
    "loses":1,
    "vulnerable":1,
    "scabbard":1,
    "ducks":1,
    "spins":1,
    "trips":1,
    "wheels":1,
    "thrusts":1,
    "heaving":1,
    "massed":1,
    "bearing":1,
    "witness":1,
    "relieved":1,
    "allegiance":1,
    "bends":1,
    "lifeless":1,
    "saddened":1,
    "prized":1,
    "scalp":1,
    "dominion":1,
    "marks":1,
    "football":1,
    "appointed":1,
    "pitiful":1,
    "upchucked":1,
    "what\u2019s":1,
    "rejoice":1,
    "courage":1,
    "valour":1,
    "stains":1,
    "soul":1,
    "indelibly":1,
    "nothingness":1,
    "remembering":1,
    "shudders":1,
    "business":1,
    "hurry":1,
    "hook":1,
    "worm":1,
    "massages":1,
    "temples":1,
    "addresses":1,
    "bench":1,
    "erupt":1,
    "resile":1,
    "governance":1,
    "week":1,
    "pressed":1,
    "fields":1,
    "rocks":1,
    "gave":1,
    "valiant":1,
    "smoky":1,
    "bustling":1,
    "moving":1,
    "furniture":1,
    "monster":1,
    "vultures":1,
    "carcass":1,
    "releases":1,
    "bursts":1,
    "prone":1,
    "shallow":1,
    "contorted":1,
    "late":1,
    "wracked":1,
    "crying":1,
    "distraught":1,
    "distance":1,
    "broken":1,
    "childlike":1,
    "cautious":1,
    "whimpers":1,
    "harder":1,
    "wheezes":1,
    "wheeze":1,
    "stoop":1,
    "apprehensively":1,
    "shifting":1,
    "blessed":1,
    "reprieve":1,
    "dreadful":1,
    "misery":1,
    "suffer":1,
    "indignity":1,
    "wayward":1,
    "revile":1,
    "watched":1,
    "altogether":1,
    "different":1,
    "genuflect":1,
    "fondness":1,
    "farewell":1,
    "woke":1,
    "lodgings":1,
    "contents":1,
    "property":1,
    "trespassing":1,
    "vacate":1,
    "dressers":1,
    "adjusts":1,
    "coronation":1,
    "consume":1,
    "assure":1,
    "wills":1,
    "assents":1,
    "consecration":1,
    "whereunto":1,
    "saint":1,
    "edward":1,
    "placed":1,
    "kissed":1,
    "bishops":1,
    "inscrutable":1,
    "subjects":1,
    "banquet":1,
    "flanked":1,
    "forty":1,
    "dukes":1,
    "duchesses":1,
    "politics":1,
    "21":1,
    "norway":1,
    "sweden":1,
    "sidetable":1,
    "pile":1,
    "remove":1,
    "plates":1,
    "meal":1,
    "eaten":1,
    "ornate":1,
    "\u2018i":1,
    "health\u2019":1,
    "lovingly":1,
    "zsigmond":1,
    "hungary":1,
    "\u2018may":1,
    "eternally":1,
    "prosperous\u2019":1,
    "ink":1,
    "nice":1,
    "signing":1,
    "decree":1,
    "represent":1,
    "lawfulness":1,
    "largesse":1,
    "smiling":1,
    "sincerity":1,
    "doge":1,
    "republic":1,
    "venice":1,
    "venezia":1,
    "manages":1,
    "intricately":1,
    "crafted":1,
    "metal":1,
    "twists":1,
    "dial":1,
    "flaps":1,
    "wings":1,
    "windup":1,
    "unnatural":1,
    "mechanics":1,
    "fascination":1,
    "picks":1,
    "clasps":1,
    "played":1,
    "games":1,
    "older":1,
    "magical":1,
    "let\u2019s":1,
    "magic":1,
    "black":1,
    "temple":1,
    "freezes":1,
    "oldstyle":1,
    "accompanying":1,
    "examines":1,
    "jeu":1,
    "paume":1,
    "politely":1,
    "especially":1,
    "closely":1,
    "sorts":1,
    "examining":1,
    "whiled":1,
    "considered":1,
    "privation":1,
    "clowning":1,
    "truth":1,
    "jest":1,
    "wants":1,
    "paroxysm":1,
    "temper":1,
    "forcefully":1,
    "appreciate":1,
    "umbrage":1,
    "flapping":1,
    "slightest":1,
    "barb":1,
    "mechanical":1,
    "focusses":1,
    "spread":1,
    "pressing":1,
    "consumed":1,
    "drains":1,
    "conciliation":1,
    "adversaries":1,
    "write":1,
    "pardons":1,
    "greet":1,
    "policy":1,
    "enacted":1,
    "regime":1,
    "change":1,
    "garden":1,
    "gardens":1,
    "pen":1,
    "bactrian":1,
    "camels":1,
    "enchanted":1,
    "she\u2019s":1,
    "child":1,
    "reconcile":1,
    "untold":1,
    "harm":1,
    "answered":1,
    "vitality":1,
    "measure":1,
    "promises":1,
    "mere":1,
    "vassels":1,
    "instruction":1,
    "privy":1,
    "commissions":1,
    "intentions":1,
    "virtuous":1,
    "hopes":1,
    "foremost":1,
    "sovereigns":1,
    "imagining":1,
    "shoe\u2019s":1,
    "buckle":1,
    "loose":1,
    "refasten":1,
    "choose":1,
    "wisely":1,
    "nonetheless":1,
    "abstract":1,
    "easel":1,
    "incomprehensibly":1,
    "genealogical":1,
    "diagram":1,
    "jitters":1,
    "playful":1,
    "banter":1,
    "legitimate":1,
    "sovereign":1,
    "ruler":1,
    "rights":1,
    "stripped":1,
    "titles":1,
    "whence":1,
    "title":1,
    "thread":1,
    "male":1,
    "heir":1,
    "legally":1,
    "bound":1,
    "adherent":1,
    "elba":1,
    "salve":1,
    "proof":1,
    "hence":1,
    "follows":1,
    "sovereignty":1,
    "thrice":1,
    "illuminate":1,
    "cited":1,
    "bar":1,
    "extraordinary":1,
    "puzzle":1,
    "picture":1,
    "finding":1,
    "impossible":1,
    "confuses":1,
    "telling":1,
    "flummoxed":1,
    "muddled":1,
    "bolster":1,
    "talk":1,
    "wise":1,
    "driven":1,
    "consequence":1,
    "libretto":1,
    "ambition":1,
    "bogged":1,
    "feud":1,
    "sapling":1,
    "gentlemen":1,
    "uproot":1,
    "acted":1,
    "stung":1,
    "armchair":1,
    "contemplative":1,
    "orator":1,
    "oratory":1,
    "requirement":1,
    "witnessing":1,
    "restraint":1,
    "proving":1,
    "admirable":1,
    "sage":1,
    "ensure":1,
    "oblivious":1,
    "taunting":1,
    "unwavering":1,
    "fantasy":1,
    "squatted":1,
    "stinkpile":1,
    "bunched":1,
    "shoo":1,
    "persistent":1,
    "scavenging":1,
    "breeches":1,
    "joins":1,
    "usual":1,
    "fathom":1,
    "higher":1,
    "shiteating":1,
    "mongrel":1,
    "cur":1,
    "s\u2019pose":1,
    "steaming":1,
    "blogs":1,
    "noticed":1,
    "walking":1,
    "particular":1,
    "going":1,
    "hooper\u2019s":1,
    "attempts":1,
    "slink":1,
    "unnoticed":1,
    "unless":1,
    "snatch":1,
    "proceeds":1,
    "specially":1,
    "churlish":1,
    "rathole":1,
    "associations":1,
    "stretch":1,
    "highest":1,
    "insolence":1,
    "directed":1,
    "haughty":1,
    "pretends":1,
    "who\u2019s":1,
    "dalliance":1,
    "upper":1,
    "shortlived":1,
    "keeper":1,
    "prince\u2019s":1,
    "puke":1,
    "nell":1,
    "luck":1,
    "paying":1,
    "hallway":1,
    "pace":1,
    "spiral":1,
    "stair":1,
    "dank":1,
    "buzz":1,
    "effete":1,
    "chains":1,
    "subtitled":1,
    "seeks":1,
    "asylum":1,
    "size":1,
    "assassinate":1,
    "order\u2019s":1,
    "origin":1,
    "talent":1,
    "prospective":1,
    "impunity":1,
    "sanctuary":1,
    "oui":1,
    "chained":1,
    "coward":1,
    "grievance":1,
    "firmer":1,
    "mettle":1,
    "foster":1,
    "stir":1,
    "forge":1,
    "bellicose":1,
    "fever":1,
    "defiance":1,
    "shut":1,
    "ignore":1,
    "audacious":1,
    "aggression":1,
    "weakness":1,
    "game":1,
    "pimple":1,
    "animus":1,
    "streets":1,
    "theirs":1,
    "tested":1,
    "longing":1,
    "stability":1,
    "qualities":1,
    "originate":1,
    "words":1,
    "infant":1,
    "intention":1,
    "plainly":1,
    "honourably":1,
    "desist":1,
    "timorous":1,
    "slither":1,
    "presently":1,
    "engage":1,
    "cowardly":1,
    "underestimate":1,
    "empties":1,
    "gunstones":1,
    "private":1,
    "chambers":1,
    "discreet":1,
    "realises":1,
    "precarious":1,
    "knew":1,
    "repute":1,
    "teaches":1,
    "provocations":1,
    "swears":1,
    "denies":1,
    "wipe":1,
    "expressed":1,
    "regarding":1,
    "mental":1,
    "fortitude":1,
    "relations":1,
    "trusted":1,
    "voyage":1,
    "behalf":1,
    "dethrone":1,
    "proffered":1,
    "action":1,
    "mutually":1,
    "reminder":1,
    "general":1,
    "lunacy":1,
    "boor":1,
    "sewers":1,
    "misdeeds":1,
    "forgiven":1,
    "indiscretions":1,
    "invited":1,
    "rejoin":1,
    "sojourn":1,
    "numerous":1,
    "able":1,
    "presented":1,
    "quandaries":1,
    "encounter":1,
    "unattended":1,
    "habit":1,
    "crises":1,
    "unite":1,
    "refreshed":1,
    "fulfilled":1,
    "integrity":1,
    "woodworm":1,
    "attempting":1,
    "chatting":1,
    "casually":1,
    "shuffle":1,
    "joust":1,
    "messaged":1,
    "caution":1,
    "unchecked":1,
    "latest":1,
    "provocation":1,
    "arouse":1,
    "thy":1,
    "fury":1,
    "flush":1,
    "rats":1,
    "communicated":1,
    "declaration":1,
    "familiarity":1,
    "recipient":1,
    "axed":1,
    "party":1,
    "hell":1,
    "considerable":1,
    "needing":1,
    "pindrop":1,
    "pity":1,
    "headsman":1,
    "axe":1,
    "grey\u2019s":1,
    "gushes":1,
    "meets":1,
    "terrified":1,
    "voices":1,
    "confined":1,
    "masked":1,
    "ominously":1,
    "entrance":1,
    "dies":1,
    "scoundrels":1,
    "grab":1,
    "hastily":1,
    "timidly":1,
    "hooded":1,
    "hood":1,
    "suspiciously":1,
    "curtsey":1,
    "funny":1,
    "suits":1,
    "patronage":1,
    "drinks":1,
    "retread":1,
    "vowed":1,
    "easy":1,
    "sensible":1,
    "snake":1,
    "underlying":1,
    "hurt":1,
    "acknowledge":1,
    "neglect":1,
    "thaw":1,
    "temporary":1,
    "luxury":1,
    "wished":1,
    "eschew":1,
    "pretensions":1,
    "cowardice":1,
    "incumbent":1,
    "betterment":1,
    "aloud":1,
    "volumes":1,
    "loneliness":1,
    "rely":1,
    "whose":1,
    "identify":1,
    "certainty":1,
    "humility":1,
    "decision":1,
    "followers":1,
    "foe":1,
    "cloak":1,
    "doleful":1,
    "unmoved":1,
    "hag":1,
    "daffydd":1,
    "noblemen":1,
    "warrick":1,
    "poise":1,
    "sharpened":1,
    "knees":1,
    "marshal":1,
    "polite":1,
    "outfit":1,
    "muster":1,
    "combed":1,
    "recitation":1,
    "exploits":1,
    "bravery":1,
    "redoubtable":1,
    "tasked":1,
    "vital":1,
    "respects":1,
    "lusts":1,
    "grim":1,
    "sobriety":1,
    "heart":1,
    "longestranged":1,
    "rusty":1,
    "flower":1,
    "bathtub":1,
    "tub":1,
    "massaging":1,
    "scrubs":1,
    "armpit":1,
    "forceful":1,
    "explain":1,
    "stripling":1,
    "scrub":1,
    "construed":1,
    "tickle":1,
    "prepare":1,
    "reassurance":1,
    "pinch":1,
    "fettle":1,
    "humours":1,
    "wits":1,
    "depend":1,
    "wearily":1,
    "bowed":1,
    "armoury":1,
    "foreboding":1,
    "load":1,
    "crates":1,
    "horsedrawn":1,
    "drays":1,
    "blacksmiths":1,
    "hammer":1,
    "solder":1,
    "stockpiles":1,
    "weaponry":1,
    "sorted":1,
    "macabre":1,
    "instruments":1,
    "destruction":1,
    "dirty":1,
    "industrial":1,
    "machine":1,
    "imposing":1,
    "enterprise":1,
    "lowly":1,
    "conscripts":1,
    "garble":1,
    "hole":1,
    "got":1,
    "anyway":1,
    "called":1,
    "grant":1,
    "official":1,
    "exemption":1,
    "wanting":1,
    "\u2018go":1,
    "such\u2019":1,
    "understood":1,
    "gross":1,
    "violation":1,
    "sympathetic":1,
    "dispensation":1,
    "constitute":1,
    "brownface":1,
    "conscript":1,
    "pocket":1,
    "names":1,
    "pockets":1,
    "piss":1,
    "round":1,
    "main":1,
    "waves":1,
    "industry":1,
    "reply":1,
    "wave":1,
    "suitable":1,
    "effort":1,
    "packed":1,
    "portend":1,
    "motion":1,
    "captained":1,
    "dusk":1,
    "map":1,
    "flotilla":1,
    "channel":1,
    "landing":1,
    "price":1,
    "detestable":1,
    "climbs":1,
    "ladder":1,
    "cramped":1,
    "trepidation":1,
    "outright":1,
    "eerie":1,
    "creak":1,
    "groan":1,
    "contact":1,
    "reassure":1,
    "assuage":1,
    "grain":1,
    "row":1,
    "hammocks":1,
    "folds":1,
    "boat":1,
    "grinds":1,
    "sand":1,
    "ashore":1,
    "dunes":1,
    "collection":1,
    "seemingly":1,
    "farm":1,
    "tread":1,
    "lightly":1,
    "swords":1,
    "drawn":1,
    "stillness":1,
    "freshly":1,
    "mist":1,
    "drifts":1,
    "donkey":1,
    "aimless":1,
    "nature":1,
    "listens":1,
    "march":1,
    "supplied":1,
    "disposal":1,
    "large":1,
    "sustain":1,
    "lengthy":1,
    "numbers":1,
    "disease":1,
    "trebuchets":1,
    "wooden":1,
    "machines":1,
    "medieval":1,
    "working":1,
    "bonfires":1,
    "trebuchet":1,
    "hurls":1,
    "fireball":1,
    "crash":1,
    "castle\u2019s":1,
    "retinue":1,
    "accompany":1,
    "regalia":1,
    "idle":1,
    "definition":1,
    "characteristic":1,
    "flagrantly":1,
    "speculatively":1,
    "fortunate":1,
    "horrors":1,
    "unexceptional":1,
    "insist":1,
    "press":1,
    "versed":1,
    "art":1,
    "garrison":1,
    "foothold":1,
    "supply":1,
    "untenable":1,
    "candidly":1,
    "expedite":1,
    "forget":1,
    "underwritten":1,
    "squirm":1,
    "debate":1,
    "irrelevant":1,
    "bleatings":1,
    "jean":1,
    "hungry":1,
    "wounded":1,
    "deny":1,
    "evacuation":1,
    "corral":1,
    "possession":1,
    "escorts":1,
    "arrival":1,
    "en":1,
    "route":1,
    "desires":1,
    "strongly":1,
    "disregard":1,
    "movement":1,
    "haste":1,
    "cobbling":1,
    "bickering":1,
    "dally":1,
    "disarray":1,
    "shrugs":1,
    "doused":1,
    "perfume":1,
    "louis":1,
    "guyenne":1,
    "dressed":1,
    "ostentatiously":1,
    "flamboyant":1,
    "excuse":1,
    "visited":1,
    "assays":1,
    "domain":1,
    "eyebrows":1,
    "describe":1,
    "drain":1,
    "body":1,
    "bury":1,
    "humour":1,
    "gloating":1,
    "tiny":1,
    "wives":1,
    "weeping":1,
    "weep":1,
    "yawns":1,
    "focussed":1,
    "waste":1,
    "countryside":1,
    "length":1,
    "massive":1,
    "weary":1,
    "dysentery":1,
    "carriages":1,
    "masons":1,
    "livestock":1,
    "carriage":1,
    "sommes":1,
    "forest\u2019s":1,
    "woodlands":1,
    "drift":1,
    "further":1,
    "road":1,
    "woods":1,
    "dense":1,
    "thicket":1,
    "smells":1,
    "peculiar":1,
    "ambles":1,
    "hillside":1,
    "forested":1,
    "flanking":1,
    "crossing":1,
    "swing":1,
    "hammers":1,
    "post":1,
    "pegs":1,
    "saddles":1,
    "crate":1,
    "boots":1,
    "cough":1,
    "collapse":1,
    "wood":1,
    "axes":1,
    "wander":1,
    "shafts":1,
    "bubbling":1,
    "meanwhile":1,
    "gets":1,
    "scoops":1,
    "stabbed":1,
    "spine":1,
    "alerts":1,
    "30":1,
    "drop":1,
    "chase":1,
    "bolt":1,
    "camouflaged":1,
    "charcoal":1,
    "practically":1,
    "paralysed":1,
    "mounting":1,
    "tearful":1,
    "sickening":1,
    "strokes":1,
    "kid\u2019s":1,
    "blonde":1,
    "traumatised":1,
    "horror":1,
    "severed":1,
    "double":1,
    "alert":1,
    "sleeping":1,
    "gouged":1,
    "corpses":1,
    "speared":1,
    "pikes":1,
    "execution":1,
    "defy":1,
    "breaths":1,
    "trumpeted":1,
    "battlesmarts":1,
    "mute":1,
    "crossed":1,
    "tactician":1,
    "fume":1,
    "invent":1,
    "themselves":1,
    "vainglory":1,
    "slaughtered":1,
    "wage":1,
    "collars":1,
    "knife":1,
    "disembowel":1,
    "either":1,
    "shock":1,
    "somewhere":1,
    "sobs":1,
    "lugs":1,
    "wild":1,
    "amen":1,
    "prostrated":1,
    "sermonise":1,
    "render":1,
    "finds":1,
    "upended":1,
    "mitre":1,
    "exaggerates":1,
    "hanging":1,
    "saideth":1,
    "knoweth":1,
    "thou":1,
    "savour":1,
    "spelt":1,
    "sorrel":1,
    "steaks":1,
    "juices":1,
    "sauces":1,
    "sacred":1,
    "summons":1,
    "carried":1,
    "serpents":1,
    "floodwaters":1,
    "succour":1,
    "forsake":1,
    "sausage":1,
    "try":1,
    "contain":1,
    "smite":1,
    "thee":1,
    "thine":1,
    "sins":1,
    "forsook":1,
    "seas":1,
    "splendid":1,
    "vessels":1,
    "delicious":1,
    "fishes":1,
    "descriptions":1,
    "salty":1,
    "creatures":1,
    "shellfish":1,
    "savoured":1,
    "sesame":1,
    "spinaci":1,
    "hones":1,
    "tense":1,
    "swamp":1,
    "tumbling":1,
    "fastest":1,
    "rider":1,
    "sires":1,
    "crest":1,
    "fast":1,
    "crests":1,
    "lying":1,
    "evening":1,
    "passions":1,
    "outpositioned":1,
    "downslope":1,
    "grow":1,
    "superior":1,
    "faculty":1,
    "crossbows":1,
    "match":1,
    "longbow":1,
    "hobble":1,
    "york\u2019s":1,
    "centre":1,
    "weaken":1,
    "eight":1,
    "nine":1,
    "ten":1,
    "argue":1,
    "grown":1,
    "insurmountable":1,
    "desperately":1,
    "date":1,
    "stronger":1,
    "defiantly":1,
    "desire":1,
    "evisceration":1,
    "reticent":1,
    "fears":1,
    "agrees":1,
    "admit":1,
    "avoid":1,
    "chews":1,
    "mouthful":1,
    "spare":1,
    "floodplain":1,
    "halfsodden":1,
    "bog":1,
    "stuck":1,
    "flounder":1,
    "upturned":1,
    "beetles":1,
    "mobility":1,
    "pick":1,
    "lame":1,
    "cattle":1,
    "mound":1,
    "fallen":1,
    "serve":1,
    "battlement":1,
    "rainfall":1,
    "aching":1,
    "counter":1,
    "muscle":1,
    "nimble":1,
    "flanks":1,
    "shan\u2019t":1,
    "deceived":1,
    "incredulous":1,
    "reacts":1,
    "overwhelm":1,
    "longbows":1,
    "ponders":1,
    "implore":1,
    "richard":1,
    "companies":1,
    "robbing":1,
    "tormenting":1,
    "rains":1,
    "flame":1,
    "concocted":1,
    "halfbaked":1,
    "prove":1,
    "worth":1,
    "living":1,
    "fiction":1,
    "penitent":1,
    "stokes":1,
    "disconsolate":1,
    "eases":1,
    "bones":1,
    "kneebone":1,
    "shares":1,
    "eve":1,
    "discover":1,
    "tried":1,
    "bribe":1,
    "chose":1,
    "villages":1,
    "they\u2019ve":1,
    "forces":1,
    "conspired":1,
    "least":1,
    "magnificent":1,
    "warmly":1,
    "leg":1,
    "sprawling":1,
    "dotted":1,
    "clumps":1,
    "intext":1,
    "dawn":1,
    "unlatches":1,
    "brushes":1,
    "dust":1,
    "wistfully":1,
    "folly":1,
    "instinct":1,
    "tactic":1,
    "vigour":1,
    "guarantee":1,
    "amongst":1,
    "wider":1,
    "briefs":1,
    "contingent":1,
    "rumbling":1,
    "disquiet":1,
    "orders":1,
    "chargers":1,
    "sacrificed":1,
    "asks":1,
    "belief":1,
    "unmounted":1,
    "surest":1,
    "rot":1,
    "loyal":1,
    "stouthearted":1,
    "subject":1,
    "whips":1,
    "clouds":1,
    "fitted":1,
    "idea":1,
    "push":1,
    "sell":1,
    "fastens":1,
    "gives":1,
    "conscience":1,
    "realise":1,
    "getting":1,
    "armourer":1,
    "palm":1,
    "lighten":1,
    "waddles":1,
    "checks":1,
    "tightens":1,
    "saddle":1,
    "umbrella":1,
    "dumbfounded":1,
    "arrives":1,
    "humbly":1,
    "receiving":1,
    "smug":1,
    "surrounded":1,
    "saved":1,
    "offered":1,
    "sooner":1,
    "forthwith":1,
    "kingdom\u2019s":1,
    "posturing":1,
    "hollow":1,
    "village":1,
    "site":1,
    "callow":1,
    "disgrace":1,
    "intensified":1,
    "rows":1,
    "smaller":1,
    "vanguard":1,
    "infantry":1,
    "hardened":1,
    "distress":1,
    "speech":1,
    "brim":1,
    "hoped":1,
    "longed":1,
    "thing":1,
    "verge":1,
    "uncertain":1,
    "born":1,
    "hearts":1,
    "yourselves":1,
    "nearest":1,
    "other\u2019s":1,
    "tissue":1,
    "urges":1,
    "others\u2019":1,
    "spreads":1,
    "entire":1,
    "emotions":1,
    "vulnerability":1,
    "raw":1,
    "battalion":1,
    "les":1,
    "imb\u00e9ciles":1,
    "venomously":1,
    "flounders":1,
    "sucking":1,
    "battlescarred":1,
    "assistance":1,
    "squirming":1,
    "leader":1,
    "group":1,
    "tackling":1,
    "tearing":1,
    "daggers":1,
    "roar":1,
    "forges":1,
    "gore":1,
    "scouring":1,
    "riderless":1,
    "roam":1,
    "took":1,
    "rabble":1,
    "regroup":1,
    "marches":1,
    "smugly":1,
    "proud":1,
    "peasant":1,
    "villagers":1,
    "atmosphere":1,
    "invaders":1,
    "conquerors":1,
    "sunning":1,
    "mayoral":1,
    "colonnaded":1,
    "regal":1,
    "attire":1,
    "reclined":1,
    "barefoot":1,
    "dangerous":1,
    "amount":1,
    "charles\u2019s":1,
    "setting":1,
    "20":1,
    "apocryphal":1,
    "rumour":1,
    "gossip":1,
    "finally":1,
    "contained":1,
    "stories":1,
    "impetuous":1,
    "keenly":1,
    "poor":1,
    "affinity":1,
    "conversation":1,
    "centuries":1,
    "combination":1,
    "brink":1,
    "mutual":1,
    "devastation":1,
    "assaying":1,
    "destiny":1,
    "ruled":1,
    "histories":1,
    "equanimity":1,
    "humbling":1,
    "proposition":1,
    "goodwill":1,
    "defiant":1,
    "extension":1,
    "examine":1,
    "bond":1,
    "recurring":1,
    "uncanny":1,
    "movements":1,
    "history":1,
    "frequently":1,
    "origins":1,
    "minutia":1,
    "unsettle":1,
    "relationship":1,
    "leaders":1,
    "peoples":1,
    "fleet":1,
    "weather":1,
    "condolences":1,
    "comforting":1,
    "valuable":1,
    "commodity":1,
    "proved":1,
    "proven":1,
    "kings":1,
    "escort":1,
    "east":1,
    "shortly":1,
    "unexpectedly":1,
    "attended":1,
    "ladiesinwaiting":1,
    "veuillez":1,
    "nous":1,
    "laisser":1,
    "hesitantly":1,
    "merci":1,
    "learn":1,
    "union":1,
    "meantime":1,
    "contemplate":1,
    "submit":1,
    "earn":1,
    "abundance":1,
    "befuddled":1,
    "achievement":1,
    "challenged":1,
    "momentary":1,
    "respite":1,
    "pretense":1,
    "prevails":1,
    "genuine":1,
    "madman":1,
    "mad":1,
    "loved":1,
    "demeanour":1,
    "starts":1,
    "shift":1,
    "darken":1,
    "stupid":1,
    "conjure":1,
    "preferred":1,
    "monarchy":1,
    "usurper":1,
    "darkening":1,
    "explanation":1,
    "foolish":1,
    "riled":1,
    "beguiled":1,
    "splintering":1,
    "ambitions":1,
    "react":1,
    "opprobrium":1,
    "provocatively":1,
    "responds":1,
    "unsettling":1,
    "cautiously":1,
    "briskly":1,
    "swimming":1,
    "genuflection":1,
    "rounds":1,
    "pausing":1,
    "knocking":1,
    "gaudy":1,
    "lintbrushed":1,
    "revel":1,
    "rare":1,
    "swirling":1,
    "preoccupation":1,
    "neglected":1,
    "preoccupations":1,
    "hardly":1,
    "wool":1,
    "mostly":1,
    "hundreds":1,
    "acres":1,
    "annexed":1,
    "farming":1,
    "grazing":1,
    "enquiry":1,
    "conquest":1,
    "brewing":1,
    "invisible":1,
    "remedy":1,
    "failure":1,
    "intervening":1,
    "pivotal":1,
    "amply":1,
    "equipped":1,
    "penetrate":1,
    "elapsed":1,
    "approached":1,
    "unusually":1,
    "shuffles":1,
    "awkwardly":1,
    "cell":1,
    "summoned":1,
    "cells":1,
    "interrogate":1,
    "wobbles":1,
    "elevation":1,
    "charade":1,
    "sincerely":1,
    "respective":1,
    "outbursts":1,
    "changed":1,
    "swells":1,
    "defeated":1,
    "lonely":1,
    "greatness":1,
    "mollified":1,
    "lowers":1,
    "forehead":1,
    "ends":1,
    "draped":1,
    "writhes":1,
    "grip":1,
    "deathly":1,
    "glaze":1,
    "thrashes":1,
    "eventually":1,
    "genuflecting":1,
    "shifted":1,
    "scared":2,
    "expecting":2,
    "name":2,
    "hostility":2,
    "agitation":2,
    "addressed":2,
    "sentries":2,
    "boiling":2,
    "iv":2,
    "extends":2,
    "unrest":2,
    "consumes":2,
    "seats":2,
    "servants":2,
    "t\u00faa":2,
    "de":2,
    "\u00e1men":2,
    "hair":2,
    "rebels":2,
    "eats":2,
    "heroic":2,
    "recent":2,
    "suffered":2,
    "enemy":2,
    "therefore":2,
    "ramblings":2,
    "monstrous":2,
    "almost":2,
    "western":2,
    "terrible":2,
    "impassively":2,
    "fence":2,
    "nobly":2,
    "travel":2,
    "hang":2,
    "fucking":2,
    "neck":2,
    "catching":2,
    "scurry":2,
    "remain":2,
    "injured":2,
    "self":2,
    "wasn\u2019t":2,
    "entry":2,
    "key":2,
    "happened":2,
    "throbbing":2,
    "burdened":2,
    "entirely":2,
    "stirs":2,
    "honey":2,
    "wine":2,
    "wound":2,
    "screams":2,
    "smoke":2,
    "dogs":2,
    "pigs":2,
    "cloaks":2,
    "appear":2,
    "discreetly":2,
    "concealed":2,
    "weapons":2,
    "middle":2,
    "momentarily":2,
    "ignored":2,
    "leading":2,
    "holy":2,
    "fathers":2,
    "authority":2,
    "house":2,
    "writhing":2,
    "ideas":2,
    "power":2,
    "company":2,
    "necked":2,
    "hostess":2,
    "settle":2,
    "dispute":2,
    "cockfight":2,
    "inches":2,
    "rules":2,
    "topple":2,
    "waddle":2,
    "tussle":2,
    "onlookers":2,
    "hath":2,
    "disoriented":2,
    "shirt":2,
    "lift":2,
    "cup":2,
    "ale":2,
    "doing":2,
    "smudged":2,
    "pillow":2,
    "gravely":2,
    "regret":2,
    "drunken":2,
    "fail":2,
    "heed":2,
    "shame":2,
    "disdain":2,
    "shouldn\u2019t":2,
    "state":2,
    "parliament":2,
    "plus":2,
    "clerical":2,
    "yearold":2,
    "lisp":2,
    "root":2,
    "church":2,
    "remains":2,
    "barely":2,
    "display":2,
    "world":2,
    "leadership":2,
    "committed":2,
    "news":2,
    "duty":2,
    "leans":2,
    "leaves":2,
    "sun":2,
    "commotion":2,
    "hush":2,
    "sharp":2,
    "determined":2,
    "steely":2,
    "hasn\u2019t":2,
    "moved":2,
    "scurries":2,
    "nobody":2,
    "toward":2,
    "thrill":2,
    "started":2,
    "properly":2,
    "reign":2,
    "alive":2,
    "belongs":2,
    "troubles":2,
    "decide":2,
    "turning":2,
    "enemies":2,
    "decisions":2,
    "returned":2,
    "refused":2,
    "thousand":2,
    "thin":2,
    "visible":2,
    "address":2,
    "nervously":2,
    "built":2,
    "everything":2,
    "worthy":2,
    "formidable":2,
    "fearsome":2,
    "mounts":2,
    "breathing":2,
    "visor":2,
    "spurs":2,
    "slows":2,
    "removes":2,
    "distressed":2,
    "outcome":2,
    "side":2,
    "prevent":2,
    "contest":2,
    "finish":2,
    "firm":2,
    "circles":2,
    "stumbles":2,
    "trade":2,
    "despite":2,
    "falls":2,
    "straight":2,
    "shocked":2,
    "tosses":2,
    "dirt":2,
    "contemplates":2,
    "dropped":2,
    "stolen":2,
    "mark":2,
    "kicks":2,
    "hello":2,
    "mess":2,
    "vile":2,
    "fades":2,
    "lingers":2,
    "talking":2,
    "pats":2,
    "stairs":2,
    "struggle":2,
    "suspect":2,
    "kitchen":2,
    "loiter":2,
    "wall":2,
    "dying":2,
    "struggles":2,
    "kind":2,
    "response":2,
    "wretch":2,
    "tears":2,
    "breathes":2,
    "serving":2,
    "catches":2,
    "scoffs":2,
    "fit":2,
    "ceremonial":2,
    "robes":2,
    "garments":2,
    "event":2,
    "suppose":2,
    "honourable":2,
    "endeavours":2,
    "ye":2,
    "sirs":2,
    "york":2,
    "carefully":2,
    "husband":2,
    "pomerania":2,
    "laid":2,
    "gifts":2,
    "wenceslaus":2,
    "bohemia":2,
    "thankful":2,
    "happy":2,
    "cheek":2,
    "peaceful":2,
    "quill":2,
    "justice":2,
    "enjoy":2,
    "studies":2,
    "underside":2,
    "toy":2,
    "christendom":2,
    "raised":2,
    "unholy":2,
    "applaud":2,
    "card":2,
    "anticipation":2,
    "tennis":2,
    "throws":2,
    "stone":2,
    "echoes":2,
    "bounces":2,
    "play":2,
    "remaining":2,
    "reads":2,
    "becomes":2,
    "papers":2,
    "unsettled":2,
    "insult":2,
    "spent":2,
    "waiting":2,
    "rubs":2,
    "complicated":2,
    "purse":2,
    "personal":2,
    "strategy":2,
    "shifts":2,
    "proceed":2,
    "endeavour":2,
    "reconciliation":2,
    "sadly":2,
    "wanders":2,
    "presentation":2,
    "france\u2019s":2,
    "meaning":2,
    "rule":2,
    "lineage":2,
    "tethered":2,
    "reverence":2,
    "introduce":2,
    "arise":2,
    "preparedness":2,
    "current":2,
    "impenetrable":2,
    "jerusalem":2,
    "we\u2019re":2,
    "presume":2,
    "bend":2,
    "storm":2,
    "gifted":2,
    "stirring":2,
    "opinion":2,
    "mean":2,
    "finishes":2,
    "taste":2,
    "john\u2019s":2,
    "hour":2,
    "half":2,
    "thieving":2,
    "stinking":2,
    "ponder":2,
    "bucket":2,
    "someone":2,
    "leaving":2,
    "frenchman":2,
    "tale":2,
    "arranged":2,
    "ways":2,
    "killer":2,
    "admission":2,
    "low":2,
    "means":2,
    "nests":2,
    "welcomed":2,
    "quite":2,
    "breaks":2,
    "sees":2,
    "ours":2,
    "harmony":2,
    "confidence":2,
    "thinks":2,
    "twice":2,
    "fifth":2,
    "fill":2,
    "asked":2,
    "estate":2,
    "trust":2,
    "fuss":2,
    "plot":2,
    "nought":2,
    "counted":2,
    "merely":2,
    "establish":2,
    "ago":2,
    "wears":2,
    "burden":2,
    "lesser":2,
    "willing":2,
    "becoming":2,
    "ignoring":2,
    "benefit":2,
    "trifling":2,
    "third":2,
    "high":2,
    "square":2,
    "number":2,
    "bewildered":2,
    "file":2,
    "scarf":2,
    "top":2,
    "coins":2,
    "beg":2,
    "shed":2,
    "skin":2,
    "chapter":2,
    "closed":2,
    "drink":2,
    "wear":2,
    "occasion":2,
    "anyone":2,
    "forced":2,
    "waking":2,
    "point":2,
    "friends":2,
    "hangs":2,
    "handful":2,
    "minds":2,
    "captains":2,
    "fighting":2,
    "command":2,
    "form":2,
    "uncomfortable":2,
    "knock":2,
    "awaits":2,
    "sobers":2,
    "supplies":2,
    "coming":2,
    "care":2,
    "count":2,
    "yard":2,
    "captain":2,
    "prepared":2,
    "roams":2,
    "ship\u2019s":2,
    "beach":2,
    "fog":2,
    "wade":2,
    "abandoned":2,
    "buildings":2,
    "ahead":2,
    "terrifying":2,
    "souls":2,
    "soulless":2,
    "knowing":2,
    "hunger":2,
    "spits":2,
    "warfare":2,
    "giant":2,
    "canopy":2,
    "silly":2,
    "hiding":2,
    "horn":2,
    "d\u2019estouteville":2,
    "genuflects":2,
    "freed":2,
    "oversee":2,
    "received":2,
    "conference":2,
    "early":2,
    "advise":2,
    "mustn\u2019t":2,
    "advantage":2,
    "motivation":2,
    "vain":2,
    "invite":2,
    "tree":2,
    "gestures":2,
    "use":2,
    "lull":2,
    "wide":2,
    "shackled":2,
    "ignores":2,
    "cross":2,
    "north":2,
    "exhausted":2,
    "trees":2,
    "kindling":2,
    "yards":2,
    "crossbow":2,
    "boy\u2019s":2,
    "venom":2,
    "commander":2,
    "often":2,
    "kneeling":2,
    "prayer":2,
    "pestilence":2,
    "unspeakable":2,
    "suffering":2,
    "unassailable":2,
    "sausages":2,
    "sailing":2,
    "spinach":2,
    "eerily":2,
    "summon":2,
    "ride":2,
    "dartmouth":2,
    "thousands":2,
    "frenchmen":2,
    "outnumbered":2,
    "assault":2,
    "four":2,
    "mounted":2,
    "frontline":2,
    "muddy":2,
    "speed":2,
    "drivel":2,
    "attack":2,
    "robbed":2,
    "plan":2,
    "plans":2,
    "though":2,
    "pall":2,
    "cast":2,
    "unarmoured":2,
    "draw":2,
    "noble":2,
    "rests":2,
    "contempt":2,
    "christian":2,
    "famous":2,
    "deal":2,
    "searches":2,
    "gesture":2,
    "slips":2,
    "atop":2,
    "motionless":2,
    "horns":2,
    "path":2,
    "trail":2,
    "apocrypha":2,
    "memory":2,
    "worse":2,
    "grieve":2,
    "sons":2,
    "failings":2,
    "vanity":2,
    "daughter":2,
    "princess":2,
    "caused":2,
    "pain":2,
    "returning":2,
    "achieved":2,
    "laughed":2,
    "illegitimate":2,
    "thoughts":2,
    "contemplated":2,
    "mirror":2,
    "sheep":2,
    "recall":2,
    "arisen":2,
    "wanted":2,
    "wrong":3,
    "direction":3,
    "spilled":3,
    "expects":3,
    "antechamber":3,
    "unease":3,
    "cannot":3,
    "earl":3,
    "kisses":3,
    "food":3,
    "scots":3,
    "hundred":3,
    "led":3,
    "held":3,
    "prisoner":3,
    "pass":3,
    "joined":3,
    "battles":3,
    "free":3,
    "grievances":3,
    "traitors":3,
    "fumes":3,
    "window":3,
    "wakes":3,
    "ajar":3,
    "cut":3,
    "circumstances":3,
    "found":3,
    "foul":3,
    "pot":3,
    "require":3,
    "devotion":3,
    "clean":3,
    "hot":3,
    "front":3,
    "immediately":3,
    "mass":3,
    "man\u2019s":3,
    "leads":3,
    "suggest":3,
    "urgency":3,
    "drunk":3,
    "allow":3,
    "wouldn\u2019t":3,
    "answer":3,
    "snakes":3,
    "whole":3,
    "canterbury":3,
    "oh":3,
    "feeling":3,
    "cock":3,
    "six":3,
    "retreat":3,
    "support":3,
    "grabs":3,
    "laughing":3,
    "dear":3,
    "jump":3,
    "feelings":3,
    "likely":3,
    "interest":3,
    "weak":3,
    "problems":3,
    "regards":3,
    "crosses":3,
    "closer":3,
    "consider":3,
    "issue":3,
    "succession":3,
    "itself":3,
    "grave":3,
    "eager":3,
    "newly":3,
    "trouble":3,
    "neither":3,
    "surprise":3,
    "strong":3,
    "thomas\u2019s":3,
    "regard":3,
    "armies\u2019":3,
    "confused":3,
    "victorious":3,
    "chance":3,
    "forever":3,
    "larger":3,
    "burn":3,
    "fitting":3,
    "hoping":3,
    "thus":3,
    "live":3,
    "close":3,
    "embarrassed":3,
    "troubled":3,
    "stead":3,
    "big":3,
    "blows":3,
    "dagger":3,
    "throat":3,
    "certainly":3,
    "didn\u2019t":3,
    "greater":3,
    "crouches":3,
    "killing":3,
    "battlefield":3,
    "shakes":3,
    "chaos":3,
    "absence":3,
    "sentiments":3,
    "precisely":3,
    "possible":3,
    "concerned":3,
    "gone":3,
    "work":3,
    "empty":3,
    "swings":3,
    "truly":3,
    "backs":3,
    "run":3,
    "become":3,
    "falsely":3,
    "sight":3,
    "open":3,
    "awake":3,
    "aback":3,
    "hours":3,
    "yea":3,
    "procession":3,
    "huge":3,
    "duke":3,
    "few":3,
    "women":3,
    "marriage":3,
    "near":3,
    "vase":3,
    "beautiful":3,
    "beauty":3,
    "chief":3,
    "laugh":3,
    "muted":3,
    "hold":3,
    "drinking":3,
    "strife":3,
    "anything":3,
    "told":3,
    "female":3,
    "story":3,
    "wary":3,
    "busy":3,
    "heavens":3,
    "eat":3,
    "search":3,
    "plate":3,
    "won\u2019t":3,
    "forgot":3,
    "weeks":3,
    "sick":3,
    "i\u2019ll":3,
    "opposite":3,
    "gilrich":3,
    "weasel":3,
    "tension":3,
    "runs":3,
    "attendant":3,
    "envoy":3,
    "chamber":3,
    "believes":3,
    "discussion":3,
    "problem":3,
    "reaction":3,
    "spoiling":3,
    "came":3,
    "experience":3,
    "secure":3,
    "gathered":3,
    "second":3,
    "passes":3,
    "armed":3,
    "warily":3,
    "deeply":3,
    "steer":3,
    "loaded":3,
    "points":3,
    "common":3,
    "campaign":3,
    "join":3,
    "foot":3,
    "squirms":3,
    "sky":3,
    "soldier":3,
    "deck":3,
    "ships":3,
    "twenty":3,
    "bloody":3,
    "sacrifice":3,
    "months":3,
    "surrendered":3,
    "children":3,
    "perchance":3,
    "since":3,
    "sleep":3,
    "wife":3,
    "river":3,
    "gather":3,
    "pail":3,
    "river\u2019s":3,
    "shadows":3,
    "simple":3,
    "thou\u2019st":3,
    "chokes":3,
    "armoured":3,
    "false":3,
    "things":3,
    "entourage":3,
    "nancy":3,
    "unity":3,
    "aides":3,
    "continue":4,
    "wind":4,
    "engaged":4,
    "boils":4,
    "pray":4,
    "civil":4,
    "train":4,
    "ransom":4,
    "you\u2019ll":4,
    "refuse":4,
    "loss":4,
    "welsh":4,
    "strength":4,
    "help":4,
    "walls":4,
    "wing":4,
    "forgive":4,
    "made":4,
    "madness":4,
    "corners":4,
    "begun":4,
    "imagine":4,
    "stunned":4,
    "intimidating":4,
    "owe":4,
    "carry":4,
    "chair":4,
    "strides":4,
    "rises":4,
    "returns":4,
    "below":4,
    "arm":4,
    "loudly":4,
    "else":4,
    "bottle":4,
    "coin":4,
    "soft":4,
    "goes":4,
    "fire":4,
    "onto":4,
    "laughter":4,
    "fires":4,
    "filthy":4,
    "step":4,
    "privately":4,
    "breathe":4,
    "presence":4,
    "pauses":4,
    "fact":4,
    "beneath":4,
    "god":4,
    "word":4,
    "balls":4,
    "lose":4,
    "rise":4,
    "spoken":4,
    "mouth":4,
    "suddenly":4,
    "that\u2019s":4,
    "holds":4,
    "closes":4,
    "fixed":4,
    "soak":4,
    "call":4,
    "put":4,
    "even":4,
    "exchange":4,
    "appears":4,
    "instead":4,
    "aware":4,
    "against":4,
    "trying":4,
    "heavy":4,
    "nearby":4,
    "slowly":4,
    "horseback":4,
    "dismounts":4,
    "herald":4,
    "short":4,
    "days":4,
    "alongside":4,
    "seek":4,
    "cause":4,
    "uncomfortably":4,
    "none":4,
    "dons":4,
    "dead":4,
    "easily":4,
    "warrior":4,
    "arrived":4,
    "breath":4,
    "waits":4,
    "killed":4,
    "carries":4,
    "chosen":4,
    "lie":4,
    "times":4,
    "along":4,
    "exit":4,
    "continuous":4,
    "bedchamber":4,
    "quietly":4,
    "comfort":4,
    "deserve":4,
    "love":4,
    "same":4,
    "surveys":4,
    "purpose":4,
    "comfortable":4,
    "archbishop\u2019s":4,
    "every":4,
    "queen":4,
    "denmark":4,
    "england\u2019s":4,
    "constantinople":4,
    "shoulders":4,
    "mind":4,
    "desk":4,
    "kingdoms":4,
    "realm":4,
    "performance":4,
    "assembled":4,
    "law":4,
    "favour":4,
    "until":4,
    "strange":4,
    "paid":4,
    "dungeon":4,
    "kill":4,
    "act":4,
    "weight":4,
    "lives":4,
    "thinking":4,
    "notice":4,
    "advance":4,
    "moves":4,
    "defence":4,
    "listen":4,
    "hammond":4,
    "horland":4,
    "smile":4,
    "menatarms":4,
    "hide":4,
    "lines":4,
    "tonight":4,
    "slow":4,
    "seem":4,
    "home":4,
    "archers":4,
    "riverside":4,
    "campsite":4,
    "forest":4,
    "boys":4,
    "caught":4,
    "disadvantage":4,
    "shared":4,
    "searching":4,
    "speculative":4,
    "united":4,
    "porch":4,
    "gently":4,
    "forged":4,
    "concerns":5,
    "courtiers":5,
    "sorry":5,
    "making":5,
    "travelled":5,
    "coldly":5,
    "water":5,
    "awkward":5,
    "lost":5,
    "charge":5,
    "brought":5,
    "cousin":5,
    "mortimer\u2019s":5,
    "ears":5,
    "mortimer":5,
    "wales":5,
    "rather":5,
    "years":5,
    "awaiting":5,
    "just":5,
    "clear":5,
    "stare":5,
    "henry\u2019s":5,
    "fresh":5,
    "bows":5,
    "bed":5,
    "loyalty":5,
    "quickly":5,
    "ill":5,
    "wholly":5,
    "past":5,
    "remember":5,
    "voice":5,
    "earth":5,
    "assume":5,
    "otherwise":5,
    "clearly":5,
    "laughs":5,
    "hooper":5,
    "distant":5,
    "places":5,
    "matter":5,
    "concern":5,
    "sitting":5,
    "thought":5,
    "above":5,
    "share":5,
    "life":5,
    "smell":5,
    "fall":5,
    "suit":5,
    "lead":5,
    "set":5,
    "last":5,
    "tight":5,
    "preparations":5,
    "lone":5,
    "figure":5,
    "circle":5,
    "defeat":5,
    "certain":5,
    "save":5,
    "pardon":5,
    "staring":5,
    "respect":5,
    "startled":5,
    "approach":5,
    "win":5,
    "you\u2019ve":5,
    "ugly":5,
    "always":5,
    "shoulder":5,
    "guard":5,
    "met":5,
    "account":5,
    "show":5,
    "order":5,
    "watching":5,
    "isn\u2019t":5,
    "sister":5,
    "eric":5,
    "gift":5,
    "seat":5,
    "next":5,
    "cambridge\u2019s":5,
    "known":5,
    "sense":5,
    "reaches":5,
    "loud":5,
    "dauphin\u2019s":5,
    "passing":5,
    "seated":5,
    "throne":5,
    "sack":5,
    "speaking":5,
    "welcome":5,
    "corner":5,
    "wishes":5,
    "william\u2019s":5,
    "propose":5,
    "could":5,
    "pageboy":5,
    "ship":5,
    "whom":5,
    "sea":5,
    "soldiers":5,
    "castle":5,
    "siege":5,
    "hill":5,
    "apple":5,
    "knights":5,
    "tries":6,
    "visit":6,
    "blood":6,
    "matters":6,
    "present":6,
    "hands":6,
    "three":6,
    "bow":6,
    "says":6,
    "prisoners":6,
    "directly":6,
    "being":6,
    "hear":6,
    "continues":6,
    "right":6,
    "apartment":6,
    "people":6,
    "mud":6,
    "request":6,
    "intent":6,
    "palace":6,
    "also":6,
    "both":6,
    "claim":6,
    "drinker":6,
    "dare":6,
    "bite":6,
    "tongue":6,
    "keep":6,
    "mood":6,
    "better":6,
    "holding":6,
    "sword":6,
    "raises":6,
    "lifts":6,
    "nervous":6,
    "respond":6,
    "nor":6,
    "tomorrow":6,
    "feels":6,
    "tents":6,
    "message":6,
    "surely":6,
    "line":6,
    "force":6,
    "pause":6,
    "silence":6,
    "together":6,
    "deep":6,
    "dog":6,
    "soon":6,
    "charges":6,
    "feet":6,
    "noise":6,
    "chest":6,
    "faces":6,
    "counsel":6,
    "enters":6,
    "salic":6,
    "shit":6,
    "i\u2019d":6,
    "expect":6,
    "stay":6,
    "tired":6,
    "surrender":6,
    "rain":6,
    "percy":7,
    "beyond":7,
    "follow":7,
    "far":7,
    "eye":7,
    "bring":7,
    "space":7,
    "pay":7,
    "however":7,
    "stops":7,
    "family":7,
    "rest":7,
    "ever":7,
    "strangely":7,
    "lies":7,
    "enter":7,
    "left":7,
    "dark":7,
    "inside":7,
    "deliver":7,
    "makes":7,
    "knee":7,
    "towards":7,
    "woman":7,
    "doesn\u2019t":7,
    "whatever":7,
    "outside":7,
    "given":7,
    "horse":7,
    "something":7,
    "ground":7,
    "father\u2019s":7,
    "forward":7,
    "death":7,
    "felt":7,
    "office":7,
    "box":7,
    "inspects":7,
    "thank":7,
    "reason":7,
    "position":7,
    "stool":7,
    "nods":7,
    "lords":8,
    "northumberland":8,
    "quiet":8,
    "while":8,
    "looking":8,
    "rebel":8,
    "fought":8,
    "because":8,
    "lets":8,
    "moments":8,
    "victory":8,
    "knows":8,
    "needs":8,
    "lands":8,
    "i\u2019ve":8,
    "heard":8,
    "he\u2019s":8,
    "get":8,
    "having":8,
    "best":8,
    "highness":8,
    "floor":8,
    "walk":8,
    "sire":8,
    "tavern":8,
    "very":8,
    "speaks":8,
    "arms":8,
    "indeed":8,
    "attendants":8,
    "doubt":8,
    "wonder":8,
    "comes":8,
    "hand":8,
    "ready":8,
    "crowd":8,
    "promise":8,
    "rides":8,
    "drops":8,
    "land":8,
    "tis":8,
    "move":8,
    "ah":8,
    "simply":8,
    "light":8,
    "send":8,
    "peace":8,
    "outskirts":8,
    "go":9,
    "standing":9,
    "opens":9,
    "can\u2019t":9,
    "enough":9,
    "myself":9,
    "return":9,
    "tell":9,
    "maybe":9,
    "die":9,
    "exits":9,
    "cold":9,
    "hall":9,
    "crown":9,
    "said":9,
    "approaches":9,
    "horses":9,
    "honour":9,
    "philippa":9,
    "bird":9,
    "charles":9,
    "question":9,
    "catherine":9,
    "friend":10,
    "you\u2019re":10,
    "hotspur\u2019s":10,
    "silent":10,
    "calm":10,
    "long":10,
    "scrope":10,
    "does":10,
    "hard":10,
    "heads":10,
    "any":10,
    "stop":10,
    "attention":10,
    "yet":10,
    "another":10,
    "later":10,
    "puts":10,
    "edge":10,
    "guards":10,
    "under":10,
    "turn":10,
    "new":10,
    "meet":10,
    "place":10,
    "offer":10,
    "find":10,
    "chamberlain":10,
    "give":10,
    "alone":10,
    "first":10,
    "assassin":10,
    "about":10,
    "harfleur":10,
    "agincourt":10,
    "sound":11,
    "afraid":11,
    "room":11,
    "westmorland":11,
    "others":11,
    "taken":11,
    "seen":11,
    "after":11,
    "king\u2019s":11,
    "those":11,
    "pulls":11,
    "yourself":11,
    "each":11,
    "nothing":11,
    "seems":11,
    "armour":11,
    "upon":11,
    "today":11,
    "stand":11,
    "once":11,
    "ask":11,
    "town":11,
    "grey":12,
    "among":12,
    "understand":12,
    "battle":12,
    "boy":12,
    "longer":12,
    "it\u2019s":12,
    "sure":12,
    "behind":12,
    "already":12,
    "air":12,
    "morning":12,
    "sent":12,
    "between":12,
    "hope":13,
    "watch":13,
    "old":13,
    "still":13,
    "think":13,
    "young":13,
    "prince":13,
    "falstaff\u2019s":13,
    "small":13,
    "don\u2019t":13,
    "look":13,
    "across":13,
    "brother":13,
    "takes":13,
    "tent":13,
    "helmet":13,
    "ball":13,
    "majesty":14,
    "sir":14,
    "time":14,
    "believe":14,
    "mine":14,
    "full":14,
    "beale":14,
    "may":14,
    "without":14,
    "army":14,
    "beat":14,
    "turns":15,
    "wait":15,
    "some":15,
    "let":15,
    "done":15,
    "fear":15,
    "eastcheap":15,
    "street":15,
    "want":15,
    "course":15,
    "himself":15,
    "feel":16,
    "way":16,
    "sit":16,
    "most":16,
    "take":16,
    "yours":16,
    "leave":16,
    "face":16,
    "john":16,
    "did":16,
    "yes":16,
    "beside":16,
    "kingdom":16,
    "never":16,
    "such":16,
    "through":17,
    "two":17,
    "had":17,
    "wish":17,
    "much":17,
    "little":17,
    "like":17,
    "again":17,
    "end":18,
    "cambridge":18,
    "steps":18,
    "smiles":18,
    "when":18,
    "english":18,
    "where":19,
    "son":19,
    "stares":19,
    "eyes":19,
    "around":19,
    "table":20,
    "am":20,
    "true":20,
    "please":20,
    "than":20,
    "too":20,
    "walks":20,
    "door":21,
    "need":21,
    "up":21,
    "field":21,
    "down":22,
    "moment":22,
    "france":22,
    "off":22,
    "great":23,
    "night":23,
    "shall":23,
    "into":23,
    "she":23,
    "well":23,
    "its":23,
    "camp":23,
    "dauphin":23,
    "were":24,
    "make":24,
    "or":24,
    "other":25,
    "many":25,
    "i\u2019m":26,
    "more":26,
    "head":26,
    "french":26,
    "before":27,
    "thomas":27,
    "dorset":27,
    "own":27,
    "out":27,
    "away":27,
    "back":27,
    "england":28,
    "royal":28,
    "say":28,
    "hal\u2019s":28,
    "see":29,
    "good":29,
    "over":29,
    "her":29,
    "who":30,
    "which":30,
    "father":30,
    "war":31,
    "court":32,
    "been":32,
    "watches":32,
    "henry":33,
    "fight":33,
    "archbishop":33,
    "hotspur":34,
    "speak":34,
    "why":35,
    "these":35,
    "should":36,
    "lord":36,
    "sits":36,
    "int":38,
    "ext":38,
    "stands":38,
    "come":39,
    "only":39,
    "how":40,
    "might":40,
    "us":41,
    "man":44,
    "an":44,
    "know":44,
    "if":44,
    "must":46,
    "can":46,
    "them":48,
    "there":49,
    "was":51,
    "by":51,
    "liege":55,
    "now":55,
    "would":55,
    "then":56,
    "one":58,
    "their":60,
    "day":62,
    "has":62,
    "looks":62,
    "here":64,
    "so":65,
    "no":66,
    "but":68,
    "our":68,
    "all":68,
    "what":68,
    "william":69,
    "do":69,
    "they":73,
    "from":74,
    "king":76,
    "as":94,
    "me":99,
    "falstaff":102,
    "on":108,
    "at":110,
    "men":111,
    "with":113,
    "him":116,
    "we":124,
    "will":129,
    "are":137,
    "for":138,
    "not":145,
    "have":161,
    "be":161,
    "that":163,
    "your":169,
    "my":191,
    "this":194,
    "":213,
    "in":214,
    "his":217,
    "it":220,
    "he":274,
    "is":309,
    "hal":309,
    "a":322,
    "of":360,
    "i":373,
    "you":416,
    "and":440,
    "to":512,
    "the":789
}