{
    "correspondent":1,
    "keith":1,
    "baltimore":1,
    "columnist":1,
    "actress":1,
    "rice\u2019s":1,
    "learned":1,
    "convention":1,
    "when\u2019s":1,
    "stick":1,
    "tilt":1,
    "blowndry":1,
    "beyond":1,
    "newsman":1,
    "delegates":1,
    "protestors":1,
    "cops":1,
    "etc":1,
    "mississippi":1,
    "river":1,
    "nomination":1,
    "mondale\u2019s":1,
    "taunting":1,
    "wendy\u2019s":1,
    "advertisement":1,
    "dogged":1,
    "insurgent":1,
    "tape":1,
    "dedication":1,
    "minority":1,
    "reminded":1,
    "roar":1,
    "\u201d":1,
    "monitor":1,
    "thousands":1,
    "activists":1,
    "fought":1,
    "compass":1,
    "broke":1,
    "relative":1,
    "obscurity":1,
    "listening":1,
    "ah":1,
    "pin":1,
    "lapel":1,
    "o\u2019farrell":1,
    "theater":1,
    "cross":1,
    "traffic":1,
    "tells":1,
    "finger":1,
    "golf":1,
    "sill":1,
    "wearing":1,
    "election":1,
    "hat":1,
    "\u201chart\u201d":1,
    "jawing":1,
    "mcgovern":1,
    "smoking":1,
    "donors":1,
    "mood":1,
    "mingle":1,
    "meant":1,
    "hawaiian":1,
    "polynesian":1,
    "aging":1,
    "worst":1,
    "wipes":1,
    "meaningful":1,
    "chats":1,
    "russian":1,
    "olympic":1,
    "boycott":1,
    "homelessness":1,
    "promised":1,
    "\u201chomelessness\u201d":1,
    "perestroika":1,
    "marker":1,
    "\u201988":1,
    "russians":1,
    "commotion":1,
    "screams":1,
    "converge":1,
    "held":1,
    "pulled":1,
    "redwood":1,
    "secure":1,
    "doubled":1,
    "clutching":1,
    "paramedic":1,
    "rears":1,
    "hysterically":1,
    "breathe":1,
    "loser":1,
    "vics":1,
    "san":1,
    "francisco":1,
    "loosened":1,
    "unfamiliar":1,
    "buddies":1,
    "ira":1,
    "guy\u2019s":1,
    "reasons":1,
    "wife\u2019s":1,
    "purse":1,
    "axelrod":1,
    "grim":1,
    "meals":1,
    "boys":1,
    "holy":1,
    "salary":1,
    "she\u2019d":1,
    "jersey":1,
    "hadn\u2019t":1,
    "dumbass":1,
    "\u2019em":1,
    "needs":1,
    "reagan\u2019s":1,
    "crush":1,
    "title":1,
    "slide":1,
    "1987":1,
    "tammy":1,
    "faye":1,
    "cries":1,
    "runny":1,
    "mascara":1,
    "cnn":1,
    "\u201ccharges":1,
    "scandal\u201d":1,
    "legs":1,
    "trademark":1,
    "cowboy":1,
    "boots":1,
    "lord":1,
    "university":1,
    "auditorium":1,
    "cities":1,
    "decay":1,
    "buys":1,
    "warheads":1,
    "destroy":1,
    "planet":1,
    "30":1,
    "computer":1,
    "microwave":1,
    "educating":1,
    "entertaining":1,
    "clapping":1,
    "charmed":1,
    "charisma":1,
    "nodding":1,
    "sonny":1,
    "bono":1,
    "mayor":1,
    "palm":1,
    "springs":1,
    "slogan":1,
    "stumble":1,
    "\u201che\u2019s":1,
    "babe\u201d":1,
    "\u201chart":1,
    "president\u201d":1,
    "hq":1,
    "droptile":1,
    "35year":1,
    "carpeting":1,
    "paint":1,
    "match":1,
    "aged":1,
    "intern":1,
    "unmatching":1,
    "features":1,
    "\u201884":1,
    "reuinite":1,
    "suitcases":1,
    "screwdriver":1,
    "screws":1,
    "crowbar":1,
    "pries":1,
    "twentyfive":1,
    "lines":1,
    "midway":1,
    "50":1,
    "circle":1,
    "rapt":1,
    "manager":1,
    "importantly":1,
    "gunning":1,
    "truly":1,
    "pry":1,
    "tiles":1,
    "loose":1,
    "staple":1,
    "cord":1,
    "colleagues":1,
    "democrats":1,
    "coin":1,
    "played":1,
    "asteroids":1,
    "drifted":1,
    "pelted":1,
    "felt":1,
    "term":1,
    "kevin":1,
    "freezing":1,
    "nashua":1,
    "boyfriends":1,
    "girlfriends":1,
    "leftovers":1,
    "cost":1,
    "great":1,
    "squander":1,
    "exaggeration":1,
    "newsroom\u2019s":1,
    "humming":1,
    "legendary":1,
    "seated":1,
    "watergateera":1,
    "7":1,
    "cranston\u2019s":1,
    "who\u2019re":1,
    "cranston":1,
    "annoyed":1,
    "gore\u2019s":1,
    "daddy":1,
    "tipper":1,
    "poster":1,
    "\u201ck\u201d":1,
    "gallop\u2019s":1,
    "beating":1,
    "windy":1,
    "lofty":1,
    "crediting":1,
    "reforms":1,
    "bankrupt":1,
    "communism":1,
    "bankrupted":1,
    "itself":1,
    "morally":1,
    "economically":1,
    "genuine":1,
    "camaraderie":1,
    "ribboncutting":1,
    "runthrough":1,
    "level":1,
    "weird":1,
    "storied":1,
    "candidacy":1,
    "drab":1,
    "electricity":1,
    "elevators":1,
    "balloons":1,
    "prep":1,
    "shooting":1,
    "hip":1,
    "weeks":1,
    "store":1,
    "exchanged":1,
    "wynkoop":1,
    "local":1,
    "fort":1,
    "lauderdale":1,
    "endorsements":1,
    "albums":1,
    "who\u2019ll":1,
    "barbecues":1,
    "steak":1,
    "fry":1,
    "staffing":1,
    "8yearold":1,
    "b\u2019s":1,
    "exact":1,
    "louisiana":1,
    "contribution":1,
    "gumbo":1,
    "bourbon":1,
    "dirty":1,
    "jokes":1,
    "grip":1,
    "greet":1,
    "he\u2019ll":1,
    "subject":1,
    "relatable":1,
    "born":1,
    "comfortable":1,
    "\u201csharing\u201d":1,
    "talented":1,
    "untangling":1,
    "gift":1,
    "digests":1,
    "terzanno":1,
    "returns":1,
    "circulation":1,
    "million":1,
    "counts":1,
    "covers":1,
    "sexiest":1,
    "alive":1,
    "cheers":1,
    "factor":1,
    "94":1,
    "ideal":1,
    "zipper":1,
    "zippers":1,
    "prefers":1,
    "roommates":1,
    "kicked":1,
    "crashed":1,
    "happens":1,
    "sectional":1,
    "obsessed":1,
    "circulating":1,
    "such":1,
    "dallas":1,
    "heiress":1,
    "fundraiser":1,
    "hm":1,
    "members":1,
    "congress":1,
    "expel":1,
    "ones":1,
    "interest":1,
    "separations":1,
    "dog":1,
    "pumping":1,
    "gas":1,
    "united":1,
    "millions":1,
    "photoshoot":1,
    "talent":1,
    "swimsuit":1,
    "game":1,
    "host":1,
    "excuse":1,
    "signing":1,
    "diary":1,
    "reflexively":1,
    "daybook":1,
    "signs":1,
    "squeals":1,
    "powerful":1,
    "backdrop":1,
    "distribute":1,
    "tanks":1,
    "conserve":1,
    "energy":1,
    "winks":1,
    "fooled":1,
    "slander":1,
    "science":1,
    "chores":1,
    "utterly":1,
    "fascinating":1,
    "gray":1,
    "stumbles":1,
    "quip":1,
    "age":1,
    "borrows":1,
    "pencil":1,
    "grad":1,
    "essays":1,
    "paragraph":1,
    "iguana":1,
    "location":1,
    "daughters":1,
    "trip":1,
    "kate":1,
    "application":1,
    "kate\u2019s":1,
    "concerned":1,
    "sharing":1,
    "closet":1,
    "understanding":1,
    "argument":1,
    "flashing":1,
    "bulbs":1,
    "flanked":1,
    "ceremonial":1,
    "omen":1,
    "amid":1,
    "larger":1,
    "raucous":1,
    "min":1,
    "quieter":1,
    "briskly":1,
    "accompanied":1,
    "desks":1,
    "cubicles":1,
    "eagerly":1,
    "lets":1,
    "woman\u2019s":1,
    "handling":1,
    "chef":1,
    "shake":1,
    "pocketing":1,
    "joe\u2019s":1,
    "\u2018oh":1,
    "smurf\u2019":1,
    "cable":1,
    "mult":1,
    "higher":1,
    "altitude":1,
    "shade":1,
    "react":1,
    "tent":1,
    "poorly":1,
    "enlightened":1,
    "engagement":1,
    "everest":1,
    "available":1,
    "calling":1,
    "forgot":1,
    "ethics":1,
    "gary\u2019ll":1,
    "linguistically":1,
    "ha":1,
    "suggest":1,
    "tone":1,
    "stater":1,
    "brothers":1,
    "bluff":1,
    "guides":1,
    "light\u2019ll":1,
    "remind":1,
    "makeup":1,
    "glare":1,
    "necessary":1,
    "brown":1,
    "palace":1,
    "perfectly":1,
    "brought":1,
    "originally":1,
    "summer":1,
    "hammering":1,
    "ties":1,
    "whipping":1,
    "grandeur":1,
    "rust":1,
    "recedes":1,
    "bicker":1,
    "mindlessly":1,
    "minor":1,
    "adjustments":1,
    "lighting":1,
    "fuss":1,
    "appearance":1,
    "crazy":1,
    "instructions":1,
    "builds":1,
    "crawfish":1,
    "milling":1,
    "deck":1,
    "strains":1,
    "belongs":1,
    "soffer":1,
    "owns":1,
    "estate":1,
    "tequila":1,
    "tumblers":1,
    "brunette":1,
    "recently":1,
    "retired":1,
    "wow":1,
    "29":1,
    "joins":1,
    "armandt\u2019s":1,
    "introduces":1,
    "drifts":1,
    "twinkling":1,
    "caravan":1,
    "struggle":1,
    "governing":1,
    "dust":1,
    "massively":1,
    "heavy":1,
    "slung":1,
    "fielder":1,
    "framed":1,
    "majestic":1,
    "convince":1,
    "axe":1,
    "axes":1,
    "outdoorsman":1,
    "grizzly":1,
    "bear":1,
    "commemorated":1,
    "toys":1,
    "sensation":1,
    "settle":1,
    "log":1,
    "commemorate":1,
    "impaling":1,
    "lumberjack":1,
    "90":1,
    "obeys":1,
    "rules":1,
    "mill":1,
    "perform":1,
    "interviews":1,
    "overjoyed":1,
    "playing":1,
    "cards":1,
    "foreground":1,
    "sharpie":1,
    "scrawls":1,
    "message":1,
    "peel":1,
    "windup":1,
    "30s":1,
    "nerdy":1,
    "what\u2019d":1,
    "food":1,
    "starving":1,
    "hardys":1,
    "arbys":1,
    "flat":1,
    "dubuque":1,
    "practically":1,
    "get\u2019em":1,
    "tiger":1,
    "galley":1,
    "tumbling":1,
    "caps":1,
    "\u201chave":1,
    "gary\u201d":1,
    "aside":1,
    "negotiate":1,
    "reductions":1,
    "peace":1,
    "dividend":1,
    "halfway":1,
    "invite":1,
    "inauguration":1,
    "premier":1,
    "democracy":1,
    "bolder":1,
    "lay":1,
    "negotiations":1,
    "laid":1,
    "bump":1,
    "turbulence":1,
    "casually":1,
    "armrests":1,
    "jostles":1,
    "truck":1,
    "paved":1,
    "settles":1,
    "tailspin":1,
    "managed":1,
    "otherwise":1,
    "vacuum":1,
    "asia":1,
    "mideast":1,
    "fills":1,
    "vacuums":1,
    "wars":1,
    "dictators":1,
    "religious":1,
    "extremism":1,
    "view":1,
    "yale":1,
    "tarmac":1,
    "exit":1,
    "wander":1,
    "motorcade":1,
    "square":1,
    "wave":1,
    "chapter":1,
    "challenges":1,
    "flew":1,
    "zone":1,
    "consolation":1,
    "hitting":1,
    "added":1,
    "childhood":1,
    "rickety":1,
    "clapboard":1,
    "roadwork":1,
    "weuh":1,
    "lived":1,
    "stewing":1,
    "whenever":1,
    "granddad":1,
    "bible":1,
    "lap":1,
    "neighbor":1,
    "friendly":1,
    "\u201cwhat":1,
    "there\u201d":1,
    "grandad":1,
    "\u201ccramming":1,
    "finals\u201d":1,
    "reluctant":1,
    "econoline":1,
    "elder":1,
    "volunteer":1,
    "drives":1,
    "audibly":1,
    "waste":1,
    "money":1,
    "directors":1,
    "georgia":1,
    "begging":1,
    "irene\u2019s":1,
    "35":1,
    "youngstown":1,
    "mobile":1,
    "dear":1,
    "green":1,
    "arrived":1,
    "hurry":1,
    "elderly":1,
    "volunteer\u2019s":1,
    "immediately":1,
    "relaxes":1,
    "buzz":1,
    "stringer":1,
    "payphones":1,
    "tinkering":1,
    "firstgeneration":1,
    "shoesize":1,
    "cellphone":1,
    "delay":1,
    "sandwich":1,
    "travesty":1,
    "presentation":1,
    "ralph":1,
    "lauren":1,
    "cbs":1,
    "hugo":1,
    "three\u2019s":1,
    "company":1,
    "trustworthy":1,
    "hits":1,
    "bars":1,
    "vidal":1,
    "sassoon":1,
    "brokow\u2019s":1,
    "mark":1,
    "knopfler\u2019s":1,
    "theme":1,
    "song":1,
    "they\u2018ll":1,
    "shots":1,
    "anchors":1,
    "leaping":1,
    "fires":1,
    "kittens":1,
    "storm":1,
    "drains":1,
    "hire":1,
    "models":1,
    "jerk":1,
    "knell":1,
    "mistake":1,
    "often":1,
    "punch":1,
    "vending":1,
    "curiously":1,
    "ten":1,
    "bucks":1,
    "misses":1,
    "alright":1,
    "throw":1,
    "munching":1,
    "apple":1,
    "detachment":1,
    "ax":1,
    "hurls":1,
    "travels":1,
    "25":1,
    "thwack":1,
    "bullseye":1,
    "grins":1,
    "triumphantly":1,
    "incredible":1,
    "unflinching":1,
    "hunting":1,
    "lodge":1,
    "rifles":1,
    "racks":1,
    "pros":1,
    "formed":1,
    "horseshoe":1,
    "smoky":1,
    "angry":1,
    "sleeves":1,
    "pockets":1,
    "christian":1,
    "prayer":1,
    "church":1,
    "hunt":1,
    "uncle":1,
    "taught":1,
    "guns":1,
    "calms":1,
    "lives":1,
    "jalapeno":1,
    "farmer":1,
    "enterprise":1,
    "industry":1,
    "create":1,
    "instead":1,
    "stealing":1,
    "brink":1,
    "collapse":1,
    "border":1,
    "antimilitary":1,
    "branch":1,
    "count":1,
    "disagree":1,
    "sold":1,
    "copies":1,
    "raises":1,
    "b2":1,
    "bomber":1,
    "costs":1,
    "billion":1,
    "penny":1,
    "superbowl":1,
    "building":1,
    "genuinely":1,
    "rebuild":1,
    "conventional":1,
    "jungles":1,
    "deserts":1,
    "\u2018em":1,
    "cold":1,
    "addiction":1,
    "oil":1,
    "battles":1,
    "places":1,
    "east":1,
    "stateless":1,
    "islamic":1,
    "terrorism":1,
    "epidemic":1,
    "ragheads":1,
    "desert":1,
    "bombs":1,
    "celtics":1,
    "lakers":1,
    "nuggets":1,
    "afraid":1,
    "booed":1,
    "awkward":1,
    "\u201cif\u201d":1,
    "defused":1,
    "manchester":1,
    "day\u2019s":1,
    "officially":1,
    "reaction":1,
    "kennedy":1,
    "bradley":1,
    "gephardt":1,
    "al\u2019s":1,
    "double":1,
    "digits":1,
    "elect":1,
    "waitress":1,
    "sweet":1,
    "follows":1,
    "sign":1,
    "restroom":1,
    "flustered":1,
    "leaned":1,
    "giggling":1,
    "wedding":1,
    "mens":1,
    "paper\u2019s":1,
    "savage":1,
    "dramatically":1,
    "recounting":1,
    "movements":1,
    "cartel":1,
    "radar":1,
    "cruising":1,
    "apaches":1,
    "strafe":1,
    "breach":1,
    "airspace":1,
    "dump":1,
    "shipment":1,
    "atlantic":1,
    "pounds":1,
    "tons":1,
    "volkswagon":1,
    "coast":1,
    "fishing":1,
    "tours":1,
    "islamorada":1,
    "cargo":1,
    "net":1,
    "map":1,
    "route":1,
    "artwork":1,
    "motion":1,
    "sexy":1,
    "mgm":1,
    "suing":1,
    "disney":1,
    "license":1,
    "violation":1,
    "tim\u2019s":1,
    "options":1,
    "drawing":1,
    "universal":1,
    "orlando":1,
    "alligator":1,
    "ate":1,
    "epcot":1,
    "cuffs":1,
    "kickoff":1,
    "tour":1,
    "raiser":1,
    "40s":1,
    "100":1,
    "twills":1,
    "sports":1,
    "dolphins":1,
    "drafting":1,
    "27":1,
    "clips":1,
    "deserted":1,
    "baseball":1,
    "transistor":1,
    "coy":1,
    "tipsy":1,
    "sneaking":1,
    "allegations":1,
    "pathetic":1,
    "cheerleader":1,
    "boy":1,
    "faxed":1,
    "edited":1,
    "tapetotape":1,
    "online":1,
    "bay":1,
    "criticize":1,
    "lib":1,
    "commercial":1,
    "ads":1,
    "stranger\u2019s":1,
    "claims":1,
    "accusations":1,
    "admiring":1,
    "emerson\u2019s":1,
    "1980\u2019s":1,
    "icons":1,
    "s":1,
    "thompson":1,
    "don":1,
    "constituents":1,
    "angelinos":1,
    "particularly":1,
    "tough":1,
    "reassuring":1,
    "faces":1,
    "serve":1,
    "reminder":1,
    "regional":1,
    "struggles":1,
    "thoughtful":1,
    "sweeney\u2019s":1,
    "gazing":1,
    "corded":1,
    "hal":1,
    "righto":1,
    "kitty":1,
    "ellie":1,
    "printing":1,
    "revised":1,
    "dcnew":1,
    "yorknew":1,
    "tacos":1,
    "friday\u2019s":1,
    "taco":1,
    "limp":1,
    "earl":1,
    "brain":1,
    "murphy\u2019s":1,
    "attempting":1,
    "demonstrate":1,
    "cook":1,
    "hamburger":1,
    "ruler":1,
    "spatula":1,
    "flattened":1,
    "ball":1,
    "mike":1,
    "chime":1,
    "healthcare":1,
    "farming":1,
    "subsidies":1,
    "crossed":1,
    "remains":1,
    "\u201cmarriage\u201d":1,
    "separation":1,
    "fairly":1,
    "occurrence":1,
    "avoid":1,
    "fun":1,
    "case":1,
    "wondering":1,
    "elucidate":1,
    "\u2018people\u2019":1,
    "mcgovern\u2019s":1,
    "fault":1,
    "arriving":1,
    "gail":1,
    "sheehy":1,
    "believed":1,
    "\u201creform":1,
    "marriage\u201d":1,
    "dredge":1,
    "15":1,
    "encapsulates":1,
    "covered":1,
    "stuff":1,
    "wrap":1,
    "there\u2019ve":1,
    "sake":1,
    "trad":1,
    "spare":1,
    "scribbles":1,
    "escorts":1,
    "comical":1,
    "calm":1,
    "usually":1,
    "honestly":1,
    "alongside":1,
    "taxi":1,
    "stately":1,
    "twostory":1,
    "shine":1,
    "illuminate":1,
    "visible":1,
    "driver\u2019s":1,
    "hoping":1,
    "nominee":1,
    "seconds":1,
    "peep":1,
    "destination":1,
    "man\u2019s":1,
    "stoop":1,
    "slr":1,
    "dawn":1,
    "horizon":1,
    "crossword":1,
    "valentine":1,
    "yep":1,
    "figured":1,
    "planes":1,
    "kilos":1,
    "colombia":1,
    "bahamas":1,
    "dig":1,
    "deeper":1,
    "prime":1,
    "minister":1,
    "offs":1,
    "lawyers":1,
    "beach":1,
    "runways":1,
    "unguarded":1,
    "wo":1,
    "\u201cwo\u201d":1,
    "sometimes":1,
    "snuck":1,
    "magic":1,
    "kingdom":1,
    "tourist":1,
    "tomorrowland":1,
    "bought":1,
    "rocket":1,
    "climbed":1,
    "barricade":1,
    "images":1,
    "eo":1,
    "terrifying":1,
    "printed":1,
    "bored\u201d":1,
    "invitation":1,
    "bosses":1,
    "picking":1,
    "changed":1,
    "forgets":1,
    "handed":1,
    "primaries":1,
    "caucuses":1,
    "nominees":1,
    "vet":1,
    "congressman":1,
    "accountable":1,
    "hopefully":1,
    "draft":1,
    "drive":1,
    "shove":1,
    "studies":1,
    "fluctuations":1,
    "tags":1,
    "ripped":1,
    "pretending":1,
    "ridiculous":1,
    "trots":1,
    "furtive":1,
    "slows":1,
    "passes":1,
    "quite":1,
    "finishes":1,
    "loop":1,
    "sweating":1,
    "block":1,
    "crouching":1,
    "excited":1,
    "slam":1,
    "gentlemen":1,
    "silent":1,
    "eerie":1,
    "noon":1,
    "breached":1,
    "historical":1,
    "ground":1,
    "decipher":1,
    "composes":1,
    "blond":1,
    "confusing":1,
    "uhh":1,
    "works":1,
    "startles":1,
    "assure":1,
    "corroborate":1,
    "step":1,
    "snaps":1,
    "momentarily":1,
    "blinks":1,
    "frustrating":1,
    "dates":1,
    "\u201chold":1,
    "ourselves":1,
    "possible":1,
    "standards":1,
    "ethics\u201d":1,
    "forthcoming":1,
    "denying":1,
    "deny":1,
    "papers":1,
    "responsibilities":1,
    "yours":1,
    "sex":1,
    "multiple":1,
    "catching":1,
    "tandy":1,
    "laptop":1,
    "9":1,
    "momma":1,
    "mailman":1,
    "smoke":1,
    "cups":1,
    "detritus":1,
    "bangs":1,
    "hovers":1,
    "glimpse":1,
    "developing":1,
    "negatives":1,
    "minidaylight":1,
    "sink":1,
    "halflistening":1,
    "hanging":1,
    "drying":1,
    "42":1,
    "tied":1,
    "ropes":1,
    "chains":1,
    "grunts":1,
    "typing":1,
    "girl\u2019s":1,
    "til":1,
    "started":1,
    "garage":1,
    "talked":1,
    "broom":1,
    "ow":1,
    "chance":1,
    "facetious":1,
    "subscribers":1,
    "jim":1,
    "tease":1,
    "spin":1,
    "rights":1,
    "magnum":1,
    "bust":1,
    "\u201cin":1,
    "challenged":1,
    "\u2018follow":1,
    "asleep":1,
    "locked":1,
    "figuring":1,
    "tomorrow\u2019s":1,
    "a1":1,
    "straighten":1,
    "bottle":1,
    "inhale":1,
    "swigs":1,
    "informal":1,
    "greeting":1,
    "mutes":1,
    "receiver":1,
    "stalling":1,
    "airplane":1,
    "midnight":1,
    "board":1,
    "attendant":1,
    "preflight":1,
    "print":1,
    "sources":1,
    "jarring":1,
    "ring":1,
    "kiddo":1,
    "mother":1,
    "island":1,
    "closed":1,
    "counter":1,
    "sighs":1,
    "followed":1,
    "embarrass":1,
    "painfully":1,
    "doorstep":1,
    "capital":1,
    "gaze":1,
    "finding":1,
    "talker":1,
    "arranged":1,
    "miserable":1,
    "guilty":1,
    "why\u2019s":1,
    "positions":1,
    "smirks":1,
    "bimbo":1,
    "sell":1,
    "pharmaceuticals":1,
    "saleswoman":1,
    "district":1,
    "phi":1,
    "betta":1,
    "kappa":1,
    "sigh":1,
    "wearily":1,
    "doorway":1,
    "underlining":1,
    "passages":1,
    "kitty\u2019s":1,
    "expecting":1,
    "spits":1,
    "headline":1,
    "\u201cmiami":1,
    "hart\u201d":1,
    "emerge":1,
    "moses\u2019s":1,
    "study":1,
    "antique":1,
    "unsettled":1,
    "sheaf":1,
    "jamb":1,
    "bags":1,
    "digitized":1,
    "equality":1,
    "confused":1,
    "\u2018are":1,
    "this\u2019":1,
    "don\u2018t":1,
    "blowing":1,
    "remarks":1,
    "cruise":1,
    "missed":1,
    "checked":1,
    "article":1,
    "amounts":1,
    "garbage":1,
    "developed":1,
    "revolution":1,
    "carriage":1,
    "primarily":1,
    "community":1,
    "period":1,
    "\u201972":1,
    "\u201882":1,
    "earn":1,
    "dignity":1,
    "whose":1,
    "fighting":1,
    "unpacking":1,
    "boxes":1,
    "brightest":1,
    "fiance":1,
    "sacrifice":1,
    "selfrespect":1,
    "dragged":1,
    "account":1,
    "campaigns":1,
    "pissing":1,
    "sleaze":1,
    "sanctity":1,
    "finished":1,
    "pauses":1,
    "reexamine":1,
    "17":1,
    "specter":1,
    "worry":1,
    "loss":1,
    "influence":1,
    "globally":1,
    "interrogating":1,
    "standard":1,
    "practice":1,
    "scandal":1,
    "damaging":1,
    "fundraising":1,
    "magna":1,
    "cum":1,
    "laude":1,
    "impressive":1,
    "qualified":1,
    "comparing":1,
    "southern":1,
    "widen":1,
    "congrats":1,
    "fucks":1,
    "mistress":1,
    "throwaway":1,
    "justify":1,
    "decide":1,
    "kid\u2019s":1,
    "covering":1,
    "asses":1,
    "eve":1,
    "died":1,
    "lyndon":1,
    "bunch":1,
    "\u2018boys":1,
    "suites":1,
    "courtesy":1,
    "jack\u2019":1,
    "goddamnit":1,
    "decides":1,
    "naked":1,
    "measuring":1,
    "limit":1,
    "curiosity":1,
    "econ":1,
    "tuesday":1,
    "ny":1,
    "association":1,
    "hearings":1,
    "since":1,
    "herald\u2019s":1,
    "expose":1,
    "grinds":1,
    "travis":1,
    "tritt":1,
    "surprisingly":1,
    "drown":1,
    "rumbling":1,
    "combined":1,
    "piercing":1,
    "whine":1,
    "screened":1,
    "hour":1,
    "scavengers":1,
    "constantly":1,
    "shuffles":1,
    "gotta":1,
    "weekly":1,
    "hilarious":1,
    "slams":1,
    "keys":1,
    "statement":1,
    "slick":1,
    "dunleavy":1,
    "spots":1,
    "oak":1,
    "answers":1,
    "sullenly":1,
    "\u201cwheels":1,
    "up\u201d":1,
    "dulles":1,
    "empty":1,
    "shitfaced":1,
    "bumming":1,
    "ride":1,
    "lecherous":1,
    "exboyfriends":1,
    "repo\u2019d":1,
    "movies":1,
    "indiana":1,
    "jones":1,
    "picturing":1,
    "clausen":1,
    "another\u2019s":1,
    "jail":1,
    "selling":1,
    "agreement":1,
    "beers":1,
    "myself":1,
    "feeling":1,
    "senat":1,
    "tasteful":1,
    "toothpaste":1,
    "jeans":1,
    "selective":1,
    "somewhere":1,
    "moses":1,
    "swears":1,
    "\u201984":1,
    "wigging":1,
    "grilling":1,
    "\u2018what":1,
    "boulder":1,
    "shop":1,
    "time\u2019":1,
    "\u2018gary":1,
    "now\u2019":1,
    "waves":1,
    "driver":1,
    "confounded":1,
    "\u2018that\u2019s":1,
    "politics\u2019":1,
    "notebook":1,
    "closing":1,
    "sleep":1,
    "slides":1,
    "scrambled":1,
    "eggs":1,
    "plate":1,
    "cup":1,
    "rotary":1,
    "harshly":1,
    "unlisted":1,
    "lovely":1,
    "strange":1,
    "observes":1,
    "camped":1,
    "outrage":1,
    "er":1,
    "father":1,
    "allowances":1,
    "disappointment":1,
    "daughter\u2019s":1,
    "humiliated":1,
    "simple":1,
    "privilege":1,
    "complex":1,
    "altar":1,
    "nazarene":1,
    "invented":1,
    "penance":1,
    "concourse":1,
    "passengers":1,
    "stream":1,
    "downstairs":1,
    "wherever":1,
    "lawyer":1,
    "descend":1,
    "baggage":1,
    "claim":1,
    "mob":1,
    "aggressive":1,
    "dealer":1,
    "erotic":1,
    "expect":1,
    "tears":1,
    "swelling":1,
    "frightened":1,
    "shattered":1,
    "shredding":1,
    "documents":1,
    "sips":1,
    "fawn":1,
    "testify":1,
    "oliver":1,
    "north":1,
    "fascination":1,
    "scurries":1,
    "leadin":1,
    "johnny\u2019s":1,
    "c":1,
    "scott":1,
    "gymnast":1,
    "kristie":1,
    "phillips":1,
    "bothering":1,
    "chessboard":1,
    "decades":1,
    "chinatown":1,
    "jake":1,
    "fucked":1,
    "spinning":1,
    "dinner":1,
    "sorenson\u2019s":1,
    "positive":1,
    "relax":1,
    "heeeer\u2019s":1,
    "familiar":1,
    "mute":1,
    "button":1,
    "wild":1,
    "supermarkets":1,
    "rushing":1,
    "usa":1,
    "coverage":1,
    "unfair":1,
    "hooting":1,
    "zap":1,
    "screen":1,
    "manhattan":1,
    "throughout":1,
    "stratton\u2019s":1,
    "rusting":1,
    "base":1,
    "deteriorating":1,
    "infrastructure":1,
    "declining":1,
    "astounding":1,
    "accumulation":1,
    "debt":1,
    "49th":1,
    "slowing":1,
    "wham":1,
    "sprawls":1,
    "windshield":1,
    "photog":1,
    "hood":1,
    "surround":1,
    "bang":1,
    "deeply":1,
    "pushes":1,
    "c\u2019mon":1,
    "guide":1,
    "throng":1,
    "shoving":1,
    "attack":1,
    "emcee":1,
    "dry":1,
    "introduction":1,
    "cracks":1,
    "shades":1,
    "peers":1,
    "lens":1,
    "elbowtoelbow":1,
    "scribble":1,
    "risers":1,
    "clocks":1,
    "jotting":1,
    "balls":1,
    "stevie":1,
    "arizona":1,
    "recognize":1,
    "luther":1,
    "king":1,
    "suitntied":1,
    "america\u2019s":1,
    "ought":1,
    "permission":1,
    "days":1,
    "yourselves":1,
    "riveted":1,
    "leaning":1,
    "lenses":1,
    "zooming":1,
    "published":1,
    "misleading":1,
    "reflected":1,
    "badly":1,
    "upon":1,
    "soaking":1,
    "admission":1,
    "undertook":1,
    "spotty":1,
    "loudly":1,
    "lifeboats":1,
    "yell":1,
    "unmoving":1,
    "chat":1,
    "cabled":1,
    "considerable":1,
    "amount":1,
    "unmarried":1,
    "speculated":1,
    "briefly":1,
    "interviewed":1,
    "accosted":1,
    "due":1,
    "ambushed":1,
    "halfbaked":1,
    "during":1,
    "failed":1,
    "realize":1,
    "zero":1,
    "ours":1,
    "welcome":1,
    "exasperation":1,
    "furiously":1,
    "minds":1,
    "exciting":1,
    "also":1,
    "distracts":1,
    "snapping":1,
    "live":1,
    "die":1,
    "\u201cdie\u201d":1,
    "conceded":1,
    "footage":1,
    "interviewing":1,
    "therefore":1,
    "conceding":1,
    "fbi":1,
    "conducting":1,
    "agreeing":1,
    "basis":1,
    "ongoing":1,
    "single":1,
    "suggests":1,
    "tryst":1,
    "certainly":1,
    "dealings":1,
    "romantic":1,
    "nonpolitical":1,
    "impressed":1,
    "similar":1,
    "situations":1,
    "alternative":1,
    "competitive":1,
    "nobody":1,
    "breathing":1,
    "neck":1,
    "waited":1,
    "fours":1,
    "fades":1,
    "bg":1,
    "grin":1,
    "focused":1,
    "revealed":1,
    "experiencing":1,
    "collective":1,
    "kidney":1,
    "stone":1,
    "pi":1,
    "schtupping":1,
    "embracing":1,
    "anonymous":1,
    "gum":1,
    "sent":1,
    "cia":1,
    "date":1,
    "shoe":1,
    "yup":1,
    "unmarked":1,
    "lands":1,
    "obligate":1,
    "pattern":1,
    "womanizing":1,
    "naive":1,
    "landed":1,
    "enterprising":1,
    "decline":1,
    "publish":1,
    "pissant":1,
    "poughkeepsie":1,
    "journal":1,
    "apeshit":1,
    "break":1,
    "pass":1,
    "judgement":1,
    "skeptical":1,
    "trusts":1,
    "frankly":1,
    "uses":1,
    "precious":1,
    "handsome":1,
    "themselves":1,
    "screwing":1,
    "cocktail":1,
    "handle":1,
    "liking":1,
    "potential":1,
    "sensitive":1,
    "pressure":1,
    "excitement":1,
    "turning":1,
    "applies":1,
    "overeducated":1,
    "buck":1,
    "sucks":1,
    "sleeveless":1,
    "pants":1,
    "pushups":1,
    "sweat":1,
    "beads":1,
    "huffs":1,
    "how\u2019re":1,
    "sipping":1,
    "pacing":1,
    "cite":1,
    "gallup":1,
    "field":1,
    "qualifications":1,
    "52":1,
    "lots":1,
    "mention":1,
    "chills":1,
    "nuts":1,
    "noble":1,
    "perfect":1,
    "revealing":1,
    "closes":1,
    "unsure":1,
    "woken":1,
    "mornings":1,
    "gates":1,
    "trucks":1,
    "satellites":1,
    "trash":1,
    "littered":1,
    "disappointed":1,
    "shame":1,
    "threw":1,
    "blanket":1,
    "criminal":1,
    "mess":1,
    "apologize":1,
    "rope":1,
    "tripped":1,
    "flirting":1,
    "invited":1,
    "accept":1,
    "apology":1,
    "burden":1,
    "carry":1,
    "there\u2019ll":1,
    "hunched":1,
    "wraps":1,
    "torso":1,
    "hugging":1,
    "rests":1,
    "layout":1,
    "scout":1,
    "diamond":1,
    "anniversary":1,
    "liked":1,
    "scouts":1,
    "draw":1,
    "sand":1,
    "agree":1,
    "honesty":1,
    "fall":1,
    "reach":1,
    "refrain":1,
    "door\u2019s":1,
    "presented":1,
    "leads":1,
    "train":1,
    "assembled":1,
    "staircase":1,
    "dining":1,
    "envy":1,
    "stumbled":1,
    "pulitzer":1,
    "smarter":1,
    "outsmart":1,
    "wynman":1,
    "unavailable":1,
    "evidence":1,
    "slept":1,
    "preparing":1,
    "battle":1,
    "firing":1,
    "banquet":1,
    "platform":1,
    "bite":1,
    "episode":1,
    "leader":1,
    "mistakes":1,
    "measured":1,
    "career":1,
    "undertaken":1,
    "plans":1,
    "outlined":1,
    "servant":1,
    "quoted":1,
    "danger":1,
    "corps":1,
    "releasing":1,
    "exchanging":1,
    "relieved":1,
    "willing":1,
    "chuckling":1,
    "60":1,
    "specific":1,
    "steadies":1,
    "glad":1,
    "yesterday":1,
    "morality":1,
    "\u2018immoral\u2019":1,
    "sexual":1,
    "immoral":1,
    "grows":1,
    "committed":1,
    "mouth":1,
    "emerges":1,
    "flinch":1,
    "lifting":1,
    "recognise":1,
    "scenes":1,
    "entourage":1,
    "shellshocked":1,
    "event":1,
    "rummaging":1,
    "distractedly":1,
    "produces":1,
    "figurine":1,
    "clears":1,
    "plates":1,
    "kevin\u2019s":1,
    "dessert":1,
    "anyone\u2019s":1,
    "steal":1,
    "deli":1,
    "berkley":1,
    "cheated":1,
    "girlfriend":1,
    "rollout":1,
    "dimes":1,
    "chatter":1,
    "becomes":1,
    "silverware":1,
    "fresh":1,
    "coffees":1,
    "booked":1,
    "shoot":1,
    "directly":1,
    "entrance":1,
    "posture":1,
    "falling":1,
    "tightens":1,
    "registering":1,
    "guilt":1,
    "betray":1,
    "congratulations":1,
    "became":1,
    "enquirer":1,
    "cents":1,
    "register":1,
    "cutting":1,
    "faintly":1,
    "cracking":1,
    "outrageous":1,
    "hound":1,
    "joining":1,
    "clocked":1,
    "wagoneer":1,
    "weaving":1,
    "pours":1,
    "ice":1,
    "adlibbed":1,
    "bewilderment":1,
    "general":1,
    "resigned":1,
    "commission":1,
    "army":1,
    "command":1,
    "forces":1,
    "informed":1,
    "bury":1,
    "soldiers":1,
    "arlington":1,
    "cemetery":1,
    "infinite":1,
    "leading":1,
    "mountains":1,
    "quizzically":1,
    "cash":1,
    "corridor":1,
    "rapid":1,
    "clicking":1,
    "shutters":1,
    "somethings":1,
    "interesting":1,
    "necessarily":1,
    "effect":1,
    "51":1,
    "carries":1,
    "stare":1,
    "difficult":1,
    "farewell":1,
    "scans":1,
    "present":1,
    "circumstances":1,
    "refuse":1,
    "submit":1,
    "intolerable":1,
    "situation":1,
    "brief":1,
    "selecting":1,
    "peeking":1,
    "reduces":1,
    "presidential":1,
    "hunted":1,
    "gathers":1,
    "cry":1,
    "ponderous":1,
    "pundits":1,
    "mock":1,
    "seriousness":1,
    "choose":1,
    "verge":1,
    "becoming":1,
    "form":1,
    "athletic":1,
    "sport":1,
    "rephrasing":1,
    "jefferson":1,
    "tremble":1,
    "chief":2,
    "sun":2,
    "concede":2,
    "former":2,
    "vice":2,
    "walter":2,
    "producer":2,
    "hovering":2,
    "engineer":2,
    "pops":2,
    "check":2,
    "dish":2,
    "rises":2,
    "democratic":2,
    "taken":2,
    "applause":2,
    "tries":2,
    "minute":2,
    "stage":2,
    "signal":2,
    "thoughts":2,
    "primary":2,
    "curious":2,
    "losing":2,
    "tip":2,
    "cart":2,
    "boom":2,
    "third":2,
    "examines":2,
    "tosses":2,
    "st":2,
    "francis":2,
    "enter":2,
    "cute":2,
    "ain\u2019t":2,
    "sleeping":2,
    "ocean":2,
    "darling":2,
    "grabbing":2,
    "wet":2,
    "low":2,
    "key":2,
    "talks":2,
    "drinks":2,
    "bodies":2,
    "vodka":2,
    "finishing":2,
    "appreciate":2,
    "sweetheart":2,
    "son":2,
    "john":2,
    "stay":2,
    "checks":2,
    "doug":2,
    "issue":2,
    "path":2,
    "rush":2,
    "air":2,
    "active":2,
    "scrum":2,
    "agent":2,
    "knees":2,
    "trader":2,
    "tie":2,
    "image":2,
    "shoulders":2,
    "generation":2,
    "found":2,
    "cheap":2,
    "apartment":2,
    "boyfriend":2,
    "crack":2,
    "humor":2,
    "anymore":2,
    "joke":2,
    "how\u2019s":2,
    "probably":2,
    "bakker":2,
    "expected":2,
    "edge":2,
    "leaves":2,
    "swing":2,
    "allowed":2,
    "library":2,
    "set":2,
    "interested":2,
    "announce":2,
    "older":2,
    "happen":2,
    "setting":2,
    "tvs":2,
    "hugs":2,
    "tech":2,
    "box":2,
    "stripped":2,
    "volunteers":2,
    "gathered":2,
    "decent":2,
    "kiss":2,
    "bye":2,
    "stake":2,
    "drop":2,
    "atari":2,
    "tree":2,
    "distracted":2,
    "use":2,
    "knocking":2,
    "doors":2,
    "eating":2,
    "meeting":2,
    "assume":2,
    "missing":2,
    "38":2,
    "dukakis":2,
    "governor":2,
    "massachusetts":2,
    "add":2,
    "watches":2,
    "discussing":2,
    "seeing":2,
    "soviet":2,
    "credit":2,
    "folding":2,
    "thousand":2,
    "sea":2,
    "entrenched":2,
    "technically":2,
    "announcing":2,
    "colored":2,
    "rent":2,
    "motions":2,
    "oxygen":2,
    "moved":2,
    "package":2,
    "focus":2,
    "filling":2,
    "presidency":2,
    "iowa":2,
    "billy\u2019s":2,
    "lobbyist":2,
    "process":2,
    "seems":2,
    "april":2,
    "kick":2,
    "irrelevant":2,
    "everyone\u2019s":2,
    "met":2,
    "pose":2,
    "publishers":2,
    "wrote":2,
    "pamphlet":2,
    "pages":2,
    "candidate\u2019s":2,
    "couch":2,
    "blonde":2,
    "thrilled":2,
    "cover":2,
    "ton":2,
    "arrangement":2,
    "states":2,
    "discussion":2,
    "forum":2,
    "competition":2,
    "perhaps":2,
    "magazine":2,
    "loves":2,
    "wanders":2,
    "popular":2,
    "applications":2,
    "trees":2,
    "hiking":2,
    "andrea\u2019s":2,
    "reframe":2,
    "reserve":2,
    "main":2,
    "roads":2,
    "uncomfortable":2,
    "rooms":2,
    "pair":2,
    "scissors":2,
    "ribbon":2,
    "appears":2,
    "cuts":2,
    "cubicle":2,
    "dozens":2,
    "tables":2,
    "hi":2,
    "brainy":2,
    "glasses":2,
    "absentmindedly":2,
    "brutal":2,
    "bit":2,
    "shadows":2,
    "climb":2,
    "environment":2,
    "foreign":2,
    "e":2,
    "band":2,
    "sets":2,
    "arrive":2,
    "wear":2,
    "blue":2,
    "railroad":2,
    "wind":2,
    "spot":2,
    "aides":2,
    "fixes":2,
    "tension":2,
    "trade":2,
    "yacht":2,
    "named":2,
    "aboard":2,
    "20s":2,
    "dana":2,
    "shouting":2,
    "whispers":2,
    "intend":2,
    "park":2,
    "cameraman":2,
    "rows":2,
    "highest":2,
    "land":2,
    "heated":2,
    "idiot":2,
    "kill":2,
    "throwing":2,
    "contest":2,
    "timbersport":2,
    "weight":2,
    "children":2,
    "roosevelt":2,
    "killed":2,
    "teddy":2,
    "bears":2,
    "correct":2,
    "true":2,
    "plush":2,
    "he\u2019d":2,
    "rolling":2,
    "traditional":2,
    "staring":2,
    "fond":2,
    "memories":2,
    "curtain":2,
    "disappears":2,
    "cheer":2,
    "notice":2,
    "chuckle":2,
    "arrives":2,
    "hops":2,
    "presser":2,
    "five":2,
    "flipping":2,
    "gorbachev":2,
    "meet":2,
    "action":2,
    "bumps":2,
    "shuts":2,
    "economic":2,
    "change":2,
    "tolstoy":2,
    "major":2,
    "try":2,
    "speak":2,
    "comfort":2,
    "pack":2,
    "houses":2,
    "asks":2,
    "van":2,
    "seem":2,
    "alabama":2,
    "topeka":2,
    "exits":2,
    "shanahan":2,
    "30minute":2,
    "designer":2,
    "wardrobe":2,
    "prefer":2,
    "boss":2,
    "bad":2,
    "newsmen":2,
    "nail":2,
    "common":2,
    "stares":2,
    "shrugs":2,
    "lifts":2,
    "taxes":2,
    "sheepish":2,
    "hunters":2,
    "safe":2,
    "scene":2,
    "visibly":2,
    "nervous":2,
    "track":2,
    "mine":2,
    "mexicans":2,
    "families":2,
    "mexico":2,
    "security":2,
    "chaotic":2,
    "book":2,
    "worried":2,
    "dollars":2,
    "bombing":2,
    "rubble":2,
    "nuke":2,
    "war":2,
    "become":2,
    "wayfarer":2,
    "events":2,
    "heads":2,
    "cuomo":2,
    "round":2,
    "cigarette":2,
    "buddy":2,
    "runs":2,
    "nights":2,
    "stock":2,
    "surf":2,
    "scuttle":2,
    "assistant":2,
    "radio":2,
    "crinkly":2,
    "kentucky":2,
    "faceless":2,
    "announcer":2,
    "rather":2,
    "hide":2,
    "voice":2,
    "logo":2,
    "hollywood":2,
    "nicholson":2,
    "johnson":2,
    "california":2,
    "ed":2,
    "until":2,
    "grab":2,
    "teletype":2,
    "schedule":2,
    "clerk":2,
    "wheels":2,
    "past":2,
    "clicks":2,
    "lined":2,
    "burger":2,
    "flip":2,
    "almost":2,
    "series":2,
    "matters":2,
    "tail":2,
    "hot":2,
    "row":2,
    "hang":2,
    "loaded":2,
    "film":2,
    "staked":2,
    "carrying":2,
    "captain":2,
    "folks":2,
    "freezes":2,
    "writer":2,
    "closer":2,
    "thinks":2,
    "jogging":2,
    "jogs":2,
    "intext":2,
    "blinds":2,
    "hoodie":2,
    "figure":2,
    "blinding":2,
    "forward":2,
    "known":2,
    "produce":2,
    "integrity":2,
    "aware":2,
    "putting":2,
    "amidst":2,
    "dial":2,
    "pm":2,
    "10":2,
    "everywhere":2,
    "frantically":2,
    "copy":2,
    "tank":2,
    "linked":2,
    "professional":2,
    "lose":2,
    "parking":2,
    "dropped":2,
    "advertising":2,
    "easy":2,
    "questioned":2,
    "packed":2,
    "wheel":2,
    "whiskey":2,
    "fuckers":2,
    "journalist":2,
    "belong":2,
    "facts":2,
    "wanted":2,
    "graduated":2,
    "comment":2,
    "complicated":2,
    "knock":2,
    "spoken":2,
    "blow":2,
    "completely":2,
    "alleyways":2,
    "industrial":2,
    "horse":2,
    "nobody\u2019s":2,
    "crap":2,
    "deserve":2,
    "sacrificing":2,
    "language":2,
    "donna\u2019s":2,
    "laughs":2,
    "tabloid":2,
    "matter":2,
    "girls":2,
    "gave":2,
    "irancontra":2,
    "wires":2,
    "hears":2,
    "invasion":2,
    "maureen":2,
    "current":2,
    "stack":2,
    "waiter":2,
    "mad":2,
    "hook":2,
    "anger":2,
    "escalator":2,
    "continue":2,
    "quickly":2,
    "area":2,
    "gathering":2,
    "shouts":2,
    "johnny":2,
    "carson":2,
    "monologue":2,
    "control":2,
    "undershirt":2,
    "bring":2,
    "newspapers":2,
    "poll":2,
    "frozen":2,
    "body":2,
    "rattled":2,
    "buzzes":2,
    "anticipation":2,
    "despite":2,
    "crew":2,
    "martin":2,
    "character":2,
    "gesture":2,
    "fire":2,
    "microphone":2,
    "essential":2,
    "correctness":2,
    "several":2,
    "reporting":2,
    "throws":2,
    "discuss":2,
    "spend":2,
    "report":2,
    "iii":2,
    "suggesting":2,
    "drops":2,
    "padded":2,
    "emotional":2,
    "broad":2,
    "laps":2,
    "behavior":2,
    "silence":2,
    "couldn\u2019t":2,
    "polls":2,
    "media":2,
    "its":2,
    "helicopters":2,
    "driveway":2,
    "bows":2,
    "foolish":2,
    "fifty":2,
    "save":2,
    "truth":2,
    "lied":2,
    "parker\u2019s":2,
    "hanover":2,
    "though":2,
    "leans":2,
    "detector":2,
    "test":2,
    "adultery":2,
    "littleton":2,
    "whisper":2,
    "shaking":2,
    "tear":2,
    "confederate":2,
    "lincoln":2,
    "backyard":2,
    "won":3,
    "clear":3,
    "slowly":3,
    "pan":3,
    "west":3,
    "roll":3,
    "ad":3,
    "beef":3,
    "listen":3,
    "months":3,
    "facing":3,
    "shut":3,
    "invest":3,
    "damn":3,
    "tried":3,
    "starting":3,
    "staffer":3,
    "reads":3,
    "vip":3,
    "bathroom":3,
    "attractive":3,
    "female":3,
    "mixed":3,
    "crowd":3,
    "college":3,
    "contact":3,
    "daughter":3,
    "shows":3,
    "approach":3,
    "alone":3,
    "homeless":3,
    "pushing":3,
    "gun":3,
    "shooter":3,
    "laughing":3,
    "barely":3,
    "wyman":3,
    "younger":3,
    "mcdaniel":3,
    "free":3,
    "favor":3,
    "black":3,
    "bedroom":3,
    "early":3,
    "reagan":3,
    "audience":3,
    "wings":3,
    "announced":3,
    "sort":3,
    "ceiling":3,
    "bag":3,
    "george":3,
    "happened":3,
    "senate":3,
    "fax":3,
    "busy":3,
    "tired":3,
    "hours":3,
    "miss":3,
    "carefully":3,
    "kaiser":3,
    "points":3,
    "worth":3,
    "union":3,
    "soviets":3,
    "kicking":3,
    "announcement":3,
    "mountain":3,
    "top":3,
    "history":3,
    "lights":3,
    "ginny":3,
    "terzano":3,
    "luck":3,
    "please":3,
    "glance":3,
    "leaders":3,
    "owe":3,
    "fair":3,
    "b":3,
    "bullshit":3,
    "telling":3,
    "hope":3,
    "human":3,
    "weren\u2019t":3,
    "trail":3,
    "stories":3,
    "writing":3,
    "married":3,
    "half":3,
    "picture":3,
    "whatever":3,
    "regular":3,
    "person":3,
    "words":3,
    "tomorrow":3,
    "smiling":3,
    "mind":3,
    "husband":3,
    "books":3,
    "surrounded":3,
    "dad":3,
    "economics":3,
    "finally":3,
    "mail":3,
    "uhhuh":3,
    "further":3,
    "mrs":3,
    "education":3,
    "important":3,
    "play":3,
    "giant":3,
    "driving":3,
    "giving":3,
    "dozen":3,
    "real":3,
    "nice":3,
    "monkey":3,
    "weems":3,
    "florida":3,
    "ear":3,
    "herself":3,
    "distance":3,
    "power":3,
    "shoulder":3,
    "specifically":3,
    "worse":3,
    "anyway":3,
    "once":3,
    "flying":3,
    "seats":3,
    "aisle":3,
    "meanwhile":3,
    "chin":3,
    "working":3,
    "cannot":3,
    "feels":3,
    "notepad":3,
    "groundwork":3,
    "nature":3,
    "teach":3,
    "toward":3,
    "christ":3,
    "used":3,
    "porch":3,
    "upset":3,
    "farm":3,
    "carter":3,
    "numbers":3,
    "puts":3,
    "send":3,
    "clothes":3,
    "death":3,
    "journalism":3,
    "dead":3,
    "nod":3,
    "woodsman":3,
    "walk":3,
    "guard":3,
    "chuckles":3,
    "3":3,
    "kid":3,
    "nation":3,
    "navy":3,
    "suppose":3,
    "twenty":3,
    "return":3,
    "pause":3,
    "nh":3,
    "stop":3,
    "jackson":3,
    "secretary":3,
    "honey":3,
    "moments":3,
    "pool":3,
    "wall":3,
    "exchange":3,
    "investigative":3,
    "drug":3,
    "boats":3,
    "world":3,
    "twice":3,
    "speaks":3,
    "monday":3,
    "affair":3,
    "intercut":3,
    "sheet":3,
    "derby":3,
    "lady":3,
    "pictures":3,
    "friends":3,
    "saturday":3,
    "fiedler\u2019s":3,
    "others":3,
    "act":3,
    "rumors":3,
    "bored":3,
    "international":3,
    "sidewalk":3,
    "cab":3,
    "paparazzi":3,
    "20":3,
    "certain":3,
    "passenger":3,
    "angle":3,
    "alley":3,
    "staying":3,
    "shot":3,
    "flashes":3,
    "build":3,
    "calls":3,
    "idea":3,
    "ashamed":3,
    "readers":3,
    "sunday":3,
    "needed":3,
    "bb":3,
    "glass":3,
    "wrong":3,
    "deep":3,
    "flight":3,
    "prelap":3,
    "something\u2019s":3,
    "worked":3,
    "doubt":3,
    "feelings":3,
    "piece":3,
    "boat":3,
    "none":3,
    "tea":3,
    "ma\u2019am":3,
    "lies":3,
    "answering":3,
    "private":3,
    "vans":3,
    "letting":3,
    "went":3,
    "raised":3,
    "remote":3,
    "legal":3,
    "pad":3,
    "system":3,
    "waldorf":3,
    "astoria":3,
    "brokaw":3,
    "simply":3,
    "suggested":3,
    "tydings":3,
    "64":3,
    "push":3,
    "restaurant":3,
    "noise":3,
    "lee\u2019s":3,
    "tower":3,
    "david":4,
    "political":4,
    "executive":4,
    "model":4,
    "personal":4,
    "lynn":4,
    "hall":4,
    "mondale":4,
    "full":4,
    "above":4,
    "fight":4,
    "where\u2019s":4,
    "pulling":4,
    "share":4,
    "hampshire":4,
    "one\u2019s":4,
    "floor":4,
    "white":4,
    "below":4,
    "\u201888":4,
    "dc":4,
    "anywhere":4,
    "secret":4,
    "agents":4,
    "able":4,
    "shoots":4,
    "middle":4,
    "alan":4,
    "woodward":4,
    "rest":4,
    "family":4,
    "dark":4,
    "debate":4,
    "dole":4,
    "pop":4,
    "gonna":4,
    "candidates":4,
    "best":4,
    "bush":4,
    "knows":4,
    "goodbye":4,
    "using":4,
    "mostly":4,
    "pick":4,
    "hurt":4,
    "opportunity":4,
    "editors":4,
    "earlier":4,
    "better":4,
    "grand":4,
    "week":4,
    "attention":4,
    "haven\u2019t":4,
    "together":4,
    "position":4,
    "laugh":4,
    "finds":4,
    "understand":4,
    "thirty":4,
    "reform":4,
    "sounds":4,
    "gossip":4,
    "photographers":4,
    "reading":4,
    "problem":4,
    "conversation":4,
    "hasn\u2019t":4,
    "aren\u2019t":4,
    "headquarters":4,
    "moves":4,
    "somehow":4,
    "economy":4,
    "colorado":4,
    "spent":4,
    "ahead":4,
    "machine":4,
    "group":4,
    "national":4,
    "very":4,
    "rolls":4,
    "among":4,
    "goddamn":4,
    "bus":4,
    "reaches":4,
    "written":4,
    "forget":4,
    "catches":4,
    "seriously":4,
    "whole":4,
    "it\u2019ll":4,
    "terminal":4,
    "ottawa":4,
    "quietly":4,
    "course":4,
    "turn":4,
    "ran":4,
    "funny":4,
    "thanks":4,
    "caught":4,
    "sees":4,
    "note":4,
    "means":4,
    "address":4,
    "1":4,
    "jesse":4,
    "sir":4,
    "against":4,
    "mickey":4,
    "page":4,
    "late":4,
    "tight":4,
    "picks":4,
    "um":4,
    "friday":4,
    "shakes":4,
    "beatty":4,
    "gate":4,
    "inside":4,
    "catch":4,
    "\u201cfollow":4,
    "responsibility":4,
    "whether":4,
    "happening":4,
    "alleyway":4,
    "guest":4,
    "watergate":4,
    "knew":4,
    "around\u201d":4,
    "800":4,
    "dixon\u2019s":4,
    "shouldn\u2019t":4,
    "background":4,
    "leafing":4,
    "hearing":4,
    "smart":4,
    "context":4,
    "fact":4,
    "plays":4,
    "mom":4,
    "bushes":4,
    "lying":4,
    "dais":4,
    "balcony":4,
    "surveillance":4,
    "judgment":4,
    "respect":4,
    "dartmouth":4,
    "armandt":5,
    "state":5,
    "end":5,
    "party":5,
    "tonight":5,
    "voters":5,
    "hard":5,
    "took":5,
    "far":5,
    "suite":5,
    "imagine":5,
    "place":5,
    "politics":5,
    "eye":5,
    "bill":5,
    "fly":5,
    "service":5,
    "towards":5,
    "steps":5,
    "drinking":5,
    "jobs":5,
    "either":5,
    "ann":5,
    "beer":5,
    "six":5,
    "everything":5,
    "always":5,
    "beginning":5,
    "approaches":5,
    "conference":5,
    "holding":5,
    "hell":5,
    "near":5,
    "continues":5,
    "along":5,
    "rings":5,
    "twelve":5,
    "straight":5,
    "bradlee\u2019s":5,
    "chairs":5,
    "ballroom":5,
    "dix":5,
    "who\u2019s":5,
    "lot":5,
    "parents":5,
    "wants":5,
    "stupid":5,
    "york":5,
    "speaking":5,
    "marriage":5,
    "pretty":5,
    "we\u2019d":5,
    "wouldn\u2019t":5,
    "they\u2019ll":5,
    "living":5,
    "staff":5,
    "smurf":5,
    "cameras":5,
    "policy":5,
    "moving":5,
    "deal":5,
    "business":5,
    "somebody":5,
    "enters":5,
    "cabin":5,
    "write":5,
    "asked":5,
    "response":5,
    "ready":5,
    "gone":5,
    "town":5,
    "lie":5,
    "done":5,
    "different":5,
    "they\u2019ve":5,
    "ringing":5,
    "starts":5,
    "quick":5,
    "arms":5,
    "pocket":5,
    "quiet":5,
    "start":5,
    "4":5,
    "hate":5,
    "himself":5,
    "hundred":5,
    "under":5,
    "serious":5,
    "candidate":5,
    "must":5,
    "warren":5,
    "following":5,
    "wasn\u2019t":5,
    "begin":5,
    "windows":5,
    "onto":5,
    "rental":5,
    "thought":5,
    "evening":5,
    "quality":5,
    "broadhurst\u2019s":5,
    "quote":5,
    "privacy":5,
    "same":5,
    "phones":5,
    "shouter":5,
    "ted":5,
    "thinking":5,
    "women":5,
    "germond":6,
    "friend":6,
    "soon":6,
    "pull":6,
    "reveal":6,
    "ideas":6,
    "you\u2019d":6,
    "street":6,
    "drink":6,
    "sofa":6,
    "holds":6,
    "arm":6,
    "remember":6,
    "help":6,
    "photo":6,
    "newsroom":6,
    "made":6,
    "sense":6,
    "you\u2019ll":6,
    "crying":6,
    "gary\u2019s":6,
    "school":6,
    "buy":6,
    "everyone":6,
    "clearly":6,
    "mr":6,
    "running":6,
    "guess":6,
    "both":6,
    "bradlee":6,
    "notices":6,
    "men":6,
    "red":6,
    "plane":6,
    "5":6,
    "newspaper":6,
    "uh":6,
    "harts":6,
    "walking":6,
    "coming":6,
    "wait":6,
    "joe":6,
    "huh":6,
    "opening":6,
    "came":6,
    "exactly":6,
    "breath":6,
    "orange":6,
    "taking":6,
    "hey":6,
    "love":6,
    "journalists":6,
    "hangs":6,
    "entire":6,
    "word":6,
    "coke":6,
    "begins":6,
    "military":6,
    "yet":6,
    "having":6,
    "relevant":6,
    "standing":6,
    "wonder":6,
    "hiding":6,
    "envelope":6,
    "percent":6,
    "martindale":7,
    "editor":7,
    "jack":7,
    "broadhurst":7,
    "ago":7,
    "leaving":7,
    "hair":7,
    "steve":7,
    "lost":7,
    "point":7,
    "small":7,
    "plan":7,
    "nearby":7,
    "hit":7,
    "fine":7,
    "suddenly":7,
    "today":7,
    "bob":7,
    "stops":7,
    "water":7,
    "road":7,
    "bed":7,
    "stands":7,
    "between":7,
    "times":7,
    "television":7,
    "asking":7,
    "loud":7,
    "most":7,
    "than":7,
    "ben":7,
    "part":7,
    "looking":7,
    "amongst":7,
    "year":7,
    "am":7,
    "each":7,
    "second":7,
    "troublesome":7,
    "gulch":7,
    "yourself":7,
    "trippi":7,
    "e\u2019s":7,
    "high":7,
    "couple":7,
    "keeps":7,
    "life":7,
    "across":7,
    "suit":7,
    "those":7,
    "sorry":7,
    "kidding":7,
    "girl":7,
    "number":7,
    "koppel":7,
    "minutes":8,
    "question":8,
    "heard":8,
    "again":8,
    "window":8,
    "bar":8,
    "watch":8,
    "kids":8,
    "corner":8,
    "side":8,
    "gets":8,
    "weinberg":8,
    "big":8,
    "comes":8,
    "seen":8,
    "else":8,
    "georgetown":8,
    "smile":8,
    "grabs":8,
    "win":8,
    "future":8,
    "rocks":8,
    "feet":8,
    "pay":8,
    "aj":8,
    "without":8,
    "put":8,
    "read":8,
    "show":8,
    "saying":8,
    "hello":8,
    "music":8,
    "podium":8,
    "sit":8,
    "making":8,
    "job":8,
    "opens":8,
    "airport":8,
    "work":8,
    "2":8,
    "let":8,
    "paper":8,
    "roy":8,
    "own":8,
    "supposed":9,
    "while":9,
    "sitting":9,
    "staffers":9,
    "nothing":9,
    "makes":9,
    "pulls":9,
    "name":9,
    "sound":9,
    "light":9,
    "desk":9,
    "photos":9,
    "devroy":9,
    "weekend":9,
    "close":9,
    "anything":9,
    "only":9,
    "called":9,
    "ever":9,
    "says":9,
    "left":9,
    "kitchen":9,
    "afternoon":9,
    "care":9,
    "too":9,
    "beat":9,
    "waiting":9,
    "stand":9,
    "photographer":9,
    "outside":9,
    "seat":9,
    "face":9,
    "answer":9,
    "may":9,
    "public":9,
    "rice":10,
    "every":10,
    "shit":10,
    "reporter":10,
    "many":10,
    "someone":10,
    "even":10,
    "young":10,
    "wife":10,
    "thing":10,
    "trust":10,
    "four":10,
    "guys":10,
    "first":10,
    "you\u2019ve":10,
    "let\u2019s":10,
    "smiles":10,
    "walks":10,
    "isn\u2019t":10,
    "never":10,
    "things":10,
    "notes":10,
    "camera":10,
    "believe":10,
    "said":10,
    "interview":10,
    "relationship":10,
    "few":11,
    "line":11,
    "south":11,
    "hold":11,
    "god":11,
    "emerson":11,
    "continuous":11,
    "open":11,
    "denver":11,
    "speech":11,
    "press":11,
    "give":11,
    "enough":11,
    "years":11,
    "three":11,
    "because":11,
    "irene":11,
    "jesus":11,
    "coffee":11,
    "run":11,
    "i\u2019d":11,
    "gives":11,
    "tom":11,
    "cut":12,
    "we\u2019ll":12,
    "andrea":12,
    "old":12,
    "does":12,
    "office":12,
    "okay":12,
    "goes":12,
    "actually":12,
    "saw":12,
    "might":12,
    "later":12,
    "had":12,
    "townhouse":12,
    "flash":12,
    "hotel":13,
    "getting":13,
    "head":13,
    "laughter":13,
    "tell":13,
    "guy":13,
    "after":13,
    "oh":13,
    "nods":13,
    "sits":13,
    "man":13,
    "being":13,
    "house":13,
    "already":13,
    "any":13,
    "talking":13,
    "thank":13,
    "much":13,
    "hand":13,
    "which":13,
    "eyes":13,
    "turns":13,
    "leave":13,
    "inn":13,
    "capitol":13,
    "broder":14,
    "ok":14,
    "anyone":14,
    "we\u2019ve":14,
    "follow":14,
    "morning":14,
    "keep":14,
    "trying":14,
    "two":14,
    "hands":14,
    "tv":14,
    "behind":14,
    "little":14,
    "kind":14,
    "long":14,
    "told":14,
    "she\u2019s":14,
    "kansas":14,
    "way":14,
    "news":14,
    "herald":14,
    "hill":14,
    "another":15,
    "hear":15,
    "move":15,
    "i\u2019ll":15,
    "feel":15,
    "washington":15,
    "country":15,
    "i\u2019ve":15,
    "questions":15,
    "before":15,
    "these":16,
    "would":16,
    "didn\u2019t":16,
    "takes":16,
    "won\u2019t":16,
    "away":17,
    "fuck":17,
    "really":17,
    "doing":17,
    "could":17,
    "sure":17,
    "murphy":17,
    "billy":18,
    "yes":18,
    "president":18,
    "watching":18,
    "last":18,
    "ask":18,
    "stratton":18,
    "come":18,
    "moment":18,
    "other":18,
    "table":18,
    "post":18,
    "there\u2019s":18,
    "car":18,
    "new":19,
    "call":19,
    "team":19,
    "ext":19,
    "hunter":19,
    "next":20,
    "take":21,
    "talk":21,
    "well":21,
    "still":21,
    "door":21,
    "fucking":21,
    "front":21,
    "maybe":22,
    "what\u2019s":22,
    "wilson":22,
    "woman":22,
    "night":22,
    "doesn\u2019t":22,
    "go":23,
    "make":23,
    "yeah":23,
    "home":23,
    "kelly":23,
    "hart\u2019s":24,
    "story":24,
    "were":24,
    "phone":24,
    "reporters":24,
    "miami":24,
    "by":25,
    "more":25,
    "their":25,
    "has":26,
    "something":26,
    "sweeney":26,
    "can\u2019t":27,
    "through":27,
    "good":27,
    "say":27,
    "donna":28,
    "who":28,
    "been":28,
    "us":28,
    "should":29,
    "around":29,
    "they\u2019re":29,
    "day":29,
    "where":30,
    "off":30,
    "then":30,
    "down":30,
    "did":30,
    "why":30,
    "them":31,
    "or":31,
    "will":32,
    "into":32,
    "now":32,
    "mean":32,
    "there":33,
    "time":33,
    "dixon":33,
    "parker":33,
    "find":34,
    "fiedler":34,
    "senator":35,
    "room":35,
    "here":36,
    "over":37,
    "looks":37,
    "our":37,
    "look":37,
    "got":38,
    "you\u2019re":39,
    "we\u2019re":40,
    "so":40,
    "when":41,
    "need":42,
    "how":43,
    "right":43,
    "people":44,
    "campaign":44,
    "shore":44,
    "that\u2019s":44,
    "get":45,
    "want":46,
    "lee":47,
    "she":47,
    "some":47,
    "gary":48,
    "was":49,
    "her":50,
    "if":50,
    "i\u2019m":51,
    "all":51,
    "but":53,
    "no":53,
    "he\u2019s":53,
    "going":54,
    "like":56,
    "see":56,
    "back":57,
    "can":57,
    "one":59,
    "your":60,
    "my":62,
    "int":63,
    "an":64,
    "him":68,
    "do":69,
    "out":71,
    "from":72,
    "think":72,
    "be":76,
    "as":78,
    "me":79,
    "have":79,
    "at":82,
    "don\u2019t":84,
    "about":87,
    "just":89,
    "are":89,
    "know":90,
    "up":91,
    "they":91,
    "what":92,
    "it\u2019s":103,
    "not":105,
    "this":118,
    "for":121,
    "":123,
    "with":123,
    "his":128,
    "he":132,
    "that":136,
    "on":153,
    "it":158,
    "hart":159,
    "is":180,
    "we":224,
    "in":236,
    "of":255,
    "i":293,
    "and":328,
    "you":378,
    "to":464,
    "a":533,
    "the":820
}