{
    "seas":1,
    "temper":1,
    "fixes":1,
    "ironic":1,
    "haste":1,
    "detain":1,
    "cap":1,
    "pulled":1,
    "twentyfouryearold":1,
    "background":1,
    "cursory":1,
    "polite":1,
    "halfhearted":1,
    "weekend":1,
    "glares":1,
    "retirement":1,
    "thirty":1,
    "truths":1,
    "spare":1,
    "unmoved":1,
    "gazing":1,
    "pity":1,
    "restraining":1,
    "pats":1,
    "alvaro":1,
    "speeds":1,
    "dusty":1,
    "verdant":1,
    "archway":1,
    "stonewall":1,
    "fence":1,
    "emerging":1,
    "cement":1,
    "racing":1,
    "elegant":1,
    "flanked":1,
    "gardens":1,
    "patrician":1,
    "villas":1,
    "drab":1,
    "palazzo":1,
    "remove":1,
    "suitcases":1,
    "trunk":1,
    "thirsty":1,
    "hadnt":1,
    "pensive":1,
    "sullen":1,
    "yachtand":1,
    "cruise":1,
    "teasing":1,
    "original":1,
    "line":1,
    "terrible":1,
    "affair":1,
    "timeits":1,
    "comforting":1,
    "thirtyfive":1,
    "shirt":1,
    "unbuttoned":1,
    "unknotted":1,
    "spotted":1,
    "hello":1,
    "seized":1,
    "powerful":1,
    "impulse":1,
    "straight":1,
    "seldom":1,
    "lived":1,
    "finished":1,
    "knotting":1,
    "intense":1,
    "scrutinize":1,
    "taut":1,
    "determined":1,
    "unbuttoning":1,
    "softly":1,
    "ear":1,
    "downstairs":1,
    "shell":1,
    "passion":1,
    "feverishly":1,
    "sheer":1,
    "animal":1,
    "abandons":1,
    "apply":1,
    "humble":1,
    "haughty":1,
    "climbed":1,
    "wheel":1,
    "lovelier":1,
    "veil":1,
    "shadows":1,
    "shifts":1,
    "swerves":1,
    "shift":1,
    "fourth":1,
    "emit":1,
    "resembles":1,
    "races":1,
    "fades":1,
    "attentive":1,
    "terrorstricken":1,
    "loom":1,
    "gap":1,
    "separates":1,
    "choice":1,
    "frightening":1,
    "leap":1,
    "skids":1,
    "muddy":1,
    "reproaching":1,
    "excuses":1,
    "property":1,
    "imperturbably":1,
    "hole":1,
    "normally":1,
    "expected":1,
    "pure":1,
    "baffled":1,
    "killed":1,
    "smooth":1,
    "slick":1,
    "comparisons":1,
    "lies":1,
    "planning":1,
    "number":1,
    "fell":1,
    "lulls":1,
    "magazine":1,
    "pages":1,
    "apart":1,
    "swept":1,
    "float":1,
    "specks":1,
    "gulls":1,
    "converge":1,
    "emitting":1,
    "guttural":1,
    "profoundly":1,
    "troubled":1,
    "dismissing":1,
    "cuddles":1,
    "provoke":1,
    "fleeting":1,
    "larger":1,
    "appeared":1,
    "beneath":1,
    "overhanging":1,
    "aeolian":1,
    "isles":1,
    "volcanoes":1,
    "grade":1,
    "geography":1,
    "book":1,
    "resentfully":1,
    "abashed":1,
    "passed":1,
    "merluzzo":1,
    "smaller":1,
    "contemplating":1,
    "personal":1,
    "unfastens":1,
    "thin":1,
    "stripping":1,
    "exasperation":1,
    "goodness":1,
    "yapping":1,
    "slowed":1,
    "helm":1,
    "slows":1,
    "range":1,
    "skindiving":1,
    "equipment":1,
    "easing":1,
    "rung":1,
    "hows":1,
    "highest":1,
    "dive":1,
    "sensational":1,
    "circumscribed":1,
    "solicitously":1,
    "filmy":1,
    "elegance":1,
    "thirties":1,
    "holding":1,
    "greets":1,
    "likewise":1,
    "dream":1,
    "enjoy":1,
    "latestand":1,
    "adapt":1,
    "hits":1,
    "originally":1,
    "creature":1,
    "submerge":1,
    "covering":1,
    "shade":1,
    "process":1,
    "negotiating":1,
    "contract":1,
    "naturally":1,
    "deal":1,
    "cradled":1,
    "gentle":1,
    "restful":1,
    "upright":1,
    "bobs":1,
    "crawl":1,
    "enjoying":1,
    "shoot":1,
    "chasing":1,
    "elude":1,
    "aim":1,
    "trigger":1,
    "harpoon":1,
    "shoots":1,
    "hasty":1,
    "pursuit":1,
    "rubber":1,
    "piloted":1,
    "bearing":1,
    "worked":1,
    "tiring":1,
    "sailing":1,
    "cernia":1,
    "given":1,
    "observing":1,
    "disembark":1,
    "spirit":1,
    "playfulness":1,
    "concern":1,
    "fun":1,
    "merriment":1,
    "shriek":1,
    "screaming":1,
    "booming":1,
    "ignores":1,
    "warning":1,
    "demon":1,
    "grasps":1,
    "hurls":1,
    "holds":1,
    "cautiously":1,
    "dons":1,
    "expecting":1,
    "unruffled":1,
    "seaweed":1,
    "visible":1,
    "fans":1,
    "smallgilled":1,
    "darting":1,
    "mysterious":1,
    "fascinating":1,
    "follow":1,
    "overlapping":1,
    "died":1,
    "teeth":1,
    "cognac":1,
    "positively":1,
    "refuses":1,
    "shelf":1,
    "solicitude":1,
    "blanket":1,
    "congregated":1,
    "chattering":1,
    "curtain":1,
    "array":1,
    "attire":1,
    "choose":1,
    "selects":1,
    "tosses":1,
    "gorgeous":1,
    "bath":1,
    "slips":1,
    "coquettish":1,
    "removing":1,
    "piqued":1,
    "envy":1,
    "maam":1,
    "sharks":1,
    "attack":1,
    "blind":1,
    "forgotten":1,
    "urge":1,
    "theyll":1,
    "fit":1,
    "cushions":1,
    "assent":1,
    "horizon":1,
    "clouds":1,
    "accumulated":1,
    "signaling":1,
    "deposited":1,
    "returning":1,
    "oar":1,
    "sharply":1,
    "silhouetted":1,
    "volcano":1,
    "stromboli":1,
    "smokes":1,
    "feebly":1,
    "ship":1,
    "enchanted":1,
    "collects":1,
    "lead":1,
    "overhears":1,
    "romance":1,
    "particularly":1,
    "condescending":1,
    "skirt":1,
    "higher":1,
    "satisfied":1,
    "game":1,
    "assumes":1,
    "bored":1,
    "ceiling":1,
    "forbearance":1,
    "breast":1,
    "womens":1,
    "colored":1,
    "blue":1,
    "raimondos":1,
    "sympathetically":1,
    "pretty":1,
    "contrary":1,
    "unless":1,
    "children":1,
    "dammit":1,
    "perfectly":1,
    "cut":1,
    "kinds":1,
    "dissipations":1,
    "degradations":1,
    "infidelities":1,
    "debaucheries":1,
    "laziness":1,
    "unwillingness":1,
    "disgruntled":1,
    "amuses":1,
    "amusing":1,
    "jigsaw":1,
    "puzzle":1,
    "city":1,
    "laid":1,
    "descends":1,
    "wades":1,
    "resembling":1,
    "newborn":1,
    "darling":1,
    "referring":1,
    "comic":1,
    "lose":1,
    "balance":1,
    "slippery":1,
    "pebbles":1,
    "comport":1,
    "lively":1,
    "humor":1,
    "wit":1,
    "suggestion":1,
    "relaxing":1,
    "slopes":1,
    "squeezing":1,
    "expressed":1,
    "pitiful":1,
    "humility":1,
    "baby":1,
    "cat":1,
    "sensitive":1,
    "throbs":1,
    "worthy":1,
    "honest":1,
    "concubinage":1,
    "publicly":1,
    "admire":1,
    "doubts":1,
    "action":1,
    "unexpected":1,
    "astonished":1,
    "dreadful":1,
    "tension":1,
    "spread":1,
    "seaman":1,
    "frozen":1,
    "peaches":1,
    "bites":1,
    "letting":1,
    "comparison":1,
    "convinced":1,
    "rattle":1,
    "brains":1,
    "serve":1,
    "confuse":1,
    "awful":1,
    "losing":1,
    "spoil":1,
    "breathes":1,
    "sigh":1,
    "skyward":1,
    "lazily":1,
    "nap":1,
    "mistake":1,
    "porthole":1,
    "hint":1,
    "portholes":1,
    "drives":1,
    "crazy":1,
    "whereabouts":1,
    "fruitless":1,
    "expressions":1,
    "directions":1,
    "clumps":1,
    "branches":1,
    "relaxed":1,
    "intended":1,
    "nowhere":1,
    "frightened":1,
    "locked":1,
    "uncertain":1,
    "structure":1,
    "shelter":1,
    "boulders":1,
    "peer":1,
    "ledge":1,
    "examining":1,
    "interrupted":1,
    "minute":1,
    "responsibility":1,
    "keeping":1,
    "flat":1,
    "excellent":1,
    "managed":1,
    "possibilities":1,
    "footprints":1,
    "indicate":1,
    "significance":1,
    "pathway":1,
    "descended":1,
    "rushing":1,
    "stern":1,
    "obscure":1,
    "mariosteer":1,
    "object":1,
    "furniture":1,
    "report":1,
    "senseless":1,
    "waste":1,
    "rains":1,
    "umbrella":1,
    "remained":1,
    "offensive":1,
    "hindrance":1,
    "determinedly":1,
    "blankets":1,
    "signifying":1,
    "pull":1,
    "lock":1,
    "resists":1,
    "aid":1,
    "placing":1,
    "pitch":1,
    "kerosene":1,
    "miserable":1,
    "boxes":1,
    "shovel":1,
    "utensils":1,
    "straw":1,
    "suggesting":1,
    "makeshift":1,
    "worthwhile":1,
    "invented":1,
    "purpose":1,
    "indiscreet":1,
    "argument":1,
    "correctly":1,
    "expectation":1,
    "sack":1,
    "australia":1,
    "drown":1,
    "suppose":1,
    "searched":1,
    "cliff":1,
    "bleating":1,
    "lost":1,
    "drenched":1,
    "mud":1,
    "soaked":1,
    "claudiacome":1,
    "fond":1,
    "occasionally":1,
    "fathers":1,
    "prevent":1,
    "haze":1,
    "heavy":1,
    "determine":1,
    "source":1,
    "impulsively":1,
    "seizes":1,
    "collar":1,
    "deflated":1,
    "casualness":1,
    "abandon":1,
    "sucked":1,
    "disastrous":1,
    "notify":1,
    "sometime":1,
    "unfortunately":1,
    "waters":1,
    "ladders":1,
    "worry":1,
    "peering":1,
    "slide":1,
    "operations":1,
    "accidentally":1,
    "loosened":1,
    "rolls":1,
    "dangling":1,
    "discovered":1,
    "tears":1,
    "crying":1,
    "avoids":1,
    "ends":1,
    "amazes":1,
    "awake":1,
    "thermos":1,
    "fetch":1,
    "century":1,
    "examine":1,
    "kneels":1,
    "purposely":1,
    "warmth":1,
    "brief":1,
    "succumb":1,
    "wonderment":1,
    "experienced":1,
    "gift":1,
    "geraniums":1,
    "dismay":1,
    "replies":1,
    "twenty":1,
    "twentytwo":1,
    "twentyfour":1,
    "depending":1,
    "commenting":1,
    "village":1,
    "plain":1,
    "shabby":1,
    "barber":1,
    "fingering":1,
    "dayold":1,
    "beard":1,
    "shave":1,
    "shortly":1,
    "thereafter":1,
    "clamor":1,
    "dashing":1,
    "fighting":1,
    "dragging":1,
    "shack":1,
    "protests":1,
    "lift":1,
    "lid":1,
    "confiscate":1,
    "react":1,
    "violently":1,
    "epithets":1,
    "commotion":1,
    "quieted":1,
    "contemptible":1,
    "dignity":1,
    "vicinity":1,
    "weat":1,
    "hiding":1,
    "liked":1,
    "presume":1,
    "method":1,
    "belonging":1,
    "inform":1,
    "fugitive":1,
    "rash":1,
    "assumptions":1,
    "sends":1,
    "dust":1,
    "touches":1,
    "accompanied":1,
    "attendant":1,
    "dogs":1,
    "german":1,
    "creates":1,
    "assembled":1,
    "dare":1,
    "intimate":1,
    "garments":1,
    "items":1,
    "clothing":1,
    "rummaging":1,
    "fitzgeralds":1,
    "copy":1,
    "deliberation":1,
    "reads":1,
    "committed":1,
    "impropriety":1,
    "china":1,
    "objections":1,
    "sniffing":1,
    "scent":1,
    "hunt":1,
    "disgust":1,
    "irritation":1,
    "huff":1,
    "leash":1,
    "beasts":1,
    "carabiniere":1,
    "hardly":1,
    "check":1,
    "operating":1,
    "date":1,
    "unloaded":1,
    "reasons":1,
    "suspiciouslooking":1,
    "plan":1,
    "truebut":1,
    "pains":1,
    "impose":1,
    "frank":1,
    "stubborn":1,
    "boards":1,
    "disappearing":1,
    "meets":1,
    "mixed":1,
    "overpowering":1,
    "lasted":1,
    "passionate":1,
    "stunned":1,
    "primarily":1,
    "keeps":1,
    "bowed":1,
    "mainland":1,
    "reaching":1,
    "foot":1,
    "luggage":1,
    "consigns":1,
    "timidly":1,
    "lieutenants":1,
    "bronzed":1,
    "home":1,
    "sister":1,
    "smuggling":1,
    "assistance":1,
    "government":1,
    "formality":1,
    "tells":1,
    "dropped":1,
    "contradict":1,
    "swore":1,
    "crates":1,
    "guard":1,
    "admitting":1,
    "doorstep":1,
    "worth":1,
    "whatever":1,
    "wasting":1,
    "circumstances":1,
    "bidding":1,
    "folds":1,
    "tucks":1,
    "rate":1,
    "investigating":1,
    "alarm":1,
    "areas":1,
    "francesco":1,
    "correspondent":1,
    "offering":1,
    "reward":1,
    "toured":1,
    "saluting":1,
    "warehouse":1,
    "salutes":1,
    "shows":1,
    "imploringly":1,
    "outright":1,
    "springs":1,
    "nervously":1,
    "trains":1,
    "sounded":1,
    "helpless":1,
    "solemn":1,
    "insists":1,
    "imploring":1,
    "final":1,
    "handkerchief":1,
    "reproach":1,
    "youwhy":1,
    "sooner":1,
    "relationship":1,
    "idiotic":1,
    "oneself":1,
    "scruples":1,
    "cynical":1,
    "squarely":1,
    "terribly":1,
    "class":1,
    "secondclass":1,
    "delicate":1,
    "sicilian":1,
    "accent":1,
    "acquaintance":1,
    "often":1,
    "catania":1,
    "gardener":1,
    "gardeners":1,
    "spoke":1,
    "sort":1,
    "wavy":1,
    "brown":1,
    "seducers":1,
    "provinces":1,
    "chinese":1,
    "useful":1,
    "traveling":1,
    "sweetheart":1,
    "sleeve":1,
    "drag":1,
    "highly":1,
    "emotional":1,
    "promise":1,
    "grab":1,
    "violence":1,
    "chase":1,
    "battling":1,
    "appear":1,
    "trip":1,
    "magnificent":1,
    "welcome":1,
    "willing":1,
    "private":1,
    "chapel":1,
    "masterpiece":1,
    "seventeenthcentury":1,
    "frescoes":1,
    "ancestors":1,
    "collection":1,
    "convenient":1,
    "masses":1,
    "clergymen":1,
    "physical":1,
    "handicap":1,
    "lame":1,
    "alcove":1,
    "wicker":1,
    "cordiality":1,
    "plunks":1,
    "futile":1,
    "weigh":1,
    "pours":1,
    "orange":1,
    "pitcher":1,
    "heat":1,
    "affected":1,
    "recalls":1,
    "previous":1,
    "held":1,
    "needing":1,
    "dates":1,
    "relaxation":1,
    "noticeable":1,
    "shown":1,
    "bet":1,
    "single":1,
    "population":1,
    "san":1,
    "siro":1,
    "gong":1,
    "resounds":1,
    "harm":1,
    "skip":1,
    "meal":1,
    "intend":1,
    "complicated":1,
    "gun":1,
    "complete":1,
    "flashes":1,
    "minds":1,
    "revelation":1,
    "shaken":1,
    "defiant":1,
    "nephew":1,
    "eighteen":1,
    "lucky":1,
    "paints":1,
    "rembrandt":1,
    "sell":1,
    "psychiatric":1,
    "clinic":1,
    "sophia":1,
    "loren":1,
    "turin":1,
    "lowcut":1,
    "queen":1,
    "saroya":1,
    "torn":1,
    "ran":1,
    "siren":1,
    "afar":1,
    "dominates":1,
    "alfa":1,
    "romeo":1,
    "vehicles":1,
    "maneuver":1,
    "snakes":1,
    "jungle":1,
    "created":1,
    "thus":1,
    "backed":1,
    "insistence":1,
    "pressing":1,
    "threateningly":1,
    "pandemonium":1,
    "photographers":1,
    "inches":1,
    "charming":1,
    "provocative":1,
    "tightfitting":1,
    "pants":1,
    "catching":1,
    "receives":1,
    "ravaged":1,
    "proven":1,
    "gathered":1,
    "clerks":1,
    "explaining":1,
    "interrupts":1,
    "selfsatisfied":1,
    "foulard":1,
    "everywhere":1,
    "noisy":1,
    "nineteen":1,
    "gloria":1,
    "perkins":1,
    "writer":1,
    "profession":1,
    "trance":1,
    "tolstoi":1,
    "shakespeare":1,
    "movies":1,
    "friendliness":1,
    "finland":1,
    "received":1,
    "contempt":1,
    "capri":1,
    "tourist":1,
    "escort":1,
    "photographer":1,
    "snaps":1,
    "flash":1,
    "photo":1,
    "costs":1,
    "kidding":1,
    "ways":1,
    "bait":1,
    "trap":1,
    "mouse":1,
    "snap":1,
    "represents":1,
    "incredulity":1,
    "reality":1,
    "hurried":1,
    "pace":1,
    "articles":1,
    "regarding":1,
    "girls":1,
    "fianc\u201a":1,
    "sidewards":1,
    "problems":1,
    "daily":1,
    "routine":1,
    "insult":1,
    "big":1,
    "entered":1,
    "stated":1,
    "widely":1,
    "readers":1,
    "editors":1,
    "proposition":1,
    "round":1,
    "discussing":1,
    "normal":1,
    "needed":1,
    "cocktail":1,
    "vitality":1,
    "irritates":1,
    "wig":1,
    "divine":1,
    "flatter":1,
    "compliment":1,
    "separate":1,
    "friendly":1,
    "prepares":1,
    "descend":1,
    "embarrassing":1,
    "wrist":1,
    "confide":1,
    "intimately":1,
    "amusement":1,
    "tickled":1,
    "vanity":1,
    "noticed":1,
    "resigns":1,
    "escorting":1,
    "railing":1,
    "arriving":1,
    "cover":1,
    "manners":1,
    "respectful":1,
    "bright":1,
    "spacious":1,
    "slanted":1,
    "huge":1,
    "easels":1,
    "canvases":1,
    "brushes":1,
    "studio":1,
    "attaches":1,
    "setting":1,
    "easel":1,
    "indifference":1,
    "panorama":1,
    "shapely":1,
    "plump":1,
    "renoir":1,
    "mistaken":1,
    "models":1,
    "obsolete":1,
    "flying":1,
    "swoops":1,
    "inclination":1,
    "euphoric":1,
    "kittenish":1,
    "firm":1,
    "resolute":1,
    "posing":1,
    "portrait":1,
    "screws":1,
    "courage":1,
    "boldly":1,
    "invitation":1,
    "awkward":1,
    "passionately":1,
    "shameless":1,
    "feverish":1,
    "flushed":1,
    "triumphant":1,
    "swings":1,
    "threshold":1,
    "telling":1,
    "beating":1,
    "interests":1,
    "clearer":1,
    "backward":1,
    "strangely":1,
    "peace":1,
    "bang":1,
    "slams":1,
    "amazed":1,
    "aroused":1,
    "stupor":1,
    "rapidly":1,
    "descending":1,
    "blocked":1,
    "disappointment":1,
    "spreads":1,
    "located":1,
    "probably":1,
    "rented":1,
    "driven":1,
    "chauffeur":1,
    "picked":1,
    "puzzled":1,
    "insisting":1,
    "critical":1,
    "deliberate":1,
    "prick":1,
    "oscar":1,
    "wilde":1,
    "superfluous":1,
    "essential":1,
    "helps":1,
    "hed":1,
    "quote":1,
    "quotations":1,
    "board":1,
    "directors":1,
    "soap":1,
    "sitting":1,
    "yanks":1,
    "jerky":1,
    "literate":1,
    "description":1,
    "corresponds":1,
    "missing":1,
    "persuasive":1,
    "fat":1,
    "luscious":1,
    "customer":1,
    "amalia":1,
    "newspapers":1,
    "gossip":1,
    "precise":1,
    "wore":1,
    "menacingly":1,
    "conflicting":1,
    "indication":1,
    "inspired":1,
    "lingered":1,
    "humorous":1,
    "quips":1,
    "general":1,
    "dealt":1,
    "nagging":1,
    "crushing":1,
    "verbal":1,
    "blow":1,
    "glancing":1,
    "evident":1,
    "forgot":1,
    "pair":1,
    "thinks":1,
    "loaded":1,
    "irresistible":1,
    "masculinity":1,
    "package":1,
    "pocket":1,
    "automatically":1,
    "declines":1,
    "shake":1,
    "inhaling":1,
    "smoke":1,
    "voluptuously":1,
    "suspiciously":1,
    "wistful":1,
    "knew":1,
    "viterbo":1,
    "soldier":1,
    "hatefully":1,
    "goodbyes":1,
    "squalid":1,
    "consent":1,
    "struggling":1,
    "win":1,
    "removes":1,
    "signora":1,
    "searchand":1,
    "signorina":1,
    "survive":1,
    "departs":1,
    "drivers":1,
    "passengers":1,
    "twentyfive":1,
    "scratching":1,
    "darkhaired":1,
    "kerchief":1,
    "verification":1,
    "memory":1,
    "adds":1,
    "fields":1,
    "riverbed":1,
    "stones":1,
    "sparkle":1,
    "bank":1,
    "vividly":1,
    "catches":1,
    "intensely":1,
    "ordinarily":1,
    "public":1,
    "wellprobably":1,
    "detected":1,
    "contrast":1,
    "protest":1,
    "condescendingly":1,
    "meaning":1,
    "insinuate":1,
    "illegitimate":1,
    "insinuating":1,
    "furthermore":1,
    "pretext":1,
    "duty":1,
    "warn":1,
    "occupy":1,
    "affairs":1,
    "position":1,
    "midwifes":1,
    "cagey":1,
    "trinacria":1,
    "regina":1,
    "municipal":1,
    "mention":1,
    "service":1,
    "bridge":1,
    "bothered":1,
    "railroad":1,
    "ticket":1,
    "haphazardly":1,
    "planks":1,
    "driving":1,
    "monotonous":1,
    "rows":1,
    "newly":1,
    "constructed":1,
    "homes":1,
    "lined":1,
    "unnatural":1,
    "doors":1,
    "tightly":1,
    "cracks":1,
    "invading":1,
    "suffocating":1,
    "sight":1,
    "beats":1,
    "crumbling":1,
    "useless":1,
    "monument":1,
    "dedication":1,
    "inscribed":1,
    "agricultural":1,
    "worker":1,
    "instinctively":1,
    "overgrown":1,
    "grass":1,
    "resistance":1,
    "entwines":1,
    "fingers":1,
    "desperation":1,
    "feeble":1,
    "attempt":1,
    "drowsiness":1,
    "peaceful":1,
    "purring":1,
    "languorously":1,
    "typically":1,
    "embraces":1,
    "death":1,
    "shiver":1,
    "cemetery":1,
    "numb":1,
    "hobbles":1,
    "comically":1,
    "cramped":1,
    "hobbling":1,
    "baked":1,
    "oven":1,
    "boisterous":1,
    "exclamations":1,
    "drive":1,
    "roar":1,
    "echoes":1,
    "save":1,
    "awkwardness":1,
    "easier":1,
    "influence":1,
    "understands":1,
    "nevertheless":1,
    "agonizing":1,
    "tossing":1,
    "strolls":1,
    "letter":1,
    "deposits":1,
    "postcard":1,
    "parade":1,
    "ants":1,
    "crawling":1,
    "ending":1,
    "scurrying":1,
    "numbers":1,
    "incredibly":1,
    "townspeople":1,
    "mill":1,
    "towns":1,
    "dandies":1,
    "circling":1,
    "suggestive":1,
    "totally":1,
    "unaware":1,
    "concentrates":1,
    "entrance":1,
    "thinning":1,
    "total":1,
    "solitude":1,
    "fearful":1,
    "cavern":1,
    "spies":1,
    "practically":1,
    "tobacco":1,
    "dashes":1,
    "counter":1,
    "purse":1,
    "filters":1,
    "tremble":1,
    "wheels":1,
    "shuts":1,
    "ashamedi":1,
    "myselfi":1,
    "hate":1,
    "seriousness":1,
    "lips":1,
    "swear":1,
    "infinite":1,
    "reveals":1,
    "imagined":1,
    "shaking":1,
    "needs":1,
    "packages":1,
    "cord":1,
    "convents":1,
    "bathed":1,
    "soft":1,
    "twilight":1,
    "churches":1,
    "bordering":1,
    "reveal":1,
    "beauty":1,
    "enthusiasm":1,
    "fantastic":1,
    "scenographic":1,
    "effects":1,
    "liberty":1,
    "projects":1,
    "ideas":1,
    "job":1,
    "draw":1,
    "estimate":1,
    "construction":1,
    "school":1,
    "six":1,
    "million":1,
    "estimates":1,
    "designs":1,
    "render":1,
    "judgment":1,
    "sadness":1,
    "avoiding":1,
    "outlines":1,
    "foolish":1,
    "surethat":1,
    "asked":1,
    "simpler":1,
    "color":1,
    "shoe":1,
    "9":1,
    "8":1,
    "adoration":1,
    "infatuated":1,
    "itll":1,
    "popular":1,
    "tune":1,
    "wild":1,
    "rhythmic":1,
    "emanating":1,
    "publicity":1,
    "truck":1,
    "advertising":1,
    "stunt":1,
    "overtaken":1,
    "temptation":1,
    "swaying":1,
    "kicking":1,
    "bare":1,
    "feigning":1,
    "exaggerated":1,
    "demonstrate":1,
    "exuberance":1,
    "hobble":1,
    "minutes":1,
    "locates":1,
    "dressing":1,
    "caretaker":1,
    "930":1,
    "1030":1,
    "tourists":1,
    "frenchmen":1,
    "walked":1,
    "shakes":1,
    "noteworthy":1,
    "decay":1,
    "studying":1,
    "architecture":1,
    "hearing":1,
    "observation":1,
    "busily":1,
    "engaged":1,
    "notes":1,
    "copying":1,
    "details":1,
    "religious":1,
    "zeal":1,
    "faint":1,
    "arcades":1,
    "columns":1,
    "regret":1,
    "resentful":1,
    "studies":1,
    "annoy":1,
    "humiliate":1,
    "exit":1,
    "tip":1,
    "toes":1,
    "quietly":1,
    "writing":1,
    "interfering":1,
    "wrong":1,
    "ushers":1,
    "shutters":1,
    "yells":1,
    "ouch":1,
    "succeed":1,
    "struggle":1,
    "stimulates":1,
    "reserve":1,
    "drags":1,
    "lie":1,
    "hugs":1,
    "kissed":1,
    "yields":1,
    "pockets":1,
    "subdued":1,
    "wire":1,
    "telephoned":1,
    "fair":1,
    "awfully":1,
    "lonely":1,
    "suitable":1,
    "telephoning":1,
    "pack":1,
    "annoyed":1,
    "overlooks":1,
    "bay":1,
    "dotted":1,
    "focused":1,
    "waits":1,
    "thrown":1,
    "murmurs":1,
    "wonderfully":1,
    "renewed":1,
    "friendship":1,
    "partition":1,
    "fed":1,
    "forgive":1,
    "assured":1,
    "reply":1,
    "bore":1,
    "seriously":1,
    "dynamos":1,
    "austrian":1,
    "tennis":1,
    "bounced":1,
    "professional":1,
    "exactitude":1,
    "curtains":1,
    "hangers":1,
    "wardrobe":1,
    "automatic":1,
    "robot":1,
    "lamps":1,
    "performed":1,
    "undo":1,
    "knock":1,
    "porter":1,
    "baggage":1,
    "necessities":1,
    "gestures":1,
    "imprecise":1,
    "fatigue":1,
    "pajamas":1,
    "quit":1,
    "shower":1,
    "wow":1,
    "ice":1,
    "learned":1,
    "penalty":1,
    "movie":1,
    "cafe":1,
    "drunkard":1,
    "putting":1,
    "posters":1,
    "manifestoesor":1,
    "market":1,
    "wake":1,
    "jamb":1,
    "undressing":1,
    "bathrobe":1,
    "affectionate":1,
    "rich":1,
    "living":1,
    "geniuses":1,
    "slipped":1,
    "clearing":1,
    "apartments":1,
    "genius":1,
    "habit":1,
    "formed":1,
    "reappears":1,
    "slides":1,
    "covers":1,
    "differently":1,
    "light":1,
    "switch":1,
    "meditative":1,
    "discourse":1,
    "delivered":1,
    "touched":1,
    "introduce":1,
    "starting":1,
    "proceed":1,
    "saddened":1,
    "orders":1,
    "voluptuous":1,
    "semidark":1,
    "television":1,
    "restless":1,
    "docks":1,
    "fan":1,
    "gulping":1,
    "whiskey":1,
    "swallow":1,
    "sleeping":1,
    "disturb":1,
    "breath":1,
    "indeed":1,
    "sentimental":1,
    "sinks":1,
    "weak":1,
    "gods":1,
    "obsessed":1,
    "becoming":1,
    "damned":1,
    "deprive":1,
    "ones":1,
    "self":1,
    "pain":1,
    "suffering":1,
    "melodramatic":1,
    "checking":1,
    "adequately":1,
    "signs":1,
    "nights":1,
    "placement":1,
    "armchairs":1,
    "ashtrays":1,
    "butts":1,
    "carpet":1,
    "partly":1,
    "impression":1,
    "embracing":1,
    "hesitates":1,
    "bumps":1,
    "terror":1,
    "incapable":1,
    "soul":1,
    "serene":1,
    "peeling":1,
    "transfixed":1,
    "stares":1,
    "mystery":1,
    "unto":1,
    "distract":1,
    "shock":1,
    "laborer":1,
    "overalls":1,
    "upstairs":2,
    "barely":2,
    "control":2,
    "sarcastic":2,
    "checks":2,
    "conscious":2,
    "fashionable":2,
    "discreetly":2,
    "five":2,
    "rest":2,
    "restrain":2,
    "beg":2,
    "cheek":2,
    "maid":2,
    "waving":2,
    "hurry":2,
    "strip":2,
    "swiftly":2,
    "onward":2,
    "walls":2,
    "admiringly":2,
    "narrow":2,
    "modern":2,
    "lives":2,
    "farewell":2,
    "heed":2,
    "floor":2,
    "attentively":2,
    "neck":2,
    "cheerful":2,
    "astonishment":2,
    "contains":2,
    "books":2,
    "atmosphere":2,
    "toward":2,
    "pick":2,
    "examines":2,
    "caresses":2,
    "dismayed":2,
    "pleasure":2,
    "intervenes":2,
    "arrogant":2,
    "romantic":2,
    "sharp":2,
    "lower":2,
    "gear":2,
    "causes":2,
    "point":2,
    "petrified":2,
    "ten":2,
    "illuminate":2,
    "ditch":2,
    "lot":2,
    "fault":2,
    "hysterical":2,
    "oil":2,
    "detest":2,
    "fairly":2,
    "thinking":2,
    "overboard":2,
    "drift":2,
    "cries":2,
    "tenderness":2,
    "midway":2,
    "momentarily":2,
    "effort":2,
    "affection":2,
    "prow":2,
    "enveloped":2,
    "shadow":2,
    "previously":2,
    "casts":2,
    "cliffs":2,
    "motionless":2,
    "dangerous":2,
    "preoccupied":2,
    "note":2,
    "backwards":2,
    "dip":2,
    "startled":2,
    "fishing":2,
    "underwater":2,
    "shivering":2,
    "lowering":2,
    "mask":2,
    "depends":2,
    "sicily":2,
    "lying":2,
    "swimmer":2,
    "verge":2,
    "afloat":2,
    "exploring":2,
    "splash":2,
    "swims":2,
    "crew":2,
    "owners":2,
    "kept":2,
    "distinctly":2,
    "leg":2,
    "loud":2,
    "firmly":2,
    "stricken":2,
    "tight":2,
    "silently":2,
    "happening":2,
    "bottom":2,
    "sorts":2,
    "arouses":2,
    "everyone":2,
    "arrive":2,
    "ugly":2,
    "exchanged":2,
    "cot":2,
    "known":2,
    "difference":2,
    "sometimes":2,
    "rushes":2,
    "incident":2,
    "loose":2,
    "plenty":2,
    "certainly":2,
    "sky":2,
    "cloud":2,
    "lifts":2,
    "calmly":2,
    "quiet":2,
    "amazement":2,
    "withdraws":2,
    "yours":2,
    "depraved":2,
    "faithful":2,
    "suits":2,
    "naked":2,
    "pretends":2,
    "someone":2,
    "none":2,
    "comfortably":2,
    "emphasize":2,
    "plea":2,
    "aback":2,
    "fully":2,
    "decided":2,
    "irritated":2,
    "whether":2,
    "heart":2,
    "twelve":2,
    "repeat":2,
    "trouble":2,
    "involved":2,
    "worse":2,
    "throughout":2,
    "peach":2,
    "case":2,
    "means":2,
    "die":2,
    "rage":2,
    "exhausted":2,
    "weather":2,
    "wheres":2,
    "bushes":2,
    "impatient":2,
    "raises":2,
    "quick":2,
    "opposite":2,
    "reached":2,
    "explore":2,
    "stopping":2,
    "slope":2,
    "continue":2,
    "brush":2,
    "spots":2,
    "stray":2,
    "jumbled":2,
    "section":2,
    "approach":2,
    "natural":2,
    "design":2,
    "piece":2,
    "bread":2,
    "fresh":2,
    "live":2,
    "tour":2,
    "assume":2,
    "cramp":2,
    "discovery":2,
    "realize":2,
    "practical":2,
    "closest":2,
    "ignoring":2,
    "gone":2,
    "fall":2,
    "strikes":2,
    "match":2,
    "lamp":2,
    "illuminated":2,
    "serious":2,
    "explain":2,
    "harder":2,
    "owner":2,
    "occupied":2,
    "sheep":2,
    "looked":2,
    "jumps":2,
    "desperately":2,
    "seemed":2,
    "growing":2,
    "louder":2,
    "path":2,
    "questioning":2,
    "phone":2,
    "develop":2,
    "crevasses":2,
    "message":2,
    "box":2,
    "crackers":2,
    "coffee":2,
    "body":2,
    "current":2,
    "hot":2,
    "frogman":2,
    "belongs":2,
    "turning":2,
    "advantage":2,
    "order":2,
    "dawn":2,
    "stuff":2,
    "supposed":2,
    "detaches":2,
    "wind":2,
    "center":2,
    "drawn":2,
    "arrives":2,
    "anywhere":2,
    "written":2,
    "important":2,
    "either":2,
    "heres":2,
    "rush":2,
    "propeller":2,
    "bloodhounds":2,
    "resentment":2,
    "dresses":2,
    "tender":2,
    "bible":2,
    "act":2,
    "gave":2,
    "necessary":2,
    "notice":2,
    "instructions":2,
    "wonder":2,
    "theyve":2,
    "absolutely":2,
    "finishes":2,
    "realized":2,
    "return":2,
    "intensity":2,
    "releases":2,
    "montaldos":2,
    "sake":2,
    "hoping":2,
    "low":2,
    "hesitation":2,
    "motorboat":2,
    "climbs":2,
    "tired":2,
    "drop":2,
    "anchor":2,
    "desk":2,
    "eh":2,
    "questions":2,
    "lunch":2,
    "throwing":2,
    "motions":2,
    "forget":2,
    "contraband":2,
    "theyd":2,
    "deny":2,
    "charge":2,
    "locate":2,
    "superior":2,
    "bell":2,
    "announcing":2,
    "despair":2,
    "wave":2,
    "settle":2,
    "sacrifice":2,
    "ourselves":2,
    "male":2,
    "logical":2,
    "resume":2,
    "allows":2,
    "moved":2,
    "slow":2,
    "pushes":2,
    "pauses":2,
    "decision":2,
    "glimpse":2,
    "deserve":2,
    "clergyman":2,
    "shady":2,
    "seated":2,
    "lounge":2,
    "greet":2,
    "discuss":2,
    "lack":2,
    "figures":2,
    "felt":2,
    "persons":2,
    "entire":2,
    "rid":2,
    "during":2,
    "disturbing":2,
    "present":2,
    "ashamed":2,
    "except":2,
    "strength":2,
    "boy":2,
    "oils":2,
    "painting":2,
    "model":2,
    "fills":2,
    "wagon":2,
    "lowered":2,
    "blouse":2,
    "wearing":2,
    "asks":2,
    "journalists":2,
    "otherwise":2,
    "shocked":2,
    "pose":2,
    "salary":2,
    "zurias":2,
    "story":2,
    "bitter":2,
    "troina":2,
    "bought":2,
    "print":2,
    "local":2,
    "gradually":2,
    "party":2,
    "tried":2,
    "burst":2,
    "show":2,
    "anymore":2,
    "crush":2,
    "attic":2,
    "intentions":2,
    "fashion":2,
    "roof":2,
    "vast":2,
    "picture":2,
    "figure":2,
    "nudes":2,
    "nowadays":2,
    "birds":2,
    "nest":2,
    "strange":2,
    "trembling":2,
    "excitement":2,
    "appeal":2,
    "glances":2,
    "advances":2,
    "bother":2,
    "feelings":2,
    "meeting":2,
    "indicates":2,
    "learn":2,
    "relieved":2,
    "nazionali":2,
    "phrase":2,
    "continuing":2,
    "assistant":2,
    "boarded":2,
    "searches":2,
    "midwife":2,
    "sweetly":2,
    "neighborhood":2,
    "peoples":2,
    "uncomfortable":2,
    "hotels":2,
    "factory":2,
    "tracks":2,
    "fountain":2,
    "absolute":2,
    "spot":2,
    "joking":2,
    "agrees":2,
    "moments":2,
    "curiosity":2,
    "entirely":2,
    "mouth":2,
    "attention":2,
    "darkness":2,
    "excited":2,
    "sincere":2,
    "bellcord":2,
    "buildings":2,
    "disorder":2,
    "extraordinary":2,
    "working":2,
    "paid":2,
    "ruffles":2,
    "gazes":2,
    "dance":2,
    "state":2,
    "stroll":2,
    "ignore":2,
    "noise":2,
    "singing":2,
    "squeezes":2,
    "forces":2,
    "quieter":2,
    "tanned":2,
    "thoughtful":2,
    "childhood":2,
    "sensible":2,
    "situated":2,
    "duties":2,
    "movements":2,
    "sleepy":2,
    "slept":2,
    "sit":2,
    "expect":2,
    "imagine":2,
    "deserted":2,
    "reception":2,
    "realizing":3,
    "usual":3,
    "daughters":3,
    "sailors":3,
    "nod":3,
    "spend":3,
    "furiously":3,
    "diplomat":3,
    "truth":3,
    "allow":3,
    "obvious":3,
    "type":3,
    "somehow":3,
    "answers":3,
    "hasnt":3,
    "traffic":3,
    "ancient":3,
    "within":3,
    "amid":3,
    "typical":3,
    "walk":3,
    "hour":3,
    "run":3,
    "jokingly":3,
    "pays":3,
    "comments":3,
    "gives":3,
    "consider":3,
    "leaning":3,
    "apartment":3,
    "watches":3,
    "although":3,
    "behavior":3,
    "violent":3,
    "instant":3,
    "kissing":3,
    "speed":3,
    "countryside":3,
    "covered":3,
    "thick":3,
    "peers":3,
    "abruptly":3,
    "third":3,
    "cry":3,
    "impossible":3,
    "wide":3,
    "forty":3,
    "itself":3,
    "opening":3,
    "halt":3,
    "empty":3,
    "broken":3,
    "simple":3,
    "happy":3,
    "plainly":3,
    "asleep":3,
    "stretches":3,
    "changes":3,
    "anxiety":3,
    "sits":3,
    "points":3,
    "called":3,
    "basiluzzo":3,
    "absorbed":3,
    "gotten":3,
    "places":3,
    "pointing":3,
    "life":3,
    "shouting":3,
    "nightgown":3,
    "deck":3,
    "understood":3,
    "poor":3,
    "speargun":3,
    "hide":3,
    "boats":3,
    "fixed":3,
    "example":3,
    "italy":3,
    "enormous":3,
    "playful":3,
    "mood":3,
    "caught":3,
    "drops":3,
    "world":3,
    "various":3,
    "whos":3,
    "sets":3,
    "pleased":3,
    "pause":3,
    "changed":3,
    "draws":3,
    "wear":3,
    "joke":3,
    "dumbfounded":3,
    "anyway":3,
    "fine":3,
    "leading":3,
    "alive":3,
    "bring":3,
    "hidden":3,
    "distance":3,
    "decides":3,
    "withdraw":3,
    "breasts":3,
    "attitude":3,
    "gently":3,
    "bit":3,
    "tone":3,
    "sweet":3,
    "break":3,
    "playfully":3,
    "motive":3,
    "set":3,
    "havent":3,
    "capable":3,
    "breaking":3,
    "nervous":3,
    "basket":3,
    "brought":3,
    "months":3,
    "shut":3,
    "changing":3,
    "finish":3,
    "casual":3,
    "step":3,
    "deeply":3,
    "trace":3,
    "every":3,
    "worried":3,
    "different":3,
    "anxiously":3,
    "begin":3,
    "lamb":3,
    "short":3,
    "answering":3,
    "pile":3,
    "avoid":3,
    "perhaps":3,
    "disappearance":3,
    "interest":3,
    "milan":3,
    "tiny":3,
    "staying":3,
    "started":3,
    "storm":3,
    "statement":3,
    "wooden":3,
    "lipari":3,
    "interior":3,
    "eat":3,
    "chairs":3,
    "youd":3,
    "pacing":3,
    "ah":3,
    "oclock":3,
    "today":3,
    "whole":3,
    "asking":3,
    "done":3,
    "whose":3,
    "visibly":3,
    "phoned":3,
    "frogmen":3,
    "rope":3,
    "contact":3,
    "watch":3,
    "join":3,
    "offers":3,
    "carabinieri":3,
    "above":3,
    "knowing":3,
    "vase":3,
    "evidently":3,
    "returned":3,
    "near":3,
    "embarrassment":3,
    "shops":3,
    "voices":3,
    "islanders":3,
    "confusion":3,
    "carry":3,
    "wish":3,
    "gentleman":3,
    "helicopter":3,
    "doubt":3,
    "matter":3,
    "smugglers":3,
    "nice":3,
    "headquarters":3,
    "desire":3,
    "besides":3,
    "clothes":3,
    "met":3,
    "eye":3,
    "searching":3,
    "sick":3,
    "money":3,
    "office":3,
    "admit":3,
    "newspaper":3,
    "reading":3,
    "sent":3,
    "news":3,
    "article":3,
    "read":3,
    "intent":3,
    "second":3,
    "work":3,
    "stranger":3,
    "villa":3,
    "peek":3,
    "platform":3,
    "fast":3,
    "intelligent":3,
    "bows":3,
    "cars":3,
    "shutter":3,
    "forward":3,
    "most":3,
    "brunette":3,
    "manager":3,
    "situation":3,
    "clears":3,
    "write":3,
    "display":3,
    "thank":3,
    "lire":3,
    "took":3,
    "women":3,
    "pass":3,
    "hears":3,
    "mad":3,
    "distinguish":3,
    "bar":3,
    "seconds":3,
    "female":3,
    "slight":3,
    "noto":3,
    "rooming":3,
    "abandoned":3,
    "church":3,
    "overcome":3,
    "stockings":3,
    "custodian":3,
    "architectural":3,
    "students":3,
    "jacket":3,
    "chair":3,
    "bench":3,
    "terrace":3,
    "rooms":3,
    "wed":3,
    "sofa":3,
    "wondering":4,
    "discussion":4,
    "dad":4,
    "apparently":4,
    "blonde":4,
    "resumes":4,
    "smile":4,
    "kisses":4,
    "amount":4,
    "marry":4,
    "merely":4,
    "wrapped":4,
    "enter":4,
    "half":4,
    "month":4,
    "disappear":4,
    "doorway":4,
    "suitcase":4,
    "however":4,
    "towel":4,
    "fallen":4,
    "closing":4,
    "aside":4,
    "shoes":4,
    "proceeds":4,
    "mirror":4,
    "whispers":4,
    "alongside":4,
    "headlights":4,
    "landscape":4,
    "revealing":4,
    "curve":4,
    "hundred":4,
    "yards":4,
    "stone":4,
    "fifty":4,
    "miles":4,
    "mans":4,
    "wonderful":4,
    "went":4,
    "white":4,
    "rocky":4,
    "shouts":4,
    "bathing":4,
    "dives":4,
    "waist":4,
    "ladder":4,
    "feminine":4,
    "great":4,
    "stopped":4,
    "remarks":4,
    "hell":4,
    "movement":4,
    "doing":4,
    "depths":4,
    "passing":4,
    "passes":4,
    "god":4,
    "busy":4,
    "hold":4,
    "giulias":4,
    "fear":4,
    "hurriedly":4,
    "lean":4,
    "below":4,
    "drink":4,
    "glass":4,
    "dry":4,
    "talking":4,
    "angry":4,
    "running":4,
    "send":4,
    "nods":4,
    "actually":4,
    "amused":4,
    "rather":4,
    "somebody":4,
    "stand":4,
    "bends":4,
    "shouldnt":4,
    "beginning":4,
    "nobody":4,
    "speak":4,
    "arguing":4,
    "absurd":4,
    "listening":4,
    "youve":4,
    "easy":4,
    "glance":4,
    "rock":4,
    "faces":4,
    "found":4,
    "feels":4,
    "leans":4,
    "less":4,
    "new":4,
    "arrival":4,
    "rough":4,
    "middle":4,
    "panarea":4,
    "couple":4,
    "rain":4,
    "buy":4,
    "force":4,
    "table":4,
    "business":4,
    "mine":4,
    "werent":4,
    "hear":4,
    "early":4,
    "weve":4,
    "breaks":4,
    "times":4,
    "pulling":4,
    "care":4,
    "air":4,
    "surprise":4,
    "milazzo":4,
    "reason":4,
    "pardon":4,
    "especially":4,
    "cannot":4,
    "friends":4,
    "messina":4,
    "sergeant":4,
    "sad":4,
    "compartment":4,
    "favor":4,
    "beside":4,
    "since":4,
    "painful":4,
    "throat":4,
    "storekeeper":4,
    "paper":4,
    "tomorrow":4,
    "interested":4,
    "paintings":4,
    "manner":4,
    "paint":4,
    "hallway":4,
    "clerk":4,
    "weeds":4,
    "streets":4,
    "adjoining":4,
    "main":4,
    "hall":4,
    "responds":5,
    "four":5,
    "days":5,
    "true":5,
    "spoken":5,
    "daughter":5,
    "child":5,
    "warm":5,
    "land":5,
    "reaches":5,
    "disappears":5,
    "sign":5,
    "heading":5,
    "emerges":5,
    "giving":5,
    "notices":5,
    "tie":5,
    "extremely":5,
    "bathroom":5,
    "puts":5,
    "staring":5,
    "suit":5,
    "unable":5,
    "shrugs":5,
    "expression":5,
    "presses":5,
    "picks":5,
    "exchange":5,
    "motor":5,
    "throws":5,
    "slowly":5,
    "stare":5,
    "shall":5,
    "bianca":5,
    "edge":5,
    "part":5,
    "question":5,
    "closed":5,
    "seem":5,
    "hours":5,
    "ruins":5,
    "climbing":5,
    "making":5,
    "change":5,
    "leaving":5,
    "among":5,
    "patrizias":5,
    "obviously":5,
    "dressed":5,
    "meet":5,
    "stairway":5,
    "realizes":5,
    "gangplank":5,
    "gesture":5,
    "disappointed":5,
    "laughs":5,
    "happen":5,
    "year":5,
    "mother":5,
    "idea":5,
    "approaches":5,
    "house":5,
    "search":5,
    "nearby":5,
    "footsteps":5,
    "afternoon":5,
    "precipice":5,
    "crate":5,
    "these":5,
    "person":5,
    "patrol":5,
    "possible":5,
    "thousand":5,
    "meantime":5,
    "thanks":5,
    "chief":5,
    "resist":5,
    "lovely":5,
    "prince":5,
    "nude":5,
    "crowd":5,
    "journalist":5,
    "stairs":5,
    "windows":5,
    "filled":5,
    "size":5,
    "presence":6,
    "high":6,
    "yet":6,
    "best":6,
    "friend":6,
    "speaking":6,
    "used":6,
    "manages":6,
    "goodbye":6,
    "difficult":6,
    "dear":6,
    "youll":6,
    "excuse":6,
    "waves":6,
    "late":6,
    "whom":6,
    "closes":6,
    "word":6,
    "hands":6,
    "legs":6,
    "gaze":6,
    "exclaims":6,
    "black":6,
    "course":6,
    "getting":6,
    "further":6,
    "remark":6,
    "call":6,
    "sorry":6,
    "joins":6,
    "sleep":6,
    "quite":6,
    "rises":6,
    "approaching":6,
    "thoughts":6,
    "top":6,
    "raft":6,
    "area":6,
    "carrying":6,
    "catch":6,
    "beach":6,
    "stands":6,
    "direction":6,
    "clearly":6,
    "touch":6,
    "cold":6,
    "afraid":6,
    "anybody":6,
    "disappeared":6,
    "let":6,
    "following":6,
    "our":6,
    "words":6,
    "deep":6,
    "calling":6,
    "concerned":6,
    "may":6,
    "reach":6,
    "manage":6,
    "remember":6,
    "need":6,
    "forth":6,
    "whats":6,
    "rome":6,
    "square":6,
    "palermo":6,
    "am":6,
    "radio":6,
    "train":6,
    "exactly":6,
    "upset":6,
    "garden":6,
    "princess":6,
    "courtyard":6,
    "wife":6,
    "trying":7,
    "put":7,
    "driver":7,
    "anyone":7,
    "else":7,
    "wanted":7,
    "answer":7,
    "calls":7,
    "laugh":7,
    "somewhere":7,
    "longer":7,
    "anxious":7,
    "shoulders":7,
    "hair":7,
    "large":7,
    "help":7,
    "everybody":7,
    "fish":7,
    "lisca":7,
    "swimming":7,
    "turned":7,
    "rocks":7,
    "islands":7,
    "id":7,
    "grabs":7,
    "happened":7,
    "become":7,
    "moving":7,
    "yourself":7,
    "okay":7,
    "ago":7,
    "arm":7,
    "couldnt":7,
    "yesterday":7,
    "finds":7,
    "next":7,
    "houses":7,
    "arms":7,
    "themselves":7,
    "lights":7,
    "several":7,
    "policemen":7,
    "cigarettes":7,
    "came":7,
    "music":7,
    "cigarette":7,
    "end":8,
    "years":8,
    "wants":8,
    "across":8,
    "kind":8,
    "town":8,
    "surprised":8,
    "chance":8,
    "embrace":8,
    "slightly":8,
    "ground":8,
    "laughing":8,
    "leaves":8,
    "others":8,
    "kiss":8,
    "directly":8,
    "clear":8,
    "feet":8,
    "swim":8,
    "sounds":8,
    "stop":8,
    "morning":8,
    "lady":8,
    "hope":8,
    "view":8,
    "theyre":8,
    "wont":8,
    "watching":8,
    "enough":8,
    "start":8,
    "talk":8,
    "returns":8,
    "wasnt":8,
    "station":8,
    "full":8,
    "shop":8,
    "sir":8,
    "information":8,
    "husband":8,
    "ive":9,
    "name":9,
    "ever":9,
    "least":9,
    "calm":9,
    "makes":9,
    "street":9,
    "pulls":9,
    "building":9,
    "follows":9,
    "taken":9,
    "closer":9,
    "made":9,
    "dark":9,
    "group":9,
    "sailor":9,
    "ashore":9,
    "climb":9,
    "silent":9,
    "followed":9,
    "wouldnt":9,
    "dead":9,
    "shes":9,
    "arrived":9,
    "saw":9,
    "beautiful":9,
    "believe":9,
    "walks":9,
    "scene":9,
    "give":9,
    "lieutenant":9,
    "corridor":9,
    "store":9,
    "bus":9,
    "remain":10,
    "conversation":10,
    "wall":10,
    "runs":10,
    "far":10,
    "taking":10,
    "leads":10,
    "dress":10,
    "feeling":10,
    "told":10,
    "three":10,
    "night":10,
    "outside":10,
    "maybe":10,
    "sure":10,
    "day":10,
    "married":10,
    "men":10,
    "walking":10,
    "police":10,
    "valise":10,
    "zuria":10,
    "goffredo":10,
    "meanwhile":11,
    "road":11,
    "having":11,
    "mean":11,
    "does":11,
    "until":11,
    "instead":11,
    "front":11,
    "many":11,
    "bed":11,
    "moves":11,
    "close":11,
    "open":11,
    "aware":11,
    "sun":11,
    "mind":11,
    "together":11,
    "ready":11,
    "those":11,
    "voice":11,
    "stay":11,
    "shark":11,
    "completely":11,
    "shore":11,
    "feel":11,
    "hut":11,
    "able":12,
    "isnt":12,
    "waiting":12,
    "keep":12,
    "ahead":12,
    "between":12,
    "wait":12,
    "tries":12,
    "heads":12,
    "sea":12,
    "got":12,
    "cabin":12,
    "woman":12,
    "ettore":12,
    "everything":12,
    "people":12,
    "knows":12,
    "marshal":12,
    "listen":12,
    "hotel":12,
    "long":13,
    "fact":13,
    "standing":13,
    "enters":13,
    "sudden":13,
    "smiles":13,
    "begins":13,
    "understand":13,
    "becomes":13,
    "gets":13,
    "once":13,
    "make":13,
    "last":13,
    "arent":13,
    "try":13,
    "said":13,
    "leave":13,
    "ask":13,
    "later":13,
    "silence":14,
    "myself":14,
    "seen":14,
    "sandros":14,
    "against":14,
    "quickly":14,
    "theres":14,
    "cant":14,
    "under":14,
    "seeing":14,
    "than":14,
    "always":14,
    "move":14,
    "saying":14,
    "thought":15,
    "alone":15,
    "thing":15,
    "small":15,
    "window":15,
    "opens":15,
    "sees":15,
    "somewhat":15,
    "himself":15,
    "old":15,
    "inside":15,
    "anything":15,
    "left":15,
    "good":15,
    "certain":16,
    "hes":16,
    "island":16,
    "head":16,
    "says":17,
    "each":17,
    "place":17,
    "steps":17,
    "through":17,
    "much":17,
    "love":17,
    "already":18,
    "take":18,
    "immediately":18,
    "such":18,
    "own":18,
    "upon":18,
    "never":18,
    "appears":18,
    "youre":18,
    "while":18,
    "must":18,
    "father":19,
    "both":19,
    "could":19,
    "same":19,
    "along":19,
    "us":19,
    "really":19,
    "before":19,
    "eyes":19,
    "being":19,
    "sound":19,
    "things":19,
    "aboard":19,
    "will":20,
    "remains":20,
    "claudias":20,
    "first":20,
    "face":20,
    "seems":20,
    "might":20,
    "nothing":20,
    "better":20,
    "another":21,
    "should":21,
    "because":21,
    "when":21,
    "lets":21,
    "thats":21,
    "find":21,
    "yacht":22,
    "side":22,
    "ill":22,
    "please":22,
    "man":22,
    "soon":22,
    "didnt":22,
    "their":22,
    "coming":22,
    "way":22,
    "been":23,
    "finally":23,
    "oh":23,
    "turn":23,
    "after":23,
    "hand":23,
    "sense":23,
    "annas":24,
    "behind":24,
    "continues":24,
    "right":24,
    "water":24,
    "heard":24,
    "off":25,
    "without":25,
    "young":25,
    "suddenly":26,
    "stops":26,
    "almost":26,
    "too":26,
    "doesnt":27,
    "did":27,
    "few":27,
    "though":27,
    "going":28,
    "your":28,
    "think":28,
    "girl":28,
    "tell":29,
    "again":29,
    "boat":29,
    "still":30,
    "something":30,
    "time":30,
    "more":32,
    "looking":33,
    "herself":33,
    "only":33,
    "were":34,
    "or":34,
    "want":34,
    "some":34,
    "yes":35,
    "two":36,
    "comes":36,
    "raimondo":36,
    "can":36,
    "also":37,
    "takes":37,
    "corrado":37,
    "moment":38,
    "any":39,
    "room":39,
    "door":40,
    "would":40,
    "had":41,
    "see":41,
    "say":42,
    "which":42,
    "car":43,
    "towards":43,
    "little":44,
    "starts":44,
    "how":45,
    "very":45,
    "my":45,
    "even":45,
    "where":46,
    "goes":46,
    "giulia":46,
    "other":47,
    "well":49,
    "get":50,
    "away":50,
    "just":50,
    "im":50,
    "patrizia":51,
    "an":53,
    "come":53,
    "down":55,
    "about":56,
    "here":56,
    "go":56,
    "back":57,
    "not":58,
    "no":59,
    "now":59,
    "them":59,
    "":60,
    "into":61,
    "like":61,
    "if":62,
    "know":63,
    "looks":63,
    "was":63,
    "we":65,
    "turns":66,
    "why":66,
    "its":69,
    "look":72,
    "dont":72,
    "has":73,
    "around":74,
    "who":79,
    "anna":80,
    "this":80,
    "over":83,
    "do":83,
    "there":87,
    "one":90,
    "so":91,
    "all":91,
    "by":91,
    "be":99,
    "they":100,
    "are":102,
    "him":102,
    "from":102,
    "out":103,
    "what":104,
    "for":114,
    "me":114,
    "have":119,
    "on":131,
    "his":133,
    "up":140,
    "then":140,
    "as":143,
    "he":182,
    "at":196,
    "with":203,
    "but":220,
    "sandro":227,
    "in":238,
    "that":241,
    "it":243,
    "claudia":247,
    "her":253,
    "she":260,
    "i":267,
    "is":354,
    "you":387,
    "of":435,
    "a":566,
    "and":639,
    "to":699,
    "the":1130
}