{
    "early":1,
    "worked":1,
    "six":1,
    "fell":1,
    "roof":1,
    "replies":1,
    "mantle":1,
    "fireplace":1,
    "various":1,
    "settings":1,
    "recently":1,
    "posed":1,
    "american":1,
    "flag":1,
    "slumping":1,
    "midnight":1,
    "absently":1,
    "cereal":1,
    "bowl":1,
    "\u2018til":1,
    "breakfast":1,
    "shouldering":1,
    "swallowing":1,
    "extends":1,
    "interest":1,
    "calls":1,
    "obviously":1,
    "thirsty":1,
    "exercise":1,
    "must":1,
    "miles":1,
    "lived":1,
    "ruefully":1,
    "wednesday":1,
    "sooner":1,
    "shrapnel":1,
    "rain":1,
    "umdavid":1,
    "specifically":1,
    "lifts":1,
    "intention":1,
    "emails":1,
    "works":1,
    "nights":1,
    "sleeps":1,
    "she\u2019d":1,
    "bedsheets":1,
    "underwear":1,
    "blink":1,
    "figure":1,
    "challenge":1,
    "crept":1,
    "cot":1,
    "tube":1,
    "superglueoh":1,
    "shortskirted":1,
    "confusion":1,
    "extending":1,
    "pleased":1,
    "releases":1,
    "\u201cma\u2019am\u201d":1,
    "live":1,
    "originally":1,
    "lauderdale":1,
    "folks":1,
    "nothin\u2019":1,
    "noticed":1,
    "motel":1,
    "highway":1,
    "likely":1,
    "nonsense":1,
    "plenty":1,
    "insist":1,
    "likewise":1,
    "sports":1,
    "posters":1,
    "trophies":1,
    "diploma":1,
    "towels":1,
    "freshen":1,
    "comfortable":1,
    "slung":1,
    "thumbs":1,
    "straps":1,
    "jerseys":1,
    "shoving":1,
    "slouching":1,
    "slumps":1,
    "pussy":1,
    "laugh":1,
    "stays":1,
    "teenagers":1,
    "boisterously":1,
    "cross":1,
    "pause":1,
    "invite":1,
    "squad":1,
    "ptsd":1,
    "problems":1,
    "different":1,
    "whispered":1,
    "words":1,
    "unintelligible":1,
    "clearly":1,
    "fighting":1,
    "selfconsciously":1,
    "swollen":1,
    "eye":1,
    "gym":1,
    "class":1,
    "glad":1,
    "kindly":1,
    "desert":1,
    "positioned":1,
    "mid20s":1,
    "marijuana":1,
    "belongs":1,
    "gravel":1,
    "tinny":1,
    "batterypowered":1,
    "boombox":1,
    "bootlaces":1,
    "inhaling":1,
    "sticking":1,
    "we\u2019ve":1,
    "reminders":1,
    "kept":1,
    "shrine":1,
    "dies":1,
    "reminder":1,
    "hanging":1,
    "kiss":1,
    "embraces":1,
    "kissing":1,
    "sine":1,
    "angle":1,
    "ship\u2019s":1,
    "anchor":1,
    "hypotenuse":1,
    "ocean":1,
    "bottom":1,
    "television":1,
    "smart":1,
    "twentyone":1,
    "assuming":1,
    "sociable":1,
    "lie":1,
    "imperceptible":1,
    "doorknob":1,
    "interrupted":1,
    "locking":1,
    "since":1,
    "degree":1,
    "manageri":1,
    "wonders":1,
    "ever":1,
    "immersed":1,
    "wife":1,
    "given":1,
    "contracting":1,
    "crazy":1,
    "jobs":1,
    "impose":1,
    "hospitality":1,
    "\u201csir\u201d":1,
    "celebrate":1,
    "sleep":1,
    "moonlight":1,
    "breeze":1,
    "barren":1,
    "branches":1,
    "tree":1,
    "creaking":1,
    "dozens":1,
    "pour":1,
    "slouches":1,
    "among":1,
    "edge":1,
    "exiting":1,
    "lots":1,
    "yesterday":1,
    "real":1,
    "assholes":1,
    "blond":1,
    "driven":1,
    "girlfriends":1,
    "wagon":1,
    "bar\u2019s":1,
    "dive":1,
    "nearly":1,
    "manned":1,
    "lone":1,
    "including":1,
    "gathered":1,
    "equal":1,
    "waves":1,
    "chill":1,
    "bartender\u2019s":1,
    "reluctant":1,
    "cinnamon":1,
    "schnapps":1,
    "tabasco":1,
    "sauce":1,
    "yep":1,
    "cheap":1,
    "places":1,
    "lays":1,
    "rich":1,
    "hums":1,
    "jukebox":1,
    "drumming":1,
    "approaches":1,
    "cosmos":1,
    "hot":1,
    "peppers":1,
    "tray":1,
    "irish":1,
    "cream":1,
    "pink":1,
    "martinis":1,
    "apprehensively":1,
    "mess":1,
    "welcome":1,
    "flings":1,
    "wipes":1,
    "instead":1,
    "lightly":1,
    "blind":1,
    "fist":1,
    "bursts":1,
    "ha":1,
    "wow":1,
    "attempts":1,
    "tackle":1,
    "jason\u2019s":1,
    "spun":1,
    "blurred":1,
    "vision":1,
    "stomping":1,
    "ankle":1,
    "crack":1,
    "losing":1,
    "consciousness":1,
    "neatly":1,
    "sidesteps":1,
    "pins":1,
    "jabs":1,
    "dribbling":1,
    "jersey":1,
    "roll":1,
    "faints":1,
    "cowering":1,
    "wake":1,
    "word":1,
    "defensively":1,
    "truth":1,
    "gang":1,
    "kids":1,
    "demanded":1,
    "threatened":1,
    "cause":1,
    "imagine":1,
    "serving":1,
    "minors":1,
    "damages":1,
    "sunlight":1,
    "house\u2019s":1,
    "automated":1,
    "winces":1,
    "touching":1,
    "ow":1,
    "definitely":1,
    "freezer":1,
    "gathers":1,
    "handful":1,
    "cubes":1,
    "dishcloth":1,
    "brain":1,
    "helped":1,
    "knuckles":1,
    "saw":1,
    "usual":1,
    "teach":1,
    "self":1,
    "defense":1,
    "relieved":1,
    "card":1,
    "inaudible":1,
    "storms":1,
    "robe":1,
    "shave":1,
    "wasnever":1,
    "faces":1,
    "lower":1,
    "steamy":1,
    "borrowed":1,
    "size":1,
    "lives":1,
    "neither":1,
    "keeping":1,
    "none":1,
    "gratefully":1,
    "doorbell":1,
    "attractive":1,
    "cat":1,
    "ears":1,
    "tail":1,
    "hugs":1,
    "unlocked":1,
    "potentially":1,
    "pointers":1,
    "likes":1,
    "dislikes":1,
    "porch":1,
    "ugh":1,
    "wish":1,
    "houseguest":1,
    "tap":1,
    "disappears":1,
    "craigsure":1,
    "walked":1,
    "glaring":1,
    "antagonistically":1,
    "ex":1,
    "rude":1,
    "asshole":1,
    "pushing":1,
    "prone":1,
    "drag":1,
    "applause":1,
    "fuckin\u2019":1,
    "teenager":1,
    "cheerleader":1,
    "breathlessly":1,
    "swift":1,
    "motion":1,
    "hippies":1,
    "enlisting":1,
    "asthma":1,
    "sofa":1,
    "patting":1,
    "grins":1,
    "fun":1,
    "fancy":1,
    "disposable":1,
    "number\u2019s":1,
    "perfect":1,
    "tour":1,
    "weeks":1,
    "exhaling":1,
    "inhales":1,
    "surprised":1,
    "shrink":1,
    "smoothly":1,
    "stoned":1,
    "sober":1,
    "unlocks":1,
    "gears":1,
    "fastens":1,
    "1980s":1,
    "playing":1,
    "slower":1,
    "argument":1,
    "band":1,
    "saving":1,
    "job":1,
    "sells":1,
    "extra":1,
    "adjusts":1,
    "rearview":1,
    "fool":1,
    "noise":1,
    "east":1,
    "mix":1,
    "bedrooms":1,
    "inviting":1,
    "shirt":1,
    "bookshelf":1,
    "marker":1,
    "writes":1,
    "c":1,
    "orthodontist":1,
    "pacing":1,
    "waited":1,
    "backyard":1,
    "meant":1,
    "propped":1,
    "webpage":1,
    "helps":1,
    "nothing\u2019s":1,
    "veterans":1,
    "affairs":1,
    "telephone":1,
    "button":1,
    "terminating":1,
    "records":1,
    "search":1,
    "form":1,
    "rank":1,
    "social":1,
    "security":1,
    "displayed":1,
    "alert":1,
    "banner":1,
    "reads":1,
    "\u201crecord":1,
    "classified":1,
    "corp":1,
    "immediately\u201d":1,
    "employee":1,
    "30s":1,
    "bearing":1,
    "logo":1,
    "device":1,
    "deceased":1,
    "official":1,
    "version":1,
    "slips":1,
    "executives":1,
    "attire":1,
    "discuss":1,
    "future":1,
    "project":1,
    "aegolius\u2019":1,
    "dissolution":1,
    "nor":1,
    "however":1,
    "saythere":1,
    "knock":1,
    "interrupting":1,
    "something\u2019s":1,
    "curtly":1,
    "perusing":1,
    "receive":1,
    "ided":1,
    "caller":1,
    "confirmed":1,
    "nullified":1,
    "address":1,
    "hurries":1,
    "flight":1,
    "charter":1,
    "shooters":1,
    "asks":1,
    "circle":1,
    "active":1,
    "understood":1,
    "blowback":1,
    "dry":1,
    "plane":1,
    "booked":1,
    "heads":1,
    "abandoned":1,
    "tattooed":1,
    "appearing":1,
    "horizon":1,
    "approach":1,
    "way\u2019s":1,
    "felt":1,
    "apologetically":1,
    "indeed":1,
    "seem":1,
    "brought":1,
    "options":1,
    "prices":1,
    "vary":1,
    "condition":1,
    "boxes":1,
    "load":1,
    "laying":1,
    "beretta":1,
    "fired":1,
    "nine":1,
    "millimeter":1,
    "witness":1,
    "prefer":1,
    "recoil":1,
    "action":1,
    "chrome":1,
    "apart":1,
    "piece":1,
    "navy":1,
    "myself":1,
    "\u2018course":1,
    "pieces":1,
    "reassembling":1,
    "funny":1,
    "boy":1,
    "comedavid":1,
    "tightly":1,
    "snatches":1,
    "wide":1,
    "tries":1,
    "cock":1,
    "rotates":1,
    "squeezes":1,
    "harder":1,
    "stopping":1,
    "loaded":1,
    "centimeter":1,
    "free":1,
    "loads":1,
    "cocking":1,
    "slack":1,
    "pan":1,
    "stove":1,
    "sweetie":1,
    "cabinet":1,
    "tumbler":1,
    "girlfriend":1,
    "pills":1,
    "prescriptions":1,
    "suicide":1,
    "pact":1,
    "god":1,
    "sense":1,
    "investigating":1,
    "bruises":1,
    "dying":1,
    "cancer":1,
    "damned":1,
    "means":1,
    "manager":1,
    "corporate":1,
    "offering":1,
    "salary":1,
    "shopping":1,
    "colleague":1,
    "answering":1,
    "woods":1,
    "stairs":1,
    "tossing":1,
    "who\u2019d":1,
    "finish":1,
    "sebastian":1,
    "break":1,
    "pumpkins":1,
    "placed":1,
    "layer":1,
    "newspaper":1,
    "concrete":1,
    "scoop":1,
    "guts":1,
    "steak":1,
    "sawing":1,
    "effort":1,
    "examining":1,
    "parents\u2019":1,
    "suck":1,
    "carving":1,
    "drums":1,
    "weird":1,
    "idaho":1,
    "oxygen":1,
    "tanks":1,
    "common":1,
    "talked":1,
    "emailed":1,
    "brown":1,
    "acne":1,
    "seriously":1,
    "credit":1,
    "cards":1,
    "wallet":1,
    "computers":1,
    "coworkers":1,
    "bandana":1,
    "grill":1,
    "chef":1,
    "apron":1,
    "nodding":1,
    "customers":1,
    "couple\u2019s":1,
    "advice":1,
    "beat":1,
    "houses":1,
    "families":1,
    "particularly":1,
    "convinced":1,
    "giving":1,
    "yours":1,
    "join":1,
    "chair":1,
    "jacked":1,
    "draped":1,
    "casually":1,
    "store":1,
    "mom\u2019s":1,
    "pie":1,
    "wiped":1,
    "tip":1,
    "innocent":1,
    "receiver":1,
    "muster":1,
    "bravado":1,
    "searched":1,
    "bail":1,
    "\u2018cause":1,
    "wrap":1,
    "baby":1,
    "crying":1,
    "roomdining":1,
    "roomkitchen":1,
    "mascara":1,
    "sniffling":1,
    "trigonometry":1,
    "prepares":1,
    "food":1,
    "reading":1,
    "distraught":1,
    "state":1,
    "murdered":1,
    "goodness":1,
    "shooting":1,
    "radio":1,
    "reason":1,
    "pillar":1,
    "community":1,
    "blaze":1,
    "fury":1,
    "date":1,
    "houseanna":1,
    "absolutely":1,
    "druggy":1,
    "burnout":1,
    "seventeenanna":1,
    "silverware":1,
    "everyone\u2019s":1,
    "best":1,
    "sent":1,
    "intelligence":1,
    "providing":1,
    "story":1,
    "civilians":1,
    "forks":1,
    "pants":1,
    "metal":1,
    "bear":1,
    "\u201ccollins":1,
    "wear":1,
    "current":1,
    "documents":1,
    "owe":1,
    "apology":1,
    "crew":1,
    "authority":1,
    "bunch":1,
    "pot":1,
    "dealers":1,
    "murder":1,
    "explained":1,
    "earlier":1,
    "supposed":1,
    "scrolls":1,
    "contacts":1,
    "bringing":1,
    "\u201ccraig\u201d":1,
    "craig\u2019s":1,
    "matches":1,
    "stressful":1,
    "waits":1,
    "elevator":1,
    "suitcase":1,
    "every":1,
    "contractor":1,
    "radius":1,
    "exmilitary":1,
    "mobilized":1,
    "specs":1,
    "person":1,
    "risk":1,
    "leak":1,
    "engine":1,
    "paid":1,
    "reverse":1,
    "directory":1,
    "unlisted":1,
    "landline":1,
    "peter":1,
    "boddington":1,
    "except":1,
    "anymore":1,
    "performed":1,
    "drunk":1,
    "uncle":1,
    "cops":1,
    "assume":1,
    "investigation\u2019s":1,
    "plea":1,
    "mildly":1,
    "suspicious":1,
    "stole":1,
    "research":1,
    "reopen":1,
    "password":1,
    "database":1,
    "paper":1,
    "year":1,
    "pensive":1,
    "arrest":1,
    "reports":1,
    "public":1,
    "record":1,
    "aisle":1,
    "rows":1,
    "desks":1,
    "lowered":1,
    "internet":1,
    "browser":1,
    "nose":1,
    "balefully":1,
    "pokes":1,
    "pencil":1,
    "someone":1,
    "sex":1,
    "operation":1,
    "largely":1,
    "ineffective":1,
    "surprise":1,
    "reels":1,
    "rage":1,
    "bitchjason":1,
    "chalkboard":1,
    "furiously":1,
    "swung":1,
    "catches":1,
    "splinters":1,
    "everywhere":1,
    "stumbles":1,
    "yells":1,
    "catching":1,
    "adjoining":1,
    "disapproving":1,
    "kneels":1,
    "uncomfortably":1,
    "extremely":1,
    "calm":1,
    "due":1,
    "zero":1,
    "tolerance":1,
    "policy":1,
    "expel":1,
    "pending":1,
    "decision":1,
    "fairly":1,
    "certain":1,
    "pauses":1,
    "what\u2019shisname":1,
    "excusedavid":1,
    "perpetrated":1,
    "student":1,
    "targeted":1,
    "physical":1,
    "finally":1,
    "defends":1,
    "suspending":1,
    "consider":1,
    "suspension":1,
    "entire":1,
    "mention":1,
    "lawyers":1,
    "sue":1,
    "suing":1,
    "desperately":1,
    "prom":1,
    "committee":1,
    "agree":1,
    "harassed":1,
    "certainly":1,
    "vacated":1,
    "speak":1,
    "row":1,
    "deserted":1,
    "connection":1,
    "appearance":1,
    "scar":1,
    "prints":1,
    "sort":1,
    "rare":1,
    "interesting":1,
    "theory":1,
    "dad\u2019s":1,
    "curiously":1,
    "eyeopening":1,
    "realized":1,
    "homosexual":1,
    "matter":1,
    "solid":1,
    "plan":1,
    "grateful":1,
    "clothespin":1,
    "held":1,
    "sheet":1,
    "sheets":1,
    "articles":1,
    "beside":1,
    "item":1,
    "clips":1,
    "straightening":1,
    "petersons\u2019":1,
    "asking":1,
    "named":1,
    "manila":1,
    "younger":1,
    "shaved":1,
    "gown":1,
    "blankly":1,
    "camera":1,
    "resembling":1,
    "heat":1,
    "basked":1,
    "policemen":1,
    "stare":1,
    "wideeyed":1,
    "shock":1,
    "agape":1,
    "holsters":1,
    "driver":1,
    "fumbling":1,
    "mps":1,
    "trunk":1,
    "braces":1,
    "surrounding":1,
    "gunshots":1,
    "manning":1,
    "swivels":1,
    "path":1,
    "pummeling":1,
    "spent":1,
    "casings":1,
    "spill":1,
    "finger":1,
    "hushing":1,
    "honest":1,
    "explain":1,
    "considered":1,
    "assist":1,
    "complications":1,
    "shoot":1,
    "gazes":1,
    "doorways":1,
    "realization":1,
    "helpdavid":1,
    "stabs":1,
    "heart":1,
    "chest":1,
    "fifteen":1,
    "firing":1,
    "jumping":1,
    "scrambles":1,
    "pivot":1,
    "heavy":1,
    "fires":1,
    "landing":1,
    "stomps":1,
    "gas":1,
    "pedal":1,
    "burst":1,
    "hitting":1,
    "accelerates":1,
    "aiming":1,
    "hellthe":1,
    "swerves":1,
    "airbag":1,
    "deploys":1,
    "impact":1,
    "crushing":1,
    "billows":1,
    "twists":1,
    "breaking":1,
    "lets":1,
    "deflating":1,
    "wrecked":1,
    "caved":1,
    "fields":1,
    "pursuit":1,
    "wreck":1,
    "accident":1,
    "blinkers":1,
    "billfold":1,
    "badge":1,
    "uturn":1,
    "speeding":1,
    "milkshake":1,
    "employees":1,
    "whoa":1,
    "anywhere":1,
    "cleaning":1,
    "cloth":1,
    "addressing":1,
    "intext":1,
    "cautiously":1,
    "nervous":1,
    "hi":1,
    "closer":1,
    "friendly":1,
    "charming":1,
    "dropping":1,
    "pin":1,
    "shatter":1,
    "outwards":1,
    "billowing":1,
    "alarm":1,
    "beeping":1,
    "send":1,
    "answers":1,
    "medical":1,
    "spine":1,
    "damaged":1,
    "combat":1,
    "surgery":1,
    "volunteered":1,
    "receptors":1,
    "allow":1,
    "consciously":1,
    "regulate":1,
    "flow":1,
    "control":1,
    "fear":1,
    "responses":1,
    "push":1,
    "lose":1,
    "less":1,
    "changed":1,
    "study":1,
    "escaped":1,
    "confuse":1,
    "initially":1,
    "cold":1,
    "tested":1,
    "psychopath":1,
    "accounts":1,
    "ideal":1,
    "chosen":1,
    "empathy":1,
    "levels":1,
    "guilt":1,
    "sadness":1,
    "choose":1,
    "affect":1,
    "behavior":1,
    "dials":1,
    "stacks":1,
    "bales":1,
    "grim":1,
    "reaper":1,
    "flaming":1,
    "lantern":1,
    "teacher":1,
    "charge":1,
    "nearby":1,
    "phones":1,
    "ringing":1,
    "message":1,
    "important":1,
    "typing":1,
    "text":1,
    "speeds":1,
    "siren":1,
    "blaring":1,
    "cop":1,
    "somebody":1,
    "attacked":1,
    "presumably":1,
    "explosion":1,
    "alive":1,
    "mentioned":1,
    "grimaces":1,
    "grows":1,
    "panicked":1,
    "threat":1,
    "neurological":1,
    "conditioning":1,
    "designed":1,
    "protect":1,
    "feels":1,
    "identity":1,
    "may":1,
    "compromised":1,
    "programmed":1,
    "loose":1,
    "doubt":1,
    "somewhere":1,
    "parks":1,
    "sun":1,
    "decorations":1,
    "themselves":1,
    "shaped":1,
    "enormous":1,
    "mazes":1,
    "pairs":1,
    "tradition":1,
    "jacko\u2019lantern\u2019s":1,
    "painted":1,
    "stepping":1,
    "response":1,
    "grunts":1,
    "rubber":1,
    "parts":1,
    "scowls":1,
    "continuing":1,
    "animatronic":1,
    "clowns":1,
    "rotate":1,
    "forth":1,
    "pivoting":1,
    "withabruptly":1,
    "spotlight":1,
    "ball":1,
    "reflecting":1,
    "swirling":1,
    "spots":1,
    "whirring":1,
    "notes":1,
    "listened":1,
    "echo":1,
    "speakers":1,
    "installed":1,
    "draws":1,
    "ismajor":1,
    "controlled":1,
    "loft":1,
    "overhanging":1,
    "dj":1,
    "attic":1,
    "vanishing":1,
    "although":1,
    "slow":1,
    "crossing":1,
    "vanishes":1,
    "bleed":1,
    "minute":1,
    "creating":1,
    "arterial":1,
    "wafts":1,
    "shouldn\u2019t":1,
    "elbows":1,
    "seemingly":1,
    "focused":1,
    "distant":1,
    "goal":1,
    "expected":1,
    "uninjured":1,
    "pools":1,
    "growing":1,
    "leaving":1,
    "hallways":1,
    "rattles":1,
    "flinch":1,
    "foggy":1,
    "hears":1,
    "electronic":1,
    "lead":1,
    "unless":1,
    "herself":1,
    "backtracks":1,
    "scarecrow":1,
    "solution":1,
    "hidden":1,
    "lightning":1,
    "source":1,
    "peers":1,
    "scraping":1,
    "chain":1,
    "link":1,
    "fence":1,
    "lines":1,
    "point":1,
    "locked":1,
    "passes":1,
    "nearing":1,
    "perfectly":1,
    "listening":1,
    "buddy":1,
    "clutching":1,
    "crashing":1,
    "unnatural":1,
    "maze\u2019s":1,
    "gasping":1,
    "racing":1,
    "moved":1,
    "imperceptibly":1,
    "claws":1,
    "compresses":1,
    "arteries":1,
    "struggles":1,
    "knees":1,
    "frantically":1,
    "pull":1,
    "exertion":1,
    "bale":1,
    "filling":1,
    "flickering":1,
    "illuminates":1,
    "releasing":1,
    "coughing":1,
    "sucking":1,
    "tearfully":1,
    "shaking":1,
    "coughs":1,
    "flecking":1,
    "blame":1,
    "crouched":1,
    "igniting":1,
    "engulfed":1,
    "steadily":1,
    "supports":1,
    "fade":1,
    "extinguished":1,
    "building\u2019s":1,
    "burnt":1,
    "portions":1,
    "firemen":1,
    "equipment":1,
    "flashing":1,
    "shines":1,
    "volunteer":1,
    "firefighter":1,
    "jogs":1,
    "teeth":1,
    "knocked":1,
    "clear":1,
    "protection":1,
    "gear":1,
    "activity":1,
    "smoldering":1,
    "darkness":1,
    "field":1,
    "morning":2,
    "asleep":2,
    "respect":2,
    "rules":2,
    "above":2,
    "photos":2,
    "most":2,
    "soldiers":2,
    "car\u2019s":2,
    "asked":2,
    "college":2,
    "backpack":2,
    "bye":2,
    "briefly":2,
    "served":2,
    "ice":2,
    "ran":2,
    "needed":2,
    "far":2,
    "directions":2,
    "mile":2,
    "wounded":2,
    "things":2,
    "whole":2,
    "until":2,
    "exchange":2,
    "sister":2,
    "saying":2,
    "polite":2,
    "laughter":2,
    "echoes":2,
    "nah":2,
    "politely":2,
    "promised":2,
    "louisville":2,
    "miami":2,
    "staying":2,
    "we\u2019d":2,
    "argue":2,
    "clears":2,
    "throat":2,
    "leaves":2,
    "adorned":2,
    "framed":2,
    "rests":2,
    "carries":2,
    "senior":2,
    "notices":2,
    "shoves":2,
    "lockers":2,
    "pass":2,
    "street":2,
    "shouting":2,
    "short":2,
    "stranger":2,
    "fair":2,
    "conversation":2,
    "barely":2,
    "paying":2,
    "happen":2,
    "dinner":2,
    "hill":2,
    "sky":2,
    "plays":2,
    "checks":2,
    "boots":2,
    "tying":2,
    "brother\u2019s":2,
    "hope":2,
    "liked":2,
    "seemed":2,
    "enough":2,
    "normal":2,
    "hard":2,
    "goodbye":2,
    "cable":2,
    "opposite":2,
    "punch":2,
    "easy":2,
    "reply":2,
    "sometimes":2,
    "regional":2,
    "florida":2,
    "business":2,
    "name\u2019s":2,
    "liquor":2,
    "fully":2,
    "dressed":2,
    "shift":2,
    "sees":2,
    "driver\u2019s":2,
    "school\u2019s":2,
    "worst":2,
    "ian\u2019s":2,
    "hair":2,
    "pickup":2,
    "trucks":2,
    "climb":2,
    "serve":2,
    "team":2,
    "gives":2,
    "gaze":2,
    "choice":2,
    "coke":2,
    "notice":2,
    "ladies":2,
    "shame":2,
    "blowjob":2,
    "serious":2,
    "bill":2,
    "fellas":2,
    "cosmopolitan":2,
    "here\u2019s":2,
    "loudly":2,
    "annoyed":2,
    "contents":2,
    "calmly":2,
    "blinking":2,
    "screams":2,
    "ducks":2,
    "hits":2,
    "knocking":2,
    "brings":2,
    "knee":2,
    "sending":2,
    "flying":2,
    "dazed":2,
    "kick":2,
    "cue":2,
    "breaks":2,
    "bones":2,
    "staggers":2,
    "grasp":2,
    "protruding":2,
    "unconscious":2,
    "raises":2,
    "weapon":2,
    "tried":2,
    "fight":2,
    "happens":2,
    "bills":2,
    "half":2,
    "concussion":2,
    "dude":2,
    "pockets":2,
    "picking":2,
    "needs":2,
    "bandage":2,
    "who\u2019s":2,
    "shoots":2,
    "smoking":2,
    "kegs":2,
    "bring":2,
    "helpful":2,
    "blunt":2,
    "incredulous":2,
    "hang":2,
    "trust":2,
    "goddammit":2,
    "trails":2,
    "telling":2,
    "listen":2,
    "shattering":2,
    "lift":2,
    "arms":2,
    "awesome":2,
    "picture":2,
    "photograph":2,
    "new":2,
    "cigarette":2,
    "uncomfortable":2,
    "messing":2,
    "hundred":2,
    "using":2,
    "burner":2,
    "peering":2,
    "keys":2,
    "bigger":2,
    "goth":2,
    "dating":2,
    "drug":2,
    "dealer":2,
    "drugs":2,
    "footsteps":2,
    "collapses":2,
    "ceiling":2,
    "possible":2,
    "money\u2019s":2,
    "issue":2,
    "copy":2,
    "netbook":2,
    "unit":2,
    "contact":2,
    "woman":2,
    "headset":2,
    "bluetooth":2,
    "similar":2,
    "hendricks":2,
    "richard":2,
    "details":2,
    "interrupt":2,
    "rising":2,
    "excuse":2,
    "alongside":2,
    "closes":2,
    "happening":2,
    "hung":2,
    "along":2,
    "reaching":2,
    "envelope":2,
    "opening":2,
    "rifle":2,
    "handgun":2,
    "handguns":2,
    "flat":2,
    "area":2,
    "elite":2,
    "checking":2,
    "kill":2,
    "hammer":2,
    "aim":2,
    "pale":2,
    "pours":2,
    "boss":2,
    "missing":2,
    "they\u2019d":2,
    "taken":2,
    "bags":2,
    "ear":2,
    "hello":2,
    "everyone":2,
    "stoop":2,
    "covering":2,
    "hole":2,
    "resumes":2,
    "looked":2,
    "considers":2,
    "seen":2,
    "pair":2,
    "forever":2,
    "burn":2,
    "others":2,
    "city":2,
    "anonymous":2,
    "they\u2019ll":2,
    "listens":2,
    "lawyer":2,
    "guard":2,
    "swallows":2,
    "gotta":2,
    "run":2,
    "exboyfriend":2,
    "stopped":2,
    "daughter":2,
    "points":2,
    "special":2,
    "forces":2,
    "injured":2,
    "cover":2,
    "dog":2,
    "tags":2,
    "license":2,
    "necessary":2,
    "lady":2,
    "respond":2,
    "perspective":2,
    "trembling":2,
    "emerges":2,
    "dimly":2,
    "lit":2,
    "within":2,
    "land":2,
    "mission":2,
    "took":2,
    "desk":2,
    "bruised":2,
    "explodes":2,
    "remains":2,
    "secretary\u2019s":2,
    "secretary":2,
    "mister":2,
    "violence":2,
    "crime":2,
    "gay":2,
    "thinks":2,
    "regarding":2,
    "frowning":2,
    "weren\u2019t":2,
    "clothesline":2,
    "towel":2,
    "rear":2,
    "large":2,
    "peterson\u2019s":2,
    "duffel":2,
    "shatters":2,
    "follow":2,
    "streaked":2,
    "expression":2,
    "screaming":2,
    "blade":2,
    "seconds":2,
    "hesitant":2,
    "tires":2,
    "straightens":2,
    "ends":2,
    "lurching":2,
    "crashed":2,
    "vehicles":2,
    "emergency":2,
    "hurriedly":2,
    "ms":2,
    "splattered":2,
    "surveying":2,
    "diner\u2019s":2,
    "flashes":2,
    "starting":2,
    "experiment":2,
    "procedure":2,
    "adrenaline":2,
    "burned":2,
    "trail":2,
    "hay":2,
    "dummy":2,
    "curtain":2,
    "lyles\u2019":2,
    "butcher":2,
    "fake":2,
    "checkered":2,
    "spinning":2,
    "overhead":2,
    "finds":2,
    "major\u2019s":2,
    "quiet":2,
    "silently":2,
    "evening":2,
    "hide":2,
    "chamber\u2019s":2,
    "butterfly":2,
    "directly":2,
    "speed":2,
    "limps":2,
    "went":3,
    "alone":3,
    "closing":3,
    "jacko\u2019lantern":3,
    "young":3,
    "folded":3,
    "frame":3,
    "yet":3,
    "flushes":3,
    "interested":3,
    "drive":3,
    "safe":3,
    "shake":3,
    "together":3,
    "water":3,
    "bus":3,
    "station":3,
    "twenty":3,
    "started":3,
    "gave":3,
    "kennilworth":3,
    "worry":3,
    "close":3,
    "hold":3,
    "remember":3,
    "upset":3,
    "puzzled":3,
    "sounds":3,
    "mother":3,
    "show":3,
    "surveys":3,
    "stack":3,
    "clothes":3,
    "shutting":3,
    "completely":3,
    "older":3,
    "boys":3,
    "laughing":3,
    "lowers":3,
    "watch":3,
    "part":3,
    "spins":3,
    "addresses":3,
    "fucking":3,
    "continue":3,
    "leaning":3,
    "whatever":3,
    "glares":3,
    "touches":3,
    "attention":3,
    "suit":3,
    "living":3,
    "hour":3,
    "homework":3,
    "blanket":3,
    "pipe":3,
    "air":3,
    "finishes":3,
    "rolls":3,
    "they\u2019ve":3,
    "breathing":3,
    "laughs":3,
    "distance":3,
    "computer":3,
    "drinking":3,
    "shuts":3,
    "locks":3,
    "busy":3,
    "try":3,
    "month":3,
    "helping":3,
    "feeling":3,
    "allan":3,
    "four":3,
    "years":3,
    "suddenly":3,
    "money":3,
    "start":3,
    "online":3,
    "stick":3,
    "round":3,
    "tired":3,
    "age":3,
    "students":3,
    "ground":3,
    "pick":3,
    "today":3,
    "little":3,
    "waiting":3,
    "mike\u2019s":3,
    "hesitantly":3,
    "booths":3,
    "shit":3,
    "fuck":3,
    "shots":3,
    "taps":3,
    "setting":3,
    "filled":3,
    "girl":3,
    "play":3,
    "hate":3,
    "tosses":3,
    "swings":3,
    "blair":3,
    "abruptly":3,
    "smashes":3,
    "broken":3,
    "shoulder":3,
    "startled":3,
    "falling":3,
    "otherwise":3,
    "seeing":3,
    "seven":3,
    "clothing":3,
    "rings":3,
    "getting":3,
    "stand":3,
    "carefully":3,
    "gestures":3,
    "talking":3,
    "weight":3,
    "frozen":3,
    "shouts":3,
    "broke":3,
    "support":3,
    "makes":3,
    "soldier":3,
    "set":3,
    "let\u2019s":3,
    "shifting":3,
    "belt":3,
    "song":3,
    "middle":3,
    "goodnight":3,
    "entering":3,
    "taking":3,
    "case":3,
    "andersen":3,
    "wrong":3,
    "kenilworth":3,
    "sergeant":3,
    "shows":3,
    "folder":3,
    "further":3,
    "many":3,
    "subjects":3,
    "direction":3,
    "rock":3,
    "where\u2019s":3,
    "you\u2019ve":3,
    "bullets":3,
    "snaps":3,
    "everything":3,
    "higgins\u2019":3,
    "bullet":3,
    "base":3,
    "ask":3,
    "whiskey":3,
    "worried":3,
    "babe":3,
    "shocked":3,
    "knives":3,
    "pumpkin":3,
    "knows":3,
    "counter":3,
    "jail":3,
    "prison":3,
    "confused":3,
    "breath":3,
    "doctor":3,
    "full":3,
    "faggot":3,
    "pain":3,
    "shattered":3,
    "principal\u2019s":3,
    "appears":3,
    "surgeon":3,
    "lips":3,
    "white":3,
    "laundry":3,
    "basket":3,
    "corners":3,
    "working":3,
    "carver\u2019s":3,
    "driving":3,
    "past":3,
    "cars":3,
    "corpse":3,
    "smile":3,
    "scream":3,
    "grenade":3,
    "subject":3,
    "bodies":3,
    "halloween":3,
    "walls":3,
    "turning":3,
    "deeper":3,
    "reflections":3,
    "shape":3,
    "crawling":3,
    "corridor":3,
    "disappearing":3,
    "flames":3,
    "late":4,
    "under":4,
    "without":4,
    "plastic":4,
    "smiling":4,
    "group":4,
    "glass":4,
    "these":4,
    "driveway":4,
    "girls":4,
    "fall":4,
    "town":4,
    "made":4,
    "only":4,
    "discharged":4,
    "came":4,
    "straight":4,
    "hospital":4,
    "pretty":4,
    "loved":4,
    "silence":4,
    "meet":4,
    "having":4,
    "alright":4,
    "closed":4,
    "than":4,
    "bad":4,
    "week":4,
    "gone":4,
    "big":4,
    "tomorrow":4,
    "love":4,
    "old":4,
    "tonight":4,
    "followed":4,
    "you\u2019d":4,
    "walk":4,
    "between":4,
    "steering":4,
    "parked":4,
    "coming":4,
    "sit":4,
    "huh":4,
    "red":4,
    "hastings":4,
    "truck":4,
    "offers":4,
    "move":4,
    "hell":4,
    "totally":4,
    "stuff":4,
    "numbers":4,
    "doorway":4,
    "rapidly":4,
    "heading":4,
    "figured":4,
    "couple":4,
    "idea":4,
    "place":4,
    "steers":4,
    "patrons":4,
    "fireball":4,
    "100":4,
    "might":4,
    "keep":4,
    "cash":4,
    "used":4,
    "turn":4,
    "running":4,
    "drops":4,
    "pool":4,
    "blair\u2019s":4,
    "trouble":4,
    "leading":4,
    "follows":4,
    "puts":4,
    "isn\u2019t":4,
    "deal":4,
    "carry":4,
    "strides":4,
    "calling":4,
    "being":4,
    "shifts":4,
    "drew\u2019s":4,
    "rest":4,
    "picks":4,
    "better":4,
    "believe":4,
    "few":4,
    "shrugs":4,
    "cd":4,
    "narrow":4,
    "reach":4,
    "blank":4,
    "already":4,
    "feel":4,
    "screen":4,
    "information":4,
    "halway":4,
    "board":4,
    "light":4,
    "quarry":4,
    "thick":4,
    "almost":4,
    "people":4,
    "himself":4,
    "hurt":4,
    "booth":4,
    "arrested":4,
    "bag":4,
    "classroom":4,
    "several":4,
    "wooden":4,
    "yardstick":4,
    "afraid":4,
    "he\u2019d":4,
    "tears":4,
    "man\u2019s":4,
    "ambulance":4,
    "entry":4,
    "paramedic":4,
    "fireman":4,
    "masked":4,
    "sound":5,
    "audible":5,
    "uniform":5,
    "vehicle":5,
    "shoulders":5,
    "ah":5,
    "gets":5,
    "knew":5,
    "rucksack":5,
    "drinks":5,
    "least":5,
    "couldn\u2019t":5,
    "check":5,
    "family":5,
    "thinking":5,
    "slowly":5,
    "longer":5,
    "lies":5,
    "though":5,
    "regards":5,
    "happened":5,
    "kid":5,
    "meeting":5,
    "moments":5,
    "small":5,
    "clean":5,
    "use":5,
    "it\u2019ll":5,
    "ahead":5,
    "three":5,
    "seniors":5,
    "smoke":5,
    "music":5,
    "shakes":5,
    "onto":5,
    "doesn\u2019t":5,
    "watching":5,
    "silent":5,
    "thought":5,
    "days":5,
    "change":5,
    "boyfriend":5,
    "quick":5,
    "top":5,
    "punches":5,
    "neck":5,
    "garage":5,
    "wouldn\u2019t":5,
    "she\u2019s":5,
    "guns":5,
    "problem":5,
    "view":5,
    "soon":5,
    "removes":5,
    "fire":5,
    "chamber":5,
    "revolver":5,
    "frowns":5,
    "country":5,
    "detention":5,
    "there\u2019s":5,
    "windshield":5,
    "yard":5,
    "suvs":5,
    "m249":5,
    "machine":5,
    "mp":5,
    "gunner":5,
    "entrance":5,
    "space":5,
    "cutter":5,
    "hall":6,
    "facing":6,
    "football":6,
    "army":6,
    "standing":6,
    "heard":6,
    "before":6,
    "wait":6,
    "mrs":6,
    "name":6,
    "son":6,
    "won\u2019t":6,
    "exactly":6,
    "because":6,
    "died":6,
    "end":6,
    "second":6,
    "own":6,
    "else":6,
    "falls":6,
    "wearing":6,
    "immediately":6,
    "ago":6,
    "you\u2019ll":6,
    "put":6,
    "bathroom":6,
    "yourself":6,
    "ready":6,
    "sighs":6,
    "seems":6,
    "never":6,
    "buy":6,
    "sir":6,
    "haven\u2019t":6,
    "doing":6,
    "climbs":6,
    "windows":6,
    "empty":6,
    "bottle":6,
    "ignores":6,
    "id":6,
    "help":6,
    "fingers":6,
    "starts":6,
    "blood":6,
    "bloody":6,
    "zeke\u2019s":6,
    "body":6,
    "continues":6,
    "understand":6,
    "we\u2019ll":6,
    "black":6,
    "box":6,
    "care":6,
    "mouth":6,
    "alston":6,
    "holds":6,
    "stop":6,
    "elderly":6,
    "fog":6,
    "barrels":6,
    "kristen\u2019s":7,
    "walking":7,
    "shot":7,
    "exhales":7,
    "last":7,
    "dad":7,
    "done":7,
    "dining":7,
    "which":7,
    "course":7,
    "fort":7,
    "leave":7,
    "bit":7,
    "please":7,
    "leans":7,
    "open":7,
    "long":7,
    "wheel":7,
    "had":7,
    "parents":7,
    "hit":7,
    "cool":7,
    "van":7,
    "begins":7,
    "pulling":7,
    "same":7,
    "trying":7,
    "party":7,
    "much":7,
    "mind":7,
    "window":7,
    "bar":7,
    "men":7,
    "luke\u2019s":7,
    "enter":7,
    "drew":7,
    "left":7,
    "mirror":7,
    "speaking":7,
    "anyone":7,
    "pistol":7,
    "dead":7,
    "corner":7,
    "hiding":7,
    "mom":8,
    "stands":8,
    "hangs":8,
    "hesitates":8,
    "probably":8,
    "let":8,
    "bed":8,
    "quietly":8,
    "great":8,
    "thanks":8,
    "even":8,
    "near":8,
    "will":8,
    "lights":8,
    "road":8,
    "home":8,
    "seated":8,
    "voice":8,
    "dark":8,
    "sets":8,
    "say":8,
    "found":8,
    "office":8,
    "austin":8,
    "has":8,
    "lyles":8,
    "hear":9,
    "blinks":9,
    "first":9,
    "kind":9,
    "arm":9,
    "bartender":9,
    "while":9,
    "laura\u2019s":9,
    "uh":9,
    "we\u2019re":9,
    "friend":9,
    "give":9,
    "visible":9,
    "they\u2019re":9,
    "drink":9,
    "number":9,
    "step":9,
    "pocket":9,
    "carrying":9,
    "passenger":9,
    "kpg":9,
    "killed":9,
    "runs":9,
    "told":10,
    "um":10,
    "were":10,
    "outside":10,
    "wasn\u2019t":10,
    "photo":10,
    "another":10,
    "called":10,
    "grabs":10,
    "more":10,
    "enters":10,
    "exit":10,
    "ian":10,
    "says":10,
    "beer":10,
    "staring":10,
    "take":10,
    "goes":10,
    "crosses":10,
    "does":10,
    "drives":10,
    "speaks":10,
    "collins":10,
    "higgins":10,
    "knife":10,
    "stay":11,
    "our":11,
    "off":11,
    "comes":11,
    "guy":11,
    "am":11,
    "feet":11,
    "find":11,
    "work":11,
    "i\u2019ve":11,
    "glances":11,
    "mike":11,
    "wall":11,
    "suv":11,
    "those":11,
    "slightly":11,
    "maplewood":11,
    "been":12,
    "ma\u2019am":12,
    "nice":12,
    "can\u2019t":12,
    "very":12,
    "each":12,
    "brother":12,
    "time":12,
    "us":12,
    "high":12,
    "against":12,
    "jason":12,
    "stops":12,
    "make":12,
    "watches":12,
    "seat":12,
    "nothing":12,
    "pulls":12,
    "sits":13,
    "thank":13,
    "guess":13,
    "smiles":13,
    "thing":13,
    "should":13,
    "after":13,
    "too":13,
    "stares":13,
    "again":13,
    "spencer\u2019s":13,
    "ext":13,
    "moving":13,
    "parking":13,
    "fine":13,
    "police":13,
    "talk":13,
    "building":13,
    "friends":14,
    "way":14,
    "tell":14,
    "moment":14,
    "steps":14,
    "across":14,
    "side":14,
    "where":15,
    "said":15,
    "military":15,
    "mean":15,
    "wanted":15,
    "caleb\u2019s":15,
    "rises":15,
    "lot":15,
    "opens":15,
    "exits":15,
    "cell":15,
    "what\u2019s":15,
    "barn":15,
    "next":16,
    "caleb":16,
    "didn\u2019t":16,
    "any":16,
    "dance":16,
    "table":16,
    "kitchen":16,
    "maybe":16,
    "i\u2019d":16,
    "call":16,
    "its":16,
    "mr":16,
    "man":17,
    "see":17,
    "inside":17,
    "minutes":17,
    "now":17,
    "reaches":17,
    "walks":17,
    "good":17,
    "still":17,
    "bedroom":18,
    "night":18,
    "hand":18,
    "something":18,
    "david\u2019s":18,
    "both":18,
    "forward":18,
    "gun":18,
    "really":19,
    "think":19,
    "would":19,
    "how":19,
    "or":19,
    "eyes":19,
    "diner":19,
    "holding":19,
    "looking":20,
    "could":20,
    "anna\u2019s":20,
    "through":20,
    "want":20,
    "come":21,
    "yes":21,
    "anything":21,
    "two":21,
    "other":21,
    "hey":22,
    "moves":22,
    "when":22,
    "takes":22,
    "guys":22,
    "head":22,
    "quickly":22,
    "maze":22,
    "oh":23,
    "well":23,
    "right":23,
    "look":23,
    "their":23,
    "sorry":24,
    "go":24,
    "hands":24,
    "sure":24,
    "did":24,
    "by":24,
    "why":24,
    "you\u2019re":26,
    "some":26,
    "behind":26,
    "craig":26,
    "school":27,
    "i\u2019ll":27,
    "hallway":28,
    "nods":28,
    "away":29,
    "he\u2019s":29,
    "zeke":29,
    "floor":30,
    "need":31,
    "got":31,
    "all":31,
    "face":31,
    "spencer":32,
    "there":33,
    "turns":34,
    "an":34,
    "who":34,
    "that\u2019s":35,
    "later":35,
    "around":36,
    "can":36,
    "towards":37,
    "be":37,
    "kristen":37,
    "phone":38,
    "it\u2019s":39,
    "door":39,
    "car":39,
    "continuous":39,
    "one":40,
    "day":41,
    "if":42,
    "over":43,
    "going":43,
    "we":43,
    "peterson":45,
    "house":45,
    "front":46,
    "okay":46,
    "so":47,
    "about":47,
    "not":48,
    "my":49,
    "here":49,
    "down":51,
    "back":51,
    "get":51,
    "she":51,
    "them":51,
    "your":53,
    "carver":53,
    "laura":54,
    "they":54,
    "know":55,
    "int":56,
    "like":56,
    "but":57,
    "do":58,
    "major":58,
    "have":59,
    "no":59,
    "don\u2019t":59,
    "yeah":61,
    "room":64,
    "just":65,
    "looks":65,
    "as":65,
    "was":66,
    "up":67,
    "this":67,
    "me":67,
    "are":71,
    "what":73,
    "then":75,
    "for":75,
    "into":81,
    "from":83,
    "i\u2019m":84,
    "out":84,
    "with":93,
    "that":98,
    "him":100,
    "on":107,
    "it":114,
    "her":117,
    "is":131,
    "luke":134,
    "at":139,
    "anna":163,
    "":168,
    "his":171,
    "he":171,
    "in":199,
    "of":225,
    "and":237,
    "david":292,
    "i":302,
    "a":322,
    "you":324,
    "to":346,
    "the":756
}