{
    "nazi":1,
    "marches":1,
    "songs":1,
    "narrator":1,
    "traces":1,
    "blameless":1,
    "invincible":1,
    "history":1,
    "romance":1,
    "seven":1,
    "betty":1,
    "grable":1,
    "car":1,
    "splendid":1,
    "romantic":1,
    "strains":1,
    "blue":1,
    "waltz":1,
    "rattle":1,
    "projector":1,
    "lts":1,
    "camouflaged":1,
    "volkswagen":1,
    "identification":1,
    "overdue":1,
    "ss":1,
    "questioning":1,
    "lounge":1,
    "idly":1,
    "fenders":1,
    "herded":1,
    "dozen":1,
    "erich":1,
    "hovlund":1,
    "7746539":1,
    "124th":1,
    "infantry":1,
    "authorization":1,
    "gretsburg":1,
    "filling":1,
    "catch":1,
    "strayed":1,
    "koenigshofen":1,
    "hartl":1,
    "sad":1,
    "stupid":1,
    "weigh":1,
    "chances":1,
    "outrun":1,
    "deserter":1,
    "exciting":1,
    "dragging":1,
    "regrettable":1,
    "clearance":1,
    "business":1,
    "explicit":1,
    "wife":1,
    "comrade":1,
    "relaxation":1,
    "scrutinized":1,
    "detained":1,
    "salutes":1,
    "shells":1,
    "houses":1,
    "plaster":1,
    "glass":1,
    "elizabethstrasse":1,
    "14":1,
    "burnedout":1,
    "hulk":1,
    "floor":1,
    "pauli":1,
    "bit":1,
    "rats":1,
    "cloth":1,
    "shake":1,
    "tall":1,
    "throws":1,
    "rat":1,
    "hans":1,
    "vodka":1,
    "sometimes":1,
    "mostly":1,
    "trade":1,
    "soldiers":1,
    "turnips":1,
    "hospital":1,
    "sisters":1,
    "yugoslavian":1,
    "slivowitz":1,
    "heil":1,
    "hitler":1,
    "parked":1,
    "theyll":1,
    "land":1,
    "filthy":1,
    "cleaned":1,
    "impress":1,
    "uniforms":1,
    "quicker":1,
    "heroes":1,
    "drunkenness":1,
    "medals":1,
    "fourth":1,
    "greatly":1,
    "agitated":1,
    "upset":1,
    "passionately":1,
    "mock":1,
    "protest":1,
    "plenty":1,
    "bombing":1,
    "aha":1,
    "master":1,
    "screws":1,
    "thoughtful":1,
    "chin":1,
    "nailing":1,
    "sign":1,
    "limits":1,
    "tease":1,
    "whos":1,
    "teasing":1,
    "talents":1,
    "unappreciated":1,
    "angrily":1,
    "mood":1,
    "icy":1,
    "dislike":1,
    "joining":1,
    "likes":1,
    "interrupt":1,
    "remark":1,
    "wondering":1,
    "sell":1,
    "apples":1,
    "sweep":1,
    "streets":1,
    "ignorant":1,
    "whore":1,
    "spoil":1,
    "selfdisgust":1,
    "regains":1,
    "pride":1,
    "brushing":1,
    "gesture":1,
    "misunderstanding":1,
    "everyones":1,
    "nobodys":1,
    "angry":1,
    "propose":1,
    "toast":1,
    "survived":1,
    "madness":1,
    "leans":1,
    "confidentially":1,
    "heaven":1,
    "kid":1,
    "kids":1,
    "scalding":1,
    "matches":1,
    "madame":1,
    "birds":1,
    "disappear":1,
    "knows":1,
    "bath":1,
    "husband":1,
    "reported":1,
    "luger":1,
    "treasonous":1,
    "defeatist":1,
    "joking":1,
    "ridiculous":1,
    "sharing":1,
    "shes":1,
    "rare":1,
    "wit":1,
    "laid":1,
    "stomps":1,
    "ankle":1,
    "hurting":1,
    "throwing":1,
    "turning":1,
    "vicious":1,
    "closedfist":1,
    "judo":1,
    "chop":1,
    "kick":1,
    "tumbling":1,
    "collapse":1,
    "pants":1,
    "adrenalin":1,
    "exertion":1,
    "curb":1,
    "tumbles":1,
    "push":1,
    "focus":1,
    "seeing":1,
    "blanket":1,
    "twice":1,
    "motor":1,
    "barracks":1,
    "hitterstrasse":1,
    "strikingly":1,
    "attractive":1,
    "woman":1,
    "thirties":1,
    "slender":1,
    "figure":1,
    "revealed":1,
    "turtleneck":1,
    "sweater":1,
    "skirt":1,
    "coat":1,
    "hasnt":1,
    "heat":1,
    "couch":1,
    "roof":1,
    "cantina":1,
    "fortunately":1,
    "cough":1,
    "medicine":1,
    "wakes":1,
    "sleeps":1,
    "bombings":1,
    "sickly":1,
    "father":1,
    "lap":1,
    "stranger":1,
    "lately":1,
    "duties":1,
    "subject":1,
    "herself":1,
    "because":1,
    "terribly":1,
    "greatest":1,
    "accidentally":1,
    "bends":1,
    "scattered":1,
    "pfennigs":1,
    "cry":1,
    "wracking":1,
    "sobs":1,
    "meant":1,
    "defending":1,
    "old":1,
    "tragedy":1,
    "honorably":1,
    "easy":1,
    "handkerchief":1,
    "returns":1,
    "touch":1,
    "contented":1,
    "warms":1,
    "warm":1,
    "stiff":1,
    "excuses":1,
    "lightly":1,
    "respectful":1,
    "plays":1,
    "smell":1,
    "perfume":1,
    "disturb":1,
    "absorbed":1,
    "thoughts":1,
    "surprised":1,
    "marriage":1,
    "secrets":1,
    "loosened":1,
    "women":1,
    "enjoy":1,
    "pity":1,
    "widow":1,
    "secret":1,
    "year":1,
    "unfaithful":1,
    "cruel":1,
    "manhood":1,
    "bravo":1,
    "amazed":1,
    "brushes":1,
    "strange":1,
    "helplessness":1,
    "reshuffling":1,
    "fuehrer":1,
    "promised":1,
    "victory":1,
    "fullest":1,
    "confidence":1,
    "wisdom":1,
    "efforts":1,
    "wanders":1,
    "morale":1,
    "speeches":1,
    "railway":1,
    "spanning":1,
    "sufficient":1,
    "pouring":1,
    "supplies":1,
    "units":1,
    "24":1,
    "received":1,
    "expressions":1,
    "pronounced":1,
    "incredulously":1,
    "exception":1,
    "expounded":1,
    "appeared":1,
    "depressed":1,
    "vigor":1,
    "intensity":1,
    "midnight":1,
    "aroused":1,
    "worked":1,
    "force":1,
    "pertinent":1,
    "suicidal":1,
    "futile":1,
    "surely":1,
    "escaped":1,
    "ending":1,
    "members":1,
    "colonels":1,
    "strict":1,
    "coffee":1,
    "doubt":1,
    "superior":1,
    "value":1,
    "receive":1,
    "carried":1,
    "ability":1,
    "resources":1,
    "assigned":1,
    "seriousness":1,
    "unique":1,
    "calls":1,
    "illatease":1,
    "brass":1,
    "armed":1,
    "witnesses":1,
    "names":1,
    "refusal":1,
    "combat":1,
    "conditions":1,
    "humane":1,
    "means":1,
    "significance":1,
    "sinks":1,
    "punishment":1,
    "unfortunate":1,
    "capable":1,
    "commanding":1,
    "daring":1,
    "dangerous":1,
    "assignment":1,
    "reconsider":1,
    "breaking":1,
    "instructs":1,
    "hips":1,
    "adjust":1,
    "unnecessary":1,
    "clever":1,
    "decided":1,
    "gamble":1,
    "kindness":1,
    "anyone":1,
    "lots":1,
    "neither":1,
    "contrary":1,
    "intend":1,
    "resignation":1,
    "theyd":1,
    "hang":1,
    "hid":1,
    "dodging":1,
    "russian":1,
    "patrols":1,
    "strike":1,
    "reflects":1,
    "lousy":1,
    "wagnerian":1,
    "explaining":1,
    "uncomprehending":1,
    "sentiments":1,
    "swore":1,
    "oath":1,
    "allegiance":1,
    "obey":1,
    "whom":1,
    "madmen":1,
    "brought":1,
    "shame":1,
    "necessarily":1,
    "ironically":1,
    "humor":1,
    "glory":1,
    "embrace":1,
    "manfully":1,
    "washington":1,
    "paris":1,
    "instead":1,
    "fair":1,
    "held":1,
    "price":1,
    "berlin":1,
    "introduced":1,
    "circles":1,
    "blecke":1,
    "read":1,
    "lists":1,
    "lengths":1,
    "snap":1,
    "links":1,
    "pitons":1,
    "piton":1,
    "hammer":1,
    "climber":1,
    "mohring":1,
    "torbite":1,
    "a2":1,
    "boxes":1,
    "lmg":1,
    "cap":1,
    "percussion":1,
    "caps":1,
    "crimper":1,
    "winter":1,
    "offensive":1,
    "kohler":1,
    "lighters":1,
    "quiets":1,
    "counter":1,
    "1220":1,
    "finish":1,
    "respectfully":1,
    "invade":1,
    "switzerland":1,
    "reporting":1,
    "relax":1,
    "crushed":1,
    "softer":1,
    "resulting":1,
    "fight":1,
    "accused":1,
    "politically":1,
    "inscrutably":1,
    "taps":1,
    "pencil":1,
    "desk":1,
    "adjutant":1,
    "forces":1,
    "insincere":1,
    "bows":1,
    "ironic":1,
    "deference":1,
    "explained":1,
    "preparing":1,
    "tightly":1,
    "valuable":1,
    "suspect":1,
    "stiffens":1,
    "harshness":1,
    "fully":1,
    "expects":1,
    "admitted":1,
    "prior":1,
    "tells":1,
    "showing":1,
    "leaflet":1,
    "fact":1,
    "indicates":1,
    "mental":1,
    "powerless":1,
    "press":1,
    "extremely":1,
    "mistake":1,
    "lie":1,
    "sentimentality":1,
    "kurt":1,
    "student":1,
    "lorries":1,
    "roll":1,
    "camouflage":1,
    "net":1,
    "empty":1,
    "gates":1,
    "ladened":1,
    "battle":1,
    "pounding":1,
    "concrete":1,
    "spring":1,
    "rigidly":1,
    "hollowly":1,
    "undertone":1,
    "settle":1,
    "starting":1,
    "briefly":1,
    "nervousness":1,
    "element":1,
    "selected":1,
    "obernburgmain":1,
    "1900":1,
    "2100":1,
    "oiling":1,
    "bolt":1,
    "rubbing":1,
    "hones":1,
    "killing":1,
    "sole":1,
    "note":1,
    "visually":1,
    "interesting":1,
    "ample":1,
    "drawings":1,
    "photographs":1,
    "models":1,
    "employed":1,
    "goal":1,
    "audience":1,
    "unfolds":1,
    "participation":1,
    "masserman":1,
    "directions":1,
    "undercurrent":1,
    "guffaws":1,
    "southeast":1,
    "aerials":1,
    "target":1,
    "disclose":1,
    "maps":1,
    "sort":1,
    "northsouth":1,
    "enemy":1,
    "dispositions":1,
    "glance":1,
    "dismay":1,
    "grows":1,
    "formidably":1,
    "grin":1,
    "sick":1,
    "noncommittal":1,
    "mobile":1,
    "bigger":1,
    "minds":1,
    "flips":1,
    "sheet":1,
    "scrubs":1,
    "spans":1,
    "abutments":1,
    "bottom":1,
    "guarded":1,
    "protected":1,
    "vantage":1,
    "learned":1,
    "alpine":1,
    "weekends":1,
    "sheer":1,
    "confidently":1,
    "completed":1,
    "infiltrate":1,
    "opportunity":1,
    "leaders":1,
    "rations":1,
    "leaves":1,
    "chaos":1,
    "finding":1,
    "latest":1,
    "requested":1,
    "changed":1,
    "copying":1,
    "clerk":1,
    "keeps":1,
    "posting":1,
    "compass":1,
    "plots":1,
    "conversing":1,
    "affected":1,
    "continue":1,
    "standby":1,
    "formations":1,
    "ranks":1,
    "outlook":1,
    "cheered":1,
    "cancellation":1,
    "interest":1,
    "natural":1,
    "weathered":1,
    "delay":1,
    "0300":1,
    "itll":1,
    "canceled":1,
    "pure":1,
    "austrian":1,
    "mountains":1,
    "rapidly":1,
    "orderly":1,
    "sent":1,
    "cleared":1,
    "0624":1,
    "personnel":1,
    "astonishment":1,
    "disadvantages":1,
    "proper":1,
    "instruct":1,
    "replot":1,
    "oneleg":1,
    "hedgehop":1,
    "shouldnt":1,
    "bothered":1,
    "fighters":1,
    "conferring":1,
    "reroute":1,
    "discover":1,
    "plotting":1,
    "grasp":1,
    "shout":1,
    "containing":1,
    "rushing":1,
    "meaning":1,
    "flying":1,
    "altitude":1,
    "azimuths":1,
    "taxi":1,
    "hangers":1,
    "trip":1,
    "ear":1,
    "needing":1,
    "ladder":1,
    "trimotor":1,
    "junkers":1,
    "502s":1,
    "peculiar":1,
    "corrugated":1,
    "metal":1,
    "fuselage":1,
    "jumpmaster":1,
    "pulling":1,
    "testing":1,
    "flashes":1,
    "shape":1,
    "loading":1,
    "prop":1,
    "blast":1,
    "staggers":1,
    "squatting":1,
    "unzips":1,
    "straightens":1,
    "spreading":1,
    "automatically":1,
    "overcoat":1,
    "tucks":1,
    "stray":1,
    "canopy":1,
    "fit":1,
    "usual":1,
    "buckle":1,
    "snaps":1,
    "helmet":1,
    "spins":1,
    "silk":1,
    "pair":1,
    "clippers":1,
    "hassebrauk":1,
    "nuts":1,
    "verbal":1,
    "attaches":1,
    "longer":1,
    "plugged":1,
    "minus":1,
    "struggle":1,
    "ceiling":1,
    "19":1,
    "engineer":1,
    "fingers":1,
    "bindings":1,
    "thigh":1,
    "underbrush":1,
    "wrapping":1,
    "dangles":1,
    "lifelessly":1,
    "suspension":1,
    "twisted":1,
    "strangled":1,
    "medium":1,
    "dispersing":1,
    "wheres":1,
    "muench":1,
    "tanks":1,
    "anybody":1,
    "except":1,
    "kraeling":1,
    "hanging":1,
    "broke":1,
    "bones":1,
    "compasses":1,
    "mist":1,
    "damp":1,
    "caught":1,
    "115":1,
    "degrees":1,
    "unless":1,
    "satisfies":1,
    "covered":1,
    "nod":1,
    "scrambles":1,
    "pumps":1,
    "flanks":1,
    "bar":1,
    "disappearing":1,
    "featuring":1,
    "continues":1,
    "emptying":1,
    "ping":1,
    "ejected":1,
    "azimuth":1,
    "planned":1,
    "according":1,
    "damned":1,
    "dumped":1,
    "bad":1,
    "sharply":1,
    "breaks":1,
    "abruptly":1,
    "crossing":1,
    "paralleling":1,
    "telling":1,
    "mechanized":1,
    "division":1,
    "russia":1,
    "uphill":1,
    "raining":1,
    "steadily":1,
    "placing":1,
    "crouching":1,
    "tense":1,
    "led":1,
    "drainage":1,
    "slipping":1,
    "greasy":1,
    "pound":1,
    "tracked":1,
    "melt":1,
    "slippery":1,
    "floundering":1,
    "scruff":1,
    "bodily":1,
    "scrambled":1,
    "torn":1,
    "conspicuous":1,
    "draws":1,
    "smeared":1,
    "farther":1,
    "skids":1,
    "disappears":1,
    "south":1,
    "fierce":1,
    "noisy":1,
    "downpour":1,
    "splatters":1,
    "leaps":1,
    "northern":1,
    "concealed":1,
    "mounting":1,
    "cal":1,
    "pedestal":1,
    "mount":1,
    "carries":1,
    "scout":1,
    "status":1,
    "shortages":1,
    "fallen":1,
    "hunched":1,
    "supporting":1,
    "cradling":1,
    "clothes":1,
    "scorched":1,
    "eyebrows":1,
    "singed":1,
    "kit":1,
    "whips":1,
    "shirt":1,
    "salve":1,
    "tube":1,
    "anxiously":1,
    "inspect":1,
    "robert":1,
    "john":1,
    "323rd":1,
    "reconnaissance":1,
    "17147358":1,
    "protestant":1,
    "dog":1,
    "weimaraner":1,
    "aware":1,
    "tosses":1,
    "gum":1,
    "finishing":1,
    "feeling":1,
    "complaining":1,
    "belongings":1,
    "resist":1,
    "temptation":1,
    "grab":1,
    "eagerly":1,
    "studied":1,
    "stuffs":1,
    "pockets":1,
    "untouched":1,
    "compliment":1,
    "effects":1,
    "exhales":1,
    "chat":1,
    "cigarettes":1,
    "buy":1,
    "asking":1,
    "regard":1,
    "invasion":1,
    "happily":1,
    "wednesday":1,
    "ends":1,
    "compromise":1,
    "effort":1,
    "medical":1,
    "twist":1,
    "miles":1,
    "transport":1,
    "hoped":1,
    "amazing":1,
    "towns":1,
    "yanks":1,
    "thorough":1,
    "regimental":1,
    "concentration":1,
    "hospitals":1,
    "dinky":1,
    "village":1,
    "called":1,
    "journey":1,
    "joe":1,
    "wars":1,
    "detroit":1,
    "phone":1,
    "book":1,
    "cleaning":1,
    "weapon":1,
    "grinning":1,
    "softly":1,
    "intelligence":1,
    "1300":1,
    "1700":1,
    "disgusted":1,
    "restraining":1,
    "gained":1,
    "release":1,
    "stupidity":1,
    "protect":1,
    "bullet":1,
    "kills":1,
    "glares":1,
    "unable":1,
    "express":1,
    "regain":1,
    "bewilderment":1,
    "approaches":1,
    "outpost":1,
    "counting":1,
    "yourselves":1,
    "studying":1,
    "foliage":1,
    "reverberates":1,
    "freezes":1,
    "puffing":1,
    "given":1,
    "krause":1,
    "feelings":1,
    "interfere":1,
    "disappoint":1,
    "anticipating":1,
    "sixman":1,
    "narrow":1,
    "thicker":1,
    "hills":1,
    "risen":1,
    "higher":1,
    "leading":1,
    "stone":1,
    "400":1,
    "dull":1,
    "grey":1,
    "sheds":1,
    "built":1,
    "whitepainted":1,
    "wood":1,
    "partially":1,
    "windows":1,
    "shuttered":1,
    "doors":1,
    "chimney":1,
    "recent":1,
    "rains":1,
    "commands":1,
    "limestone":1,
    "pools":1,
    "banks":1,
    "fringed":1,
    "poplars":1,
    "oaks":1,
    "dominates":1,
    "arrives":1,
    "couches":1,
    "heaviest":1,
    "volume":1,
    "stalingrad":1,
    "dash":1,
    "squat":1,
    "dominating":1,
    "attracts":1,
    "logical":1,
    "sweeps":1,
    "dismally":1,
    "leads":1,
    "scrambling":1,
    "awkwardly":1,
    "expose":1,
    "crabs":1,
    "stoop":1,
    "waddle":1,
    "graceful":1,
    "violent":1,
    "buzz":1,
    "ducking":1,
    "popping":1,
    "calmly":1,
    "range":1,
    "adjustments":1,
    "rips":1,
    "hunches":1,
    "ducked":1,
    "reload":1,
    "squeezes":1,
    "flops":1,
    "deeper":1,
    "din":1,
    "pinned":1,
    "blocked":1,
    "chosen":1,
    "crackles":1,
    "providing":1,
    "crouchrun":1,
    "foreground":1,
    "rifles":1,
    "furious":1,
    "sprint":1,
    "pans":1,
    "desperately":1,
    "shelter":1,
    "pocket":1,
    "bearers":1,
    "gunners":1,
    "regular":1,
    "alternating":1,
    "bunched":1,
    "saw":1,
    "sporadically":1,
    "displace":1,
    "fired":1,
    "hip":1,
    "fires":1,
    "branches":1,
    "answering":1,
    "stillness":1,
    "shattered":1,
    "shed":1,
    "bodies":1,
    "crumpled":1,
    "bright":1,
    "brassy":1,
    "litter":1,
    "cartridge":1,
    "cases":1,
    "hangs":1,
    "layer":1,
    "thickly":1,
    "breeze":1,
    "syrup":1,
    "avenues":1,
    "ford":1,
    "reorganization":1,
    "rings":1,
    "spotted":1,
    "covering":1,
    "riflemen":1,
    "urging":1,
    "pressed":1,
    "growing":1,
    "louder":1,
    "dashes":1,
    "widened":1,
    "rushes":1,
    "stones":1,
    "shadow":1,
    "pale":1,
    "sunset":1,
    "early":1,
    "rustles":1,
    "race":1,
    "chatter":1,
    "races":1,
    "wildly":1,
    "shallow":1,
    "dashing":1,
    "emptied":1,
    "sequence":1,
    "tracks":1,
    "lies":1,
    "submerged":1,
    "slopes":1,
    "ambush":1,
    "covers":1,
    "redistribute":1,
    "perfect":1,
    "gentleman":1,
    "bitterness":1,
    "strength":1,
    "improvement":1,
    "talks":1,
    "puts":1,
    "laugh":1,
    "chaps":1,
    "tipped":1,
    "having":1,
    "andrew":1,
    "6787345":1,
    "united":1,
    "states":1,
    "conversationalist":1,
    "treated":1,
    "decently":1,
    "wound":1,
    "serious":1,
    "nearest":1,
    "alerted":1,
    "fellows":1,
    "yours":1,
    "toys":1,
    "philosophizing":1,
    "happening":1,
    "perhaps":1,
    "germany":1,
    "families":1,
    "matters":1,
    "rebuilding":1,
    "chance":1,
    "peace":1,
    "happiness":1,
    "somewhat":1,
    "contemptuously":1,
    "keeping":1,
    "progress":1,
    "reforming":1,
    "replying":1,
    "friendship":1,
    "permitted":1,
    "indulge":1,
    "orgy":1,
    "selfpity":1,
    "selfrighteousness":1,
    "patience":1,
    "conduct":1,
    "consequences":1,
    "blinks":1,
    "threatened":1,
    "specific":1,
    "unfortunately":1,
    "recruiting":1,
    "poster":1,
    "behavior":1,
    "jeopardizing":1,
    "riveted":1,
    "noble":1,
    "completes":1,
    "failing":1,
    "stirs":1,
    "authority":1,
    "vested":1,
    "fumes":1,
    "resolve":1,
    "blank":1,
    "foolish":1,
    "trigger":1,
    "arrive":1,
    "heavens":1,
    "overplay":1,
    "swear":1,
    "choice":1,
    "hate":1,
    "disgust":1,
    "cynical":1,
    "utter":1,
    "businesslike":1,
    "manner":1,
    "chart":1,
    "warning":1,
    "sweeping":1,
    "punch":1,
    "pins":1,
    "smashes":1,
    "bending":1,
    "harm":1,
    "squinting":1,
    "lips":1,
    "twitching":1,
    "touched":1,
    "nevertheless":1,
    "convincing":1,
    "demonstration":1,
    "affection":1,
    "tastefully":1,
    "overplayed":1,
    "belief":1,
    "wet":1,
    "lump":1,
    "throat":1,
    "dusk":1,
    "shafts":1,
    "casting":1,
    "traversing":1,
    "sloping":1,
    "considerably":1,
    "nears":1,
    "excitedly":1,
    "upward":1,
    "framed":1,
    "lighter":1,
    "flaring":1,
    "leaping":1,
    "steel":1,
    "flat":1,
    "girdered":1,
    "beneath":1,
    "intricacy":1,
    "interacts":1,
    "dramatically":1,
    "bulk":1,
    "visible":1,
    "flash":1,
    "competing":1,
    "rush":1,
    "rumble":1,
    "distant":1,
    "thunder":1,
    "tiny":1,
    "figures":1,
    "platoonsized":1,
    "deliberately":1,
    "moonlit":1,
    "noises":1,
    "weirdly":1,
    "fuller":1,
    "remainder":1,
    "deployed":1,
    "easier":1,
    "agreement":1,
    "climbers":1,
    "mandel":1,
    "smashed":1,
    "manage":1,
    "eh":1,
    "peter":1,
    "defensive":1,
    "outposts":1,
    "downstream":1,
    "fault":1,
    "prepare":1,
    "auxiliary":1,
    "doctors":1,
    "laying":1,
    "surgical":1,
    "tools":1,
    "knifes":1,
    "pistols":1,
    "helmets":1,
    "coil":1,
    "slung":1,
    "stamps":1,
    "belt":1,
    "hesitates":1,
    "slack":1,
    "jolt":1,
    "taut":1,
    "swings":1,
    "helplessly":1,
    "weight":1,
    "balanced":1,
    "rumbling":1,
    "overhead":1,
    "unties":1,
    "knots":1,
    "jammed":1,
    "opposite":1,
    "tie":1,
    "satchel":1,
    "reel":1,
    "arching":1,
    "beam":1,
    "apelike":1,
    "bent":1,
    "balancing":1,
    "upright":1,
    "rappel":1,
    "belay":1,
    "fixed":1,
    "buttocks":1,
    "brake":1,
    "binds":1,
    "clenching":1,
    "letting":1,
    "bouncing":1,
    "hops":1,
    "weekend":1,
    "alps":1,
    "concentrates":1,
    "mathematical":1,
    "sums":1,
    "signal":1,
    "kamerad":1,
    "enraged":1,
    "surrendering":1,
    "stock":1,
    "harmlessly":1,
    "rises":1,
    "krauts":1,
    "raised":1,
    "hey":1,
    "surrounded":1,
    "swarming":1,
    "excited":1,
    "capture":1,
    "giving":1,
    "working":1,
    "searching":1,
    "wounds":1,
    "shrewsberry":1,
    "hacked":1,
    "inquiring":1,
    "skip":1,
    "bull":1,
    "facts":1,
    "kidnap":1,
    "eisenhower":1,
    "coincidence":1,
    "fancy":1,
    "feigns":1,
    "shock":1,
    "knock":1,
    "submissively":1,
    "equal":1,
    "size":1,
    "hadnt":1,
    "scale":1,
    "cooperative":1,
    "reasonable":1,
    "people":1,
    "model":1,
    "talkative":1,
    "supermen":1,
    "topside":1,
    "sitten":1,
    "threateningly":1,
    "flop":1,
    "drift":1,
    "unobtrusively":1,
    "whispers":1,
    "complex":1,
    "tents":1,
    "dolly":1,
    "tent":1,
    "enters":1,
    "infected":1,
    "swallows":1,
    "whiskey":1,
    "bronze":1,
    "star":1,
    "imagine":1,
    "cheese":1,
    "guy":1,
    "crawl":1,
    "interrogate":1,
    "tail":1,
    "wild":1,
    "lined":1,
    "heels":1,
    "thoughtfully":1,
    "horrible":1,
    "fascination":1,
    "surfaced":1,
    "flagging":1,
    "drivers":1,
    "speeded":1,
    "stopped":1,
    "co":1,
    "difference":1,
    "vehicles":1,
    "inching":1,
    "considerable":1,
    "yelling":1,
    "foolproof":1,
    "timers":1,
    "accept":1,
    "feets":1,
    "nudging":1,
    "uncompliant":1,
    "volunteer":1,
    "unsafe":1,
    "simply":1,
    "risk":1,
    "superstructure":1,
    "naturally":1,
    "earshot":1,
    "fuming":1,
    "anywhere":1,
    "solve":1,
    "problem":1,
    "tough":1,
    "unheard":1,
    "curious":1,
    "wisecracks":1,
    "halted":1,
    "10":1,
    "cocks":1,
    "camps":1,
    "systems":1,
    "assemble":1,
    "closely":1,
    "finger":1,
    "trust":1,
    "childish":1,
    "spot":1,
    "await":1,
    "transportation":1,
    "intention":1,
    "features":1,
    "grown":1,
    "iron":1,
    "merciless":1,
    "loaded":1,
    "twos":1,
    "hypnotic":1,
    "trance":1,
    "obeys":1,
    "appearance":1,
    "sporting":1,
    "event":1,
    "roadway":1,
    "calling":1,
    "equivalent":1,
    "cadence":1,
    "nervous":1,
    "grim":1,
    "determined":1,
    "detonators":1,
    "usually":1,
    "vain":1,
    "words":1,
    "effect":1,
    "sweating":1,
    "crowd":1,
    "comfortably":1,
    "sunday":1,
    "picnic":1,
    "play":1,
    "chatting":1,
    "casually":1,
    "playing":1,
    "grotesque":1,
    "folded":1,
    "calm":1,
    "super":1,
    "lounging":1,
    "indifferent":1,
    "despite":1,
    "betray":1,
    "increasing":1,
    "unbearable":1,
    "tension":1,
    "spots":1,
    "ourselves":1,
    "anyway":1,
    "grandchildren":1,
    "theirs":1,
    "lived":1,
    "speaking":1,
    "began":1,
    "glow":1,
    "weird":1,
    "enthusiasm":1,
    "stirred":1,
    "seldom":1,
    "relaxed":1,
    "relieved":1,
    "piling":1,
    "entrance":1,
    "recognition":1,
    "safety":1,
    "hurrying":1,
    "came":1,
    "tempo":1,
    "comments":1,
    "ordinary":1,
    "stirring":1,
    "barely":1,
    "joins":1,
    "join":1,
    "singing":1,
    "subjective":1,
    "remaining":1,
    "75":1,
    "shapes":1,
    "grow":1,
    "larger":1,
    "reveal":1,
    "indifferently":1,
    "bathed":1,
    "glare":1,
    "eyed":1,
    "triumphant":1,
    "support":1,
    "crumbles":1,
    "lazily":1,
    "curls":1,
    "hurtles":1,
    "huge":1,
    "hunks":1,
    "yawning":1,
    "gap":1,
    "stood":1,
    "awesome":1,
    "spectacle":1,
    "smoking":1,
    "abyss":1,
    "flame":1,
    "excitement":1,
    "flickers":1,
    "replaced":1,
    "described":1,
    "infinite":1,
    "sadness":1,
    "nostalgia":1,
    "city":1,
    "title":1,
    "mail":1,
    "hustle":1,
    "clatter":1,
    "post":1,
    "office":1,
    "rhythm":1,
    "slows":1,
    "gradually":1,
    "cease":1,
    "altogether":1,
    "oclock":1,
    "healthy":1,
    "puffier":1,
    "shabbily":1,
    "dressed":1,
    "bauer":1,
    "wearily":1,
    "resumes":1,
    "tonight":2,
    "willy":2,
    "danube":2,
    "picture":2,
    "enter":2,
    "pan":2,
    "checkpoint":2,
    "person":2,
    "private":2,
    "arent":2,
    "reached":2,
    "company":2,
    "took":2,
    "wrong":2,
    "canteen":2,
    "however":2,
    "undoubtedly":2,
    "else":2,
    "field":2,
    "answer":2,
    "ashamed":2,
    "drive":2,
    "complete":2,
    "ruin":2,
    "dust":2,
    "nobody":2,
    "went":2,
    "leg":2,
    "frau":2,
    "live":2,
    "heads":2,
    "dumbly":2,
    "age":2,
    "money":2,
    "wrapped":2,
    "paper":2,
    "vacantly":2,
    "forget":2,
    "style":2,
    "during":2,
    "placed":2,
    "excuse":2,
    "kisses":2,
    "drinking":2,
    "happy":2,
    "pose":2,
    "captured":2,
    "saying":2,
    "witty":2,
    "brilliant":2,
    "downcast":2,
    "composure":2,
    "realizes":2,
    "hurt":2,
    "careless":2,
    "apologize":2,
    "twelve":2,
    "week":2,
    "russians":2,
    "started":2,
    "offer":2,
    "bombed":2,
    "use":2,
    "break":2,
    "news":2,
    "drawn":2,
    "propaganda":2,
    "disloyal":2,
    "statements":2,
    "assure":2,
    "walking":2,
    "backwards":2,
    "agents":2,
    "painfully":2,
    "swiftly":2,
    "neck":2,
    "brutal":2,
    "jaw":2,
    "loudly":2,
    "fear":2,
    "sweat":2,
    "slides":2,
    "shoulders":2,
    "cold":2,
    "living":2,
    "happen":2,
    "raid":2,
    "doctor":2,
    "terrible":2,
    "kept":2,
    "sleeping":2,
    "follows":2,
    "sleep":2,
    "wonderful":2,
    "beats":2,
    "folds":2,
    "busy":2,
    "often":2,
    "adjusts":2,
    "purpose":2,
    "sympathy":2,
    "ago":2,
    "prepared":2,
    "knocks":2,
    "died":2,
    "fatherland":2,
    "someday":2,
    "nose":2,
    "steinhager":2,
    "excellent":2,
    "glasses":2,
    "pours":2,
    "memory":2,
    "utters":2,
    "sigh":2,
    "future":2,
    "motion":2,
    "story":2,
    "spend":2,
    "closer":2,
    "song":2,
    "silly":2,
    "dancing":2,
    "youd":2,
    "insane":2,
    "simple":2,
    "respect":2,
    "putting":2,
    "suspected":2,
    "proven":2,
    "helps":2,
    "remain":2,
    "momentary":2,
    "positions":2,
    "present":2,
    "certain":2,
    "destroyed":2,
    "motorized":2,
    "destroy":2,
    "mildly":2,
    "skeptical":2,
    "life":2,
    "everybody":2,
    "bredow":2,
    "50":2,
    "parachute":2,
    "questions":2,
    "kill":2,
    "cups":2,
    "judgments":2,
    "possibilities":2,
    "abtmeyers":2,
    "crosses":2,
    "presence":2,
    "refused":2,
    "apparently":2,
    "severe":2,
    "beginning":2,
    "charge":2,
    "execution":2,
    "outfit":2,
    "strain":2,
    "aim":2,
    "brace":2,
    "whole":2,
    "might":2,
    "sperlings":2,
    "crazy":2,
    "month":2,
    "country":2,
    "someone":2,
    "child":2,
    "able":2,
    "poses":2,
    "whatever":2,
    "heart":2,
    "agree":2,
    "sense":2,
    "win":2,
    "government":2,
    "ransom":2,
    "150":2,
    "climbing":2,
    "schreiber":2,
    "demolitions":2,
    "plastic":2,
    "750":2,
    "box":2,
    "fuse":2,
    "pushes":2,
    "past":2,
    "supply":2,
    "sees":2,
    "ease":2,
    "murder":2,
    "wein":2,
    "waste":2,
    "scheduled":2,
    "turned":2,
    "file":2,
    "salute":2,
    "general":2,
    "airstrip":2,
    "shouts":2,
    "slamming":2,
    "boots":2,
    "echo":2,
    "talking":2,
    "shuffling":2,
    "notes":2,
    "demolition":2,
    "intently":2,
    "especially":2,
    "fly":2,
    "rapid":2,
    "lose":2,
    "objective":2,
    "north":2,
    "reads":2,
    "part":2,
    "echelon":2,
    "theyve":2,
    "slip":2,
    "handle":2,
    "sunken":2,
    "rock":2,
    "add":2,
    "squad":2,
    "briefed":2,
    "guarantee":2,
    "ersatz":2,
    "thirty":2,
    "sudden":2,
    "bleuler":2,
    "quietly":2,
    "postponement":2,
    "formation":2,
    "instructions":2,
    "curiosity":2,
    "momentarily":2,
    "fighting":2,
    "0700":2,
    "attack":2,
    "level":2,
    "luftwaffe":2,
    "reform":2,
    "loads":2,
    "draw":2,
    "ncos":2,
    "reserves":2,
    "bruggemanns":2,
    "throw":2,
    "goes":2,
    "compartment":2,
    "anchor":2,
    "chuted":2,
    "untwists":2,
    "picks":2,
    "edges":2,
    "fell":2,
    "raises":2,
    "checks":2,
    "scare":2,
    "vollmecke":2,
    "reading":2,
    "flight":2,
    "20":2,
    "releases":2,
    "tying":2,
    "crashing":2,
    "twists":2,
    "ties":2,
    "slide":2,
    "missing":2,
    "final":2,
    "count":2,
    "elbow":2,
    "brush":2,
    "sun":2,
    "cutting":2,
    "rising":2,
    "clings":2,
    "motions":2,
    "squats":2,
    "crash":2,
    "m1":2,
    "clip":2,
    "map":2,
    "looked":2,
    "different":2,
    "example":2,
    "waits":2,
    "listens":2,
    "black":2,
    "asphalt":2,
    "stain":2,
    "hauls":2,
    "clears":2,
    "wide":2,
    "concentrating":2,
    "stumble":2,
    "spread":2,
    "burns":2,
    "serial":2,
    "photo":2,
    "gathers":2,
    "bandaging":2,
    "done":2,
    "experience":2,
    "cigarette":2,
    "supposed":2,
    "interrogation":2,
    "alive":2,
    "seriously":2,
    "hows":2,
    "badly":2,
    "bring":2,
    "battalion":2,
    "aid":2,
    "mungersdorf":2,
    "carelessness":2,
    "god":2,
    "cause":2,
    "control":2,
    "nerves":2,
    "stares":2,
    "sight":2,
    "advice":2,
    "dispersed":2,
    "spur":2,
    "deserted":2,
    "cautiously":2,
    "rocks":2,
    "lift":2,
    "loom":2,
    "frowns":2,
    "bank":2,
    "shouting":2,
    "magazine":2,
    "slams":2,
    "shut":2,
    "tearing":2,
    "wall":2,
    "mgs":2,
    "raking":2,
    "carbine":2,
    "volley":2,
    "drifts":2,
    "duck":2,
    "says":2,
    "squads":2,
    "afternoon":2,
    "shadows":2,
    "lights":2,
    "pain":2,
    "heroic":2,
    "stuff":2,
    "blind":2,
    "properly":2,
    "crossed":2,
    "nonchalant":2,
    "between":2,
    "care":2,
    "trembling":2,
    "holding":2,
    "emotion":2,
    "bluffing":2,
    "among":2,
    "manages":2,
    "visibly":2,
    "anymore":2,
    "cliffs":2,
    "interlace":2,
    "girders":2,
    "beams":2,
    "spanners":2,
    "braces":2,
    "powerful":2,
    "neatly":2,
    "lay":2,
    "indicate":2,
    "lifts":2,
    "upper":2,
    "charges":2,
    "timer":2,
    "timing":2,
    "sharp":2,
    "wraps":2,
    "fist":2,
    "dammit":2,
    "nearby":2,
    "anderson":2,
    "krauthead":2,
    "pardon":2,
    "actually":2,
    "normal":2,
    "em":2,
    "ought":2,
    "powers":2,
    "nineteen":2,
    "fishy":2,
    "hunch":2,
    "schedule":2,
    "mps":2,
    "whistles":2,
    "backed":2,
    "stopping":2,
    "articles":2,
    "within":2,
    "sighs":2,
    "gis":2,
    "system":2,
    "refusing":2,
    "stare":2,
    "mens":2,
    "cards":2,
    "panic":2,
    "relief":2,
    "marching":2,
    "witnessing":2,
    "music":3,
    "reich":3,
    "seen":3,
    "gentlemen":3,
    "evening":3,
    "exit":3,
    "weeks":3,
    "driven":3,
    "roads":3,
    "corporals":3,
    "smgs":3,
    "papers":3,
    "wurtzburg":3,
    "run":3,
    "splashing":3,
    "nature":3,
    "visit":3,
    "glances":3,
    "street":3,
    "sticks":3,
    "koenig":3,
    "boys":3,
    "wants":3,
    "food":3,
    "lot":3,
    "pauses":3,
    "always":3,
    "girls":3,
    "fool":3,
    "straight":3,
    "disgusting":3,
    "laughs":3,
    "days":3,
    "told":3,
    "plan":3,
    "rests":3,
    "exactly":3,
    "yesterday":3,
    "joke":3,
    "mighty":3,
    "finally":3,
    "conversation":3,
    "whether":3,
    "deeply":3,
    "hair":3,
    "own":3,
    "service":3,
    "twentyseven":3,
    "myself":3,
    "besides":3,
    "seated":3,
    "girl":3,
    "corner":3,
    "foot":3,
    "pounds":3,
    "knees":3,
    "boot":3,
    "wake":3,
    "soderbaum":3,
    "wheel":3,
    "nice":3,
    "quite":3,
    "true":3,
    "awkward":3,
    "werent":3,
    "taking":3,
    "awake":3,
    "next":3,
    "speak":3,
    "thinks":3,
    "direct":3,
    "difficult":3,
    "tragic":3,
    "since":3,
    "pick":3,
    "gently":3,
    "brave":3,
    "proud":3,
    "less":3,
    "thanks":3,
    "toss":3,
    "drinks":3,
    "large":3,
    "poor":3,
    "jokes":3,
    "town":3,
    "further":3,
    "apart":3,
    "funny":3,
    "significant":3,
    "fifty":3,
    "wasnt":3,
    "necessary":3,
    "west":3,
    "ordered":3,
    "sentence":3,
    "details":3,
    "appears":3,
    "capt":3,
    "mind":3,
    "absolutely":3,
    "entire":3,
    "staff":3,
    "trouble":3,
    "realize":3,
    "call":3,
    "shuffle":3,
    "submachine":3,
    "afterwards":3,
    "favor":3,
    "reverse":3,
    "places":3,
    "themselves":3,
    "chest":3,
    "suicide":3,
    "wed":3,
    "woods":3,
    "shakes":3,
    "prove":3,
    "case":3,
    "alone":3,
    "grenades":3,
    "assistant":3,
    "heavy":3,
    "minute":3,
    "finished":3,
    "d":3,
    "tried":3,
    "grauschmidt":3,
    "admit":3,
    "smile":3,
    "exits":3,
    "expression":3,
    "steps":3,
    "clipboard":3,
    "listening":3,
    "knife":3,
    "east":3,
    "assembly":3,
    "kilometers":3,
    "heres":3,
    "list":3,
    "finishes":3,
    "reserve":3,
    "drawing":3,
    "tears":3,
    "deep":3,
    "ravine":3,
    "lower":3,
    "hundred":3,
    "assumed":3,
    "groups":3,
    "luck":3,
    "organized":3,
    "navigators":3,
    "expected":3,
    "operations":3,
    "building":3,
    "0650":3,
    "route":3,
    "chutes":3,
    "bag":3,
    "slaps":3,
    "hit":3,
    "jumps":3,
    "pilot":3,
    "cable":3,
    "checked":3,
    "green":3,
    "toward":3,
    "shrugs":3,
    "buckles":3,
    "belly":3,
    "band":3,
    "six":3,
    "fromm":3,
    "spectators":3,
    "tank":3,
    "crack":3,
    "together":3,
    "static":3,
    "hook":3,
    "center":3,
    "pivots":3,
    "waist":3,
    "slips":3,
    "falls":3,
    "trots":3,
    "slight":3,
    "rise":3,
    "rolls":3,
    "return":3,
    "round":3,
    "even":3,
    "thinking":3,
    "artillery":3,
    "hill":3,
    "approaching":3,
    "onto":3,
    "grabs":3,
    "scott":3,
    "letters":3,
    "casual":3,
    "guys":3,
    "sounds":3,
    "yeah":3,
    "white":3,
    "doing":3,
    "perimeter":3,
    "forest":3,
    "view":3,
    "soldier":3,
    "allow":3,
    "deepened":3,
    "closed":3,
    "yard":3,
    "grenade":3,
    "steady":3,
    "tunic":3,
    "confusion":3,
    "splash":3,
    "nco":3,
    "decent":3,
    "type":3,
    "cest":3,
    "la":3,
    "guerre":3,
    "surrender":3,
    "others":3,
    "senses":3,
    "warn":3,
    "sky":3,
    "explosives":3,
    "collected":3,
    "satchels":3,
    "pushing":3,
    "detonator":3,
    "blow":3,
    "uppen":3,
    "privilege":3,
    "idea":3,
    "bill":3,
    "claim":3,
    "surface":3,
    "rights":3,
    "lean":3,
    "rail":3,
    "thump":3,
    "background":4,
    "third":4,
    "hope":4,
    "jeep":4,
    "already":4,
    "turn":4,
    "seem":4,
    "didnt":4,
    "watches":4,
    "personal":4,
    "exchange":4,
    "broken":4,
    "rubble":4,
    "top":4,
    "used":4,
    "safe":4,
    "lives":4,
    "bottle":4,
    "best":4,
    "drunk":4,
    "uniform":4,
    "suggest":4,
    "arrest":4,
    "brings":4,
    "cafe":4,
    "knew":4,
    "retreat":4,
    "changes":4,
    "eyes":4,
    "dietrichs":4,
    "friends":4,
    "years":4,
    "moments":4,
    "soap":4,
    "dance":4,
    "love":4,
    "kirchenstrasse":4,
    "number":4,
    "killed":4,
    "notices":4,
    "name":4,
    "kind":4,
    "table":4,
    "headquarters":4,
    "gives":4,
    "comfortable":4,
    "lucky":4,
    "daylight":4,
    "eight":4,
    "great":4,
    "hour":4,
    "expecting":4,
    "five":4,
    "speaks":4,
    "important":4,
    "expect":4,
    "blows":4,
    "beside":4,
    "sitting":4,
    "every":4,
    "feel":4,
    "rest":4,
    "made":4,
    "ha":4,
    "detail":4,
    "situation":4,
    "lead":4,
    "pause":4,
    "middle":4,
    "consider":4,
    "pay":4,
    "courage":4,
    "yards":4,
    "weapons":4,
    "though":4,
    "duty":4,
    "quiet":4,
    "magazines":4,
    "twenty":4,
    "waiting":4,
    "work":4,
    "equipment":4,
    "checking":4,
    "following":4,
    "responsible":4,
    "voice":4,
    "also":4,
    "jump":4,
    "briefing":4,
    "blackboard":4,
    "takeoff":4,
    "occasional":4,
    "scene":4,
    "silent":4,
    "darkness":4,
    "surprise":4,
    "runs":4,
    "walls":4,
    "followed":4,
    "low":4,
    "word":4,
    "scramble":4,
    "load":4,
    "stick":4,
    "bell":4,
    "harness":4,
    "straps":4,
    "tight":4,
    "wire":4,
    "air":4,
    "legs":4,
    "split":4,
    "ahead":4,
    "flank":4,
    "once":4,
    "crouch":4,
    "echoes":4,
    "slope":4,
    "cover":4,
    "waves":4,
    "ditch":4,
    "bursts":4,
    "advanced":4,
    "sides":4,
    "farmhouse":4,
    "fence":4,
    "advance":4,
    "loud":4,
    "bend":4,
    "foote":4,
    "beg":4,
    "span":4,
    "traffic":4,
    "pov":4,
    "gestures":4,
    "packs":4,
    "kraut":4,
    "wired":4,
    "blowing":4,
    "sing":4,
    "fade":5,
    "driver":5,
    "karlstadt":5,
    "help":5,
    "unit":5,
    "home":5,
    "hold":5,
    "obviously":5,
    "which":5,
    "gone":5,
    "ones":5,
    "children":5,
    "boy":5,
    "inside":5,
    "yourself":5,
    "pretty":5,
    "fine":5,
    "himself":5,
    "makes":5,
    "isnt":5,
    "most":5,
    "hot":5,
    "wait":5,
    "happened":5,
    "mans":5,
    "being":5,
    "question":5,
    "start":5,
    "various":5,
    "heavily":5,
    "stunned":5,
    "mouth":5,
    "seconds":5,
    "opens":5,
    "perfectly":5,
    "hes":5,
    "sits":5,
    "base":5,
    "ever":5,
    "listen":5,
    "death":5,
    "carefully":5,
    "least":5,
    "single":5,
    "morning":5,
    "youve":5,
    "same":5,
    "bed":5,
    "col":5,
    "obernburg":5,
    "engineers":5,
    "hours":5,
    "carry":5,
    "refuse":5,
    "gear":5,
    "far":5,
    "cross":5,
    "running":5,
    "cannot":5,
    "hurry":5,
    "250":5,
    "noise":5,
    "demo":5,
    "found":5,
    "slightly":5,
    "slow":5,
    "hanger":5,
    "below":5,
    "assault":5,
    "said":5,
    "hear":5,
    "station":5,
    "probably":5,
    "pack":5,
    "youll":5,
    "wind":5,
    "reaches":5,
    "try":5,
    "silently":5,
    "rifle":5,
    "valley":5,
    "wave":5,
    "falling":5,
    "eye":5,
    "teams":5,
    "shoulder":5,
    "orchard":5,
    "either":5,
    "arch":5,
    "girder":5,
    "abutment":5,
    "ze":5,
    "march":5,
    "pull":6,
    "muddy":6,
    "column":6,
    "theyre":6,
    "reach":6,
    "havent":6,
    "near":6,
    "coming":6,
    "couldnt":6,
    "machine":6,
    "pass":6,
    "making":6,
    "need":6,
    "half":6,
    "standing":6,
    "completely":6,
    "climb":6,
    "distance":6,
    "suppose":6,
    "shall":6,
    "heard":6,
    "hard":6,
    "never":6,
    "party":6,
    "maybe":6,
    "rather":6,
    "drops":6,
    "tries":6,
    "getting":6,
    "full":6,
    "watch":6,
    "approach":6,
    "begins":6,
    "does":6,
    "theres":6,
    "doesnt":6,
    "impossible":6,
    "arms":6,
    "couple":6,
    "whats":6,
    "many":6,
    "special":6,
    "favoring":6,
    "immediately":6,
    "rounds":6,
    "tree":6,
    "gunner":6,
    "smg":6,
    "explosive":6,
    "gestapo":6,
    "show":6,
    "report":6,
    "camera":6,
    "small":6,
    "towards":6,
    "pilots":6,
    "set":6,
    "bushes":6,
    "rain":6,
    "clear":6,
    "mud":6,
    "curve":6,
    "section":6,
    "bg":6,
    "free":6,
    "soon":7,
    "body":7,
    "looking":7,
    "big":7,
    "quickly":7,
    "remember":7,
    "drink":7,
    "lieutenants":7,
    "outside":7,
    "stops":7,
    "anger":7,
    "smiles":7,
    "oh":7,
    "thought":7,
    "water":7,
    "place":7,
    "id":7,
    "cuts":7,
    "arm":7,
    "silence":7,
    "talk":7,
    "lines":7,
    "yet":7,
    "stay":7,
    "send":7,
    "begin":7,
    "seems":7,
    "main":7,
    "everyone":7,
    "new":7,
    "army":7,
    "orders":7,
    "command":7,
    "guns":7,
    "faces":7,
    "possible":7,
    "short":7,
    "fall":7,
    "stop":7,
    "pistol":7,
    "fifteen":7,
    "later":7,
    "above":7,
    "chute":7,
    "meters":7,
    "red":7,
    "loose":7,
    "trees":7,
    "medic":7,
    "stream":7,
    "firing":7,
    "gorge":7,
    "weve":8,
    "head":8,
    "against":8,
    "trying":8,
    "dark":8,
    "course":8,
    "wouldnt":8,
    "job":8,
    "day":8,
    "starts":8,
    "nods":8,
    "high":8,
    "lise":8,
    "things":8,
    "worry":8,
    "mean":8,
    "certainly":8,
    "appear":8,
    "afraid":8,
    "agent":8,
    "pulls":8,
    "door":8,
    "better":8,
    "ive":8,
    "change":8,
    "understand":8,
    "leaving":8,
    "stands":8,
    "guards":8,
    "gosswald":8,
    "light":8,
    "ammo":8,
    "sound":8,
    "area":8,
    "planes":8,
    "weather":8,
    "chief":8,
    "sgt":8,
    "embankment":8,
    "guard":8,
    "smoke":8,
    "times":9,
    "oberlieutenant":9,
    "believe":9,
    "lost":9,
    "put":9,
    "gun":9,
    "dead":9,
    "late":9,
    "while":9,
    "thank":9,
    "ten":9,
    "herr":9,
    "oskar":9,
    "really":9,
    "something":9,
    "friend":9,
    "takes":9,
    "guess":9,
    "matter":9,
    "burst":9,
    "sergeants":9,
    "security":9,
    "plane":9,
    "thing":9,
    "shoot":9,
    "form":9,
    "officer":10,
    "leave":10,
    "wish":10,
    "sure":10,
    "slowly":10,
    "sit":10,
    "without":10,
    "please":10,
    "holds":10,
    "quick":10,
    "suddenly":10,
    "open":10,
    "point":10,
    "comes":10,
    "after":10,
    "edge":10,
    "moving":10,
    "cliff":10,
    "these":11,
    "front":11,
    "or":11,
    "walk":11,
    "position":11,
    "such":11,
    "everything":11,
    "who":11,
    "gets":11,
    "anything":11,
    "almost":11,
    "walks":11,
    "group":11,
    "second":11,
    "cut":11,
    "wounded":11,
    "okay":11,
    "ready":12,
    "line":12,
    "truck":12,
    "night":12,
    "sorry":12,
    "am":12,
    "klaus":12,
    "follow":12,
    "german":12,
    "hell":12,
    "under":12,
    "let":12,
    "ask":12,
    "room":12,
    "could":12,
    "enough":12,
    "side":12,
    "several":12,
    "find":12,
    "first":12,
    "too":12,
    "both":12,
    "attention":12,
    "sperling":12,
    "angle":12,
    "ground":12,
    "officers":12,
    "sullivan":12,
    "than":13,
    "int":13,
    "four":13,
    "good":13,
    "few":13,
    "forward":13,
    "before":13,
    "minutes":13,
    "abtmeyer":13,
    "damn":13,
    "stand":13,
    "team":13,
    "ext":14,
    "where":14,
    "cant":14,
    "through":14,
    "other":14,
    "give":14,
    "end":14,
    "say":14,
    "tell":14,
    "zone":14,
    "trucks":14,
    "germans":14,
    "until":15,
    "across":15,
    "hands":15,
    "turns":15,
    "feet":15,
    "should":15,
    "hand":15,
    "american":15,
    "prisoner":15,
    "prisoners":15,
    "check":16,
    "behind":16,
    "corporal":16,
    "still":16,
    "had":16,
    "wont":16,
    "way":16,
    "anna":16,
    "von":16,
    "river":16,
    "mission":16,
    "war":17,
    "away":17,
    "moment":17,
    "nothing":17,
    "little":17,
    "youre":17,
    "again":17,
    "major":17,
    "along":17,
    "rear":17,
    "moves":17,
    "last":18,
    "sergeant":18,
    "house":18,
    "may":18,
    "ill":18,
    "rope":18,
    "jones":18,
    "left":19,
    "order":19,
    "any":19,
    "did":19,
    "make":19,
    "lets":19,
    "three":19,
    "would":19,
    "those":19,
    "road":19,
    "why":20,
    "so":20,
    "each":20,
    "very":20,
    "paul":20,
    "colonel":20,
    "face":20,
    "when":20,
    "much":20,
    "got":21,
    "americans":21,
    "take":21,
    "shots":21,
    "mg":21,
    "looks":22,
    "keep":22,
    "only":22,
    "dissolve":23,
    "been":24,
    "more":24,
    "some":24,
    "want":24,
    "patrol":24,
    "look":25,
    "drop":25,
    "gully":25,
    "thats":26,
    "another":27,
    "around":27,
    "must":27,
    "our":27,
    "see":28,
    "she":28,
    "time":28,
    "going":29,
    "man":29,
    "long":29,
    "think":30,
    "her":30,
    "how":30,
    "stange":30,
    "us":31,
    "lt":31,
    "off":31,
    "close":31,
    "my":32,
    "were":32,
    "can":33,
    "was":33,
    "over":33,
    "move":34,
    "im":34,
    "well":35,
    "captain":35,
    "now":36,
    "come":36,
    "its":36,
    "fire":37,
    "here":39,
    "right":39,
    "then":40,
    "yes":40,
    "no":41,
    "their":41,
    "know":42,
    "just":42,
    "if":42,
    "go":43,
    "like":44,
    "into":46,
    "get":47,
    "them":47,
    "bruggemann":47,
    "about":49,
    "lieutenant":49,
    "by":49,
    "two":50,
    "an":51,
    "all":51,
    "there":53,
    "has":53,
    "what":54,
    "him":54,
    "me":54,
    "not":56,
    "one":59,
    "will":59,
    "dont":60,
    "do":61,
    "down":62,
    "back":66,
    "bridge":66,
    "sir":67,
    "kraus":67,
    "this":67,
    "but":74,
    "out":78,
    "from":79,
    "at":81,
    "your":83,
    "be":88,
    "we":91,
    "as":91,
    "with":94,
    "for":96,
    "have":98,
    "that":105,
    "men":108,
    "they":115,
    "shot":121,
    "are":124,
    "on":124,
    "up":125,
    "his":137,
    "he":154,
    "it":162,
    "dietrich":172,
    "is":203,
    "":204,
    "i":232,
    "in":239,
    "of":282,
    "you":321,
    "a":327,
    "and":407,
    "to":441,
    "the":1182
}