{
    "faintest":1,
    "notion":1,
    "reception":1,
    "minutesfive":1,
    "minutes":1,
    "ink":1,
    "stained":1,
    "fingers":1,
    "fumble":1,
    "silver":1,
    "cuff":1,
    "links":1,
    "boots":1,
    "smartly":1,
    "buffed":1,
    "brightly":1,
    "coloured":1,
    "silk":1,
    "scarf":1,
    "adjusted":1,
    "crowds":1,
    "line":1,
    "writer":1,
    "rock":1,
    "star":1,
    "prime":1,
    "fusses":1,
    "locks":1,
    "forehead":1,
    "critically":1,
    "dinners":1,
    "assemblies":1,
    "king":1,
    "emperor":1,
    "cheered":1,
    "grin":1,
    "deputations":1,
    "west":1,
    "miles":1,
    "lakes":1,
    "rivers":1,
    "backwoods":1,
    "loghouses":1,
    "cities":1,
    "factories":1,
    "villages":1,
    "townsa":1,
    "presenter":1,
    "making":1,
    "flowery":1,
    "introduction":1,
    "wand":1,
    "novel":1,
    "peoples":1,
    "wings":1,
    "steadying":1,
    "marvellous":1,
    "boz":1,
    "stagehands":1,
    "curtain":1,
    "deep":1,
    "audience":1,
    "\u201ctableaux":1,
    "vivants\u201d":1,
    "depicting":1,
    "sights":1,
    "scenes":1,
    "eaters":1,
    "roll":1,
    "canons":1,
    "twist":1,
    "band":1,
    "americans":1,
    "friendly":1,
    "hospitable":1,
    "frank":1,
    "accomplished":1,
    "warmhearted":1,
    "fervent":1,
    "enthusiastic":1,
    "uncertainly":1,
    "wilder":1,
    "blanketing":1,
    "flowers":1,
    "welcomed":1,
    "country":1,
    "fear":1,
    "ibut":1,
    "volley":1,
    "cannons":1,
    "ticker":1,
    "tape":1,
    "covering":1,
    "cant":1,
    "yanky":1,
    "dandy":1,
    "bottom":1,
    "gangy\u2013":1,
    "tentative":1,
    "repeatedly":1,
    "adesso":1,
    "subito":1,
    "veni":1,
    "qui":1,
    "de":1,
    "facto":1,
    "literary":1,
    "pleasantlooking":1,
    "accent":1,
    "wallpaper":1,
    "french":1,
    "doors":1,
    "roller":1,
    "blinds":1,
    "windows":1,
    "bookcases":1,
    "chosen":1,
    "painted":1,
    "dull":1,
    "capice":1,
    "he\u2019d":1,
    "redecorate":1,
    "animal\u2019s":1,
    "den":1,
    "workmen":1,
    "pass":1,
    "carrying":1,
    "allow":1,
    "intend":1,
    "bestow":1,
    "greatest":1,
    "happiness":1,
    "uncomprehending":1,
    "thundering":1,
    "track":1,
    "mantle":1,
    "staggers":1,
    "carrara":1,
    "marble":1,
    "finest":1,
    "accept":1,
    "return":1,
    "workman":1,
    "busy":1,
    "attaching":1,
    "shiny":1,
    "cab":1,
    "waste":1,
    "followed":1,
    "skyline":1,
    "lengthen":1,
    "days":1,
    "steadily":1,
    "purpose":1,
    "seem":1,
    "simple":1,
    "stumpy":1,
    "shiners":1,
    "joeys\u2014":1,
    "winces":1,
    "apologize":1,
    "pick":1,
    "crockery":1,
    "bull":1,
    "china":1,
    "shop":1,
    "resumes":1,
    "tirade":1,
    "bestselling":1,
    "history":1,
    "literature":1,
    "pressed":1,
    "headline":1,
    "reads":1,
    "\u201cmartin":1,
    "tedious":1,
    "journey\u201d":1,
    "published":1,
    "half":1,
    "so\u2014":1,
    "puzzled":1,
    "egyptians":1,
    "howzat":1,
    "excitement":1,
    "reputation":1,
    "kept":1,
    "highest":1,
    "mark":1,
    "subject":1,
    "lulls":1,
    "capricious":1,
    "ahm":1,
    "followin\u2019":1,
    "\u2014martin":1,
    "chuzzlewit\u2014":1,
    "masterpiece":1,
    "picaresque":1,
    "genre\u2014":1,
    "yet\u2014":1,
    "barnaby":1,
    "rudge\u2014":1,
    "important":1,
    "subject\u2014":1,
    "but\u2014":1,
    "alas\u2014":1,
    "travel":1,
    "\u201camerican":1,
    "notes\u201d\u2014":1,
    "perhaps\u2014":1,
    "candid":1,
    "cousins\u2014":1,
    "pained":1,
    "snakes":1,
    "yanks":1,
    "renews":1,
    "attack":1,
    "withholding":1,
    "royalties":1,
    "squirm":1,
    "produces":1,
    "contract":1,
    "nervousness":1,
    "provide":1,
    "approached":1,
    "interestfree":1,
    "provision":1,
    "that\u2014":1,
    "unlikely":1,
    "profits":1,
    "inadequate":1,
    "certain":1,
    "repayments\u2014":1,
    "erupts":1,
    "divven\u2019t":1,
    "hoy":1,
    "ket":1,
    "sackless":1,
    "mairks":1,
    "hasn\u2019t":1,
    "publishing":1,
    "wouldnt":1,
    "exist":1,
    "nervous":1,
    "suggestion\u2014":1,
    "reading":1,
    "public":1,
    "consider\u2014":1,
    "in\u2013":1,
    "works":1,
    "frowning":1,
    "serious":1,
    "yellowbacked":1,
    "jobs":1,
    "adverts":1,
    "fig":1,
    "syrup":1,
    "watch":1,
    "obscure":1,
    "obviously":1,
    "we\u2019d":1,
    "itif":1,
    "willdickens":1,
    "bid":1,
    "offense":1,
    "ay":1,
    "fettle":1,
    "\u201che\u201d":1,
    "countryside":1,
    "strict":1,
    "instructions":1,
    "remain":1,
    "\u201cneed":1,
    "productive":1,
    "fatal":1,
    "consequences":1,
    "beseech":1,
    "needful\u201d":1,
    "slips":1,
    "offering":1,
    "autographs":1,
    "sale":1,
    "newspapers":1,
    "hiding":1,
    "commiserate":1,
    "quote":1,
    "cranes":1,
    "clammin\u2019":1,
    "scran":1,
    "slinks":1,
    "inedible":1,
    "fees":1,
    "elderly":1,
    "bows":1,
    "low":1,
    "losing":1,
    "balance":1,
    "fixes":1,
    "worry":1,
    "collects":1,
    "names":1,
    "exits":1,
    "stately":1,
    "tolerable":1,
    "ye":1,
    "vile":1,
    "scandalous":1,
    "nowadays":1,
    "waits":1,
    "\u201cdull":1,
    "vapid":1,
    "single":1,
    "capable":1,
    "exciting":1,
    "sympathy\u201d":1,
    "macready":1,
    "macbeth":1,
    "absolutely":1,
    "shredded":1,
    "condolences":1,
    "rejoin":1,
    "bar":1,
    "overcrowded":1,
    "overpriced":1,
    "\u2013you":1,
    "town\u2013":1,
    "fogforster":1,
    "whatdoyoucall":1,
    "bangs":1,
    "lamp\u2019s":1,
    "feel":1,
    "whssht":1,
    "puppy":1,
    "pours":1,
    "refuge":1,
    "deadline":1,
    "youse":1,
    "listening":1,
    "mounds":1,
    "leads":1,
    "wild":1,
    "hunt":1,
    "housemaid":1,
    "adores":1,
    "sputters":1,
    "shows":1,
    "carry":1,
    "funny":1,
    "joking":1,
    "beggar":1,
    "insist":1,
    "bigger":1,
    "order":1,
    "fixtures":1,
    "complain":1,
    "speaks":1,
    "fervid":1,
    "intensity":1,
    "whereof":1,
    "ogre":1,
    "eat":1,
    "tooth":1,
    "nail":1,
    "bread":1,
    "mmmm":1,
    "journalist":1,
    "hate":1,
    "press":1,
    "lawyer":1,
    "ass\u201d":1,
    "hairdresser":1,
    "burlington":1,
    "arcade":1,
    "\u201chair":1,
    "shampooed":1,
    "oxford":1,
    "system\u201d":1,
    "liked":1,
    "referring":1,
    "explorer":1,
    "paddling":1,
    "canoe":1,
    "wilds":1,
    "canada":1,
    "buckskin":1,
    "breeches":1,
    "nappies":1,
    "stranger":1,
    "year\u2019s":1,
    "genial":1,
    "middleaged":1,
    "headdress":1,
    "necromancer":1,
    "rhia":1,
    "rhama":1,
    "rhoos":1,
    "educated":1,
    "cabalistically":1,
    "orange":1,
    "groves":1,
    "salamanca":1,
    "behold":1,
    "claps":1,
    "theatrically":1,
    "brothers":1,
    "sisters":1,
    "settled":1,
    "sheet":1,
    "hanging":1,
    "clothes":1,
    "horse":1,
    "boy\u2019s":1,
    "safe":1,
    "rid":1,
    "mistress":1,
    "chickenstalker":1,
    "giggles":1,
    "pinnie":1,
    "cyclone":1,
    "moves":1,
    "walter":1,
    "salutes":1,
    "corporal":1,
    "skittles":1,
    "fixedly":1,
    "walter\u2019s":1,
    "shoes":1,
    "ahem":1,
    "lucifer":1,
    "box":1,
    "aha":1,
    "snodgering":1,
    "blee":1,
    "pa":1,
    "inspects":1,
    "forgot":1,
    "wash":1,
    "charley\u2019s":1,
    "delight":1,
    "cor":1,
    "gran":1,
    "ireland":1,
    "veil":1,
    "thins":1,
    "cross":1,
    "among":1,
    "reflects":1,
    "unimpressed":1,
    "adore":1,
    "strained":1,
    "particularly":1,
    "object":1,
    "pickpockets":1,
    "streetwalkers":1,
    "belong":1,
    "indicates":1,
    "knot":1,
    "barefoot":1,
    "watching":1,
    "selfmade":1,
    "pulled":1,
    "bootstraps":1,
    "willing":1,
    "cotton":1,
    "mill":1,
    "wedding":1,
    "ignores":1,
    "shoeing":1,
    "urchin":1,
    "begging":1,
    "suggest":1,
    "\u201cthose":1,
    "people\u201d":1,
    "workhouses":1,
    "reduce":1,
    "surplus":1,
    "population":1,
    "strides":1,
    "buy":1,
    "workers":1,
    "suitable":1,
    "sweeping":1,
    "aside":1,
    "cloak":1,
    "reveals":1,
    "emaciated":1,
    "reels":1,
    "shock":1,
    "police":1,
    "knocked":1,
    "drawn":1,
    "horses":1,
    "\u201cwarren\u2019s":1,
    "freezes":1,
    "toothless":1,
    "hearing":1,
    "footsteps":1,
    "darkened":1,
    "alleyway":1,
    "faster":1,
    "disorientated":1,
    "rest":1,
    "eternal":1,
    "grant":1,
    "o":1,
    "perpetual":1,
    "shine":1,
    "reacts":1,
    "hat":1,
    "businessman":1,
    "owner":1,
    "tear":1,
    "\u2014on":1,
    "meets":1,
    "knowhe":1,
    "\u2014supernatural":1,
    "guides\u2014":1,
    "possibly\u2013":1,
    "loathsome":1,
    "toad":1,
    "hammerblow":1,
    "selfsatisfied":1,
    "age":1,
    "nod":1,
    "enthusiasm":1,
    "comedy":1,
    "ahha":1,
    "called":1,
    "uh\u2014":1,
    "christmas\u2014":1,
    "song":1,
    "ballad":1,
    "clears":1,
    "throat":1,
    "intriguing":1,
    "question\u2014":1,
    "chortles":1,
    "celebrate":1,
    "misses":1,
    "mans":1,
    "\u201cchristmas":1,
    "books\u201dwhat":1,
    "rising":1,
    "is\u2014":1,
    "be\u2014":1,
    "men":1,
    "women":1,
    "shutup":1,
    "hearts":1,
    "fellowpassengers":1,
    "creatures":1,
    "altogether":1,
    "vigorously":1,
    "halfway":1,
    "october":1,
    "illustrated":1,
    "typeset":1,
    "bound":1,
    "advertised":1,
    "distributed":1,
    "shops":1,
    "rips":1,
    "given":1,
    "\u2014the":1,
    "scalyheaded":1,
    "vultures\u2014":1,
    "grubbing":1,
    "scumsucking\u2014":1,
    "distribute":1,
    "madness":1,
    "finances":1,
    "renegotiate":1,
    "aa":1,
    "minor":1,
    "holiday":1,
    "coldly":1,
    "strongly":1,
    "capital":1,
    "learned":1,
    "metropolis":1,
    "colour":1,
    "inhales":1,
    "loanmr":1,
    "wanted":1,
    "rifle":1,
    "dogeared":1,
    "recallhaddock":1,
    "finds":1,
    "biscuits":1,
    "ow":1,
    "leapt":1,
    "rascal":1,
    "idickens":1,
    "copyright":1,
    "infringement":1,
    "twisted":1,
    "\u201cas":1,
    "reoriginated":1,
    "original\u201d":1,
    "file":1,
    "won":1,
    "hundred":1,
    "cries":1,
    "hundred\u2014":1,
    "beaten\u2014":1,
    "defendants":1,
    "bankrupt":1,
    "disappointing":1,
    "arrested":1,
    "prison":1,
    "repulsed":1,
    "meanwhile":1,
    "unlocks":1,
    "metal":1,
    "\u201cpayment":1,
    "demand\u201d":1,
    "here\u2019s":1,
    "rush":1,
    "dips":1,
    "placidly":1,
    "stifle":1,
    "anxiety":1,
    "royalty":1,
    "trifling":1,
    "sum\u2014":1,
    "400":1,
    "chokes":1,
    "mm":1,
    "listens":1,
    "attentively":1,
    "defer":1,
    "add":1,
    "borrow":1,
    "much\u2014":1,
    "300":1,
    "until\u2014":1,
    "wipes":1,
    "brow":1,
    "percent":1,
    "contain":1,
    "leaps":1,
    "piteous":1,
    "meow":1,
    "ashen":1,
    "require":1,
    "repaid":1,
    "fail":1,
    "sort":1,
    "details":1,
    "faint":1,
    "shrugging":1,
    "kidney":1,
    "spasm":1,
    "stalks":1,
    "illustrator":1,
    "a1":1,
    "condition":1,
    "inscribed":1,
    "handwritten":1,
    "inscription":1,
    "senior":1,
    "skeptically":1,
    "caged":1,
    "crow":1,
    "perch":1,
    "dickens\u2019s":1,
    "strike":1,
    "old\u2014":1,
    "scrounger":1,
    "whatshisname":1,
    "screwpull":1,
    "scrabbly":1,
    "scr\u2014rrrr\u2014aahhh\u2014":1,
    "chhaahhh":1,
    "push":1,
    "forward":1,
    "bite":1,
    "softly":1,
    "squeals":1,
    "interrupted":1,
    "circumstances":1,
    "tara\u2019s":1,
    "reluctantly":1,
    "winged":1,
    "\u201cvarney":1,
    "blood\u201d":1,
    "mum":1,
    "died":1,
    "grubber":1,
    "she\u2019d":1,
    "plucks":1,
    "shelf":1,
    "arabian":1,
    "nights":1,
    "trade":1,
    "varney":1,
    "saying\u2014":1,
    "concocting":1,
    "then\u2014":1,
    "lucky":1,
    "dart":1,
    "oblivious":1,
    "scrantish":1,
    "s\u2014c\u2014rarmer\u2014":1,
    "s\u2014c\u2014r\u2014ungge":1,
    "closes":1,
    "conjuring":1,
    "image":1,
    "awestruck":1,
    "standoffish":1,
    "\u2018em":1,
    "naturally":1,
    "play":1,
    "game":1,
    "games":1,
    "humour":1,
    "\u201cdarkness\u201d":1,
    "swindle":1,
    "security":1,
    "nuisances":1,
    "both":1,
    "jump":1,
    "piercing":1,
    "scream":1,
    "cowering":1,
    "dive":1,
    "filthy":1,
    "waves":1,
    "chap":1,
    "neighbourhood":1,
    "talks":1,
    "clutches":1,
    "edge":1,
    "bannister":1,
    "motions":1,
    "disguise":1,
    "expected\u2014":1,
    "banishment":1,
    "merciful":1,
    "exile":1,
    "hath":1,
    "look\u2014":1,
    "gave":1,
    "sheepish":1,
    "wherever":1,
    "mother\u2014":1,
    "delicate":1,
    "sensibility":1,
    "cows":1,
    "causes":1,
    "actual":1,
    "physical":1,
    "pain":1,
    "feature":1,
    "greatly":1,
    "impressed":1,
    "series":1,
    "marine":1,
    "insurance":1,
    "enjoy":1,
    "apprehensively":1,
    "impressive":1,
    "lend":1,
    "tenner":1,
    "fellow":1,
    "farthing":1,
    "ominous":1,
    "perched":1,
    "cleaned":1,
    "surround":1,
    "tongue":1,
    "upstairs":1,
    "gah":1,
    "father\u201d":1,
    "man\u2019s":1,
    "rapidly":1,
    "prewriting":1,
    "ritual":1,
    "paying":1,
    "bills":1,
    "furiously":1,
    "finding":1,
    "richer":1,
    "excellent":1,
    "idiot":1,
    "\u201cmerry":1,
    "christmas\u201d":1,
    "boiled":1,
    "buried":1,
    "stake":1,
    "loud":1,
    "admiringly":1,
    "scratching":1,
    "squeezing":1,
    "wrenching":1,
    "grasping":1,
    "scraping":1,
    "clutching":1,
    "flint":1,
    "generous":1,
    "selfcontained":1,
    "solitary":1,
    "oyster":1,
    "rearranges":1,
    "features":1,
    "scowl":1,
    "wondered":1,
    "candlestick":1,
    "oooo":1,
    "cigars":1,
    "confess":1,
    "acquired":1,
    "irrepressible":1,
    "habit":1,
    "smoking":1,
    "shameful":1,
    "detain":1,
    "tiptoes":1,
    "raps":1,
    "angrily":1,
    "reappears":1,
    "summonedsuddenly":1,
    "clanking":1,
    "dragged":1,
    "terrified":1,
    "uhbunsby":1,
    "clennam":1,
    "heephexam":1,
    "magwitch":1,
    "dim":1,
    "covered":1,
    "padlocks":1,
    "cashboxes":1,
    "doornail":1,
    "mankind":1,
    "welfare":1,
    "mercy":1,
    "forbearance":1,
    "benevolence":1,
    "answer":1,
    "pray":1,
    "clanks":1,
    "dragging":1,
    "wear":1,
    "forged":1,
    "girded":1,
    "wore":1,
    "pattern":1,
    "weight":1,
    "length":1,
    "strong":1,
    "coil":1,
    "surely":1,
    "racing":1,
    "loose":1,
    "thee":1,
    "blithe":1,
    "odours":1,
    "perfume":1,
    "circumambient":1,
    "fragrant":1,
    "adoration":1,
    "fills":1,
    "frame":1,
    "accompanied":1,
    "burly":1,
    "meaning":1,
    "termagant":1,
    "breach":1,
    "yuletide":1,
    "forty":1,
    "fourteen":1,
    "months":1,
    "arrears":1,
    "handcuffs":1,
    "enter":1,
    "loading":1,
    "household":1,
    "goods":1,
    "furniture":1,
    "silverware":1,
    "misunderstanding":1,
    "circumstance":1,
    "decided":1,
    "ensuing":1,
    "term":1,
    "handcuffed":1,
    "helpless":1,
    "reach":1,
    "shattering":1,
    "prickly":1,
    "cheapest\u2014":1,
    "cheapest\u2013":1,
    "\u2013charles":1,
    "slow":1,
    "slows":1,
    "you\u2019redickens":1,
    "constant":1,
    "interruptions":1,
    "staying":1,
    "worse":1,
    "time\u2013":1,
    "distracted":1,
    "pretty":1,
    "woman":1,
    "chaperone":1,
    "fiancee":1,
    "youfiancee":1,
    "canny":1,
    "angel":1,
    "sylph":1,
    "a\u2013":1,
    "perplexed":1,
    "parting":1,
    "ways":1,
    "engaged\u2014":1,
    "gateshead":1,
    "matrimonial":1,
    "stick":1,
    "manfully":1,
    "masters":1,
    "emotions":1,
    "ticket":1,
    "wood":1,
    "cuts":1,
    "etchings":1,
    "handcoloured":1,
    "rustic":1,
    "papers":1,
    "cost":1,
    "brought":1,
    "hired":1,
    "asking":1,
    "genius":1,
    "poker":1,
    "paid":1,
    "plus":1,
    "doom":1,
    "lay":1,
    "pursue":1,
    "fix":1,
    "grazie":1,
    "guineas":1,
    "laughter":1,
    "british":1,
    "sister":1,
    "manchester":1,
    "henry\u2019s":1,
    "grace":1,
    "nephew":1,
    "recognize":1,
    "crutch":1,
    "violently":1,
    "shyly":1,
    "\u2018un":1,
    "shoulders":1,
    "follows":1,
    "watches":1,
    "says":1,
    "manage":1,
    "position":1,
    "reprobate":1,
    "adopts":1,
    "tone":1,
    "\u201cobserve":1,
    "vacancy\u201d":1,
    "harm":1,
    "bobs":1,
    "cork":1,
    "surface":1,
    "futurefanny":1,
    "abaft":1,
    "scurvy":1,
    "arrived":1,
    "crowded":1,
    "shouts":1,
    "brail":1,
    "capstanbar":1,
    "sheepshank":1,
    "mizzen":1,
    "full":1,
    "faults":1,
    "kinder":1,
    "sighs":1,
    "growing":1,
    "indigestion":1,
    "creep":1,
    "awfully":1,
    "likely":1,
    "mucking":1,
    "keen":1,
    "fearful":1,
    "ajar":1,
    "slams":1,
    "adventure":1,
    "board":1,
    "tall":1,
    "dread":1,
    "tumbledown":1,
    "beneath":1,
    "sign":1,
    "warrens":1,
    "spilling":1,
    "bustles":1,
    "tossing":1,
    "dreams":1,
    "daylight":1,
    "cure":1,
    "trust":1,
    "onward":1,
    "screaming":1,
    "recall":1,
    "wasting":1,
    "all\u2019ot":1,
    "eel":1,
    "mutton":1,
    "all\u2019":1,
    "ot":1,
    "buyers":1,
    "sellers":1,
    "thimbles":1,
    "pea":1,
    "niver":1,
    "thieves":1,
    "ruffians":1,
    "\u201csouk\u201d":1,
    "admiration":1,
    "newsagent":1,
    "calling":1,
    "highly":1,
    "murder":1,
    "fiddler":1,
    "plays":1,
    "tune":1,
    "theatre":1,
    "facts":1,
    "calculations":1,
    "realities":1,
    "fancy":1,
    "devil":1,
    "thatdickens":1,
    "papier":1,
    "mache":1,
    "toddling":1,
    "pops":1,
    "flyer":1,
    "advertisement":1,
    "frozen":1,
    "direction":1,
    "poultry":1,
    "prunes":1,
    "reminisces":1,
    "kate\u2019s":1,
    "benefit":1,
    "dinners\u2014":1,
    "champagne\u2014":1,
    "ties":1,
    "napkin":1,
    "giggle":1,
    "joining":1,
    "begin":1,
    "begun":1,
    "capon":1,
    "cook":1,
    "chairs":1,
    "chintz":1,
    "squabs":1,
    "match":1,
    "reddens":1,
    "rosewood":1,
    "approved":1,
    "taste":1,
    "pawned":1,
    "satirical":1,
    "bewildered":1,
    "waistcoat":1,
    "persian":1,
    "crimson":1,
    "expensive":1,
    "procrastination":1,
    "thief":1,
    "collar":1,
    "decides":1,
    "unperturbed":1,
    "digs":1,
    "poet":1,
    "divine":1,
    "frenzy":1,
    "suffered":1,
    "delirium":1,
    "detriment":1,
    "health":1,
    "apprenticed":1,
    "fezziwig":1,
    "freeze":1,
    "fisk\u2014":1,
    "skittleshins":1,
    "easy":1,
    "state":1,
    "bore":1,
    "torch":1,
    "held":1,
    "peeping":1,
    "brighten":1,
    "revealing":1,
    "throne":1,
    "amidst":1,
    "cornucopia":1,
    "apples":1,
    "oranges":1,
    "pears":1,
    "chestnuts":1,
    "mistletoe":1,
    "circle":1,
    "various":1,
    "rapt":1,
    "closer":1,
    "fearfully":1,
    "thisproduce":1,
    "gifts":1,
    "abundance":1,
    "unlike":1,
    "hearth":1,
    "modest":1,
    "mashed":1,
    "apple":1,
    "sauce":1,
    "gravy":1,
    "roasted":1,
    "goose":1,
    "outdone":1,
    "beams":1,
    "pitched":1,
    "mismatched":1,
    "cups":1,
    "lifts":1,
    "dears":1,
    "tim\u2019s":1,
    "body":1,
    "racked":1,
    "crippled":1,
    "personal":1,
    "fifteen":1,
    "bristles":1,
    "inch":1,
    "existence":1,
    "counter":1,
    "observe":1,
    "they\u2019re":1,
    "contented":1,
    "whereas":1,
    "content":1,
    "folly":1,
    "heed":1,
    "farewell":1,
    "wait\u2013":1,
    "intermission":1,
    "spontaneously":1,
    "applaud":1,
    "bow":1,
    "performance":1,
    "normal":1,
    "disappear":1,
    "herself":1,
    "awaking":1,
    "alive":1,
    "almost":1,
    "drifts":1,
    "especially":1,
    "mite":1,
    "affected":1,
    "jolting":1,
    "reverie":1,
    "wary":1,
    "onesidedonesided":1,
    "explain":1,
    "liberty":1,
    "rational":1,
    "selfinterest":1,
    "natural":1,
    "tendency":1,
    "marketsdickens":1,
    "anyway":1,
    "56a":1,
    "leechs":1,
    "studio":1,
    "gloomy":1,
    "wonderful":1,
    "\u2014my":1,
    "leech\u2014":1,
    "draw":1,
    "kindness":1,
    "he\u2019she":1,
    "stores":1,
    "miracle":1,
    "sniggers":1,
    "row":1,
    "eyeballs":1,
    "advice":1,
    "presence":1,
    "happened":1,
    "shrouded":1,
    "finger":1,
    "following":1,
    "feeling":1,
    "entered":1,
    "cratchit\u2019s":1,
    "robert":1,
    "cemetery":1,
    "promised":1,
    "sunday":1,
    "cracks":1,
    "covers":1,
    "rude":1,
    "imbecile":1,
    "wouldn\u2019twhy":1,
    "rolls":1,
    "wicked":1,
    "plagued":1,
    "lad":1,
    "dad":1,
    "proudly":1,
    "jeer":1,
    "flushes":1,
    "embarrassment":1,
    "queen":1,
    "\u2018eard":1,
    "stone":1,
    "jug":1,
    "hush":1,
    "manners":1,
    "addresses":1,
    "politeness":1,
    "join":1,
    "bench":1,
    "surroundings":1,
    "vats":1,
    "hisses":1,
    "tis":1,
    "witching":1,
    "churchyards":1,
    "yawn":1,
    "hell":1,
    "itself":1,
    "out\u2014":1,
    "hot":1,
    "grips":1,
    "hair":1,
    "selfpreservation":1,
    "drunkenly":1,
    "negotiating":1,
    "\u201coh":1,
    "lose":1,
    "thy":1,
    "neromr":1,
    "regain":1,
    "posture":1,
    "able":1,
    "say\u2014":1,
    "due":1,
    "pecuniary":1,
    "involvements":1,
    "complicated":1,
    "nature\u2014":1,
    "necessary":1,
    "cancel":1,
    "rejoice":1,
    "hovering":1,
    "scowling":1,
    "afternoon":1,
    "herehe":1,
    "fumbles":1,
    "reproachful":1,
    "obstacles":1,
    "win":1,
    "maybe":1,
    "debtors":1,
    "stopping":1,
    "admit":1,
    "advicedickens":1,
    "allegedly":1,
    "notebook":1,
    "candlescandal":1,
    "flirthurt":1,
    "charlottepoor":1,
    "poem":1,
    "atrocious":1,
    "snatch":1,
    "wrong":1,
    "entire":1,
    "cast":1,
    "scrooge\u2014":1,
    "person":1,
    "overnight":1,
    "worships":1,
    "matters":1,
    "trusts":1,
    "suppose":1,
    "hullo":1,
    "chaps":1,
    "ages":1,
    "neck":1,
    "heels":1,
    "flummoxed":1,
    "deuce":1,
    "about\u2014":1,
    "sold":1,
    "\u201cthere\u2019s":1,
    "thar":1,
    "hills\u201d":1,
    "real":1,
    "\u201cshes":1,
    "shes":1,
    "bonny":1,
    "likes":1,
    "beer":1,
    "cushie":1,
    "butterfield":1,
    "here\u201d":1,
    "language":1,
    "gapes":1,
    "confusion":1,
    "hungerford":1,
    "phew":1,
    "smell":1,
    "looming":1,
    "swirling":1,
    "burnt":1,
    "boot":1,
    "sweaty":1,
    "expression":1,
    "recurring":1,
    "nightmare":1,
    "nightmares":1,
    "chased":1,
    "badger":1,
    "afraid":1,
    "daft":1,
    "worried":1,
    "wife\u2014":1,
    "friend\u2019s":1,
    "freak":1,
    "spending":1,
    "cowld":1,
    "drunken":1,
    "flees":1,
    "attend":1,
    "i\u2019d\u2014":1,
    "town":1,
    "have\u2014":1,
    "piece":1,
    "crumpled":1,
    "discarded":1,
    "rubbish":1,
    "tramp":1,
    "ashamed":1,
    "furnished":1,
    "reason":1,
    "man\u2014":1,
    "dont":1,
    "fury":1,
    "incandescent\u2014":1,
    "years":1,
    "it\u2014":1,
    "hungry":1,
    "wandering":1,
    "utterly":1,
    "thriftlessmr":1,
    "weeps":1,
    "don\u2019t\u2014":1,
    "victim":1,
    "lived":1,
    "lives":1,
    "recklessness":1,
    "weeping":1,
    "owe":1,
    "shuts":1,
    "firmly":1,
    "breathing":1,
    "\u201care":1,
    "only\u2019\u201d":1,
    "pulling":1,
    "promise":1,
    "encouraging\u2014":1,
    "criticism\u2014":1,
    "\u2014tiny":1,
    "tim\u2014":1,
    "shouldn\u2019t":1,
    "hopeful":1,
    "natures":1,
    "prevail":1,
    "kill":1,
    "nell":1,
    "decision":1,
    "implored":1,
    "welcome\u2014":1,
    "\u2014for":1,
    "reminding":1,
    "required":1,
    "sack":1,
    "dozing":1,
    "sofa":1,
    "depressed":1,
    "flips":1,
    "titter":1,
    "fools":1,
    "cynical":1,
    "sometime":1,
    "\u201cis":1,
    "kate\u201d":1,
    "\u201cyour":1,
    "required\u201d":1,
    "\u201ci\u2019m":1,
    "you\u201d":1,
    "hypocrite":1,
    "replying":1,
    "furious":1,
    "cup":1,
    "cocoa":1,
    "sent":1,
    "intolerable":1,
    "scurries":1,
    "triumph":1,
    "quiet":1,
    "humanity\u2019s":1,
    "benefactor":1,
    "bald":1,
    "crosses":1,
    "defiantly":1,
    "others":1,
    "suit":1,
    "inkwell":1,
    "fireplace":1,
    "shatters":1,
    "instantly":1,
    "empties":1,
    "coward":1,
    "clearly":1,
    "authority":1,
    "search":1,
    "rehire":1,
    "orphan":1,
    "needle":1,
    "haystack":1,
    "said\u2014":1,
    "knew":1,
    "married":1,
    "possession":1,
    "eggshells":1,
    "guess":1,
    "mood":1,
    "commands":1,
    "whim":1,
    "sometimes":1,
    "flesh":1,
    "self":1,
    "storms":1,
    "73a":1,
    "gent\u2019lmun":1,
    "seeing":1,
    "approaching":1,
    "flings":1,
    "launches":1,
    "easily":1,
    "pushes":1,
    "gather":1,
    "cheer":1,
    "commences":1,
    "pummelling":1,
    "famous":1,
    "bit":1,
    "riffraff":1,
    "living":1,
    "scraps":1,
    "squalid":1,
    "wretch":1,
    "anyone\u2014":1,
    "lunges":1,
    "grabbing":1,
    "thin":1,
    "reflected":1,
    "looms":1,
    "hmm":1,
    "abandoned":1,
    "putting":1,
    "fault":1,
    "rotten":1,
    "blocking":1,
    "path":1,
    "vat":1,
    "squeal":1,
    "rats":1,
    "falling":1,
    "woodwork":1,
    "failed":1,
    "horror":1,
    "holding":1,
    "forcing":1,
    "hunger":1,
    "darkness":1,
    "crack":1,
    "stain":1,
    "block":1,
    "fun":1,
    "lies":1,
    "use":1,
    "\u201cno":1,
    "another\u201d":1,
    "middle":1,
    "nervously":1,
    "whom":1,
    "belongs":1,
    "joy":1,
    "pleasure":1,
    "endscrooge":1,
    "wall":1,
    "stood":1,
    "surrounded":1,
    "framed":1,
    "ceiling":1,
    "unloved":1,
    "forgotten":1,
    "try":1,
    "future":1,
    "lessons":1,
    "directly":1,
    "imploring":1,
    "laughing":1,
    "crying":1,
    "pull":1,
    "genuinely":1,
    "transformed":1,
    "church":1,
    "bell":1,
    "chimes":1,
    "o\u2019clock":1,
    "shocked":1,
    "discover":1,
    "infinitely":1,
    "observed":1,
    "bundles":1,
    "downstairs":1,
    "o\u2019clock91":1,
    "brightens":1,
    "delights":1,
    "robinson":1,
    "crusoe":1,
    "surprise":1,
    "sending":1,
    "mistake":1,
    "mantelpiece":1,
    "sitting":1,
    "gift":1,
    "ifdickens":1,
    "stuffs":1,
    "jacket":1,
    "abruptly":1,
    "kisses":1,
    "latest":1,
    "queen\u2019s":1,
    "drawing":1,
    "aboard":1,
    "hi":1,
    "understand\u2014":1,
    "maniacally":1,
    "carve":1,
    "softens":1,
    "treacle":1,
    "embraces":1,
    "warmly":1,
    "finally":1,
    "widen":1,
    "astonishment":1,
    "guilty":1,
    "fan":1,
    "wept":1,
    "baby":1,
    "very\u2014":1,
    "shoe":1,
    "lane":1,
    "hurry":1,
    "97b":1,
    "flying":1,
    "wind":1,
    "chapters":1,
    "guarantee":1,
    "97d":1,
    "prolong":1,
    "agony":1,
    "package":1,
    "tied":1,
    "bright":1,
    "ribbon":1,
    "handles":1,
    "imagined":1,
    "gents":1,
    "extraordinary":1,
    "evening\u2019s":1,
    "prodigy":1,
    "armchair":1,
    "flourish":1,
    "heavens":1,
    "germans":1,
    "tannenbaum":1,
    "royal":1,
    "branch":1,
    "blushing":1,
    "engagement":1,
    "ring":1,
    "brandishes":1,
    "\u201cit":1,
    "blessed":1,
    "dickensa":1,
    "warms":1,
    "bosom":1,
    "kind\u201d":1,
    "applauds":1,
    "punch":1,
    "girls":1,
    "toast":1,
    "christmases":1,
    "friendships":1,
    "accumulation":1,
    "recollections":1,
    "heaven":1,
    "opportunity":1,
    "season":1,
    "firesides":1,
    "tops":1,
    "shelter":1,
    "underneath":1,
    "lineup":1,
    "trail":1,
    "purchase":1,
    "beautiful":1,
    "bustling":1,
    "dickensian":1,
    "fade":1,
    "five":2,
    "pair":2,
    "pour":2,
    "english":2,
    "regards":2,
    "balls":2,
    "speeches":2,
    "parties":2,
    "breaks":2,
    "\u2018ello":2,
    "places":2,
    "deafening":2,
    "magician":2,
    "shakespeare":2,
    "deeply":2,
    "manager":2,
    "inimitable":2,
    "ladies":2,
    "raise":2,
    "rises":2,
    "beef":2,
    "oliver":2,
    "urchins":2,
    "dance":2,
    "earnest":2,
    "speech":2,
    "shrinks":2,
    "ears":2,
    "doodle":2,
    "tour":2,
    "friend":2,
    "geordie":2,
    "staircase":2,
    "though":2,
    "si":2,
    "chandelier":2,
    "wigmore":2,
    "splendid":2,
    "marry":2,
    "glad":2,
    "completely":2,
    "seventyfive":2,
    "quality":2,
    "less":2,
    "shall":2,
    "hail":2,
    "mad":2,
    "question":2,
    "forster\u2014":2,
    "crash":2,
    "clerk":2,
    "broken":2,
    "publication":2,
    "fog":2,
    "popular":2,
    "selling":2,
    "explanation":2,
    "american":2,
    "burning":2,
    "copies":2,
    "notices":2,
    "fifty":2,
    "month":2,
    "loan":2,
    "actually":2,
    "edition":2,
    "review":2,
    "advance":2,
    "calm":2,
    "difficulty":2,
    "envelope":2,
    "torn":2,
    "signature":2,
    "fortyfive":2,
    "he\u2019ll":2,
    "reviews":2,
    "walks":2,
    "scuttles":2,
    "seen":2,
    "chair":2,
    "where\u2019s":2,
    "robertson":2,
    "service":2,
    "food":2,
    "gaze":2,
    "celebrating":2,
    "shoots":2,
    "skeptical":2,
    "allowed":2,
    "print":2,
    "grits":2,
    "vulgar":2,
    "readers":2,
    "certainly":2,
    "tight":2,
    "wafts":2,
    "mention":2,
    "plate":2,
    "ideas":2,
    "exhausted":2,
    "tomorrow":2,
    "children\u2019s":2,
    "you\u2014":2,
    "grins":2,
    "chapter":2,
    "helps":2,
    "ululalulalu":2,
    "eve":2,
    "irish":2,
    "stub":2,
    "moving":2,
    "careful":2,
    "become":2,
    "\u201cthe":2,
    "law":2,
    "thoughts":2,
    "saw":2,
    "today":2,
    "elaborate":2,
    "front":2,
    "comfort":2,
    "clap":2,
    "disappears":2,
    "caught":2,
    "standing":2,
    "offers":2,
    "handkerchief":2,
    "clinging":2,
    "leg":2,
    "coin":2,
    "ear":2,
    "charity":2,
    "continue":2,
    "outside":2,
    "wasn\u2019t":2,
    "whilst":2,
    "rather":2,
    "control":2,
    "temper":2,
    "chimney":2,
    "legs":2,
    "runs":2,
    "tow":2,
    "chase":2,
    "cart":2,
    "side":2,
    "written":2,
    "pride":2,
    "mankind\u201d":2,
    "left":2,
    "amen":2,
    "scratch":2,
    "doorknocker":2,
    "miser":2,
    "partner":2,
    "dies":2,
    "shed":2,
    "thinks":2,
    "eve\u2014":2,
    "teach":2,
    "selfish":2,
    "short":2,
    "smug":2,
    "relief":2,
    "er":2,
    "picking":2,
    "twentyfifth":2,
    "december":2,
    "shifts":2,
    "ought":2,
    "race":2,
    "couldn\u2019t":2,
    "printed":2,
    "blaze":2,
    "ill":2,
    "including":2,
    "throw":2,
    "felt":2,
    "properly":2,
    "put":2,
    "cheeks":2,
    "mittens":2,
    "files":2,
    "cat":2,
    "lap":2,
    "lawsuit":2,
    "twentytwo":2,
    "pirates":2,
    "debtor\u2019s":2,
    "wrapped":2,
    "stamped":2,
    "bill":2,
    "biscuit":2,
    "solicitor":2,
    "worth":2,
    "twentyfive":2,
    "forster\u2019s":2,
    "however":2,
    "carefully":2,
    "hallo":2,
    "bargain":2,
    "tightfisted":2,
    "grindstone":2,
    "covetous":2,
    "pen":2,
    "knocks":2,
    "terror":2,
    "lying":2,
    "happen":2,
    "penny":2,
    "dreadful":2,
    "feast":2,
    "thrilling":2,
    "taught":2,
    "recoils":2,
    "workhouse":2,
    "shirking":2,
    "aladdin":2,
    "lamp":2,
    "awe":2,
    "struck":2,
    "lone":2,
    "mourner":2,
    "jumps":2,
    "delightful":2,
    "sorry":2,
    "leans":2,
    "raven":2,
    "bird":2,
    "luck":2,
    "death":2,
    "ardor":2,
    "loving":2,
    "supposed":2,
    "devon":2,
    "agreement":2,
    "bought":2,
    "allowance":2,
    "grateful":2,
    "weather":2,
    "father\u2014":2,
    "research":2,
    "bank":2,
    "charter":2,
    "act":2,
    "editor":2,
    "doorway":2,
    "company":2,
    "took":2,
    "bits":2,
    "pieces":2,
    "delighted":2,
    "\u201cthis":2,
    "older":2,
    "smiling":2,
    "steel":2,
    "extra":2,
    "advances":2,
    "sat":2,
    "alarm":2,
    "filled":2,
    "jacob":2,
    "purses":2,
    "common":2,
    "link":2,
    "bear":2,
    "staring":2,
    "step":2,
    "turkey":2,
    "exquisite":2,
    "winks":2,
    "deputies":2,
    "ten":2,
    "bursts":2,
    "falls":2,
    "ground":2,
    "sake":2,
    "speed":2,
    "slightly":2,
    "weren\u2019t":2,
    "amiable":2,
    "whatever":2,
    "butcher":2,
    "edges":2,
    "gilded":2,
    "sell":2,
    "copy":2,
    "printers":2,
    "ordinary":2,
    "draws":2,
    "plates":2,
    "reverend":2,
    "coughs":2,
    "enters":2,
    "least":2,
    "who\u2019s":2,
    "turned":2,
    "beside":2,
    "bed":2,
    "stirs":2,
    "aren\u2019t":2,
    "lets":2,
    "curtains":2,
    "aback":2,
    "flinches":2,
    "couple":2,
    "gathering":2,
    "gen\u2019l\u2019mn":2,
    "interesting":2,
    "lads":2,
    "thrusts":2,
    "unnerved":2,
    "potatoes":2,
    "rate":2,
    "monster":2,
    "amusing":2,
    "mortified":2,
    "cold":2,
    "eye":2,
    "bring":2,
    "tray":2,
    "often":2,
    "fezziwigs":2,
    "friday":2,
    "sit":2,
    "glowing":2,
    "high":2,
    "generosity":2,
    "wouldn\u2019t":2,
    "joyfully":2,
    "merry":2,
    "moved":2,
    "clock":2,
    "strikes":2,
    "train":2,
    "returning":2,
    "page":2,
    "someone":2,
    "warm":2,
    "shhh":2,
    "went":2,
    "cheerful":2,
    "save":2,
    "tale":2,
    "foreman":2,
    "rat":2,
    "nearby":2,
    "reveal":2,
    "cocker":2,
    "blockage":2,
    "drink":2,
    "river":2,
    "kew":2,
    "to\u2014":2,
    "soon":2,
    "useless":2,
    "lightens":2,
    "burden":2,
    "feels":2,
    "ride":2,
    "scrooge\u2019s":2,
    "blocked":2,
    "coat":2,
    "exactly":2,
    "meanspirited":2,
    "different":2,
    "afraid\u2014":2,
    "yours":2,
    "gods":2,
    "wonder":2,
    "marra":2,
    "wife":2,
    "me\u2014":2,
    "respond":2,
    "we\u2019ve":2,
    "sickened":2,
    "drag":2,
    "deserve":2,
    "services":2,
    "longer":2,
    "nobody":2,
    "banish":2,
    "ridiculous":2,
    "sudden":2,
    "movement":2,
    "disturbed":2,
    "trying":2,
    "rage":2,
    "scabby":2,
    "railing":2,
    "blank":2,
    "warehouse":2,
    "realizes":2,
    "inside":2,
    "opening":2,
    "fizzing":2,
    "constable":2,
    "copperfield":2,
    "grub":2,
    "carol":2,
    "snow":2,
    "welcome":2,
    "america":3,
    "whole":3,
    "mirror":3,
    "earth":3,
    "far":3,
    "thousand":3,
    "distance":3,
    "crowd":3,
    "breathes":3,
    "nose":3,
    "breath":3,
    "along":3,
    "taking":3,
    "raises":3,
    "speak":3,
    "cut":3,
    "wait":3,
    "frustration":3,
    "disturb":3,
    "pardon":3,
    "study":3,
    "touch":3,
    "large":3,
    "stand":3,
    "miss":3,
    "fact":3,
    "comes":3,
    "lord":3,
    "lost":3,
    "parlour":3,
    "gentleman":3,
    "knocker":3,
    "pace":3,
    "asked":3,
    "huge":3,
    "attention":3,
    "magazine":3,
    "always":3,
    "book\u2014":3,
    "joke":3,
    "publishers":3,
    "uncomfortably":3,
    "peers":3,
    "remember":3,
    "pleased":3,
    "case":3,
    "exchange":3,
    "flops":3,
    "railway":3,
    "cheap":3,
    "consider":3,
    "sweeps":3,
    "intention":3,
    "causing":3,
    "possible":3,
    "under":3,
    "letter":3,
    "immediately":3,
    "shakes":3,
    "several":3,
    "fall":3,
    "group":3,
    "after":3,
    "terrible":3,
    "waiter":3,
    "oysters":3,
    "champagne":3,
    "relieved":3,
    "wrote":3,
    "character":3,
    "smile":3,
    "arrives":3,
    "leaves":3,
    "many":3,
    "useful":3,
    "stops":3,
    "cheque":3,
    "telling":3,
    "leave":3,
    "fairy":3,
    "charley":3,
    "debt":3,
    "doctor":3,
    "ahead":3,
    "blows":3,
    "flashback":3,
    "six":3,
    "climbs":3,
    "show":3,
    "straightens":3,
    "master":3,
    "honour":3,
    "meet":3,
    "grimsby":3,
    "nonsense":3,
    "cry":3,
    "building":3,
    "none":3,
    "small":3,
    "pale":3,
    "tries":3,
    "across":3,
    "words":3,
    "shame":3,
    "brilliant":3,
    "title":3,
    "possibly":3,
    "weeks":3,
    "opinion":3,
    "everything":3,
    "desk":3,
    "tea":3,
    "january":3,
    "while":3,
    "god\u2019s":3,
    "pawnbroker":3,
    "examines":3,
    "walking":3,
    "sinner":3,
    "scrimple":3,
    "couch":3,
    "vampire":3,
    "hesitates":3,
    "laugh":3,
    "cage":3,
    "i\u2019d":3,
    "means":3,
    "spectator":3,
    "stay":3,
    "hallway":3,
    "humbug":3,
    "pudding":3,
    "holly":3,
    "shoulder":3,
    "howl":3,
    "yard":3,
    "free":3,
    "bailiff":3,
    "tears":3,
    "eleven":3,
    "pages":3,
    "lass":3,
    "charlotte":3,
    "red":3,
    "artist":3,
    "impossible":3,
    "happens":3,
    "twelve":3,
    "hardly":3,
    "nine":3,
    "fanny":3,
    "arm":3,
    "long":3,
    "sleep":3,
    "van":3,
    "taken":3,
    "pies":3,
    "catch":3,
    "stare":3,
    "warren\u2019s":3,
    "hours":3,
    "spirit":3,
    "dinner":3,
    "second":3,
    "slowly":3,
    "seated":3,
    "glass":3,
    "scene":3,
    "soul":3,
    "posse":3,
    "shadow":3,
    "sheer":3,
    "nature":3,
    "newspaper":3,
    "article":3,
    "noone":3,
    "ending":3,
    "evil":3,
    "haven\u2019t":3,
    "against":3,
    "heavily":3,
    "chance":3,
    "live":3,
    "once":3,
    "headstone":3,
    "closing":3,
    "streets":4,
    "looking":4,
    "wide":4,
    "stage":4,
    "whose":4,
    "reaches":4,
    "appear":4,
    "turn":4,
    "beg":4,
    "dickens\u2019":4,
    "john":4,
    "big":4,
    "having":4,
    "library":4,
    "signor":4,
    "mazzini":4,
    "enough":4,
    "gold":4,
    "nearly":4,
    "shillings":4,
    "silence":4,
    "trouble":4,
    "lips":4,
    "you\u2019ve":4,
    "heard":4,
    "most":4,
    "awkward":4,
    "each":4,
    "makes":4,
    "word":4,
    "care":4,
    "grabs":4,
    "bottle":4,
    "even":4,
    "call":4,
    "quite":4,
    "times":4,
    "sick":4,
    "place":4,
    "inspiration":4,
    "lantern":4,
    "gone":4,
    "run":4,
    "learn":4,
    "commission":4,
    "next":4,
    "first":4,
    "dead":4,
    "she\u2019s":4,
    "candle":4,
    "believe":4,
    "father\u2019s":4,
    "hello":4,
    "pulls":4,
    "until":4,
    "sits":4,
    "waiting":4,
    "sharp":4,
    "market":4,
    "illustrations":4,
    "mother":4,
    "onto":4,
    "found":4,
    "set":4,
    "bob":4,
    "came":4,
    "yet":4,
    "shut":4,
    "corner":4,
    "drop":4,
    "halloa":4,
    "floor":4,
    "these":4,
    "chain":4,
    "strange":4,
    "doubt":4,
    "point":4,
    "turning":4,
    "points":4,
    "giant":4,
    "isn\u2019t":4,
    "alone":4,
    "fight":4,
    "empty":4,
    "steps":5,
    "knock":5,
    "sound":5,
    "nods":5,
    "ready":5,
    "fire":5,
    "green":5,
    "anyone":5,
    "between":5,
    "ask":5,
    "puts":5,
    "walk":5,
    "rushes":5,
    "understand":5,
    "yourself":5,
    "gestures":5,
    "together":5,
    "chuzzlewit":5,
    "books":5,
    "fine":5,
    "chapman":5,
    "few":5,
    "lot":5,
    "gets":5,
    "paper":5,
    "dining":5,
    "somewhere":5,
    "heads":5,
    "teeth":5,
    "magic":5,
    "table":5,
    "you\u2019d":5,
    "spirits":5,
    "calls":5,
    "lights":5,
    "hour":5,
    "really":5,
    "any":5,
    "before":5,
    "straight":5,
    "dressed":5,
    "morning":5,
    "papa":5,
    "used":5,
    "shadows":5,
    "excuse":5,
    "evening":5,
    "hard":5,
    "four":5,
    "miserable":5,
    "clear":5,
    "follow":5,
    "ha":5,
    "pocket":5,
    "because":5,
    "below":5,
    "already":5,
    "voice":5,
    "news":5,
    "said":5,
    "find":5,
    "secret":5,
    "window":5,
    "same":5,
    "happy":5,
    "hope":5,
    "son":5,
    "picks":5,
    "late":5,
    "bless":5,
    "everyone":5,
    "start":5,
    "done":5,
    "finish":5,
    "problem":5,
    "henry":5,
    "iron":5,
    "ice":5,
    "else":5,
    "jolly":5,
    "walls":5,
    "than":6,
    "light":6,
    "feet":6,
    "arms":6,
    "above":6,
    "attempts":6,
    "friends":6,
    "air":6,
    "home":6,
    "round":6,
    "working":6,
    "wish":6,
    "pay":6,
    "we\u2019ll":6,
    "way":6,
    "bloody":6,
    "year":6,
    "cover":6,
    "may":6,
    "being":6,
    "\u2013":6,
    "those":6,
    "mind":6,
    "sure":6,
    "week":6,
    "let\u2019s":6,
    "read":6,
    "there\u2019s":6,
    "you\u2019ll":6,
    "hall":6,
    "writing":6,
    "myself":6,
    "struggles":6,
    "factory":6,
    "suddenly":6,
    "flies":6,
    "past":6,
    "chains":6,
    "sees":6,
    "grip":6,
    "move":6,
    "write":6,
    "manuscript":6,
    "child":6,
    "poll":6,
    "without":7,
    "upon":7,
    "great":7,
    "author":7,
    "gentlemen":7,
    "sight":7,
    "kind":7,
    "still":7,
    "such":7,
    "told":7,
    "we\u2019re":7,
    "hear":7,
    "stairs":7,
    "much":7,
    "three":7,
    "face":7,
    "matter":7,
    "didn\u2019t":7,
    "opens":7,
    "got":7,
    "night":7,
    "laughs":7,
    "story":7,
    "world":7,
    "girl":7,
    "holds":7,
    "starts":7,
    "thought":7,
    "god":7,
    "leech":7,
    "blood":7,
    "cratchit":7,
    "end":8,
    "goes":8,
    "ever":8,
    "pounds":8,
    "made":8,
    "street":8,
    "which":8,
    "glances":8,
    "perhaps":8,
    "might":8,
    "bad":8,
    "does":8,
    "doing":8,
    "keep":8,
    "appears":8,
    "name":8,
    "marley":8,
    "poor":8,
    "thing":8,
    "should":8,
    "change":8,
    "boys":8,
    "anything":8,
    "die":8,
    "blacking":8,
    "family":8,
    "grave":8,
    "haddock":8,
    "make":8,
    "stop":8,
    "moment":9,
    "two":9,
    "takes":9,
    "london":9,
    "gives":9,
    "best":9,
    "things":9,
    "need":9,
    "house":9,
    "love":9,
    "thackeray":9,
    "must":9,
    "present":9,
    "take":9,
    "give":10,
    "through":10,
    "behind":10,
    "characters":10,
    "life":10,
    "towards":10,
    "their":10,
    "want":10,
    "own":10,
    "indeed":10,
    "mean":10,
    "work":10,
    "other":10,
    "eyes":10,
    "business":10,
    "eh":10,
    "tiny":10,
    "our":11,
    "its":11,
    "head":11,
    "throws":11,
    "fisk":11,
    "last":11,
    "been":11,
    "smiles":11,
    "better":11,
    "help":11,
    "can\u2019t":11,
    "tim":11,
    "day":12,
    "charlie":12,
    "another":12,
    "please":12,
    "hand":12,
    "i\u2019ve":12,
    "every":12,
    "nothing":12,
    "boy":12,
    "people":13,
    "himself":13,
    "only":13,
    "course":13,
    "won\u2019t":13,
    "let":13,
    "stares":13,
    "would":13,
    "what\u2019s":13,
    "over":13,
    "thank":13,
    "doesn\u2019t":13,
    "could":13,
    "beat":14,
    "too":14,
    "little":14,
    "again":14,
    "tell":14,
    "just":14,
    "something":14,
    "am":15,
    "were":15,
    "has":15,
    "dear":16,
    "when":16,
    "more":16,
    "off":16,
    "some":16,
    "going":16,
    "open":17,
    "right":17,
    "i\u2019ll":17,
    "very":17,
    "did":17,
    "there":18,
    "never":18,
    "or":18,
    "get":18,
    "kate":18,
    "new":18,
    "yes":18,
    "he\u2019s":18,
    "hands":18,
    "heart":18,
    "around":18,
    "children":18,
    "had":19,
    "time":19,
    "look":19,
    "young":19,
    "turns":20,
    "where":21,
    "us":21,
    "well":21,
    "think":21,
    "can":22,
    "so":22,
    "into":22,
    "\u2014":22,
    "say":22,
    "that\u2019s":22,
    "old":22,
    "father":22,
    "man":23,
    "away":23,
    "ghost":23,
    "how":24,
    "book":24,
    "down":24,
    "money":24,
    "you\u2019re":24,
    "room":24,
    "door":25,
    "who":25,
    "now":25,
    "like":26,
    "mrs":26,
    "them":26,
    "she":26,
    "why":27,
    "see":28,
    "good":28,
    "then":29,
    "back":29,
    "tara":29,
    "here":30,
    "go":30,
    "sir":30,
    "but":30,
    "if":30,
    "oh":30,
    "they":32,
    "by":32,
    "":33,
    "her":33,
    "looks":33,
    "from":34,
    "christmas":34,
    "come":35,
    "about":36,
    "one":39,
    "i\u2019m":40,
    "will":40,
    "an":41,
    "know":41,
    "do":42,
    "was":43,
    "it\u2019s":44,
    "don\u2019t":44,
    "all":48,
    "charles":51,
    "we":51,
    "scrooge":52,
    "have":53,
    "your":54,
    "this":55,
    "up":57,
    "my":58,
    "out":58,
    "mr":58,
    "me":58,
    "be":58,
    "as":59,
    "not":60,
    "forster":62,
    "are":62,
    "no":64,
    "with":78,
    "him":81,
    "on":82,
    "for":85,
    "that":87,
    "at":96,
    "what":103,
    "his":132,
    "he":140,
    "it":140,
    "in":159,
    "is":160,
    "i":208,
    "dickens":211,
    "of":221,
    "and":236,
    "to":267,
    "you":275,
    "a":354,
    "the":617
}