{
    "pull":1,
    "divorce":1,
    "living":1,
    "bout":1,
    "music":1,
    "haightashbury":1,
    "mellow":1,
    "yellow":1,
    "amusement":1,
    "expecting":1,
    "stretch":1,
    "legs":1,
    "mad":1,
    "fair":1,
    "unload":1,
    "lady":1,
    "use":1,
    "hiked":1,
    "spent":1,
    "golden":1,
    "gate":1,
    "begged":1,
    "spare":1,
    "morning":1,
    "story":1,
    "times":1,
    "starting":1,
    "deep":1,
    "sleeper":1,
    "breathing":1,
    "playin":1,
    "kind":1,
    "excited":1,
    "hide":1,
    "lode":1,
    "control":1,
    "break":1,
    "noticed":1,
    "cineplexes":1,
    "mtv":1,
    "hip":1,
    "flat":1,
    "broke":1,
    "tvs":1,
    "legal":1,
    "war":1,
    "anybodys":1,
    "raised":1,
    "dressed":1,
    "threw":1,
    "short":1,
    "uptight":1,
    "suits":1,
    "ahead":1,
    "married":1,
    "yuppie":1,
    "became":1,
    "hippie":1,
    "synch":1,
    "flip":1,
    "owwww":1,
    "root":1,
    "beers":1,
    "doublethick":1,
    "mint":1,
    "oreo":1,
    "cookies":1,
    "touches":1,
    "mailman":1,
    "brings":1,
    "wednesdays":1,
    "sometimes":1,
    "corner":1,
    "address":1,
    "label":1,
    "curl":1,
    "tempted":1,
    "peel":1,
    "end":1,
    "rippin":1,
    "outta":1,
    "pony":1,
    "beautiful":1,
    "clothes":1,
    "dated":1,
    "terry":1,
    "worried":1,
    "wild":1,
    "generous":1,
    "nature":1,
    "person":1,
    "find":1,
    "selection":1,
    "tape":1,
    "needy":1,
    "nowhere":1,
    "rush":1,
    "admit":1,
    "mercy":1,
    "sex":1,
    "glands":1,
    "superman":1,
    "dc":1,
    "3400":1,
    "series":1,
    "500s":1,
    "artist":1,
    "archies":1,
    "richie":1,
    "richs":1,
    "kryton":1,
    "bullwinkle":1,
    "passing":1,
    "resident":1,
    "probably":1,
    "collecting":1,
    "books":1,
    "perhaps":1,
    "youd":1,
    "collection":1,
    "heres":1,
    "following":1,
    "wanted":1,
    "early":1,
    "wheels":1,
    "til":1,
    "eleven":1,
    "thirty":1,
    "hitched":1,
    "cares":1,
    "street":1,
    "woulda":1,
    "walked":1,
    "comes":1,
    "nights":1,
    "busy":1,
    "bigger":1,
    "wed":1,
    "ripoff":1,
    "ear":1,
    "pierced":1,
    "exhippies":1,
    "child":1,
    "beam":1,
    "stars":1,
    "michaels":1,
    "sort":1,
    "summers":1,
    "permanent":1,
    "basis":1,
    "dwayne":1,
    "honda":1,
    "250":1,
    "climb":1,
    "hudsons":1,
    "bluff":1,
    "overlooking":1,
    "point":1,
    "triumph":1,
    "shouting":1,
    "above":1,
    "noise":1,
    "wind":1,
    "motors":1,
    "race":1,
    "willing":1,
    "hottest":1,
    "resort":1,
    "eighty":1,
    "built":1,
    "top":1,
    "adreas":1,
    "1906":1,
    "francisco":1,
    "ground":1,
    "header":1,
    "found":1,
    "grab":1,
    "idea":1,
    "appetizer":1,
    "door":1,
    "either":1,
    "father":1,
    "though":1,
    "wide":1,
    "cared":1,
    "reasons":1,
    "believed":1,
    "sneak":1,
    "walkin":1,
    "makin":1,
    "sound":1,
    "somethin":1,
    "complete":1,
    "birds":1,
    "chow":1,
    "300":1,
    "million":1,
    "taste":1,
    "feelings":1,
    "appreciate":1,
    "brief":1,
    "childhood":1,
    "broken":1,
    "works":1,
    "sleeps":1,
    "possibly":1,
    "stuffs":1,
    "chipmonks":1,
    "practice":1,
    "dyin":1,
    "art":1,
    "truck":1,
    "wood":1,
    "fixin":1,
    "build":1,
    "fence":1,
    "bought":1,
    "materials":1,
    "warm":1,
    "pussycat":1,
    "havin":1,
    "fun":1,
    "wasted":1,
    "suppose":1,
    "mention":1,
    "spill":1,
    "bottoms":1,
    "covered":1,
    "martian":1,
    "sniffing":1,
    "newsprint":1,
    "bakery":1,
    "dedicated":1,
    "higher":1,
    "airport":1,
    "money":1,
    "part":1,
    "cult":1,
    "fighters":1,
    "justice":1,
    "american":1,
    "fresh":1,
    "survival":1,
    "manual":1,
    "number":1,
    "planned":1,
    "hired":1,
    "week":1,
    "eighties":1,
    "moving":1,
    "known":1,
    "fed":1,
    "theyve":1,
    "miss":1,
    "everythings":1,
    "interrupting":1,
    "bike":1,
    "worry":1,
    "shell":1,
    "hammering":1,
    "grass":1,
    "bringing":1,
    "turned":1,
    "chased":1,
    "watching":1,
    "drinking":1,
    "drinks":1,
    "memory":1,
    "dunno":1,
    "hang":1,
    "drop":1,
    "safe":1,
    "freebasing":1,
    "inquiring":1,
    "minds":1,
    "favor":1,
    "evening":1,
    "meeting":1,
    "bending":1,
    "backwards":1,
    "middle":1,
    "shave":1,
    "dropping":1,
    "handiwork":1,
    "whatd":1,
    "mr":1,
    "laters":1,
    "sandwich":1,
    "bother":1,
    "lose":1,
    "earring":1,
    "piss":1,
    "personality":1,
    "charm":1,
    "video":1,
    "stores":1,
    "ready":1,
    "order":1,
    "fillet":1,
    "sole":1,
    "caviar":1,
    "ceasar":1,
    "salad":1,
    "biggest":1,
    "lobsters":1,
    "dom":1,
    "perignon":1,
    "impressed":1,
    "ohm":1,
    "marriage":1,
    "planet":1,
    "whos":1,
    "against":1,
    "seem":1,
    "grateful":1,
    "involves":1,
    "children":1,
    "teenagers":1,
    "runaways":1,
    "mostly":1,
    "attracted":1,
    "employee":1,
    "turn":1,
    "nonook":1,
    "asshole":1,
    "protecting":1,
    "reflection":1,
    "mirror":1,
    "creature":1,
    "godamn":1,
    "shitsucking":1,
    "finds":1,
    "wears":1,
    "sunglasses":1,
    "sticks":1,
    "bottom":1,
    "alright":1,
    "sharp":1,
    "heart":1,
    "tshirt":1,
    "funeral":1,
    "breaking":1,
    "lamp":1,
    "d":1,
    "few":1,
    "chance":1,
    "scared":1,
    "mistake":1,
    "saw":1,
    "window":1,
    "reading":1,
    "carried":1,
    "anyway":1,
    "real":1,
    "scary":1,
    "pizza":1,
    "tired":1,
    "minute":1,
    "kiddo":1,
    "lucky":1,
    "front":1,
    "porch":1,
    "aware":1,
    "serious":1,
    "activity":1,
    "become":1,
    "haven":1,
    "certain":1,
    "ghouls":1,
    "werewolves":1,
    "occupy":1,
    "high":1,
    "positions":1,
    "city":1,
    "hall":1,
    "showing":1,
    "systems":1,
    "convinced":1,
    "dating":1,
    "probable":1,
    "reasoning":1,
    "shows":1,
    "attacked":1,
    "require":1,
    "protector":1,
    "during":1,
    "most":1,
    "vulnerable":1,
    "sway":1,
    "animals":1,
    "fierce":1,
    "dogs":1,
    "hounds":1,
    "often":1,
    "employed":1,
    "nuke":1,
    "hearts":1,
    "combat":1,
    "men":1,
    "three":1,
    "weeks":1,
    "starts":1,
    "unless":1,
    "inviting":1,
    "guest":1,
    "groom":1,
    "bride":1,
    "wedding":1,
    "confused":1,
    "ah":1,
    "peanut":1,
    "butter":1,
    "jar":1,
    "kitchen":1,
    "plenty":1,
    "areound":1,
    "breathin":1,
    "cmere":1,
    "parmesan":1,
    "cheese":1,
    "water":1,
    "kidding":1,
    "freezing":1,
    "circuit":1,
    "breaker":1,
    "glowing":1,
    "replace":1,
    "steal":1,
    "batting":1,
    "average":1,
    "sams":1,
    "cooking":1,
    "die":1,
    "hed":1,
    "giving":1,
    "shes":1,
    "yes":1,
    "blame":1,
    "liked":1,
    "tried":1,
    "cave":1,
    "gave":1,
    "halfvampires":1,
    "couldnt":1,
    "saved":1,
    "each":1,
    "becomes":1,
    "resist":1,
    "killing":1,
    "felt":1,
    "weak":1,
    "anywhere":1,
    "anybody":1,
    "marines":1,
    "nosferatu":1,
    "prince":1,
    "darkness":1,
    "nightcrawler":1,
    "bloodsucker":1,
    "el":1,
    "vampiro":1,
    "zombie":1,
    "question":1,
    "honest":1,
    "answer":1,
    "taken":1,
    "human":1,
    "victims":1,
    "destroy":1,
    "names":1,
    "lead":1,
    "nest":1,
    "barely":1,
    "practically":1,
    "nobodys":1,
    "near":1,
    "rotten":1,
    "tempers":1,
    "borrow":1,
    "vampout":1,
    "twice":1,
    "chill":1,
    "strength":1,
    "sleeping":1,
    "chamber":1,
    "draft":1,
    "boost":1,
    "trail":1,
    "flies":1,
    "ham":1,
    "eggs":1,
    "theyd":1,
    "coffins":1,
    "coffin":1,
    "meat":1,
    "fine":1,
    "warp":1,
    "speed":1,
    "unraveled":1,
    "enemy":1,
    "pulled":1,
    "mindscramble":1,
    "eyes":1,
    "talked":1,
    "cop":1,
    "older":1,
    "caught":1,
    "driving":1,
    "license":1,
    "possession":1,
    "wheel":1,
    "gaining":1,
    "excuse":1,
    "punk":1,
    "rock":1,
    "festival":1,
    "quiet":1,
    "flesheaters":1,
    "outside":1,
    "rule":1,
    "filling":1,
    "gas":1,
    "askin":1,
    "activate":1,
    "tow":1,
    "dun":1,
    "comin":1,
    "important":1,
    "crawling":1,
    "police":1,
    "newspapers":1,
    "stations":1,
    "word":1,
    "doing":1,
    "ruin":1,
    "pick":1,
    "seven":1,
    "instead":1,
    "cleaned":1,
    "finally":1,
    "worrying":1,
    "usual":1,
    "weeds":1,
    "ignored":1,
    "needed":1,
    "bachelor":1,
    "special":1,
    "buys":1,
    "bloodsuckers":1,
    "same":1,
    "scream":1,
    "yell":1,
    "quietly":1,
    "explode":1,
    "implode":1,
    "tied":1,
    "ahh":1,
    "duck":1,
    "ammo":1,
    "sucker":1,
    "totally":1,
    "annihilated":1,
    "nightstalkin":1,
    "ass":1,
    "four":1,
    "whattaya":1,
    "terminate":1,
    "while":1,
    "absolutely":1,
    "maximum":1,
    "bodycount":1,
    "awesome":1,
    "monsterbashers":1,
    "meanest":1,
    "baddest":1,
    "burst":1,
    "catch":1,
    "ahhhhhh":1,
    "released":1,
    "differently":1,
    "ohmygod":1,
    "yours":1,
    "passed":1,
    "test":1,
    "invited":1,
    "renders":1,
    "powerless":1,
    "invitation":1,
    "protects":1,
    "along":1,
    "faimly":1,
    "thered":1,
    "changed":1,
    "everyone":1,
    "accounted":1,
    "livin":1,
    "stomach":1,
    "air":2,
    "died":2,
    "hasnt":2,
    "move":2,
    "wait":2,
    "summer":2,
    "love":2,
    "park":2,
    "grandpas":2,
    "follow":2,
    "twenty":2,
    "ran":2,
    "hitch":2,
    "berkeley":2,
    "heard":2,
    "many":2,
    "phoenix":2,
    "damn":2,
    "malls":2,
    "woman":2,
    "improve":2,
    "situation":2,
    "divorced":2,
    "enough":2,
    "ouch":2,
    "hate":2,
    "second":2,
    "shelf":2,
    "cover":2,
    "read":2,
    "face":2,
    "seems":2,
    "lost":2,
    "might":2,
    "god":2,
    "young":2,
    "age":2,
    "once":2,
    "dress":2,
    "chasing":2,
    "fact":2,
    "different":2,
    "today":2,
    "seeing":2,
    "lot":2,
    "uh":2,
    "moms":2,
    "nice":2,
    "bring":2,
    "tomorrow":2,
    "five":2,
    "wave":2,
    "dude":2,
    "given":2,
    "looked":2,
    "seen":2,
    "los":2,
    "gatos":2,
    "bite":2,
    "pass":2,
    "folks":2,
    "came":2,
    "moon":2,
    "kid":2,
    "hungry":2,
    "ride":2,
    "cmon":2,
    "far":2,
    "san":2,
    "fault":2,
    "hit":2,
    "opened":2,
    "took":2,
    "crack":2,
    "stuff":2,
    "stick":2,
    "ask":2,
    "ten":2,
    "monster":2,
    "indian":2,
    "brought":2,
    "lots":2,
    "finish":2,
    "freedom":2,
    "free":2,
    "choice":2,
    "rice":2,
    "eating":2,
    "hard":2,
    "noodles":2,
    "worms":2,
    "joke":2,
    "already":2,
    "supposed":2,
    "entertain":2,
    "happy":2,
    "yourself":2,
    "mother":2,
    "alien":2,
    "whatcha":2,
    "days":2,
    "bit":2,
    "hear":2,
    "feet":2,
    "salt":2,
    "weird":2,
    "old":2,
    "buddy":2,
    "purpose":2,
    "pray":2,
    "working":2,
    "which":2,
    "course":2,
    "decade":2,
    "made":2,
    "hope":2,
    "someplace":2,
    "dream":2,
    "cold":2,
    "red":2,
    "running":2,
    "laughing":2,
    "others":2,
    "perfect":2,
    "wants":2,
    "wake":2,
    "phone":2,
    "bed":2,
    "myself":2,
    "plans":2,
    "date":2,
    "widow":2,
    "funny":2,
    "making":2,
    "school":2,
    "success":2,
    "waitll":2,
    "sir":2,
    "start":2,
    "wine":2,
    "terrific":2,
    "full":2,
    "done":2,
    "nothing":2,
    "thing":2,
    "calling":2,
    "stand":2,
    "fingernails":2,
    "longer":2,
    "death":2,
    "gone":2,
    "am":2,
    "friends":2,
    "act":2,
    "gotten":2,
    "apology":2,
    "someones":2,
    "undead":2,
    "mothers":2,
    "dark":2,
    "everywhere":2,
    "daytime":2,
    "guardian":2,
    "since":2,
    "wish":2,
    "zero":2,
    "marine":2,
    "things":2,
    "ya":2,
    "gets":2,
    "frog":2,
    "brothers":2,
    "quick":2,
    "deal":2,
    "discipline":2,
    "grow":2,
    "feed":2,
    "hadnt":2,
    "warn":2,
    "davids":2,
    "until":2,
    "harder":2,
    "run":2,
    "telling":2,
    "means":2,
    "leader":2,
    "trust":2,
    "happens":2,
    "rubber":2,
    "blew":2,
    "shut":2,
    "behind":2,
    "brake":2,
    "b":2,
    "half":2,
    "hours":2,
    "goes":2,
    "getting":3,
    "close":3,
    "smell":3,
    "smells":3,
    "easy":3,
    "beach":3,
    "poor":3,
    "check":3,
    "meet":3,
    "call":3,
    "kids":3,
    "anything":3,
    "anymore":3,
    "ever":3,
    "knew":3,
    "by":3,
    "besides":3,
    "than":3,
    "went":3,
    "room":3,
    "shit":3,
    "rules":3,
    "guide":3,
    "guy":3,
    "parents":3,
    "thank":3,
    "name":3,
    "best":3,
    "looking":3,
    "actually":3,
    "live":3,
    "comics":3,
    "minutes":3,
    "met":3,
    "being":3,
    "called":3,
    "new":3,
    "paul":3,
    "marko":3,
    "beat":3,
    "wouldnt":3,
    "believe":3,
    "oclock":3,
    "lights":3,
    "closet":3,
    "doesnt":3,
    "mind":3,
    "because":3,
    "knows":3,
    "guests":3,
    "maggots":3,
    "leave":3,
    "alone":3,
    "baby":3,
    "last":3,
    "would":3,
    "pretty":3,
    "trying":3,
    "truth":3,
    "hello":3,
    "thorn":3,
    "family":3,
    "yard":3,
    "drink":3,
    "promise":3,
    "always":3,
    "exactly":3,
    "johnson":3,
    "hold":3,
    "light":3,
    "breath":3,
    "stake":3,
    "drive":3,
    "destroyed":3,
    "friend":3,
    "eight":3,
    "company":3,
    "left":3,
    "invite":3,
    "thinking":3,
    "edgar":3,
    "alan":3,
    "somebody":3,
    "must":3,
    "understand":3,
    "any":3,
    "car":3,
    "plan":3,
    "ocean":4,
    "guys":4,
    "really":4,
    "eat":4,
    "everything":4,
    "ago":4,
    "away":4,
    "before":4,
    "happened":4,
    "looks":4,
    "cool":4,
    "happening":4,
    "people":4,
    "through":4,
    "hair":4,
    "used":4,
    "mine":4,
    "little":4,
    "soon":4,
    "nobody":4,
    "boy":4,
    "hell":4,
    "ive":4,
    "life":4,
    "gonna":4,
    "horror":4,
    "talking":4,
    "long":4,
    "id":4,
    "opening":4,
    "another":4,
    "together":4,
    "food":4,
    "gotta":4,
    "open":4,
    "walk":4,
    "chinese":4,
    "watch":4,
    "make":4,
    "hurt":4,
    "goin":4,
    "work":4,
    "isnt":4,
    "say":4,
    "cute":4,
    "such":4,
    "almost":4,
    "everybody":4,
    "late":4,
    "listen":4,
    "garlic":4,
    "please":4,
    "arent":4,
    "kill":4,
    "said":4,
    "feel":4,
    "em":4,
    "told":5,
    "later":5,
    "those":5,
    "years":5,
    "change":5,
    "doin":5,
    "does":5,
    "even":5,
    "having":5,
    "dad":5,
    "first":5,
    "girl":5,
    "matter":5,
    "put":5,
    "should":5,
    "save":5,
    "remember":5,
    "guess":5,
    "havent":5,
    "store":5,
    "much":5,
    "great":5,
    "bad":5,
    "wrong":5,
    "sorry":5,
    "blood":5,
    "after":5,
    "book":5,
    "fight":5,
    "had":5,
    "she":5,
    "their":5,
    "yet":5,
    "wheres":5,
    "burn":5,
    "theyll":5,
    "maybe":6,
    "thanks":6,
    "youve":6,
    "job":6,
    "wont":6,
    "didnt":6,
    "her":6,
    "wasnt":6,
    "weve":6,
    "wanna":6,
    "these":6,
    "without":6,
    "sure":6,
    "hi":6,
    "try":6,
    "brother":6,
    "who":6,
    "town":6,
    "dinner":6,
    "dog":6,
    "boys":6,
    "down":6,
    "stay":7,
    "off":7,
    "boardwalk":7,
    "an":7,
    "thats":7,
    "thought":7,
    "dead":7,
    "place":7,
    "give":7,
    "has":7,
    "big":7,
    "youll":7,
    "could":7,
    "more":7,
    "mean":7,
    "into":7,
    "man":7,
    "sleep":7,
    "our":7,
    "coming":7,
    "keep":8,
    "huh":8,
    "need":8,
    "help":8,
    "hey":8,
    "home":8,
    "look":8,
    "will":8,
    "house":8,
    "his":8,
    "let":8,
    "again":8,
    "two":8,
    "very":8,
    "back":9,
    "been":9,
    "theres":9,
    "tell":9,
    "own":9,
    "tv":9,
    "then":9,
    "around":9,
    "tonight":9,
    "why":9,
    "over":9,
    "comic":9,
    "talk":9,
    "yeah":9,
    "day":9,
    "stop":9,
    "lets":10,
    "santa":10,
    "carla":10,
    "still":10,
    "at":10,
    "from":10,
    "grandpa":10,
    "better":10,
    "time":10,
    "did":10,
    "laddie":10,
    "never":10,
    "nanook":10,
    "good":11,
    "lucy":11,
    "there":11,
    "theyre":11,
    "way":11,
    "david":11,
    "take":11,
    "well":12,
    "or":12,
    "vampire":12,
    "how":13,
    "hes":13,
    "only":13,
    "oh":13,
    "ill":14,
    "see":14,
    "when":14,
    "night":14,
    "where":14,
    "vampires":14,
    "too":15,
    "think":15,
    "some":15,
    "got":15,
    "something":16,
    "cant":16,
    "so":16,
    "as":16,
    "can":17,
    "want":17,
    "whats":18,
    "them":18,
    "they":18,
    "but":19,
    "he":19,
    "max":19,
    "him":19,
    "come":20,
    "out":20,
    "star":20,
    "us":21,
    "if":21,
    "now":22,
    "going":22,
    "right":22,
    "get":22,
    "up":22,
    "":22,
    "okay":23,
    "go":24,
    "with":25,
    "about":26,
    "were":27,
    "was":29,
    "sam":30,
    "be":30,
    "are":30,
    "your":31,
    "here":32,
    "mom":33,
    "its":33,
    "just":33,
    "know":35,
    "all":36,
    "on":37,
    "what":37,
    "im":37,
    "have":37,
    "one":37,
    "not":39,
    "do":39,
    "my":40,
    "youre":41,
    "that":42,
    "for":43,
    "is":43,
    "like":44,
    "no":45,
    "dont":49,
    "in":50,
    "this":53,
    "we":54,
    "of":58,
    "me":61,
    "michael":61,
    "it":68,
    "and":74,
    "a":105,
    "to":139,
    "the":159,
    "i":176,
    "you":202
}