{
    "iphone":1,
    "jphone":1,
    "12":1,
    "blow":1,
    "google":1,
    "goin\u2019":1,
    "suicide":1,
    "tracking":1,
    "sunday":1,
    "shouting":1,
    "particular":1,
    "ya\u2019ll":1,
    "drives":1,
    "honks":1,
    "supportively":1,
    "waves":1,
    "breaking":1,
    "focus":1,
    "devils":1,
    "fifty":1,
    "up\u2026":1,
    "plans":1,
    "chin":1,
    "disgust":1,
    "george":1,
    "jetson":1,
    "rejects":1,
    "hearts":1,
    "breathe":1,
    "purified":1,
    "sisters":1,
    "consummate":1,
    "protect":1,
    "seed":1,
    "rundown":1,
    "africanamericans":1,
    "20s":1,
    "idly":1,
    "regarding":1,
    "jail":1,
    "writes":1,
    "journal":1,
    "catch":1,
    "rehearses":1,
    "impromptu":1,
    "improving":1,
    "2019":1,
    "yelling":1,
    "road":1,
    "where\u2019s":1,
    "final":1,
    "frontier":1,
    "manifest":1,
    "destiny":1,
    "country":1,
    "drinking":1,
    "filthy":1,
    "salt":1,
    "dredged":1,
    "canals":1,
    "existed":1,
    "future":1,
    "venture":1,
    "pillage":1,
    "facades":1,
    "buildings":1,
    "intercut":1,
    "skating":1,
    "attic":1,
    "focused":1,
    "determination":1,
    "pointed":1,
    "brims":1,
    "tower":1,
    "sprouting":1,
    "roof":1,
    "beanie":1,
    "rises":1,
    "pedals":1,
    "flaps":1,
    "flapping":1,
    "alongside":1,
    "soaked":1,
    "dew":1,
    "glisten":1,
    "handcarved":1,
    "scale":1,
    "cheeks":1,
    "dotted":1,
    "gilded":1,
    "image":1,
    "chain":1,
    "floats":1,
    "upwards":1,
    "glinting":1,
    "tall":1,
    "chipped":1,
    "leafing":1,
    "detail":1,
    "until":1,
    "pushes":1,
    "car\u2019s":1,
    "stroller":1,
    "peeks":1,
    "closes":1,
    "presses":1,
    "ring":1,
    "swatches":1,
    "railing":1,
    "periwinkle":1,
    "jotting":1,
    "book":1,
    "mhmm":1,
    "nightmare":1,
    "grandpa\u2019s":1,
    "sick":1,
    "wallpaper\u2019s":1,
    "peeling":1,
    "ideas":1,
    "definitely":1,
    "quick":1,
    "heck":1,
    "throws":1,
    "terry":1,
    "arm":1,
    "midthrow":1,
    "fffixing":1,
    "job":1,
    "vigorously":1,
    "hold":1,
    "worse":1,
    "faster":1,
    "ti":1,
    "bullseye":1,
    "pegs":1,
    "bread":1,
    "loaf":1,
    "frustration":1,
    "plants":1,
    "honey":1,
    "divisive":1,
    "terms":1,
    "insultingi\u2019m":1,
    "hospital":1,
    "wierdass":1,
    "hasty":1,
    "escape":1,
    "leaps":1,
    "atop":1,
    "distracted":1,
    "og":1,
    "eating":1,
    "mercury":1,
    "seagull":1,
    "hazmats":1,
    "scare":1,
    "nooo":1,
    "rocky":1,
    "handpainted":1,
    "station":1,
    "wagon":1,
    "congregating":1,
    "kick":1,
    "tumbleweave":1,
    "dodges":1,
    "dirt":1,
    "weave":1,
    "clearly":1,
    "although":1,
    "elsewhere":1,
    "hunters":1,
    "slab":1,
    "concrete":1,
    "moms":1,
    "missing":1,
    "wounded":1,
    "ego":1,
    "reach":1,
    "shower":1,
    "overheard":1,
    "showering":1,
    "fruity":1,
    "naw":1,
    "toxic":1,
    "duh":1,
    "atomic":1,
    "wry":1,
    "spreads":1,
    "shuffle":1,
    "sea":1,
    "captains":1,
    "lodgings":1,
    "hovering":1,
    "above":1,
    "notorious":1,
    "charge":1,
    "chief\u2019s":1,
    "dear":1,
    "murder":1,
    "edward":1,
    "o":1,
    "ryan":1,
    "edmond":1,
    "o\u2019brien":1,
    "murdered":1,
    "trio":1,
    "monts":1,
    "rowboat":1,
    "hitched":1,
    "twinkling":1,
    "sprinkle":1,
    "bay":1,
    "peels":1,
    "climb":1,
    "bath":1,
    "broke":1,
    "ruin":1,
    "cot":1,
    "nested":1,
    "snug":1,
    "between":1,
    "ceiling":1,
    "gunshot":1,
    "reverberates":1,
    "44":1,
    "magnum":1,
    "hmmaybe":1,
    "caretaker":1,
    "brabut":1,
    "mngh":1,
    "rewriting":1,
    "itan":1,
    "chinese":1,
    "flag":1,
    "colleague":1,
    "swigs":1,
    "pepsi":1,
    "prepares":1,
    "lizzie":1,
    "fixes":1,
    "needle":1,
    "phyllis":1,
    "humming":1,
    "tune":1,
    "natives":1,
    "initial":1,
    "nodding":1,
    "native":1,
    "tho":1,
    "marshmallow":1,
    "powderpuff":1,
    "punked":1,
    "sets":1,
    "intently":1,
    "snatch":1,
    "dread":1,
    "rastafarian":1,
    "sperm":1,
    "\u2018sposed":1,
    "nothing":1,
    "fact":1,
    "whatis":1,
    "sup":1,
    "nigguh":1,
    "neeguh":1,
    "brushing":1,
    "teeth":1,
    "fitted":1,
    "cap":1,
    "el":1,
    "dorado":1,
    "rusty":1,
    "clunks":1,
    "toward":1,
    "duckfarting":1,
    "hiccuping":1,
    "gasps":1,
    "sunny":1,
    "disposition":1,
    "sticks":1,
    "tapedup":1,
    "jimmay":1,
    "farming":1,
    "rake":1,
    "tracks":1,
    "huffs":1,
    "illegal":1,
    "uturn":1,
    "curb":1,
    "screeches":1,
    "headed":1,
    "farmer":1,
    "children\u2019s":1,
    "49er\u2019s":1,
    "sticker":1,
    "passenger":1,
    "scratches":1,
    "backseat":1,
    "converted":1,
    "satin":1,
    "sheets":1,
    "plastic":1,
    "litter":1,
    "pillows":1,
    "drove":1,
    "borrowing":1,
    "characterization":1,
    "mumbles":1,
    "eavesdrop":1,
    "wooh":1,
    "broyou":1,
    "carby":1,
    "spitting":1,
    "whens":1,
    "sour":1,
    "company":1,
    "laptops":1,
    "full":1,
    "ulcers":1,
    "panic":1,
    "attacks":1,
    "hemorrhoids":1,
    "wanting":1,
    "responsibility":1,
    "temporary":1,
    "mustachioed":1,
    "construction":1,
    "worker":1,
    "leaning":1,
    "lot\u2019s":1,
    "fence":1,
    "cigar":1,
    "control":1,
    "landlord":1,
    "america":1,
    "doesn\u2019t":1,
    "respond":1,
    "transfixed":1,
    "imma\u2019":1,
    "trudges":1,
    "arturo":1,
    "upset":1,
    "cautiously":1,
    "wants":1,
    "lose":1,
    "grab":1,
    "unprofessional":1,
    "sobbing":1,
    "massive":1,
    "happens":1,
    "wannagetcandy":1,
    "hill":1,
    "line":1,
    "filing":1,
    "bucks":1,
    "sweetheart":1,
    "hon":1,
    "sixteen":1,
    "60":1,
    "flip":1,
    "whyd":1,
    "knowi":1,
    "tasteless":1,
    "tyler":1,
    "perry":1,
    "saltwater":1,
    "taffy":1,
    "stock":1,
    "nasty":1,
    "jimmiejimmie":1,
    "apologetically":1,
    "six":1,
    "grrah":1,
    "fat":1,
    "eraaay":1,
    "fuhck":1,
    "youu":1,
    "jimbo":1,
    "weathered":1,
    "skater":1,
    "covered":1,
    "tats":1,
    "pal":1,
    "wheatberry":1,
    "whisks":1,
    "swinging":1,
    "lasso":1,
    "chucks":1,
    "fool":1,
    "squat":1,
    "ride":1,
    "ad":1,
    "realtor":1,
    "artfully":1,
    "madeover":1,
    "666":1,
    "sprayed":1,
    "forehead":1,
    "drips":1,
    "clicks":1,
    "smirks":1,
    "restless":1,
    "lame":1,
    "curious":1,
    "74":1,
    "grey":1,
    "uhclayton":1,
    "impressed":1,
    "excitedly":1,
    "whered":1,
    "ignatius":1,
    "kind":1,
    "facade":1,
    "ya":1,
    "owner":1,
    "oof":1,
    "sucky":1,
    "situation":1,
    "nervously":1,
    "they\u2019ll":1,
    "pity":1,
    "dust":1,
    "blanket":1,
    "couldnt":1,
    "helpful":1,
    "guides":1,
    "rattle":1,
    "summer":1,
    "jefferson":1,
    "quicksilverrrey":1,
    "distinguished":1,
    "truthseekers":1,
    "hepcats":1,
    "hung":1,
    "baldwin":1,
    "stylin\u2019":1,
    "ascots":1,
    "harlem":1,
    "west":1,
    "dizzie":1,
    "miles":1,
    "gigs":1,
    "moscone":1,
    "blowjobs":1,
    "hookers":1,
    "jones":1,
    "mixed":1,
    "kool":1,
    "aid":1,
    "teen":1,
    "beams":1,
    "\u2018long":1,
    "comes":1,
    "joe":1,
    "alioto":1,
    "spoiling":1,
    "leveling":1,
    "urban":1,
    "renewal":1,
    "shops":1,
    "shoe":1,
    "shine":1,
    "stand":1,
    "safeway":1,
    "parking":1,
    "glorious":1,
    "survived":1,
    "il":1,
    "duce\u2019s":1,
    "wrecking":1,
    "masterpiece":1,
    "clear":1,
    "1800s":1,
    "\u2018til":1,
    "fdr\u2019s":1,
    "storm":1,
    "troopers":1,
    "buuhjimmie":1,
    "quizzically":1,
    "amigo":1,
    "members":1,
    "tepidly":1,
    "lowers":1,
    "gingerbread":1,
    "sometime":1,
    "1850s":1,
    "hhhhm":1,
    "disagree":1,
    "dudeman":1,
    "including":1,
    "renewed":1,
    "curiosity":1,
    "arrived":1,
    "wwii":1,
    "bought":1,
    "archways":1,
    "balustrades":1,
    "scales":1,
    "spindles":1,
    "balcony":1,
    "amazing":1,
    "closet":1,
    "patty":1,
    "hearst":1,
    "willfully":1,
    "hid":1,
    "flee":1,
    "imagined":1,
    "hairit":1,
    "fits":1,
    "archway":1,
    "belong":1,
    "godly":1,
    "powers":1,
    "crane":1,
    "hauling":1,
    "video":1,
    "filmed":1,
    "pause":1,
    "crossword":1,
    "respects":1,
    "pastor":1,
    "mythical":1,
    "descends":1,
    "charisma":1,
    "shelf":1,
    "albums":1,
    "wondering":1,
    "borrow":1,
    "picture":1,
    "aint":1,
    "hours":1,
    "cookie":1,
    "cutter":1,
    "rolling":1,
    "scorched":1,
    "hills":1,
    "bolo":1,
    "tie":1,
    "hoop":1,
    "earrings":1,
    "length":1,
    "helped":1,
    "besides":1,
    "trick":1,
    "crouches":1,
    "ollie":1,
    "wanda\u2019s":1,
    "swoon":1,
    "cute":1,
    "guest":1,
    "gentlemen":1,
    "spare":1,
    "beds":1,
    "ricky\u2019s":1,
    "adobo":1,
    "woahwow":1,
    "must":1,
    "afford":1,
    "chewing":1,
    "thoough":1,
    "uhuh":1,
    "schemes":1,
    "okayokay":1,
    "eats":1,
    "boyish":1,
    "shrug":1,
    "lustily":1,
    "spark":1,
    "reignited":1,
    "harsh":1,
    "woah":1,
    "mainey":1,
    "feeling":1,
    "round":1,
    "headphones":1,
    "tiffany":1,
    "dj":1,
    "record":1,
    "dope":1,
    "obligingly":1,
    "ponchys":1,
    "bubbling":1,
    "ponchy":1,
    "letting":1,
    "tummy":1,
    "fizz":1,
    "hearing":1,
    "loudly":1,
    "pepper":1,
    "tuckered":1,
    "hike":1,
    "usually":1,
    "eventful":1,
    "slides":1,
    "cab":1,
    "shouts":1,
    "barely":1,
    "regular":1,
    "joined":1,
    "wonderful":1,
    "jane":1,
    "encourage":1,
    "rock":1,
    "climbing":1,
    "phase":1,
    "lift":1,
    "rug":1,
    "retired":1,
    "cashmere":1,
    "liberal":1,
    "remnants":1,
    "connecticut":1,
    "accent":1,
    "\u2013":1,
    "surveys":1,
    "poops":1,
    "trots":1,
    "warm":1,
    "purpose":1,
    "dusty":1,
    "instinctively":1,
    "sealing":1,
    "aha":1,
    "midshake":1,
    "pieces":1,
    "stunning":1,
    "antique":1,
    "remain":1,
    "geez":1,
    "moving":1,
    "wellalright":1,
    "youll":1,
    "lots":1,
    "halfbows":1,
    "jogs":1,
    "armful":1,
    "dazed":1,
    "drink":1,
    "scratch":1,
    "hint":1,
    "excitement":1,
    "lie":1,
    "plus":1,
    "needs":1,
    "what\u2019d":1,
    "sitting":1,
    "throw":1,
    "party":1,
    "toes":1,
    "wiggle":1,
    "prospect":1,
    "yellahhhhhh":1,
    "zeeeeeeeeeeeeehooooo":1,
    "van":1,
    "pulled":1,
    "ran":1,
    "quit":1,
    "captivated":1,
    "tableau":1,
    "production":1,
    "fists":1,
    "slap":1,
    "mouths":1,
    "hurl":1,
    "slurs":1,
    "saliva":1,
    "pair":1,
    "shut":1,
    "avoids":1,
    "eyecontact":1,
    "socks":1,
    "knocking":1,
    "wind":1,
    "wow":1,
    "damnit":1,
    "brought":1,
    "crossing":1,
    "wehmi":1,
    "member":1,
    "giving":1,
    "notes":1,
    "theater":1,
    "director":1,
    "scan":1,
    "arrives":1,
    "lingers":1,
    "retarded":1,
    "drop":1,
    "awkwardly":1,
    "precariously":1,
    "wooden":1,
    "planks":1,
    "laid":1,
    "shmontgomery":1,
    "tumbles":1,
    "cat":1,
    "swim":1,
    "upside":1,
    "separating":1,
    "dampen":1,
    "specifically":1,
    "backwards":1,
    "cousin":1,
    "al":1,
    "struttin\u2019":1,
    "fruit":1,
    "onceathletic":1,
    "hardearned":1,
    "rasp":1,
    "cover":1,
    "chuck":1,
    "norris":1,
    "invasion":1,
    "usa":1,
    "dvds":1,
    "surround":1,
    "skateboarding":1,
    "cmere":1,
    "cut":1,
    "adopting":1,
    "different":1,
    "use":1,
    "warehouse":1,
    "squatted":1,
    "satanists":1,
    "ha":1,
    "tax":1,
    "cares":1,
    "draftyass":1,
    "roach":1,
    "nest":1,
    "able":1,
    "showed":1,
    "sleeping":1,
    "unsentimentally":1,
    "processing":1,
    "information":1,
    "owners":1,
    "taxesjames":1,
    "gas":1,
    "cash":1,
    "labor":1,
    "counts":1,
    "payment":1,
    "youve":1,
    "prolly":1,
    "bunch":1,
    "receipts":1,
    "nobodys":1,
    "nope":1,
    "buys":1,
    "recently":1,
    "disrespectful":1,
    "notjames":1,
    "oka":1,
    "everybodys":1,
    "30":1,
    "swig":1,
    "fall":1,
    "scissors":1,
    "labels":1,
    "messing":1,
    "cablecaronwheels":1,
    "thumping":1,
    "drunk":1,
    "partygoers":1,
    "spilling":1,
    "railings":1,
    "vehicle":1,
    "zach":1,
    "techie":1,
    "rips":1,
    "knockoff":1,
    "raybans":1,
    "oo":1,
    "ey":1,
    "sundeep":1,
    "notice":1,
    "obliging":1,
    "offers":1,
    "polite":1,
    "scoots":1,
    "otherwise":1,
    "millionaire":1,
    "invited":1,
    "slaps":1,
    "fives":1,
    "sec":1,
    "scurries":1,
    "biggest":1,
    "end":1,
    "\u2018whats":1,
    "up\u2019":1,
    "parlor":1,
    "noises":1,
    "ceilings":1,
    "you\u2019d":1,
    "howd":1,
    "exaggerating":1,
    "act":1,
    "foreal":1,
    "year":1,
    "schvitz":1,
    "schwitz":1,
    "woofin":1,
    "adopts":1,
    "cadence":1,
    "hasnt":1,
    "ghost":1,
    "orleans":1,
    "itd":1,
    "butkofi":1,
    "fillmoe":1,
    "war":1,
    "elses":1,
    "fuuuuck":1,
    "raw":1,
    "rick":1,
    "caught":1,
    "stealing":1,
    "candy":1,
    "braaaa":1,
    "ugly":1,
    "crier":1,
    "sayin":1,
    "ms":1,
    "homer":1,
    "shave":1,
    "headbut":1,
    "lining":1,
    "lombardstreetlookingass":1,
    "lombard":1,
    "thoooughkofi":1,
    "onto":1,
    "giggling":1,
    "evenim":1,
    "piss":1,
    "lil":1,
    "clawfoot":1,
    "tub":1,
    "bet":1,
    "puff":1,
    "steam":1,
    "uhyou":1,
    "ive":1,
    "space":1,
    "forever":1,
    "spots":1,
    "meansure":1,
    "yeahi":1,
    "dining":1,
    "measure":1,
    "wingspan":1,
    "muttering":1,
    "calculations":1,
    "perfect":1,
    "dream":1,
    "power\u2019s":1,
    "cord":1,
    "invoiceand":1,
    "mail":1,
    "sooner":1,
    "bills":1,
    "expertly":1,
    "cable":1,
    "packs":1,
    "\u2018cause":1,
    "offered":1,
    "chip":1,
    "pays":1,
    "drill":1,
    "hook":1,
    "packing":1,
    "characters":1,
    "workingdont":1,
    "plot":1,
    "brainstorm":1,
    "rush":1,
    "soon":1,
    "oooh":1,
    "rocking":1,
    "brabra":1,
    "hauls":1,
    "gear":1,
    "flashing":1,
    "weenie":1,
    "hair":1,
    "simpson":1,
    "burst":1,
    "shirt":1,
    "fiend":1,
    "momma":1,
    "vanishes":1,
    "lace":1,
    "dollhouse":1,
    "crack":1,
    "grownass":1,
    "candles":1,
    "shoo":1,
    "mont\u2019":1,
    "teach":1,
    "vanish":1,
    "flick":1,
    "match":1,
    "kof\u2019":1,
    "balls":1,
    "drawing":1,
    "themall":1,
    "sketching":1,
    "chewedup":1,
    "art":1,
    "supplies":1,
    "silly":1,
    "whisking":1,
    "eggs":1,
    "dreamy":1,
    "sweeping":1,
    "strings":1,
    "study":1,
    "respective":1,
    "sides":1,
    "mantle":1,
    "differing":1,
    "decorations":1,
    "fortunate":1,
    "clink":1,
    "bottles":1,
    "wallpaper":1,
    "remove":1,
    "moist":1,
    "condensation":1,
    "glue":1,
    "elmer\u2019s":1,
    "process":1,
    "cups":1,
    "filled":1,
    "pomadepreened":1,
    "explaining":1,
    "hyphy":1,
    "lingo":1,
    "skeptical":1,
    "collegiate":1,
    "trans":1,
    "bubbly":1,
    "sarcastic":1,
    "toast":1,
    "vivacious":1,
    "blame":1,
    "messenger":1,
    "serena":1,
    "self":1,
    "esteem":1,
    "issue":1,
    "sleep":1,
    "sheepishly":1,
    "cheer":1,
    "overlooking":1,
    "amidst":1,
    "three":1,
    "bros":1,
    "violently":1,
    "yank":1,
    "sways":1,
    "wrestle":1,
    "sex":1,
    "oncejimmie":1,
    "shocked":1,
    "bar":1,
    "roadies":1,
    "untalented":1,
    "comedian":1,
    "onlookers":1,
    "egg":1,
    "struggling":1,
    "sapling":1,
    "suddenly":1,
    "piles":1,
    "yanking":1,
    "rising":1,
    "cheers":1,
    "idiots":1,
    "tipsy":1,
    "enraged":1,
    "babe":1,
    "landlordz":1,
    "assholes":1,
    "it\u2019ll":1,
    "asshole":1,
    "connection":1,
    "thaaat":1,
    "brian":1,
    "waist":1,
    "whispers":1,
    "ear":1,
    "babebabeits":1,
    "frantic":1,
    "drunkenly":1,
    "branches":1,
    "sleepy":1,
    "hahd":1,
    "grreat":1,
    "youuu":1,
    "dodnt":1,
    "yeaaah":1,
    "dodntsoo":1,
    "tugs":1,
    "stopping":1,
    "isn":1,
    "perzonal":1,
    "weren\u2019t":1,
    "adapt":1,
    "thick":1,
    "fertilizer":1,
    "shits":1,
    "groans":1,
    "mary\u2019s":1,
    "exhaustion":1,
    "resigned":1,
    "drift":1,
    "holding":1,
    "changed":1,
    "locks":1,
    "sucks":1,
    "flights":1,
    "shell":1,
    "windowsill":1,
    "loretta\u2019s":1,
    "former":1,
    "flame":1,
    "fez":1,
    "winks":1,
    "oily":1,
    "whitepeopledreads":1,
    "camping":1,
    "backpacks":1,
    "sprawl":1,
    "pit":1,
    "bull":1,
    "forces":1,
    "snout":1,
    "lap":1,
    "meetings":1,
    "23":1,
    "speaker":1,
    "ioh":1,
    "backbrenda":1,
    "ron":1,
    "la":1,
    "months":1,
    "maam":1,
    "seeing":1,
    "passengers":1,
    "phones":1,
    "puzzled":1,
    "nonchalance":1,
    "interaction":1,
    "staying":1,
    "dad\u2019s":1,
    "fixing":1,
    "vacantly":1,
    "quiet":1,
    "seconds":1,
    "number":1,
    "taller":1,
    "exit":1,
    "shot":1,
    "whowho":1,
    "tried":1,
    "buff":1,
    "justi":1,
    "yalland":1,
    "fuckin":1,
    "angry":1,
    "tenses":1,
    "protectively":1,
    "expressionless":1,
    "poor":1,
    "mothera":1,
    "bodies":1,
    "werent":1,
    "wherever":1,
    "worry":1,
    "listening":1,
    "sue":1,
    "selbys":1,
    "cozy":1,
    "scrolls":1,
    "rip":1,
    "messages":1,
    "kofi\u2019s":1,
    "weird":1,
    "coulda":1,
    "meif":1,
    "funny":1,
    "int":1,
    "gunna\u2019s":1,
    "evening":1,
    "consoles":1,
    "darrel":1,
    "tucks":1,
    "toss":1,
    "cushion":1,
    "cigarettedispenser":1,
    "printed":1,
    "fuckingtraitor":1,
    "storms":1,
    "kicks":1,
    "pamphlets":1,
    "fly":1,
    "everywhere":1,
    "changes":1,
    "strewn":1,
    "toppled":1,
    "drawers":1,
    "burgundy":1,
    "suit":1,
    "cowboy":1,
    "orphaned":1,
    "tossed":1,
    "pamphlet":1,
    "inspects":1,
    "buy":1,
    "exciting":1,
    "agent":1,
    "necessarily":1,
    "price":1,
    "assume":1,
    "4":1,
    "million":1,
    "willing":1,
    "typically":1,
    "secure":1,
    "20":1,
    "understandable":1,
    "asked":1,
    "instead":1,
    "per":1,
    "type":1,
    "none":1,
    "favor":1,
    "rich":1,
    "quota":1,
    "calling":1,
    "predatorbanker":1,
    "money":1,
    "unlike":1,
    "default":1,
    "monthly":1,
    "interest":1,
    "rate":1,
    "single":1,
    "cent":1,
    "charming":1,
    "bastard":1,
    "fakelaughs":1,
    "wander":1,
    "messy":1,
    "hangs":1,
    "hows":1,
    "noticed":1,
    "discussed":1,
    "alarming":1,
    "literature":1,
    "certainly":1,
    "bureau":1,
    "claims":1,
    "original":1,
    "faucets":1,
    "planning":1,
    "disclosing":1,
    "septic":1,
    "flooded":1,
    "withshit":1,
    "advertising":1,
    "grounds":1,
    "void":1,
    "potentially":1,
    "revoke":1,
    "license":1,
    "perhaps":1,
    "isn\u2019t":1,
    "worth":1,
    "mightve":1,
    "trucked":1,
    "listing":1,
    "bridge":1,
    "literally":1,
    "copy":1,
    "pasted":1,
    "history":1,
    "1857":1,
    "architects":1,
    "gilhooley":1,
    "oxygen":1,
    "leaves":1,
    "somewhere":1,
    "try":1,
    "squatters":1,
    "rights":1,
    "tosses":1,
    "shellshocked":1,
    "where\u2019d":1,
    "matter":1,
    "except":1,
    "couch":1,
    "fell":1,
    "darkly":1,
    "concerned":1,
    "spoke":1,
    "realtorjimmie":1,
    "eventually":1,
    "stewing":1,
    "longer":1,
    "yourjimmie":1,
    "dads":1,
    "sro":1,
    "aunt\u2019s":1,
    "bumfuck":1,
    "momi":1,
    "housejimmie":1,
    "brodon\u2019t":1,
    "crythis":1,
    "deserves":1,
    "tears":1,
    "force":1,
    "yeahyeah":1,
    "doorway":1,
    "solemnly":1,
    "id":1,
    "opus":1,
    "soulful":1,
    "singing":1,
    "scott":1,
    "mckenzie\u2019s":1,
    "\u201cif":1,
    "haight":1,
    "mike":1,
    "marshall":1,
    "croons":1,
    "passing":1,
    "wrote":1,
    "morebut":1,
    "museum":1,
    "condition":1,
    "whiteboy":1,
    "mess":1,
    "daddys":1,
    "montgumery":1,
    "fright":1,
    "patting":1,
    "shoulder":1,
    "knobs":1,
    "resembling":1,
    "bootsy":1,
    "collins\u2019":1,
    "\u201ci\u2019d":1,
    "you\u201d":1,
    "hated":1,
    "played":1,
    "shy":1,
    "idiotjames":1,
    "admiring":1,
    "architecture":1,
    "hiring":1,
    "applications":1,
    "upstairs":1,
    "age":1,
    "trip":1,
    "figured":1,
    "reasons":1,
    "float":1,
    "below":1,
    "framed":1,
    "gave":1,
    "hammer":1,
    "wellthe":1,
    "ahh":1,
    "wawa":1,
    "sis":1,
    "staircase":1,
    "scoops":1,
    "family\u2019s":1,
    "melts":1,
    "moves":1,
    "twoface":1,
    "second":1,
    "costume":1,
    "replica":1,
    "kofis":1,
    "profile":1,
    "death":1,
    "ends":1,
    "skeletal":1,
    "makeup":1,
    "slips":1,
    "bush":1,
    "mailbox":1,
    "funeral":1,
    "erupts":1,
    "wailing":1,
    "wildly":1,
    "ahhhhhhhhhhhhhhh":1,
    "hiding":1,
    "raises":1,
    "gun":1,
    "strobe":1,
    "disappear":1,
    "darkness":1,
    "wordsplease":1,
    "projection":1,
    "crisp":1,
    "kofiworld":1,
    "hazel":1,
    "greene":1,
    "135":1,
    "click":1,
    "w":1,
    "john":1,
    "bishop":1,
    "206":1,
    "shares":1,
    "slide":1,
    "low":1,
    "solemn":1,
    "voices":1,
    "yelled":1,
    "boss":1,
    "being":1,
    "timer":1,
    "grief":1,
    "koofi":1,
    "leah":1,
    "tanaka":1,
    "320":1,
    "ko":1,
    "pain":1,
    "rrrrodney":1,
    "widen":1,
    "reveal":1,
    "musicians":1,
    "throughout":1,
    "film":1,
    "florida":1,
    "mutual":1,
    "links":1,
    "song":1,
    "called":1,
    "netflix":1,
    "pills":1,
    "facebook":1,
    "posts":1,
    "flicking":1,
    "fully":1,
    "funereal":1,
    "hum":1,
    "eye":1,
    "contact":1,
    "touched":1,
    "dimensions":1,
    "reflect":1,
    "capture":1,
    "summon":1,
    "celebrate":1,
    "loudest":1,
    "memories":1,
    "hesitates":1,
    "unsure":1,
    "whether":1,
    "encouragingly":1,
    "niece":1,
    "kept":1,
    "gentleman":1,
    "timelorettas":1,
    "sons":1,
    "unable":1,
    "natural":1,
    "lotta":1,
    "he\u2019d":1,
    "olley":1,
    "gonz":1,
    "gap":1,
    "he\u2019ll":1,
    "missed":1,
    "regretfully":1,
    "nudges":1,
    "alert":1,
    "aware":1,
    "coached":1,
    "warner":1,
    "pack":1,
    "fuss":1,
    "snuck":1,
    "middle":1,
    "memory":1,
    "jumped":1,
    "defending":1,
    "fought":1,
    "aren\u2019t":1,
    "congregation":1,
    "would\u2019ve":1,
    "forms":1,
    "pushed":1,
    "perhapsif":1,
    "neighborhoods":1,
    "gentle":1,
    "arent":1,
    "gathered":1,
    "solely":1,
    "mourn":1,
    "boxes":1,
    "bangs":1,
    "fist":1,
    "newly":1,
    "painted":1,
    "courage":1,
    "robin":1,
    "hood":1,
    "sweets":1,
    "husband":1,
    "oncejailed":1,
    "activist":1,
    "whips":1,
    "fantastic":1,
    "reborn":1,
    "relic":1,
    "expression":1,
    "offscript":1,
    "selftaught":1,
    "historian":1,
    "carpenter":1,
    "decorator":1,
    "class":1,
    "hero":1,
    "lover":1,
    "color":1,
    "drains":1,
    "turned":1,
    "tabernacle":1,
    "congregate":1,
    "forefathers":1,
    "slams":1,
    "cracking":1,
    "hardens":1,
    "warmly":1,
    "form":1,
    "pounds":1,
    "leg":1,
    "rattling":1,
    "freezes":1,
    "panting":1,
    "clenches":1,
    "extend":1,
    "wajimmie":1,
    "enough":1,
    "needbro":1,
    "deed":1,
    "everyone":1,
    "iti\u2019m":1,
    "shock":1,
    "chairs":1,
    "squeak":1,
    "listless":1,
    "watching":1,
    "tv":1,
    "james\u2019":1,
    "deserve":1,
    "anyway":1,
    "neither":1,
    "spine":1,
    "pride":1,
    "searching":1,
    "father":1,
    "emotions":1,
    "liar":1,
    "asters":1,
    "tulips":1,
    "aunt":1,
    "blearyeyed":1,
    "dejected":1,
    "forgot":1,
    "flashes":1,
    "underneath":1,
    "story":1,
    "took":1,
    "honest":1,
    "happy":1,
    "aspire":1,
    "incredible":1,
    "spend":1,
    "loss":1,
    "franciscos":1,
    "anyways":1,
    "bold":1,
    "badass":1,
    "nephew":1,
    "opening":1,
    "monologue":1,
    "pep":1,
    "antioch":1,
    "sobering":1,
    "reality":1,
    "fancy":1,
    "triple":1,
    "foam":1,
    "icecream":1,
    "absurd":1,
    "thirtysomethings":1,
    "skirts":1,
    "blouses":1,
    "en":1,
    "route":1,
    "applies":1,
    "foundation":1,
    "defeated":1,
    "5am":1,
    "trek":1,
    "temp":1,
    "masters":1,
    "degree":1,
    "freak":1,
    "york":1,
    "er":1,
    "soooorry":1,
    "thanks":1,
    "classic":1,
    "muni":1,
    "okayjimmie":1,
    "tight":1,
    "hungry":1,
    "starving":1,
    "tightie":1,
    "whities":1,
    "cleaning":1,
    "quirks":1,
    "enjoy":1,
    "mumbling":1,
    "waits":1,
    "stuck":2,
    "bomb":2,
    "mother":2,
    "box":2,
    "paying":2,
    "attention":2,
    "without":2,
    "funky":2,
    "mouth":2,
    "lookin":2,
    "lungs":2,
    "saying":2,
    "brothers":2,
    "urge":2,
    "women":2,
    "unless":2,
    "early":2,
    "scene":2,
    "fade":2,
    "before":2,
    "born":2,
    "anxiously":2,
    "camera":2,
    "push":2,
    "we\u2019ll":2,
    "further":2,
    "ships":2,
    "blocks":2,
    "towering":2,
    "narrow":2,
    "details":2,
    "windows":2,
    "skates":2,
    "crooked":2,
    "curtain":2,
    "clutches":2,
    "coat":2,
    "sweat":2,
    "light":2,
    "catches":2,
    "sun":2,
    "music":2,
    "climbs":2,
    "seem":2,
    "gently":2,
    "kitchen":2,
    "paint":2,
    "ascends":2,
    "garden":2,
    "bring":2,
    "shift":2,
    "spot":2,
    "hun":2,
    "dollars":2,
    "finish":2,
    "theirs":2,
    "coming":2,
    "birdie":2,
    "runs":2,
    "villain":2,
    "kid":2,
    "supposed":2,
    "male":2,
    "human":2,
    "wrong":2,
    "projects":2,
    "ball":2,
    "knows":2,
    "gunna":2,
    "bursts":2,
    "having":2,
    "backyard":2,
    "housing":2,
    "walking":2,
    "office":2,
    "report":2,
    "dock":2,
    "lights":2,
    "peed":2,
    "mont\u2019s":2,
    "yellow":2,
    "floors":2,
    "bathroom":2,
    "bed":2,
    "distance":2,
    "closer":2,
    "there\u2019s":2,
    "part":2,
    "ma\u2019am":2,
    "meat":2,
    "returns":2,
    "appreciatively":2,
    "stick":2,
    "confusion":2,
    "remembering":2,
    "sees":2,
    "getting":2,
    "friends":2,
    "bag":2,
    "ain\u2019t":2,
    "ready":2,
    "nearly":2,
    "selfconsciously":2,
    "removes":2,
    "gardening":2,
    "smoke":2,
    "breath":2,
    "does":2,
    "hitting":2,
    "halt":2,
    "pops":2,
    "laughs":2,
    "liked":2,
    "motherfuckers":2,
    "outlive":2,
    "park":2,
    "burned":2,
    "smoking":2,
    "rent":2,
    "\u2018em":2,
    "mine":2,
    "truck":2,
    "happening":2,
    "sister":2,
    "whose":2,
    "posses":2,
    "collect":2,
    "follow":2,
    "project":2,
    "sixty":2,
    "twix":2,
    "finna":2,
    "grown":2,
    "plays":2,
    "reason":2,
    "usual":2,
    "waiting":2,
    "patiently":2,
    "dead":2,
    "advertisement":2,
    "fiends":2,
    "throwing":2,
    "devil":2,
    "horns":2,
    "blood":2,
    "faces":2,
    "fillmore":2,
    "trim":2,
    "yup":2,
    "shifts":2,
    "drive":2,
    "school":2,
    "generation":2,
    "scans":2,
    "cold":2,
    "grateful":2,
    "mayor":2,
    "tourists":2,
    "fun":2,
    "japanese":2,
    "rounded":2,
    "camps":2,
    "spits":2,
    "mouthful":2,
    "1940s":2,
    "guide":2,
    "everybody":2,
    "wont":2,
    "style":2,
    "architect":2,
    "building":2,
    "piece":2,
    "columns":2,
    "1946":2,
    "herself":2,
    "master":2,
    "puzzle":2,
    "flying":2,
    "c\u2019mon":2,
    "super":2,
    "high":2,
    "mays":2,
    "francisco\u201d":2,
    "hide":2,
    "screen":2,
    "earth":2,
    "far":2,
    "photo":2,
    "excited":2,
    "wide":2,
    "train":2,
    "frisco":2,
    "anymore":2,
    "rocks":2,
    "arms":2,
    "sweetie":2,
    "break":2,
    "lands":2,
    "um":2,
    "making":2,
    "tonight":2,
    "drinks":2,
    "hope":2,
    "dragging":2,
    "deep":2,
    "damn":2,
    "mic":2,
    "beside":2,
    "lamp":2,
    "questions":2,
    "somebody":2,
    "once":2,
    "sip":2,
    "bubbles":2,
    "pop":2,
    "wandas":2,
    "snores":2,
    "shes":2,
    "suppose":2,
    "pine":2,
    "disappears":2,
    "lived":2,
    "ellory":2,
    "surprised":2,
    "hi":2,
    "extends":2,
    "fast":2,
    "market":2,
    "pleasure":2,
    "pardon":2,
    "carries":2,
    "slightly":2,
    "joins":2,
    "paper":2,
    "liability":2,
    "theatrically":2,
    "stage":2,
    "cry":2,
    "angrily":2,
    "run":2,
    "shoves":2,
    "marches":2,
    "yo":2,
    "cmon":2,
    "skateboard":2,
    "path":2,
    "bruh":2,
    "feels":2,
    "cutting":2,
    "heard":2,
    "taxes":2,
    "appreciate":2,
    "electric":2,
    "painting":2,
    "fixed":2,
    "wheres":2,
    "stops":2,
    "picks":2,
    "slows":2,
    "chuckle":2,
    "swings":2,
    "false":2,
    "dark":2,
    "how\u2019d":2,
    "idea":2,
    "shouldn\u2019t":2,
    "dunno":2,
    "glad":2,
    "organ":2,
    "highest":2,
    "kinda":2,
    "awkward":2,
    "cracks":2,
    "town":2,
    "falls":2,
    "myself":2,
    "chuckling":2,
    "embarrassed":2,
    "seriously":2,
    "taking":2,
    "wraps":2,
    "putting":2,
    "crate":2,
    "talked":2,
    "quite":2,
    "monty":2,
    "under":2,
    "halfsmile":2,
    "playing":2,
    "dying":2,
    "motherfucker":2,
    "pretends":2,
    "breaks":2,
    "met":2,
    "pencil":2,
    "anybody":2,
    "says":2,
    "robe":2,
    "appear":2,
    "wouldve":2,
    "5":2,
    "harder":2,
    "finally":2,
    "reaches":2,
    "revealing":2,
    "cunty":2,
    "sam":2,
    "crowd":2,
    "bryan":2,
    "aura":2,
    "bud":2,
    "dancing":2,
    "shhh":2,
    "dance":2,
    "win":2,
    "remains":2,
    "flower":2,
    "seats":2,
    "vikki":2,
    "ago":2,
    "we\u2019d":2,
    "boy":2,
    "felt":2,
    "crickets":2,
    "find":2,
    "broken":2,
    "claytons":2,
    "range":2,
    "wed":2,
    "view":2,
    "fixtures":2,
    "couldve":2,
    "week":2,
    "ext":2,
    "rather":2,
    "180":2,
    "breh":2,
    "bang":2,
    "sound":2,
    "effect":2,
    "ehugs":2,
    "emoji":2,
    "smoked":2,
    "rise":2,
    "sad":2,
    "tuck":2,
    "moved":2,
    "speak":2,
    "hed":2,
    "begin":2,
    "tear":2,
    "exist":2,
    "jaw":2,
    "outta":2,
    "lucky":3,
    "lady":3,
    "preacher":3,
    "understand":3,
    "morning":3,
    "bit":3,
    "edge":3,
    "brah":3,
    "build":3,
    "very":3,
    "wood":3,
    "walls":3,
    "pass":3,
    "check":3,
    "step":3,
    "ugh":3,
    "tools":3,
    "jesus":3,
    "again":3,
    "grabs":3,
    "neighbors":3,
    "serious":3,
    "wish":3,
    "worried":3,
    "laugh":3,
    "dick":3,
    "eh":3,
    "near":3,
    "stunna":3,
    "others":3,
    "aye":3,
    "top":3,
    "laughing":3,
    "gives":3,
    "same":3,
    "eat":3,
    "small":3,
    "houses":3,
    "most":3,
    "whos":3,
    "mhm":3,
    "bedroom":3,
    "politely":3,
    "glances":3,
    "haha":3,
    "young":3,
    "sunflower":3,
    "cup":3,
    "maybe":3,
    "hang":3,
    "many":3,
    "imma":3,
    "tryna":3,
    "100":3,
    "shrugs":3,
    "shaking":3,
    "she\u2019s":3,
    "cannot":3,
    "died":3,
    "finger":3,
    "exits":3,
    "isnt":3,
    "please":3,
    "roy":3,
    "pigeon":3,
    "hitler":3,
    "mustache":3,
    "works":3,
    "golden":3,
    "exactly":3,
    "seat":3,
    "st":3,
    "third":3,
    "honestly":3,
    "living":3,
    "estate":3,
    "ol\u2019":3,
    "world":3,
    "older":3,
    "course":3,
    "set":3,
    "dating":3,
    "lets":3,
    "wave":3,
    "wasnt":3,
    "wake":3,
    "air":3,
    "paid":3,
    "shoots":3,
    "pull":3,
    "yanks":3,
    "forth":3,
    "holds":3,
    "better":3,
    "pick":3,
    "sometimes":3,
    "asking":3,
    "send":3,
    "swear":3,
    "everything":3,
    "ask":3,
    "mind":3,
    "beer":3,
    "havent":3,
    "chance":3,
    "meet":3,
    "wipes":3,
    "furniture":3,
    "sign":3,
    "silence":3,
    "leaving":3,
    "night":3,
    "folks":3,
    "believe":3,
    "nervous":3,
    "start":3,
    "lost":3,
    "pay":3,
    "share":3,
    "ahead":3,
    "frozen":3,
    "naked":3,
    "idiot":3,
    "talk":3,
    "hard":3,
    "girls":3,
    "continue":3,
    "walk":3,
    "person":3,
    "shitty":3,
    "raised":3,
    "softens":3,
    "tomorrow":3,
    "brenda":3,
    "answers":3,
    "follows":3,
    "gaze":3,
    "dressed":3,
    "sr\u2019s":3,
    "flips":3,
    "degrees":3,
    "flash":3,
    "words":3,
    "text":3,
    "likes":3,
    "choir":3,
    "post":3,
    "becca":3,
    "nina":3,
    "hate":3,
    "suits":4,
    "whatever":4,
    "best":4,
    "listen":4,
    "clean":4,
    "mask":4,
    "leave":4,
    "they\u2019d":4,
    "seems":4,
    "since":4,
    "late":4,
    "skate":4,
    "youd":4,
    "knew":4,
    "half":4,
    "gold":4,
    "truth":4,
    "special":4,
    "big":4,
    "stare":4,
    "staring":4,
    "witch":4,
    "hat":4,
    "frame":4,
    "they\u2019re":4,
    "open":4,
    "couple":4,
    "dog":4,
    "continues":4,
    "inside":4,
    "3":4,
    "ours":4,
    "jumps":4,
    "am":4,
    "fix":4,
    "saw":4,
    "dude":4,
    "fresh":4,
    "greek":4,
    "chorus":4,
    "point":4,
    "live":4,
    "probably":4,
    "lean":4,
    "beyond":4,
    "after":4,
    "stupid":4,
    "thinking":4,
    "writing":4,
    "soft":4,
    "psh":4,
    "else":4,
    "middleaged":4,
    "which":4,
    "curtains":4,
    "bags":4,
    "aw":4,
    "told":4,
    "yourself":4,
    "seeds":4,
    "kids":4,
    "pulls":4,
    "excuse":4,
    "approaches":4,
    "family":4,
    "mary":4,
    "least":4,
    "only":4,
    "property":4,
    "sale":4,
    "thing":4,
    "neighborhood":4,
    "name":4,
    "em":4,
    "tour":4,
    "neighbor":4,
    "voice":4,
    "stairs":4,
    "knowing":4,
    "telling":4,
    "wait":4,
    "willie":4,
    "mr":4,
    "also":4,
    "show":4,
    "jayboe":4,
    "wanted":4,
    "ill":4,
    "chest":4,
    "makes":4,
    "notices":4,
    "ah":4,
    "weve":4,
    "coffee":4,
    "read":4,
    "might":4,
    "actually":4,
    "lying":4,
    "watches":4,
    "happened":4,
    "turn":4,
    "mad":4,
    "stay":4,
    "fucks":4,
    "bad":4,
    "hall":4,
    "chair":4,
    "someone":4,
    "bill":4,
    "theres":4,
    "hugs":4,
    "furrows":4,
    "brow":4,
    "appears":4,
    "chuckles":4,
    "another":4,
    "audience":4,
    "cant":5,
    "land":5,
    "nobody":5,
    "hell":5,
    "allen":5,
    "every":5,
    "we\u2019re":5,
    "fight":5,
    "let\u2019s":5,
    "new":5,
    "whole":5,
    "forward":5,
    "drops":5,
    "door":5,
    "gate":5,
    "i\u2019ll":5,
    "cops":5,
    "together":5,
    "montgomery\u2019s":5,
    "watch":5,
    "wouldnt":5,
    "floor":5,
    "10":5,
    "woman":5,
    "doesnt":5,
    "lifts":5,
    "fucked":5,
    "nah":5,
    "own":5,
    "what\u2019s":5,
    "can\u2019t":5,
    "wasn\u2019t":5,
    "yours":5,
    "beautiful":5,
    "deal":5,
    "miss":5,
    "life":5,
    "pretty":5,
    "real":5,
    "left":5,
    "hands":5,
    "proudly":5,
    "proud":5,
    "looking":5,
    "things":5,
    "today":5,
    "welcome":5,
    "enters":5,
    "outside":5,
    "already":5,
    "cool":5,
    "talking":5,
    "ok":5,
    "passes":5,
    "hand":6,
    "i\u2019d":6,
    "points":6,
    "weak":6,
    "came":6,
    "y\u2019all":6,
    "francisco":6,
    "homes":6,
    "fish":6,
    "behind":6,
    "walks":6,
    "tries":6,
    "done":6,
    "shakes":6,
    "board":6,
    "moment":6,
    "any":6,
    "hear":6,
    "thank":6,
    "gotta":6,
    "bitch":6,
    "take":6,
    "bobby":6,
    "daddy":6,
    "himself":6,
    "lot":6,
    "cuz":6,
    "sits":6,
    "mom":6,
    "smiling":6,
    "sounds":6,
    "play":6,
    "starts":6,
    "hug":6,
    "auntie":6,
    "guy":6,
    "guys":6,
    "phone":6,
    "men":7,
    "because":7,
    "fails":7,
    "will":7,
    "hm":7,
    "last":7,
    "remember":7,
    "move":7,
    "each":7,
    "gone":7,
    "care":7,
    "tell":7,
    "against":7,
    "almost":7,
    "work":7,
    "away":7,
    "guess":7,
    "trying":7,
    "true":7,
    "table":7,
    "keep":7,
    "thought":7,
    "fighting":7,
    "loretta":7,
    "yes":7,
    "andy":7,
    "yet":7,
    "hes":7,
    "great":7,
    "working":7,
    "give":7,
    "front":8,
    "alone":8,
    "bus":8,
    "begins":8,
    "city":8,
    "san":8,
    "next":8,
    "takes":8,
    "than":8,
    "call":8,
    "fine":8,
    "confused":8,
    "always":8,
    "na":8,
    "niggas":8,
    "hey":8,
    "let":8,
    "dad":8,
    "hella":8,
    "much":8,
    "friend":8,
    "stuff":8,
    "first":8,
    "wall":8,
    "son":8,
    "cause":8,
    "hit":8,
    "something":9,
    "face":9,
    "whats":9,
    "water":9,
    "wanna":9,
    "sir":9,
    "those":9,
    "made":9,
    "two":9,
    "crazy":9,
    "studies":9,
    "empty":9,
    "slowly":9,
    "towards":9,
    "past":9,
    "jimmie\u2019s":9,
    "has":9,
    "long":9,
    "said":9,
    "montgomerys":9,
    "where":9,
    "smile":9,
    "leans":9,
    "stares":9,
    "car":9,
    "way":9,
    "yall":9,
    "around":9,
    "clayton":9,
    "would":9,
    "wanda":9,
    "nice":9,
    "tim":9,
    "sr":9,
    "tree":9,
    "god":10,
    "stands":10,
    "old":10,
    "years":10,
    "while":10,
    "sure":10,
    "mean":10,
    "group":10,
    "nitty":10,
    "seen":10,
    "place":10,
    "say":10,
    "didn\u2019t":10,
    "used":10,
    "youre":10,
    "love":10,
    "ricky":10,
    "feel":10,
    "ever":10,
    "alright":10,
    "through":11,
    "he\u2019s":11,
    "jim":11,
    "other":11,
    "head":11,
    "make":11,
    "didnt":11,
    "smiles":11,
    "going":12,
    "or":12,
    "white":12,
    "even":12,
    "really":12,
    "more":12,
    "steps":12,
    "should":12,
    "though":12,
    "fucking":12,
    "few":12,
    "room":12,
    "uh":12,
    "need":12,
    "by":13,
    "put":13,
    "help":13,
    "stop":13,
    "their":13,
    "bro":13,
    "never":13,
    "window":13,
    "jimmies":13,
    "day":13,
    "ass":13,
    "sorry":13,
    "across":14,
    "built":14,
    "too":14,
    "some":14,
    "come":14,
    "huh":14,
    "why":15,
    "one":15,
    "time":15,
    "you\u2019re":15,
    "still":15,
    "okay":15,
    "want":15,
    "black":16,
    "nigga":16,
    "eyes":16,
    "doing":16,
    "off":16,
    "over":16,
    "could":16,
    "home":17,
    "had":17,
    "james":17,
    "nods":17,
    "when":17,
    "then":17,
    "our":18,
    "think":18,
    "can":18,
    "these":19,
    "people":19,
    "she":19,
    "grandpa":19,
    "an":20,
    "us":20,
    "them":20,
    "good":20,
    "that\u2019s":21,
    "street":21,
    "thats":21,
    "dont":22,
    "did":22,
    "little":22,
    "who":22,
    "fuck":23,
    "it\u2019s":24,
    "down":24,
    "go":24,
    "were":25,
    "into":25,
    "oh":25,
    "don\u2019t":26,
    "from":26,
    "how":26,
    "if":26,
    "right":27,
    "been":27,
    "now":28,
    "look":28,
    "about":28,
    "gonna":28,
    "turns":28,
    "see":28,
    "its":28,
    "there":30,
    "do":31,
    "well":31,
    "im":32,
    "her":33,
    "shit":33,
    "kofi":34,
    "i\u2019m":35,
    "are":36,
    "got":37,
    "have":37,
    "mont":37,
    "all":37,
    "no":38,
    "get":41,
    "so":41,
    "bra":42,
    "as":43,
    "know":43,
    "not":44,
    "is":45,
    "just":45,
    "":45,
    "was":47,
    "here":48,
    "me":49,
    "looks":49,
    "back":49,
    "be":51,
    "out":53,
    "him":53,
    "they":54,
    "yeah":54,
    "man":55,
    "your":56,
    "my":56,
    "house":57,
    "for":62,
    "what":62,
    "we":63,
    "but":64,
    "with":70,
    "like":71,
    "up":73,
    "on":76,
    "montgomery":77,
    "that":84,
    "at":86,
    "his":97,
    "of":107,
    "this":107,
    "he":111,
    "in":125,
    "it":137,
    "jimmie":165,
    "and":172,
    "i":223,
    "to":272,
    "a":276,
    "you":287,
    "the":408
}