{
    "breathe":1,
    "coffee":1,
    "marc":1,
    "drink":1,
    "feel":1,
    "ease":1,
    "abderames":1,
    "dress":1,
    "chin":1,
    "happen":1,
    "dressed":1,
    "cap":1,
    "nationalized":1,
    "lagloy":1,
    "fool":1,
    "surrounded":1,
    "machine":1,
    "guns":1,
    "finished":1,
    "breathing":1,
    "heavily":1,
    "fear":1,
    "prefer":1,
    "worse":1,
    "break":1,
    "loose":1,
    "bonds":1,
    "oppression":1,
    "kept":1,
    "chained":1,
    "near":1,
    "avoid":1,
    "fatal":1,
    "conflict":1,
    "propose":1,
    "honorable":1,
    "program":1,
    "authorities":1,
    "condition":1,
    "selfgovernment":1,
    "unite":1,
    "miliana":1,
    "1930":1,
    "education":1,
    "illiterate":1,
    "laborer":1,
    "farm":1,
    "hand":1,
    "boxer":1,
    "presently":1,
    "former":1,
    "convictions":1,
    "1942":1,
    "oran":1,
    "juvenile":1,
    "year":1,
    "acts":1,
    "vandalism":1,
    "1944":1,
    "theft":1,
    "1949":1,
    "compulsory":1,
    "resisting":1,
    "arrest":1,
    "offender":1,
    "juju":1,
    "faces":1,
    "laughs":1,
    "cafe":1,
    "random":1,
    "40":1,
    "owners":1,
    "informer":1,
    "5":1,
    "goes":1,
    "stops":1,
    "drinking":1,
    "cup":1,
    "tea":1,
    "corner":1,
    "large":1,
    "clock":1,
    "carrying":1,
    "masters":1,
    "special":1,
    "bitch":1,
    "joke":1,
    "catch":1,
    "letter":1,
    "unloaded":1,
    "suppose":1,
    "pretend":1,
    "trick":1,
    "gave":1,
    "contact":1,
    "saari":1,
    "words":1,
    "join":1,
    "undergo":1,
    "barman":1,
    "though":1,
    "obeying":1,
    "agent":1,
    "tried":1,
    "risk":1,
    "life":1,
    "exaggerating":1,
    "kind":1,
    "complain":1,
    "attacking":1,
    "depart":1,
    "drunks":1,
    "pushers":1,
    "whores":1,
    "addicts":1,
    "spies":1,
    "sell":1,
    "undecided":1,
    "clean":1,
    "bulletin":1,
    "peoples":1,
    "degrading":1,
    "vices":1,
    "forgotten":1,
    "dignity":1,
    "corruption":1,
    "brutality":1,
    "dangerous":1,
    "colonialism":1,
    "physical":1,
    "redemption":1,
    "indispensable":1,
    "reconquest":1,
    "clandestine":1,
    "authority":1,
    "prohibits":1,
    "activities":1,
    "gambling":1,
    "types":1,
    "drugs":1,
    "alcoholic":1,
    "beverages":1,
    "solicitation":1,
    "brothel":1,
    "widens":1,
    "branch":1,
    "broaden":1,
    "tourists":1,
    "adventure":1,
    "elements":1,
    "international":1,
    "underworld":1,
    "mingle":1,
    "early":1,
    "boss":1,
    "shows":1,
    "son":1,
    "happened":1,
    "condemned":1,
    "dying":1,
    "laughter":1,
    "theyve":1,
    "warned":1,
    "twice":1,
    "occupations":1,
    "shit":1,
    "spread":1,
    "received":1,
    "searchwarrant":1,
    "disly":1,
    "followed":1,
    "track":1,
    "precinct":1,
    "wasnt":1,
    "suspects":1,
    "marengo":1,
    "judge":1,
    "permission":1,
    "formal":1,
    "investigation":1,
    "couldnt":1,
    "cut":1,
    "throats":1,
    "bpc":1,
    "luciani":1,
    "biar":1,
    "revolver":1,
    "775":1,
    "soldier":1,
    "wounded":1,
    "leg":1,
    "groin":1,
    "hospitalized":1,
    "335":1,
    "chopin":1,
    "opposite":1,
    "38":1,
    "private":1,
    "secondclass":1,
    "dare":1,
    "jackie":1,
    "12":1,
    "1931":1,
    "deceased":1,
    "assailant":1,
    "height":1,
    "seveneights":1,
    "inches":1,
    "light":1,
    "colored":1,
    "clothing":1,
    "probably":1,
    "escaped":1,
    "simca":1,
    "license":1,
    "plates":1,
    "4":1,
    "border":1,
    "talking":1,
    "pacification":1,
    "avenue":1,
    "ordinance":1,
    "stations":1,
    "exception":1,
    "further":1,
    "notice":1,
    "required":1,
    "external":1,
    "shifting":1,
    "uninterrupted":1,
    "sentinels":1,
    "equipped":1,
    "automatic":1,
    "governorgeneral":1,
    "decrees":1,
    "medicinal":1,
    "pharmaceutical":1,
    "products":1,
    "effective":1,
    "cures":1,
    "gunshot":1,
    "wounds":1,
    "present":1,
    "authorization":1,
    "states":1,
    "dozens":1,
    "originate":1,
    "speedy":1,
    "easy":1,
    "alleviate":1,
    "delay":1,
    "insecurity":1,
    "reigns":1,
    "permitted":1,
    "points":1,
    "blockade":1,
    "control":1,
    "transit":1,
    "exhibit":1,
    "submit":1,
    "eventual":1,
    "searches":1,
    "mad":1,
    "touching":1,
    "moving":1,
    "viva":1,
    "guilty":1,
    "married":1,
    "resident":1,
    "offices":1,
    "upper":1,
    "engineer":1,
    "amaud":1,
    "bernadetteyes":1,
    "thanks":1,
    "wives":1,
    "club":1,
    "idea":1,
    "person":1,
    "notre":1,
    "p\u00e8re":1,
    "dans":1,
    "ciel":1,
    "daddy":1,
    "mommy":1,
    "allowed":1,
    "hour":1,
    "impossible":1,
    "curfew":1,
    "begins":1,
    "short":1,
    "ride":1,
    "mine":1,
    "tonight":1,
    "park":1,
    "timing":1,
    "device":1,
    "match":1,
    "playing":1,
    "monsieur":1,
    "ch\u00eane":1,
    "fourteen":1,
    "monseigneur":1,
    "leynaud":1,
    "twentyone":1,
    "lhydre":1,
    "et":1,
    "bonnes":1,
    "id":1,
    "lucky":1,
    "sunday":1,
    "allah":1,
    "seat":1,
    "ice":1,
    "cream":1,
    "boy":1,
    "quarter":1,
    "gods":1,
    "sake":1,
    "rat":1,
    "lengthy":1,
    "debates":1,
    "raymond":1,
    "lefevre":1,
    "inspector":1,
    "presided":1,
    "decisions":1,
    "aim":1,
    "securing":1,
    "property":1,
    "particular":1,
    "recall":1,
    "antiguerrilla":1,
    "operations":1,
    "cabiro":1,
    "plateau":1,
    "assume":1,
    "maintenance":1,
    "achieve":1,
    "civil":1,
    "provided":1,
    "defense":1,
    "zone":1,
    "regiment":1,
    "\u00e0":1,
    "philippe":1,
    "rennes":1,
    "1906":1,
    "rank":1,
    "lieutenant":1,
    "schooling":1,
    "politechniquedegree":1,
    "engineering":1,
    "campaigns":1,
    "antinazi":1,
    "movement":1,
    "italian":1,
    "campaign":1,
    "indochinese":1,
    "average":1,
    "42":1,
    "per":1,
    "including":1,
    "aggression":1,
    "individuals":1,
    "explosions":1,
    "80000":1,
    "reality":1,
    "small":1,
    "dominates":1,
    "violence":1,
    "isolate":1,
    "draw":1,
    "position":1,
    "above":1,
    "below":1,
    "surface":1,
    "highly":1,
    "commendable":1,
    "original":1,
    "tactics":1,
    "anonymous":1,
    "unrecognizable":1,
    "mingles":1,
    "resemble":1,
    "everywhere":1,
    "film":1,
    "cameras":1,
    "exits":1,
    "usefulness":1,
    "inadequacy":1,
    "chose":1,
    "recent":1,
    "terroristic":1,
    "controlling":1,
    "likely":1,
    "note":1,
    "intuition":1,
    "cameraman":1,
    "realized":1,
    "box":1,
    "interest":1,
    "paused":1,
    "focus":1,
    "maybe":1,
    "bottom":1,
    "scratch":1,
    "concerns":1,
    "structure":1,
    "pyramidlike":1,
    "divided":1,
    "series":1,
    "sectors":1,
    "top":1,
    "executive":1,
    "body":1,
    "finds":1,
    "nominates":1,
    "chooses":1,
    "triangle":1,
    "geometry":1,
    "militant":1,
    "instructions":1,
    "consequently":1,
    "aspect":1,
    "secondary":1,
    "fond":1,
    "indicates":1,
    "perform":1,
    "investigations":1,
    "proceed":1,
    "vertex":1,
    "conducted":1,
    "rather":1,
    "false":1,
    "humanitarianism":1,
    "leads":1,
    "impotence":1,
    "units":1,
    "react":1,
    "accordingly":1,
    "depend":1,
    "solely":1,
    "sift":1,
    "through":1,
    "interrogate":1,
    "hindered":1,
    "conspiracy":1,
    "laws":1,
    "regulations":1,
    "operative":1,
    "holiday":1,
    "resort":1,
    "battleground":1,
    "requested":1,
    "carte":1,
    "blanche":1,
    "difficult":1,
    "legitimize":1,
    "create":1,
    "victory":1,
    "january":1,
    "28":1,
    "calling":1,
    "period":1,
    "forms":1,
    "suspended":1,
    "arisen":1,
    "watching":1,
    "decisive":1,
    "future":1,
    "freedom":1,
    "powers":1,
    "demonstrate":1,
    "represent":1,
    "response":1,
    "unanimous":1,
    "frequent":1,
    "lodgings":1,
    "poor":1,
    "store":1,
    "provisions":1,
    "food":1,
    "water":1,
    "trap":1,
    "widespread":1,
    "doubt":1,
    "homeless":1,
    "guests":1,
    "shelter":1,
    "reprisals":1,
    "accompany":1,
    "maison":1,
    "arbres":1,
    "sleeping":1,
    "filled":1,
    "heres":1,
    "hideout":1,
    "looks":1,
    "dirty":1,
    "perfect":1,
    "passing":1,
    "along":1,
    "terraces":1,
    "takes":1,
    "arrived":1,
    "works":1,
    "sit":1,
    "plank":1,
    "habit":1,
    "itll":1,
    "fail":1,
    "mean":1,
    "groping":1,
    "dark":1,
    "shop":1,
    "selfconfessed":1,
    "offensive":1,
    "favor":1,
    "mustnt":1,
    "revolutions":1,
    "act":1,
    "necessity":1,
    "count":1,
    "measure":1,
    "involves":1,
    "worth":1,
    "possibility":1,
    "evaluating":1,
    "harder":1,
    "winning":1,
    "hardest":1,
    "hardships":1,
    "tired":1,
    "forced":1,
    "truth":1,
    "headquarters":1,
    "starve":1,
    "condemn":1,
    "mes":1,
    "enfants":1,
    "learn":1,
    "called":1,
    "failure":1,
    "jobs":1,
    "massu":1,
    "guarantees":1,
    "safety":1,
    "fourth":1,
    "population":1,
    "deaf":1,
    "outskirts":1,
    "busy":1,
    "conference":1,
    "absolutely":1,
    "weighing":1,
    "eyes":1,
    "failed":1,
    "objective":1,
    "demonstration":1,
    "plausible":1,
    "argument":1,
    "far":1,
    "oneself":1,
    "inevitable":1,
    "stage":1,
    "open":1,
    "guerrilla":1,
    "warfare":1,
    "latter":1,
    "being":1,
    "determining":1,
    "factor":1,
    "dien":1,
    "bien":1,
    "phu":1,
    "indochina":1,
    "depends":1,
    "thinking":1,
    "drafting":1,
    "fighters":1,
    "write":1,
    "political":1,
    "paris":1,
    "yesterday":1,
    "kindly":1,
    "sartres":1,
    "side":1,
    "appealing":1,
    "mohamed":1,
    "disobey":1,
    "courageous":1,
    "telling":1,
    "dancing":1,
    "repeat":1,
    "west":1,
    "assignment":1,
    "uh":1,
    "sixth":1,
    "section":1,
    "none":1,
    "motions":1,
    "presented":1,
    "debate":1,
    "majority":1,
    "agreement":1,
    "resolution":1,
    "excludes":1,
    "direct":1,
    "limited":1,
    "expressing":1,
    "spirit":1,
    "cooperation":1,
    "democratic":1,
    "solution":1,
    "conforms":1,
    "principles":1,
    "charter":1,
    "directives":1,
    "cling":1,
    "fast":1,
    "ever":1,
    "worm":1,
    "grow":1,
    "infinity":1,
    "segments":1,
    "remains":1,
    "reproduces":1,
    "old":1,
    "shots":1,
    "closeups":1,
    "print":1,
    "copies":1,
    "distribute":1,
    "god":1,
    "purpose":1,
    "kasel":1,
    "maussa":1,
    "build":1,
    "split":1,
    "increase":1,
    "meantime":1,
    "sections":1,
    "demoralized":1,
    "manage":1,
    "worry":1,
    "reestablished":1,
    "movements":1,
    "womens":1,
    "handbags":1,
    "explosive":1,
    "drop":1,
    "napalm":1,
    "unarmed":1,
    "villages":1,
    "times":1,
    "victims":1,
    "airplanes":1,
    "bombers":1,
    "beat":1,
    "beating":1,
    "history":1,
    "practically":1,
    "someone":1,
    "apartment":1,
    "debussy":1,
    "selfdefeating":1,
    "residing":1,
    "minister":1,
    "gorlin":1,
    "stated":1,
    "larbi":1,
    "suicide":1,
    "hanging":1,
    "used":1,
    "attached":1,
    "bars":1,
    "specified":1,
    "intention":1,
    "expressed":1,
    "prisoner":1,
    "bound":1,
    "capable":1,
    "tearing":1,
    "making":1,
    "attaching":1,
    "bar":1,
    "hang":1,
    "ministers":1,
    "statements":1,
    "part":1,
    "admire":1,
    "intelligence":1,
    "unwavering":1,
    "idealism":1,
    "demonstrated":1,
    "reasons":1,
    "remembering":1,
    "danger":1,
    "represented":1,
    "hesitate":1,
    "pay":1,
    "homage":1,
    "memory":1,
    "lately":1,
    "results":1,
    "presupposes":1,
    "vice":1,
    "versa":1,
    "impression":1,
    "excessive":1,
    "prudence":1,
    "colleagues":1,
    "respond":1,
    "names":1,
    "answers":1,
    "appear":1,
    "valid":1,
    "directed":1,
    "enemies":1,
    "capture":1,
    "thus":1,
    "render":1,
    "furnished":1,
    "courts":1,
    "crime":1,
    "drags":1,
    "often":1,
    "inconvenient":1,
    "explode":1,
    "respect":1,
    "remember":1,
    "vicious":1,
    "circle":1,
    "discuss":1,
    "reaching":1,
    "conclusions":1,
    "lie":1,
    "despite":1,
    "varying":1,
    "agree":1,
    "began":1,
    "leftwing":1,
    "wanted":1,
    "suppressed":1,
    "madmen":1,
    "sadists":1,
    "fascists":1,
    "forget":1,
    "contribution":1,
    "nazis":1,
    "survivors":1,
    "dachau":1,
    "buchenwald":1,
    "soldiers":1,
    "duty":1,
    "win":1,
    "accept":1,
    "consequences":1,
    "gets":1,
    "weaker":1,
    "2nd":1,
    "fate":1,
    "rely":1,
    "denounce":1,
    "agitators":1,
    "cooperate":1,
    "reestablish":1,
    "peace":1,
    "fallen":1,
    "grave":1,
    "leaves":1,
    "offensives":1,
    "hearts":1,
    "breaking":1,
    "outrages":1,
    "houses":1,
    "invaded":1,
    "massacred":1,
    "heroes":1,
    "megaphone":1,
    "heads":1,
    "harmed":1,
    "speaking":1,
    "sight":1,
    "lower":1,
    "newspaper":1,
    "piece":1,
    "paper":1,
    "60":1,
    "59":1,
    "58":1,
    "57":1,
    "56":1,
    "55":1,
    "54":1,
    "53":1,
    "25":1,
    "23":1,
    "22":1,
    "21":1,
    "19":1,
    "black":1,
    "stairs":1,
    "care":1,
    "coming":1,
    "likes":1,
    "plastic":1,
    "ceiling":1,
    "stairway":1,
    "fuse":1,
    "rolled":1,
    "cover":1,
    "check":1,
    "rooms":1,
    "anybody":1,
    "disappointed":1,
    "photo":1,
    "desk":1,
    "dozen":1,
    "reports":1,
    "naturally":1,
    "illusion":1,
    "somewhat":1,
    "inclined":1,
    "performing":1,
    "actions":1,
    "alive":1,
    "proves":1,
    "evidently":1,
    "credited":1,
    "advantage":1,
    "greater":1,
    "satisfaction":1,
    "guessed":1,
    "correctly":1,
    "technical":1,
    "point":1,
    "view":1,
    "advantages":1,
    "beach":1,
    "biggest":1,
    "looked":1,
    "gone":1,
    "faster":1,
    "else":1,
    "her":1,
    "strong":1,
    "fireworks":1,
    "almost":1,
    "sound":1,
    "otherwise":1,
    "hed":1,
    "soso":1,
    "answered":1,
    "obvious":1,
    "blown":1,
    "till":1,
    "reaches":1,
    "gain":1,
    "stay":1,
    "door":1,
    "signal":1,
    "pierre":1,
    "longer":1,
    "forever":1,
    "heart":1,
    "relations":1,
    "shouldnt":1,
    "bah":1,
    "pretext":1,
    "unleashed":1,
    "telephoned":1,
    "leader":1,
    "exile":1,
    "etthouar":1,
    "partisans":1,
    "tenser":1,
    "spite":1,
    "pressure":1,
    "intolerant":1,
    "colonialist":1,
    "government":1,
    "strict":1,
    "arms":1,
    "except":1,
    "emergency":1,
    "situations":1,
    "afternoon":1,
    "casualties":1,
    "incoherent":1,
    "rhythmic":1,
    "nightmarish":1,
    "appeared":1,
    "green":1,
    "white":1,
    "half":1,
    "moon":1,
    "star":1,
    "sewn":1,
    "overnight":1,
    "strips":1,
    "sheets":1,
    "shirts":1,
    "ribbons":1,
    "rags":1,
    "infinite":1,
    "losses":1,
    "both":1,
    "sides":1,
    "july":1,
    "2":1,
    "1962":1,
    "nation":1,
    "wheres":2,
    "happening":2,
    "hey":2,
    "des":2,
    "trying":2,
    "idiot":2,
    "fire":2,
    "child":2,
    "girl":2,
    "listen":2,
    "air":2,
    "mind":2,
    "wall":2,
    "hundred":2,
    "goal":2,
    "action":2,
    "calls":2,
    "known":2,
    "march":2,
    "1":2,
    "occupation":2,
    "manual":2,
    "unemployed":2,
    "court":2,
    "prostitution":2,
    "habitual":2,
    "djezair":2,
    "live":2,
    "wrong":2,
    "read":2,
    "medjebri":2,
    "basket":2,
    "comes":2,
    "follow":2,
    "pistol":2,
    "spy":2,
    "test":2,
    "revolution":2,
    "shooting":2,
    "murder":2,
    "theirs":2,
    "double":2,
    "done":2,
    "shot":2,
    "werent":2,
    "thing":2,
    "refuge":2,
    "themselves":2,
    "either":2,
    "deal":2,
    "24":2,
    "administration":2,
    "most":2,
    "moral":2,
    "usage":2,
    "transgressors":2,
    "punished":2,
    "death":2,
    "wake":2,
    "looking":2,
    "entrance":2,
    "europeans":2,
    "criminal":2,
    "might":2,
    "brought":2,
    "ah":2,
    "paying":2,
    "warning":2,
    "nobody":2,
    "while":2,
    "lost":2,
    "requesting":2,
    "3":2,
    "patrol":2,
    "3rd":2,
    "weapon":2,
    "victim":2,
    "assailants":2,
    "20":2,
    "feet":2,
    "past":2,
    "guards":2,
    "between":2,
    "consular":2,
    "laquiere":2,
    "newspapers":2,
    "prepare":2,
    "maintain":2,
    "devices":2,
    "article":2,
    "committed":2,
    "citizens":2,
    "documents":2,
    "request":2,
    "women":2,
    "swim":2,
    "killed":2,
    "lardjane":2,
    "boualem":2,
    "worker":2,
    "children":2,
    "seven":2,
    "press":2,
    "archives":2,
    "corbiere":2,
    "please":2,
    "clothes":2,
    "wife":2,
    "bye":2,
    "dear":2,
    "ten":2,
    "friend":2,
    "sorry":2,
    "game":2,
    "everyone":2,
    "\u00e7a":2,
    "va":2,
    "package":2,
    "next":2,
    "shall":2,
    "protect":2,
    "leaving":2,
    "agenda":2,
    "forthcoming":2,
    "meeting":2,
    "public":2,
    "persons":2,
    "tenth":2,
    "division":2,
    "employed":2,
    "responsibility":2,
    "droite":2,
    "family":2,
    "resistance":2,
    "reached":2,
    "usual":2,
    "arabs":2,
    "minority":2,
    "terror":2,
    "shifts":2,
    "revolutionary":2,
    "martin":2,
    "hidden":2,
    "films":2,
    "useful":2,
    "demonstrating":2,
    "certain":2,
    "preceding":2,
    "among":2,
    "ridiculous":2,
    "bomb":2,
    "knows":2,
    "into":2,
    "pyramid":2,
    "man":2,
    "sector":2,
    "turn":2,
    "form":2,
    "choose":2,
    "each":2,
    "entire":2,
    "chosen":2,
    "adversaries":2,
    "practice":2,
    "becomes":2,
    "manner":2,
    "obtain":2,
    "however":2,
    "need":2,
    "intervention":2,
    "unless":2,
    "after":2,
    "hard":2,
    "placed":2,
    "monday":2,
    "duration":2,
    "attempts":2,
    "mobilize":2,
    "strikes":2,
    "nfl":2,
    "monde":2,
    "during":2,
    "provide":2,
    "beggars":2,
    "organized":2,
    "things":2,
    "families":2,
    "event":2,
    "mistake":2,
    "wise":2,
    "bit":2,
    "careful":2,
    "forward":2,
    "clear":2,
    "wars":2,
    "nor":2,
    "afterward":2,
    "real":2,
    "civilization":2,
    "schools":2,
    "hospitals":2,
    "love":2,
    "mother":2,
    "disobeying":2,
    "did":2,
    "promised":2,
    "belong":2,
    "jacques":2,
    "sweep":2,
    "continues":2,
    "total":2,
    "situation":2,
    "spoken":2,
    "seemed":2,
    "passes":2,
    "sartre":2,
    "less":2,
    "returned":2,
    "resist":2,
    "sail":2,
    "third":2,
    "itself":2,
    "sleep":2,
    "end":2,
    "ramel":2,
    "si":2,
    "mourad":2,
    "thousand":2,
    "touch":2,
    "anyone":2,
    "qrara":2,
    "normendine":2,
    "boussalem":2,
    "bel":2,
    "remaining":2,
    "futile":2,
    "kasem":2,
    "moussa":2,
    "continually":2,
    "replace":2,
    "reorganize":2,
    "exist":2,
    "soon":2,
    "cowardly":2,
    "baskets":2,
    "innocent":2,
    "cell":2,
    "shirt":2,
    "rope":2,
    "due":2,
    "although":2,
    "successes":2,
    "perhaps":2,
    "ask":2,
    "allusive":2,
    "silence":2,
    "law":2,
    "shades":2,
    "captured":2,
    "promise":2,
    "trust":2,
    "writing":2,
    "fathia":2,
    "die":2,
    "speak":2,
    "mahmoud":2,
    "truck":2,
    "seconds":2,
    "lausanne":2,
    "algerie":2,
    "musulmane":2,
    "benbella":2,
    "spoke":3,
    "really":3,
    "sadek":3,
    "stand":3,
    "put":3,
    "recognize":3,
    "start":3,
    "chance":3,
    "useless":3,
    "hear":3,
    "dead":3,
    "fair":3,
    "trial":3,
    "pieces":3,
    "misery":3,
    "colonial":3,
    "independence":3,
    "bloody":3,
    "discussion":3,
    "omar":3,
    "reformatory":3,
    "school":3,
    "el":3,
    "cries":3,
    "sent":3,
    "arab":3,
    "few":3,
    "together":3,
    "she":3,
    "shoot":3,
    "quickly":3,
    "giving":3,
    "eh":3,
    "bastard":3,
    "waiting":3,
    "explain":3,
    "escape":3,
    "address":3,
    "didnt":3,
    "convince":3,
    "eliminate":3,
    "great":3,
    "conditions":3,
    "therefore":3,
    "sale":3,
    "bonois":3,
    "quarters":3,
    "alleys":3,
    "off":3,
    "search":3,
    "around":3,
    "hiding":3,
    "carry":3,
    "ha":3,
    "youve":3,
    "whatever":3,
    "least":3,
    "hasnt":3,
    "attempt":3,
    "unknown":3,
    "moslem":3,
    "intersection":3,
    "minute":3,
    "prefecture":3,
    "until":3,
    "twentyfour":3,
    "decided":3,
    "thank":3,
    "pass":3,
    "late":3,
    "enter":3,
    "midnight":3,
    "chances":3,
    "miss":3,
    "theres":3,
    "saying":3,
    "yourself":3,
    "taken":3,
    "disposal":3,
    "means":3,
    "world":3,
    "adversary":3,
    "destroy":3,
    "down":3,
    "enemy":3,
    "thousands":3,
    "streets":3,
    "fact":3,
    "begin":3,
    "staff":3,
    "members":3,
    "himself":3,
    "exactly":3,
    "type":3,
    "answer":3,
    "mountains":3,
    "armed":3,
    "homes":3,
    "rats":3,
    "operation":3,
    "new":3,
    "opportunity":3,
    "neither":3,
    "won":3,
    "terrorism":3,
    "strength":3,
    "anyway":3,
    "forces":3,
    "close":3,
    "shops":3,
    "prosperity":3,
    "calm":3,
    "peaceful":3,
    "easier":3,
    "heard":3,
    "sometimes":3,
    "sid":3,
    "ahmed":3,
    "tapeworm":3,
    "head":3,
    "immediately":3,
    "accident":3,
    "asked":3,
    "questions":3,
    "force":3,
    "than":3,
    "gentlemen":3,
    "spokesman":3,
    "window":3,
    "torture":3,
    "precise":3,
    "rebellion":3,
    "satisfied":3,
    "hassiba":3,
    "little":4,
    "help":4,
    "under":4,
    "protection":4,
    "doing":4,
    "friends":4,
    "prison":4,
    "liberation":4,
    "thirty":4,
    "moment":4,
    "months":4,
    "everythings":4,
    "wait":4,
    "information":4,
    "hands":4,
    "support":4,
    "before":4,
    "safe":4,
    "places":4,
    "ourselves":4,
    "responsible":4,
    "own":4,
    "beginning":4,
    "following":4,
    "seem":4,
    "thought":4,
    "morning":4,
    "decide":4,
    "commissioner":4,
    "cant":4,
    "five":4,
    "outside":4,
    "assaults":4,
    "found":4,
    "result":4,
    "military":4,
    "hello":4,
    "matter":4,
    "may":4,
    "assembly":4,
    "united":4,
    "nations":4,
    "paratroopers":4,
    "commander":4,
    "european":4,
    "interrogation":4,
    "am":4,
    "success":4,
    "militants":4,
    "starting":4,
    "champagne":4,
    "rebel":4,
    "country":4,
    "army":4,
    "bombs":4,
    "district":4,
    "group":4,
    "same":4,
    "amin":4,
    "executed":4,
    "defeated":4,
    "said":4,
    "bring":4,
    "plant":4,
    "flags":4,
    "seems":5,
    "made":5,
    "talk":5,
    "true":5,
    "again":5,
    "got":5,
    "surrender":5,
    "weapons":5,
    "try":5,
    "blow":5,
    "much":5,
    "national":5,
    "years":5,
    "born":5,
    "written":5,
    "every":5,
    "pm":5,
    "policeman":5,
    "minutes":5,
    "excuse":5,
    "kill":5,
    "says":5,
    "arent":5,
    "very":5,
    "theyll":5,
    "hes":5,
    "ahead":5,
    "contacts":5,
    "told":5,
    "such":5,
    "important":5,
    "seen":5,
    "street":5,
    "theyre":5,
    "homicide":5,
    "four":5,
    "without":5,
    "hours":5,
    "days":5,
    "reason":5,
    "believe":5,
    "keep":5,
    "france":5,
    "th\u00e8bes":5,
    "henry":5,
    "night":5,
    "mr":5,
    "war":5,
    "method":5,
    "methods":5,
    "working":5,
    "terrorist":5,
    "obtained":5,
    "hope":5,
    "hurry":5,
    "lot":5,
    "return":5,
    "statement":5,
    "insurrection":5,
    "remain":5,
    "opinion":5,
    "eldjezair":5,
    "does":6,
    "youll":6,
    "wont":6,
    "able":6,
    "front":6,
    "leave":6,
    "wouldnt":6,
    "struggle":6,
    "something":6,
    "day":6,
    "about":6,
    "ill":6,
    "could":6,
    "find":6,
    "also":6,
    "today":6,
    "hacene":6,
    "le":6,
    "left":6,
    "never":6,
    "afraid":6,
    "weve":6,
    "say":6,
    "word":6,
    "given":6,
    "way":6,
    "just":6,
    "ive":6,
    "problem":6,
    "ones":6,
    "use":6,
    "terrorists":6,
    "sure":7,
    "over":7,
    "youre":7,
    "house":7,
    "havent":7,
    "other":7,
    "anything":7,
    "last":7,
    "organization":7,
    "enough":7,
    "long":7,
    "algerians":7,
    "eight":7,
    "men":7,
    "back":7,
    "move":7,
    "show":7,
    "yet":7,
    "these":7,
    "change":7,
    "possible":7,
    "tomorrow":7,
    "de":7,
    "second":7,
    "doesnt":7,
    "attention":7,
    "inside":8,
    "algerian":8,
    "thats":8,
    "tahia":8,
    "get":8,
    "orders":8,
    "isnt":8,
    "wants":8,
    "against":8,
    "those":8,
    "evening":8,
    "call":8,
    "question":8,
    "everything":8,
    "un":8,
    "mhidi":8,
    "la":9,
    "pointe":9,
    "three":9,
    "understand":9,
    "place":9,
    "free":9,
    "look":9,
    "ready":9,
    "alright":9,
    "order":9,
    "algeria":9,
    "police":9,
    "kader":9,
    "because":9,
    "always":9,
    "some":9,
    "stop":9,
    "another":9,
    "continue":9,
    "was":9,
    "necessary":9,
    "inhabitants":9,
    "cmon":10,
    "better":10,
    "nothing":10,
    "others":10,
    "which":10,
    "take":10,
    "would":10,
    "course":10,
    "many":10,
    "how":10,
    "already":10,
    "should":10,
    "more":10,
    "away":11,
    "okay":11,
    "when":11,
    "his":11,
    "city":11,
    "mathieu":11,
    "whats":12,
    "rue":12,
    "like":12,
    "make":12,
    "arrested":12,
    "still":12,
    "im":12,
    "ben":12,
    "let":13,
    "think":13,
    "going":13,
    "french":13,
    "two":13,
    "tell":13,
    "too":13,
    "give":14,
    "lets":14,
    "out":14,
    "name":14,
    "had":14,
    "my":14,
    "general":14,
    "work":14,
    "where":15,
    "well":15,
    "or":15,
    "even":15,
    "want":16,
    "time":16,
    "brothers":16,
    "algiers":16,
    "any":16,
    "number":16,
    "see":17,
    "first":17,
    "their":17,
    "colonel":18,
    "why":18,
    "come":18,
    "an":19,
    "as":19,
    "from":20,
    "people":20,
    "strike":20,
    "up":21,
    "right":21,
    "so":22,
    "sir":22,
    "can":24,
    "good":24,
    "only":24,
    "now":25,
    "were":25,
    "then":25,
    "dont":25,
    "if":25,
    "by":26,
    "must":26,
    "know":28,
    "he":28,
    "nlf":28,
    "what":29,
    "who":29,
    "them":30,
    "him":30,
    "here":30,
    "us":30,
    "yes":30,
    "ali":31,
    "at":31,
    "our":31,
    "there":31,
    "on":33,
    "been":34,
    "all":35,
    "casbah":35,
    "no":36,
    "with":36,
    "its":37,
    "me":37,
    "this":38,
    "will":38,
    "one":39,
    "your":40,
    "not":41,
    "go":43,
    "do":46,
    "but":46,
    "has":47,
    "they":49,
    "have":58,
    "be":60,
    "for":68,
    "are":69,
    "i":72,
    "we":78,
    "that":81,
    "it":82,
    "is":102,
    "in":115,
    "a":121,
    "and":145,
    "of":162,
    "you":214,
    "to":221,
    "":301,
    "the":428
}