{
    "loved":1,
    "father":1,
    "many":1,
    "useful":1,
    "resented":1,
    "then":1,
    "occurred":1,
    "perhaps":1,
    "fairer":1,
    "sex":1,
    "had":1,
    "conclusive":1,
    "proof":1,
    "heres":1,
    "ill":1,
    "give":1,
    "straight":1,
    "fill":1,
    "head":1,
    "stories":1,
    "fictitious":1,
    "characters":1,
    "santa":1,
    "claus":1,
    "easter":1,
    "bunny":1,
    "god":1,
    "thats":1,
    "art":1,
    "courting":1,
    "seducing":1,
    "em":1,
    "else":1,
    "nothing":1,
    "important":1,
    "reading":1,
    "writing":1,
    "toilet":1,
    "training":1,
    "maketh":1,
    "unmaketh":1,
    "man":1,
    "put":1,
    "morning":1,
    "sandpit":1,
    "take":1,
    "best":1,
    "finer":1,
    "threads":1,
    "inclined":1,
    "ladies":1,
    "will":1,
    "tear":1,
    "them":1,
    "off":1,
    "sense":1,
    "their":1,
    "logic":1,
    "none":1,
    "course":1,
    "way":1,
    "carry":1,
    "gotta":1,
    "conscious":1,
    "effort":1,
    "relaxed":1,
    "control":1,
    "situations":1,
    "little":1,
    "playful":1,
    "expression":1,
    "where":1,
    "suppressing":1,
    "mild":1,
    "amusement":1,
    "overdo":1,
    "dignified":1,
    "times":1,
    "damnit":1,
    "listening":1,
    "say":1,
    "really":1,
    "spending":1,
    "places":1,
    "so":1,
    "new":1,
    "preschool":1,
    "today":1,
    "higher":1,
    "socioeconomic":1,
    "suburb":1,
    "uh":1,
    "geek":1,
    "genes":1,
    "our":1,
    "family":1,
    "diversify":1,
    "avoid":1,
    "bitchy":1,
    "may":1,
    "pretty":1,
    "believe":1,
    "trouble":1,
    "definitely":1,
    "involved":1,
    "someone":1,
    "stay":1,
    "away":1,
    "morals":1,
    "bit":1,
    "slap":1,
    "tickle":1,
    "after":1,
    "midnight":1,
    "meat":1,
    "buddies":1,
    "kebab":1,
    "shop":1,
    "fidelity":1,
    "serious":1,
    "relationship":1,
    "mean":1,
    "fine":1,
    "shes":1,
    "popular":1,
    "goodlooking":1,
    "seems":1,
    "friendly":1,
    "barbie":1,
    "cmon":1,
    "just":1,
    "show":1,
    "youll":1,
    "plenty":1,
    "toyshop":1,
    "pick":1,
    "out":1,
    "fairy":1,
    "costume":1,
    "boy":1,
    "toughen":1,
    "image":1,
    "most":1,
    "girls":1,
    "attracted":1,
    "bad":1,
    "boys":1,
    "start":1,
    "some":1,
    "sort":1,
    "altercation":1,
    "understand":1,
    "top":1,
    "least":1,
    "attention":1,
    "known":1,
    "jerk":1,
    "rather":1,
    "fruitcake":1,
    "good":1,
    "news":1,
    "feign":1,
    "sincerity":1,
    "desperation":1,
    "forgiveness":1,
    "should":1,
    "able":1,
    "leave":1,
    "price":1,
    "tag":1,
    "how":1,
    "paid":1,
    "trying":1,
    "by":1,
    "mess":1,
    "incompetent":1,
    "government":1,
    "film":1,
    "funding":1,
    "bodies":1,
    "loves":1,
    "flowers":1,
    "thank":1,
    "problem":1,
    "idea":1,
    "very":1,
    "gesture":1,
    "lunch":1,
    "cafe":1,
    "corner":1,
    "join":1,
    "us":1,
    "friend":1,
    "looks":1,
    "double":1,
    "date":1,
    "perfect":1,
    "chance":1,
    "master":1,
    "seem":1,
    "each":1,
    "other":1,
    "certainly":1,
    "has":1,
    "birthday":1,
    "party":1,
    "come":1,
    "such":1,
    "before":1,
    "meant":1,
    "night":1,
    "his":1,
    "dad":1,
    "myself":1,
    "ive":1,
    "taught":2,
    "things":2,
    "didnt":2,
    "teach":2,
    "anything":2,
    "day":2,
    "much":2,
    "look":2,
    "mother":2,
    "son":2,
    "only":2,
    "need":2,
    "worry":2,
    "this":2,
    "life":2,
    "everything":2,
    "meeting":2,
    "more":2,
    "learn":2,
    "later":2,
    "clothes":2,
    "thinking":2,
    "spend":2,
    "youve":2,
    "got":2,
    "try":2,
    "make":2,
    "yourself":2,
    "an":2,
    "word":2,
    "person":2,
    "":2,
    "think":2,
    "she":2,
    "worth":2,
    "from":2,
    "might":2,
    "getting":2,
    "looking":2,
    "talk":2,
    "shot":2,
    "down":2,
    "wonder":2,
    "interest":2,
    "nice":2,
    "doing":2,
    "see":2,
    "opportunity":2,
    "apologise":2,
    "endear":2,
    "molly":2,
    "oh":2,
    "mike":2,
    "absolutely":2,
    "work":2,
    "coming":2,
    "soon":2,
    "he":3,
    "women":3,
    "was":3,
    "time":3,
    "do":3,
    "thing":3,
    "go":3,
    "want":3,
    "enough":3,
    "girl":3,
    "over":3,
    "yeah":3,
    "get":3,
    "french":3,
    "great":3,
    "better":3,
    "than":3,
    "we":3,
    "up":3,
    "sleepover":3,
    "my":4,
    "there":4,
    "when":4,
    "one":4,
    "your":4,
    "with":4,
    "or":4,
    "theres":4,
    "dont":4,
    "can":4,
    "on":4,
    "they":4,
    "too":4,
    "now":4,
    "no":4,
    "if":4,
    "would":4,
    "as":4,
    "me":5,
    "know":5,
    "not":5,
    "of":5,
    "have":5,
    "youre":5,
    "are":5,
    "right":5,
    "is":5,
    "but":6,
    "all":6,
    "it":6,
    "im":6,
    "going":6,
    "well":6,
    "at":7,
    "were":7,
    "its":7,
    "that":8,
    "what":8,
    "like":8,
    "be":8,
    "for":8,
    "her":8,
    "about":10,
    "i":11,
    "in":11,
    "and":18,
    "a":20,
    "you":30,
    "the":33,
    "to":39
}