{
    "hon":1,
    "mrs":1,
    "higgins":1,
    "kevin":1,
    "detention":1,
    "wax":1,
    "moron":1,
    "pancakes":1,
    "nope":1,
    "latin":1,
    "o":1,
    "capehart":1,
    "bayhs":1,
    "groundwork":1,
    "eating":1,
    "whatve":1,
    "pulaski":1,
    "buffalo":1,
    "touch":1,
    "hows":1,
    "favorite":1,
    "midterm":1,
    "elections":1,
    "rights":1,
    "initiative":1,
    "skybolt":1,
    "macmillans":1,
    "nassau":1,
    "brits":1,
    "polaris":1,
    "storyll":1,
    "aggravate":1,
    "tight":1,
    "pretending":1,
    "fix":1,
    "anglo":1,
    "british":1,
    "owes":1,
    "bright":1,
    "bundy":1,
    "downstairs":1,
    "worthless":1,
    "disloyal":1,
    "dalys":1,
    "circuit":1,
    "owe":1,
    "administration":1,
    "learn":1,
    "motherfucking":1,
    "whatre":1,
    "blessed":1,
    "st":1,
    "meek":1,
    "sight":1,
    "living":1,
    "nazi":1,
    "buzz":1,
    "rocket":1,
    "base":1,
    "u2s":1,
    "thousand":1,
    "threemegaton":1,
    "warhead":1,
    "heaven":1,
    "housemr":1,
    "hells":1,
    "georgi":1,
    "motivation":1,
    "complete":1,
    "snowjob":1,
    "votes":1,
    "caught":1,
    "jap":1,
    "carriers":1,
    "steaming":1,
    "lyndon":1,
    "mccones":1,
    "notified":1,
    "coast":1,
    "carters":1,
    "lundahl":1,
    "photographic":1,
    "interpretation":1,
    "disturbing":1,
    "photographs":1,
    "npic":1,
    "indicates":1,
    "conventional":1,
    "surfaceto":1,
    "mediumrange":1,
    "mrbms":1,
    "estimate":1,
    "system":1,
    "sandal":1,
    "ironbark":1,
    "3megaton":1,
    "1000":1,
    "32":1,
    "served":1,
    "3400":1,
    "undoubtedly":1,
    "personnel":1,
    "cities":1,
    "installations":1,
    "north":1,
    "event":1,
    "significant":1,
    "degrading":1,
    "massively":1,
    "destabilizing":1,
    "upsetting":1,
    "balance":1,
    "fourteen":1,
    "coverage":1,
    "suggests":1,
    "intend":1,
    "prudent":1,
    "intelligence":1,
    "inside":1,
    "backyard":1,
    "reactions":1,
    "assuming":1,
    "deep":1,
    "intends":1,
    "team":1,
    "satellite":1,
    "consequences":1,
    "contemplate":1,
    "wherever":1,
    "powerless":1,
    "aggressor":1,
    "aggressive":1,
    "falter":1,
    "unsure":1,
    "emboldened":1,
    "build":1,
    "crisis":1,
    "worked":1,
    "scenarios":1,
    "adopt":1,
    "rule":1,
    "intentions":1,
    "hitting":1,
    "damned":1,
    "cost":1,
    "thereve":1,
    "scattered":1,
    "staff":1,
    "warmed":1,
    "secure":1,
    "communications":1,
    "embassies":1,
    "cryptographer":1,
    "pressing":1,
    "soon":1,
    "ram":1,
    "agenda":1,
    "throats":1,
    "lock":1,
    "kick":1,
    "politicized":1,
    "necks":1,
    "department":1,
    "executive":1,
    "committee":1,
    "council":1,
    "ring":1,
    "ftroop":1,
    "keeping":1,
    "quiet":1,
    "therell":1,
    "panic":1,
    "ruin":1,
    "closely":1,
    "conference":1,
    "reconvene":1,
    "wards":1,
    "boston":1,
    "died":1,
    "democratic":1,
    "session":1,
    "tuesday":1,
    "ribicoff":1,
    "whose":1,
    "screw":1,
    "fat":1,
    "sit":1,
    "lap":1,
    "foggy":1,
    "bottom":1,
    "excited":1,
    "everybody":1,
    "route":1,
    "finished":1,
    "850":1,
    "homestead":1,
    "eglin":1,
    "opa":1,
    "locka":1,
    "macdill":1,
    "patrick":1,
    "pensacola":1,
    "tropical":1,
    "foliage":1,
    "highexplosive":1,
    "napalm":1,
    "loadouts":1,
    "sorties":1,
    "approaches":1,
    "expanded":1,
    "shortterm":1,
    "version":1,
    "316":1,
    "recommendation":1,
    "commence":1,
    "rightly":1,
    "dismissed":1,
    "negotiation":1,
    "goal":1,
    "negotiating":1,
    "complicating":1,
    "necessary":1,
    "task":1,
    "fought":1,
    "side":1,
    "predecessors":1,
    "struggle":1,
    "melodramatic":1,
    "observation":1,
    "conceivable":1,
    "sincerity":1,
    "lesson":1,
    "bitter":1,
    "tears":1,
    "sacrifice":1,
    "understands":1,
    "respects":1,
    "concur":1,
    "preceded":1,
    "necessity":1,
    "permits":1,
    "surgical":1,
    "larger":1,
    "certainly":1,
    "ought":1,
    "implement":1,
    "risks":1,
    "definitely":1,
    "decided":1,
    "withdraw":1,
    "12":1,
    "24":1,
    "overrun":1,
    "likely":1,
    "honor":1,
    "treaty":1,
    "defeating":1,
    "hopefully":1,
    "prevail":1,
    "reach":1,
    "mcnamarad":1,
    "fence":1,
    "obvious":1,
    "asshole":1,
    "drag":1,
    "architects":1,
    "responsible":1,
    "pray":1,
    "weakness":1,
    "almighty":1,
    "irish":1,
    "prevailing":1,
    "unacceptable":1,
    "experience":1,
    "subject":1,
    "accomplish":1,
    "conniving":1,
    "smells":1,
    "seeing":1,
    "burke":1,
    "dulles":1,
    "dotted":1,
    "somethingimmoral":1,
    "abandoning":1,
    "judgement":1,
    "resort":1,
    "phone":1,
    "whole":1,
    "everyones":1,
    "wondering":1,
    "tanks":1,
    "influence":1,
    "unfolds":1,
    "cheer":1,
    "neutralized":1,
    "entire":1,
    "corps":1,
    "occurring":1,
    "howll":1,
    "blasting":1,
    "stone":1,
    "age":1,
    "favorites":1,
    "naive":1,
    "argument":1,
    "ridiculous":1,
    "ethically":1,
    "particular":1,
    "villain":1,
    "tojo":1,
    "ordering":1,
    "inadequate":1,
    "sounds":1,
    "gamed":1,
    "drawbacks":1,
    "count":1,
    "irbms":1,
    "city":1,
    "army":1,
    "begun":1,
    "week":1,
    "eightday":1,
    "light":1,
    "armys":1,
    "truly":1,
    "enemy":1,
    "choosing":1,
    "responsibility":1,
    "stability":1,
    "dog":1,
    "digging":1,
    "yard":1,
    "rapidly":1,
    "closing":1,
    "window":1,
    "opportunity":1,
    "prevent":1,
    "becoming":1,
    "result":1,
    "reliable":1,
    "becomes":1,
    "motto":1,
    "chose":1,
    "profession":1,
    "forbid":1,
    "exchange":1,
    "pain":1,
    "soldiers":1,
    "pushed":1,
    "rounds":1,
    "brass":1,
    "hats":1,
    "cloud":1,
    "product":1,
    "dark":1,
    "test":1,
    "funny":1,
    "office":1,
    "shave":1,
    "bald":1,
    "asleep":1,
    "bus":1,
    "arrived":1,
    "discuss":1,
    "florida":1,
    "books":1,
    "friendly":1,
    "ussoviet":1,
    "misunderstanding":1,
    "position":1,
    "sentence":1,
    "dated":1,
    "september":1,
    "13th":1,
    "gravest":1,
    "misunderstand":1,
    "sent":1,
    "defensive":1,
    "lying":1,
    "airstrike":1,
    "saturday":1,
    "cancelled":1,
    "weekend":1,
    "rumors":1,
    "related":1,
    "rail":1,
    "disruptions":1,
    "south":1,
    "airborne":1,
    "divisions":1,
    "mississippi":1,
    "rats":1,
    "situations":1,
    "loop":1,
    "threatened":1,
    "remainder":1,
    "trip":1,
    "returning":1,
    "doctor":1,
    "deliberations":1,
    "strong":1,
    "showing":1,
    "umbrella":1,
    "legitimacy":1,
    "30":1,
    "containing":1,
    "prevents":1,
    "reaching":1,
    "retain":1,
    "stands":1,
    "leaves":1,
    "maneuver":1,
    "undertake":1,
    "coward":1,
    "guantanamo":1,
    "employ":1,
    "attribute":1,
    "raises":1,
    "networks":1,
    "final":1,
    "announce":1,
    "price":1,
    "appeaser":1,
    "bigger":1,
    "delaying":1,
    "escaping":1,
    "towns":1,
    "popular":1,
    "playboy":1,
    "felt":1,
    "presence":1,
    "sorely":1,
    "missed":1,
    "interests":1,
    "appearances":1,
    "throat":1,
    "talked":1,
    "frankel":1,
    "dryfoos":1,
    "publisher":1,
    "biggest":1,
    "different":1,
    "screaming":1,
    "plate":1,
    "saving":1,
    "degaulles":1,
    "cam":1,
    "percent":1,
    "seven":1,
    "wide":1,
    "offered":1,
    "unconditional":1,
    "joy":1,
    "elected":1,
    "representatives":1,
    "citizens":1,
    "promised":1,
    "maintained":1,
    "unmistakable":1,
    "established":1,
    "preparation":1,
    "imprisoned":1,
    "purpose":1,
    "proved":1,
    "constitution":1,
    "initial":1,
    "steps":1,
    "halt":1,
    "strict":1,
    "equipment":1,
    "shipment":1,
    "initiated":1,
    "bound":1,
    "contain":1,
    "cargoes":1,
    "continued":1,
    "increased":1,
    "further":1,
    "eventualities":1,
    "requiring":1,
    "rhetoric":1,
    "tracking":1,
    "26":1,
    "inbound":1,
    "changing":1,
    "innocent":1,
    "cargo":1,
    "carrier":1,
    "turns":1,
    "leverage":1,
    "russianspeakers":1,
    "transferred":1,
    "attempt":1,
    "approaching":1,
    "reduce":1,
    "speed":1,
    "search":1,
    "area":1,
    "port":1,
    "refusal":1,
    "bow":1,
    "ignores":1,
    "disable":1,
    "explicit":1,
    "developed":1,
    "development":1,
    "commencing":1,
    "runs":1,
    "firm":1,
    "develop":1,
    "packages":1,
    "bill":1,
    "navys":1,
    "vfp":1,
    "62":1,
    "efficiency":1,
    "ratings":1,
    "75":1,
    "millimeter":1,
    "screen":1,
    "anti":1,
    "aircraft":1,
    "battery":1,
    "opens":1,
    "watch":1,
    "hollywood":1,
    "epic":1,
    "thunderchiefs":1,
    "mcnamarall":1,
    "set":1,
    "shop":1,
    "flag":1,
    "plot":1,
    "eye":1,
    "boarders":1,
    "climbing":1,
    "shots":1,
    "bows":1,
    "fair":1,
    "castros":1,
    "flying":1,
    "deck":1,
    "bombs":1,
    "plain":1,
    "advisor":1,
    "setup":1,
    "redeem":1,
    "boxing":1,
    "knocked":1,
    "arranging":1,
    "throw":1,
    "easily":1,
    "interest":1,
    "triple":1,
    "check":1,
    "actually":1,
    "redundant":1,
    "advertised":1,
    "low":1,
    "commands":1,
    "starts":1,
    "legal":1,
    "mandate":1,
    "eyes":1,
    "speaker":1,
    "mccormack":1,
    "vice":1,
    "maam":1,
    "helping":1,
    "orson":1,
    "david":1,
    "leans":1,
    "decent":1,
    "movies":1,
    "fixed":1,
    "uhhh":1,
    "yup":1,
    "sirtelephone":1,
    "vfp62":1,
    "direct":1,
    "honey":1,
    "mechanical":1,
    "failures":1,
    "crashing":1,
    "mountains":1,
    "forced":1,
    "badly":1,
    "hot":1,
    "heavy":1,
    "protects":1,
    "known":1,
    "fuel":1,
    "assayed":1,
    "sucks":1,
    "aint":1,
    "performance":1,
    "babies":1,
    "brought":1,
    "lastsecond":1,
    "deployments":1,
    "spin":1,
    "bottle":1,
    "bearded":1,
    "buddy":1,
    "throttle":1,
    "threetwoone":1,
    "altitude":1,
    "affirmative":1,
    "checks":1,
    "alright":1,
    "lenny":1,
    "scrub":1,
    "affirm":1,
    "warm":1,
    "holy":1,
    "lights":1,
    "lookit":1,
    "daddy":1,
    "brung":1,
    "chief":1,
    "mustve":1,
    "migrating":1,
    "hundred":1,
    "many":1,
    "bird":1,
    "precise":1,
    "massive":1,
    "throughout":1,
    "officials":1,
    "confirming":1,
    "largest":1,
    "korea":1,
    "railways":1,
    "nationalized":1,
    "deployment":1,
    "transporting":1,
    "1st":1,
    "armored":1,
    "ft":1,
    "hood":1,
    "texas":1,
    "abstenation":1,
    "telephone":1,
    "film":1,
    "william":1,
    "b":1,
    "reporting":1,
    "son":1,
    "bb":1,
    "milk":1,
    "unconfirmed":1,
    "smallarms":1,
    "missions":1,
    "blame":1,
    "farmers":1,
    "accordance":1,
    "afternoons":1,
    "hereby":1,
    "effective":1,
    "thirteen":1,
    "militaries":1,
    "alliances":1,
    "highly":1,
    "attuned":1,
    "dispositions":1,
    "theoretical":1,
    "family":1,
    "reasons":1,
    "sacrificed":1,
    "fifty":1,
    "resists":1,
    "antiaircraft":1,
    "tv":1,
    "bedroom":1,
    "tomorrows":1,
    "evacuated":1,
    "rock":1,
    "children":1,
    "arrangements":1,
    "checked":1,
    "issued":1,
    "identity":1,
    "cards":1,
    "evacuation":1,
    "departure":1,
    "areas":1,
    "helicopter":1,
    "mount":1,
    "weather":1,
    "morale":1,
    "her":1,
    "intercom":1,
    "customers":1,
    "helm":1,
    "intercept":1,
    "submerged":1,
    "designation":1,
    "sierra":1,
    "6000":1,
    "yards":1,
    "bearing":1,
    "030":1,
    "protecting":1,
    "positioned":1,
    "insists":1,
    "duck":1,
    "damaging":1,
    "damaged":1,
    "inspected":1,
    "crews":1,
    "bodies":1,
    "executed":1,
    "allowing":1,
    "belay":1,
    "blinked":1,
    "tally":1,
    "nsa":1,
    "twenty":1,
    "observing":1,
    "changed":1,
    "unlikely":1,
    "monitoring":1,
    "transmissions":1,
    "radios":1,
    "erodes":1,
    "credibility":1,
    "agreed":1,
    "preserving":1,
    "save":1,
    "four":1,
    "suspect":1,
    "aboard":1,
    "freighter":1,
    "baby":1,
    "food":1,
    "maintain":1,
    "horsetrade":1,
    "closer":1,
    "teeth":1,
    "prove":1,
    "mccone":1,
    "mcnamaras":1,
    "pick":1,
    "subs":1,
    "boarding":1,
    "parties":1,
    "essex":1,
    "battle":1,
    "group":1,
    "escort":1,
    "thumb":1,
    "flashpoints":1,
    "stroke":1,
    "genius":1,
    "enormous":1,
    "leash":1,
    "blind":1,
    "birds":1,
    "bees":1,
    "doublebarrel":1,
    "dropped":1,
    "ball":1,
    "drop":1,
    "purview":1,
    "bissel":1,
    "smartest":1,
    "besides":1,
    "egomaniac":1,
    "prick":1,
    "reprieve":1,
    "announced":1,
    "zone":1,
    "cruise":1,
    "charges":1,
    "presidential":1,
    "pardon":1,
    "powers":1,
    "platter":1,
    "lemays":1,
    "suffering":1,
    "amnesia":1,
    "limited":1,
    "statutory":1,
    "commanderinchief":1,
    "1":1,
    "intent":1,
    "approve":1,
    "nitze":1,
    "gilpatric":1,
    "undersecretaries":1,
    "sweet":1,
    "purge":1,
    "bluff":1,
    "attempted":1,
    "heroic":1,
    "fifth":1,
    "considering":1,
    "variation":1,
    "stevensons":1,
    "lippmans":1,
    "furious":1,
    "bobbys":1,
    "leaked":1,
    "ape":1,
    "certain":1,
    "minds":1,
    "lack":1,
    "judas":1,
    "wasps":1,
    "bluebloods":1,
    "plays":1,
    "crap":1,
    "withdrawing":1,
    "sovietsll":1,
    "wed":1,
    "extortion":1,
    "clobbered":1,
    "operative":1,
    "somebodyd":1,
    "publicly":1,
    "forward":1,
    "piratical":1,
    "actions":1,
    "adlais":1,
    "convince":1,
    "game":1,
    "sore":1,
    "wouldve":1,
    "inning":1,
    "score":1,
    "howre":1,
    "international":1,
    "sticking":1,
    "stonewall":1,
    "cat":1,
    "jimmy":1,
    "purely":1,
    "romania":1,
    "solidarity":1,
    "revolution":1,
    "chairman":1,
    "join":1,
    "calamity":1,
    "peoples":1,
    "secret":1,
    "share":1,
    "mistaken":1,
    "facts":1,
    "falsity":1,
    "false":1,
    "created":1,
    "existence":1,
    "staffer":1,
    "ussr":1,
    "placing":1,
    "intermediate":1,
    "translation":1,
    "fashion":1,
    "prosecutor":1,
    "puts":1,
    "denied":1,
    "proving":1,
    "chile":1,
    "yield":1,
    "floor":1,
    "ladies":1,
    "might":1,
    "52":1,
    "ministrys":1,
    "blown":1,
    "bigtime":1,
    "yesterday":1,
    "nightfall":1,
    "plenty":1,
    "reacquired":1,
    "hail":1,
    "posted":1,
    "kidding":1,
    "load":1,
    "hailing":1,
    "refuses":1,
    "23rd":1,
    "goddamnit":1,
    "flares":1,
    "camped":1,
    "exhausted":1,
    "interfere":1,
    "allow":1,
    "distention":1,
    "near":1,
    "vocabulary":1,
    "communicating":1,
    "729":1,
    "uss":1,
    "boarded":1,
    "charter":1,
    "vessel":1,
    "marcula":1,
    "3hour":1,
    "signaled":1,
    "spokesmen":1,
    "encounter":1,
    "somethings":1,
    "lunch":1,
    "acts":1,
    "elaborated":1,
    "resident":1,
    "equivalent":1,
    "station":1,
    "ranking":1,
    "johns":1,
    "mine":1,
    "trademarks":1,
    "destabilize":1,
    "trap":1,
    "dangle":1,
    "settlement":1,
    "negotiations":1,
    "approach":1,
    "deniable":1,
    "introducing":1,
    "burned":1,
    "usual":1,
    "players":1,
    "formal":1,
    "channels":1,
    "brings":1,
    "honest":1,
    "broker":1,
    "whom":1,
    "speaks":1,
    "faction":1,
    "activities":1,
    "codicils":1,
    "pulitzer":1,
    "legitimate":1,
    "status":1,
    "communiques":1,
    "producing":1,
    "results":1,
    "stomping":1,
    "grounds":1,
    "legit":1,
    "speaking":1,
    "declared":1,
    "consul":1,
    "reality":1,
    "illustrious":1,
    "tour":1,
    "tours":1,
    "postings":1,
    "whos":1,
    "boss":1,
    "stalin":1,
    "career":1,
    "chronologies":1,
    "moves":1,
    "year":1,
    "administrator":1,
    "moscows":1,
    "engineer":1,
    "stationed":1,
    "outside":1,
    "42":1,
    "specialized":1,
    "tank":1,
    "traps":1,
    "thin":1,
    "usually":1,
    "court":1,
    "circumstantial":1,
    "trusted":1,
    "favorably":1,
    "lines":1,
    "discussed":1,
    "raised":1,
    "favorable":1,
    "reply":1,
    "returned":1,
    "reintroduce":1,
    "inspect":1,
    "observe":1,
    "redeployment":1,
    "essence":1,
    "meant":1,
    "business":1,
    "twoofuspullonthe":1,
    "knotofwar":1,
    "pages":1,
    "sentimental":1,
    "fluff":1,
    "noinvasion":1,
    "fomins":1,
    "genuine":1,
    "shows":1,
    "signs":1,
    "polished":1,
    "ministry":1,
    "emotionalism":1,
    "analysts":1,
    "considerable":1,
    "acceptance":1,
    "figured":1,
    "con":1,
    "communication":1,
    "confirmed":1,
    "won":1,
    "whereve":1,
    "breakfast":1,
    "excoms":1,
    "convene":1,
    "ploy":1,
    "stalling":1,
    "specialists":1,
    "supports":1,
    "replaced":1,
    "overnight":1,
    "necessarily":1,
    "aw":1,
    "suggest":1,
    "coopted":1,
    "pulling":1,
    "strings":1,
    "almost":1,
    "agreeing":1,
    "tantamount":1,
    "paying":1,
    "ransom":1,
    "pay":1,
    "sell":1,
    "geniuses":1,
    "explain":1,
    "disinformation":1,
    "designed":1,
    "honoring":1,
    "add":1,
    "meanwhile":1,
    "issuing":1,
    "commenced":1,
    "became":1,
    "deployed":1,
    "battlefield":1,
    "tactical":1,
    "nukes":1,
    "delegated":1,
    "local":1,
    "commanders":1,
    "troops":1,
    "standard":1,
    "doctrine":1,
    "eroded":1,
    "delay":1,
    "execute":1,
    "according":1,
    "thereafter":1,
    "desk":1,
    "finalize":1,
    "folders":1,
    "granted":1,
    "anybodys":1,
    "nows":1,
    "kenneth":1,
    "browbeating":1,
    "riding":1,
    "reneging":1,
    "nervous":1,
    "appreciate":1,
    "72000":1,
    "feet":1,
    "oxygen":1,
    "mix":1,
    "freeze":1,
    "contrail":1,
    "mostly":1,
    "crew":1,
    "grace":1,
    "sound":1,
    "requesting":1,
    "takeoff":1,
    "runway":1,
    "angels":1,
    "72":1,
    "roger":1,
    "plane":1,
    "represent":1,
    "definitive":1,
    "centralized":1,
    "structure":1,
    "accidental":1,
    "events":1,
    "past":1,
    "confirms":1,
    "worst":1,
    "fears":1,
    "positive":1,
    "react":1,
    "routine":1,
    "airsampling":1,
    "siberia":1,
    "penetrated":1,
    "airspace":1,
    "scrambled":1,
    "migs":1,
    "pursuit":1,
    "forgot":1,
    "always":1,
    "punitive":1,
    "safer":1,
    "sport":1,
    "kev":1,
    "everythings":1,
    "stretch":1,
    "bend":1,
    "break":1,
    "forever":1,
    "float":1,
    "article":1,
    "invited":1,
    "raising":1,
    "ace":1,
    "hole":1,
    "deuce":1,
    "socalled":1,
    "mention":1,
    "overestimated":1,
    "wire":1,
    "delivered":1,
    "earliest":1,
    "pissed":1,
    "depends":1,
    "power":1,
    "greater":1,
    "authors":1,
    "intended":1,
    "haggle":1,
    "throwing":1,
    "caring":1,
    "overall":1,
    "picture":1,
    "sane":1,
    "human":1,
    "pretend":1,
    "blinded":1,
    "sneaking":1,
    "noses":1,
    "round":1,
    "diplomacy":1,
    "linkage":1,
    "disavow":1,
    "knowledge":1,
    "transparent":1,
    "pressll":1,
    "expose":1,
    "overthrown":1,
    "appease":1,
    "regain":1,
    "whoever":1,
    "carries":1,
    "nail":1,
    "soft":1,
    "cornered":1,
    "dangerous":1,
    "preempt":1,
    "goodbye":1,
    "kiss":1,
    "joe":1,
    "grab":1,
    "coffee":1,
    "quick":1,
    "door":1,
    "rich":1,
    "rather":1,
    "brilliant":1,
    "dirty":1,
    "everybodys":1,
    "smell":1,
    "smoke":1,
    "wanted":1,
    "burning":1,
    "documents":1,
    "whistle":1,
    "luck":1,
    "aware":1,
    "vital":1,
    "countrymen":1,
    "nations":1,
    "accepting":1,
    "friday":1,
    "halts":1,
    "removes":1,
    "submits":1,
    "aid":1,
    "enterprise":1,
    "removed":1,
    "accommodation":1,
    "reached":1,
    "belief":1,
    "contrary":1,
    "error":1,
    "quid":1,
    "pro":1,
    "quo":1,
    "completed":1,
    "disclosure":1,
    "negate":1,
    "produce":1,
    "stringent":1,
    "denials":1,
    "represents":1,
    "comrade":1,
    "ears":1,
    "circles":1,
    "sees":1,
    "fit":1,
    "satisfy":1,
    "caveat":1,
    "form":1,
    "relay":1,
    "substance":1,
    "discussion":1,
    "superiors":1,
    "among":1,
    "assure":1,
    "strength":1,
    "motion":1,
    "debating":1,
    "leg":1,
    "rep":1,
    "adams":1,
    "die":1,
    "saw":1,
    "rises":1,
    "goodwill":1,
    "devil":1,
    "text":1,
    "27":1,
    "1962":1,
    "motives":1,
    "induced":1,
    "render":1,
    "assistance":1,
    "disappear":1,
    "appropriate":1,
    "measures":1,
    "discontinue":1,
    "gloating":1,
    "trophy":1,
    "waiting":1,
    "ride":1,
    "reassessment":1,
    "geopolitical":1,
    "hotspots":1,
    "clout":1,
    "east":1,
    "asia":1,
    "shouldnt":1,
    "lucky":1,
    "amazing":1,
    "feels":1,
    "win":1,
    "afternoon":2,
    "rusk":2,
    "robert":2,
    "attorney":2,
    "wise":2,
    "floyd":2,
    "stuff":2,
    "64":2,
    "bastard":2,
    "information":2,
    "kid":2,
    "heart":2,
    "attention":2,
    "weeks":2,
    "civil":2,
    "meeting":2,
    "instead":2,
    "relations":2,
    "macmillan":2,
    "mac":2,
    "loyalty":2,
    "mary":2,
    "election":2,
    "field":2,
    "45":2,
    "took":2,
    "pictures":2,
    "medium":2,
    "ballistic":2,
    "please":2,
    "principals":2,
    "assembling":2,
    "wheres":2,
    "indication":2,
    "sense":2,
    "midterms":2,
    "ninety":2,
    "live":2,
    "pearl":2,
    "harbor":2,
    "late":2,
    "west":2,
    "though":2,
    "division":2,
    "introduction":2,
    "deliver":2,
    "weapon":2,
    "identified":2,
    "launch":2,
    "retaliatory":2,
    "joint":2,
    "gmaic":2,
    "program":2,
    "kremlin":2,
    "level":2,
    "khurschev":2,
    "gone":2,
    "agreement":2,
    "terrible":2,
    "succeed":2,
    "munich":2,
    "appeasement":2,
    "confidence":2,
    "commitments":2,
    "allies":2,
    "push":2,
    "harder":2,
    "several":2,
    "lead":2,
    "various":2,
    "rid":2,
    "alternatives":2,
    "congress":2,
    "campaign":2,
    "fucked":2,
    "afford":2,
    "bunch":2,
    "together":2,
    "meetings":2,
    "impress":2,
    "movements":2,
    "george":2,
    "balls":2,
    "fighting":2,
    "dnc":2,
    "strategy":2,
    "connecticut":2,
    "secrecy":2,
    "oplan":2,
    "calls":2,
    "ground":2,
    "considered":2,
    "high":2,
    "month":2,
    "follow":2,
    "eight":2,
    "tie":2,
    "hand":2,
    "seem":2,
    "learned":2,
    "language":2,
    "recommend":2,
    "ultimatum":2,
    "dismantle":2,
    "defenses":2,
    "followon":2,
    "demand":2,
    "resist":2,
    "retaliate":2,
    "per":2,
    "cooler":2,
    "families":2,
    "expert":2,
    "sneak":2,
    "listening":2,
    "kept":2,
    "sometimes":2,
    "removing":2,
    "crazy":2,
    "40":2,
    "longer":2,
    "continental":2,
    "red":2,
    "mobilization":2,
    "cover":2,
    "prearranged":2,
    "begin":2,
    "itd":2,
    "safety":2,
    "deterrent":2,
    "justified":2,
    "less":2,
    "sac":2,
    "immediately":2,
    "alternative":2,
    "open":2,
    "choose":2,
    "hoping":2,
    "knew":2,
    "advantage":2,
    "none":2,
    "gromyko":2,
    "planning":2,
    "fall":2,
    "sorry":2,
    "exercises":2,
    "placed":2,
    "concerned":2,
    "split":2,
    "middle":2,
    "held":2,
    "beat":2,
    "everyonell":2,
    "chicago":2,
    "cancelling":2,
    "scared":2,
    "truth":2,
    "looked":2,
    "alert":2,
    "invading":2,
    "inflame":2,
    "assholes":2,
    "source":2,
    "led":2,
    "conclusion":2,
    "support":2,
    "organization":2,
    "technically":2,
    "underway":2,
    "800":2,
    "vessels":2,
    "turned":2,
    "counter":2,
    "inevitable":2,
    "channel":2,
    "u":2,
    "thant":2,
    "decision":2,
    "goddman":2,
    "youd":2,
    "eat":2,
    "problems":2,
    "blockades":2,
    "eh":2,
    "anymore":2,
    "reston":2,
    "story":2,
    "orville":2,
    "himself":2,
    "including":2,
    "oclock":2,
    "3":2,
    "spoken":2,
    "evening":2,
    "fellow":2,
    "closest":2,
    "surveillance":2,
    "island":2,
    "fact":2,
    "capability":2,
    "following":2,
    "prepare":2,
    "policy":2,
    "regard":2,
    "ugly":2,
    "escalate":2,
    "takes":2,
    "radio":2,
    "towed":2,
    "rudder":2,
    "photography":2,
    "readiness":2,
    "running":2,
    "ecker":2,
    "fightin":2,
    "photo":2,
    "sam":2,
    "site":2,
    "director":2,
    "taking":2,
    "cause":2,
    "starting":2,
    "cameras":2,
    "gonna":2,
    "tough":2,
    "chains":2,
    "command":2,
    "remind":2,
    "oas":2,
    "quarantines":2,
    "otherwise":2,
    "welles":2,
    "hack":2,
    "pass":2,
    "uh":2,
    "circumstances":2,
    "writing":2,
    "letters":2,
    "parents":2,
    "shoulda":2,
    "sitting":2,
    "camera":2,
    "assist":2,
    "elements":2,
    "personally":2,
    "gun":2,
    "patriotic":2,
    "heading":2,
    "summer":2,
    "book":2,
    "august":2,
    "both":2,
    "couldnt":2,
    "leaving":2,
    "myself":2,
    "shape":2,
    "zero":2,
    "freighters":2,
    "avoid":2,
    "itself":2,
    "whether":2,
    "theyd":2,
    "receiving":2,
    "eyeball":2,
    "crossed":2,
    "contraband":2,
    "signal":2,
    "eventually":2,
    "moving":2,
    "500":2,
    "needs":2,
    "provocation":2,
    "presidents":2,
    "sonofabitch":2,
    "received":2,
    "moved":2,
    "informed":2,
    "correct":2,
    "signalled":2,
    "escalation":2,
    "rescind":2,
    "column":2,
    "ideas":2,
    "balloon":2,
    "politically":2,
    "moral":2,
    "toughness":2,
    "mistakes":2,
    "club":2,
    "condemn":2,
    "mccloy":2,
    "point":2,
    "thinks":2,
    "thanks":2,
    "brink":2,
    "incontrovertible":2,
    "hands":2,
    "chair":2,
    "recognizes":2,
    "courtroom":2,
    "jobs":2,
    "approved":2,
    "signed":2,
    "october":2,
    "goddammitt":2,
    "paul":2,
    "jones":2,
    "express":2,
    "means":2,
    "attacking":2,
    "joseph":2,
    "cleared":2,
    "stories":2,
    "fbi":2,
    "lie":2,
    "politburo":2,
    "scali":2,
    "ignore":2,
    "news":2,
    "overflights":2,
    "feklisov":2,
    "aka":2,
    "embassy":2,
    "papa":2,
    "walter":2,
    "buddies":2,
    "dismantled":2,
    "conditions":2,
    "condition":2,
    "48":2,
    "deals":2,
    "feeling":2,
    "written":2,
    "finally":2,
    "winning":2,
    "mornings":2,
    "nights":2,
    "puppet":2,
    "theirs":2,
    "reasonable":2,
    "jupiters":2,
    "scheduled":2,
    "36":2,
    "confirmation":2,
    "frogs":2,
    "release":2,
    "pretty":2,
    "mess":2,
    "salvage":2,
    "g3132":2,
    "sams":2,
    "airstrikes":2,
    "dad":2,
    "happy":2,
    "acceptable":2,
    "accidents":2,
    "bone":2,
    "slide":2,
    "accept":2,
    "wishful":2,
    "construction":2,
    "private":2,
    "withdrawal":2,
    "relayed":2,
    "victory":2,
    "mark":3,
    "hi":3,
    "forget":3,
    "kids":3,
    "assistant":3,
    "america":3,
    "top":3,
    "werent":3,
    "likes":3,
    "busy":3,
    "piece":3,
    "schedule":3,
    "scotty":3,
    "print":3,
    "early":3,
    "politics":3,
    "goes":3,
    "used":3,
    "sunday":3,
    "appear":3,
    "ss4":3,
    "operator":3,
    "lost":3,
    "gives":3,
    "mean":3,
    "ted":3,
    "arthur":3,
    "heads":3,
    "u2":3,
    "series":3,
    "analysis":3,
    "surface":3,
    "official":3,
    "80":3,
    "americans":3,
    "destroy":3,
    "bomber":3,
    "bases":3,
    "consensus":3,
    "estimates":3,
    "crash":3,
    "lied":3,
    "intention":3,
    "nation":3,
    "pressure":3,
    "once":3,
    "consider":3,
    "decide":3,
    "nato":3,
    "somewhere":3,
    "bombing":3,
    "key":3,
    "stick":3,
    "surprise":3,
    "tonight":3,
    "bring":3,
    "front":3,
    "asked":3,
    "having":3,
    "agrees":3,
    "slow":3,
    "happen":3,
    "later":3,
    "leave":3,
    "removal":3,
    "fifteen":3,
    "years":3,
    "table":3,
    "preparations":3,
    "preparing":3,
    "track":3,
    "refuse":3,
    "fear":3,
    "scenario":3,
    "alone":3,
    "dealing":3,
    "others":3,
    "town":3,
    "bullshit":3,
    "cold":3,
    "yourself":3,
    "little":3,
    "history":3,
    "stupid":3,
    "bastards":3,
    "danger":3,
    "duty":3,
    "return":3,
    "strategic":3,
    "destroying":3,
    "killed":3,
    "alive":3,
    "questions":3,
    "read":3,
    "rest":3,
    "daly":3,
    "youll":3,
    "talks":3,
    "advice":3,
    "therefore":3,
    "20":3,
    "board":3,
    "already":3,
    "third":3,
    "asking":3,
    "guts":3,
    "handle":3,
    "dead":3,
    "seen":3,
    "came":3,
    "lean":3,
    "mistake":3,
    "life":3,
    "western":3,
    "directed":3,
    "taken":3,
    "kind":3,
    "found":3,
    "close":3,
    "continue":3,
    "possibility":3,
    "incident":3,
    "opinion":3,
    "effect":3,
    "character":3,
    "flights":3,
    "carrying":3,
    "simple":3,
    "special":3,
    "gd":3,
    "bruce":3,
    "oh":3,
    "name":3,
    "instructed":3,
    "sparrows":3,
    "hello":3,
    "shoot":3,
    "turn":3,
    "officers":3,
    "meet":3,
    "someone":3,
    "submarine":3,
    "pierce":3,
    "turning":3,
    "theyve":3,
    "speak":3,
    "heat":3,
    "2":3,
    "trial":3,
    "lippman":3,
    "friends":3,
    "trouble":3,
    "allowed":3,
    "representative":3,
    "foreign":3,
    "groznyy":3,
    "mission":3,
    "starshells":3,
    "alexander":3,
    "backchannel":3,
    "overture":3,
    "latest":3,
    "says":3,
    "draft":3,
    "obsolete":3,
    "beyond":3,
    "reject":3,
    "ruthless":3,
    "assurance":3,
    "sun":3,
    "father":4,
    "defense":4,
    "car":4,
    "mcnamara":4,
    "easy":4,
    "lose":4,
    "makes":4,
    "public":4,
    "excuse":4,
    "important":4,
    "far":4,
    "minute":4,
    "went":4,
    "feel":4,
    "bet":4,
    "sleep":4,
    "max":4,
    "cia":4,
    "boys":4,
    "followed":4,
    "buildup":4,
    "missile":4,
    "reports":4,
    "washington":4,
    "number":4,
    "however":4,
    "stress":4,
    "present":4,
    "happening":4,
    "dobrynin":4,
    "permit":4,
    "hemisphere":4,
    "trying":4,
    "whatever":4,
    "seems":4,
    "til":4,
    "act":4,
    "matter":4,
    "saying":4,
    "across":4,
    "figure":4,
    "anyway":4,
    "national":4,
    "excom":4,
    "charge":4,
    "pierre":4,
    "working":4,
    "party":4,
    "during":4,
    "flight":4,
    "achesons":4,
    "try":4,
    "due":4,
    "full":4,
    "castro":4,
    "short":4,
    "step":4,
    "within":4,
    "plans":4,
    "stevenson":4,
    "kennedys":4,
    "wasnt":4,
    "telling":4,
    "sign":4,
    "anybody":4,
    "god":4,
    "brother":4,
    "worse":4,
    "every":4,
    "carry":4,
    "exercise":4,
    "place":4,
    "shooting":4,
    "arent":4,
    "promise":4,
    "wouldnt":4,
    "mind":4,
    "probably":4,
    "shall":4,
    "statement":4,
    "done":4,
    "cancel":4,
    "damn":4,
    "between":4,
    "risk":4,
    "somebody":4,
    "respect":4,
    "reason":4,
    "called":4,
    "heard":4,
    "armed":4,
    "exactly":4,
    "anderson":4,
    "continuing":4,
    "lowlevel":4,
    "pentagon":4,
    "expect":4,
    "unanimous":4,
    "hasnt":4,
    "correctly":4,
    "fine":4,
    "comes":4,
    "hate":4,
    "guns":4,
    "afraid":4,
    "helen":4,
    "accident":4,
    "intentional":4,
    "stopped":4,
    "gave":4,
    "hope":4,
    "issue":4,
    "deny":4,
    "glad":4,
    "left":4,
    "exist":4,
    "instructions":4,
    "permission":4,
    "moscow":4,
    "terms":4,
    "hardline":4,
    "also":4,
    "part":4,
    "wants":5,
    "supposed":5,
    "state":5,
    "hear":5,
    "giving":5,
    "problem":5,
    "half":5,
    "pull":5,
    "bomb":5,
    "looks":5,
    "putting":5,
    "hold":5,
    "possible":5,
    "told":5,
    "realize":5,
    "weak":5,
    "southeast":5,
    "taylor":5,
    "question":5,
    "ten":5,
    "cut":5,
    "anything":5,
    "ago":5,
    "face":5,
    "themselves":5,
    "start":5,
    "diplomatic":5,
    "russians":5,
    "show":5,
    "ask":5,
    "least":5,
    "launched":5,
    "chance":5,
    "cannot":5,
    "lives":5,
    "letting":5,
    "everything":5,
    "bay":5,
    "pigs":5,
    "smart":5,
    "itll":5,
    "couple":5,
    "acheson":5,
    "gotta":5,
    "havent":5,
    "send":5,
    "great":5,
    "perhaps":5,
    "wait":5,
    "making":5,
    "play":5,
    "target":5,
    "remember":5,
    "anyone":5,
    "thought":5,
    "thank":5,
    "real":5,
    "care":5,
    "situation":5,
    "lemay":5,
    "threat":5,
    "offer":5,
    "peace":5,
    "ourselves":5,
    "am":5,
    "stand":5,
    "fucking":5,
    "navy":5,
    "ones":5,
    "invade":5,
    "proceed":5,
    "idea":5,
    "friend":5,
    "head":5,
    "gagarin":5,
    "kimovsk":5,
    "engagement":5,
    "understood":5,
    "highest":5,
    "protect":5,
    "pilots":5,
    "prepared":5,
    "put":5,
    "jupiter":5,
    "trust":5,
    "spy":5,
    "after":5,
    "kgb":5,
    "pledge":5,
    "message":5,
    "kennedy":6,
    "hour":6,
    "said":6,
    "doing":6,
    "looking":6,
    "range":6,
    "miles":6,
    "white":6,
    "where":6,
    "kill":6,
    "move":6,
    "better":6,
    "days":6,
    "ready":6,
    "sort":6,
    "moment":6,
    "security":6,
    "become":6,
    "berlin":6,
    "ours":6,
    "fast":6,
    "since":6,
    "worry":6,
    "ass":6,
    "each":6,
    "knows":6,
    "while":6,
    "help":6,
    "wish":6,
    "upon":6,
    "old":6,
    "happened":6,
    "talking":6,
    "big":6,
    "respond":6,
    "ambassador":6,
    "vote":6,
    "calling":6,
    "response":6,
    "guess":6,
    "defcon":6,
    "sites":6,
    "bad":6,
    "rules":6,
    "contact":6,
    "fired":6,
    "orders":6,
    "sub":6,
    "captain":6,
    "gotten":6,
    "john":6,
    "three":7,
    "new":7,
    "isnt":7,
    "job":7,
    "christ":7,
    "warning":7,
    "id":7,
    "coming":7,
    "lets":7,
    "five":7,
    "million":7,
    "another":7,
    "guarantee":7,
    "lot":7,
    "months":7,
    "choice":7,
    "jack":7,
    "un":7,
    "gets":7,
    "press":7,
    "room":7,
    "next":7,
    "along":7,
    "appears":7,
    "run":7,
    "enough":7,
    "ahead":7,
    "fire":7,
    "ever":7,
    "such":7,
    "made":7,
    "forces":7,
    "authority":7,
    "admiral":7,
    "ordered":7,
    "commander":7,
    "much":7,
    "stopping":7,
    "firing":7,
    "off":8,
    "listen":8,
    "shit":8,
    "house":8,
    "hell":8,
    "country":8,
    "away":8,
    "through":8,
    "most":8,
    "union":8,
    "around":8,
    "long":8,
    "until":8,
    "answer":8,
    "either":8,
    "khruschevs":8,
    "six":8,
    "planes":8,
    "option":8,
    "force":8,
    "why":8,
    "being":8,
    "offensive":8,
    "major":8,
    "really":8,
    "turkey":8,
    "zorin":8,
    "understand":8,
    "guy":8,
    "same":8,
    "fomin":8,
    "goddamn":9,
    "everyone":9,
    "youve":9,
    "clear":9,
    "work":9,
    "word":9,
    "thinking":9,
    "gentlemen":9,
    "bob":9,
    "minutes":9,
    "use":9,
    "agree":9,
    "getting":9,
    "solution":9,
    "able":9,
    "few":9,
    "happens":9,
    "without":9,
    "does":9,
    "maybe":9,
    "monday":9,
    "government":9,
    "dean":10,
    "wrong":10,
    "wont":10,
    "hey":10,
    "ken":10,
    "hit":10,
    "didnt":10,
    "night":10,
    "yet":10,
    "men":10,
    "options":10,
    "end":10,
    "people":10,
    "find":10,
    "last":10,
    "action":10,
    "very":10,
    "hard":10,
    "home":10,
    "evidence":10,
    "second":10,
    "inspection":10,
    "ive":10,
    "american":11,
    "look":11,
    "still":11,
    "strike":11,
    "stop":11,
    "remove":11,
    "thing":11,
    "best":11,
    "political":11,
    "shot":11,
    "own":11,
    "yeah":11,
    "coup":11,
    "today":12,
    "day":12,
    "else":12,
    "things":12,
    "jesus":12,
    "had":12,
    "adlai":12,
    "sure":12,
    "give":12,
    "other":12,
    "keep":12,
    "deal":12,
    "never":12,
    "control":12,
    "blockade":12,
    "trade":12,
    "okay":13,
    "order":13,
    "did":13,
    "two":13,
    "because":13,
    "against":13,
    "nothing":13,
    "invasion":13,
    "hours":13,
    "which":13,
    "nobody":13,
    "see":14,
    "before":14,
    "man":14,
    "take":14,
    "chiefs":14,
    "again":14,
    "even":14,
    "theyll":14,
    "attack":14,
    "strikes":14,
    "course":14,
    "ship":14,
    "talk":15,
    "secretary":15,
    "too":15,
    "odonnell":15,
    "should":15,
    "operational":15,
    "may":15,
    "must":15,
    "thats":15,
    "tomorrow":15,
    "line":15,
    "general":16,
    "bobby":16,
    "guys":16,
    "who":16,
    "air":16,
    "than":16,
    "ill":16,
    "military":16,
    "doesnt":16,
    "under":16,
    "into":17,
    "weapons":17,
    "when":17,
    "united":17,
    "his":18,
    "nuclear":18,
    "over":18,
    "believe":18,
    "first":18,
    "letter":18,
    "hes":19,
    "whats":19,
    "down":19,
    "yes":19,
    "cant":19,
    "say":19,
    "states":19,
    "quarantine":19,
    "come":20,
    "back":20,
    "could":20,
    "these":21,
    "more":21,
    "some":21,
    "tell":21,
    "em":21,
    "make":21,
    "something":22,
    "morning":22,
    "theres":22,
    "ships":22,
    "call":23,
    "only":24,
    "theyre":24,
    "world":24,
    "let":25,
    "way":25,
    "their":25,
    "kenny":26,
    "how":26,
    "soviets":27,
    "would":27,
    "those":27,
    "by":28,
    "good":29,
    "youre":29,
    "khruschev":29,
    "weve":30,
    "soviet":31,
    "go":31,
    "time":32,
    "like":32,
    "him":33,
    "now":33,
    "then":33,
    "any":33,
    "well":35,
    "has":35,
    "war":35,
    "my":36,
    "was":36,
    "sir":36,
    "think":38,
    "as":38,
    "or":38,
    "want":39,
    "he":39,
    "im":39,
    "been":39,
    "so":40,
    "here":41,
    "about":43,
    "your":44,
    "got":44,
    "right":45,
    "up":46,
    "cuba":46,
    "one":46,
    "just":47,
    "an":48,
    "from":48,
    "need":49,
    "them":50,
    "me":53,
    "know":56,
    "":56,
    "dont":59,
    "no":59,
    "can":59,
    "there":60,
    "at":61,
    "but":62,
    "get":63,
    "out":63,
    "all":64,
    "with":68,
    "mr":69,
    "its":69,
    "us":70,
    "going":73,
    "will":74,
    "what":77,
    "missiles":77,
    "not":78,
    "president":79,
    "do":83,
    "were":87,
    "they":90,
    "if":94,
    "our":96,
    "for":97,
    "on":97,
    "are":102,
    "that":115,
    "be":121,
    "have":121,
    "this":124,
    "is":158,
    "in":171,
    "it":186,
    "i":191,
    "and":215,
    "of":237,
    "a":247,
    "we":260,
    "you":264,
    "to":488,
    "the":699
}