{
    "renting":1,
    "sizemore":1,
    "turnoff":1,
    "uses":1,
    "highway":1,
    "observes":1,
    "windowsill":1,
    "nobody\u2019s":1,
    "1986":1,
    "\u2018huggies\u2019":1,
    "quick":1,
    "29":1,
    "yearold":1,
    "faceadvertising":1,
    "concentrating":1,
    "strike":1,
    "gruntyou":1,
    "i\u2019mwegonna":1,
    "noise":1,
    "serve":1,
    "reached":1,
    "thosehas":1,
    "returned":1,
    "lightning":1,
    "ounce":1,
    "energy":1,
    "ofand":1,
    "heryafurious":1,
    "defamatory":1,
    "breathing":1,
    "and\u2018fuck\u2019":1,
    "squeak":1,
    "\u2018piss\u2019of":1,
    "ortennis":1,
    "\u2018cunt\u2019":1,
    "redand":1,
    "punches":1,
    "anus":1,
    "crashes":1,
    "sudden":1,
    "surge":1,
    "applause":1,
    "cheering":1,
    "focus":1,
    "relaxes":1,
    "huge":1,
    "smilei":1,
    "umpire":1,
    "that\u2019ll":1,
    "cover":1,
    "miss":1,
    "plonks":1,
    "cash":1,
    "throws":1,
    "racket":1,
    "air":1,
    "surrounded":1,
    "thousands":1,
    "fans":1,
    "applauding":1,
    "wildly":1,
    "oughta":1,
    "larry":1,
    "embraces":1,
    "index":1,
    "cards":1,
    "stunned":1,
    "title":1,
    "battle":1,
    "sexes":1,
    "draw":1,
    "ext":1,
    "rise":1,
    "betwixt":1,
    "rents":1,
    "faceless":1,
    "glassunder":1,
    "mebuilding":1,
    "traffic":1,
    "honking":1,
    "horns":1,
    "windows":1,
    "adds":1,
    "slam":1,
    "list":1,
    "titles":1,
    "player":1,
    "brings":1,
    "gently":1,
    "thespecial":1,
    "upright":1,
    "waddles":1,
    "fan":1,
    "happily":1,
    "flag":1,
    "flutters":1,
    "above":1,
    "enter":1,
    "shall":1,
    "que":1,
    "\u201chow":1,
    "answers":1,
    "sons":1,
    "bitches":1,
    "2nd":1,
    "pointed":1,
    "odd":1,
    "obscure":1,
    "disdain":1,
    "vicious":1,
    "edge":1,
    "emptying":1,
    "bucket":1,
    "ourself":1,
    "motherfucking":1,
    "dark":1,
    "sky":1,
    "asshole":1,
    "frame":1,
    "revealed":1,
    "wide":1,
    "pats":1,
    "cigarette":1,
    "there\u2019d":1,
    "legally":1,
    "punk":1,
    "propriety":1,
    "checked":1,
    "where\u2019d":1,
    "check":1,
    "genius":1,
    "called":1,
    "\u2018suck":1,
    "persons":1,
    "rented":1,
    "perhaps":1,
    "committed":1,
    "character":1,
    "fly":1,
    "handle":1,
    "stormed":1,
    "tortured":1,
    "custody":1,
    "evidence":1,
    "support":1,
    "hah":1,
    "dudes":1,
    "punch":1,
    "punching":1,
    "especially":1,
    "blacks":1,
    "anyways":1,
    "retards":1,
    "uhhuh":1,
    "nervous":1,
    "it\u2019ll":1,
    "fine":1,
    "camera":1,
    "obviously":1,
    "abducted":1,
    "murdered":1,
    "selfsame":1,
    "stretch":1,
    "whatcha":1,
    "appearance":1,
    "policemen":1,
    "honest":1,
    "body\u2019s":1,
    "lying":1,
    "feet":1,
    "eating":1,
    "krispy":1,
    "kremes":1,
    "busting":1,
    "yearolds":1,
    "skateboarding":1,
    "parking":1,
    "lots":1,
    "buck\u2019s":1,
    "clicks":1,
    "fella":1,
    "war":1,
    "arrested":1,
    "nationwide":1,
    "eyewitness":1,
    "age":1,
    "ever\u2019":1,
    "database":1,
    "male":1,
    "born":1,
    "crossreference":1,
    "soon":1,
    "hundred":1,
    "percent":1,
    "correct":1,
    "hill":1,
    "fair":1,
    "whining":1,
    "girl\u2019s":1,
    "butchered":1,
    "priorities":1,
    "everbody":1,
    "effective":1,
    "croak":1,
    "disbelief":1,
    "instigator":1,
    "affair":1,
    "instigate":1,
    "pots":1,
    "observant":1,
    "plays":1,
    "\u2018red":1,
    "welby\u2019":1,
    "communist":1,
    "proud":1,
    "misses":1,
    "leftfield":1,
    "surprise":1,
    "learn":1,
    "cuba\u2019s":1,
    "human":1,
    "deplorable":1,
    "homosexuality":1,
    "wyoming":1,
    "smartass":1,
    "pancreatic":1,
    "shaken":1,
    "quarters":1,
    "ladies":1,
    "quit":1,
    "yakking":1,
    "stupidass":1,
    "tole":1,
    "til":1,
    "twelve":1,
    "whacks":1,
    "brilliantly":1,
    "v":1,
    "pants":1,
    "priest":1,
    "teacups":1,
    "robbie\u2019s":1,
    "consummate":1,
    "host":1,
    "despite":1,
    "telling":1,
    "tricky":1,
    "team":1,
    "giving":1,
    "proceed":1,
    "aware":1,
    "depth":1,
    "feelings":1,
    "dozen":1,
    "everybody":1,
    "earlier":1,
    "los":1,
    "angeles":1,
    "80\u2019s":1,
    "combat":1,
    "rightly":1,
    "gist":1,
    "join":1,
    "gangs":1,
    "running":1,
    "block":1,
    "unbeknownst":1,
    "shoot":1,
    "stab":1,
    "may\u2019ve":1,
    "streetcorner":1,
    "minding":1,
    "joining":1,
    "type":1,
    "situation":1,
    "similar":1,
    "colors":1,
    "clubhouse":1,
    "upstairs":1,
    "pipe":1,
    "bible":1,
    "members":1,
    "altar":1,
    "altarboyfucking":1,
    "anykindaboyfucking":1,
    "forfeit":1,
    "finish":1,
    "tea":1,
    "teacup":1,
    "feeling":1,
    "major":1,
    "organ":1,
    "wrenches":1,
    "needle":1,
    "vial":1,
    "splatters":1,
    "waste":1,
    "waiting":1,
    "official":1,
    "complaints":1,
    "\u201ca":1,
    "eye\u201d":1,
    "christ":1,
    "lay":1,
    "kick":1,
    "teeth":1,
    "laying":1,
    "bored":1,
    "crouches":1,
    "runs":1,
    "soil":1,
    "filling":1,
    "feels":1,
    "instruments":1,
    "perfunctorily":1,
    "bemused":1,
    "guesses":1,
    "fiddles":1,
    "among":1,
    "drills":1,
    "pitched":1,
    "novocaine":1,
    "syringe":1,
    "injects":1,
    "gum":1,
    "painful":1,
    "angles":1,
    "length":1,
    "minutes":1,
    "lotta":1,
    "kindly":1,
    "bringing":1,
    "aiming":1,
    "flabby":1,
    "forceful":1,
    "whimper":1,
    "sweating":1,
    "determined":1,
    "whirs":1,
    "splitting":1,
    "continuing":1,
    "deeper":1,
    "flesh":1,
    "spins":1,
    "altogether":1,
    "pushes":1,
    "rinses":1,
    "pink":1,
    "visit":1,
    "dialogue":1,
    "unintelligible":1,
    "novocained":1,
    "\u2018no\u2019":1,
    "thumbnails":1,
    "\u201cof":1,
    "not\u201d":1,
    "press":1,
    "charges":1,
    "afraid":1,
    "niggertorturing":1,
    "\u2018persons":1,
    "color\u2019torturing":1,
    "torture":1,
    "\u2018personsofcolor":1,
    "torturing\u2019":1,
    "\u2018personsofcolor\u2019":1,
    "able":1,
    "pat":1,
    "papers":1,
    "racist":1,
    "leanings":1,
    "fags":1,
    "powerful":1,
    "comfortable":1,
    "wherever":1,
    "why\u2019d":1,
    "self":1,
    "mine":1,
    "rape":1,
    "instance":1,
    "winning":1,
    "wins":1,
    "cares":1,
    "tying":1,
    "gift":1,
    "shop":1,
    "penny":1,
    "dough":1,
    "sell":1,
    "exhusband\u2019s":1,
    "intern":1,
    "works":1,
    "smells":1,
    "zoo\u2019s":1,
    "smart":1,
    "exwifebeater":1,
    "difference":1,
    "let\u2019s":1,
    "sharp":1,
    "cough":1,
    "spurts":1,
    "spray":1,
    "wholly":1,
    "horrified":1,
    "shaking":1,
    "wipe":1,
    "handkerchief":1,
    "embarrassment":1,
    "rushes":1,
    "funnyeyed":1,
    "fuckers":1,
    "touching":1,
    "cool":1,
    "jeep":1,
    "townspeople":1,
    "rubbing":1,
    "storey":1,
    "closes":1,
    "blinds":1,
    "route":1,
    "\u201cthere":1,
    "ya\u201d":1,
    "might\u2019ve":1,
    "tried":1,
    "avoid":1,
    "bear":1,
    "informed":1,
    "twenty":1,
    "foot":1,
    "lettering":1,
    "font":1,
    "precise":1,
    "moments":1,
    "gave":1,
    "depressed":1,
    "drinks":1,
    "taxi":1,
    "pot":1,
    "hypocrite":1,
    "\u2018hypocrite\u2019":1,
    "drove":1,
    "subject":1,
    "once":1,
    "\u2018once\u2019":1,
    "beating":1,
    "sake":1,
    "there\u2019ll":1,
    "\u2018cunts\u2019":1,
    "mister":1,
    "both":1,
    "glare":1,
    "gag":1,
    "flashback":1,
    "coughing":1,
    "guessed":1,
    "departs":1,
    "echoing":1,
    "coat":1,
    "arguing":1,
    "echo":1,
    "sterile":1,
    "oops":1,
    "deadpan":1,
    "milk":1,
    "drip":1,
    "gravel":1,
    "gestures":1,
    "waves":1,
    "wave":1,
    "kid\u2019s":1,
    "rice":1,
    "krispies":1,
    "fuck\u2019s":1,
    "kept":1,
    "jobs":1,
    "awful":1,
    "chances":1,
    "guidebooks":1,
    "cost":1,
    "sniggers":1,
    "laughed":1,
    "invite":1,
    "knew":1,
    "overturns":1,
    "violently":1,
    "neck":1,
    "pins":1,
    "placed":1,
    "charlie\u2019s":1,
    "throat":1,
    "deadly":1,
    "serious":1,
    "needed":1,
    "bathroom":1,
    "hall":1,
    "intruding":1,
    "pee":1,
    "grow":1,
    "pair":1,
    "zoowise":1,
    "letting":1,
    "\u201clast":1,
    "out\u201d":1,
    "horserides":1,
    "working":1,
    "aren\u2019t":1,
    "animals":1,
    "pauses":1,
    "olds":1,
    "bitching":1,
    "fighting":1,
    "\u201cno":1,
    "loves":1,
    "you\u201d":1,
    "she\u2019d":1,
    "fruit":1,
    "loop":1,
    "season":1,
    "dies":1,
    "plus":1,
    "movie":1,
    "sex":1,
    "happening":1,
    "cooze":1,
    "reason":1,
    "tough":1,
    "boot":1,
    "audacity":1,
    "\u2018what\u2019":1,
    "shut":1,
    "member":1,
    "watson":1,
    "watson\u2019s":1,
    "clank":1,
    "possession":1,
    "cigarettes":1,
    "ones":1,
    "when\u2019s":1,
    "hearing":1,
    "account":1,
    "previous":1,
    "violations":1,
    "anywhere":1,
    "hardboiled":1,
    "attitude":1,
    "coaching":1,
    "rules":1,
    "twofold":1,
    "kid":1,
    "dolls":1,
    "teddy":1,
    "bears":1,
    "hooked":1,
    "stage":1,
    "rods":1,
    "sister\u2019s":1,
    "eyeballs":1,
    "troops":1,
    "leads":1,
    "uphill":1,
    "treeline":1,
    "yep":1,
    "arrests":1,
    "world\u2019s":1,
    "matter":1,
    "ooh":1,
    "reincarnation":1,
    "killed":1,
    "forever":1,
    "food":1,
    "doritos":1,
    "they\u2019d":1,
    "pointy":1,
    "fawn":1,
    "decides":1,
    "amble":1,
    "hazy":1,
    "sunset":1,
    "horizon":1,
    "drew":1,
    "made":1,
    "deposit":1,
    "point":1,
    "payments":1,
    "lawyer":1,
    "fuh":1,
    "friday":1,
    "lawyers":1,
    "men":1,
    "america":1,
    "knocks":1,
    "hi":1,
    "moment":1,
    "banknotes":1,
    "rental":1,
    "butted":1,
    "went":1,
    "uniform":1,
    "bicycle":1,
    "thumbs":1,
    "er":1,
    "\u201cthis":1,
    "fund":1,
    "hates":1,
    "pigs":1,
    "signed":1,
    "friend\u201d":1,
    "picky":1,
    "receipt":1,
    "price":1,
    "chardonnay":1,
    "chit":1,
    "ok":1,
    "tomorrow":1,
    "aww":1,
    "yay":1,
    "closed":1,
    "sleep":1,
    "kisses":1,
    "goodnight":1,
    "switches":1,
    "puke":1,
    "aquafresh":1,
    "learned":1,
    "resourceful":1,
    "horseshit":1,
    "stable":1,
    "lazy":1,
    "poppa":1,
    "\u201cyou":1,
    "shakespeare":1,
    "dummy":1,
    "towel":1,
    "\u201coscar":1,
    "wilde\u201d":1,
    "hood":1,
    "pinned":1,
    "\u201cdon\u2019t":1,
    "bag":1,
    "boys\u201d":1,
    "plain":1,
    "propped":1,
    "bare":1,
    "\u2018anne\u2019":1,
    "breaks":1,
    "following":1,
    "silent":1,
    "images":1,
    "56a":1,
    "dresser":1,
    "drawer":1,
    "writing":1,
    "importantly":1,
    "cannot":1,
    "\u201ci":1,
    "alone\u201d":1,
    "couch":1,
    "jokes":1,
    "senses":1,
    "bullet":1,
    "far":1,
    "small":1,
    "weighing":1,
    "waking":1,
    "seeing":1,
    "weakened":1,
    "body":1,
    "ebbs":1,
    "tend":1,
    "lasting":1,
    "riverside":1,
    "top":1,
    "fleeting":1,
    "darkness":1,
    "dwell":1,
    "kiss":1,
    "heaven":1,
    "knowing":1,
    "faint":1,
    "shakes":1,
    "cleans":1,
    "mirror":1,
    "breathes":1,
    "honor":1,
    "man\u2019s":1,
    "memory":1,
    "straps":1,
    "belt":1,
    "continuous":1,
    "disappears":1,
    "screams":1,
    "remaining":1,
    "till":1,
    "ended":1,
    "sickening":1,
    "thud":1,
    "pig":1,
    "breaking":1,
    "nose":1,
    "collapses":1,
    "issues":1,
    "welldressed":1,
    "coffee":1,
    "cop\u2019s":1,
    "carnage":1,
    "tracking":1,
    "overnight":1,
    "reacts":1,
    "punched":1,
    "grounds":1,
    "forrester":1,
    "cuts":1,
    "yellow":1,
    "cordon":1,
    "tape":1,
    "etc":1,
    "tragedy":1,
    "upon":1,
    "family":1,
    "belonging":1,
    "wife":1,
    "young":1,
    "daughters":1,
    "selfinflicted":1,
    "gunshot":1,
    "wound":1,
    "highlyrespected":1,
    "diligence":1,
    "community":1,
    "lasted":1,
    "25":1,
    "led":1,
    "speculate":1,
    "rumors":1,
    "illness":1,
    "pressure":1,
    "ran":1,
    "weeks":1,
    "flips":1,
    "remote":1,
    "honey":1,
    "crotch":1,
    "shudders":1,
    "tag":1,
    "reading\u201d":1,
    "hearing\u201d":1,
    "reading\u2019":1,
    "words":1,
    "ive":1,
    "sent":1,
    "night\u2019s":1,
    "event":1,
    "kidding":1,
    "prove":1,
    "ice":1,
    "strolls":1,
    "cracker":1,
    "racialist":1,
    "banged":1,
    "usual":1,
    "taught":1,
    "cluttered":1,
    "photo":1,
    "figurines":1,
    "comic":1,
    "\u2018mind":1,
    "snorts":1,
    "realises":1,
    "means":1,
    "sickened":1,
    "pockets":1,
    "waits":1,
    "seriously":1,
    "rises":1,
    "shuffles":1,
    "suspended":1,
    "radio":1,
    "rabbits":1,
    "writ":1,
    "shatter":1,
    "startling":1,
    "fucked":1,
    "naw":1,
    "would\u2019ve":1,
    "liked":1,
    "picture":1,
    "paper":1,
    "tinkles":1,
    "dressed":1,
    "saved":1,
    "owe":1,
    "through":1,
    "scaring":1,
    "scare":1,
    "easy":1,
    "worst":1,
    "surely":1,
    "ending":1,
    "proof":1,
    "policeman":1,
    "quantifiable":1,
    "rest":1,
    "kills":1,
    "rear":1,
    "rests":1,
    "broken":1,
    "split":1,
    "dusk":1,
    "dear":1,
    "firstly":1,
    "apologise":1,
    "catching":1,
    "killer":1,
    "source":1,
    "line":1,
    "barroom":1,
    "jailcell":1,
    "wrapped":1,
    "sheer":1,
    "stupidity":1,
    "admit":1,
    "chess":1,
    "absolutely":1,
    "everyone":1,
    "countermove":1,
    "decided":1,
    "defend":1,
    "nuther":1,
    "stuck":1,
    "joke":1,
    "pray":1,
    "sending":1,
    "moved":1,
    "south":1,
    "shouldn\u2019t\u2019ve":1,
    "laid":1,
    "compensation":1,
    "scheme":1,
    "throw":1,
    "shoulda":1,
    "beforehand":1,
    "google":1,
    "counting":1,
    "count":1,
    "held":1,
    "jacket":1,
    "dirty":1,
    "blow":1,
    "loudly":1,
    "71a":1,
    "sick":1,
    "stomach":1,
    "worse":1,
    "racing":1,
    "madwoman":1,
    "sprints":1,
    "halfway":1,
    "concentrates":1,
    "efforts":1,
    "post":1,
    "climbing":1,
    "control":1,
    "marching":1,
    "ma":1,
    "grab":1,
    "extinguisher":1,
    "paining":1,
    "terribly":1,
    "effort":1,
    "taken":1,
    "strides":1,
    "engulfed":1,
    "massive":1,
    "flame":1,
    "medic":1,
    "enemy":1,
    "yknow":1,
    "flexes":1,
    "toes":1,
    "incongruous":1,
    "image":1,
    "regard":1,
    "sad":1,
    "spectacle":1,
    "reporter":1,
    "whether":1,
    "strange":1,
    "saga":1,
    "eb":1,
    "retard":1,
    "\u201cgood":1,
    "wakeup":1,
    "broadcast\u201d":1,
    "openmouthed":1,
    "cameraman":1,
    "sign":1,
    "cut":1,
    "lit":1,
    "woulda":1,
    "technically":1,
    "arson":1,
    "employed":1,
    "damn":1,
    "rings":1,
    "residence":1,
    "sarge":1,
    "wrote":1,
    "haven\u2019t":1,
    "pick":1,
    "everyone\u2019s":1,
    "picking":1,
    "alive":1,
    "makings":1,
    "dipshit":1,
    "hopscotch":1,
    "wince":1,
    "winces":1,
    "detect":1,
    "sometimes":1,
    "noone\u2019ll":1,
    "gay":1,
    "homophobia":1,
    "surprised":1,
    "run":1,
    "normal":1,
    "boyfriend":1,
    "stages":1,
    "dates":1,
    "victim":1,
    "heavily":1,
    "sedated":1,
    "nurse":1,
    "hobbles":1,
    "half":1,
    "visible":1,
    "worry":1,
    "somewheres":1,
    "salt\u2019ll":1,
    "salt":1,
    "supposed":1,
    "liquid":1,
    "pouring":1,
    "shuffling":1,
    "steps":1,
    "catches":1,
    "limping":1,
    "carrying":1,
    "places":1,
    "follows":1,
    "drifts":1,
    "remains":1,
    "latch":1,
    "recognises":1,
    "screwed":1,
    "torn":1,
    "duplicates":1,
    "crack":1,
    "card":1,
    "ladder\u2019s":1,
    "steady":1,
    "mind":1,
    "ladders":1,
    "when\u2019d":1,
    "hour":1,
    "weren\u2019t":1,
    "filled":1,
    "finished":1,
    "cute":1,
    "mutual":1,
    "exchange":1,
    "\u2018hi\u2019":1,
    "holds":1,
    "part":1,
    "poster":1,
    "exhusband":1,
    "deal\u2019s":1,
    "partly":1,
    "reciprocates":1,
    "wild":1,
    "certifiably":1,
    "insane":1,
    "bout":1,
    "ten":1,
    "listening":1,
    "hatefully":1,
    "slugs":1,
    "conversation":1,
    "buddies":1,
    "crophaired":1,
    "gasoline":1,
    "kicked":1,
    "shuts":1,
    "burntfacejake":1,
    "walking":1,
    "beers":1,
    "glancing":1,
    "nudging":1,
    "reaches":1,
    "ear":1,
    "flinching":1,
    "slightly":1,
    "exchanging":1,
    "quickly":1,
    "rakes":1,
    "fingernails":1,
    "cheek":1,
    "lines":1,
    "pummelling":1,
    "horrifically":1,
    "reopening":1,
    "fight":1,
    "clutches":1,
    "fists":1,
    "chest":1,
    "protect":1,
    "stamping":1,
    "sickeningly":1,
    "stands":1,
    "approaches":1,
    "menacingly":1,
    "wearing":1,
    "scratched":1,
    "boys\u2019":1,
    "hanging":1,
    "james\u2019":1,
    "smiling":1,
    "known":1,
    "coulda":1,
    "doubledated":1,
    "shitgirl":1,
    "curfew":1,
    "weeknights":1,
    "circus":1,
    "juggle":1,
    "favor":1,
    "explaining":1,
    "water":1,
    "bridge":1,
    "excuse":1,
    "\u2018begets\u2019":1,
    "\u2018it":1,
    "anger\u2019":1,
    "sport":1,
    "compared":1,
    "aw":1,
    "arrived":1,
    "force":1,
    "sells":1,
    "cars":1,
    "drinking":1,
    "anybody":1,
    "eveningtimes":1,
    "stations":1,
    "ladder":1,
    "drained":1,
    "glances":1,
    "smirking":1,
    "halfempty":1,
    "low":1,
    "\u201canger":1,
    "anger\u201d":1,
    "claim":1,
    "bookmark":1,
    "118a":1,
    "speak":1,
    "jail":1,
    "sounded":1,
    "beat":1,
    "sooner":1,
    "rather":1,
    "\u201call":1,
    "english\u201d":1,
    "mexico":1,
    "matches":1,
    "nature":1,
    "angela\u2019s":1,
    "records":1,
    "entry":1,
    "exit":1,
    "states":1,
    "spoken":1,
    "clue":1,
    "sandy":1,
    "slides":1,
    "crumples":1,
    "patch":1,
    "breath":1,
    "least":1,
    "hoping":1,
    "129a":1,
    "129b":1,
    "license":1,
    "plate":1,
    "decide":1,
    "ma\u2019am":2,
    "may":2,
    "drinkwater":2,
    "charge":2,
    "beetle":2,
    "its":2,
    "itself":2,
    "rent":2,
    "king\u2019s":2,
    "screen":2,
    "flash":2,
    "deal":2,
    "law":2,
    "shoes":2,
    "jean\u2019s":2,
    "triumph":2,
    "here\u2019s":2,
    "game":2,
    "king":2,
    "jumps":2,
    "moves":2,
    "office":2,
    "moving":2,
    "many":2,
    "grand":2,
    "successful":2,
    "phone":2,
    "sets":2,
    "laughing":2,
    "name\u2019s":2,
    "easter":2,
    "sunday":2,
    "that\u2019d":2,
    "perfect":2,
    "willoughby\u201d":2,
    "latino":2,
    "getting":2,
    "straight":2,
    "gesture":2,
    "dunno":2,
    "spits":2,
    "environment":2,
    "standing":2,
    "staying":2,
    "falls":2,
    "problem":2,
    "passes":2,
    "stretching":2,
    "distance":2,
    "legal":2,
    "contravening":2,
    "business\u2019":2,
    "stare":2,
    "liberty":2,
    "divulge":2,
    "defamation":2,
    "simply":2,
    "question":2,
    "heart":2,
    "main":2,
    "arm":2,
    "shoves":2,
    "daughter":2,
    "local":2,
    "goin\u2019":2,
    "bothered":2,
    "solving":2,
    "actual":2,
    "concentrate":2,
    "stupid":2,
    "stopped":2,
    "six":2,
    "eight":2,
    "stop":2,
    "buck":2,
    "without":2,
    "found":2,
    "except":2,
    "pull":2,
    "civil":2,
    "prevents":2,
    "stick":2,
    "wrong":2,
    "definitely":2,
    "swing":2,
    "everything":2,
    "poor":2,
    "probably":2,
    "looky":2,
    "disliked":2,
    "snotty":2,
    "child":2,
    "unfortunate":2,
    "safety":2,
    "record":2,
    "quite":2,
    "thinks":2,
    "nowhere":2,
    "idles":2,
    "bunch":2,
    "must":2,
    "whatever":2,
    "also":2,
    "poll":2,
    "church":2,
    "you\u2019d":2,
    "noone\u2019s":2,
    "streetgangs":2,
    "remember":2,
    "act":2,
    "boys":2,
    "smoking":2,
    "downstairs":2,
    "joined":2,
    "narrow":2,
    "wall":2,
    "eye":2,
    "momma\u2019s":2,
    "told":2,
    "midgets":2,
    "shrugs":2,
    "ambles":2,
    "fingers":2,
    "appears":2,
    "haveta":2,
    "doc":2,
    "silence":2,
    "grabbed":2,
    "whirring":2,
    "close":2,
    "closer":2,
    "center":2,
    "screaming":2,
    "happen":2,
    "hereon":2,
    "totally":2,
    "bring":2,
    "breezes":2,
    "\u2018niggertorturing\u2019":2,
    "vaguely":2,
    "sit":2,
    "slipped":2,
    "cases":2,
    "chick":2,
    "losing":2,
    "loses":2,
    "hours":2,
    "tractortrailer":2,
    "shacked":2,
    "excop":2,
    "same":2,
    "paying":2,
    "short":2,
    "hits":2,
    "accident":2,
    "tries":2,
    "almost":2,
    "tears":2,
    "rolls":2,
    "die":2,
    "toy":2,
    "ankle":2,
    "floor":2,
    "birds":2,
    "dogs":2,
    "details":2,
    "it\u2019d":2,
    "reports":2,
    "driving":2,
    "cunt":2,
    "women":2,
    "storms":2,
    "slams":2,
    "doctor":2,
    "footsteps":2,
    "scared":2,
    "cereal":2,
    "smile":2,
    "hears":2,
    "pulling":2,
    "crazy":2,
    "selfexplanatory":2,
    "exactly":2,
    "public":2,
    "solved":2,
    "save":2,
    "explains":2,
    "smell":2,
    "backs":2,
    "knife":2,
    "use":2,
    "lowers":2,
    "balls":2,
    "toilet":2,
    "neither":2,
    "shitty":2,
    "couldn\u2019t":2,
    "donald":2,
    "sutherland":2,
    "glance":2,
    "taking":2,
    "allow":2,
    "marijuana":2,
    "bail":2,
    "prick":2,
    "stationhouse":2,
    "important":2,
    "counterproductive":2,
    "entire":2,
    "operation":2,
    "wine":2,
    "wonder":2,
    "empty":2,
    "she\u2019ll":2,
    "cries":2,
    "realised":2,
    "anxious":2,
    "delivery":2,
    "envelope":2,
    "hayes\u2019s":2,
    "company":2,
    "mommy":2,
    "migraine":2,
    "chat":2,
    "darling":2,
    "trick":2,
    "turn":2,
    "clean":2,
    "mr":2,
    "oscar":2,
    "wilde":2,
    "laughs":2,
    "telephone":2,
    "white":2,
    "longer":2,
    "covers":2,
    "loved":2,
    "angry":2,
    "please":2,
    "dumb":2,
    "facing":2,
    "harder":2,
    "barely":2,
    "girls":2,
    "deeply":2,
    "nightstick":2,
    "clubs":2,
    "calmly":2,
    "continue":2,
    "report":2,
    "polly":2,
    "jane":2,
    "brought":2,
    "service":2,
    "story":2,
    "kicks":2,
    "sir":2,
    "fucker":2,
    "throwing":2,
    "\u2018welcome":2,
    "missouri\u2019":2,
    "bucks":2,
    "friend":2,
    "bell":2,
    "seen":2,
    "glad":2,
    "they\u2019ve":2,
    "blaming":2,
    "opens":2,
    "ha":2,
    "fancy":2,
    "shitting":2,
    "spraying":2,
    "flames":2,
    "climbs":2,
    "raging":2,
    "ignores":2,
    "questions":2,
    "bunny":2,
    "slippers":2,
    "noses":2,
    "sniffing":2,
    "death":2,
    "keys":2,
    "nods":2,
    "because":2,
    "deep":2,
    "decent":2,
    "love":2,
    "turned":2,
    "corner":2,
    "girlfriend":2,
    "burn":2,
    "orange":2,
    "juice":2,
    "straw":2,
    "ceiling":2,
    "posters":2,
    "shows":2,
    "nine":2,
    "beer":2,
    "hot":2,
    "booth":2,
    "seat":2,
    "chair":2,
    "anger":2,
    "forced":2,
    "used":2,
    "polio":2,
    "hopes":2,
    "english":2,
    "live":2,
    "crimes":2,
    "commanding":2,
    "classified":2,
    "rapist":2,
    "lives":2,
    "idaho":2,
    "noone":3,
    "checks":3,
    "court":3,
    "speed":3,
    "putting":3,
    "returns":3,
    "assume":3,
    "until":3,
    "world":3,
    "thousand":3,
    "dollars":3,
    "husband":3,
    "third":3,
    "contract":3,
    "sadly":3,
    "hayes\u2019":3,
    "open":3,
    "mexican":3,
    "making":3,
    "advertising":3,
    "between":3,
    "bad":3,
    "yourself":3,
    "pulls":3,
    "stops":3,
    "front":3,
    "middle":3,
    "\u201craped":3,
    "dying\u201d":3,
    "late":3,
    "yet":3,
    "tosses":3,
    "ramifications":3,
    "cedric":3,
    "explain":3,
    "ass":3,
    "person":3,
    "information":3,
    "asking":3,
    "asked":3,
    "yous":3,
    "wouldn\u2019t":3,
    "grabs":3,
    "staring":3,
    "unless":3,
    "lost":3,
    "unfortunately":3,
    "seems":3,
    "busy":3,
    "folks":3,
    "daughter\u2019s":3,
    "somebody":3,
    "rights":3,
    "certain":3,
    "track":3,
    "else":3,
    "playing":3,
    "faggots":3,
    "cuba":3,
    "wow":3,
    "killing":3,
    "shouldn\u2019t":3,
    "ole":3,
    "saw":3,
    "looked":3,
    "wants":3,
    "montgomery":3,
    "school":3,
    "guys":3,
    "we\u2019ll":3,
    "william":3,
    "people\u2019s":3,
    "\u2018bout":3,
    "room":3,
    "thanks":3,
    "anyway":3,
    "waggling":3,
    "watch":3,
    "sitting":3,
    "holding":3,
    "mouth":3,
    "thumbnail":3,
    "nail":3,
    "bloody":3,
    "drilled":3,
    "geoffrey\u2019s":3,
    "course":3,
    "watches":3,
    "gimme":3,
    "rid":3,
    "uncomfortable":3,
    "dentists":3,
    "interested":3,
    "month\u2019s":3,
    "nineteen":3,
    "heads":3,
    "seconds":3,
    "thank":3,
    "read":3,
    "tonight":3,
    "coupla":3,
    "money":3,
    "daddy":3,
    "change":3,
    "drive":3,
    "quiet":3,
    "lot":3,
    "focussed":3,
    "inconvenient":3,
    "hold":3,
    "lets":3,
    "wish":3,
    "week":3,
    "move":3,
    "stay":3,
    "true":3,
    "fuckhead":3,
    "judge":3,
    "blanket":3,
    "fishing":3,
    "bottle":3,
    "god":3,
    "payment":3,
    "trust":3,
    "pam":3,
    "dropped":3,
    "full":3,
    "light":3,
    "cock":3,
    "play":3,
    "memories":3,
    "bravery":3,
    "pain":3,
    "final":3,
    "continues":3,
    "enters":3,
    "gabriella":3,
    "speeds":3,
    "\u201chard":3,
    "documentation":3,
    "academy":3,
    "fired":3,
    "shelf":3,
    "break":3,
    "bragging":3,
    "idea":3,
    "sakes":3,
    "started":3,
    "keeps":3,
    "fires":3,
    "detective":3,
    "calm":3,
    "spring":3,
    "bandages":3,
    "wounds":3,
    "bed":3,
    "bar":3,
    "pal":3,
    "date":3,
    "begets":3,
    "greater":3,
    "yes":4,
    "past":4,
    "jean":4,
    "days":4,
    "ball":4,
    "name":4,
    "inside":4,
    "set":4,
    "reads":4,
    "mother":4,
    "makes":4,
    "most":4,
    "woman":4,
    "very":4,
    "talk":4,
    "we\u2019ve":4,
    "girl":4,
    "none":4,
    "cold":4,
    "paid":4,
    "idiot":4,
    "suddenly":4,
    "nobody":4,
    "raped":4,
    "mean":4,
    "torturing":4,
    "news":4,
    "mildred\u2019s":4,
    "single":4,
    "our":4,
    "catch":4,
    "who\u2019s":4,
    "passing":4,
    "baby":4,
    "took":4,
    "cancer":4,
    "knows":4,
    "pool":4,
    "smashes":4,
    "jesus":4,
    "pause":4,
    "kitchen":4,
    "best":4,
    "crap":4,
    "yours":4,
    "hadn\u2019t":4,
    "new":4,
    "fellow":4,
    "gang":4,
    "cry":4,
    "job":4,
    "stuff":4,
    "exits":4,
    "hole":4,
    "myself":4,
    "how\u2019s":4,
    "feel":4,
    "jeez":4,
    "zoo":4,
    "scene":4,
    "enough":4,
    "such":4,
    "kids":4,
    "christ\u2019s":4,
    "dad":4,
    "where\u2019s":4,
    "disableds":4,
    "work":4,
    "gone":4,
    "fact":4,
    "bit":4,
    "note":4,
    "":4,
    "than":4,
    "missouri":4,
    "early":4,
    "years":4,
    "threw":4,
    "along":4,
    "gun":4,
    "holler":4,
    "rabbit":4,
    "luck":4,
    "scumbags":4,
    "pov":4,
    "burned":4,
    "become":4,
    "polo":4,
    "file":5,
    "ebbing":5,
    "five":5,
    "month":5,
    "match":5,
    "high":5,
    "onto":5,
    "couple":5,
    "hell\u2019s":5,
    "listen":5,
    "ground":5,
    "sighs":5,
    "slowly":5,
    "dinner":5,
    "calling":5,
    "kind":5,
    "buncha":5,
    "book":5,
    "o\u2019":5,
    "department":5,
    "crime":5,
    "already":5,
    "street":5,
    "minds":5,
    "burnt":5,
    "under":5,
    "gotta":5,
    "dna":5,
    "blood":5,
    "kill":5,
    "drives":5,
    "am":5,
    "willoughby\u2019s":5,
    "embarrassed":5,
    "having":5,
    "crips":5,
    "bloods":5,
    "night":5,
    "business":5,
    "culpable":5,
    "reading":5,
    "dentist":5,
    "you\u2019ll":5,
    "geoffrey":5,
    "pay":5,
    "hate":5,
    "around":5,
    "died":5,
    "later":5,
    "borrow":5,
    "drunk":5,
    "few":5,
    "leaving":5,
    "stand":5,
    "an\u2019":5,
    "crying":5,
    "end":5,
    "himself":5,
    "walks":5,
    "glass":5,
    "guy\u2019s":5,
    "try":5,
    "crucify":5,
    "billie":6,
    "hear":6,
    "sound":6,
    "finally":6,
    "distant":6,
    "find":6,
    "outta":6,
    "arrest":6,
    "wanted":6,
    "officer":6,
    "isn\u2019t":6,
    "people":6,
    "seven":6,
    "ago":6,
    "round":6,
    "their":6,
    "does":6,
    "ever":6,
    "done":6,
    "beside":6,
    "bitch":6,
    "dying":6,
    "midget":6,
    "takes":6,
    "old":6,
    "although":6,
    "today":6,
    "funny":6,
    "talking":6,
    "friends":6,
    "walk":6,
    "sees":6,
    "turns":6,
    "ask":6,
    "help":6,
    "um":6,
    "believe":6,
    "sergeant":6,
    "doesn\u2019t":6,
    "pamela":6,
    "letter":6,
    "motherfuckers":6,
    "fire":6,
    "wait":6,
    "road":7,
    "trying":7,
    "big":7,
    "heard":7,
    "hands":7,
    "behind":7,
    "before":7,
    "better":7,
    "start":7,
    "hell":7,
    "could":7,
    "being":7,
    "starts":7,
    "keep":7,
    "left":7,
    "after":7,
    "hair":7,
    "puts":7,
    "table":7,
    "saying":7,
    "father":7,
    "coming":7,
    "lady":7,
    "drill":7,
    "tell":7,
    "leaves":7,
    "happened":7,
    "nice":7,
    "would":7,
    "says":7,
    "since":8,
    "year":8,
    "hard":8,
    "every":8,
    "shot":8,
    "head":8,
    "each":8,
    "call":8,
    "place":8,
    "laws":8,
    "they\u2019re":8,
    "tv":8,
    "might":8,
    "watching":8,
    "boy":8,
    "country":8,
    "always":8,
    "great":8,
    "side":8,
    "own":8,
    "life":8,
    "we\u2019re":8,
    "won\u2019t":8,
    "picks":8,
    "outside":8,
    "eyes":8,
    "morning":8,
    "penelope":8,
    "horses":8,
    "across":9,
    "second":9,
    "make":9,
    "another":9,
    "cops":9,
    "long":9,
    "alone":9,
    "gives":9,
    "bill":9,
    "black":9,
    "dixon\u2019s":9,
    "dead":9,
    "house":9,
    "sits":9,
    "whole":9,
    "pretty":9,
    "thinking":9,
    "last":9,
    "i\u2019ve":9,
    "fat":9,
    "hope":9,
    "let":9,
    "badge":9,
    "three":10,
    "nothing":10,
    "much":10,
    "real":10,
    "only":10,
    "jerome":10,
    "denise":10,
    "towards":10,
    "anything":10,
    "i\u2019d":10,
    "cop":10,
    "even":10,
    "next":10,
    "came":10,
    "things":10,
    "maybe":10,
    "jason":10,
    "door":10,
    "will":10,
    "leave":10,
    "mom":10,
    "anne":10,
    "face":11,
    "us":11,
    "months":11,
    "town":11,
    "there\u2019s":11,
    "hand":11,
    "desk":12,
    "mrs":12,
    "you\u2019ve":12,
    "stares":12,
    "chief":12,
    "home":12,
    "wanna":12,
    "she\u2019s":12,
    "thought":12,
    "word":12,
    "smiles":12,
    "though":12,
    "care":12,
    "abercrombie":12,
    "put":13,
    "into":13,
    "what\u2019s":13,
    "police":13,
    "station":13,
    "away":13,
    "goddam":13,
    "thing":13,
    "momma":13,
    "shit":13,
    "were":13,
    "case":13,
    "looking":13,
    "give":13,
    "way":13,
    "had":14,
    "again":14,
    "window":14,
    "hey":14,
    "sorry":14,
    "uh":14,
    "doing":14,
    "want":14,
    "never":14,
    "too":14,
    "them":15,
    "where":15,
    "can\u2019t":15,
    "billboard":15,
    "while":15,
    "has":15,
    "against":15,
    "actually":15,
    "other":15,
    "wasn\u2019t":15,
    "okay":15,
    "day":15,
    "robbie":15,
    "red":16,
    "comes":16,
    "alright":16,
    "looks":16,
    "angela":16,
    "which":16,
    "take":16,
    "more":16,
    "thru":16,
    "need":16,
    "charlie":16,
    "any":17,
    "these":17,
    "see":17,
    "by":17,
    "sure":17,
    "gets":17,
    "james":17,
    "first":18,
    "guess":18,
    "car":18,
    "going":18,
    "he\u2019s":18,
    "said":19,
    "i\u2019ll":19,
    "huh":19,
    "two":19,
    "little":20,
    "that\u2019s":20,
    "an":20,
    "really":20,
    "y\u2019know":20,
    "cos":20,
    "welby":21,
    "kinda":21,
    "still":21,
    "goes":22,
    "time":22,
    "something":22,
    "look":22,
    "hayes":22,
    "been":23,
    "some":24,
    "fuck":24,
    "man":24,
    "come":26,
    "have":26,
    "those":27,
    "why":27,
    "one":27,
    "you\u2019re":28,
    "now":28,
    "over":28,
    "here":28,
    "from":29,
    "\u2018em":30,
    "off":30,
    "when":30,
    "how":32,
    "gonna":32,
    "who":32,
    "get":32,
    "right":34,
    "didn\u2019t":34,
    "go":34,
    "say":35,
    "we":36,
    "back":36,
    "ya":36,
    "good":36,
    "can":36,
    "did":36,
    "willoughby":36,
    "not":36,
    "then":37,
    "oh":37,
    "yeah":37,
    "like":37,
    "they":38,
    "think":39,
    "guy":39,
    "or":40,
    "billboards":41,
    "so":41,
    "there":42,
    "if":42,
    "my":45,
    "fucking":45,
    "him":46,
    "ain\u2019t":47,
    "down":49,
    "but":49,
    "all":50,
    "i\u2019m":51,
    "are":52,
    "with":53,
    "as":54,
    "it\u2019s":56,
    "well":58,
    "got":59,
    "be":60,
    "about":60,
    "just":65,
    "know":67,
    "her":67,
    "no":67,
    "dixon":68,
    "for":69,
    "this":69,
    "your":71,
    "she":71,
    "me":73,
    "out":75,
    "mildred":76,
    "do":77,
    "don\u2019t":78,
    "up":79,
    "is":80,
    "was":82,
    "at":84,
    "his":87,
    "he":94,
    "on":103,
    "that":108,
    "what":113,
    "in":149,
    "it":175,
    "of":178,
    "and":212,
    "a":249,
    "to":250,
    "i":296,
    "you":345,
    "the":497
}