{
    "stick":1,
    "anybody":1,
    "empty":1,
    "safe":1,
    "ooh":1,
    "peep":1,
    "heeeeelp":1,
    "baaaaa":1,
    "heeeelp":1,
    "somebody":1,
    "oneeyed":1,
    "doooooh":1,
    "quietly":1,
    "attack":1,
    "built":1,
    "eats":1,
    "dogs":1,
    "aaaar":1,
    "roarroarroar":1,
    "yipe":1,
    "yipeyipeyipe":1,
    "goin":1,
    "jail":1,
    "goodbye":1,
    "wife":1,
    "tatertots":1,
    "deputy":1,
    "wrangle":1,
    "cattle":1,
    "score":1,
    "lady":1,
    "waterhole":1,
    "heavy":1,
    "babysitting":1,
    "princess":1,
    "drool":1,
    "hamm":1,
    "picasso":1,
    "uncultured":1,
    "swine":1,
    "hockey":1,
    "puck":1,
    "sarge":1,
    "ease":1,
    "ohwell":1,
    "gather":1,
    "robot":1,
    "podium":1,
    "duty":1,
    "fastest":1,
    "knobs":1,
    "west":1,
    "doodle":1,
    "rooaaaarr":1,
    "doin":1,
    "honestly":1,
    "close":1,
    "fearsome":1,
    "feel":1,
    "annoying":1,
    "aach":1,
    "saving":1,
    "flock":1,
    "someone":1,
    "tonight":1,
    "hehoh":1,
    "remember":1,
    "blocks":1,
    "front":1,
    "ahem":1,
    "mike":1,
    "step":1,
    "check":1,
    "shelf":1,
    "item":1,
    "todayoh":1,
    "joke":1,
    "nextuhoh":1,
    "tuesday":1,
    "nights":1,
    "corrosion":1,
    "awareness":1,
    "success":1,
    "putting":1,
    "minor":1,
    "note":1,
    "birthdays":1,
    "losing":1,
    "marbles":1,
    "obviously":1,
    "since":1,
    "kindergarten":1,
    "darnit":1,
    "steered":1,
    "every":1,
    "gets":1,
    "rejection":1,
    "played":1,
    "matters":1,
    "sheepish":1,
    "pardon":1,
    "hate":1,
    "guests":1,
    "oclock":1,
    "adjourned":1,
    "yessir":1,
    "months":1,
    "garage":1,
    "sale":1,
    "fodder":1,
    "dinosaurshaped":1,
    "crying":1,
    "loud":1,
    "boxes":1,
    "bigger":1,
    "trashcan":1,
    "doomed":1,
    "troops":1,
    "promise":1,
    "using":1,
    "noodle":1,
    "sargent":1,
    "establish":1,
    "post":1,
    "downstairs":1,
    "heard":1,
    "charlie":1,
    "execute":1,
    "living":1,
    "chips":1,
    "ranch":1,
    "barbeque":1,
    "owww":1,
    "world":1,
    "professionals":1,
    "leaves":1,
    "alpha":1,
    "bravo":1,
    "alrightandys":1,
    "dream":1,
    "bows":1,
    "offhes":1,
    "ripping":1,
    "wrapping":1,
    "paperits":1,
    "aitsits":1,
    "lunch":1,
    "presentit":1,
    "appears":1,
    "beokay":1,
    "sheets":1,
    "invited":1,
    "oneits":1,
    "aits":1,
    "spudhead":1,
    "accomplished":1,
    "pack":1,
    "doubted":1,
    "oooh":1,
    "pulled":1,
    "surprise":1,
    "closet":1,
    "itsits":1,
    "puttin":1,
    "backwards":1,
    "plus":1,
    "positive":1,
    "upstairs":1,
    "juvenile":1,
    "intrusion":1,
    "resume":1,
    "positions":1,
    "places":1,
    "press":1,
    "karatechop":1,
    "games":1,
    "heck":1,
    "uhhhhnothing":1,
    "cake":1,
    "ice":1,
    "cream":1,
    "suppose":1,
    "sitting":1,
    "earlier":1,
    "polite":1,
    "read":1,
    "answer":1,
    "catches":1,
    "sight":1,
    "packaging":1,
    "designed":1,
    "blast":1,
    "thisll":1,
    "weeks":1,
    "stardate":1,
    "4072":1,
    "en":1,
    "route":1,
    "impact":1,
    "awoken":1,
    "hypersleep":1,
    "terrain":1,
    "unstable":1,
    "readout":1,
    "yet":1,
    "breathable":1,
    "sign":1,
    "intelligent":1,
    "anywhere":1,
    "hellooo":1,
    "hoyaaahh":1,
    "aaaaaaah":1,
    "frighten":1,
    "also":1,
    "mixup":1,
    "law":1,
    "enforcement":1,
    "turbo":1,
    "boosters":1,
    "people":1,
    "fossil":1,
    "fuels":1,
    "discovered":1,
    "crystalic":1,
    "fusion":1,
    "halt":1,
    "forms":1,
    "button":1,
    "pullstring":1,
    "sounds":1,
    "quality":1,
    "sound":1,
    "system":1,
    "probably":1,
    "copper":1,
    "wiring":1,
    "singapore":1,
    "hong":1,
    "kong":1,
    "wellno":1,
    "stationed":1,
    "gamma":1,
    "quadrant":1,
    "4":1,
    "member":1,
    "elite":1,
    "corps":1,
    "protect":1,
    "threat":1,
    "invasion":1,
    "sworn":1,
    "enemy":1,
    "galactic":1,
    "alliance":1,
    "playskool":1,
    "company":1,
    "purchased":1,
    "leveraged":1,
    "buyout":1,
    "financials":1,
    "theyve":1,
    "gadgets":1,
    "swiss":1,
    "army":1,
    "knife":1,
    "lightbulb":1,
    "blinks":1,
    "laserenvy":1,
    "impressed":1,
    "preschool":1,
    "gettin":1,
    "tense":1,
    "curious":1,
    "lasers":1,
    "impressive":1,
    "wingspan":1,
    "whatwhat":1,
    "terilliumcarbonic":1,
    "alloy":1,
    "closed":1,
    "lightbeer":1,
    "prove":1,
    "flew":1,
    "magnificently":1,
    "wasnt":1,
    "dolls":1,
    "golly":1,
    "bob":1,
    "ahhahhah":1,
    "stretchy":1,
    "accepted":1,
    "culture":1,
    "chief":1,
    "inscribed":1,
    "ink":1,
    "repairing":1,
    "attic":1,
    "unidirectional":1,
    "wants":1,
    "tape":1,
    "lightsnack":1,
    "mine":1,
    "nerves":1,
    "saying":1,
    "lodge":1,
    "complaint":1,
    "tough":1,
    "guy":1,
    "toxic":1,
    "dare":1,
    "spacemans":1,
    "eyeballs":1,
    "couldve":1,
    "sucked":1,
    "sockets":1,
    "act":1,
    "mocking":1,
    "alien":1,
    "yessss":1,
    "summer":1,
    "camp":1,
    "kicked":1,
    "early":1,
    "year":1,
    "incoming":1,
    "lenny":1,
    "bear":1,
    "noits":1,
    "combat":1,
    "corporal":1,
    "tired":1,
    "leg":1,
    "cramping":1,
    "concerns":1,
    "spacemen":1,
    "anyway":1,
    "explosive":1,
    "device":1,
    "hairy":1,
    "tortures":1,
    "fun":1,
    "lesson":1,
    "ahead":1,
    "melt":1,
    "scary":1,
    "nooooo":1,
    "caaaaaarl":1,
    "hit":1,
    "dirt":1,
    "history":1,
    "stopped":1,
    "try":1,
    "crater":1,
    "sooner":1,
    "packing":1,
    "makes":1,
    "dinner":1,
    "wash":1,
    "count":1,
    "dohhhh":1,
    "goodness":1,
    "helpless":1,
    "toyitsits":1,
    "trapped":1,
    "lose":1,
    "anything":1,
    "driveway":1,
    "bounced":1,
    "yard":1,
    "whirrrrwhirrrr":1,
    "rcs":1,
    "whirrrrrr":1,
    "sayin":1,
    "humpty":1,
    "dumpty":1,
    "meant":1,
    "backstabbin":1,
    "youyou":1,
    "confrontations":1,
    "honor":1,
    "dirtbag":1,
    "absolute":1,
    "disgrace":1,
    "deserve":1,
    "handle":1,
    "cuttin":1,
    "playtime":1,
    "might":1,
    "rid":1,
    "starts":1,
    "playin":1,
    "frag":1,
    "dibs":1,
    "boys":1,
    "tackle":1,
    "retreat":1,
    "havent":1,
    "heading":1,
    "grab":1,
    "short":1,
    "barrel":1,
    "formulating":1,
    "drive":1,
    "sixteen":1,
    "convince":1,
    "tried":1,
    "terminate":1,
    "revenge":1,
    "promote":1,
    "piece":1,
    "owwwww":1,
    "realize":1,
    "seem":1,
    "refueling":1,
    "station":1,
    "sort":1,
    "according":1,
    "navacomputer":1,
    "perfect":1,
    "shown":1,
    "cardboard":1,
    "taken":1,
    "important":1,
    "importance":1,
    "security":1,
    "jeopardy":1,
    "poised":1,
    "edge":1,
    "secretly":1,
    "weapon":1,
    "destructive":1,
    "capacity":1,
    "annihilate":1,
    "alone":1,
    "information":1,
    "reveals":1,
    "weapons":1,
    "weakness":1,
    "responsible":1,
    "delaying":1,
    "childs":1,
    "plaything":1,
    "sad":1,
    "pity":1,
    "farewell":1,
    "riddance":1,
    "looney":1,
    "dude":1,
    "talkin":1,
    "cutting":1,
    "blvd":1,
    "moment":1,
    "planetandy":1,
    "um":1,
    "pizzas":1,
    "cold":1,
    "spacefreighter":1,
    "return":1,
    "origin":1,
    "jettisons":1,
    "food":1,
    "supply":1,
    "uhhuh":1,
    "able":1,
    "transport":1,
    "youhome":1,
    "abroad":1,
    "restraining":1,
    "harnesses":1,
    "lefts":1,
    "directions":1,
    "bay":1,
    "scheduled":1,
    "tminus":1,
    "30":1,
    "eating":1,
    "entrance":1,
    "heavily":1,
    "guarded":1,
    "inside":1,
    "quickly":1,
    "airlock":1,
    "closing":1,
    "ow":1,
    "headed":1,
    "hyperactive":1,
    "astrouh":1,
    "turf":1,
    "jump":1,
    "basket":1,
    "dooh":1,
    "cannot":1,
    "happening":1,
    "ooooooo":1,
    "greetings":1,
    "outside":1,
    "intergalactic":1,
    "emergency":1,
    "commandeer":1,
    "vessel":1,
    "charge":1,
    "claaaaaaaaw":1,
    "ludicrous":1,
    "gotten":1,
    "decided":1,
    "gotcha":1,
    "wha":1,
    "zealots":1,
    "anger":1,
    "chosen":1,
    "andplay":1,
    "dwelling":1,
    "nirvana":1,
    "mystic":1,
    "portal":1,
    "awaits":1,
    "wont":1,
    "sit":1,
    "somethin":1,
    "freeze":1,
    "mail":1,
    "dunno":1,
    "whaddaya":1,
    "janie":1,
    "perform":1,
    "myoperations":1,
    "roomnot":1,
    "nurse":1,
    "prepare":1,
    "stat":1,
    "preeepped":1,
    "attempted":1,
    "bypass":1,
    "brain":1,
    "transplant":1,
    "tricky":1,
    "pliers":1,
    "mans":1,
    "medical":1,
    "school":1,
    "doctor":1,
    "janies":1,
    "true":1,
    "die":1,
    "locked":1,
    "uhbuzz":1,
    "bbbbuzz":1,
    "reinforcements":1,
    "copy":1,
    "stun":1,
    "kill":1,
    "attacks":1,
    "blink":1,
    "death":1,
    "whiskers":1,
    "interfering":1,
    "search":1,
    "waddahyaknow":1,
    "weasel":1,
    "guilty":1,
    "wouldve":1,
    "capable":1,
    "atrocities":1,
    "survivor":1,
    "base":1,
    "strong":1,
    "ways":1,
    "making":1,
    "poptarts":1,
    "proud":1,
    "lesser":1,
    "talked":1,
    "torture":1,
    "far":1,
    "spaceport":1,
    "free":1,
    "shield":1,
    "recharged":1,
    "hours":1,
    "savages":1,
    "dinners":1,
    "canceled":1,
    "stunt":1,
    "killed":1,
    "shhh":1,
    "yeeeeeeehaaaaaaa":1,
    "giddyup":1,
    "partner":1,
    "wagon":1,
    "train":1,
    "movin":1,
    "split":1,
    "earth":1,
    "superhero":1,
    "locking":1,
    "wrist":1,
    "communicator":1,
    "pulsating":1,
    "laserlight":1,
    "multiphrase":1,
    "voice":1,
    "simulator":1,
    "highpressurespacewings":1,
    "near":1,
    "available":1,
    "als":1,
    "barn":1,
    "outlets":1,
    "tricounty":1,
    "mooom":1,
    "dear":1,
    "oooof":1,
    "sooo":1,
    "interesting":1,
    "join":1,
    "late":1,
    "notice":1,
    "lovely":1,
    "ladies":1,
    "gooone":1,
    "byebye":1,
    "whoohoo":1,
    "happened":1,
    "defending":1,
    "suddenly":1,
    "suckin":1,
    "darjeeling":1,
    "marie":1,
    "antoinette":1,
    "sisters":1,
    "snap":1,
    "depressed":1,
    "sham":1,
    "apron":1,
    "color":1,
    "windowbuzz":1,
    "years":1,
    "academy":1,
    "trainingwasted":1,
    "b3":1,
    "miss":1,
    "g6":1,
    "ohhh":1,
    "sunk":1,
    "peeking":1,
    "whining":1,
    "pay":1,
    "nose":1,
    "bout":1,
    "son":1,
    "block":1,
    "psychos":1,
    "bedroom":1,
    "kidding":1,
    "story":1,
    "tie":1,
    "pills":1,
    "morning":1,
    "forgotten":1,
    "liar":1,
    "dead":1,
    "sec":1,
    "whered":1,
    "lyin":1,
    "fellas":1,
    "our":1,
    "bestfriends":1,
    "shake":1,
    "somethings":1,
    "screwy":1,
    "bet":1,
    "hug":1,
    "lights":1,
    "murdering":1,
    "swear":1,
    "jury":1,
    "pulls":1,
    "voicebox":1,
    "creep":1,
    "lives":1,
    "citizens":1,
    "shows":1,
    "sliiiinkyyy":1,
    "freaks":1,
    "monsters":1,
    "fixed":1,
    "uhsorry":1,
    "ii":1,
    "busy":1,
    "trash":1,
    "blame":1,
    "children":1,
    "manhey":1,
    "wimpy":1,
    "put":1,
    "orbit":1,
    "reporting":1,
    "delayed":1,
    "due":1,
    "adverse":1,
    "weather":1,
    "conditions":1,
    "site":1,
    "tomorrows":1,
    "forecast":1,
    "sunny":1,
    "sweet":1,
    "dreams":1,
    "everywhere":1,
    "tomorrow":1,
    "aaaaaah":1,
    "nervous":1,
    "travel":1,
    "stuck":1,
    "misses":1,
    "psst":1,
    "tool":1,
    "ibuzz":1,
    "difference":1,
    "fall":1,
    "insignificant":1,
    "lot":1,
    "thinks":1,
    "pal":1,
    "parts":1,
    "wings":1,
    "glow":1,
    "dark":1,
    "whoosh":1,
    "against":1,
    "boots":1,
    "forget":1,
    "while":1,
    "herenow":1,
    "wanna":1,
    "pony":1,
    "fineim":1,
    "aaah":1,
    "bits":1,
    "rules":1,
    "works":1,
    "constructed":1,
    "legs":1,
    "rollerbob":1,
    "till":1,
    "wind":1,
    "frog":1,
    "lean":1,
    "controlis":1,
    "launchpad":1,
    "construction":1,
    "complete":1,
    "secured":1,
    "guide":1,
    "wire":1,
    "currently":1,
    "obtaining":1,
    "theignition":1,
    "sticks":1,
    "countdown":1,
    "commence":1,
    "momentarily":1,
    "matches":1,
    "shhhhhhh":1,
    "everythings":1,
    "systems":1,
    "requesting":1,
    "cookout":1,
    "granted":1,
    "confirmed":1,
    "t":1,
    "10":1,
    "seconds":1,
    "ten":1,
    "nine":1,
    "eight":1,
    "seven":1,
    "six":1,
    "four":1,
    "town":1,
    "water":1,
    "callin":1,
    "buster":1,
    "smashed":1,
    "apart":1,
    "wwwwe":1,
    "aaaaaaagggggghhhhhh":1,
    "nnnice":1,
    "dolly":1,
    "fellahs":1,
    "ground":1,
    "stroke":1,
    "whew":1,
    "aaaaaahh":1,
    "nooooooo":1,
    "pig":1,
    "pile":1,
    "toss":1,
    "overboard":1,
    "whooooa":1,
    "riding":1,
    "rc":1,
    "truth":1,
    "guilt":1,
    "ext":1,
    "streetback":1,
    "rocky":1,
    "ramp":1,
    "tail":1,
    "running":1,
    "hang":1,
    "match":1,
    "nononono":1,
    "minutei":1,
    "lit":1,
    "rockets":1,
    "explo":1,
    "shoulda":1,
    "held":1,
    "fast":1,
    "cover":1,
    "ahhh":1,
    "ahhhhh":1,
    "missed":1,
    "aiming":1,
    "which":1,
    "myrrh":1,
    "heads":1,
    "showtime":1,
    "whoooooah":1,
    "less":1,
    "painful":1,
    "attention":1,
    "merry":1,
    "mistletoe":1,
    "mmhmmmmm":1,
    "maybe":1,
    "leafeater":1,
    "dominant":1,
    "predator":1,
    "mollys":1,
    "iiismrs":1,
    "idaho":1,
    "gee":1,
    "shave":1,
    "possibly":1,
    "worse":1,
    "puppy":1,
    "sky":2,
    "bart":2,
    "brought":2,
    "force":2,
    "field":2,
    "looks":2,
    "til":2,
    "party":2,
    "somebodys":2,
    "poisoned":2,
    "coast":2,
    "ages":2,
    "supposed":2,
    "slinky":2,
    "bad":2,
    "news":2,
    "shhhhh":2,
    "snake":2,
    "etch":2,
    "draw":2,
    "aw":2,
    "moved":2,
    "pad":2,
    "scared":2,
    "else":2,
    "couple":2,
    "smaller":2,
    "hello":2,
    "picked":2,
    "serious":2,
    "already":2,
    "hands":2,
    "week":2,
    "plastic":2,
    "uhoh":2,
    "she":2,
    "shouldnt":2,
    "says":2,
    "christmas":2,
    "through":2,
    "matter":2,
    "made":2,
    "send":2,
    "batteries":2,
    "eh":2,
    "recon":2,
    "plan":2,
    "kids":2,
    "hungry":2,
    "told":2,
    "pick":2,
    "taking":2,
    "best":2,
    "lying":2,
    "job":2,
    "soldier":2,
    "headmrs":2,
    "second":2,
    "boardgame":2,
    "battleship":2,
    "worry":2,
    "knew":2,
    "along":2,
    "huge":2,
    "package":2,
    "lizard":2,
    "minus":2,
    "negative":2,
    "alert":2,
    "hurry":2,
    "prizes":2,
    "whatever":2,
    "ripped":2,
    "repair":2,
    "log":2,
    "crash":2,
    "landed":2,
    "strange":2,
    "seems":2,
    "life":2,
    "name":2,
    "local":2,
    "protection":2,
    "unit":2,
    "use":2,
    "yourself":2,
    "shoot":2,
    "peace":2,
    "glad":2,
    "car":2,
    "ran":2,
    "evil":2,
    "emperor":2,
    "mattel":2,
    "understand":2,
    "youd":2,
    "careful":2,
    "searching":2,
    "fight":2,
    "eyes":2,
    "stand":2,
    "falling":2,
    "style":2,
    "teach":2,
    "days":2,
    "theyll":2,
    "finally":2,
    "ahhah":2,
    "though":2,
    "permanent":2,
    "hell":2,
    "always":2,
    "special":2,
    "bonding":2,
    "strip":2,
    "spaceman":2,
    "hard":2,
    "helmet":2,
    "their":2,
    "real":2,
    "carl":2,
    "youll":2,
    "id":2,
    "strapped":2,
    "fellah":2,
    "child":2,
    "extremely":2,
    "dangerous":2,
    "lighting":2,
    "bring":2,
    "trouble":2,
    "keep":2,
    "trying":2,
    "pushed":2,
    "knock":2,
    "murderer":2,
    "couldnt":2,
    "face":2,
    "fact":2,
    "chance":2,
    "explain":2,
    "psssst":2,
    "door":2,
    "monkeys":2,
    "whole":2,
    "pump":2,
    "gas":2,
    "funny":2,
    "andyll":2,
    "panic":2,
    "fault":2,
    "hadnt":2,
    "entire":2,
    "building":2,
    "rendezvous":2,
    "port":2,
    "once":2,
    "climb":2,
    "cargo":2,
    "area":2,
    "safer":2,
    "cockpit":2,
    "itll":2,
    "enter":2,
    "shuttle":2,
    "liftoff":2,
    "minutes":2,
    "counting":2,
    "white":2,
    "zone":2,
    "work":2,
    "black":2,
    "saw":2,
    "hyperdrive":2,
    "claw":2,
    "set":2,
    "sick":2,
    "patient":2,
    "telling":2,
    "part":2,
    "may":2,
    "anyone":2,
    "rebel":2,
    "aaaah":2,
    "karate":2,
    "chop":2,
    "hoocha":2,
    "worlds":2,
    "sally":2,
    "doll":2,
    "nevermind":2,
    "tea":2,
    "quite":2,
    "had":2,
    "genius":2,
    "hehheh":2,
    "quit":2,
    "fine":2,
    "hand":2,
    "disgusting":2,
    "came":2,
    "haha":2,
    "phillips":2,
    "make":2,
    "clearly":2,
    "ride":2,
    "blown":2,
    "few":2,
    "ducky":2,
    "signal":2,
    "roger":2,
    "busted":2,
    "care":2,
    "comin":2,
    "bye":2,
    "ahh":2,
    "whoawhoawhoa":2,
    "speed":2,
    "longer":2,
    "money":3,
    "old":3,
    "sheep":3,
    "run":3,
    "reach":3,
    "howd":3,
    "touch":3,
    "saved":3,
    "day":3,
    "whadda":3,
    "later":3,
    "pull":3,
    "string":3,
    "partys":3,
    "box":3,
    "working":3,
    "rex":3,
    "hear":3,
    "didnt":3,
    "behind":3,
    "spell":3,
    "course":3,
    "ones":3,
    "replaced":3,
    "doesnt":3,
    "needs":3,
    "break":3,
    "calm":3,
    "presents":3,
    "code":3,
    "men":3,
    "long":3,
    "without":3,
    "opening":3,
    "kid":3,
    "last":3,
    "done":3,
    "turn":3,
    "excited":3,
    "zurg":3,
    "under":3,
    "spot":3,
    "12":3,
    "bit":3,
    "air":3,
    "universe":3,
    "double":3,
    "goes":3,
    "rescue":3,
    "excuse":3,
    "shut":3,
    "cowboy":3,
    "blow":3,
    "scud":3,
    "love":3,
    "whirrr":3,
    "accident":3,
    "believe":3,
    "other":3,
    "yuk":3,
    "alive":3,
    "idea":3,
    "lost":3,
    "friend":3,
    "figure":3,
    "than":3,
    "thinking":3,
    "hole":3,
    "hahaha":3,
    "shes":3,
    "nooo":3,
    "ever":3,
    "cannibals":3,
    "van":3,
    "such":3,
    "hope":3,
    "eat":3,
    "quick":3,
    "greatest":3,
    "nesbit":3,
    "looked":3,
    "gimme":3,
    "five":3,
    "catch":3,
    "houston":3,
    "control":3,
    "permission":3,
    "frankincense":3,
    "bo":4,
    "dinosaur":4,
    "again":4,
    "favorite":4,
    "wow":4,
    "molly":4,
    "friends":4,
    "birthday":4,
    "looking":4,
    "sir":4,
    "staff":4,
    "happy":4,
    "wanted":4,
    "worried":4,
    "aint":4,
    "wrong":4,
    "kind":4,
    "talking":4,
    "stay":4,
    "those":4,
    "word":4,
    "save":4,
    "very":4,
    "repeat":4,
    "almost":4,
    "mother":4,
    "bird":4,
    "lunchbox":4,
    "bed":4,
    "em":4,
    "wheres":4,
    "ear":4,
    "outta":4,
    "does":4,
    "sector":4,
    "show":4,
    "woodys":4,
    "galaxy":4,
    "new":4,
    "found":4,
    "flying":4,
    "everything":4,
    "even":4,
    "isnt":4,
    "open":4,
    "uncharted":4,
    "ready":4,
    "sids":4,
    "window":4,
    "should":4,
    "honey":4,
    "two":4,
    "talk":4,
    "secret":4,
    "truck":4,
    "dog":5,
    "any":5,
    "today":5,
    "three":5,
    "some":5,
    "being":5,
    "off":5,
    "hi":5,
    "nothing":5,
    "watch":5,
    "thanks":5,
    "hold":5,
    "welcome":5,
    "ok":5,
    "enough":5,
    "never":5,
    "ah":5,
    "idiot":5,
    "whos":5,
    "these":5,
    "by":5,
    "them":5,
    "mrs":5,
    "really":5,
    "around":5,
    "mistake":5,
    "spaceship":5,
    "still":5,
    "actually":5,
    "more":5,
    "stupid":5,
    "play":5,
    "launch":5,
    "rocket":5,
    "leave":6,
    "howdy":6,
    "getting":6,
    "clear":6,
    "seen":6,
    "meeting":6,
    "buddy":6,
    "mr":6,
    "next":6,
    "her":6,
    "another":6,
    "listen":6,
    "much":6,
    "when":6,
    "nice":6,
    "thought":6,
    "sorry":6,
    "action":6,
    "too":6,
    "ship":6,
    "laser":6,
    "arent":6,
    "fly":6,
    "into":6,
    "place":6,
    "gone":6,
    "hannah":6,
    "or":7,
    "something":7,
    "cool":7,
    "minute":7,
    "everybody":7,
    "red":7,
    "youve":7,
    "as":7,
    "better":7,
    "first":7,
    "left":7,
    "thing":7,
    "room":7,
    "present":7,
    "home":7,
    "must":7,
    "because":7,
    "am":7,
    "infinity":7,
    "beyond":7,
    "hat":7,
    "pizza":7,
    "quiet":8,
    "slink":8,
    "coming":8,
    "only":8,
    "before":8,
    "they":8,
    "man":8,
    "mission":8,
    "let":8,
    "ranger":8,
    "gotta":8,
    "away":9,
    "whoa":9,
    "moving":9,
    "big":9,
    "weve":9,
    "boy":9,
    "doing":9,
    "give":9,
    "need":9,
    "could":9,
    "would":9,
    "house":9,
    "gonna":10,
    "who":10,
    "little":10,
    "ive":10,
    "his":10,
    "head":10,
    "take":10,
    "did":10,
    "huh":10,
    "star":10,
    "command":10,
    "why":10,
    "ill":10,
    "please":10,
    "stop":11,
    "been":11,
    "how":11,
    "heh":11,
    "has":11,
    "then":11,
    "about":11,
    "theres":11,
    "find":11,
    "planet":11,
    "help":11,
    "mean":12,
    "potato":12,
    "sheriff":12,
    "say":12,
    "great":12,
    "going":12,
    "thank":12,
    "tell":12,
    "theyre":12,
    "space":12,
    "an":12,
    "ha":12,
    "everyone":13,
    "move":13,
    "over":13,
    "sure":13,
    "yes":13,
    "andys":13,
    "whats":13,
    "will":13,
    "so":13,
    "time":14,
    "uh":14,
    "want":14,
    "toys":14,
    "us":15,
    "cmon":15,
    "if":15,
    "good":15,
    "ya":16,
    "at":16,
    "down":16,
    "alright":17,
    "think":17,
    "way":17,
    "mom":18,
    "he":18,
    "thats":18,
    "like":18,
    "from":19,
    "know":20,
    "lets":20,
    "look":20,
    "where":20,
    "but":20,
    "sid":20,
    "wait":21,
    "yeah":22,
    "okay":22,
    "guys":22,
    "andy":22,
    "right":23,
    "lightyear":23,
    "cant":25,
    "hes":25,
    "was":26,
    "with":26,
    "go":26,
    "were":26,
    "see":27,
    "one":27,
    "him":27,
    "toy":27,
    "got":28,
    "back":28,
    "well":29,
    "have":29,
    "be":32,
    "do":33,
    "youre":33,
    "can":33,
    "all":33,
    "your":36,
    "just":36,
    "out":36,
    "not":38,
    "come":38,
    "there":38,
    "up":39,
    "now":40,
    "for":41,
    "on":41,
    "dont":44,
    "my":45,
    "we":45,
    "here":48,
    "get":49,
    "im":49,
    "its":50,
    "this":51,
    "in":51,
    "me":52,
    "hey":54,
    "of":56,
    "are":60,
    "and":60,
    "woody":61,
    "that":63,
    "what":66,
    "oh":78,
    "it":79,
    "":79,
    "no":90,
    "is":91,
    "buzz":104,
    "to":120,
    "i":143,
    "a":146,
    "the":161,
    "you":237
}