{
    "taxpayers":1,
    "felony":1,
    "habit":1,
    "link":1,
    "raid":1,
    "haste":1,
    "army":1,
    "criminals":1,
    "allegiance":1,
    "questionable":1,
    "rodmanits":1,
    "planted":1,
    "lately":1,
    "variation":1,
    "arguing":1,
    "ins":1,
    "outs":1,
    "illinois":1,
    "v":1,
    "convince":1,
    "sanctioned":1,
    "furthermore":1,
    "sacred":1,
    "protection":1,
    "sates":1,
    "joint":1,
    "acre":1,
    "plants":1,
    "seized":1,
    "finds":1,
    "repetitious":1,
    "rodman":1,
    "piece":1,
    "advice":1,
    "argue":1,
    "regardless":1,
    "whereabouts":1,
    "recommend":1,
    "sleeve":1,
    "arm":1,
    "warren":1,
    "putnam":1,
    "categories":1,
    "category":1,
    "firm":1,
    "arizona":1,
    "medicinal":1,
    "initiative":1,
    "cynical":1,
    "book":1,
    "dream":1,
    "mothers":1,
    "suffocating":1,
    "drop":1,
    "package":1,
    "following":1,
    "narco":1,
    "trafficantes":1,
    "prisoners":1,
    "impound":1,
    "informed":1,
    "convoy":1,
    "telltales":1,
    "touching":1,
    "blinking":1,
    "giveaways":1,
    "howre":1,
    "pissant":1,
    "basin":1,
    "league":1,
    "hunh":1,
    "nope":1,
    "limbering":1,
    "showtime":1,
    "afternoon":1,
    "ladies":1,
    "oclock":1,
    "quarter":1,
    "ton":1,
    "worth":1,
    "wait":1,
    "huey":1,
    "airlift":1,
    "condom":1,
    "mules":1,
    "asshole":1,
    "peasants":1,
    "stretching":1,
    "chill":1,
    "funny":1,
    "fuckin":1,
    "quick":1,
    "cause":1,
    "ugly":1,
    "stink":1,
    "smells":1,
    "television":1,
    "transmission":1,
    "av":1,
    "junior":1,
    "sweartogod":1,
    "ah":1,
    "repeat":1,
    "dudes":1,
    "bleeding":1,
    "greek":1,
    "aeschylus":1,
    "trilogy":1,
    "oresteia":1,
    "machine":1,
    "madmax":1,
    "omaha":1,
    "closed":1,
    "entertainment":1,
    "susan":1,
    "lucci":1,
    "section":1,
    "nineties":1,
    "inhale":1,
    "freebase":1,
    "officially":1,
    "unprotected":1,
    "without":1,
    "interests":1,
    "youtechnically":1,
    "veto":1,
    "budgets":1,
    "cia":1,
    "treasury":1,
    "atf":1,
    "irs":1,
    "radio":1,
    "shack":1,
    "dmv":1,
    "senators":1,
    "congressman":1,
    "specially":1,
    "lecture":1,
    "respond":1,
    "humility":1,
    "speaking":1,
    "russia":1,
    "china":1,
    "catch":1,
    "predecessor":1,
    "sheridan":1,
    "outline":1,
    "strategy":1,
    "partisan":1,
    "wellversed":1,
    "array":1,
    "issues":1,
    "basically":1,
    "autocratic":1,
    "helped":1,
    "pride":1,
    "bullet":1,
    "aimed":1,
    "selfdefeating":1,
    "enormous":1,
    "integrity":1,
    "component":1,
    "patience":1,
    "functionaries":1,
    "cs":1,
    "graduate":1,
    "degrees":1,
    "apiece":1,
    "rumors":1,
    "shape":1,
    "slightest":1,
    "encouraging":1,
    "statistics":1,
    "intend":1,
    "maximum":1,
    "whatd":1,
    "appeals":1,
    "focus":1,
    "kruschev":1,
    "forced":1,
    "wrote":1,
    "successor":1,
    "saved":1,
    "blame":1,
    "blamed":1,
    "charm":1,
    "desert":1,
    "theyd":1,
    "mouth":1,
    "secret":1,
    "nosy":1,
    "hears":1,
    "normal":1,
    "brown":1,
    "ford":1,
    "explorer":1,
    "stolen":1,
    "file":1,
    "filing":1,
    "filling":1,
    "forms":1,
    "mmm":1,
    "tasted":1,
    "delicious":1,
    "marvelous":1,
    "creatures":1,
    "canard":1,
    "fly":1,
    "swim":1,
    "marching":1,
    "sauce":1,
    "ala":1,
    "orange":1,
    "fatty":1,
    "winter":1,
    "insulation":1,
    "breast":1,
    "jealous":1,
    "unsaturated":1,
    "polyunsaturated":1,
    "ducks":1,
    "professionals":1,
    "trunk":1,
    "especially":1,
    "actually":1,
    "seat":1,
    "myrhvold":1,
    "bezos":1,
    "technology":1,
    "intrude":1,
    "reached":1,
    "masses":1,
    "competitor":1,
    "exspouse":1,
    "adversaries":1,
    "stalkers":1,
    "local":1,
    "electronics":1,
    "intruding":1,
    "fax":1,
    "pager":1,
    "cable":1,
    "tv":1,
    "musak":1,
    "windows":1,
    "walls":1,
    "conditioning":1,
    "ventilation":1,
    "modem":1,
    "internet":1,
    "shiznit":1,
    "intercept":1,
    "analog":1,
    "locate":1,
    "source":1,
    "databasing":1,
    "capability":1,
    "crossreference":1,
    "across":1,
    "wireless":1,
    "spectrum":1,
    "surveillance":1,
    "merck":1,
    "pfizer":1,
    "powerful":1,
    "traditional":1,
    "loser":1,
    "organism":1,
    "weapons":1,
    "mass":1,
    "destruction":1,
    "intoxicants":1,
    "count":1,
    "racks":1,
    "80000":1,
    "manages":1,
    "measly":1,
    "2000":1,
    "tobacco":1,
    "380000":1,
    "interesting":1,
    "choke":1,
    "honesty":1,
    "rural":1,
    "legislators":1,
    "getem":1,
    "fess":1,
    "prisons":1,
    "casinos":1,
    "choices":1,
    "prozac":1,
    "ecstacy":1,
    "ones":1,
    "mattress":1,
    "trampoline":1,
    "molecules":1,
    "morality":1,
    "serotonin":1,
    "reuptake":1,
    "inhibitor":1,
    "suddenly":1,
    "theory":1,
    "fear":1,
    "intense":1,
    "bar":1,
    "scotch":1,
    "secretive":1,
    "tim":1,
    "nerdy":1,
    "sidles":1,
    "beside":1,
    "whispers":1,
    "furtively":1,
    "ear":1,
    "chemicals":1,
    "solution":1,
    "cloud":1,
    "rains":1,
    "prohibits":1,
    "poppies":1,
    "thc":1,
    "pill":1,
    "eliminates":1,
    "craving":1,
    "dilaudid":1,
    "dove":1,
    "bars":1,
    "science":1,
    "sidelines":1,
    "polio":1,
    "plague":1,
    "battling":1,
    "contains":1,
    "paradox":1,
    "brings":1,
    "maynard":1,
    "keynes":1,
    "18":1,
    "table":1,
    "certify":1,
    "ally":1,
    "users":1,
    "jeopardize":1,
    "financial":1,
    "markets":1,
    "hypocritical":1,
    "stance":1,
    "snorting":1,
    "penalize":1,
    "supplying":1,
    "stick":1,
    "creates":1,
    "carrot":1,
    "huge":1,
    "vote":1,
    "pacs":1,
    "soft":1,
    "locking":1,
    "falling":1,
    "purity":1,
    "increased":1,
    "achieved":1,
    "cheaper":1,
    "forget":1,
    "winnable":1,
    "decertify":1,
    "pakistan":1,
    "columbia":1,
    "manage":1,
    "seize":1,
    "inconceivable":1,
    "50":1,
    "affect":1,
    "declare":1,
    "worm":1,
    "gnaws":1,
    "apart":1,
    "reasons":1,
    "tourism":1,
    "whys":1,
    "holding":1,
    "everybodys":1,
    "fire":1,
    "descent":1,
    "trading":1,
    "terrorists":1,
    "freeing":1,
    "convicted":1,
    "murderers":1,
    "technicalities":1,
    "gacy":1,
    "forty":1,
    "fifty":1,
    "vietnam":1,
    "lied":1,
    "civil":1,
    "libertarians":1,
    "kidnapped":1,
    "panama":1,
    "covered":1,
    "constitution":1,
    "mine":1,
    "sovereign":1,
    "nation":1,
    "waking":1,
    "system":1,
    "chopping":1,
    "chainsaws":1,
    "delivering":1,
    "presumption":1,
    "innocence":1,
    "fashion":1,
    "counselor":1,
    "pleasure":1,
    "arguments":1,
    "tuna":1,
    "check":1,
    "records":1,
    "cannon":1,
    "visit":1,
    "lawyer":1,
    "capital":1,
    "punishment":1,
    "texas":1,
    "fry":1,
    "quality":1,
    "sentence":1,
    "coercion":1,
    "fisherman":1,
    "immunity":1,
    "jonas":1,
    "gotten":1,
    "pricing":1,
    "reasonable":1,
    "watching":1,
    "violation":1,
    "laws":1,
    "warrant":1,
    "twentynine":1,
    "graduated":1,
    "montessori":1,
    "tj":1,
    "carbon":1,
    "monoxide":1,
    "poisoning":1,
    "afford":1,
    "fix":1,
    "gas":1,
    "heater":1,
    "sister":1,
    "maquiladora":1,
    "designer":1,
    "bluejeans":1,
    "currently":1,
    "316":1,
    "month":1,
    "include":1,
    "trusted":1,
    "instead":1,
    "killing":1,
    "sends":1,
    "suicide":1,
    "mission":1,
    "frankie":1,
    "flowers":1,
    "psychocokehead":1,
    "hitman":1,
    "faggot":1,
    "accosted":1,
    "swarm":1,
    "calcutta":1,
    "except":1,
    "wearing":1,
    "1500":1,
    "suits":1,
    "legalizing":1,
    "legalization":1,
    "international":1,
    "agreements":1,
    "legalize":1,
    "inserts":1,
    "transactions":1,
    "becomes":1,
    "pharmacy":1,
    "borders":1,
    "mobbed":1,
    "europe":1,
    "wanting":1,
    "snort":1,
    "oblivion":1,
    "concert":1,
    "pouring":1,
    "canada":1,
    "overwhelmed":1,
    "legalized":1,
    "arbitration":1,
    "panel":1,
    "whom":1,
    "expertise":1,
    "superfund":1,
    "words":1,
    "happens":1,
    "leader":1,
    "free":1,
    "penciled":1,
    "longs":1,
    "presidential":1,
    "quit":1,
    "czarina":1,
    "czarette":1,
    "anastasia":1,
    "amazing":1,
    "earth":1,
    "upset":1,
    "carefully":1,
    "deas":1,
    "arraignment":1,
    "taperecorded":1,
    "movement":1,
    "lips":1,
    "discuss":1,
    "neighbors":1,
    "alice":1,
    "stepping":1,
    "apt":1,
    "analogy":1,
    "curious":1,
    "such":1,
    "economy":1,
    "weakness":1,
    "matters":1,
    "nod":1,
    "trained":1,
    "social":1,
    "conventions":1,
    "phony":1,
    "fake":1,
    "smiles":1,
    "surface":1,
    "seths":1,
    "bowman":1,
    "uncomfortable":1,
    "act":1,
    "invincible":1,
    "seem":1,
    "convention":1,
    "random":1,
    "collections":1,
    "selfinterest":1,
    "decide":1,
    "diets":1,
    "esteem":1,
    "universal":1,
    "expectations":1,
    "since":1,
    "harvard":1,
    "blaming":1,
    "ach":1,
    "admit":1,
    "weak":1,
    "unspoken":1,
    "rules":1,
    "bowmans":1,
    "mapping":1,
    "pig":1,
    "genome":1,
    "neurosurgeon":1,
    "staying":1,
    "kitchen":1,
    "floor":1,
    "barbados":1,
    "gunmen":1,
    "chief":1,
    "commanders":1,
    "resist":1,
    "neighbor":1,
    "simple":1,
    "alfalfa":1,
    "farmer":1,
    "granddaughter":1,
    "shot":1,
    "fabulous":1,
    "spectacle":1,
    "teaches":1,
    "silly":1,
    "results":1,
    "silent":1,
    "auction":1,
    "volunteer":1,
    "blind":1,
    "cincinnati":1,
    "grades":1,
    "merit":1,
    "finalist":1,
    "hiq":1,
    "math":1,
    "spanish":1,
    "thespian":1,
    "vicepresident":1,
    "sons":1,
    "fundraiser":1,
    "alv":1,
    "jaywalk":1,
    "member":1,
    "suing":1,
    "rename":1,
    "whispering":1,
    "conspiracy":1,
    "lie":1,
    "vibrating":1,
    "aint":1,
    "busting":1,
    "metzger":1,
    "wager":1,
    "assets":1,
    "sales":1,
    "scattered":1,
    "birth":1,
    "accept":1,
    "publicity":1,
    "overdosed":1,
    "hippie":1,
    "barely":1,
    "hysterical":1,
    "puking":1,
    "trouble":1,
    "dui":1,
    "dealing":1,
    "hed":1,
    "beers":1,
    "ground":1,
    "clip":1,
    "wings":1,
    "scheduled":1,
    "activities":1,
    "handled":1,
    "delicately":1,
    "dan":1,
    "kelly":1,
    "quietly":1,
    "embarrassing":1,
    "moments":1,
    "experimented":1,
    "college":1,
    "quotes":1,
    "experiment":1,
    "yearsold":1,
    "herself":1,
    "od":1,
    "push":1,
    "growing":1,
    "pipe":1,
    "inches":1,
    "smoked":1,
    "drank":1,
    "parent":1,
    "earn":1,
    "pain":1,
    "appear":1,
    "kindness":1,
    "follow":1,
    "dog":1,
    "housetrained":1,
    "loves":1,
    "superiors":1,
    "eventually":1,
    "fall":1,
    "disgrace":1,
    "among":1,
    "guard":1,
    "responsible":1,
    "barbarians":1,
    "dine":1,
    "prosecutor":1,
    "pillar":1,
    "quickly":1,
    "guilty":1,
    "handy":1,
    "target":1,
    "release":1,
    "recognizance":1,
    "deny":1,
    "sits":1,
    "childrens":1,
    "heavily":1,
    "involved":1,
    "adult":1,
    "literacy":1,
    "innuendo":1,
    "recourse":1,
    "appreciate":1,
    "early":1,
    "minor":1,
    "expunged":1,
    "18th":1,
    "sensitive":1,
    "container":1,
    "misdemeanor":1,
    "easy":1,
    "poof":1,
    "amounts":1,
    "lucky":1,
    "lived":1,
    "therapy":1,
    "professional":1,
    "students":1,
    "stays":1,
    "wipe":1,
    "tired":1,
    "beltway":1,
    "cokehead":1,
    "ass":1,
    "won":1,
    "winners":1,
    "reading":1,
    "bumper":1,
    "stickers":1,
    "kicking":1,
    "soccer":1,
    "ball":1,
    "older":1,
    "strange":1,
    "latino":1,
    "playing":1,
    "wander":1,
    "snapping":1,
    "neck":1,
    "cover":1,
    "evening":1,
    "warning":1,
    "tonight":1,
    "guzman":1,
    "tomas":1,
    "esteban":1,
    "bw":1,
    "speakers":1,
    "purchased":1,
    "compact":1,
    "disc":1,
    "burner":1,
    "cds":1,
    "bought":1,
    "common":1,
    "attended":1,
    "fathers":1,
    "engineers":1,
    "stereo":1,
    "wine":1,
    "captains":1,
    "clever":1,
    "predict":1,
    "complaining":1,
    "ensenada":1,
    "raspberries":1,
    "entering":1,
    "society":1,
    "officials":1,
    "entrepreneurial":1,
    "activity":1,
    "usa":1,
    "regression":1,
    "analysis":1,
    "lanes":1,
    "calculated":1,
    "variables":1,
    "reduce":1,
    "hire":1,
    "product":1,
    "sitting":1,
    "facing":1,
    "disappearing":1,
    "japanese":1,
    "soldiers":1,
    "deserted":1,
    "islands":1,
    "ii":1,
    "surrendered":1,
    "attitudes":1,
    "greedy":1,
    "decided":1,
    "childhood":1,
    "loyal":1,
    "busiest":1,
    "land":1,
    "fortyone":1,
    "per":1,
    "twentytwo":1,
    "pedestrians":1,
    "estimates":1,
    "bet":1,
    "entire":1,
    "tractortrailers":1,
    "halfdozen":1,
    "carrying":1,
    "load":1,
    "caught":1,
    "measure":1,
    "ring":1,
    "fact":1,
    "slight":1,
    "hesitation":1,
    "secondary":1,
    "closer":1,
    "19":1,
    "double":1,
    "therell":1,
    "freedom":1,
    "x":1,
    "ray":1,
    "machines":1,
    "martial":1,
    "tripled":1,
    "pulling":1,
    "triple":1,
    "biggest":1,
    "intel":1,
    "officers":1,
    "picked":1,
    "chemical":1,
    "react":1,
    "jenny":1,
    "account":1,
    "4168":1,
    "2245":1,
    "3173":1,
    "advance":1,
    "thatll":1,
    "leaving":1,
    "approaching":1,
    "startle":1,
    "lemonade":1,
    "uh":1,
    "jobs":1,
    "bear":1,
    "illwill":1,
    "charges":1,
    "attracted":1,
    "nutjobs":1,
    "nut":1,
    "jar":1,
    "eye":1,
    "ordinary":1,
    "poisoned":1,
    "sweet":1,
    "asleep":1,
    "cleaned":1,
    "happy":1,
    "eight":1,
    "pills":1,
    "cocktail":1,
    "clock":1,
    "bourbons":1,
    "unwind":1,
    "homework":1,
    "heres":1,
    "bump":1,
    "declared":1,
    "opiates":1,
    "chinese":1,
    "immigrants":1,
    "slave":1,
    "labor":1,
    "darkies":1,
    "inner":1,
    "cities":1,
    "dancing":1,
    "evil":1,
    "rhythms":1,
    "fringe":1,
    "artists":1,
    "decadent":1,
    "jp":1,
    "morgan":1,
    "d":1,
    "rockefeller":1,
    "c":1,
    "steps":1,
    "205":1,
    "twentyeight":1,
    "courtney":1,
    "syd":1,
    "maid":1,
    "spies":1,
    "forever":1,
    "sex":1,
    "200":1,
    "100":1,
    "art":1,
    "communications":1,
    "center":1,
    "administrations":1,
    "flagship":1,
    "21st":1,
    "headquarters":1,
    "belonged":1,
    "lord":1,
    "skies":1,
    "trafficker":1,
    "liposuction":1,
    "surgery":1,
    "lieutenants":1,
    "realized":1,
    "taunting":1,
    "miles":1,
    "touch":1,
    "interface":1,
    "runs":1,
    "interdiction":1,
    "sides":1,
    "warehouses":1,
    "transportation":1,
    "tunnels":1,
    "organized":1,
    "standpoint":1,
    "vetted":1,
    "matching":1,
    "cut":1,
    "plane":1,
    "symbols":1,
    "sending":1,
    "lead":1,
    "flew":1,
    "ben":1,
    "williams":1,
    "prosecute":1,
    "putting":1,
    "dam":1,
    "thrown":1,
    "mistaken":1,
    "pentagon":1,
    "caribbean":1,
    "game":1,
    "wackamole":1,
    "knock":1,
    "pops":1,
    "relaxing":1,
    "heat":1,
    "sells":1,
    "asset":1,
    "businesses":1,
    "construction":1,
    "concern":1,
    "laundromats":1,
    "unfortunately":1,
    "successful":1,
    "positive":1,
    "wonder":1,
    "adept":1,
    "helen":1,
    "watts":1,
    "survival":1,
    "instincts":1,
    "honed":1,
    "glad":1,
    "picturing":1,
    "debtridden":1,
    "thirtytwo":1,
    "exhusband":1,
    "compared":1,
    "wondering":1,
    "nicer":1,
    "kept":1,
    "occupational":1,
    "hazard":1,
    "keys":1,
    "perfect":1,
    "idiot":1,
    "madrigals":1,
    "cleaning":1,
    "mouths":1,
    "possibly":1,
    "pencil":1,
    "facetime":1,
    "capabilities":1,
    "present":1,
    "unified":1,
    "metaphors":1,
    "pole":1,
    "shutting":1,
    "medicating":1,
    "scotches":1,
    "dinner":1,
    "alternative":1,
    "bathroom":1,
    "anywhere":1,
    "gestapo":1,
    "hughes":1,
    "administration":1,
    "agree":1,
    "operations":1,
    "proposition":1,
    "dumped":1,
    "centers":1,
    "donations":1,
    "building":1,
    "doghouses":1,
    "lights":1,
    "waterwing":1,
    "patient":1,
    "terrific":1,
    "watched":1,
    "dragged":1,
    "supportive":1,
    "kicked":1,
    "credit":1,
    "cards":1,
    "maxed":1,
    "bank":1,
    "faces":1,
    "income":1,
    "lien":1,
    "behaving":1,
    "hanging":1,
    "tender":1,
    "guidance":1,
    "platitude":1,
    "grew":1,
    "built":1,
    "stone":1,
    "brick":1,
    "suggest":1,
    "stomach":1,
    "otherwise":1,
    "exwife":1,
    "remarried":1,
    "basement":1,
    "bunch":1,
    "powerless":1,
    "unmanageable":1,
    "tells":1,
    "10":1,
    "mil":1,
    "sober":1,
    "philly":1,
    "dallas":1,
    "allergy":1,
    "obsession":1,
    "marty":1,
    "recovering":1,
    "age":1,
    "easier":1,
    "nervous":1,
    "tamayo":1,
    "carrington":1,
    "simply":1,
    "modern":1,
    "several":1,
    "collectors":1,
    "south":1,
    "discreet":1,
    "proper":1,
    "joking":1,
    "fraction":1,
    "figure":1,
    "disagreement":1,
    "recruited":1,
    "rigorous":1,
    "screening":1,
    "id":1,
    "washington":1,
    "helpful":1,
    "received":1,
    "quantico":1,
    "extremely":1,
    "absorb":1,
    "busy":1,
    "settle":1,
    "confident":1,
    "custody":1,
    "corruption":1,
    "warned":1,
    "hopefully":1,
    "exchange":1,
    "related":1,
    "demand":1,
    "treating":1,
    "overdose":1,
    "elevator":1,
    "seasons":1,
    "negotiated":1,
    "cappuccino":1,
    "biscotti":1,
    "january":1,
    "nineteen":1,
    "eighty":1,
    "warehouse":1,
    "harbor":1,
    "irregularities":1,
    "unless":1,
    "company":1,
    "1991":1,
    "1994":1,
    "empty":1,
    "desk":1,
    "speculation":1,
    "followed":1,
    "bomb":1,
    "guns":1,
    "times":1,
    "pope":1,
    "careful":1,
    "sounding":1,
    "gambling":1,
    "nine":1,
    "surprised":1,
    "experimentation":1,
    "west":1,
    "similar":1,
    "cocky":1,
    "seventeen":1,
    "clue":1,
    "stakes":1,
    "neither":1,
    "express":1,
    "baby":1,
    "turnin":1,
    "pro":1,
    "hole":1,
    "mommy":1,
    "previously":1,
    "represented":1,
    "stopwork":1,
    "suit":1,
    "department":1,
    "disqualifies":1,
    "temporary":1,
    "suspension":1,
    "investigated":1,
    "unusual":1,
    "motion":1,
    "nonetheless":1,
    "deserves":1,
    "fairness":1,
    "afforded":1,
    "delay":1,
    "testimony":1,
    "recess":1,
    "900":1,
    "monday":1,
    "morning":1,
    "counsel":1,
    "chambers":1,
    "mob":1,
    "chef":1,
    "skill":1,
    "walked":1,
    "block":1,
    "fresh":1,
    "mouse":1,
    "courthouse":1,
    "waiter":1,
    "steak":1,
    "lies":1,
    "honorable":1,
    "incredibly":1,
    "location":1,
    "berserk":1,
    "influenced":1,
    "rather":1,
    "evidence":1,
    "introduction":1,
    "ourselves":1,
    "associate":1,
    "impression":1,
    "journey":1,
    "stories":1,
    "jail":1,
    "chaos":1,
    "various":1,
    "scraps":1,
    "victim":1,
    "organization":1,
    "ours":1,
    "route":1,
    "distributors":1,
    "california":1,
    "mans":1,
    "violent":1,
    "plenty":1,
    "suppliers":1,
    "project":1,
    "ability":1,
    "color":1,
    "odor":1,
    "smuggle":1,
    "espastico":1,
    "jacobo":1,
    "doll":1,
    "ears":1,
    "accessory":1,
    "belt":1,
    "highimpact":1,
    "pressuremolded":1,
    "odorless":1,
    "bowl":1,
    "yours":1,
    "forgiven":1,
    "distributor":1,
    "principle":1,
    "pass":1,
    "succeeded":1,
    "flying":1,
    "colors":1,
    "electronic":1,
    "phones":1,
    "twentyfour":1,
    "mextel":1,
    "esns":1,
    "precautions":1,
    "yourself":1,
    "traitor":1,
    "hidden":1,
    "beneath":1,
    "clothing":1,
    "pat":1,
    "supervisory":1,
    "inspector":1,
    "haig":1,
    "refuse":1,
    "pamphlet":1,
    "explains":1,
    "welcome":1,
    "authority":1,
    "shall":1,
    "proceed":1,
    "cared":1,
    "differently":1,
    "loved":1,
    "gordon":1,
    "platinum":1,
    "relationship":1,
    "housewife":1,
    "belong":1,
    "accepts":1,
    "latinos":1,
    "believed":1,
    "imported":1,
    "strawberries":1,
    "donated":1,
    "rainy":1,
    "stash":1,
    "gave":1,
    "desperate":1,
    "salazars":1,
    "verified":1,
    "storm":1,
    "silver":1,
    "wedding":1,
    "cup":1,
    "leicas":1,
    "sos":1,
    "video":1,
    "camera":1,
    "pawn":1,
    "shop":1,
    "excused":1,
    "trip":1,
    "womens":1,
    "stall":1,
    "icecream":1,
    "missed":1,
    "suburbs":1,
    "effect":1,
    "psyche":1,
    "possibilities":1,
    "neighborhood":1,
    "indian":1,
    "hills":1,
    "forces":1,
    "products":1,
    "marked":1,
    "bucks":1,
    "piss":1,
    "outta":1,
    "wallet":1,
    "vigilante":1,
    "cops":1,
    "locked":1,
    "hadnt":1,
    "brought":1,
    "touched":1,
    "famous":1,
    "band":1,
    "theyve":1,
    "sing":1,
    "paper":1,
    "assignment":1,
    "kindof":1,
    "longer":1,
    "feat":1,
    "accomplished":1,
    "assistant":1,
    "travel":1,
    "plans":1,
    "nogales":1,
    "sinaloa":1,
    "jalisco":1,
    "michoacan":1,
    "seemed":1,
    "serenity":1,
    "oaks":1,
    "hardcore":1,
    "facility":1,
    "star":1,
    "mafia":1,
    "wheres":1,
    "spending":1,
    "shoulder":1,
    "awful":1,
    "harm":1,
    "avoid":1,
    "breaking":1,
    "futility":1,
    "transparent":1,
    "food":1,
    "tastes":1,
    "break":1,
    "helping":1,
    "dealer":1,
    "shave":1,
    "believable":1,
    "jumpy":1,
    "copy":1,
    "speech":1,
    "fantastic":1,
    "genuine":1,
    "choice":1,
    "post":1,
    "personal":1,
    "qualification":1,
    "trenches":1,
    "etcetera":1,
    "seizure":1,
    "represents":1,
    "incd":1,
    "proud":1,
    "announce":1,
    "partners":1,
    "finally":1,
    "trafficking":1,
    "east":1,
    "coast":1,
    "usually":1,
    "hypothetical":1,
    "juaraz":1,
    "losing":1,
    "influence":1,
    "gaining":1,
    "connected":1,
    "saturday":1,
    "bother":1,
    "sleep":1,
    "insane":1,
    "rip":1,
    "listening":1,
    "dismissal":1,
    "barbecue":1,
    "downstairs":1,
    "murderer":1,
    "lost":1,
    "bedtime":1,
    "sterling":1,
    "reputation":1,
    "confirmed":1,
    "nations":1,
    "precious":1,
    "resource":1,
    "sixtyeight":1,
    "targeted":1,
    "perpetrate":1,
    "protecting":1,
    "priority":1,
    "failures":1,
    "fallen":1,
    "mistakes":1,
    "laying":1,
    "solid":1,
    "foundation":1,
    "perseverance":1,
    "resources":1,
    "courage":1,
    "outlined":1,
    "tenpoint":1,
    "representing":1,
    "wage":1,
    "grab":1,
    "dialing":1,
    "hair":1,
    "screaming":1,
    "margaret":1,
    "jim":1,
    "sarah":1,
    "whove":1,
    "taught":1,
    "carolines":1,
    "untouchable":1,
    "allowed":2,
    "honest":2,
    "living":2,
    "employed":2,
    "choosing":2,
    "attorney":2,
    "argument":2,
    "gates":2,
    "anonymous":2,
    "informants":2,
    "rights":2,
    "decision":2,
    "whether":2,
    "sold":2,
    "depends":2,
    "hudson":2,
    "hate":2,
    "definitely":2,
    "justice":2,
    "tip":2,
    "vehicles":2,
    "loose":2,
    "motherfucker":2,
    "gentlemen":2,
    "buy":2,
    "rent":2,
    "women":2,
    "wear":2,
    "makeup":2,
    "perfume":2,
    "ridiculous":2,
    "castro":2,
    "hospital":2,
    "score":2,
    "banal":2,
    "songs":2,
    "hold":2,
    "circumstances":2,
    "meeting":2,
    "utter":2,
    "presidents":2,
    "gets":2,
    "itd":2,
    "jeff":2,
    "weeks":2,
    "winning":2,
    "issue":2,
    "allow":2,
    "incredible":2,
    "opinion":2,
    "protected":2,
    "landry":2,
    "fired":2,
    "personally":2,
    "political":2,
    "schedule":2,
    "supreme":2,
    "tough":2,
    "sat":2,
    "handed":2,
    "tight":2,
    "opened":2,
    "couldnt":2,
    "street":2,
    "crime":2,
    "nobodys":2,
    "everythings":2,
    "pays":2,
    "duck":2,
    "salad":2,
    "asking":2,
    "taste":2,
    "wonderful":2,
    "cute":2,
    "babies":2,
    "bird":2,
    "heard":2,
    "full":2,
    "cholesterol":2,
    "changes":2,
    "woods":2,
    "keeps":2,
    "store":2,
    "cell":2,
    "air":2,
    "calls":2,
    "digital":2,
    "cellular":2,
    "secretary":2,
    "spread":2,
    "pi":2,
    "assassin":2,
    "legal":2,
    "clients":2,
    "winner":2,
    "itself":2,
    "body":2,
    "further":2,
    "alcohol":2,
    "kills":2,
    "century":2,
    "terms":2,
    "growth":2,
    "others":2,
    "short":2,
    "experiences":2,
    "40s":2,
    "problems":2,
    "psychological":2,
    "relevant":2,
    "dealers":2,
    "prices":2,
    "profits":2,
    "john":2,
    "billion":2,
    "hit":2,
    "consumption":2,
    "addicts":2,
    "dropped":2,
    "christ":2,
    "less":2,
    "3":2,
    "calling":2,
    "inside":2,
    "feet":2,
    "needs":2,
    "bail":2,
    "worst":2,
    "serial":2,
    "killer":2,
    "history":2,
    "criminal":2,
    "bit":2,
    "bench":2,
    "judge":2,
    "handle":2,
    "return":2,
    "planning":2,
    "bragging":2,
    "countries":2,
    "weekend":2,
    "starting":2,
    "forgetting":2,
    "federal":2,
    "beat":2,
    "cop":2,
    "willing":2,
    "bust":2,
    "flores":2,
    "gun":2,
    "smuggler":2,
    "half":2,
    "lives":2,
    "myself":2,
    "beggars":2,
    "heart":2,
    "giant":2,
    "themselves":2,
    "somehow":2,
    "paying":2,
    "frustrating":2,
    "invited":2,
    "actual":2,
    "hang":2,
    "wasting":2,
    "yard":2,
    "charged":2,
    "glass":2,
    "beer":2,
    "recognize":2,
    "responses":2,
    "fuckedup":2,
    "crowd":2,
    "answers":2,
    "totally":2,
    "instance":2,
    "jackoff":2,
    "weird":2,
    "self":2,
    "fair":2,
    "nearly":2,
    "acknowledge":2,
    "sarcasm":2,
    "live":2,
    "breathing":2,
    "turning":2,
    "dads":2,
    "snuck":2,
    "intelligence":2,
    "answer":2,
    "behavior":2,
    "turnout":2,
    "lesson":2,
    "apparently":2,
    "knew":2,
    "class":2,
    "volleyball":2,
    "businessman":2,
    "twenty":2,
    "public":2,
    "smuggling":2,
    "dreams":2,
    "frozen":2,
    "survive":2,
    "giving":2,
    "suspect":2,
    "group":2,
    "rooms":2,
    "girlfriend":2,
    "driving":2,
    "possession":2,
    "pot":2,
    "mother":2,
    "notice":2,
    "attorneys":2,
    "type":2,
    "trust":2,
    "freely":2,
    "shameful":2,
    "immediately":2,
    "clothes":2,
    "flight":2,
    "risk":2,
    "la":2,
    "jolla":2,
    "admitted":2,
    "therefore":2,
    "alleged":2,
    "consider":2,
    "wouldve":2,
    "disappear":2,
    "bothers":2,
    "gotta":2,
    "clean":2,
    "experts":2,
    "set":2,
    "foot":2,
    "outside":2,
    "maradona":2,
    "fit":2,
    "fun":2,
    "strangers":2,
    "owes":2,
    "remind":2,
    "music":2,
    "estate":2,
    "hydroponic":2,
    "interested":2,
    "study":2,
    "drivers":2,
    "stopped":2,
    "prison":2,
    "nafta":2,
    "tipped":2,
    "hired":2,
    "crossing":2,
    "supply":2,
    "cars":2,
    "questions":2,
    "trucks":2,
    "almost":2,
    "dogs":2,
    "run":2,
    "seizures":2,
    "worse":2,
    "test":2,
    "cash":2,
    "heading":2,
    "van":2,
    "bringing":2,
    "late":2,
    "red":2,
    "seven":2,
    "werent":2,
    "ju":2,
    "story":2,
    "911":2,
    "goodbye":2,
    "nancy":2,
    "practice":2,
    "wish":2,
    "budget":2,
    "owns":2,
    "unlimited":2,
    "funds":2,
    "task":2,
    "training":2,
    "swept":2,
    "twice":2,
    "learned":2,
    "85":2,
    "owe":2,
    "contact":2,
    "church":2,
    "washing":2,
    "pablo":2,
    "escobar":2,
    "pull":2,
    "barbara":2,
    "leave":2,
    "familiar":2,
    "bored":2,
    "lady":2,
    "taking":2,
    "ten":2,
    "epidemic":2,
    "hammer":2,
    "baseball":2,
    "likes":2,
    "interest":2,
    "moment":2,
    "coronel":2,
    "selling":2,
    "valium":2,
    "wake":2,
    "mind":2,
    "alcoholic":2,
    "angry":2,
    "collection":2,
    "value":2,
    "physical":2,
    "develop":2,
    "train":2,
    "useful":2,
    "methods":2,
    "progress":2,
    "treat":2,
    "eddie":2,
    "lawyers":2,
    "hard":2,
    "informer":2,
    "debts":2,
    "sent":2,
    "downtown":2,
    "streets":2,
    "kiss":2,
    "seal":2,
    "beach":2,
    "moving":2,
    "jury":2,
    "win":2,
    "figured":2,
    "marquez":2,
    "pointless":2,
    "compromised":2,
    "debt":2,
    "undetectable":2,
    "pregnant":2,
    "exclusive":2,
    "deliver":2,
    "safely":2,
    "conduct":2,
    "shell":2,
    "lyrics":2,
    "shower":2,
    "monty":2,
    "ambulance":2,
    "enemy":2,
    "bilateral":2,
    "effort":2,
    "running":2,
    "arrested":2,
    "plan":2,
    "opportunity":2,
    "families":2,
    "informant":3,
    "paid":3,
    "americans":3,
    "sense":3,
    "hearing":3,
    "offer":3,
    "learn":3,
    "third":3,
    "arrest":3,
    "truck":3,
    "officer":3,
    "drive":3,
    "feeling":3,
    "appointment":3,
    "line":3,
    "relax":3,
    "joke":3,
    "close":3,
    "woman":3,
    "anybody":3,
    "damn":3,
    "share":3,
    "tragedy":3,
    "beautiful":3,
    "smoke":3,
    "room":3,
    "town":3,
    "reason":3,
    "fbi":3,
    "designed":3,
    "respect":3,
    "meet":3,
    "official":3,
    "conference":3,
    "clear":3,
    "used":3,
    "few":3,
    "protect":3,
    "himself":3,
    "matter":3,
    "twelve":3,
    "start":3,
    "works":3,
    "started":3,
    "district":3,
    "letters":3,
    "write":3,
    "kill":3,
    "later":3,
    "alone":3,
    "theyll":3,
    "walking":3,
    "shut":3,
    "report":3,
    "order":3,
    "fat":3,
    "eat":3,
    "eaten":3,
    "tiger":3,
    "sell":3,
    "guys":3,
    "connection":3,
    "numbers":3,
    "security":3,
    "rest":3,
    "realize":3,
    "happen":3,
    "economic":3,
    "between":3,
    "molecule":3,
    "addiction":3,
    "market":3,
    "spend":3,
    "price":3,
    "percent":3,
    "trade":3,
    "comes":3,
    "sixteen":3,
    "young":3,
    "part":3,
    "michael":3,
    "represent":3,
    "noriega":3,
    "fighting":3,
    "legitimate":3,
    "fishing":3,
    "boats":3,
    "tax":3,
    "amount":3,
    "means":3,
    "em":3,
    "tape":3,
    "chance":3,
    "boss":3,
    "trial":3,
    "apartment":3,
    "past":3,
    "future":3,
    "small":3,
    "youd":3,
    "talked":3,
    "lines":3,
    "grateful":3,
    "begin":3,
    "happening":3,
    "case":3,
    "mom":3,
    "expect":3,
    "happened":3,
    "saying":3,
    "says":3,
    "vanessa":3,
    "either":3,
    "though":3,
    "supposedly":3,
    "whatever":3,
    "lying":3,
    "serious":3,
    "blue":3,
    "research":3,
    "kidding":3,
    "rich":3,
    "correct":3,
    "valuable":3,
    "hours":3,
    "team":3,
    "club":3,
    "board":3,
    "known":3,
    "community":3,
    "parks":3,
    "smell":3,
    "top":3,
    "payment":3,
    "boy":3,
    "party":3,
    "wanted":3,
    "wed":3,
    "space":3,
    "message":3,
    "explain":3,
    "shouldnt":3,
    "asked":3,
    "within":3,
    "names":3,
    "son":3,
    "change":3,
    "aware":3,
    "havent":3,
    "recently":3,
    "both":3,
    "equipment":3,
    "carlos":3,
    "odds":3,
    "throw":3,
    "dope":3,
    "companies":3,
    "american":3,
    "process":3,
    "wants":3,
    "might":3,
    "cold":3,
    "favor":3,
    "threatened":3,
    "hour":3,
    "end":3,
    "whos":3,
    "agents":3,
    "el":3,
    "paso":3,
    "porfirio":3,
    "ha":3,
    "everyone":3,
    "box":3,
    "cartels":3,
    "symbol":3,
    "ideas":3,
    "told":3,
    "yearold":3,
    "drink":3,
    "special":3,
    "safe":3,
    "hows":3,
    "taken":3,
    "dumpster":3,
    "step":3,
    "become":3,
    "disease":3,
    "thanks":3,
    "witness":3,
    "seen":3,
    "called":3,
    "feed":3,
    "breakfast":3,
    "brand":3,
    "continue":4,
    "farm":4,
    "working":4,
    "whose":4,
    "truth":4,
    "show":4,
    "court":4,
    "point":4,
    "hands":4,
    "behind":4,
    "head":4,
    "rodriguez":4,
    "manolo":4,
    "face":4,
    "many":4,
    "city":4,
    "agent":4,
    "yet":4,
    "death":4,
    "seth":4,
    "wanna":4,
    "try":4,
    "national":4,
    "control":4,
    "policy":4,
    "scared":4,
    "customs":4,
    "defense":4,
    "youll":4,
    "each":4,
    "prepared":4,
    "smart":4,
    "four":4,
    "minute":4,
    "sir":4,
    "promise":4,
    "letter":4,
    "worked":4,
    "front":4,
    "send":4,
    "along":4,
    "phone":4,
    "heroin":4,
    "daddy":4,
    "illegal":4,
    "black":4,
    "traffickers":4,
    "raise":4,
    "number":4,
    "wakefield":4,
    "partner":4,
    "guess":4,
    "shoot":4,
    "dead":4,
    "none":4,
    "dad":4,
    "afraid":4,
    "exactly":4,
    "went":4,
    "after":4,
    "already":4,
    "course":4,
    "family":4,
    "child":4,
    "birthday":4,
    "days":4,
    "montel":4,
    "play":4,
    "tigrillo":4,
    "hurry":4,
    "turn":4,
    "brothers":4,
    "lose":4,
    "left":4,
    "least":4,
    "edge":4,
    "field":4,
    "anna":4,
    "night":4,
    "rock":4,
    "whole":4,
    "miami":4,
    "alive":4,
    "saw":4,
    "door":4,
    "possible":4,
    "perhaps":4,
    "maam":4,
    "using":5,
    "private":5,
    "client":5,
    "name":5,
    "sit":5,
    "arent":5,
    "use":5,
    "marijuana":5,
    "done":5,
    "lets":5,
    "javi":5,
    "watch":5,
    "wasnt":5,
    "bullshit":5,
    "together":5,
    "said":5,
    "waiting":5,
    "enough":5,
    "attention":5,
    "soon":5,
    "father":5,
    "press":5,
    "having":5,
    "news":5,
    "remember":5,
    "nice":5,
    "sometimes":5,
    "found":5,
    "difference":5,
    "second":5,
    "old":5,
    "somewhere":5,
    "telephone":5,
    "anyway":5,
    "walk":5,
    "week":5,
    "god":5,
    "imagine":5,
    "hasnt":5,
    "largest":5,
    "trying":5,
    "narcotics":5,
    "adler":5,
    "move":5,
    "making":5,
    "search":5,
    "five":5,
    "died":5,
    "ago":5,
    "crazy":5,
    "makes":5,
    "tomorrow":5,
    "thinking":5,
    "worried":5,
    "die":5,
    "met":5,
    "juan":5,
    "honor":5,
    "came":5,
    "worry":5,
    "best":6,
    "united":6,
    "state":6,
    "again":6,
    "understand":6,
    "mistake":6,
    "javier":6,
    "care":6,
    "weve":6,
    "able":6,
    "question":6,
    "general":6,
    "high":6,
    "speak":6,
    "power":6,
    "idea":6,
    "person":6,
    "wrong":6,
    "excuse":6,
    "fine":6,
    "made":6,
    "tried":6,
    "word":6,
    "another":6,
    "true":6,
    "telling":6,
    "completely":6,
    "year":6,
    "last":6,
    "states":6,
    "deal":6,
    "hi":6,
    "force":6,
    "honey":6,
    "always":6,
    "doctor":6,
    "around":6,
    "difficult":6,
    "kid":6,
    "treatment":6,
    "million":6,
    "men":6,
    "things":6,
    "border":6,
    "thought":6,
    "while":6,
    "bad":7,
    "property":7,
    "may":7,
    "next":7,
    "friends":7,
    "stuff":7,
    "under":7,
    "bring":7,
    "eduardo":7,
    "ruiz":7,
    "hand":7,
    "anyone":7,
    "office":7,
    "sure":7,
    "most":7,
    "important":7,
    "seems":7,
    "stupid":7,
    "listen":7,
    "those":7,
    "friend":7,
    "francisco":7,
    "same":7,
    "america":7,
    "takes":7,
    "enforcement":7,
    "world":7,
    "kids":7,
    "president":7,
    "mexican":7,
    "thousand":7,
    "hope":7,
    "hello":7,
    "mrs":7,
    "diego":7,
    "six":7,
    "wife":7,
    "before":8,
    "czar":8,
    "read":8,
    "keep":8,
    "hear":8,
    "stop":8,
    "until":8,
    "also":8,
    "probably":8,
    "everybody":8,
    "situation":8,
    "hell":8,
    "cocaine":8,
    "robert":8,
    "real":8,
    "still":8,
    "knows":8,
    "long":8,
    "juarez":8,
    "san":8,
    "white":8,
    "great":8,
    "months":8,
    "information":8,
    "hundred":8,
    "against":8,
    "government":9,
    "mr":9,
    "somebody":9,
    "being":9,
    "else":9,
    "must":9,
    "youve":9,
    "nothing":9,
    "better":9,
    "pay":9,
    "open":9,
    "love":9,
    "call":9,
    "isnt":9,
    "supposed":9,
    "big":9,
    "pretty":9,
    "coke":9,
    "david":9,
    "school":9,
    "caroline":9,
    "obregon":9,
    "daughter":9,
    "sorry":10,
    "law":10,
    "am":10,
    "put":10,
    "job":10,
    "stay":10,
    "looking":10,
    "nobody":10,
    "guy":10,
    "own":10,
    "someone":10,
    "dea":10,
    "today":10,
    "wouldnt":10,
    "coming":10,
    "different":10,
    "does":10,
    "children":10,
    "gone":10,
    "side":10,
    "dollars":11,
    "country":11,
    "find":11,
    "feel":11,
    "ever":11,
    "shit":11,
    "hey":11,
    "wont":11,
    "give":11,
    "place":11,
    "house":11,
    "please":11,
    "parents":11,
    "oh":11,
    "madrigal":11,
    "than":12,
    "new":12,
    "salazar":12,
    "yeah":12,
    "never":12,
    "thank":12,
    "let":12,
    "doesnt":12,
    "talking":12,
    "helena":12,
    "lot":13,
    "maybe":13,
    "years":13,
    "kind":13,
    "business":13,
    "killed":13,
    "ayala":13,
    "cartel":13,
    "life":13,
    "theres":14,
    "problem":14,
    "whats":14,
    "away":14,
    "even":14,
    "everything":14,
    "believe":14,
    "husband":14,
    "off":14,
    "other":15,
    "way":15,
    "ask":15,
    "talk":15,
    "arnie":15,
    "didnt":16,
    "did":16,
    "car":16,
    "doing":16,
    "fucking":16,
    "thing":16,
    "over":16,
    "back":16,
    "work":16,
    "could":16,
    "say":16,
    "shes":16,
    "home":16,
    "tijuana":16,
    "their":17,
    "too":17,
    "much":17,
    "three":17,
    "look":17,
    "should":17,
    "yes":17,
    "little":17,
    "getting":17,
    "by":18,
    "police":18,
    "which":18,
    "only":18,
    "theyre":18,
    "ill":18,
    "war":18,
    "drugs":18,
    "money":18,
    "these":19,
    "go":19,
    "gonna":19,
    "down":19,
    "anything":19,
    "any":19,
    "need":19,
    "first":20,
    "through":20,
    "every":20,
    "ive":20,
    "because":20,
    "something":21,
    "had":21,
    "well":21,
    "take":21,
    "help":21,
    "fuck":21,
    "drug":22,
    "make":22,
    "okay":22,
    "more":22,
    "two":22,
    "mexico":22,
    "why":22,
    "day":23,
    "man":23,
    "really":23,
    "cant":23,
    "where":24,
    "time":24,
    "very":24,
    "mean":25,
    "carl":25,
    "would":26,
    "see":26,
    "hes":27,
    "some":28,
    "come":28,
    "when":29,
    "just":29,
    "him":29,
    "good":30,
    "been":30,
    "now":31,
    "there":32,
    "got":32,
    "her":32,
    "has":33,
    "she":33,
    "into":33,
    "then":33,
    "tell":33,
    "his":34,
    "or":34,
    "as":35,
    "an":36,
    "no":36,
    "one":36,
    "them":37,
    "us":37,
    "up":38,
    "were":38,
    "right":38,
    "think":40,
    "here":40,
    "thats":40,
    "going":42,
    "how":43,
    "at":44,
    "from":44,
    "people":46,
    "our":46,
    "if":46,
    "can":47,
    "who":48,
    "will":48,
    "they":52,
    "out":54,
    "was":55,
    "so":55,
    "all":57,
    "youre":63,
    "but":65,
    "with":68,
    "get":68,
    "about":69,
    "want":71,
    "are":71,
    "be":72,
    "like":77,
    "he":78,
    "":79,
    "know":80,
    "its":85,
    "my":90,
    "do":95,
    "not":98,
    "dont":103,
    "on":104,
    "your":105,
    "im":106,
    "me":108,
    "have":111,
    "for":112,
    "what":116,
    "we":127,
    "that":133,
    "this":152,
    "in":158,
    "it":160,
    "is":186,
    "of":209,
    "and":218,
    "a":322,
    "to":327,
    "i":369,
    "you":414,
    "the":457
}