{
    "career":1,
    "machines":1,
    "cars":1,
    "players":1,
    "openers":1,
    "fixed":1,
    "interest":1,
    "repayments":1,
    "wear":1,
    "matching":1,
    "hire":1,
    "purchase":1,
    "range":1,
    "fabrics":1,
    "wondering":1,
    "sunday":1,
    "couch":1,
    "mindnumbing":1,
    "sprit":1,
    "crushing":1,
    "rotting":1,
    "pishing":1,
    "embarrassment":1,
    "selfish":1,
    "fuckedup":1,
    "brats":1,
    "spawned":1,
    "replace":1,
    "goldfingers":1,
    "dr":1,
    "diamonds":1,
    "forever":1,
    "judgement":1,
    "reflected":1,
    "relative":1,
    "box":1,
    "office":1,
    "field":1,
    "thunderball":1,
    "notable":1,
    "success":1,
    "death":1,
    "ignored":1,
    "forget":1,
    "shooting":1,
    "orgasm":1,
    "multiply":1,
    "scoring":1,
    "suddenly":1,
    "obliged":1,
    "pished":1,
    "ride":1,
    "hassle":1,
    "bills":1,
    "team":1,
    "wins":1,
    "relationships":1,
    "sincere":1,
    "truthful":1,
    "muscular":1,
    "actor":1,
    "presence":1,
    "cooper":1,
    "lancaster":1,
    "combined":1,
    "sly":1,
    "wit":1,
    "formidable":1,
    "romantic":1,
    "closer":1,
    "cary":1,
    "grant":1,
    "principal":1,
    "endure":1,
    "poison":1,
    "chemicals":1,
    "poisoning":1,
    "blown":1,
    "filth":1,
    "buying":1,
    "cooker":1,
    "uttered":1,
    "magic":1,
    "method":1,
    "worked":1,
    "lacking":1,
    "moral":1,
    "fibre":1,
    "sean":1,
    "connery":1,
    "substitute":1,
    "account":1,
    "length":1,
    "relinquishing":1,
    "stage":1,
    "preparation":1,
    "mattress":1,
    "tomato":1,
    "mushroom":1,
    "eight":1,
    "consumption":1,
    "cold":1,
    "ice":1,
    "cream":1,
    "vanilla":1,
    "large":1,
    "tub":1,
    "magnesia":1,
    "milk":1,
    "paracetamol":1,
    "vitamins":1,
    "mineral":1,
    "water":1,
    "lucozade":1,
    "pornography":1,
    "bucket":1,
    "urine":1,
    "feces":1,
    "vomitus":1,
    "valium":1,
    "procured":1,
    "domestic":1,
    "socially":1,
    "acceptable":1,
    "also":1,
    "addict":1,
    "typical":1,
    "ideal":1,
    "purpose":1,
    "slow":1,
    "release":1,
    "gradually":1,
    "custom":1,
    "designed":1,
    "needs":1,
    "makes":1,
    "fading":1,
    "melt":1,
    "longer":1,
    "fantasize":1,
    "massive":1,
    "pristine":1,
    "convenience":1,
    "brilliant":1,
    "gold":1,
    "taps":1,
    "virginal":1,
    "marble":1,
    "seat":1,
    "carved":1,
    "ebony":1,
    "cistern":1,
    "chanel":1,
    "5":1,
    "flunky":1,
    "handing":1,
    "pieces":1,
    "raw":1,
    "silk":1,
    "roll":1,
    "circumstances":1,
    "anywhere":1,
    "ready":1,
    "twice":1,
    "nineteensixtyseven":1,
    "minutes":1,
    "director":1,
    "lewis":1,
    "gilbert":1,
    "screenwriter":1,
    "ian":1,
    "fleming":1,
    "healthier":1,
    "radiant":1,
    "wondered":1,
    "youd":1,
    "afternoon":1,
    "setup":1,
    "side":1,
    "consciousness":1,
    "awful":1,
    "reminded":1,
    "bear":1,
    "instance":1,
    "annoy":1,
    "show":1,
    "easily":1,
    "thereby":1,
    "downgrading":1,
    "struggle":1,
    "sneaky":1,
    "fucker":1,
    "lie":1,
    "along":1,
    "insisted":1,
    "unifying":1,
    "phenomenon":1,
    "george":1,
    "example":1,
    "bowie":1,
    "lou":1,
    "reed":1,
    "solo":1,
    "stuffs":1,
    "heart":1,
    "although":1,
    "charlie":1,
    "nicholas":1,
    "niven":1,
    "malcolm":1,
    "mclaren":1,
    "elvis":1,
    "presley":1,
    "rose":1,
    "blip":1,
    "uninterrupted":1,
    "downward":1,
    "trajectory":1,
    "untouchables":1,
    "rate":1,
    "academy":1,
    "award":1,
    "sympathy":1,
    "vote":1,
    "hack":1,
    "illustrated":1,
    "gun":1,
    "beast":1,
    "sights":1,
    "moneypenny":1,
    "present":1,
    "significant":1,
    "vegetarian":1,
    "evil":1,
    "attempted":1,
    "useful":1,
    "fulfilling":1,
    "citizen":1,
    "luck":1,
    "cheers":1,
    "hint":1,
    "theyll":1,
    "dss":1,
    "giro":1,
    "tend":1,
    "clam":1,
    "dumb":1,
    "nerves":1,
    "occasion":1,
    "footballer":1,
    "halcyon":1,
    "fondness":1,
    "affection":1,
    "debating":1,
    "eleven":1,
    "willow":1,
    "leather":1,
    "guiding":1,
    "light":1,
    "dark":1,
    "hostile":1,
    "sniff":1,
    "swallow":1,
    "inject":1,
    "combat":1,
    "count":1,
    "social":1,
    "security":1,
    "regular":1,
    "craignewton":1,
    "worried":1,
    "royal":1,
    "college":1,
    "schools":1,
    "across":1,
    "general":1,
    "many":1,
    "o":1,
    "grades":1,
    "foot":1,
    "initiative":1,
    "governor":1,
    "dude":1,
    "chair":1,
    "word":1,
    "peoples":1,
    "main":1,
    "strengths":1,
    "loves":1,
    "sudden":1,
    "gubbed":1,
    "leaving":1,
    "aside":1,
    "admit":1,
    "perfectionist":1,
    "feeling":1,
    "pretty":1,
    "touched":1,
    "subjects":1,
    "proper":1,
    "fear":1,
    "compadre":1,
    "picture":1,
    "problems":1,
    "paul":1,
    "newman":1,
    "tanning":1,
    "deciding":1,
    "tournament":1,
    "corner":1,
    "biscuit":1,
    "arsed":1,
    "fancied":1,
    "kicks":1,
    "square":1,
    "swedge":1,
    "squared":1,
    "shites":1,
    "puts":1,
    "turns":1,
    "version":1,
    "major":1,
    "cheated":1,
    "gash":1,
    "hangover":1,
    "humour":1,
    "hump":1,
    "manage":1,
    "salvage":1,
    "pride":1,
    "pressure":1,
    "picks":1,
    "specky":1,
    "gadge":1,
    "bar":1,
    "accuses":1,
    "putting":1,
    "hasnt":1,
    "glanced":1,
    "direction":1,
    "mouse":1,
    "gubs":1,
    "chib":1,
    "beggar":1,
    "borrow":1,
    "involved":1,
    "sensory":1,
    "nobody":1,
    "move":1,
    "glassed":1,
    "leaves":1,
    "sat":1,
    "intimate":1,
    "personal":1,
    "stolen":1,
    "earlier":1,
    "realized":1,
    "joy":1,
    "start":1,
    "physical":1,
    "basis":1,
    "principally":1,
    "defined":1,
    "watermelons":1,
    "interesting":1,
    "suffer":1,
    "fun":1,
    "deny":1,
    "forgot":1,
    "theses":1,
    "behind":1,
    "finds":1,
    "ballistic":1,
    "radge":1,
    "decide":1,
    "paid":1,
    "shopping":1,
    "nearby":1,
    "apart":1,
    "becoming":1,
    "haste":1,
    "successful":1,
    "sphere":1,
    "segregated":1,
    "failures":1,
    "robbed":1,
    "drive":1,
    "vengeance":1,
    "impotence":1,
    "faded":1,
    "memory":1,
    "grim":1,
    "sexcrazed":1,
    "libido":1,
    "fuelled":1,
    "alcohol":1,
    "amphetamine":1,
    "taunted":1,
    "remorselessly":1,
    "unsatisfied":1,
    "desire":1,
    "dot":1,
    "fallen":1,
    "harass":1,
    "impressed":1,
    "capable":1,
    "stylish":1,
    "dealt":1,
    "special":1,
    "promising":1,
    "works":1,
    "let":1,
    "tried":1,
    "normally":1,
    "sensitive":1,
    "type":1,
    "prepared":1,
    "inner":1,
    "witty":1,
    "adventurous":1,
    "passionate":1,
    "loving":1,
    "loyal":1,
    "crazy":1,
    "tongue":1,
    "left":1,
    "ssshh":1,
    "bastards":1,
    "screwing":1,
    "archie":1,
    "gemmill":1,
    "scored":1,
    "against":1,
    "holland":1,
    "1978":1,
    "argument":1,
    "noise":1,
    "shop":1,
    "store":1,
    "jerking":1,
    "dianes":1,
    "breakfast":1,
    "slept":1,
    "afraid":1,
    "slight":1,
    "accident":1,
    "loose":1,
    "tied":1,
    "honestly":1,
    "flush":1,
    "stopped":1,
    "darkened":1,
    "videos":1,
    "smoking":1,
    "dope":1,
    "wanking":1,
    "waiting":1,
    "outdoors":1,
    "lowest":1,
    "scum":1,
    "earth":1,
    "wretched":1,
    "servile":1,
    "pathetic":1,
    "trash":1,
    "shat":1,
    "civilization":1,
    "english":1,
    "hand":1,
    "pick":1,
    "decent":1,
    "culture":1,
    "ruled":1,
    "effete":1,
    "arseholes":1,
    "affairs":1,
    "difference":1,
    "democratic":1,
    "possible":1,
    "twelve":1,
    "option":1,
    "fulltime":1,
    "ursula":1,
    "andress":1,
    "quintessential":1,
    "bond":1,
    "embodiment":1,
    "superiority":1,
    "exotic":1,
    "unavailable":1,
    "lizzys":1,
    "dumped":1,
    "honor":1,
    "blackman":1,
    "aka":1,
    "pussy":1,
    "galore":1,
    "total":1,
    "misnomer":1,
    "col":1,
    "kreb":1,
    "woman":1,
    "counts":1,
    "heroins":1,
    "taught":1,
    "adore":1,
    "national":1,
    "service":1,
    "source":1,
    "prescriptions":1,
    "swapped":1,
    "forged":1,
    "photocopied":1,
    "traded":1,
    "victims":1,
    "alcoholics":1,
    "pensioners":1,
    "aids":1,
    "patients":1,
    "epileptics":1,
    "bored":1,
    "housewives":1,
    "morphine":1,
    "diamorphine":1,
    "cyclozine":1,
    "codeine":1,
    "temazepam":1,
    "nitrezepam":1,
    "phenobarbitone":1,
    "sodium":1,
    "amytal":1,
    "dextropropoxyphene":1,
    "nalbuphine":1,
    "pethidine":1,
    "pentazocine":1,
    "buprenorphine":1,
    "dextromoramide":1,
    "chlormethiazole":1,
    "awash":1,
    "unhappiness":1,
    "injected":1,
    "vitamin":1,
    "c":1,
    "fr":1,
    "registered":1,
    "speak":1,
    "further":1,
    "contrary":1,
    "reaches":1,
    "dawn":1,
    "spuds":1,
    "sympathetic":1,
    "cooking":1,
    "silence":1,
    "cook":1,
    "cooked":1,
    "seemed":1,
    "lady":1,
    "support":1,
    "grow":1,
    "trees":1,
    "nor":1,
    "response":1,
    "pile":1,
    "heap":1,
    "spoon":1,
    "dissolve":1,
    "drop":1,
    "bile":1,
    "squirt":1,
    "stinking":1,
    "purulent":1,
    "vein":1,
    "robbing":1,
    "stealing":1,
    "propelling":1,
    "longing":1,
    "towards":1,
    "opening":1,
    "nearly":1,
    "screeches":1,
    "halt":1,
    "crosses":1,
    "stash":1,
    "rob":1,
    "detectives":1,
    "past":1,
    "theft":1,
    "entity":1,
    "victimless":1,
    "actions":1,
    "habitual":1,
    "devoid":1,
    "remorse":1,
    "sentencing":1,
    "months":1,
    "imprisonment":1,
    "entered":1,
    "rehabilation":1,
    "attempt":1,
    "wean":1,
    "suspension":1,
    "conditional":1,
    "continued":1,
    "cooperation":1,
    "shall":1,
    "hesitate":1,
    "impose":1,
    "custodial":1,
    "honour":1,
    "gods":1,
    "conquer":1,
    "affliction":1,
    "phrase":1,
    "learned":1,
    "lesson":1,
    "act":1,
    "sunshine":1,
    "needle":1,
    "pulled":1,
    "clever":1,
    "result":1,
    "socalled":1,
    "alone":1,
    "puff":1,
    "remand":1,
    "statesponsored":1,
    "sickly":1,
    "sweet":1,
    "doses":1,
    "eighteen":1,
    "till":1,
    "layer":1,
    "frost":1,
    "menu":1,
    "evening":1,
    "favourite":1,
    "dish":1,
    "bill":1,
    "advance":1,
    "tab":1,
    "inform":1,
    "credit":1,
    "limit":1,
    "reached":1,
    "breached":1,
    "ago":1,
    "currency":1,
    "thatll":1,
    "nicely":1,
    "proceed":1,
    "directly":1,
    "intravenous":1,
    "injection":1,
    "wish":1,
    "perhaps":1,
    "taxi":1,
    "limbo":1,
    "tired":1,
    "awake":1,
    "chills":1,
    "nausea":1,
    "craving":1,
    "beat":1,
    "clinic":1,
    "clinics":1,
    "lied":1,
    "tempazepam":1,
    "break":1,
    "eye":1,
    "appreciate":1,
    "ease":1,
    "system":1,
    "green":1,
    "red":1,
    "mugs":1,
    "blameless":1,
    "far":1,
    "nonsense":1,
    "spoken":1,
    "counsellors":1,
    "therere":1,
    "immunodeficiency":1,
    "hiv":1,
    "binds":1,
    "host":1,
    "lymphocyte":1,
    "markmark":1,
    "goodnesss":1,
    "however":1,
    "luckiest":1,
    "several":1,
    "middle":1,
    "epidemic":1,
    "negative":1,
    "official":1,
    "battle":1,
    "depression":1,
    "boredom":1,
    "following":1,
    "neither":1,
    "sub":1,
    "expecting":1,
    "cheque":1,
    "blood":1,
    "surprise":1,
    "papah":1,
    "plans":1,
    "straightened":1,
    "thailand":1,
    "king":1,
    "skin":1,
    "crisp":1,
    "tenners":1,
    "pocket":1,
    "strategy":1,
    "mobile":1,
    "rising":1,
    "posse":1,
    "oriental":1,
    "buttocks":1,
    "parked":1,
    "coupon":1,
    "send":1,
    "postcard":1,
    "eughh":1,
    "horrible":1,
    "lick":1,
    "stitch":1,
    "between":1,
    "jerked":1,
    "stump":1,
    "fell":1,
    "thursday":1,
    "news":1,
    "gig":1,
    "addicts":1,
    "lassies":1,
    "feed":1,
    "punters":1,
    "line":1,
    "fiver":1,
    "skull":1,
    "fortune":1,
    "thinking":1,
    "coining":1,
    "less":1,
    "whores":1,
    "load":1,
    "fed":1,
    "losers":1,
    "nohopers":1,
    "draftpacks":1,
    "schemies":1,
    "promise":1,
    "hash":1,
    "smells":1,
    "younger":1,
    "dreaming":1,
    "ziggy":1,
    "toured":1,
    "per":1,
    "mainly":1,
    "miss":1,
    "boom":1,
    "fool":1,
    "cash":1,
    "chaos":1,
    "enjoyed":1,
    "sound":1,
    "loss":1,
    "margins":1,
    "takeovers":1,
    "lending":1,
    "letting":1,
    "subletting":1,
    "subdividing":1,
    "cheating":1,
    "scamming":1,
    "fragmenting":1,
    "breaking":1,
    "almost":1,
    "content":1,
    "dear":1,
    "glad":1,
    "pregnant":1,
    "asked":1,
    "sends":1,
    "regards":1,
    "connection":1,
    "jewellers":1,
    "corstorphine":1,
    "replica":1,
    "cos":1,
    "lee":1,
    "marvin":1,
    "cigarettes":1,
    "fugitive":1,
    "law":1,
    "lips":1,
    "kempton":1,
    "twothirty":1,
    "16":1,
    "1":1,
    "winnings":1,
    "celebrate":1,
    "changin":1,
    "men":1,
    "pity":1,
    "heterosexual":1,
    "default":1,
    "aesthetics":1,
    "morality":1,
    "buftie":1,
    "wonderful":1,
    "jokes":1,
    "joke":1,
    "saw":1,
    "reinvented":1,
    "pimp":1,
    "pusher":1,
    "setting":1,
    "constantly":1,
    "humpty":1,
    "hotel":1,
    "brother":1,
    "loads":1,
    "sideline":1,
    "british":1,
    "passports":1,
    "foreigners":1,
    "passport":1,
    "bedsit":1,
    "decided":1,
    "worst":1,
    "werent":1,
    "paying":1,
    "boss":1,
    "suckers":1,
    "threatened":1,
    "conversion":1,
    "quid":1,
    "reason":1,
    "fullblown":1,
    "pneumonia":1,
    "imagine":1,
    "neglected":1,
    "pissing":1,
    "shitting":1,
    "eyeballs":1,
    "downers":1,
    "headaches":1,
    "uses":1,
    "neighbours":1,
    "complained":1,
    "broke":1,
    "vomit":1,
    "australian":1,
    "junked":1,
    "aussie":1,
    "soaps":1,
    "telly":1,
    "australia":1,
    "tells":1,
    "drunk":1,
    "docks":1,
    "sale":1,
    "wakes":1,
    "realizes":1,
    "nervous":1,
    "wants":1,
    "offered":1,
    "reasonable":1,
    "intention":1,
    "funeral":1,
    "short":1,
    "saving":1,
    "statement":1,
    "thirty":1,
    "simple":1,
    "punts":1,
    "sixty":1,
    "mouths":1,
    "besides":1,
    "afterwards":1,
    "boyfriend":1,
    "thirteen":1,
    "fourteen":1,
    "month":1,
    "torch":1,
    "possibilities":1,
    "talk":1,
    "ideas":1,
    "lucky":1,
    "trust":1,
    "careful":1,
    "rolled":1,
    "sleeve":1,
    "promised":1,
    "piss":1,
    "terminal":1,
    "transit":1,
    "points":1,
    "travel":1,
    "journey":1,
    "dodgiest":1,
    "scam":1,
    "dodgie":1,
    "perpetrated":1,
    "unreliable":1,
    "fuckups":1,
    "dump":1,
    "immediately":1,
    "bagful":1,
    "saughton":1,
    "late":1,
    "clocked":1,
    "smalltime":1,
    "wasters":1,
    "accidental":1,
    "ninteen":1,
    "nineteen":1,
    "drag":1,
    "negotiate":1,
    "suitcase":1,
    "meant":1,
    "deep":1,
    "island":1,
    "palm":1,
    "tree":1,
    "rocks":1,
    "sewage":1,
    "outflow":1,
    "ma":1,
    "bicarb":1,
    "properly":1,
    "senseless":1,
    "daft":1,
    "drinks":1,
    "pish":1,
    "moneys":1,
    "catch":1,
    "flabby":1,
    "halfway":1,
    "kill":1,
    "front":1,
    "idiot":1,
    "sorrys":1,
    "dry":1,
    "cool":1,
    "fat":1,
    "pint":1,
    "shouldnt":1,
    "stabbed":1,
    "rentboy":1,
    "cigarette":1,
    "bag":1,
    "justified":1,
    "ways":1,
    "minor":1,
    "betrayal":1,
    "outgrown":1,
    "each":1,
    "ripped":1,
    "hurt":1,
    "anybody":1,
    "million":1,
    "answers":1,
    "false":1,
    "person":1,
    "cleaning":1,
    "moving":1,
    "choosing":1,
    "forward":1,
    "opener":1,
    "leisurewear":1,
    "threepiece":1,
    "children":1,
    "nine":1,
    "golf":1,
    "choice":1,
    "sweaters":1,
    "christmas":1,
    "indexed":1,
    "pension":1,
    "tax":1,
    "exemption":1,
    "clearing":1,
    "gutters":1,
    "die":1,
    "compact":2,
    "disc":2,
    "electrical":2,
    "tin":2,
    "cholesterol":2,
    "dental":2,
    "insurance":2,
    "mortgage":2,
    "starter":2,
    "leisure":2,
    "luggage":2,
    "piece":2,
    "suite":2,
    "diy":2,
    "shows":2,
    "stuffing":2,
    "future":2,
    "chose":2,
    "both":2,
    "showing":2,
    "desperation":2,
    "otherwise":2,
    "drinking":2,
    "bird":2,
    "football":2,
    "sense":2,
    "lead":2,
    "respect":2,
    "drawback":2,
    "manner":2,
    "cunts":2,
    "body":2,
    "waste":2,
    "veins":2,
    "fancy":2,
    "words":2,
    "finished":2,
    "superior":2,
    "work":2,
    "soup":2,
    "ten":2,
    "tins":2,
    "bottle":2,
    "wash":2,
    "drug":2,
    "under":2,
    "run":2,
    "opium":2,
    "suppositories":2,
    "theyve":2,
    "arse":2,
    "constipated":2,
    "white":2,
    "full":2,
    "toilet":2,
    "settle":2,
    "running":2,
    "tomorrow":2,
    "usual":2,
    "roald":2,
    "dahl":2,
    "coming":2,
    "mix":2,
    "state":2,
    "came":2,
    "david":2,
    "kind":2,
    "name":2,
    "despite":2,
    "means":2,
    "give":2,
    "tightrope":2,
    "questions":2,
    "dab":2,
    "speed":2,
    "indeed":2,
    "society":2,
    "soft":2,
    "motto":2,
    "often":2,
    "standing":2,
    "smoke":2,
    "stick":2,
    "unless":2,
    "scams":2,
    "shoplifting":2,
    "havent":2,
    "idea":2,
    "rather":2,
    "details":2,
    "hung":2,
    "school":2,
    "whatever":2,
    "obviously":2,
    "usually":2,
    "though":2,
    "isnt":2,
    "homeless":2,
    "sometimes":2,
    "score":2,
    "having":2,
    "laugh":2,
    "weaknesses":2,
    "badly":2,
    "bothered":2,
    "interview":2,
    "seems":2,
    "weve":2,
    "proud":2,
    "fucked":2,
    "scene":2,
    "wednesday":2,
    "volley":2,
    "giving":2,
    "lifetime":2,
    "anyway":2,
    "himself":2,
    "casual":2,
    "drink":2,
    "begbies":2,
    "story":2,
    "absolutely":2,
    "table":2,
    "finally":2,
    "win":2,
    "kick":2,
    "wee":2,
    "stand":2,
    "highly":2,
    "missing":2,
    "hows":2,
    "relationship":2,
    "read":2,
    "cosmopolitan":2,
    "balls":2,
    "desperate":2,
    "birthday":2,
    "happened":2,
    "motherfucker":2,
    "fair":2,
    "situation":2,
    "noticed":2,
    "sexual":2,
    "others":2,
    "themselves":2,
    "post":2,
    "excuse":2,
    "shes":2,
    "wheres":2,
    "approach":2,
    "pal":2,
    "wake":2,
    "tape":2,
    "ourselves":2,
    "sofa":2,
    "itll":2,
    "mistake":2,
    "flatmates":2,
    "houston":2,
    "sheets":2,
    "machine":2,
    "holding":2,
    "case":2,
    "theyd":2,
    "calm":2,
    "junkies":2,
    "whole":2,
    "plenty":2,
    "walk":2,
    "fresh":2,
    "air":2,
    "scottish":2,
    "hate":2,
    "colonized":2,
    "healthy":2,
    "informed":2,
    "decision":2,
    "soon":2,
    "doss":2,
    "says":2,
    "beautiful":2,
    "shed":2,
    "ultimate":2,
    "yours":2,
    "sooner":2,
    "personality":2,
    "stole":2,
    "sold":2,
    "cancer":2,
    "age":2,
    "times":2,
    "couldnt":2,
    "screaming":2,
    "wished":2,
    "father":2,
    "died":2,
    "explain":2,
    "hello":2,
    "thief":2,
    "upon":2,
    "steal":2,
    "bound":2,
    "runs":2,
    "crime":2,
    "may":2,
    "regret":2,
    "meet":2,
    "sentence":2,
    "listen":2,
    "fault":2,
    "surrounded":2,
    "visit":2,
    "please":2,
    "call":2,
    "sickness":2,
    "known":2,
    "staying":2,
    "eyes":2,
    "turn":2,
    "few":2,
    "ask":2,
    "retrovirus":2,
    "cd4":2,
    "test":2,
    "top":2,
    "rent":2,
    "women":2,
    "treat":2,
    "dealing":2,
    "year":2,
    "sun":2,
    "teeth":2,
    "tommys":2,
    "leg":2,
    "tough":2,
    "hear":2,
    "asking":2,
    "smell":2,
    "music":2,
    "new":2,
    "converted":2,
    "victorian":2,
    "ideally":2,
    "located":2,
    "local":2,
    "shops":2,
    "transport":2,
    "decorative":2,
    "order":2,
    "space":2,
    "kept":2,
    "ages":2,
    "scandal":2,
    "eat":2,
    "wanting":2,
    "bet":2,
    "five":2,
    "therell":2,
    "rich":2,
    "punting":2,
    "sell":2,
    "rid":2,
    "place":2,
    "toxoplasmosis":2,
    "kitten":2,
    "kilos":2,
    "pub":2,
    "russian":2,
    "sailors":2,
    "carrying":2,
    "worth":2,
    "their":2,
    "everyones":2,
    "steady":2,
    "station":2,
    "fifteen":2,
    "brought":2,
    "boring":2,
    "followed":2,
    "offer":2,
    "everybody":2,
    "wed":2,
    "health":3,
    "food":3,
    "end":3,
    "miserable":3,
    "reasons":3,
    "poor":3,
    "misery":3,
    "stupid":3,
    "nowhere":3,
    "sorts":3,
    "human":3,
    "habit":3,
    "someone":3,
    "stuff":3,
    "looks":3,
    "set":3,
    "heard":3,
    "surely":3,
    "always":3,
    "knows":3,
    "hardly":3,
    "lies":3,
    "ahead":3,
    "room":3,
    "leave":3,
    "forrester":3,
    "normal":3,
    "stuck":3,
    "eh":3,
    "wrote":3,
    "walks":3,
    "lose":3,
    "lost":3,
    "merely":3,
    "old":3,
    "beautifully":3,
    "clear":3,
    "mention":3,
    "edinburgh":3,
    "door":3,
    "hope":3,
    "beggars":3,
    "francis":3,
    "mates":3,
    "murphy":3,
    "mine":3,
    "anything":3,
    "comes":3,
    "ball":3,
    "black":3,
    "starts":3,
    "cue":3,
    "gets":3,
    "couple":3,
    "later":3,
    "true":3,
    "pot":3,
    "fucks":3,
    "believe":3,
    "quiet":3,
    "psycho":3,
    "watch":3,
    "girl":3,
    "until":3,
    "hours":3,
    "gail":3,
    "bought":3,
    "guess":3,
    "fact":3,
    "girls":3,
    "cat":3,
    "sleep":3,
    "living":3,
    "jesus":3,
    "somewhere":3,
    "punter":3,
    "god":3,
    "sit":3,
    "mrs":3,
    "illegal":3,
    "hands":3,
    "jail":3,
    "police":3,
    "change":3,
    "saying":3,
    "lizzy":3,
    "doesnt":3,
    "most":3,
    "wankers":3,
    "business":3,
    "adult":3,
    "keeps":3,
    "methadone":3,
    "streets":3,
    "aye":3,
    "hadnt":3,
    "everything":3,
    "boys":3,
    "car":3,
    "straight":3,
    "programme":3,
    "guilty":3,
    "thank":3,
    "bastard":3,
    "sweat":3,
    "excellent":3,
    "stay":3,
    "found":3,
    "number":3,
    "virus":3,
    "correct":3,
    "receptor":3,
    "sake":3,
    "real":3,
    "contacts":3,
    "punt":3,
    "profit":3,
    "bedrooms":3,
    "kitchendiner":3,
    "fully":3,
    "fitted":3,
    "lots":3,
    "storage":3,
    "mod":3,
    "cons":3,
    "settled":3,
    "hed":3,
    "stroke":3,
    "hospital":3,
    "round":3,
    "grand":3,
    "caught":3,
    "hits":3,
    "family":4,
    "washing":4,
    "low":4,
    "sitting":4,
    "mouth":4,
    "else":4,
    "chance":4,
    "those":4,
    "serious":4,
    "through":4,
    "night":4,
    "called":4,
    "mother":4,
    "mikey":4,
    "help":4,
    "live":4,
    "sixteen":4,
    "care":4,
    "park":4,
    "same":4,
    "once":4,
    "theory":4,
    "certainly":4,
    "either":4,
    "sounds":4,
    "actually":4,
    "point":4,
    "without":4,
    "remember":4,
    "trouble":4,
    "first":4,
    "exactly":4,
    "nightmare":4,
    "ticket":4,
    "very":4,
    "instead":4,
    "man":4,
    "talking":4,
    "mr":4,
    "thanks":4,
    "playing":4,
    "pool":4,
    "around":4,
    "hold":4,
    "touch":4,
    "head":4,
    "wrong":4,
    "happen":4,
    "young":4,
    "returned":4,
    "quite":4,
    "shut":4,
    "christ":4,
    "felt":4,
    "must":4,
    "fine":4,
    "being":4,
    "inside":4,
    "such":4,
    "nice":4,
    "made":4,
    "swanney":4,
    "gear":4,
    "allison":4,
    "worse":4,
    "swanneys":4,
    "keep":4,
    "road":4,
    "sort":4,
    "junky":4,
    "dead":4,
    "town":4,
    "armed":4,
    "robbery":4,
    "lying":4,
    "television":5,
    "friends":5,
    "near":5,
    "worry":5,
    "matter":5,
    "telling":5,
    "shot":5,
    "already":5,
    "own":5,
    "done":5,
    "yet":5,
    "hundred":5,
    "has":5,
    "wanted":5,
    "should":5,
    "answer":5,
    "important":5,
    "theyre":5,
    "together":5,
    "hey":5,
    "love":5,
    "goes":5,
    "face":5,
    "friend":5,
    "final":5,
    "video":5,
    "weeks":5,
    "shag":5,
    "useless":5,
    "iggy":5,
    "diane":5,
    "bit":5,
    "everyone":5,
    "cut":5,
    "happy":5,
    "easy":5,
    "smack":5,
    "price":5,
    "question":5,
    "pain":5,
    "baby":5,
    "seen":5,
    "son":5,
    "next":5,
    "sir":5,
    "met":5,
    "house":5,
    "shit":5,
    "london":5,
    "cards":5,
    "job":6,
    "watching":6,
    "course":6,
    "pleasure":6,
    "still":6,
    "youll":6,
    "id":6,
    "these":6,
    "bring":6,
    "said":6,
    "understand":6,
    "enough":6,
    "world":6,
    "truth":6,
    "addiction":6,
    "years":6,
    "six":6,
    "over":6,
    "took":6,
    "doing":6,
    "thought":6,
    "find":6,
    "pop":6,
    "since":6,
    "clean":6,
    "guy":6,
    "changing":6,
    "buy":6,
    "four":6,
    "game":7,
    "yourself":7,
    "wouldnt":7,
    "least":7,
    "other":7,
    "sure":7,
    "another":7,
    "her":7,
    "feel":7,
    "might":7,
    "am":7,
    "look":7,
    "try":7,
    "long":7,
    "went":7,
    "does":7,
    "anyone":7,
    "mind":7,
    "maybe":7,
    "tell":7,
    "guys":7,
    "lets":7,
    "week":7,
    "wasnt":7,
    "moment":7,
    "thing":7,
    "deal":7,
    "twenty":7,
    "pounds":7,
    "franco":7,
    "big":8,
    "home":8,
    "junk":8,
    "away":8,
    "best":8,
    "ever":8,
    "thousand":8,
    "money":8,
    "days":8,
    "while":8,
    "will":8,
    "gone":8,
    "trying":8,
    "drugs":8,
    "our":8,
    "sex":8,
    "theres":8,
    "skag":8,
    "morning":9,
    "into":9,
    "an":9,
    "they":9,
    "every":9,
    "make":9,
    "rents":9,
    "before":9,
    "knew":9,
    "renton":9,
    "mate":9,
    "more":10,
    "lot":10,
    "after":10,
    "things":10,
    "really":10,
    "even":10,
    "yeah":10,
    "looking":10,
    "because":10,
    "great":10,
    "problem":10,
    "hard":10,
    "little":10,
    "oh":10,
    "put":10,
    "day":10,
    "getting":10,
    "three":11,
    "nothing":11,
    "than":11,
    "heroin":11,
    "some":11,
    "ok":11,
    "how":11,
    "whats":11,
    "why":11,
    "which":12,
    "people":12,
    "shite":12,
    "cant":12,
    "bad":12,
    "hit":12,
    "again":12,
    "mean":12,
    "two":12,
    "who":13,
    "better":13,
    "only":13,
    "say":13,
    "way":13,
    "want":13,
    "any":13,
    "told":13,
    "life":14,
    "last":14,
    "sick":14,
    "cunt":14,
    "sorry":14,
    "yes":14,
    "did":14,
    "she":14,
    "need":15,
    "take":15,
    "much":15,
    "then":15,
    "begbie":15,
    "come":15,
    "spud":16,
    "too":16,
    "mark":16,
    "myself":16,
    "could":16,
    "where":16,
    "something":17,
    "youve":17,
    "here":17,
    "boy":17,
    "been":17,
    "us":17,
    "by":18,
    "never":18,
    "see":18,
    "ill":18,
    "didnt":18,
    "choose":19,
    "when":19,
    "think":19,
    "would":19,
    "hes":19,
    "back":19,
    "now":20,
    "tommy":20,
    "his":21,
    "down":21,
    "there":22,
    "were":22,
    "fuck":22,
    "from":23,
    "go":23,
    "can":24,
    "good":25,
    "off":25,
    "ive":25,
    "thats":25,
    "them":26,
    "time":26,
    "out":26,
    "if":26,
    "had":28,
    "dont":28,
    "youre":29,
    "or":29,
    "him":29,
    "know":29,
    "right":30,
    "as":32,
    "we":34,
    "about":35,
    "going":36,
    "your":37,
    "up":37,
    "just":37,
    "are":38,
    "be":38,
    "":38,
    "at":39,
    "got":39,
    "well":39,
    "have":40,
    "get":43,
    "so":47,
    "one":48,
    "this":49,
    "do":50,
    "with":51,
    "my":51,
    "like":52,
    "im":54,
    "not":57,
    "is":59,
    "me":60,
    "he":61,
    "on":65,
    "what":66,
    "fucking":69,
    "its":69,
    "all":71,
    "for":71,
    "was":73,
    "but":73,
    "no":74,
    "in":98,
    "that":99,
    "of":130,
    "it":159,
    "and":177,
    "i":197,
    "you":200,
    "to":200,
    "a":212,
    "the":262
}