{
    "gonna":1,
    "owe":1,
    "welcome":1,
    "stayed":1,
    "visit":1,
    "stacked":1,
    "luggage":1,
    "inspections":1,
    "rooms":1,
    "completed":1,
    "confirmed":1,
    "attends":1,
    "tegel":1,
    "shadowy":1,
    "brandenburg":1,
    "gate":1,
    "relax":1,
    "enjoying":1,
    "forced":1,
    "shortish":1,
    "tomboy":1,
    "cute":1,
    "smart":1,
    "layers":1,
    "connect":1,
    "wipers":1,
    "flipflap":1,
    "inquisitive":1,
    "americans":1,
    "morning":1,
    "asians":1,
    "missed":1,
    "realizes":1,
    "navigated":1,
    "construction":1,
    "backup":1,
    "dumb":1,
    "wilhelmstrasse":1,
    "marshall":1,
    "spree":1,
    "dial":1,
    "veering":1,
    "wildly":1,
    "directions":1,
    "boxed":1,
    "refrigerator":1,
    "tumbling":1,
    "truck":1,
    "clips":1,
    "skids":1,
    "crazily":1,
    "shredding":1,
    "rail":1,
    "plunges":1,
    "strangely":1,
    "serene":1,
    "intense":1,
    "vivid":1,
    "images":1,
    "playing":1,
    "ace":1,
    "taxis":1,
    "logo":1,
    "dash":1,
    "silent":1,
    "freefall":1,
    "timeless":1,
    "dreamlike":1,
    "flag":1,
    "gulps":1,
    "steering":1,
    "recede":1,
    "underneath":1,
    "limp":1,
    "drags":1,
    "bank":1,
    "wading":1,
    "land":1,
    "sirens":1,
    "laying":1,
    "concrete":1,
    "everyones":1,
    "eases":1,
    "melts":1,
    "horde":1,
    "rip":1,
    "feeding":1,
    "throat":1,
    "defibrillator":1,
    "paddles":1,
    "whine":1,
    "defibrillators":1,
    "eyelid":1,
    "shines":1,
    "flashlight":1,
    "achtung":1,
    "whompf":1,
    "surges":1,
    "heaves":1,
    "slumping":1,
    "removed":1,
    "painting":1,
    "brush":1,
    "strokes":1,
    "faded":1,
    "pinhole":1,
    "consciousness":1,
    "cellphone":1,
    "straight":1,
    "hurries":1,
    "revolve":1,
    "sides":1,
    "beard":1,
    "sutured":1,
    "temple":1,
    "fluttering":1,
    "clipboard":1,
    "bed":1,
    "admission":1,
    "unbekannte":1,
    "maennliche":1,
    "subtitle":1,
    "wenn":1,
    "blinken":1,
    "zweimal":1,
    "tilt":1,
    "directly":1,
    "croak":1,
    "clearly":1,
    "waldfriede":1,
    "neurologist":1,
    "exchanges":1,
    "six":1,
    "thursday":1,
    "27th":1,
    "disappeared":1,
    "apologize":1,
    "wretchedly":1,
    "worried":1,
    "asks":1,
    "retrograde":1,
    "amnesia":1,
    "severe":1,
    "fractured":1,
    "recall":1,
    "events":1,
    "visiting":1,
    "belongings":1,
    "snow":1,
    "warmly":1,
    "lit":1,
    "crackles":1,
    "unwraps":1,
    "present":1,
    "anniversary":1,
    "understanding":1,
    "blue":1,
    "classic":1,
    "botanical":1,
    "reference":1,
    "handwritten":1,
    "discover":1,
    "worlds":1,
    "risk":1,
    "terrified":1,
    "band":1,
    "nausea":1,
    "dizziness":1,
    "difficulty":1,
    "immediately":1,
    "maid":1,
    "startled":1,
    "nodding":1,
    "pointing":1,
    "entpfang":1,
    "distracted":1,
    "passing":1,
    "elizabeth":1,
    "crophaired":1,
    "quietly":1,
    "gentleman":1,
    "buffet":1,
    "processing":1,
    "blankly":1,
    "mutters":1,
    "beckons":1,
    "accompany":1,
    "thread":1,
    "ignoring":1,
    "wine":1,
    "golden":1,
    "ivory":1,
    "skin":1,
    "madam":1,
    "beauty":1,
    "flash":1,
    "surprise":1,
    "suture":1,
    "embrace":1,
    "amused":1,
    "whispers":1,
    "angry":1,
    "misunderstanding":1,
    "engaged":1,
    "mid30s":1,
    "elegant":1,
    "groomed":1,
    "athletic":1,
    "conspicuously":1,
    "handsome":1,
    "chiselled":1,
    "looked":1,
    "tag":1,
    "pales":1,
    "strained":1,
    "signaling":1,
    "seem":1,
    "jabs":1,
    "elbows":1,
    "scuffle":1,
    "hauled":1,
    "anyones":1,
    "anchored":1,
    "slowing":1,
    "realtime":1,
    "plays":1,
    "immigration":1,
    "confirms":1,
    "arrival":1,
    "23rd":1,
    "1637":1,
    "hour":1,
    "later":1,
    "breathes":1,
    "chooses":1,
    "carefully":1,
    "impostor":1,
    "steal":1,
    "calms":1,
    "grip":1,
    "resurfacing":1,
    "dartmouth":1,
    "verify":1,
    "pad":1,
    "scribbles":1,
    "speaker":1,
    "tone":1,
    "recorded":1,
    "2350535":1,
    "recalling":1,
    "ones":1,
    "colleague":1,
    "6033894457":1,
    "dutifully":1,
    "jovial":1,
    "male":1,
    "disturb":1,
    "prize":1,
    "winning":1,
    "scientist":1,
    "simply":1,
    "attest":1,
    "crime":1,
    "committed":1,
    "entering":1,
    "country":1,
    "legally":1,
    "presenting":1,
    "documentation":1,
    "view":1,
    "dining":1,
    "twenty":1,
    "claiming":1,
    "monitor":1,
    "proof":1,
    "listens":1,
    "radio":1,
    "lawyer":1,
    "confers":1,
    "reappears":1,
    "drinking":1,
    "darts":1,
    "panicked":1,
    "decision":1,
    "interested":1,
    "remembering":1,
    "farges":1,
    "warned":1,
    "embarrassed":1,
    "saying":1,
    "thrusts":1,
    "bills":1,
    "issues":1,
    "demand":1,
    "crumpled":1,
    "ball":1,
    "gutter":1,
    "reisepaf3":1,
    "reisepal3":1,
    "hotelzimmer":1,
    "mildfaced":1,
    "shopping":1,
    "foreigners":1,
    "headphones":1,
    "ears":1,
    "tale":1,
    "seeping":1,
    "earbuds":1,
    "bored":1,
    "attendant":1,
    "college":1,
    "facebook":1,
    "dim":1,
    "marked":1,
    "manner":1,
    "bitch":1,
    "20000":1,
    "letting":1,
    "moonlight":1,
    "skipped":1,
    "depot":1,
    "managers":1,
    "hitlerian":1,
    "climax":1,
    "immigrants":1,
    "destroying":1,
    "society":1,
    "guessing":1,
    "paused":1,
    "wary":1,
    "obiko":1,
    "friends":1,
    "gauging":1,
    "reaction":1,
    "finishes":1,
    "drinks":1,
    "since":1,
    "counter":1,
    "followed":1,
    "attention":1,
    "scan":1,
    "link":1,
    "patience":1,
    "snapping":1,
    "expect":1,
    "driving":1,
    "permit":1,
    "cops":1,
    "throw":1,
    "deport":1,
    "fancy":1,
    "million":1,
    "m":1,
    "fantastic":1,
    "backs":1,
    "hitting":1,
    "bruise":1,
    "act":1,
    "jump":1,
    "causes":1,
    "square":1,
    "explaining":1,
    "boss":1,
    "companies":1,
    "explained":1,
    "guar":1,
    "easy":1,
    "local":1,
    "prove":1,
    "impatience":1,
    "sympathy":1,
    "suppresses":1,
    "affair":1,
    "europe":1,
    "documents":1,
    "supposed":1,
    "provide":1,
    "kidnappedmy":1,
    "exhales":1,
    "cuttint":1,
    "initials":1,
    "loose":1,
    "agency":1,
    "anymore":1,
    "side":1,
    "28th":1,
    "pm":1,
    "consults":1,
    "scheduled":1,
    "weeks":1,
    "corresponding":1,
    "discuss":1,
    "problem":1,
    "plan":1,
    "lp":1,
    "molekulare":1,
    "botanik":1,
    "305":1,
    "aboutturns":1,
    "nein":1,
    "eingang":1,
    "ist":1,
    "verboten":1,
    "named":1,
    "anthea":1,
    "wondered":1,
    "reproduce":1,
    "attract":1,
    "insects":1,
    "discussing":1,
    "puzzling":1,
    "wonders":1,
    "row":1,
    "harden":1,
    "indignant":1,
    "laboratory":1,
    "restricted":1,
    "absolutely":1,
    "hybridized":1,
    "harrises":1,
    "showed":1,
    "remove":1,
    "sonofabitch":1,
    "students":1,
    "word":1,
    "polizei":1,
    "surge":1,
    "straw":1,
    "grasp":1,
    "drakensis":1,
    "miss":1,
    "sample":1,
    "insect":1,
    "attracted":1,
    "ant":1,
    "males":1,
    "wings":1,
    "orchid":1,
    "reproduces":1,
    "pheromones":1,
    "lure":1,
    "trick":1,
    "alternative":1,
    "school":1,
    "teacher":1,
    "passion":1,
    "passed":1,
    "shifting":1,
    "icy":1,
    "clarity":1,
    "twins":1,
    "ten":1,
    "age":1,
    "sweat":1,
    "beading":1,
    "spoke":1,
    "brave":1,
    "wives":1,
    "scientists":1,
    "honeymoon":1,
    "snap":1,
    "whom":1,
    "loved":1,
    "upset":1,
    "officers":1,
    "wallet":1,
    "hampshire":1,
    "wallets":1,
    "sleeve":1,
    "flickering":1,
    "darkness":1,
    "blinding":1,
    "distorted":1,
    "bearded":1,
    "brought":1,
    "mistake":1,
    "blinks":1,
    "bleary":1,
    "talks":1,
    "briefly":1,
    "prepping":1,
    "explains":1,
    "complete":1,
    "partial":1,
    "stages":1,
    "recovery":1,
    "temporary":1,
    "term":1,
    "mri":1,
    "fighting":1,
    "alights":1,
    "branch":1,
    "jigsaw":1,
    "fit":1,
    "create":1,
    "major":1,
    "shattered":1,
    "brains":1,
    "ability":1,
    "recover":1,
    "remarkable":1,
    "narrative":1,
    "soul":1,
    "rebuilt":1,
    "cases":1,
    "flies":1,
    "comas":1,
    "perform":1,
    "alchemy":1,
    "awakes":1,
    "reality":1,
    "previously":1,
    "effect":1,
    "literature":1,
    "subject":1,
    "recoils":1,
    "intensity":1,
    "wins":1,
    "hurting":1,
    "fatalistic":1,
    "compute":1,
    "orderly":1,
    "polite":1,
    "nondescript":1,
    "ghostly":1,
    "disinterest":1,
    "raise":1,
    "murmur":1,
    "hefting":1,
    "facedown":1,
    "dangles":1,
    "mens":1,
    "shoes":1,
    "thick":1,
    "soled":1,
    "black":1,
    "linoleum":1,
    "tile":1,
    "stuffing":1,
    "tossing":1,
    "vision":1,
    "traces":1,
    "nurses":1,
    "white":1,
    "sneakers":1,
    "doorway":1,
    "strains":1,
    "yell":1,
    "eyeball":1,
    "instruction":1,
    "wiesbaden":1,
    "rustle":1,
    "concentrates":1,
    "hanging":1,
    "bars":1,
    "effort":1,
    "pinching":1,
    "closed":1,
    "informed":1,
    "exit":1,
    "saws":1,
    "forth":1,
    "using":1,
    "scissors":1,
    "straps":1,
    "bind":1,
    "success":1,
    "paws":1,
    "blanket":1,
    "weakly":1,
    "orient":1,
    "upright":1,
    "jello":1,
    "leg":1,
    "equipment":1,
    "trolley":1,
    "teeters":1,
    "crashes":1,
    "showering":1,
    "cascade":1,
    "instruments":1,
    "dressings":1,
    "shuffling":1,
    "gown":1,
    "showing":1,
    "bam":1,
    "wheeling":1,
    "patients":1,
    "gurneys":1,
    "break":1,
    "crews":1,
    "yelling":1,
    "tended":1,
    "middleeastern":1,
    "warm":1,
    "gyros":1,
    "souvlakis":1,
    "rummages":1,
    "wrote":1,
    "focuses":1,
    "clearing":1,
    "remorseful":1,
    "scene":1,
    "subtitled":1,
    "condition":1,
    "unusual":1,
    "indicate":1,
    "violence":1,
    "coroner":1,
    "nursess":1,
    "threatens":1,
    "alles":1,
    "ordnung":1,
    "retreats":1,
    "siegler":1,
    "cough":1,
    "ushering":1,
    "battered":1,
    "younger":1,
    "uniform":1,
    "russianmade":1,
    "sedan":1,
    "staatssicherheit":1,
    "ministry":1,
    "secret":1,
    "believer":1,
    "coughing":1,
    "germans":1,
    "experts":1,
    "forgetting":1,
    "nazis":1,
    "forty":1,
    "communism":1,
    "gift":1,
    "written":1,
    "endpaper":1,
    "wifes":1,
    "handwriting":1,
    "direct":1,
    "involvement":1,
    "indication":1,
    "leafs":1,
    "piece":1,
    "notations":1,
    "dates":1,
    "week":1,
    "print":1,
    "cheery":1,
    "cartoon":1,
    "sams":1,
    "bowling":1,
    "billiards":1,
    "prepare":1,
    "detailed":1,
    "knowledge":1,
    "including":1,
    "fact":1,
    "random":1,
    "allow":1,
    "seamlessly":1,
    "gain":1,
    "tried":1,
    "redlichkeit":1,
    "basic":1,
    "principle":1,
    "eventually":1,
    "tells":1,
    "cannot":1,
    "however":1,
    "telling":1,
    "difference":1,
    "wince":1,
    "tea":1,
    "tin":1,
    "shelf":1,
    "hundred":1,
    "loan":1,
    "guarantee":1,
    "tomorrow":1,
    "afternoon":1,
    "exhausted":1,
    "full":1,
    "nowhere":1,
    "respond":1,
    "ring":1,
    "special":1,
    "television":1,
    "camera":1,
    "juxtaposed":1,
    "text":1,
    "scrolls":1,
    "murder":1,
    "yale":1,
    "heard":1,
    "lecture":1,
    "recognize":1,
    "cement":1,
    "overpass":1,
    "climb":1,
    "pauses":1,
    "chainlink":1,
    "cares":1,
    "bullshit":1,
    "matters":1,
    "figures":1,
    "2259":1,
    "counting":1,
    "4000":1,
    "buy":1,
    "slivovic":1,
    "sip":1,
    "muffled":1,
    "arguing":1,
    "cardboard":1,
    "drawers":1,
    "extra":1,
    "mattress":1,
    "phd":1,
    "writes":1,
    "biotechnology":1,
    "homepage":1,
    "delegates":1,
    "speakers":1,
    "subheading":1,
    "keynote":1,
    "enlarged":1,
    "color":1,
    "guest":1,
    "sponsor":1,
    "google":1,
    "results":1,
    "headlines":1,
    "killing":1,
    "highlights":1,
    "controversial":1,
    "figure":1,
    "arab":1,
    "guys":1,
    "badge":1,
    "lowers":1,
    "utterly":1,
    "nonthreatening":1,
    "fridge":1,
    "removes":1,
    "pot":1,
    "uses":1,
    "spoon":1,
    "chunk":1,
    "fatty":1,
    "meat":1,
    "chipped":1,
    "leaning":1,
    "sloping":1,
    "roof":1,
    "excited":1,
    "yowls":1,
    "stray":1,
    "cats":1,
    "artist":1,
    "wake":1,
    "erased":1,
    "facetoface":1,
    "pounding":1,
    "motions":1,
    "softspoken":1,
    "somali":1,
    "taxidriver":1,
    "grins":1,
    "teasingly":1,
    "peek":1,
    "company":1,
    "foot":1,
    "inscrutable":1,
    "forget":1,
    "reset":1,
    "meter":1,
    "undershirt":1,
    "halfway":1,
    "eyebrow":1,
    "send":1,
    "started":1,
    "burner":1,
    "trots":1,
    "eight":1,
    "hans":1,
    "colonel":1,
    "allowing":1,
    "relaxation":1,
    "bowl":1,
    "clamping":1,
    "aweinspiring":1,
    "chilling":1,
    "whatsoever":1,
    "observant":1,
    "oven":1,
    "pilot":1,
    "hazy":1,
    "layer":1,
    "rippling":1,
    "wick":1,
    "pressed":1,
    "aware":1,
    "useful":1,
    "exterior":1,
    "revealing":1,
    "hisses":1,
    "spills":1,
    "alcohol":1,
    "douses":1,
    "thump":1,
    "reacts":1,
    "instantly":1,
    "lined":1,
    "terrorstricken":1,
    "abandoned":1,
    "hall":1,
    "pants":1,
    "prepares":1,
    "inject":1,
    "chokes":1,
    "nearest":1,
    "cutting":1,
    "tumbles":1,
    "tumble":1,
    "collapses":1,
    "splintering":1,
    "kitchen":1,
    "easily":1,
    "deflects":1,
    "blow":1,
    "leaps":1,
    "catlike":1,
    "re":1,
    "rolling":1,
    "progress":1,
    "kaboom":1,
    "splinter":1,
    "outward":1,
    "hurls":1,
    "covering":1,
    "pressure":1,
    "raining":1,
    "spreading":1,
    "inferno":1,
    "slide":1,
    "amidst":1,
    "wild":1,
    "settling":1,
    "flames":1,
    "flare":1,
    "horror":1,
    "lifeless":1,
    "emerge":1,
    "neighboring":1,
    "climbing":1,
    "steers":1,
    "mercedes":1,
    "diesel":1,
    "finds":1,
    "broken":1,
    "panes":1,
    "bundles":1,
    "uturn":1,
    "waving":1,
    "drifts":1,
    "sideon":1,
    "bounces":1,
    "center":1,
    "road":1,
    "intersection":1,
    "spots":1,
    "brakes":1,
    "high":1,
    "speed":1,
    "180":1,
    "floors":1,
    "zigzags":1,
    "zooms":1,
    "gates":1,
    "sidebyside":1,
    "horn":1,
    "cross":1,
    "90":1,
    "degrees":1,
    "alongside":1,
    "scramble":1,
    "bellies":1,
    "straddling":1,
    "rails":1,
    "shifts":1,
    "reverse":1,
    "rims":1,
    "spin":1,
    "metal":1,
    "sprinting":1,
    "lines":1,
    "ground":1,
    "bullets":1,
    "chipping":1,
    "ceramic":1,
    "illuminated":1,
    "gasps":1,
    "spent":1,
    "tail":1,
    "freight":1,
    "thundering":1,
    "pelting":1,
    "fullspeed":1,
    "alcove":1,
    "doubled":1,
    "staggering":1,
    "zigzag":1,
    "iron":1,
    "sprints":1,
    "squeezed":1,
    "drunken":1,
    "youth":1,
    "singing":1,
    "chanting":1,
    "clubs":1,
    "various":1,
    "bouncers":1,
    "guarding":1,
    "boring":1,
    "defeat":1,
    "darker":1,
    "glowing":1,
    "candles":1,
    "neon":1,
    "tubing":1,
    "casts":1,
    "shadows":1,
    "thud":1,
    "bass":1,
    "africa":1,
    "stroking":1,
    "gripping":1,
    "wanting":1,
    "buried":1,
    "versus":1,
    "returning":1,
    "strength":1,
    "separates":1,
    "locked":1,
    "serbian":1,
    "bartender":1,
    "tough":1,
    "nod":1,
    "recognition":1,
    "wander":1,
    "strobing":1,
    "rubs":1,
    "mod":1,
    "undresses":1,
    "marriage":1,
    "difficult":1,
    "dream":1,
    "somehow":1,
    "hairs":1,
    "ends":1,
    "pulsing":1,
    "borrowed":1,
    "joint":1,
    "offers":1,
    "inhales":1,
    "deeply":1,
    "helping":1,
    "nice":1,
    "cherry":1,
    "blossoms":1,
    "creek":1,
    "hid":1,
    "waited":1,
    "brother":1,
    "raped":1,
    "edgy":1,
    "spotted":1,
    "drowning":1,
    "drag":1,
    "newspaper":1,
    "bar":1,
    "article":1,
    "murdered":1,
    "fuzzy":1,
    "refers":1,
    "specific":1,
    "third":1,
    "exact":1,
    "edition":1,
    "unbreakable":1,
    "refer":1,
    "latin":1,
    "species":1,
    "fairy":1,
    "lantern":1,
    "california":1,
    "bay":1,
    "flowering":1,
    "plants":1,
    "part":1,
    "grunts":1,
    "pencils":1,
    "notes":1,
    "sent":1,
    "role":1,
    "gorytini":1,
    "pollination":1,
    "laurence":1,
    "darnell":1,
    "quizzically":1,
    "graduate":1,
    "student":1,
    "university":1,
    "wisconsin":1,
    "died":1,
    "auto":1,
    "earlier":1,
    "similar":1,
    "yours":1,
    "closely":1,
    "opposites":1,
    "hunger":1,
    "universal":1,
    "crop":1,
    "cultivation":1,
    "businessman":1,
    "progressives":1,
    "food":1,
    "oil":1,
    "agricultural":1,
    "patents":1,
    "worth":1,
    "billions":1,
    "progressiveness":1,
    "hate":1,
    "attempts":1,
    "bookmark":1,
    "remembered":1,
    "cocktail":1,
    "party":1,
    "tonight":1,
    "champagne":1,
    "hors":1,
    "doeuvres":1,
    "starting":1,
    "confined":1,
    "adler":1,
    "kochstrasse":1,
    "630":1,
    "sharp":1,
    "prepaid":1,
    "phones":1,
    "display":1,
    "date":1,
    "sunglasses":1,
    "wiry":1,
    "haired":1,
    "pays":1,
    "laptop":1,
    "arrives":1,
    "lizs":1,
    "settles":1,
    "painted":1,
    "anyway":1,
    "nostalgia":1,
    "touch":1,
    "alter":1,
    "ego":1,
    "assume":1,
    "safely":1,
    "lesson":1,
    "online":1,
    "e":1,
    "mails":1,
    "server":1,
    "broke":1,
    "stole":1,
    "luckily":1,
    "split":1,
    "double":1,
    "encrypt":1,
    "tonights":1,
    "menu":1,
    "important":1,
    "played":1,
    "blink":1,
    "forgive":1,
    "sat":1,
    "glimpsed":1,
    "transfixed":1,
    "focusing":1,
    "finished":1,
    "conglomerates":1,
    "gobble":1,
    "human":1,
    "acted":1,
    "except":1,
    "selfinterest":1,
    "matter":1,
    "cautious":1,
    "realist":1,
    "offended":1,
    "stupid":1,
    "offend":1,
    "discussion":1,
    "power":1,
    "animal":1,
    "adapts":1,
    "mutates":1,
    "preserve":1,
    "extending":1,
    "protected":1,
    "strange":1,
    "numbness":1,
    "syllable":1,
    "features":1,
    "tense":1,
    "threatening":1,
    "tormented":1,
    "promise":1,
    "alive":1,
    "urgent":1,
    "emotion":1,
    "penguin":1,
    "exhibit":1,
    "bear":1,
    "hiding":1,
    "waits":1,
    "pretty":1,
    "acknowledge":1,
    "mix":1,
    "hears":1,
    "key":1,
    "ja":1,
    "unbelievable":1,
    "poor":1,
    "heres":1,
    "leipzig":1,
    "hochschule":1,
    "technik":1,
    "hear":1,
    "grinning":1,
    "ushers":1,
    "leads":1,
    "labelled":1,
    "likely":1,
    "lacquer":1,
    "vodka":1,
    "neighbor":1,
    "blind":1,
    "myself":1,
    "military":1,
    "son":1,
    "cold":1,
    "war":1,
    "stuff":1,
    "zil":1,
    "suspension":1,
    "donkey":1,
    "smelt":1,
    "tannery":1,
    "vanished":1,
    "kettle":1,
    "lucky":1,
    "professional":1,
    "spy":1,
    "tightens":1,
    "particular":1,
    "aufklarung":1,
    "foreign":1,
    "intelligence":1,
    "wing":1,
    "discreetly":1,
    "cradles":1,
    "steam":1,
    "based":1,
    "unit":1,
    "freelance":1,
    "deniable":1,
    "secondtonone":1,
    "efficiency":1,
    "invisible":1,
    "strike":1,
    "foul":1,
    "glint":1,
    "packet":1,
    "steadily":1,
    "fifteen":1,
    "mr":1,
    "cup":1,
    "wheezes":1,
    "chesterfields":1,
    "smoked":1,
    "sixty":1,
    "machorkas":1,
    "filthy":1,
    "soviet":1,
    "killed":1,
    "russians":1,
    "stalin":1,
    "doctors":1,
    "assure":1,
    "joining":1,
    "impassive":1,
    "source":1,
    "behalf":1,
    "shake":1,
    "flicker":1,
    "tightening":1,
    "sachet":1,
    "sweetener":1,
    "courage":1,
    "coughs":1,
    "cyanide":1,
    "trembling":1,
    "clasp":1,
    "force":1,
    "piercing":1,
    "hammering":1,
    "final":1,
    "convulsion":1,
    "buttons":1,
    "gloves":1,
    "rests":1,
    "forearm":1,
    "though":1,
    "asleep":1,
    "rather":1,
    "restoring":1,
    "dignity":1,
    "casting":1,
    "expert":1,
    "slightly":1,
    "askew":1,
    "touching":1,
    "210":1,
    "unclaimed":1,
    "combination":1,
    "2":1,
    "8":1,
    "0":1,
    "6":1,
    "pop":1,
    "lid":1,
    "softens":1,
    "personal":1,
    "sitting":1,
    "gazing":1,
    "fingers":1,
    "dockeared":1,
    "corners":1,
    "bump":1,
    "crease":1,
    "awkward":1,
    "activity":1,
    "handing":1,
    "stands":1,
    "relics":1,
    "spread":1,
    "255":1,
    "danger":1,
    "arrange":1,
    "sadness":1,
    "beaming":1,
    "shatter":1,
    "spine":1,
    "flat":1,
    "menace":1,
    "round":1,
    "jerks":1,
    "guiding":1,
    "pickup":1,
    "zone":1,
    "fetch":1,
    "squeal":1,
    "yells":1,
    "furious":1,
    "struggling":1,
    "amazement":1,
    "oldest":1,
    "took":1,
    "spelling":1,
    "blank":1,
    "exist":1,
    "legend":1,
    "fiction":1,
    "created":1,
    "invite":1,
    "norman":1,
    "fucking":1,
    "rockwell":1,
    "fabrication":1,
    "caps":1,
    "write":1,
    "textbook":1,
    "refusing":1,
    "pops":1,
    "wind":1,
    "whistling":1,
    "kid":1,
    "ripped":1,
    "prep":1,
    "christs":1,
    "sake":1,
    "eating":1,
    "turkey":1,
    "cleaning":1,
    "wacko":1,
    "bumps":1,
    "decides":1,
    "storys":1,
    "crumbling":1,
    "pats":1,
    "boy":1,
    "fist":1,
    "doubles":1,
    "whips":1,
    "knees":1,
    "spits":1,
    "glaring":1,
    "disgusted":1,
    "empties":1,
    "junkies":1,
    "works":1,
    "dropper":1,
    "cotton":1,
    "lighter":1,
    "expertly":1,
    "cooks":1,
    "fix":1,
    "brown":1,
    "heroin":1,
    "syringe":1,
    "junkie":1,
    "streak":1,
    "concern":1,
    "screeching":1,
    "rounding":1,
    "ramp":1,
    "accelerating":1,
    "firing":1,
    "clawing":1,
    "sneers":1,
    "wide":1,
    "tips":1,
    "smiths":1,
    "crunch":1,
    "touches":1,
    "chases":1,
    "streaking":1,
    "absolute":1,
    "615":1,
    "gentle":1,
    "heavyhearted":1,
    "jingles":1,
    "dazed":1,
    "intently":1,
    "luck":1,
    "knowing":1,
    "frame":1,
    "colored":1,
    "differently":1,
    "drywall":1,
    "continue":1,
    "panels":1,
    "exposed":1,
    "plumbing":1,
    "integrated":1,
    "pipes":1,
    "plastigue":1,
    "circuits":1,
    "wires":1,
    "dii\u00ef\u00bf\u00bd":1,
    "connected":1,
    "hightech":1,
    "detonator":1,
    "entry":1,
    "stamp":1,
    "statue":1,
    "assassinated":1,
    "today":1,
    "stuffs":1,
    "propels":1,
    "reflection":1,
    "show":1,
    "pure":1,
    "instinct":1,
    "adrenaline":1,
    "horns":1,
    "blare":1,
    "swerve":1,
    "buttoning":1,
    "amends":1,
    "highness":1,
    "honored":1,
    "attend":1,
    "beams":1,
    "dozen":1,
    "notable":1,
    "engrossed":1,
    "held":1,
    "ungerman":1,
    "somebody":1,
    "pretend":1,
    "lighting":1,
    "chillincj":1,
    "shy":1,
    "bends":1,
    "hoists":1,
    "accepting":1,
    "separation":1,
    "anxiety":1,
    "pov":1,
    "circuit":1,
    "boards":1,
    "vamped":1,
    "digital":1,
    "recorder":1,
    "sleeping":1,
    "monster":1,
    "baby":1,
    "wear":1,
    "nerdy":1,
    "accessory":1,
    "adjusts":1,
    "slipping":1,
    "bluetooth":1,
    "die":1,
    "technicians":1,
    "type":1,
    "console":1,
    "guards":1,
    "superiority":1,
    "flick":1,
    "serious":1,
    "follow":1,
    "hoping":1,
    "technician":1,
    "dapper":1,
    "couple":1,
    "wears":1,
    "sportsjacket":1,
    "lighthaired":1,
    "hornrimmed":1,
    "alarm":1,
    "evacuate":1,
    "andyou":1,
    "loading":1,
    "docks":1,
    "flood":1,
    "uncuff":1,
    "shouldering":1,
    "folk":1,
    "streaming":1,
    "downward":1,
    "tablecloth":1,
    "frightened":1,
    "swept":1,
    "child":1,
    "dying":1,
    "flowers":1,
    "passwords":1,
    "purposeful":1,
    "target":1,
    "purposefully":1,
    "group":1,
    "unzipped":1,
    "sportsbag":1,
    "slung":1,
    "glimpse":1,
    "oiledblack":1,
    "uzi":1,
    "pistol":1,
    "handcuff":1,
    "dangling":1,
    "wrist":1,
    "frantic":1,
    "bottlenecked":1,
    "reenters":1,
    "commanding":1,
    "uzis":1,
    "safety":1,
    "gina1":1,
    "pressing":1,
    "embracing":1,
    "hugging":1,
    "whispering":1,
    "metallic":1,
    "placed":1,
    "bullet":1,
    "whose":1,
    "stalking":1,
    "pretended":1,
    "weak":1,
    "girlfriend":1,
    "save":1,
    "hero":1,
    "sexy":1,
    "background":1,
    "ooops":1,
    "bet":1,
    "tears":1,
    "shouting":1,
    "scream":1,
    "vun":1,
    "pointed":1,
    "trigger":1,
    "fuck":1,
    "detonates":1,
    "atomized":1,
    "sheets":1,
    "flame":1,
    "bursting":1,
    "holding":1,
    "careful":1,
    "slicked":1,
    "drenched":1,
    "stunning":1,
    "despite":1,
    "casually":1,
    "palm":1,
    "steadies":1,
    "groaning":1,
    "structure":1,
    "plaster":1,
    "cables":1,
    "fall":1,
    "spark":1,
    "flinches":1,
    "job":1,
    "warming":1,
    "y":1,
    "warmth":1,
    "radiating":1,
    "stepping":1,
    "uncertainty":1,
    "blade":1,
    "sending":1,
    "reeling":1,
    "sunk":1,
    "screaming":1,
    "agony":1,
    "rips":1,
    "soft":1,
    "distance":1,
    "hole":1,
    "collar":1,
    "bone":1,
    "eyelids":1,
    "anxiously":1,
    "stream":1,
    "pouring":1,
    "betrayal":1,
    "survivors":1,
    "shaken":1,
    "oblivious":1,
    "epicenter":1,
    "object":1,
    "destruction":1,
    "less":1,
    "laureate":1,
    "announced":1,
    "strain":1,
    "self":1,
    "propagating":1,
    "drought":1,
    "tolerant":1,
    "pest":1,
    "resistant":1,
    "worldwide":1,
    "patent":1,
    "copyright":1,
    "costs":1,
    "rapturous":1,
    "applause":1,
    "ovation":1,
    "applauded":1,
    "dow":1,
    "agribusiness":1,
    "stocks":1,
    "plunge":1,
    "percent":1,
    "several":1,
    "central":1,
    "redemption":1,
    "among":1,
    "sea":1,
    "bobbing":1,
    "pecks":2,
    "eisenhower":2,
    "bags":2,
    "cart":2,
    "already":2,
    "drive":2,
    "available":2,
    "manager":2,
    "months":2,
    "apologetic":2,
    "curious":2,
    "arrivals":2,
    "heavy":2,
    "columns":2,
    "rearview":2,
    "clothing":2,
    "changed":2,
    "brief":2,
    "either":2,
    "saving":2,
    "red":2,
    "river":2,
    "midstream":2,
    "service":2,
    "box":2,
    "bursts":2,
    "swerves":2,
    "avoid":2,
    "blows":2,
    "dive":2,
    "gasping":2,
    "above":2,
    "frantically":2,
    "sinking":2,
    "unconscious":2,
    "dives":2,
    "hammers":2,
    "surface":2,
    "dry":2,
    "arriving":2,
    "focus":2,
    "onlookers":2,
    "paramedic":2,
    "slumps":2,
    "mans":2,
    "private":2,
    "barely":2,
    "becomes":2,
    "main":2,
    "title":2,
    "konnen":2,
    "mich":2,
    "horen":2,
    "forms":2,
    "itself":2,
    "signals":2,
    "anyone":2,
    "stopped":2,
    "minutes":2,
    "november":2,
    "else":2,
    "shell":2,
    "cell":2,
    "giving":2,
    "trauma":2,
    "although":2,
    "unlikely":2,
    "meine":2,
    "children":2,
    "reads":2,
    "engraving":2,
    "flicks":2,
    "realize":2,
    "fine":2,
    "arent":2,
    "wedding":2,
    "appears":2,
    "ah":2,
    "reception":2,
    "cheap":2,
    "suit":2,
    "nearby":2,
    "approaches":2,
    "drivers":2,
    "noise":2,
    "confirm":2,
    "overwhelming":2,
    "mixture":2,
    "relief":2,
    "turning":2,
    "crush":2,
    "getting":2,
    "fixed":2,
    "shoulders":2,
    "taps":2,
    "abruptly":2,
    "flustered":2,
    "bewildered":2,
    "conversation":2,
    "laughter":2,
    "rounds":2,
    "army":2,
    "afraid":2,
    "bs":2,
    "gesturing":2,
    "thanks":2,
    "leaves":2,
    "helpless":2,
    "hangs":2,
    "checked":2,
    "downstairs":2,
    "forcing":2,
    "lab":2,
    "assistant":2,
    "dials":2,
    "switches":2,
    "calling":2,
    "till":2,
    "talk":2,
    "nobel":2,
    "rose":2,
    "visible":2,
    "sharing":2,
    "germany":2,
    "response":2,
    "detectives":2,
    "havent":2,
    "remembers":2,
    "happen":2,
    "point":2,
    "fur":2,
    "nicht":2,
    "hold":2,
    "stare":2,
    "catching":2,
    "music":2,
    "cracked":2,
    "care":2,
    "cost":2,
    "insurance":2,
    "town":2,
    "rage":2,
    "couldnt":2,
    "use":2,
    "solomon":2,
    "turkish":2,
    "follows":2,
    "crashed":2,
    "calming":2,
    "fault":2,
    "push":2,
    "lift":2,
    "catch":2,
    "hurry":2,
    "arrived":2,
    "sense":2,
    "youd":2,
    "happens":2,
    "thinking":2,
    "lot":2,
    "restaurant":2,
    "contacted":2,
    "having":2,
    "theyve":2,
    "copy":2,
    "scribbled":2,
    "1230":2,
    "able":2,
    "appointment":2,
    "desk":2,
    "met":2,
    "disappears":2,
    "exasperated":2,
    "drake":2,
    "botanist":2,
    "manages":2,
    "appear":2,
    "corn":2,
    "burning":2,
    "alarmed":2,
    "propagation":2,
    "seems":2,
    "panic":2,
    "wrong":2,
    "plant":2,
    "single":2,
    "thynnidae":2,
    "wasp":2,
    "surprised":2,
    "hope":2,
    "talked":2,
    "discussed":2,
    "interest":2,
    "science":2,
    "falters":2,
    "tails":2,
    "frozen":2,
    "sways":2,
    "marry":2,
    "insisted":2,
    "leonardos":2,
    "vitruvian":2,
    "wow":2,
    "pleasure":2,
    "gives":2,
    "emotions":2,
    "photograph":2,
    "widen":2,
    "shape":2,
    "familiar":2,
    "mine":2,
    "common":2,
    "others":2,
    "longer":2,
    "hardly":2,
    "bird":2,
    "puzzle":2,
    "state":2,
    "sometimes":2,
    "completely":2,
    "found":2,
    "fantasy":2,
    "lives":2,
    "become":2,
    "quite":2,
    "struggles":2,
    "dart":2,
    "legs":2,
    "lead":2,
    "wheels":2,
    "effects":2,
    "racks":2,
    "drips":2,
    "falls":2,
    "choice":2,
    "motion":2,
    "strap":2,
    "along":2,
    "given":2,
    "slam":2,
    "exits":2,
    "colleagues":2,
    "writing":2,
    "address":2,
    "sit":2,
    "drink":2,
    "entire":2,
    "dangerous":2,
    "wheel":2,
    "used":2,
    "east":2,
    "worked":2,
    "forgotten":2,
    "pages":2,
    "times":2,
    "sam":2,
    "blast":2,
    "relationship":2,
    "question":2,
    "favor":2,
    "stasi":2,
    "questions":2,
    "lying":2,
    "pay":2,
    "cash":2,
    "pain":2,
    "twentyfour":2,
    "holds":2,
    "feeling":2,
    "changes":2,
    "next":2,
    "owners":2,
    "five":2,
    "teaching":2,
    "walls":2,
    "types":2,
    "honor":2,
    "saudi":2,
    "attempt":2,
    "plain":2,
    "stew":2,
    "plate":2,
    "running":2,
    "direction":2,
    "bosnia":2,
    "imagine":2,
    "connection":2,
    "set":2,
    "bring":2,
    "smoke":2,
    "passes":2,
    "working":2,
    "tucked":2,
    "while":2,
    "knocking":2,
    "sink":2,
    "throws":2,
    "wasted":2,
    "dark":2,
    "runs":2,
    "loud":2,
    "trapped":2,
    "pulled":2,
    "weapons":2,
    "beyond":2,
    "kicks":2,
    "realizing":2,
    "screams":2,
    "blasts":2,
    "sliding":2,
    "smash":2,
    "hit":2,
    "weapon":2,
    "drawn":2,
    "freezes":2,
    "teetering":2,
    "hauls":2,
    "explodes":2,
    "sweeps":2,
    "fires":2,
    "wipes":2,
    "far":2,
    "oncoming":2,
    "sidestreet":2,
    "sign":2,
    "racing":2,
    "parallel":2,
    "screeches":2,
    "alley":2,
    "races":2,
    "control":2,
    "rear":2,
    "scraping":2,
    "blam":2,
    "utility":2,
    "wreck":2,
    "second":2,
    "access":2,
    "dull":2,
    "stays":2,
    "shift":2,
    "makes":2,
    "dust":2,
    "waiver":2,
    "protect":2,
    "revolving":2,
    "collect":2,
    "code":2,
    "page":2,
    "calochortus":2,
    "albus":2,
    "umbellularia":2,
    "californica":2,
    "wants":2,
    "data":2,
    "fahads":2,
    "balls":2,
    "space":2,
    "hasnt":2,
    "shouldnt":2,
    "three":2,
    "computer":2,
    "public":2,
    "development":2,
    "business":2,
    "safe":2,
    "briefcase":2,
    "path":2,
    "rising":2,
    "walk":2,
    "each":2,
    "coat":2,
    "mantel":2,
    "mug":2,
    "chance":2,
    "coles":2,
    "button":2,
    "rumor":2,
    "section":2,
    "15":2,
    "theyd":2,
    "sector":2,
    "planning":2,
    "nobody":2,
    "play":2,
    "deep":2,
    "gulp":2,
    "casualties":2,
    "ignores":2,
    "bringing":2,
    "invented":2,
    "team":2,
    "spinning":2,
    "screw":2,
    "draws":2,
    "wish":2,
    "semtex":2,
    "street":2,
    "gestures":2,
    "daughters":2,
    "leo":2,
    "checking":2,
    "perfect":2,
    "windows":2,
    "finish":2,
    "girl":2,
    "bleeding":2,
    "seated":2,
    "announcement":2,
    "great":3,
    "cheek":3,
    "imperial":3,
    "short":3,
    "raises":3,
    "entrance":3,
    "quick":3,
    "wet":3,
    "city":3,
    "pass":3,
    "sight":3,
    "young":3,
    "everyone":3,
    "wouldnt":3,
    "night":3,
    "large":3,
    "meant":3,
    "swings":3,
    "heading":3,
    "corner":3,
    "tire":3,
    "hits":3,
    "curb":3,
    "tires":3,
    "sparks":3,
    "slams":3,
    "air":3,
    "breaks":3,
    "paramedics":3,
    "shirt":3,
    "tube":3,
    "stomach":3,
    "charge":3,
    "sudden":3,
    "details":3,
    "realization":3,
    "finding":3,
    "closing":3,
    "form":3,
    "sie":3,
    "english":3,
    "staying":3,
    "heart":3,
    "coma":3,
    "identification":3,
    "sinks":3,
    "sick":3,
    "reach":3,
    "trails":3,
    "most":3,
    "return":3,
    "fully":3,
    "family":3,
    "falling":3,
    "beautiful":3,
    "gave":3,
    "inscription":3,
    "forum":3,
    "list":3,
    "license":3,
    "lose":3,
    "half":3,
    "joke":3,
    "calls":3,
    "yeah":3,
    "funny":3,
    "unsure":3,
    "finger":3,
    "whatever":3,
    "free":3,
    "damn":3,
    "pretending":3,
    "click":3,
    "presses":3,
    "monday":3,
    "machine":3,
    "taken":3,
    "arrest":3,
    "correct":3,
    "monitors":3,
    "illegal":3,
    "laugh":3,
    "corridor":3,
    "laughing":3,
    "probably":3,
    "confused":3,
    "fumbles":3,
    "convinced":3,
    "conference":3,
    "change":3,
    "bad":3,
    "glasses":3,
    "begins":3,
    "ready":3,
    "points":3,
    "shrugs":3,
    "rises":3,
    "kids":3,
    "true":3,
    "jail":3,
    "embassy":3,
    "whoever":3,
    "truth":3,
    "meets":3,
    "cards":3,
    "sensing":3,
    "authorities":3,
    "sounds":3,
    "hot":3,
    "meeting":3,
    "invited":3,
    "thesis":3,
    "scans":3,
    "drakea":3,
    "wave":3,
    "anger":3,
    "area":3,
    "rings":3,
    "somewhere":3,
    "fast":3,
    "opening":3,
    "expression":3,
    "wanted":3,
    "seen":3,
    "feet":3,
    "wasnt":3,
    "tired":3,
    "whos":3,
    "plastic":3,
    "voices":3,
    "hypodermic":3,
    "try":3,
    "pieces":3,
    "loves":3,
    "finally":3,
    "needle":3,
    "tunnel":3,
    "mouth":3,
    "torn":3,
    "glancing":3,
    "shut":3,
    "covered":3,
    "steel":3,
    "which":3,
    "brunner":3,
    "reading":3,
    "tiny":3,
    "chair":3,
    "framed":3,
    "photos":3,
    "sideboard":3,
    "rest":3,
    "shot":3,
    "forgot":3,
    "history":3,
    "notices":3,
    "places":3,
    "schedule":3,
    "uncle":3,
    "hours":3,
    "cafe":3,
    "news":3,
    "caught":3,
    "came":3,
    "sleep":3,
    "search":3,
    "pictures":3,
    "assassination":3,
    "failed":3,
    "slides":3,
    "water":3,
    "covers":3,
    "escape":3,
    "low":3,
    "enters":3,
    "tracking":3,
    "bikos":3,
    "pockets":3,
    "cuts":3,
    "jumps":3,
    "many":3,
    "eye":3,
    "felt":3,
    "knew":3,
    "studies":3,
    "end":3,
    "year":3,
    "studying":3,
    "guests":3,
    "bears":3,
    "love":3,
    "evening":3,
    "crowds":3,
    "curiosity":3,
    "course":3,
    "jurgens":3,
    "leaving":3,
    "dead":3,
    "clock":3,
    "locks":3,
    "pause":3,
    "filled":3,
    "unsteady":3,
    "stumbles":3,
    "timer":3,
    "check":4,
    "much":4,
    "mrs":4,
    "pulling":4,
    "ago":4,
    "receptionist":4,
    "ringing":4,
    "sighs":4,
    "airport":4,
    "rain":4,
    "calm":4,
    "catches":4,
    "says":4,
    "laughs":4,
    "different":4,
    "missing":4,
    "shower":4,
    "cab":4,
    "lock":4,
    "passenger":4,
    "slips":4,
    "glass":4,
    "crowd":4,
    "taking":4,
    "carrying":4,
    "pushing":4,
    "quickly":4,
    "growing":4,
    "chest":4,
    "quiet":4,
    "stand":4,
    "step":4,
    "arms":4,
    "speech":4,
    "speaks":4,
    "soon":4,
    "does":4,
    "gently":4,
    "scared":4,
    "ever":4,
    "living":4,
    "fire":4,
    "also":4,
    "book":4,
    "horticus":4,
    "married":4,
    "own":4,
    "understand":4,
    "invitation":4,
    "names":4,
    "screen":4,
    "seeing":4,
    "confusion":4,
    "talking":4,
    "hurt":4,
    "video":4,
    "answer":4,
    "insane":4,
    "rod":4,
    "flips":4,
    "listen":4,
    "produces":4,
    "tight":4,
    "trouble":4,
    "euros":4,
    "woman":4,
    "frowns":4,
    "give":4,
    "guy":4,
    "cover":4,
    "owner":4,
    "ducks":4,
    "happening":4,
    "theyll":4,
    "picked":4,
    "raised":4,
    "crash":4,
    "sure":4,
    "alone":4,
    "credit":4,
    "home":4,
    "identity":4,
    "papers":4,
    "rolex":4,
    "sort":4,
    "father":4,
    "girls":4,
    "searching":4,
    "laurel":4,
    "breath":4,
    "shaking":4,
    "loss":4,
    "together":4,
    "empty":4,
    "fear":4,
    "steady":4,
    "line":4,
    "standing":4,
    "blood":4,
    "press":4,
    "pours":4,
    "bottle":4,
    "brandy":4,
    "notebook":4,
    "moved":4,
    "idiot":4,
    "tv":4,
    "pull":4,
    "bang":4,
    "apartment":4,
    "debris":4,
    "cmon":4,
    "making":4,
    "turn":4,
    "spins":4,
    "keep":4,
    "walks":4,
    "reason":4,
    "zoo":4,
    "polar":4,
    "pocket":4,
    "bomb":4,
    "knife":4,
    "being":5,
    "lets":5,
    "older":5,
    "years":5,
    "thing":5,
    "ahead":5,
    "bridge":5,
    "cars":5,
    "start":5,
    "lights":5,
    "whole":5,
    "flashes":5,
    "moments":5,
    "picture":5,
    "distant":5,
    "words":5,
    "speaking":5,
    "beside":5,
    "person":5,
    "four":5,
    "thanksgiving":5,
    "saved":5,
    "idea":5,
    "day":5,
    "thought":5,
    "kind":5,
    "frau":5,
    "message":5,
    "sir":5,
    "faces":5,
    "herr":5,
    "knows":5,
    "happened":5,
    "husband":5,
    "needs":5,
    "might":5,
    "because":5,
    "silence":5,
    "ask":5,
    "exactly":5,
    "office":5,
    "story":5,
    "drops":5,
    "crazy":5,
    "id":5,
    "make":5,
    "slip":5,
    "paper":5,
    "comes":5,
    "late":5,
    "weve":5,
    "explain":5,
    "saw":5,
    "between":5,
    "candle":5,
    "closer":5,
    "feels":5,
    "iv":5,
    "gurney":5,
    "under":5,
    "hesitates":5,
    "photo":5,
    "stove":5,
    "best":5,
    "edge":5,
    "car":5,
    "hard":5,
    "kiss":5,
    "put":5,
    "case":5,
    "real":5,
    "always":6,
    "track":6,
    "hair":6,
    "than":6,
    "watching":6,
    "anything":6,
    "meet":6,
    "light":6,
    "ginas":6,
    "world":6,
    "close":6,
    "image":6,
    "few":6,
    "days":6,
    "must":6,
    "memories":6,
    "youll":6,
    "patient":6,
    "outside":6,
    "smiling":6,
    "sets":6,
    "gone":6,
    "happy":6,
    "bedroom":6,
    "excuse":6,
    "trying":6,
    "someone":6,
    "done":6,
    "clothes":6,
    "last":6,
    "really":6,
    "even":6,
    "perhaps":6,
    "hell":6,
    "shoulder":6,
    "hello":6,
    "friend":6,
    "coming":6,
    "wont":6,
    "train":6,
    "maybe":6,
    "puts":6,
    "doors":6,
    "without":6,
    "same":6,
    "until":6,
    "spiegler":6,
    "old":6,
    "building":6,
    "research":6,
    "goes":6,
    "stay":6,
    "drip":6,
    "run":6,
    "closes":6,
    "below":6,
    "every":6,
    "bathroom":6,
    "keys":6,
    "gas":6,
    "van":6,
    "security":7,
    "driver":7,
    "traffic":7,
    "mirror":7,
    "too":7,
    "checks":7,
    "card":7,
    "against":7,
    "lifts":7,
    "cut":7,
    "should":7,
    "sound":7,
    "slowly":7,
    "speak":7,
    "went":7,
    "isnt":7,
    "called":7,
    "lost":7,
    "watch":7,
    "contact":7,
    "pushes":7,
    "moving":7,
    "youve":7,
    "doing":7,
    "memory":7,
    "rodney":7,
    "very":7,
    "mind":7,
    "listening":7,
    "whats":7,
    "coffee":7,
    "enough":7,
    "stairs":7,
    "lily":7,
    "numbers":7,
    "place":7,
    "made":7,
    "cool":7,
    "hey":8,
    "gets":8,
    "suite":8,
    "mean":8,
    "toward":8,
    "moment":8,
    "female":8,
    "american":8,
    "front":8,
    "window":8,
    "jesus":8,
    "smile":8,
    "heads":8,
    "detective":8,
    "number":8,
    "men":8,
    "nothing":8,
    "theyre":8,
    "kill":8,
    "both":8,
    "prince":8,
    "top":8,
    "left":8,
    "our":9,
    "first":9,
    "stops":9,
    "may":9,
    "little":9,
    "when":9,
    "didnt":9,
    "small":9,
    "name":9,
    "watches":9,
    "oh":9,
    "almost":9,
    "let":9,
    "guard":9,
    "passport":9,
    "arm":9,
    "steps":9,
    "god":9,
    "tries":9,
    "jacket":9,
    "new":9,
    "these":9,
    "floor":9,
    "range":9,
    "rover":9,
    "ill":10,
    "staring":10,
    "pulls":10,
    "himself":10,
    "grabs":10,
    "voice":10,
    "any":10,
    "tell":10,
    "inside":10,
    "past":10,
    "well":10,
    "move":10,
    "money":10,
    "thank":10,
    "could":10,
    "work":10,
    "will":10,
    "bresslers":10,
    "wall":10,
    "leans":11,
    "forward":11,
    "before":11,
    "suddenly":11,
    "smiles":11,
    "okay":11,
    "say":11,
    "onto":11,
    "people":11,
    "body":11,
    "everything":11,
    "or":11,
    "picks":11,
    "call":11,
    "am":11,
    "table":11,
    "wait":11,
    "gaze":11,
    "biko":11,
    "said":11,
    "opens":11,
    "berlin":12,
    "tracks":12,
    "think":12,
    "got":12,
    "police":12,
    "only":12,
    "nurse":12,
    "farge":12,
    "come":12,
    "hospital":12,
    "told":12,
    "other":12,
    "good":12,
    "bag":12,
    "fahad":12,
    "around":13,
    "sorry":13,
    "german":13,
    "leave":13,
    "more":13,
    "want":13,
    "behind":13,
    "believe":13,
    "never":13,
    "gun":13,
    "hotel":14,
    "phone":14,
    "moves":14,
    "life":14,
    "things":14,
    "had":14,
    "across":14,
    "ive":14,
    "strauss":14,
    "if":14,
    "stop":14,
    "did":14,
    "hands":14,
    "glances":15,
    "sees":15,
    "reaches":15,
    "has":15,
    "doesnt":15,
    "take":15,
    "theres":15,
    "something":15,
    "help":16,
    "doctor":16,
    "accident":16,
    "cant":16,
    "remember":16,
    "another":16,
    "would":16,
    "about":16,
    "professor":16,
    "their":17,
    "two":17,
    "by":17,
    "time":17,
    "starts":17,
    "dr":18,
    "us":18,
    "open":18,
    "see":18,
    "towards":18,
    "still":19,
    "find":19,
    "shakes":19,
    "way":19,
    "room":20,
    "after":20,
    "please":20,
    "long":20,
    "some":20,
    "smith":20,
    "jones":20,
    "shes":21,
    "nods":21,
    "again":21,
    "looking":21,
    "b":21,
    "taxi":22,
    "stares":22,
    "get":22,
    "where":22,
    "look":22,
    "so":22,
    "yes":23,
    "away":23,
    "thats":23,
    "going":23,
    "takes":23,
    "hand":24,
    "been":24,
    "why":24,
    "then":25,
    "wife":25,
    "how":26,
    "through":26,
    "like":26,
    "door":27,
    "need":27,
    "all":28,
    "cole":28,
    "hes":29,
    "now":29,
    "dont":30,
    "head":30,
    "one":30,
    "go":30,
    "right":31,
    "off":32,
    "face":33,
    "turns":34,
    "down":34,
    "here":34,
    "youre":35,
    "over":35,
    "were":36,
    "martins":36,
    "they":36,
    "bressler":36,
    "there":37,
    "jurgen":37,
    "be":39,
    "man":39,
    "can":39,
    "beat":39,
    "them":40,
    "an":43,
    "we":44,
    "just":45,
    "from":45,
    "was":45,
    "harris":47,
    "looks":47,
    "who":48,
    "im":49,
    "liz":53,
    "know":53,
    "not":54,
    "no":55,
    "but":55,
    "eyes":55,
    "do":56,
    "out":56,
    "into":56,
    "your":56,
    "that":57,
    "have":59,
    "with":59,
    "what":64,
    "are":65,
    "this":66,
    "gina":66,
    "as":70,
    "my":70,
    "for":71,
    "back":73,
    "its":73,
    "up":74,
    "is":83,
    "me":90,
    "she":102,
    "at":108,
    "him":117,
    "and":122,
    "":122,
    "on":124,
    "her":130,
    "it":130,
    "he":143,
    "his":172,
    "of":172,
    "in":199,
    "i":221,
    "martin":246,
    "you":296,
    "to":318,
    "a":332,
    "the":761
}