{
    "bring":1,
    "splits":1,
    "reinhart":1,
    "newsroom":1,
    "delegates":1,
    "whom":1,
    "anonymously":1,
    "hardline":1,
    "suggesting":1,
    "foreign":1,
    "policy":1,
    "bear":1,
    "responsibility":1,
    "events":1,
    "loves":1,
    "geopolitical":1,
    "temperature":1,
    "sticking":1,
    "veer":1,
    "script":1,
    "sky":1,
    "names":1,
    "\u201con":1,
    "air\u201d":1,
    "series":1,
    "antiamerican":1,
    "posters":1,
    "shout":1,
    "escorting":1,
    "kent":1,
    "several":1,
    "initially":1,
    "gravitate":1,
    "barnesa":1,
    "regain":1,
    "sea":1,
    "forget":1,
    "kev":1,
    "archives":1,
    "20":1,
    "conference":1,
    "luison":1,
    "upi":1,
    "themselves":1,
    "tomorrow\u2019s":1,
    "plan":1,
    "means":1,
    "hey":1,
    "cool":1,
    "censorship":1,
    "ball":1,
    "buster":1,
    "5":1,
    "4":1,
    "3":1,
    "2":1,
    "address":1,
    "goodalright":1,
    "b":1,
    "freakin\u2019":1,
    "dog":1,
    "throughout":1,
    "rex\u2019s":1,
    "rant":1,
    "lead":1,
    "kisses":1,
    "babies":1,
    "etc":1,
    "motions":1,
    "timedate":1,
    "stamp":1,
    "archival":1,
    "unfolds":1,
    "fascinated":1,
    "charges":1,
    "dives":1,
    "knocking":1,
    "who\u2019ve":1,
    "huge":1,
    "saved":1,
    "mccarthy":1,
    "total":1,
    "hero":1,
    "single":1,
    "wider":1,
    "stay":1,
    "bwhere":1,
    "intros":1,
    "yes":1,
    "hires":1,
    "microphone":1,
    "tardeswelcome":1,
    "wrap":1,
    "praise":1,
    "facism":1,
    "911":1,
    "afghanistan":1,
    "iraq":1,
    "chechnia":1,
    "guest":1,
    "swallows":1,
    "gracethen":1,
    "guyc":1,
    "lift":1,
    "insane":1,
    "returns":1,
    "inches":1,
    "angieacam":1,
    "hell\u2019s":1,
    "sweetheart":1,
    "cnn":1,
    "remove":1,
    "d":1,
    "ass":1,
    "mean":1,
    "jenin":1,
    "uplink":1,
    "dcamas":1,
    "spins":1,
    "tired":1,
    "wisps":1,
    "tops":1,
    "otherwise":1,
    "hang":1,
    "captures":1,
    "loaded":1,
    "quite":1,
    "letting":1,
    "tough":1,
    "zero":1,
    "gotta":1,
    "northeast":1,
    "owe":1,
    "report":1,
    "win":1,
    "touch":1,
    "board":1,
    "readies":1,
    "\u201cplay\u201d":1,
    "button":1,
    "rocks":1,
    "bits":1,
    "cracklerex":1,
    "graphically":1,
    "unconscious":1,
    "crazy":1,
    "cameraman":1,
    "staggers":1,
    "sorts":1,
    "shaking":1,
    "feeds":1,
    "becomes":1,
    "entirely":1,
    "snowy":1,
    "nuisances":1,
    "mics":1,
    "elsewhere":1,
    "pandemonium":1,
    "other\u2019s":1,
    "trampled":1,
    "cameramen":1,
    "gonna":1,
    "production":1,
    "truckas":1,
    "flashes":1,
    "id":1,
    "tapesrex":1,
    "half":1,
    "cues":1,
    "tape":1,
    "frozen":1,
    "saving":1,
    "thinking":1,
    "grace\u2019s":1,
    "control":1,
    "\u201cprod":1,
    "mic\u201d":1,
    "written":1,
    "feels":1,
    "damn":1,
    "yeahabout":1,
    "partner":1,
    "assistance":1,
    "capture":1,
    "arounddcam":1,
    "backed":1,
    "freezes":1,
    "seemingly":1,
    "rewind":1,
    "realizing":1,
    "looked":1,
    "whatwhat":1,
    "use":1,
    "dv":1,
    "passing":1,
    "luis\u2019":1,
    "lens":1,
    "motherf":1,
    "tourists":1,
    "erratic":1,
    "bump":1,
    "jolt":1,
    "camera\u2019s":1,
    "tilted":1,
    "whips":1,
    "misses":1,
    "frame":1,
    "kicks":1,
    "three":1,
    "cameras":1,
    "scared":1,
    "mass":1,
    "clutching":1,
    "girl":1,
    "british":1,
    "spirited":1,
    "daring":1,
    "uhi":1,
    "remarkable":1,
    "recognize":1,
    "relevant":1,
    "poland":1,
    "excitement":1,
    "justfelt":1,
    "curiosity":1,
    "mostly":1,
    "yours":1,
    "uh":1,
    "finishes":1,
    "scoop":1,
    "careful":1,
    "problemo":1,
    "anna\u2019s":1,
    "uhcomo":1,
    "se":1,
    "llama":1,
    "daughter":1,
    "buy":1,
    "lo":1,
    "siento":1,
    "awkward":1,
    "probably\u2019ll":1,
    "filming":1,
    "fun":1,
    "erupt":1,
    "mic":1,
    "voyeur":1,
    "agent\u2019s":1,
    "senor":1,
    "presidente":1,
    "fellow":1,
    "citizens":1,
    "pleasure":1,
    "invite":1,
    "humble":1,
    "searches":1,
    "wall":1,
    "oddlewicki":1,
    "glancing":1,
    "notice":1,
    "guard":1,
    "momentary":1,
    "pang":1,
    "guilt":1,
    "die":1,
    "shoves":1,
    "herhe\u2019s":1,
    "scans":1,
    "furiously":1,
    "capable":1,
    "viewfinder":1,
    "catching":1,
    "stain":1,
    "marks":1,
    "flats":1,
    "racing":1,
    "adrenaline":1,
    "pumping":1,
    "canvassing":1,
    "sets":1,
    "happeningthis":1,
    "happeningoh":1,
    "pauses":1,
    "removes":1,
    "waiting":1,
    "swallow":1,
    "mail":1,
    "zones":1,
    "beep":1,
    "pam":1,
    "waking":1,
    "news":1,
    "wake":1,
    "sounds":1,
    "overwhelmed":1,
    "recoils":1,
    "scanning":1,
    "trails":1,
    "might":1,
    "paternal":1,
    "instinct":1,
    "within":1,
    "annanearing":1,
    "winning":1,
    "proposition":1,
    "foot":1,
    "diluted":1,
    "fifty":1,
    "warning":1,
    "angles":1,
    "whatever":1,
    "force":1,
    "emergency":1,
    "lights":1,
    "sirens":1,
    "blasting":1,
    "nearly":1,
    "plows":1,
    "tension":1,
    "whets":1,
    "appetite":1,
    "rightturn":1,
    "hesitation":1,
    "barrels":1,
    "teeth":1,
    "clench":1,
    "wills":1,
    "brow":1,
    "desperately":1,
    "hoping":1,
    "works":1,
    "makes":1,
    "cutting":1,
    "evades":1,
    "disappears":1,
    "rising":1,
    "overpass":1,
    "higher":1,
    "quit":1,
    "retaining":1,
    "pushinguntil":1,
    "peak":1,
    "slope":1,
    "checks":1,
    "directions":1,
    "footsteps":1,
    "rail":1,
    "upside":1,
    "child":1,
    "followed":1,
    "screeching":1,
    "rolls":1,
    "tires":1,
    "screech":1,
    "shatters":1,
    "scrapes":1,
    "concrete":1,
    "objects":1,
    "jewelry":1,
    "purse":1,
    "bin":1,
    "conveyor":1,
    "walks":1,
    "detector":1,
    "patiently":1,
    "uno":1,
    "momento":1,
    "sign":1,
    "gives":1,
    "metaldetecting":1,
    "fact":1,
    "undercover":1,
    "focuses":1,
    "thinly":1,
    "veiled":1,
    "glow":1,
    "offering":1,
    "cheek":1,
    "respond":1,
    "something\u2019s":1,
    "torn":1,
    "suspicion":1,
    "anymore":1,
    "backs":1,
    "life\u2019s":1,
    "barrier":1,
    "surrounds":1,
    "barricade":1,
    "media":1,
    "technicians":1,
    "personnel":1,
    "congregate":1,
    "flashing":1,
    "allowed":1,
    "cacophony":1,
    "deafening":1,
    "pains":1,
    "begun":1,
    "shake":1,
    "survey":1,
    "note":1,
    "sad":1,
    "mourning":1,
    "recently":1,
    "nor":1,
    "spectre":1,
    "evil":1,
    "overcome":1,
    "stood":1,
    "moisture":1,
    "licks":1,
    "palms":1,
    "pant":1,
    "renown":1,
    "band":1,
    "rubs":1,
    "nerves":1,
    "wave":1,
    "darts":1,
    "fallen":1,
    "quickening":1,
    "helpsoy":1,
    "best":1,
    "gohe":1,
    "mouth":1,
    "am":1,
    "duty":1,
    "soy":1,
    "trabajo":1,
    "si":1,
    "round":1,
    "suspicious":1,
    "parson":1,
    "awaythe":1,
    "worst":1,
    "descend":1,
    "preoccupied":1,
    "instant":1,
    "backpedal":1,
    "staggeringand":1,
    "steering":1,
    "overturned":1,
    "tables":1,
    "impediments":1,
    "building":1,
    "lengths":1,
    "goal":1,
    "hops":1,
    "sidewalk":1,
    "crosssection":1,
    "cringes":1,
    "allow":1,
    "bleeding":1,
    "shit":1,
    "deserted":1,
    "military":1,
    "personnelsnipers":1,
    "loom":1,
    "atop":1,
    "\u201csecured\u201d":1,
    "soul":1,
    "understands":1,
    "nay":1,
    "feel":1,
    "co":1,
    "east":1,
    "north":1,
    "tower":1,
    "south":1,
    "cover":1,
    "24":1,
    "13":1,
    "skies":1,
    "12":1,
    "podiumbarnes":1,
    "posing":1,
    "photos":1,
    "cheers":1,
    "drown":1,
    "impossible":1,
    "upon":1,
    "bead":1,
    "wipes":1,
    "roger":1,
    "echo":1,
    "square":1,
    "rushing":1,
    "shouts":1,
    "wild":1,
    "struggle":1,
    "emts":1,
    "inmaster":1,
    "frustration":1,
    "boils":1,
    "add":1,
    "storming":1,
    "confronts":1,
    "why\u2019d":1,
    "returning":1,
    "secure":1,
    "meantime":1,
    "shutting":1,
    "comment":1,
    "stings":1,
    "joins":1,
    "wishing":1,
    "flash":1,
    "inthere\u2019s":1,
    "lurking":1,
    "rewinding":1,
    "plays":1,
    "disappearing":1,
    "crowdshe":1,
    "tussling":1,
    "enriqueand":1,
    "bagsuddenly":1,
    "bombeveryone":1,
    "medics":1,
    "mouthtomouthit":1,
    "play":1,
    "answering":1,
    "barnes\u2019":1,
    "skips":1,
    "wide":1,
    "commandcome":1,
    "horror":1,
    "backing":1,
    "gps":1,
    "location":1,
    "200":1,
    "yards":1,
    "forcing":1,
    "rest":1,
    "blare":1,
    "parallel":1,
    "gear":1,
    "weaves":1,
    "crossing":1,
    "blocks":1,
    "portion":1,
    "veers":1,
    "landmarks":1,
    "top":1,
    "decoy":1,
    "sonuvabitch":1,
    "onmaster":1,
    "compromised":1,
    "trusted":1,
    "noo":1,
    "exactly":1,
    "changes\u2019ll":1,
    "giving":1,
    "suppose":1,
    "wing":1,
    "that\u2019ll":1,
    "okayhow":1,
    "trouble":1,
    "see\u2019s":1,
    "slows":1,
    "sommers":1,
    "ted":1,
    "senior":1,
    "presidential":1,
    "attache":1,
    "\u201cgo":1,
    "to\u201d":1,
    "heinkin\u2019s":1,
    "changes":1,
    "hotel":1,
    "moved":1,
    "till":1,
    "\u201cdeferring\u201d":1,
    "country":1,
    "deferring":1,
    "reading":1,
    "doubles":1,
    "photo":1,
    "ops":1,
    "alley":1,
    "cuts":1,
    "drop":1,
    "called":1,
    "real":1,
    "vague":1,
    "brigade":1,
    "weeks":1,
    "uncovered":1,
    "plot":1,
    "smuggle":1,
    "morocco":1,
    "retaliation":1,
    "held":1,
    "swipes":1,
    "pass":1,
    "floors":1,
    "old":1,
    "years":1,
    "keeps":1,
    "couple":1,
    "intercepted":1,
    "embedded":1,
    "links":1,
    "maps":1,
    "blueprints":1,
    "area":1,
    "page":1,
    "life":1,
    "morning":1,
    "received":1,
    "skims":1,
    "closing":1,
    "talked":1,
    "recommending":1,
    "camps":1,
    "frustrated":1,
    "difference":1,
    "high":1,
    "verification":1,
    "began":1,
    "focus":1,
    "actually":1,
    "six":1,
    "million":1,
    "tryingashton":1,
    "harder":1,
    "finishing":1,
    "hellos":1,
    "flanks":1,
    "thought":1,
    "inactive":1,
    "needed":1,
    "\u201csell\u201d":1,
    "sell":1,
    "punishing":1,
    "liked":1,
    "putting":1,
    "detail":1,
    "threw":1,
    "dismissive":1,
    "doubleashton":1,
    "fauxpresident":1,
    "mortality":1,
    "apparent":1,
    "starts":1,
    "adrift":1,
    "deja":1,
    "vu":1,
    "gathers":1,
    "paysomeone":1,
    "pay":1,
    "campsthey\u2019re":1,
    "skeptical":1,
    "issue":1,
    "gogo":1,
    "risk":1,
    "telling":1,
    "given":1,
    "hospital":1,
    "dobut":1,
    "sitting":1,
    "explode":1,
    "seven":1,
    "stories":1,
    "shatter":1,
    "holy":1,
    "fury":1,
    "staff":1,
    "radios":1,
    "ending":1,
    "drafting":1,
    "asap":1,
    "everything\u2019s":1,
    "matter":1,
    "confirm":1,
    "recommend":1,
    "course":1,
    "begin":1,
    "speaking":1,
    "lines":1,
    "kay":1,
    "reallyall":1,
    "comes":1,
    "unhinged":1,
    "launched":1,
    "coils":1,
    "pegging":1,
    "shielding":1,
    "unloads":1,
    "bullets":1,
    "spray":1,
    "bedroom":1,
    "firing":1,
    "ashtonrefusing":1,
    "entrances":1,
    "poised":1,
    "drugdoused":1,
    "haze":1,
    "unintelligible":1,
    "bell":1,
    "glazed":1,
    "backdead":1,
    "haunts":1,
    "floorashton":1,
    "braces":1,
    "curling":1,
    "seated":1,
    "position":1,
    "leg":1,
    "agreeing":1,
    "retrieves":1,
    "taken":1,
    "clip":1,
    "bound":1,
    "gagged":1,
    "pleading":1,
    "inward":1,
    "options":1,
    "failthis":1,
    "remember":1,
    "sinister":1,
    "worry":1,
    "maneuvers":1,
    "fledged":1,
    "stays":1,
    "nearing":1,
    "entrancejavier":1,
    "connect":1,
    "dark":1,
    "potentially":1,
    "confirmation":1,
    "exchange":1,
    "creditcard":1,
    "sized":1,
    "envelope":1,
    "finally":1,
    "father":1,
    "son\u2019s":1,
    "offapplause":1,
    "removing":1,
    "firearms":1,
    "silencers":1,
    "attached":1,
    "halfway":1,
    "releases":1,
    "safeties":1,
    "hearing":1,
    "cue":1,
    "green":1,
    "additional":1,
    "computer":1,
    "room\u2019s":1,
    "cleared":1,
    "maestro":1,
    "bandwidth":1,
    "marked":1,
    "\u201chotel":1,
    "detail\u201d":1,
    "yanks":1,
    "transmitters":1,
    "thereby":1,
    "disconnecting":1,
    "network":1,
    "confirming":1,
    "bracelet":1,
    "tugs":1,
    "ways":1,
    "expressall":1,
    "downstairs":1,
    "black":1,
    "shades":1,
    "aftermath":1,
    "scattering":1,
    "rubble":1,
    "debris":1,
    "refusing":1,
    "situation":1,
    "requiring":1,
    "immediate":1,
    "above":1,
    "ducks":1,
    "seventh":1,
    "onnow":1,
    "elevators":1,
    "ripping":1,
    "acknowledging":1,
    "blood":1,
    "following":1,
    "realizes":1,
    "reddened":1,
    "entry":1,
    "wound":1,
    "trigger":1,
    "tremble":1,
    "knowing":1,
    "died":1,
    "afford":1,
    "deliver":1,
    "underpassdon\u2019t":1,
    "mess":1,
    "happen":1,
    "sprints":1,
    "clothes":1,
    "remaining":1,
    "item":1,
    "baga":1,
    "uniform":1,
    "runsjumps":1,
    "transforms":1,
    "lobby":1,
    "opening":1,
    "pitching":1,
    "bagext":1,
    "c\u2019monc\u2019mon":1,
    "fuck\u2019s":1,
    "pedal":1,
    "itching":1,
    "enough":1,
    "necks":1,
    "whipeffect":1,
    "acceleration":1,
    "javieras":1,
    "paid":1,
    "unbelievable":1,
    "revving":1,
    "weaving":1,
    "sides":1,
    "avoid":1,
    "330degree":1,
    "ramp":1,
    "hit":1,
    "fade":1,
    "speed":1,
    "answers":1,
    "prepares":1,
    "finish":1,
    "eat":1,
    "momentarily":1,
    "smiling":1,
    "shaven":1,
    "cleaned":1,
    "version":1,
    "dossier":1,
    "tehuel":1,
    "aka":1,
    "less":1,
    "focused":1,
    "whole":1,
    "\u201cassassinate\u201d":1,
    "\u201cpresident\u201d":1,
    "originated":1,
    "hopes":1,
    "bringing":1,
    "continents":1,
    "ongoing":1,
    "war":1,
    "terror":1,
    "pans":1,
    "raise":1,
    "signs":1,
    "discontent":1,
    "laughs":1,
    "highly":1,
    "beauty":1,
    "americans\u2019":1,
    "arrogance":1,
    "imagine":1,
    "showcasing":1,
    "arrives":1,
    "number":1,
    "function":1,
    "webcam":1,
    "crosshairs":1,
    "hello":1,
    "package":1,
    "felipe":1,
    "hanging":1,
    "walking":1,
    "how\u2019s":1,
    "ourselves":1,
    "thirds":1,
    "text":1,
    "\u201cmessage\u201d":1,
    "watchingand":1,
    "adjusts":1,
    "read":1,
    "hates":1,
    "recruiting":1,
    "wager":1,
    "tonight":1,
    "smileand":1,
    "climbing":1,
    "\u201csend\u201d":1,
    "detonating":1,
    "smash":1,
    "hurdle":1,
    "wayspeople":1,
    "trajectory":1,
    "bends":1,
    "wrong":1,
    "pickup":1,
    "balks":1,
    "cord":1,
    "dart":1,
    "neither":1,
    "wanting":1,
    "stir":1,
    "mine":1,
    "field":1,
    "daylight":1,
    "pissing":1,
    "wind":1,
    "chuckling":1,
    "hitting":1,
    "facesuarez":1,
    "comfort":1,
    "grins":1,
    "found":1,
    "weak":1,
    "link":1,
    "shootercreating":1,
    "manhunt":1,
    "exist":1,
    "ends":1,
    "who\u2019s":1,
    "end":1,
    "woods":1,
    "submit":1,
    "demands":1,
    "whether":1,
    "reveal":1,
    "admit":1,
    "swings":1,
    "pole":1,
    "alarmed":1,
    "rapid":1,
    "succession":1,
    "unaware":1,
    "wheel":1,
    "slamming":1,
    "handle":1,
    "sparks":1,
    "thrownhis":1,
    "marking":1,
    "dismissed":1,
    "horrified":1,
    "ten":1,
    "harms":1,
    "realize":1,
    "he\u2019d":1,
    "dyingsaved":1,
    "breaks":1,
    "ambulancethe":1,
    "idly":1,
    "shot\u2019s":1,
    "repeatedly":1,
    "stronger":1,
    "confident":1,
    "15":1,
    "spaces":1,
    "damaged":1,
    "carseven":1,
    "\u201chome\u201d":1,
    "hino":1,
    "tears":1,
    "reports":1,
    "suggest":1,
    "intensive":1,
    "condition":1,
    "listed":1,
    "stable":1,
    "according":1,
    "director":1,
    "communications":1,
    "albrecht":1,
    "assuring":1,
    "continue":1,
    "meanwhile":1,
    "tightlipped":1,
    "identity":1,
    "lone":1,
    "assassin":1,
    "killed":1,
    "joan":1,
    "kendrick":1,
    "\u201conair\u201d":2,
    "mark":2,
    "mood":2,
    "most":2,
    "part":2,
    "hopeful":2,
    "certainly":2,
    "sympathetic":2,
    "bombing":2,
    "speak":2,
    "countries":2,
    "ang":2,
    "try":2,
    "features":2,
    "tv":2,
    "quickly":2,
    "legs":2,
    "should\u2019ve":2,
    "seconds":2,
    "joaquin":2,
    "little":2,
    "push":2,
    "c\u2019mon":2,
    "boy":2,
    "training":2,
    "year":2,
    "footage":2,
    "idea":2,
    "bullet":2,
    "believe":2,
    "guy":2,
    "reagan":2,
    "piece":2,
    "wanted":2,
    "greet":2,
    "local":2,
    "sooner":2,
    "does":2,
    "hold":2,
    "fill":2,
    "conversation":2,
    "slowly":2,
    "remain":2,
    "overwhelms":2,
    "staring":2,
    "disbelief":2,
    "direction":2,
    "carrying":2,
    "barking":2,
    "orders":2,
    "reporter":2,
    "act":2,
    "unseen":2,
    "told":2,
    "middle":2,
    "spots":2,
    "buildings":2,
    "ambulance":2,
    "except":2,
    "calls":2,
    "these":2,
    "happening":2,
    "job":2,
    "press":2,
    "blue":2,
    "microphones":2,
    "blow":2,
    "blown":2,
    "clearly":2,
    "cable":2,
    "word":2,
    "blast":2,
    "losing":2,
    "monitors":2,
    "crying":2,
    "injured":2,
    "helpless":2,
    "phones":2,
    "chair":2,
    "holds":2,
    "image":2,
    "desperate":2,
    "panel":2,
    "dirty":2,
    "washington":2,
    "suspect":2,
    "past":2,
    "glimpse":2,
    "tourist":2,
    "small":2,
    "falls":2,
    "crashing":2,
    "draws":2,
    "hysteria":2,
    "howard":2,
    "young":2,
    "strong":2,
    "peace":2,
    "important":2,
    "nice":2,
    "brings":2,
    "new":2,
    "family":2,
    "none":2,
    "things":2,
    "change":2,
    "kids":2,
    "sort":2,
    "bumped":2,
    "empty":2,
    "ice":2,
    "cream":2,
    "cry":2,
    "may":2,
    "probably":2,
    "meeting":2,
    "whispering":2,
    "attention":2,
    "european":2,
    "union":2,
    "great":2,
    "one\u2019s":2,
    "understand":2,
    "wasn\u2019t":2,
    "balance":2,
    "finding":2,
    "red":2,
    "struggles":2,
    "voice":2,
    "figure":2,
    "distance":2,
    "caught":2,
    "danger":2,
    "chasing":2,
    "film":2,
    "bit":2,
    "leaning":2,
    "last":2,
    "spinning":2,
    "moment":2,
    "adventure":2,
    "short":2,
    "heaves":2,
    "sweat":2,
    "worked":2,
    "leads":2,
    "rounding":2,
    "fights":2,
    "barely":2,
    "pushing":2,
    "beneath":2,
    "drawing":2,
    "parsons":2,
    "enrique\u2019s":2,
    "aid":2,
    "shoot":2,
    "turned":2,
    "rush":2,
    "jump":2,
    "glass":2,
    "against":2,
    "place":2,
    "paulina":2,
    "wand":2,
    "hardly":2,
    "leaves":2,
    "jealousy":2,
    "heat":2,
    "kiss":2,
    "having":2,
    "between":2,
    "because":2,
    "same":2,
    "throw":2,
    "fair":2,
    "pressing":2,
    "making":2,
    "almost":2,
    "quiet":2,
    "cannot":2,
    "tomorrow":2,
    "wiping":2,
    "leaders":2,
    "swells":2,
    "hesitate":2,
    "policia":2,
    "clearing":2,
    "wants":2,
    "matthews":2,
    "handing":2,
    "knows":2,
    "anyone":2,
    "locks":2,
    "scattered":2,
    "cafe":2,
    "onto":2,
    "troubled":2,
    "streets":2,
    "save":2,
    "getting":2,
    "inference":2,
    "limo":2,
    "count":2,
    "breathes":2,
    "swathe":2,
    "stare":2,
    "clean":2,
    "falling":2,
    "eagle\u2019s":2,
    "hasn\u2019t":2,
    "spoke":2,
    "taylor\u2019s":2,
    "live":2,
    "fully":2,
    "aims":2,
    "came":2,
    "different":2,
    "light":2,
    "entire":2,
    "thing":2,
    "reverse":2,
    "throwing":2,
    "explodes":2,
    "presses":2,
    "shock":2,
    "connection":2,
    "cellular":2,
    "picking":2,
    "brakes":2,
    "jerks":2,
    "horns":2,
    "flipping":2,
    "avoiding":2,
    "pedestrians":2,
    "missing":2,
    "narrow":2,
    "answer":2,
    "myself":2,
    "motorcade":2,
    "question":2,
    "opens":2,
    "nsa":2,
    "confirmed":2,
    "expression":2,
    "since":2,
    "five":2,
    "mujahedin":2,
    "special":2,
    "forces":2,
    "card":2,
    "match":2,
    "threatening":2,
    "leadership":2,
    "satellite":2,
    "lock":2,
    "authorities":2,
    "fauxashton":2,
    "carries":2,
    "weren\u2019t":2,
    "stopped":2,
    "body":2,
    "own":2,
    "long":2,
    "heard":2,
    "fly":2,
    "windows":2,
    "wife":2,
    "sudden":2,
    "pulls":2,
    "emotions":2,
    "stand":2,
    "shy":2,
    "rips":2,
    "chimes":2,
    "jars":2,
    "straight":2,
    "enter":2,
    "raises":2,
    "handkerchief":2,
    "roll":2,
    "voices":2,
    "words":2,
    "leave":2,
    "said":2,
    "you\u2019ll":2,
    "happy":2,
    "ear":2,
    "entrance":2,
    "point":2,
    "trust":2,
    "\u201cthe":2,
    "up\u201d":2,
    "disappoint":2,
    "lowers":2,
    "afternoon":2,
    "cries":2,
    "slides":2,
    "key":2,
    "volume":2,
    "hurrying":2,
    "reads":2,
    "landing":2,
    "stairwell":2,
    "level":2,
    "they\u2019ve":2,
    "brother\u2019s":2,
    "steer":2,
    "angle":2,
    "walk":2,
    "chance":2,
    "palm":2,
    "pilot":2,
    "americans":2,
    "double\u2019s":2,
    "sensing":2,
    "suarez\u2019s":2,
    "veronica\u2019s":2,
    "loose":2,
    "they\u2019ll":2,
    "soon":2,
    "loved":3,
    "recent":3,
    "however":3,
    "took":3,
    "thanks":3,
    "points":3,
    "watching":3,
    "he\u2019ll":3,
    "why":3,
    "fifteen":3,
    "slightest":3,
    "mistake":3,
    "screw":3,
    "fire":3,
    "stick":3,
    "leading":3,
    "allowing":3,
    "prime":3,
    "minister":3,
    "gutierrez":3,
    "only":3,
    "won\u2019t":3,
    "hill":3,
    "\u2018em":3,
    "c":3,
    "stairs":3,
    "dignitaries":3,
    "work":3,
    "bad":3,
    "mind":3,
    "waves":3,
    "big":3,
    "smile":3,
    "hard":3,
    "breath":3,
    "every":3,
    "group":3,
    "standing":3,
    "alone":3,
    "minute":3,
    "problem":3,
    "pretty":3,
    "background":3,
    "explosion":3,
    "hell":3,
    "we\u2019ll":3,
    "few":3,
    "slams":3,
    "you\u2019ve":3,
    "supposed":3,
    "scream":3,
    "tries":3,
    "must":3,
    "third":3,
    "rushes":3,
    "wheels":3,
    "follows":3,
    "any":3,
    "hits":3,
    "reaching":3,
    "truck":3,
    "attempts":3,
    "deal":3,
    "goddamnit":3,
    "noticing":3,
    "wait":3,
    "hesitates":3,
    "races":3,
    "ever":3,
    "its":3,
    "narrowly":3,
    "instead":3,
    "huh":3,
    "madrid":3,
    "appears":3,
    "wrist":3,
    "members":3,
    "zooming":3,
    "unsure":3,
    "speech":3,
    "smiles":3,
    "ring":3,
    "lying":3,
    "gathering":3,
    "stage":3,
    "emotion":3,
    "stands":3,
    "check":3,
    "feet":3,
    "without":3,
    "chest":3,
    "bridge":3,
    "road":3,
    "below":3,
    "cop":3,
    "edge":3,
    "screaming":3,
    "cars":3,
    "tracks":3,
    "metal":3,
    "juan":3,
    "glares":3,
    "deep":3,
    "enters":3,
    "united":3,
    "states":3,
    "action":3,
    "view":3,
    "path":3,
    "throws":3,
    "mira":3,
    "fast":3,
    "speaks":3,
    "home":3,
    "freeze":3,
    "rage":3,
    "eagle":3,
    "west":3,
    "flutter":3,
    "breathing":3,
    "happened":3,
    "shadow":3,
    "understood":3,
    "drive":3,
    "accelerates":3,
    "river":3,
    "rick":3,
    "underpass":3,
    "locking":3,
    "threat":3,
    "days":3,
    "minutes":3,
    "radio":3,
    "email":3,
    "order":3,
    "summit":3,
    "pick":3,
    "gurney":3,
    "3897454986026":3,
    "lose":3,
    "either":3,
    "shut":4,
    "talking":4,
    "taking":4,
    "say":4,
    "while":4,
    "drawn":4,
    "goes":4,
    "set":4,
    "story":4,
    "love":4,
    "goddamn":4,
    "follow":4,
    "hands":4,
    "playback":4,
    "where\u2019s":4,
    "climbs":4,
    "mayor":4,
    "herethis":4,
    "else":4,
    "start":4,
    "pulling":4,
    "catch":4,
    "fills":4,
    "sure":4,
    "damnit":4,
    "sound":4,
    "smoke":4,
    "ccam":4,
    "thrown":4,
    "grabs":4,
    "picks":4,
    "hangs":4,
    "free":4,
    "well":4,
    "inside":4,
    "cell":4,
    "which":4,
    "pursuit":4,
    "take":4,
    "street":4,
    "struck":4,
    "seems":4,
    "isn\u2019t":4,
    "block":4,
    "dials":4,
    "run":4,
    "grant":4,
    "mother":4,
    "cone":4,
    "very":4,
    "tardes":4,
    "welcome":4,
    "world":4,
    "aimed":4,
    "pocket":4,
    "traffic":4,
    "gets":4,
    "forward":4,
    "fired":4,
    "cross":4,
    "guns":4,
    "kill":4,
    "leaving":4,
    "badge":4,
    "exhales":4,
    "close":4,
    "stopping":4,
    "arriving":4,
    "yet":4,
    "made":4,
    "men":4,
    "floor":4,
    "gsw":4,
    "twenty":4,
    "response":4,
    "leans":4,
    "phil":4,
    "joint":4,
    "chiefs":4,
    "sent":4,
    "double":4,
    "doors":4,
    "room":4,
    "fires":4,
    "javier\u2019s":4,
    "screams":4,
    "frequency":4,
    "those":5,
    "yeah":5,
    "another":5,
    "arrived":5,
    "others":5,
    "didn\u2019t":5,
    "had":5,
    "pull":5,
    "care":5,
    "jesus":5,
    "takes":5,
    "talk":5,
    "keep":5,
    "than":5,
    "buenos":5,
    "erupts":5,
    "should":5,
    "watch":5,
    "chaos":5,
    "please":5,
    "help":5,
    "even":5,
    "intersection":5,
    "each":5,
    "lewicki\u2019s":5,
    "really":5,
    "meet":5,
    "therefore":5,
    "catches":5,
    "i\u2019ll":5,
    "bomb":5,
    "vehicle":5,
    "corner":5,
    "officer":5,
    "dead":5,
    "drops":5,
    "heads":5,
    "passes":5,
    "bag":5,
    "working":5,
    "first":5,
    "potus":5,
    "cavic":5,
    "mr":5,
    "ones":6,
    "doing":6,
    "protestors":6,
    "trying":6,
    "show":6,
    "or":6,
    "american":6,
    "acam":6,
    "spanish":6,
    "give":6,
    "left":6,
    "shakes":6,
    "seeing":6,
    "stares":6,
    "screen":6,
    "moves":6,
    "steps":6,
    "wondrous":6,
    "history":6,
    "i\u2019ve":6,
    "offer":6,
    "once":6,
    "gun":6,
    "outside":6,
    "everything":6,
    "too":6,
    "rings":6,
    "waits":6,
    "suddenly":6,
    "annex":6,
    "exit":6,
    "someone":6,
    "how":6,
    "time":6,
    "sorry":6,
    "shots":6,
    "step":6,
    "think":6,
    "sight":6,
    "president\u2019s":6,
    "wreckage":6,
    "marie":6,
    "together":6,
    "further":6,
    "were":6,
    "shooter":6,
    "done":6,
    "television":6,
    "continues":7,
    "everyone":7,
    "two":7,
    "some":7,
    "christ":7,
    "bruce":7,
    "listen":7,
    "repeat":7,
    "bcam":7,
    "moving":7,
    "thomas":7,
    "never":7,
    "could":7,
    "let":7,
    "good":7,
    "ago":7,
    "day":7,
    "hope":7,
    "ready":7,
    "better":7,
    "find":7,
    "we\u2019ve":7,
    "silence":7,
    "put":7,
    "next":7,
    "immediately":7,
    "running":7,
    "notices":7,
    "behind":7,
    "call":7,
    "stops":7,
    "police":7,
    "anything":7,
    "gone":7,
    "she\u2019s":7,
    "sir":7,
    "reaches":7,
    "hears":7,
    "security":7,
    "open":7,
    "mask":7,
    "let\u2019s":8,
    "tell":8,
    "lost":8,
    "head":8,
    "thank":8,
    "being":8,
    "when":8,
    "you\u2019re":8,
    "ahead":8,
    "heading":8,
    "nods":8,
    "doesn\u2019t":8,
    "gas":8,
    "brother":8,
    "side":9,
    "other":9,
    "both":9,
    "grace":9,
    "fine":9,
    "eye":9,
    "ashton\u2019s":9,
    "that\u2019s":9,
    "coming":9,
    "move":9,
    "today":9,
    "across":9,
    "been":9,
    "nothing":9,
    "make":9,
    "heart":9,
    "watches":9,
    "alright":9,
    "they\u2019re":9,
    "door":9,
    "come":9,
    "runs":9,
    "by":9,
    "elevator":9,
    "will":9,
    "hand":10,
    "our":10,
    "still":10,
    "like":10,
    "plaza":10,
    "de":10,
    "soto":10,
    "much":10,
    "ground":10,
    "agent":10,
    "beat":10,
    "himself":10,
    "okay":10,
    "there\u2019s":10,
    "what\u2019s":11,
    "them":11,
    "want":11,
    "camera":11,
    "dcam":11,
    "applause":11,
    "city":11,
    "bang":11,
    "god":11,
    "closer":11,
    "stop":11,
    "about":11,
    "jankowski":11,
    "heinkin":11,
    "if":12,
    "front":12,
    "so":12,
    "after":12,
    "oh":12,
    "turn":12,
    "master":12,
    "begins":12,
    "car":12,
    "their":12,
    "until":12,
    "saw":12,
    "us":13,
    "who":13,
    "crowds":13,
    "agents":13,
    "face":13,
    "more":13,
    "way":13,
    "turning":13,
    "second":13,
    "phone":13,
    "look":13,
    "command":13,
    "int":13,
    "people":14,
    "hear":14,
    "window":14,
    "clear":14,
    "sees":14,
    "shot":14,
    "mccullough":14,
    "monitor":15,
    "one":15,
    "did":15,
    "don\u2019t":15,
    "podium":15,
    "kevin":16,
    "secret":16,
    "eyes":16,
    "luis":17,
    "through":17,
    "service":17,
    "right":17,
    "angie":18,
    "she":18,
    "then":18,
    "before":18,
    "toward":18,
    "away":18,
    "know":19,
    "something":19,
    "again":19,
    "your":19,
    "an":19,
    "off":19,
    "ext":19,
    "suarez":19,
    "man":20,
    "looking":21,
    "but":21,
    "anna":21,
    "was":22,
    "got":22,
    "where":22,
    "around":22,
    "need":22,
    "we\u2019re":23,
    "can":23,
    "cut":23,
    "veronica":23,
    "going":25,
    "me":25,
    "can\u2019t":25,
    "there":26,
    "here":26,
    "have":26,
    "be":26,
    "they":26,
    "all":27,
    "it\u2019s":27,
    "into":27,
    "has":28,
    "do":28,
    "see":29,
    "lewicki":29,
    "taylor":30,
    "go":30,
    "from":32,
    "not":32,
    "are":32,
    "i\u2019m":32,
    "my":32,
    "get":33,
    "her":34,
    "just":34,
    "president":36,
    "no":37,
    "he\u2019s":37,
    "over":37,
    "now":38,
    "javier":38,
    "turns":39,
    "what":41,
    "enrique":43,
    "ashton":44,
    "down":47,
    "rex":50,
    "this":50,
    "up":51,
    "for":52,
    "with":57,
    "looks":57,
    "out":59,
    "at":61,
    "that":67,
    "back":68,
    "i":83,
    "him":85,
    "we":85,
    "barnes":88,
    "and":89,
    "is":89,
    "on":93,
    "it":98,
    "in":102,
    "his":102,
    "you":113,
    "of":129,
    "a":129,
    "as":138,
    "he":208,
    "":226,
    "to":261,
    "the":566
}