{
    "whend":1,
    "ahh":1,
    "3":1,
    "august":1,
    "aberdeen":1,
    "closest":1,
    "economics":1,
    "wild":1,
    "cherry":1,
    "luck":1,
    "blackjack":1,
    "tables":1,
    "ralston":1,
    "pay":1,
    "respect":1,
    "insist":1,
    "pleasure":1,
    "answer":1,
    "scare":1,
    "gone":1,
    "sad":1,
    "story":1,
    "5":1,
    "fell":1,
    "asleep":1,
    "wheel":1,
    "uhhh":1,
    "hit":1,
    "tree":1,
    "month":1,
    "hug":1,
    "ma":1,
    "tent":1,
    "kiddin":1,
    "wish":1,
    "coming":1,
    "wouldve":1,
    "cooked":1,
    "planning":1,
    "working":1,
    "letters":1,
    "mentioned":1,
    "bother":1,
    "father":1,
    "laid":1,
    "off":1,
    "furniture":1,
    "substitute":1,
    "elementary":1,
    "pitches":1,
    "uncle":1,
    "barely":1,
    "walking":1,
    "camping":1,
    "sleep":1,
    "couch":1,
    "room":1,
    "tents":1,
    "show":1,
    "rig":1,
    "rain":1,
    "colonel":1,
    "sergeant":1,
    "worked":1,
    "living":1,
    "ever":1,
    "smoke":1,
    "anybody":1,
    "papas":1,
    "locked":1,
    "thatd":1,
    "scrap":1,
    "metal":1,
    "hoping":1,
    "melt":1,
    "thirty":1,
    "rained":1,
    "happy":1,
    "dontcha":1,
    "dry":1,
    "ahaaa":1,
    "puddin":1,
    "lovemachine":1,
    "livin":1,
    "beer":1,
    "believe":1,
    "drinkin":1,
    "soda":1,
    "whoah":1,
    "gave":1,
    "idea":1,
    "uhh":1,
    "seattle":1,
    "guitar":1,
    "became":1,
    "ended":1,
    "b+e":1,
    "nahh":1,
    "sober":1,
    "14":1,
    "construction":1,
    "renewing":1,
    "supportive":1,
    "healthy":1,
    "friendships":1,
    "past":1,
    "matter":1,
    "fact":1,
    "bastards":1,
    "asked":1,
    "politely":1,
    "kick":1,
    "offs":1,
    "twenty":1,
    "playin":1,
    "hadnt":1,
    "shut":1,
    "opened":1,
    "gut":1,
    "reflexes":1,
    "tired":1,
    "brings":1,
    "breath":1,
    "score":1,
    "rest":1,
    "hut":1,
    "anythin":1,
    "hold":1,
    "bleachers":1,
    "smoking":1,
    "weed":1,
    "native":1,
    "american":1,
    "sixteenth":1,
    "black":1,
    "nobodys":1,
    "finding":1,
    "subtle":1,
    "attention":1,
    "aesthetics":1,
    "most":1,
    "impressive":1,
    "blends":1,
    "mountains":1,
    "nicely":1,
    "wonderful":1,
    "gambling":1,
    "big":1,
    "roof":1,
    "atm":1,
    "machine":1,
    "tellers":1,
    "cash":1,
    "paycheck":1,
    "child":1,
    "support":1,
    "rent":1,
    "laws":1,
    "mathematical":1,
    "probability":1,
    "gentlemen":1,
    "invite":1,
    "lounge":1,
    "mister":1,
    "heyyy":1,
    "dream":1,
    "team":1,
    "world":1,
    "credit":1,
    "female":1,
    "companionship":1,
    "ive":1,
    "enjoy":1,
    "free":1,
    "fake":1,
    "boobs":1,
    "bye":1,
    "drinking":1,
    "visiting":1,
    "faces":1,
    "voice":1,
    "candy":1,
    "killed":1,
    "200":1,
    "five":1,
    "hundred":1,
    "boom":1,
    "ohhhhh":1,
    "switch":1,
    "asshole":1,
    "bets":1,
    "pass":1,
    "payout":1,
    "legitimate":1,
    "shooter":1,
    "loaded":1,
    "boss":1,
    "banged":1,
    "dead":1,
    "lesser":1,
    "survived":1,
    "statement":1,
    "doctor":1,
    "condition":1,
    "also":1,
    "copy":1,
    "writeup":1,
    "along":1,
    "toxicoloy":1,
    "alcohol":1,
    "level":1,
    "talkin":1,
    "facts":1,
    "arresting":1,
    "testing":1,
    "understand":1,
    "meantime":1,
    "file":1,
    "full":1,
    "report":1,
    "lemme":1,
    "beautiful":1,
    "flowers":1,
    "friend":1,
    "status":1,
    "fighting":1,
    "skills":1,
    "feelin":1,
    "homecoming":1,
    "noticed":1,
    "aint":1,
    "exactly":1,
    "crutches":1,
    "plugs":1,
    "mightve":1,
    "issues":1,
    "career":1,
    "choice":1,
    "fair":1,
    "innocent":1,
    "headin":1,
    "supplies":1,
    "wanted":1,
    "made":1,
    "thinking":1,
    "kid":1,
    "visit":1,
    "freshcut":1,
    "cedar":1,
    "six":1,
    "depot":1,
    "fifteen":1,
    "road":1,
    "gaming":1,
    "permits":1,
    "pulled":1,
    "cameras":1,
    "seein":1,
    "rough":1,
    "edgy":1,
    "understandably":1,
    "kind":1,
    "daily":1,
    "theyve":1,
    "reprimanded":1,
    "nuts":1,
    "proper":1,
    "vets":1,
    "use":1,
    "post":1,
    "traumatic":1,
    "stress":1,
    "fuck":1,
    "talking":1,
    "tore":1,
    "apart":1,
    "agree":1,
    "shouldnt":1,
    "bring":1,
    "head":1,
    "ah":1,
    "feet":1,
    "spiffy":1,
    "incident":1,
    "matters":1,
    "enough":1,
    "fly":1,
    "zone":1,
    "since":1,
    "main":1,
    "source":1,
    "revenue":1,
    "lucky":1,
    "alive":1,
    "concentrating":1,
    "building":1,
    "belongs":1,
    "history":1,
    "coulda":1,
    "trash":1,
    "dear":1,
    "mrs":1,
    "second":1,
    "station":1,
    "reelection":1,
    "ought":1,
    "sunshine":1,
    "pine":1,
    "trees":1,
    "readin":1,
    "cultivate":1,
    "happiness":1,
    "future":1,
    "flow":1,
    "sorta":1,
    "moments":1,
    "yep":1,
    "almost":1,
    "year":1,
    "treatin":1,
    "treated":1,
    "himself":1,
    "hasnt":1,
    "gogetter":1,
    "must":1,
    "heard":1,
    "lasted":1,
    "rents":1,
    "paid":1,
    "suppose":1,
    "hope":1,
    "jacket":1,
    "stabilised":1,
    "crystal":1,
    "meth":1,
    "true":1,
    "mighta":1,
    "kinda":1,
    "pushed":1,
    "whered":1,
    "stop":1,
    "aw":1,
    "ne":1,
    "trouble":1,
    "hands":1,
    "advise":1,
    "trial":1,
    "18":1,
    "sweet":1,
    "normally":1,
    "table":1,
    "military":1,
    "record":1,
    "ignored":1,
    "three":1,
    "community":1,
    "service":1,
    "generous":1,
    "side":1,
    "dozen":1,
    "witnesses":1,
    "none":1,
    "paint":1,
    "flattering":1,
    "picture":1,
    "bustin":1,
    "gunshot":1,
    "complete":1,
    "psychopath":1,
    "offering":1,
    "deal":1,
    "quiet":1,
    "control":1,
    "highly":1,
    "trained":1,
    "violent":1,
    "dangerous":1,
    "person":1,
    "directly":1,
    "correct":1,
    "forearm":1,
    "bones":1,
    "single":1,
    "shot":1,
    "emptyin":1,
    "vaugh":1,
    "swingin":1,
    "crow":1,
    "present":1,
    "clients":1,
    "choose":1,
    "represent":1,
    "yourself":1,
    "represented":1,
    "legal":1,
    "counsel":1,
    "realise":1,
    "claim":1,
    "mistrial":1,
    "deny":1,
    "mean":1,
    "changing":1,
    "except":1,
    "standing":1,
    "law":1,
    "trying":1,
    "prior":1,
    "events":1,
    "point":1,
    "tall":1,
    "traded":1,
    "civic":1,
    "speeches":1,
    "stood":1,
    "sold":1,
    "kids":1,
    "held":1,
    "justified":1,
    "acquit":1,
    "run":1,
    "elected":1,
    "fix":1,
    "charged":1,
    "happens":1,
    "again":1,
    "without":1,
    "punishing":1,
    "ignore":1,
    "seat":1,
    "forman":1,
    "reached":1,
    "verdict":1,
    "rise":1,
    "mine":1,
    "won":1,
    "congratulations":1,
    "tradition":1,
    "professional":1,
    "courtesy":1,
    "personally":1,
    "vouch":1,
    "each":1,
    "deputies":1,
    "joking":1,
    "pedalling":1,
    "going":1,
    "reconstruction":1,
    "through":1,
    "print":1,
    "jeopardise":1,
    "selling":1,
    "owned":1,
    "wake":1,
    "nifty":1,
    "underneath":1,
    "same":1,
    "playing":1,
    "college":1,
    "football":1,
    "apparently":1,
    "push":1,
    "hard":1,
    "live":1,
    "40":1,
    "fixed":1,
    "warning":1,
    "broken":1,
    "deputy":1,
    "nope":1,
    "cops":1,
    "already":1,
    "startin":1,
    "convicted":1,
    "felon":1,
    "pull":1,
    "favours":1,
    "friends":1,
    "roadblocks":1,
    "frisking":1,
    "dudes":1,
    "crotches":1,
    "wear":1,
    "carrying":1,
    "shit":1,
    "officer":1,
    "spread":1,
    "legs":1,
    "arms":1,
    "bath":1,
    "read":1,
    "rights":1,
    "lawyer":1,
    "k":1,
    "hunch":1,
    "move":1,
    "b":1,
    "information":1,
    "spit":1,
    "hurt":1,
    "always":1,
    "fight":1,
    "guns":1,
    "stubborn":1,
    "boy":1,
    "careful":1,
    "booth":1,
    "upset":1,
    "body":1,
    "woooooooo":1,
    "forgot":1,
    "disperse":1,
    "nothing":1,
    "s":1,
    "far":1,
    "check":1,
    "kay":1,
    "hows":1,
    "food":1,
    "brought":1,
    "special":1,
    "treats":1,
    "salmon":1,
    "fried":1,
    "chicken":1,
    "salad":1,
    "cups":1,
    "making":1,
    "whos":1,
    "bigger":1,
    "hungry":1,
    "leftovers":1,
    "mm":1,
    "pancakes":1,
    "eggs":1,
    "bacon":1,
    "woooooooooooo":1,
    "baby":1,
    "somethins":1,
    "burnin":1,
    "start":1,
    "shooting":1,
    "low":1,
    "burke":1,
    "worth":1,
    "wheres":1,
    "lab":1,
    "operation":1,
    "drop":1,
    "warn":1,
    "wooooooooo":1,
    "stabbed":1,
    "peeler":1,
    "sec":1,
    "hide":1,
    "seek":1,
    "new":1,
    "screaming":1,
    "bitch":1,
    "change":1,
    "oughta":1,
    "souvenirs":1,
    "accepting":1,
    "speed":1,
    "traps":1,
    "cuttin":1,
    "trucks":1,
    "mention":1,
    "searches":1,
    "speakin":1,
    "which":1,
    "jays":1,
    "pen":1,
    "runnin":1,
    "shower":1,
    "tower":1,
    "felons":1,
    "blowin":1,
    "somebodys":1,
    "lunch":1,
    "pick":1,
    "grab":1,
    "might":2,
    "simple":2,
    "watkins":2,
    "car":2,
    "soldier":2,
    "walk":2,
    "8":2,
    "harstad":2,
    "election":2,
    "brother":2,
    "looking":2,
    "uniform":2,
    "problems":2,
    "business":2,
    "outside":2,
    "school":2,
    "sit":2,
    "hello":2,
    "water":2,
    "doesnt":2,
    "gun":2,
    "garage":2,
    "shoot":2,
    "figured":2,
    "whatever":2,
    "remind":2,
    "anyone":2,
    "floor":2,
    "bed":2,
    "kill":2,
    "girls":2,
    "actually":2,
    "or":2,
    "quit":2,
    "life":2,
    "music":2,
    "soon":2,
    "n":2,
    "basically":2,
    "em":2,
    "deep":2,
    "happen":2,
    "parents":2,
    "relax":2,
    "catch":2,
    "today":2,
    "win":2,
    "boys":2,
    "chance":2,
    "cool":2,
    "round":2,
    "later":2,
    "introduce":2,
    "drinks":2,
    "whaddya":2,
    "sarge":2,
    "buddy":2,
    "isnt":2,
    "under":2,
    "worry":2,
    "hamilton":2,
    "vip":2,
    "house":2,
    "line":2,
    "few":2,
    "heres":2,
    "assholes":2,
    "ask":2,
    "grew":2,
    "youve":2,
    "seen":2,
    "sounds":2,
    "familiar":2,
    "easy":2,
    "gettin":2,
    "yes":2,
    "jimmy":2,
    "comin":2,
    "even":2,
    "inside":2,
    "whoever":2,
    "blood":2,
    "tried":2,
    "feel":2,
    "yet":2,
    "best":2,
    "army":2,
    "tell":2,
    "guy":2,
    "morning":2,
    "appreciate":2,
    "had":2,
    "serious":2,
    "seem":2,
    "whole":2,
    "smell":2,
    "mmm":2,
    "lotta":2,
    "miss":2,
    "lot":2,
    "basis":2,
    "term":2,
    "guys":2,
    "press":2,
    "probably":2,
    "internal":2,
    "investigation":2,
    "hmm":2,
    "other":2,
    "thought":2,
    "hi":2,
    "better":2,
    "police":2,
    "as":2,
    "books":2,
    "changes":2,
    "relationship":2,
    "offer":2,
    "plea":2,
    "cant":2,
    "arrest":2,
    "id":2,
    "plead":2,
    "machines":2,
    "wrong":2,
    "men":2,
    "everything":2,
    "took":2,
    "may":2,
    "myself":2,
    "objection":2,
    "sustained":2,
    "used":2,
    "crooked":2,
    "contempt":2,
    "jury":2,
    "has":2,
    "defendant":2,
    "every":2,
    "registration":2,
    "plan":2,
    "taking":2,
    "else":2,
    "cop":2,
    "tail":2,
    "lights":2,
    "mornin":2,
    "starts":2,
    "bribes":2,
    "setting":2,
    "search":2,
    "ohhhh":2,
    "screw":2,
    "step":2,
    "away":2,
    "cavity":2,
    "potato":2,
    "favourite":2,
    "sound":2,
    "close":3,
    "bad":3,
    "nah":3,
    "yknow":3,
    "money":3,
    "stan":3,
    "real":3,
    "ride":3,
    "fine":3,
    "thank":3,
    "then":3,
    "help":3,
    "great":3,
    "couldnt":3,
    "dad":3,
    "told":3,
    "michelle":3,
    "said":3,
    "cmon":3,
    "somethin":3,
    "eat":3,
    "teach":3,
    "youll":3,
    "own":3,
    "mom":3,
    "okay":3,
    "ten":3,
    "crash":3,
    "people":3,
    "alright":3,
    "though":3,
    "should":3,
    "something":3,
    "2":3,
    "those":3,
    "talked":3,
    "ball":3,
    "play":3,
    "more":3,
    "than":3,
    "before":3,
    "game":3,
    "hamiltons":3,
    "needs":3,
    "much":3,
    "done":3,
    "both":3,
    "old":3,
    "seven":3,
    "call":3,
    "tryin":3,
    "job":3,
    "started":3,
    "talk":3,
    "changed":3,
    "into":3,
    "crazy":3,
    "ago":3,
    "fired":3,
    "hate":3,
    "wait":3,
    "charges":3,
    "guess":3,
    "came":3,
    "way":3,
    "excuse":3,
    "case":3,
    "somebody":3,
    "badge":3,
    "workin":3,
    "listen":3,
    "honor":3,
    "anything":3,
    "want":3,
    "years":4,
    "try":4,
    "find":4,
    "too":4,
    "maybe":4,
    "hell":4,
    "folks":4,
    "give":4,
    "wont":4,
    "an":4,
    "bit":4,
    "while":4,
    "months":4,
    "uh":4,
    "gimme":4,
    "only":4,
    "whats":4,
    "long":4,
    "would":4,
    "never":4,
    "things":4,
    "last":4,
    "first":4,
    "clean":4,
    "left":4,
    "pretty":4,
    "doing":4,
    "his":4,
    "cause":4,
    "being":4,
    "tonight":4,
    "next":4,
    "any":4,
    "where":4,
    "goin":4,
    "remember":4,
    "nothin":4,
    "very":4,
    "bet":4,
    "security":4,
    "these":4,
    "care":4,
    "wasnt":4,
    "does":4,
    "theres":4,
    "little":4,
    "stand":4,
    "vehicle":4,
    "guilty":4,
    "stay":4,
    "license":4,
    "lookin":5,
    "work":5,
    "nice":5,
    "welcome":5,
    "huh":5,
    "yeah":5,
    "problem":5,
    "let":5,
    "didnt":5,
    "our":5,
    "saw":5,
    "keep":5,
    "by":5,
    "thing":5,
    "ray":5,
    "went":5,
    "minutes":5,
    "gotta":5,
    "deni":5,
    "sir":5,
    "wouldnt":5,
    "will":5,
    "truck":5,
    "sure":5,
    "closed":6,
    "why":6,
    "jay":6,
    "6":6,
    "dice":6,
    "roll":6,
    "who":6,
    "theyre":6,
    "please":6,
    "doin":7,
    "really":7,
    "make":7,
    "lil":7,
    "over":7,
    "time":7,
    "sorry":7,
    "drugs":7,
    "from":7,
    "put":7,
    "around":8,
    "think":8,
    "thanks":8,
    "":8,
    "one":8,
    "lets":8,
    "place":8,
    "yea":8,
    "order":8,
    "outta":9,
    "home":9,
    "can":9,
    "oh":9,
    "could":9,
    "still":9,
    "mill":10,
    "he":10,
    "when":10,
    "town":10,
    "him":10,
    "hes":10,
    "wanna":11,
    "were":11,
    "back":11,
    "like":11,
    "out":11,
    "some":12,
    "there":12,
    "so":12,
    "come":12,
    "look":12,
    "pete":12,
    "say":12,
    "been":12,
    "right":12,
    "but":12,
    "sheriff":13,
    "ill":13,
    "take":13,
    "need":13,
    "mr":13,
    "ok":14,
    "casino":14,
    "go":14,
    "down":14,
    "at":14,
    "well":14,
    "they":14,
    "see":14,
    "if":15,
    "vaughn":15,
    "all":15,
    "man":15,
    "are":15,
    "thats":16,
    "know":16,
    "did":16,
    "got":16,
    "how":17,
    "its":17,
    "good":17,
    "do":18,
    "we":19,
    "what":19,
    "hey":20,
    "now":20,
    "about":21,
    "with":21,
    "dont":22,
    "gonna":23,
    "up":23,
    "ya":24,
    "just":24,
    "no":24,
    "was":24,
    "have":25,
    "youre":26,
    "get":27,
    "be":28,
    "not":28,
    "in":29,
    "chris":30,
    "is":30,
    "my":31,
    "of":31,
    "on":32,
    "here":33,
    "me":33,
    "im":36,
    "for":37,
    "this":38,
    "your":42,
    "it":45,
    "and":52,
    "that":56,
    "a":77,
    "to":100,
    "the":101,
    "i":106,
    "you":153
}