{
    "56":1,
    "theyll":1,
    "impound":1,
    "paychecksdamn":1,
    "lola":1,
    "sack":1,
    "terrells":1,
    "jimmy":1,
    "midnight":1,
    "shift":1,
    "wow":1,
    "funny":1,
    "girls":1,
    "elevators":1,
    "shy":1,
    "confidence":1,
    "overcompensating":1,
    "syndrome":1,
    "sonufabitch":1,
    "learn":1,
    "915":1,
    "eleven":1,
    "elevatorspeople":1,
    "sat":1,
    "chuckie":1,
    "woman":1,
    "slayer":1,
    "genetics":1,
    "yale":1,
    "education":1,
    "tailor":1,
    "learned":1,
    "chunk":1,
    "feeling":1,
    "killing":1,
    "wheres":1,
    "gun":1,
    "joke":1,
    "charting":1,
    "bearish":1,
    "bullets":1,
    "duke":1,
    "qualify":1,
    "welfare":1,
    "fry":1,
    "faster":1,
    "roosevelt":1,
    "sloshing":1,
    "biggest":1,
    "mistake":1,
    "letting":1,
    "nixon":1,
    "standard":1,
    "putney":1,
    "drugyou":1,
    "ibm":1,
    "hilton":1,
    "builtgood":1,
    "sometimes":1,
    "production":1,
    "investments":1,
    "adjustments":1,
    "double":1,
    "commissions":1,
    "especially":1,
    "rookies":1,
    "also":1,
    "ends":1,
    "lead":1,
    "july":1,
    "april":1,
    "thirtieshow":1,
    "decembers":1,
    "treasuries":1,
    "gulf":1,
    "delroy":1,
    "longconwest":1,
    "gone":1,
    "printer":1,
    "manager":1,
    "reader":1,
    "welcome":1,
    "swear":1,
    "assigned":1,
    "error":1,
    "tune":1,
    "tapped":1,
    "rookie":1,
    "dream":1,
    "institutional":1,
    "cheesecake":1,
    "realize":1,
    "hunters":1,
    "elephants":1,
    "retail":1,
    "challenger":1,
    "blew":1,
    "nasa":1,
    "everyday":1,
    "marry":1,
    "bankers":1,
    "message":1,
    "lottery":1,
    "condo":1,
    "sos":1,
    "mood":1,
    "fish":1,
    "spaghettis":1,
    "date":1,
    "billie":1,
    "grown":1,
    "bags":1,
    "ah":1,
    "dkd":1,
    "english":1,
    "dk":1,
    "racket":1,
    "contender":1,
    "supervisor":1,
    "instead":1,
    "relations":1,
    "bein":1,
    "list":1,
    "scholarship":1,
    "35000":1,
    "k":1,
    "base":1,
    "apple":1,
    "40":1,
    "costs":1,
    "bills":1,
    "suits":1,
    "shoes":1,
    "palace":1,
    "rocker":1,
    "37000":1,
    "queens":1,
    "mortgage":1,
    "roomi":1,
    "manhattan":1,
    "nobility":1,
    "yknow":1,
    "spare":1,
    "100":1,
    "adds":1,
    "brother":1,
    "bless":1,
    "coast":1,
    "near":1,
    "tampa":1,
    "testing":1,
    "driving":1,
    "flagged":1,
    "comptroller":1,
    "stuffmember":1,
    "summer":1,
    "manufacturing":1,
    "flaw":1,
    "latch":1,
    "mechanism":1,
    "maintenance":1,
    "manufacturers":1,
    "cincinnati":1,
    "suspension":1,
    "boston":1,
    "equipment":1,
    "compete":1,
    "mischievous":1,
    "sleeping":1,
    "delivery":1,
    "personal":1,
    "item":1,
    "recognize":1,
    "voice":1,
    "hint":1,
    "seriously":1,
    "marrying":1,
    "lovelier":1,
    "pictured":1,
    "barging":1,
    "bible":1,
    "gift":1,
    "cuban":1,
    "cigarsdavidoff":1,
    "moments":1,
    "forty":1,
    "insult":1,
    "livestock":1,
    "raise":1,
    "sperm":1,
    "59":1,
    "row":1,
    "oughta":1,
    "dictionary":1,
    "persistence":1,
    "jerry":1,
    "negative":1,
    "control":1,
    "enouqh":1,
    "elses":1,
    "cooked":1,
    "zone":1,
    "lock":1,
    "palget":1,
    "buyer":1,
    "institutions":1,
    "marx":1,
    "mutual":1,
    "reardon":1,
    "retirement":1,
    "macdonalds":1,
    "mac":1,
    "20000":1,
    "joking":1,
    "wimps":1,
    "vulnerable":1,
    "bahamas":1,
    "feint":1,
    "towards":1,
    "tipping":1,
    "arb":1,
    "usedhappy":1,
    "holideals":1,
    "intelligent":1,
    "connection":1,
    "s":1,
    "kimosabe":1,
    "monitor":1,
    "upset":1,
    "microprocessor":1,
    "computes":1,
    "systolic":1,
    "diastolic":1,
    "lcd":1,
    "readout":1,
    "incredible":1,
    "steinem":1,
    "places":1,
    "syndicam":1,
    "stuff":1,
    "cosmetics":1,
    "12th":1,
    "team":1,
    "whatta":1,
    "chart":1,
    "breakout":1,
    "hereuh":1,
    "whitewoodyoung":1,
    "industrieslow":1,
    "pe":1,
    "explosive":1,
    "discount":1,
    "coupla":1,
    "holders":1,
    "besides":1,
    "connections":1,
    "stevenson":1,
    "san":1,
    "fransisco":1,
    "respond":1,
    "lecture":1,
    "tours":1,
    "companys":1,
    "lectures":1,
    "moneyif":1,
    "parlor":1,
    "turkeys":1,
    "totally":1,
    "deadwell":1,
    "dilute":1,
    "orifice":1,
    "trader":1,
    "lbo":1,
    "analysis":1,
    "herewhat":1,
    "taraflyanalysts":1,
    "breakup":1,
    "finances":1,
    "divisions":1,
    "quant":1,
    "rings":1,
    "somewhere":1,
    "comer":1,
    "mediumbody":1,
    "flies":1,
    "northeast":1,
    "caribbean":1,
    "major":1,
    "cities":1,
    "favorable":1,
    "lawsuit":1,
    "plaintiffs":1,
    "knowthe":1,
    "decisionll":1,
    "clear":1,
    "route":1,
    "float":1,
    "grab":1,
    "250000":1,
    "outta":1,
    "pensions":1,
    "terminator":1,
    "beezer":1,
    "tulsa":1,
    "silverberg":1,
    "compactor":1,
    "card":1,
    "ideas":1,
    "choose":1,
    "ok":1,
    "13d":1,
    "sight":1,
    "myers":1,
    "thromberg":1,
    "legal":1,
    "nazis":1,
    "sugarman":1,
    "lorenzo":1,
    "delaware":1,
    "bernard":1,
    "los":1,
    "angeles":1,
    "ms":1,
    "rosco":1,
    "cheer":1,
    "greats":1,
    "hand":1,
    "fingers":1,
    "jungle":1,
    "chin":1,
    "wagging":1,
    "plenty":1,
    "cruise":1,
    "bimbos":1,
    "afterwards":1,
    "reports":1,
    "churn":1,
    "offering":1,
    "chicks":1,
    "steeples":1,
    "preferably":1,
    "lou":1,
    "loser":1,
    "belly":1,
    "recession":1,
    "sixties":1,
    "pitching":1,
    "analyst":1,
    "thudder":1,
    "wicks":1,
    "reading":1,
    "ruining":1,
    "romance":1,
    "trusts":1,
    "oughtta":1,
    "invent":1,
    "dipstick":1,
    "zs":1,
    "15":1,
    "tops":1,
    "action":1,
    "eh":1,
    "bagged":1,
    "marty":1,
    "wyndham":1,
    "netted":1,
    "650000":1,
    "merger26":1,
    "rambo":1,
    "porsche":1,
    "turbo":1,
    "cabriolet":1,
    "westhampton":1,
    "230":1,
    "4guy":1,
    "sleepsrambo":1,
    "genes":1,
    "hican":1,
    "celebrating":1,
    "approached":1,
    "across":1,
    "known":1,
    "sad":1,
    "dreamerwhats":1,
    "tempting":1,
    "prefer":1,
    "fate":1,
    "pour":1,
    "offone":1,
    "rumor":1,
    "substance":1,
    "values":1,
    "demanded":1,
    "confidentiality":1,
    "gimme":1,
    "yesterday":1,
    "bat":1,
    "esp":1,
    "nostradamus":1,
    "birdie":1,
    "ef":1,
    "hutton":1,
    "phonegordon":1,
    "natalielunch":1,
    "join":1,
    "partners":1,
    "dining":1,
    "tartare":1,
    "menu":1,
    "louisll":1,
    "uhjust":1,
    "evian":1,
    "screen":1,
    "freak":1,
    "liquid":1,
    "crystal":1,
    "electronic":1,
    "beam":1,
    "spin":1,
    "teldars":1,
    "wouldve":1,
    "surerelax":1,
    "whistle":1,
    "legalyou":1,
    "christs":1,
    "sake":1,
    "bowwow":1,
    "mentioned":1,
    "morty":1,
    "sills":1,
    "invest":1,
    "itand":1,
    "obvious":1,
    "ruins":1,
    "kinds":1,
    "louis":1,
    "wherever":1,
    "lutece":1,
    "river":1,
    "cafeor":1,
    "appetite":1,
    "talented":1,
    "uhhmmm":1,
    "hewlitt":1,
    "packard":1,
    "tips":1,
    "41":1,
    "quartervery":1,
    "rising":1,
    "profitsstrong":1,
    "balance":1,
    "sheets":1,
    "jump":1,
    "guilty":1,
    "innocent":1,
    "sugarpie":1,
    "ugly":1,
    "wed":1,
    "aircraft":1,
    "courts":1,
    "harder":1,
    "exercise":1,
    "chrissake":1,
    "cango":1,
    "finish":1,
    "push":1,
    "throwing":1,
    "tzus":1,
    "battle":1,
    "won":1,
    "fought":1,
    "ivy":1,
    "schmucks":1,
    "sucking":1,
    "kneecapsi":1,
    "zoological":1,
    "society":1,
    "wasps":1,
    "animals":1,
    "tarafly":1,
    "fathers":1,
    "representative":1,
    "valuable":1,
    "commodity":1,
    "graham":1,
    "dodd":1,
    "theory":1,
    "sp":1,
    "slaughtered":1,
    "mbas":1,
    "harvard":1,
    "discipline":1,
    "toreadores":1,
    "burns":1,
    "pshs":1,
    "hungry":1,
    "feelings":1,
    "trench":1,
    "extra":1,
    "yard":1,
    "sending":1,
    "raiders":1,
    "brits":1,
    "bribed":1,
    "mouth":1,
    "stole":1,
    "rdl":1,
    "pharmaceuticals":1,
    "white":1,
    "knight":1,
    "involved":1,
    "revenge":1,
    "served":1,
    "payback":1,
    "tne":1,
    "mole":1,
    "employ":1,
    "became":1,
    "citizen":1,
    "bigs":1,
    "missing":1,
    "court":1,
    "overhears":1,
    "chairman":1,
    "suddenly":1,
    "unless":1,
    "directors":1,
    "electrical":1,
    "dropped":1,
    "49":1,
    "bill":1,
    "grave":1,
    "ended":1,
    "factory":1,
    "stiff":1,
    "class":1,
    "comfortable":1,
    "waste":1,
    "50100":1,
    "tween":1,
    "mohammed":1,
    "religion":1,
    "bye":1,
    "gekkoyou":1,
    "stinkin":1,
    "heads":1,
    "dying":1,
    "praying":1,
    "whores":1,
    "wills":1,
    "parties":1,
    "boss":1,
    "spending":1,
    "kahn":1,
    "seidelman":1,
    "14th":1,
    "shane":1,
    "mora":1,
    "cirque":1,
    "group":1,
    "welldressed":1,
    "heavyset":1,
    "bean":1,
    "counters":1,
    "palmpressing":1,
    "sweet":1,
    "smiling":1,
    "fat":1,
    "sherlock":1,
    "dice":1,
    "monopoly":1,
    "land":1,
    "opens":1,
    "reaches":1,
    "taste":1,
    "number":1,
    "5557617":1,
    "scored":1,
    "touch":1,
    "brings":1,
    "butler":1,
    "aviation":1,
    "fare":1,
    "murdering":1,
    "leagues":1,
    "surelots":1,
    "dough":1,
    "dividend":1,
    "nickels":1,
    "dimes":1,
    "fancy":1,
    "hobnob":1,
    "bowling":1,
    "jacket":1,
    "roto":1,
    "rooter":1,
    "godsakes":1,
    "yask":1,
    "shouldve":1,
    "booked":1,
    "monday":1,
    "ehrlich":1,
    "therere":1,
    "artists":1,
    "bull":1,
    "steady":1,
    "players":1,
    "bear":1,
    "creates":1,
    "science":1,
    "pillar":1,
    "pregnant":1,
    "gotcha":1,
    "doable":1,
    "3pm":1,
    "indochina":1,
    "nells":1,
    "cotton":1,
    "underweari":1,
    "bimbo":1,
    "tennis":1,
    "saturday":1,
    "fishing":1,
    "snack":1,
    "sharking":1,
    "steels":1,
    "sweeten":1,
    "2":1,
    "convertible":1,
    "chicken":1,
    "swerves":1,
    "gene":1,
    "vermont":1,
    "deposition":1,
    "waving":1,
    "kazootee":1,
    "cutie":1,
    "wudi":1,
    "daddys":1,
    "toys":1,
    "51":1,
    "yesterdays":1,
    "hooky":1,
    "bathtub":1,
    "shut":1,
    "reporter":1,
    "magazine":1,
    "reach":1,
    "execution":1,
    "750000":1,
    "47":1,
    "clouds":1,
    "judgment":1,
    "response":1,
    "inquiry":1,
    "issued":1,
    "terse":1,
    "comment":1,
    "transaction":1,
    "john":1,
    "livingstons":1,
    "372":1,
    "invested":1,
    "31":1,
    "clean":1,
    "mill":1,
    "raindrops":1,
    "choking":1,
    "chamber":1,
    "signature":1,
    "option":1,
    "agreements":1,
    "otherwise":1,
    "awright":1,
    "directions":1,
    "hurry":1,
    "papers":1,
    "allright":1,
    "kate":1,
    "rather":1,
    "alex":1,
    "candice":1,
    "rogers":1,
    "muffie":1,
    "sam":1,
    "ruspoli":1,
    "winters":1,
    "dick":1,
    "brady":1,
    "whip":1,
    "vodka":1,
    "steal":1,
    "dicks":1,
    "exemption":1,
    "kitts":1,
    "kamali":1,
    "leopard":1,
    "skin":1,
    "vcut":1,
    "marriage":1,
    "skins":1,
    "pink":1,
    "inflamed":1,
    "social":1,
    "disease":1,
    "ukranian":1,
    "botched":1,
    "wax":1,
    "ghastly":1,
    "nyung":1,
    "moomoo":1,
    "vacation":1,
    "ruined":1,
    "spilled":1,
    "wine":1,
    "drinks":1,
    "aha":1,
    "poet":1,
    "philosopher":1,
    "drain":1,
    "kiss":1,
    "appraiser":1,
    "goodbye":1,
    "contemporary":1,
    "wildwood":1,
    "jersey":1,
    "fifth":1,
    "decoration":1,
    "businessman":1,
    "cleaners":1,
    "astute":1,
    "collectors":1,
    "rug":1,
    "instance":1,
    "silk":1,
    "tabriz":1,
    "dealer":1,
    "representing":1,
    "saudi":1,
    "family":1,
    "absolutely":1,
    "celadon":1,
    "border":1,
    "picked":1,
    "cushions":1,
    "sofa":1,
    "although":1,
    "tea":1,
    "dipped":1,
    "linen":1,
    "upholstery":1,
    "dingy":1,
    "sacrilege":1,
    "precolumbian":1,
    "center":1,
    "dope":1,
    "ashtray":1,
    "gather":1,
    "decorator":1,
    "spender":1,
    "peoples":1,
    "probably":1,
    "exposed":1,
    "brick":1,
    "houseplant":1,
    "rental":1,
    "brewing":1,
    "santo":1,
    "domingo":1,
    "previous":1,
    "engagement":1,
    "elusive":1,
    "reclusive":1,
    "exclusive":1,
    "sams":1,
    "estimate":1,
    "travelling":1,
    "upstairs":1,
    "rarest":1,
    "pistol":1,
    "luger":1,
    "manufactured":1,
    "rarer":1,
    "costing":1,
    "plant":1,
    "pays":1,
    "generations":1,
    "mask":1,
    "laughing":1,
    "correct":1,
    "cnx":1,
    "8000":1,
    "jessmon":1,
    "knees":1,
    "announcing":1,
    "65":1,
    "expecting":1,
    "commitment":1,
    "showdowns":1,
    "bore":1,
    "neither":1,
    "ego":1,
    "horserace":1,
    "higher":1,
    "72":1,
    "pirate":1,
    "greenmailer":1,
    "cod":1,
    "mails":1,
    "color":1,
    "queen":1,
    "temper":1,
    "7150":1,
    "8":1,
    "key":1,
    "pee":1,
    "tall":1,
    "weeds":1,
    "dogs":1,
    "based":1,
    "tzu":1,
    "superior":1,
    "evade":1,
    "angry":1,
    "irritate":1,
    "equally":1,
    "matched":1,
    "split":1,
    "reevaluate":1,
    "learning":1,
    "sleeps":1,
    "traded":1,
    "londons":1,
    "deregulated":1,
    "orient":1,
    "hungrier":1,
    "circle":1,
    "hong":1,
    "kong":1,
    "wired":1,
    "surprisedastonish":1,
    "euroflash":1,
    "gq":1,
    "withs":1,
    "exit":1,
    "visas":1,
    "imminent":1,
    "jeez":1,
    "seen":1,
    "ocean":1,
    "russian":1,
    "afar":1,
    "aphrodisiac":1,
    "wakeup":1,
    "d":1,
    "deja":1,
    "vu":1,
    "hitting":1,
    "statue":1,
    "subway":1,
    "associate":1,
    "margie":1,
    "complain":1,
    "oyster":1,
    "bay":1,
    "treating":1,
    "seeing":1,
    "sexy":1,
    "gal":1,
    "nah":1,
    "thinkingthat":1,
    "tumble":1,
    "iron":1,
    "clad":1,
    "honest":1,
    "handling":1,
    "fairchild":1,
    "foods":1,
    "surprises":1,
    "disbarred":1,
    "moi":1,
    "hurthow":1,
    "dobut":1,
    "uncles":1,
    "owner":1,
    "panos":1,
    "space":1,
    "impressed":1,
    "auction":1,
    "kentucky":1,
    "nationals":1,
    "seattle":1,
    "slew":1,
    "triple":1,
    "racehorse":1,
    "jumper":1,
    "horse":1,
    "constantly":1,
    "barraged":1,
    "nuisance":1,
    "litigation":1,
    "irs":1,
    "audits":1,
    "interests":1,
    "safe":1,
    "distance":1,
    "limited":1,
    "discretion":1,
    "ticket":1,
    "shots":1,
    "official":1,
    "begining":1,
    "arise":1,
    "trail":1,
    "stops":1,
    "alls":1,
    "orders":1,
    "accounts":1,
    "viens":1,
    "ici":1,
    "dit":1,
    "bonjour":1,
    "monsieur":1,
    "speaks":1,
    "highest":1,
    "iq":1,
    "nursery":1,
    "paintings":1,
    "furnishings":1,
    "acceptable":1,
    "tuition":1,
    "parents":1,
    "bodyguards":1,
    "grownups":1,
    "madame":1,
    "clothes":1,
    "newest":1,
    "chic":1,
    "milk":1,
    "carrot":1,
    "juice":1,
    "contact":1,
    "roth":1,
    "corp":1,
    "wire":1,
    "transfer":1,
    "cayman":1,
    "islands":1,
    "incorporating":1,
    "reasonable":1,
    "stakes":1,
    "reached":1,
    "decided":1,
    "divide":1,
    "turner":1,
    "canary":1,
    "diaiaond":1,
    "lear":1,
    "siege":1,
    "leveraged":1,
    "hilt":1,
    "countryinstead":1,
    "plants":1,
    "withdraw":1,
    "greenmail":1,
    "passed":1,
    "consumer":1,
    "speaking":1,
    "press":1,
    "resent":1,
    "demand":1,
    "order":1,
    "damage":1,
    "ishave":1,
    "decency":1,
    "concentrate":1,
    "richquick":1,
    "slot":1,
    "mentality":1,
    "japan":1,
    "original":1,
    "fundamental":1,
    "capitalize":1,
    "underwrite":1,
    "succeeded":1,
    "goods":1,
    "services":1,
    "americas":1,
    "national":1,
    "product":1,
    "undermining":1,
    "foundation":1,
    "replaced":1,
    "corporations":1,
    "taken":1,
    "erector":1,
    "sets":1,
    "consideration":1,
    "shameless":1,
    "intention":1,
    "severely":1,
    "penalize":1,
    "reject":1,
    "voting":1,
    "managements":1,
    "restructuring":1,
    "appreciate":1,
    "largest":1,
    "stockholder":1,
    "bumper":1,
    "sticker":1,
    "indulge":1,
    "fantasies":1,
    "political":1,
    "economic":1,
    "reality":1,
    "rate":1,
    "fiscal":1,
    "nightmare":1,
    "proportions":1,
    "accountability":1,
    "shareholders":1,
    "carnegies":1,
    "mellons":1,
    "altogether":1,
    "certainly":1,
    "royally":1,
    "bureaucrats":1,
    "golf":1,
    "hunting":1,
    "trips":1,
    "golden":1,
    "earning":1,
    "spent":1,
    "outrage":1,
    "full":1,
    "paperwork":1,
    "forth":1,
    "evolution":1,
    "survival":1,
    "unfittest":1,
    "eliminated":1,
    "diversification":1,
    "casualty":1,
    "jewels":1,
    "dross":1,
    "depressions":1,
    "inflations":1,
    "deterioration":1,
    "chopping":1,
    "forests":1,
    "perishable":1,
    "planet":1,
    "illusory":1,
    "maginot":1,
    "lines":1,
    "scorched":1,
    "tactics":1,
    "proxy":1,
    "fights":1,
    "etc":1,
    "sayingits":1,
    "rid":1,
    "sick":1,
    "opportunist":1,
    "pretax":1,
    "ixtlan":1,
    "exact":1,
    "turned":1,
    "liberated":1,
    "suffering":1,
    "conglomerate":1,
    "prospered":1,
    "destroyer":1,
    "liberator":1,
    "clarifies":1,
    "essence":1,
    "evolutionary":1,
    "spirit":1,
    "forms":1,
    "upward":1,
    "surge":1,
    "mankind":1,
    "malfunctioning":1,
    "usathank":1,
    "boot":1,
    "quota":1,
    "humility":1,
    "gm":1,
    "defense":1,
    "11":1,
    "rsvp":1,
    "required":1,
    "inspiring":1,
    "note":1,
    "pleased":1,
    "record":1,
    "doubled":1,
    "super":1,
    "congrats":1,
    "kiddo":1,
    "lasts":1,
    "kickin":1,
    "doubles":1,
    "blonde":1,
    "named":1,
    "mandy":1,
    "nineteen":1,
    "avec":1,
    "au":1,
    "lait":1,
    "boobs":1,
    "cousin":1,
    "muffins":1,
    "chuck":1,
    "rock":1,
    "file":1,
    "cabinets":1,
    "significantly":1,
    "janetthank":1,
    "resale":1,
    "moves":1,
    "madonna":1,
    "sean":1,
    "sly":1,
    "christie":1,
    "shown":1,
    "mick":1,
    "gloria":1,
    "barbara":1,
    "wawa":1,
    "klaus":1,
    "von":1,
    "bulow":1,
    "fresh":1,
    "korean":1,
    "madison":1,
    "expensive":1,
    "walkin":1,
    "closetsupstairs":1,
    "roof":1,
    "health":1,
    "clubmassage":1,
    "sauna":1,
    "jacuzzi":1,
    "sunlights":1,
    "ladyfriend":1,
    "finished":1,
    "wolfing":1,
    "oak":1,
    "floormy":1,
    "husband":1,
    "mortgageid":1,
    "werent":1,
    "alreadyso":1,
    "oclock":1,
    "fiveone":1,
    "thems":1,
    "allcash":1,
    "type":1,
    "monique":1,
    "otheri":1,
    "950":1,
    "somethin":1,
    "sutton":1,
    "nahthis":1,
    "ithome":1,
    "yesnoat":1,
    "37":1,
    "convert":1,
    "rightand":1,
    "tokyo":1,
    "800":1,
    "perfectlets":1,
    "watch":1,
    "300000":1,
    "walls":1,
    "brooklyn":1,
    "opinion":1,
    "demolished":1,
    "photograph":1,
    "lived":1,
    "negotiable":1,
    "100000":1,
    "curtains":1,
    "relative":1,
    "connecticut":1,
    "pad":1,
    "yearsbefore":1,
    "slip":1,
    "fruppie":1,
    "lycee":1,
    "francaise":1,
    "projection":1,
    "assets":1,
    "worried":1,
    "aboutyou":1,
    "slept":1,
    "therebut":1,
    "heremake":1,
    "menow":1,
    "penny":1,
    "chain":1,
    "schemes":1,
    "cosmetic":1,
    "franchise":1,
    "northern":1,
    "arkansas":1,
    "easiest":1,
    "endorse":1,
    "liars":1,
    "nurse":1,
    "euro":1,
    "cds":1,
    "september":1,
    "deutsch":1,
    "marks":1,
    "darienlightning":1,
    "struck":1,
    "lightbulb":1,
    "invented":1,
    "edison":1,
    "da":1,
    "vinci":1,
    "einstein":1,
    "entrepreneur":1,
    "italian":1,
    "15th":1,
    "century":1,
    "mover":1,
    "shaker":1,
    "yever":1,
    "sixty":1,
    "turning":1,
    "frankenstein":1,
    "80s":1,
    "mightve":1,
    "kidbut":1,
    "moneyin":1,
    "seventies":1,
    "gambler":1,
    "loaded":1,
    "habits":1,
    "throne":1,
    "skills":1,
    "shopping":1,
    "sothats":1,
    "tick":1,
    "sweetheart":1,
    "catching":1,
    "unpolished":1,
    "gem":1,
    "assed":1,
    "decimated":1,
    "laguardia":1,
    "bail":1,
    "ripe":1,
    "emotions":1,
    "cliff":1,
    "maserati":1,
    "asses":1,
    "sling":1,
    "fuel":1,
    "killers":1,
    "credibility":1,
    "balking":1,
    "logging":1,
    "trucks":1,
    "spineless":1,
    "toads":1,
    "selfinsure":1,
    "write":1,
    "fire":1,
    "eating":1,
    "twinkies":1,
    "schtupping":1,
    "stewardess":1,
    "wantand":1,
    "anythingis":1,
    "copilot":1,
    "stockbroker":1,
    "2000":1,
    "headaches":1,
    "dink":1,
    "fruitcake":1,
    "thereinside":1,
    "43":1,
    "operating":1,
    "hourly":1,
    "850":1,
    "hidden":1,
    "negotiate":1,
    "350400":1,
    "hottest":1,
    "meand":1,
    "buckingham":1,
    "jock":1,
    "thwick":1,
    "jensen":1,
    "falcon":1,
    "falconertell":1,
    "republican":1,
    "democrats":1,
    "lots":1,
    "creative":1,
    "formal":1,
    "circumstances":1,
    "duncan":1,
    "toni":1,
    "carpenter":1,
    "attendants":1,
    "introduce":1,
    "salt":1,
    "pleasure":1,
    "informal":1,
    "strolling":1,
    "yourselves":1,
    "illusions":1,
    "winning":1,
    "popularity":1,
    "roasted":1,
    "honoring":1,
    "manhave":1,
    "beings":1,
    "popular":1,
    "dividends":1,
    "squeezed":1,
    "whove":1,
    "scrambling":1,
    "chapter":1,
    "11which":1,
    "willthen":1,
    "bankruptcy":1,
    "laws":1,
    "property":1,
    "due":1,
    "respect":1,
    "profitable":1,
    "acrosstheboard":1,
    "wage":1,
    "frame":1,
    "reductions":1,
    "however":1,
    "givebacks":1,
    "salaries":1,
    "levels":1,
    "institute":1,
    "employee":1,
    "sharing":1,
    "program":1,
    "drawn":1,
    "marketing":1,
    "strategy":1,
    "profitability":1,
    "opportunity":1,
    "answer":1,
    "computer":1,
    "software":1,
    "weak":1,
    "update":1,
    "squeeze":1,
    "mile":1,
    "flown":1,
    "89":1,
    "389":1,
    "inventory":1,
    "computerization":1,
    "increase":1,
    "factor":1,
    "translates":1,
    "revenues":1,
    "advertising":1,
    "aggressive":1,
    "expand":1,
    "hubs":1,
    "atlanta":1,
    "north":1,
    "carolina":1,
    "dallas":1,
    "reorganize":1,
    "feeder":1,
    "schedules":1,
    "cards":1,
    "ball":1,
    "sketched":1,
    "broad":1,
    "strokes":1,
    "print":1,
    "tricks":1,
    "frankly":1,
    "carl":1,
    "suggestions":1,
    "glad":1,
    "egypt":1,
    "pharoah":1,
    "beg":1,
    "pardon":1,
    "prophecy":1,
    "pyramids":1,
    "state":1,
    "egyptians":1,
    "greedhes":1,
    "prisoners":1,
    "northstar":1,
    "bargain":1,
    "gains":1,
    "gain":1,
    "summers":1,
    "handler":1,
    "freight":1,
    "loader":1,
    "qualifications":1,
    "doubt":1,
    "ability":1,
    "managementdedicated":1,
    "ground":1,
    "thirty":1,
    "rat":1,
    "embarrassing":1,
    "mention":1,
    "unite":1,
    "speech":1,
    "ways":1,
    "tubes":1,
    "braniff":1,
    "prick":1,
    "standing":1,
    "naked":1,
    "macys":1,
    "jealous":1,
    "machinist":1,
    "successful":1,
    "measured":1,
    "success":1,
    "size":1,
    "mans":1,
    "wallet":1,
    "guts":1,
    "claim":1,
    "mustve":1,
    "members":1,
    "represent":1,
    "facts":1,
    "opinions":1,
    "damned":1,
    "wanting":1,
    "lie":1,
    "rise":1,
    "birds":1,
    "winter":1,
    "compass":1,
    "mens":1,
    "practical":1,
    "begging":1,
    "brandt":1,
    "security":1,
    "bathroom":1,
    "unusual":1,
    "spot":1,
    "sound":1,
    "asks":1,
    "jurisdiction":1,
    "constitution":1,
    "rememberyou":1,
    "dewey":1,
    "cheat":1,
    "howe":1,
    "knock":1,
    "buddyan":1,
    "optorectomy":1,
    "nerve":1,
    "runs":1,
    "rectumto":1,
    "shitty":1,
    "records":1,
    "roget":1,
    "82m":1,
    "invisible":1,
    "flags":1,
    "invulnerable":1,
    "awhile":1,
    "suspend":1,
    "rog":1,
    "reviewing":1,
    "timetables":1,
    "chief":1,
    "killgekkos":1,
    "climbing":1,
    "streets":1,
    "pill":1,
    "meetings":1,
    "firms":1,
    "debt":1,
    "structure":1,
    "participate":1,
    "revolving":1,
    "credit":1,
    "assurance":1,
    "loan":1,
    "6":1,
    "wonderfulyou":1,
    "happening":1,
    "liquidating":1,
    "guaranteed":1,
    "sweatwe":1,
    "bleezburg":1,
    "lined":1,
    "condos":1,
    "mexicana":1,
    "dumb":1,
    "drooling":1,
    "kneecaps":1,
    "pricetag":1,
    "737s":1,
    "nailed":1,
    "typewriters":1,
    "minimum":1,
    "annuities":1,
    "employees":1,
    "walks":1,
    "70":1,
    "shortest":1,
    "pope":1,
    "poisonednow":1,
    "believing":1,
    "budyou":1,
    "schedule":1,
    "garage":1,
    "winnie":1,
    "pooh":1,
    "stuck":1,
    "nose":1,
    "stung":1,
    "ought":1,
    "pinocchio":1,
    "cane":1,
    "fool":1,
    "wreckable":1,
    "changed":1,
    "nowhere":1,
    "twentyfour":1,
    "parachute":1,
    "gordonwhen":1,
    "yachts":1,
    "waterski":1,
    "sum":1,
    "loses":1,
    "simply":1,
    "transferred":1,
    "perception":1,
    "60000":1,
    "600000":1,
    "illusion":1,
    "becomes":1,
    "desperately":1,
    "capitalism":1,
    "richest":1,
    "wealth":1,
    "trillion":1,
    "third":1,
    "thirds":1,
    "inheritance":1,
    "idiot":1,
    "ninety":1,
    "rules":1,
    "famine":1,
    "upheaval":1,
    "clip":1,
    "rabbit":1,
    "hat":1,
    "sits":1,
    "wondering":1,
    "democracy":1,
    "nowtake":1,
    "advantage":1,
    "instinct":1,
    "obviously":1,
    "ziplocked":1,
    "mouths":1,
    "personally":1,
    "budwhats":1,
    "played":1,
    "pianoby":1,
    "master":1,
    "greatand":1,
    "carve":1,
    "bent":1,
    "sink":1,
    "humped":1,
    "platter":1,
    "fault":1,
    "decision":1,
    "cross":1,
    "crush":1,
    "trigger":1,
    "mad":1,
    "ours":1,
    "brokerage":1,
    "seal":1,
    "approval":1,
    "exactly":1,
    "pure":1,
    "vengeance":1,
    "mirror":1,
    "lookingand":1,
    "enoughbut":1,
    "simple":1,
    "among":1,
    "changing":1,
    "locks":1,
    "teambut":1,
    "bitching":1,
    "nothings":1,
    "except":1,
    "termites":1,
    "cockroaches":1,
    "rap":1,
    "reps":1,
    "urgent":1,
    "chest":1,
    "pains":1,
    "collapsed":1,
    "stubborn":1,
    "ol":1,
    "nut":1,
    "hiya":1,
    "talked":1,
    "lift":1,
    "747":1,
    "nowsecond":1,
    "thati":1,
    "dadfor":1,
    "buti":1,
    "youyoure":1,
    "hero":1,
    "rockthe":1,
    "bitchthrough":1,
    "unionscan":1,
    "richard":1,
    "feigen":1,
    "suite":1,
    "carlyle":1,
    "caviar":1,
    "champagne":1,
    "celebrate":1,
    "blame":1,
    "splitting":1,
    "drop":1,
    "understanding":1,
    "soothe":1,
    "cantand":1,
    "bleeding":1,
    "patronize":1,
    "oldest":1,
    "myth":1,
    "fiction":1,
    "jumping":1,
    "windows":1,
    "twisted":1,
    "incapable":1,
    "deep":1,
    "fill":1,
    "scared":1,
    "wrapped":1,
    "grownup":1,
    "package":1,
    "umbilical":1,
    "cord":1,
    "knowbut":1,
    "breaking":1,
    "happens":1,
    "lower":1,
    "boom":1,
    "learns":1,
    "concession":1,
    "hills":1,
    "shark":1,
    "devouring":1,
    "owning":1,
    "concessionsat":1,
    "shareand":1,
    "hanging":1,
    "wind":1,
    "raiding":1,
    "conflict":1,
    "ironclad":1,
    "feelthe":1,
    "lately":1,
    "optorectomies":1,
    "isi":1,
    "moneyit":1,
    "miss":1,
    "bloom":1,
    "curebluestar":1,
    "scalp":1,
    "7":1,
    "iti":1,
    "buddies":1,
    "degree":1,
    "angle":1,
    "slash":1,
    "leaked":1,
    "tear":1,
    "eyeballs":1,
    "skull":1,
    "pluto":1,
    "unloading":1,
    "everyone":1,
    "hitter":1,
    "bach":1,
    "demanding":1,
    "eggs":1,
    "aint":1,
    "remind":1,
    "honor":1,
    "engines":1,
    "reservations":1,
    "systems":1,
    "awfully":1,
    "headed":1,
    "petersburg":1,
    "easily":1,
    "pacmanned":1,
    "gobbled":1,
    "atilla":1,
    "hun":1,
    "guest":1,
    "chances":1,
    "ropeshes":1,
    "takers":1,
    "plummeting":1,
    "carry":1,
    "rounds":1,
    "drops":1,
    "lightly":1,
    "18buy":1,
    "killed":1,
    "devoured":1,
    "dial":1,
    "millions":1,
    "sweeping":1,
    "bid":1,
    "roller":1,
    "coaster":1,
    "fueled":1,
    "soared":1,
    "alltime":1,
    "contradictory":1,
    "surfaced":1,
    "unfounded":1,
    "plummeted":1,
    "gigantic":1,
    "volume":1,
    "low":1,
    "16":1,
    "amidst":1,
    "scuttlebutt":1,
    "rumble":1,
    "according":1,
    "sources":1,
    "raider":1,
    "stepped":1,
    "substantial":1,
    "includes":1,
    "support":1,
    "justice":1,
    "staring":1,
    "finds":1,
    "characterand":1,
    "keeps":1,
    "ira":1,
    "henry":1,
    "patterson":1,
    "postal":1,
    "inspection":1,
    "service":1,
    "evan":1,
    "morrissey":1,
    "ebanhopper":1,
    "attorneys":1,
    "arrest":1,
    "conspiracy":1,
    "commit":1,
    "fraud":1,
    "violating":1,
    "sanction":1,
    "sandbagged":1,
    "taught":1,
    "teacher":1,
    "lesson":1,
    "wag":1,
    "cue":1,
    "ice":1,
    "melting":1,
    "gotten":1,
    "dentists":1,
    "doors":1,
    "youi":1,
    "brant":1,
    "resources":1,
    "transuniversal":1,
    "fulham":1,
    "oil":1,
    "manhood":1,
    "budi":1,
    "myselfwhy":1,
    "tomortow":1,
    "realized":1,
    "wanted":1,
    "gekkoill":1,
    "wear":1,
    "cup":1,
    "nervous":1,
    "road":1,
    "truth":1,
    "considered":1,
    "cockamamie":1,
    "worldyoure":1,
    "par":1,
    "rough":1,
    "youstop":1,
    "produce":1,
    "convicted":1,
    "feloni":1,
    "schmuck":2,
    "garden":2,
    "tickets":2,
    "legs":2,
    "prove":2,
    "wonder":2,
    "screw":2,
    "destroy":2,
    "thinks":2,
    "elevator":2,
    "blocks":2,
    "carolyn":2,
    "dan":2,
    "machine":2,
    "upside":2,
    "forest":2,
    "eye":2,
    "small":2,
    "countrys":2,
    "cheap":2,
    "drug":2,
    "fundamentals":2,
    "attention":2,
    "funds":2,
    "sales":2,
    "contest":2,
    "heres":2,
    "fifties":2,
    "bout":2,
    "morgan":2,
    "billion":2,
    "japs":2,
    "lights":2,
    "jack":2,
    "38":2,
    "dr":2,
    "beltzer":2,
    "howard":2,
    "tip":2,
    "seems":2,
    "surgery":2,
    "marvin":2,
    "lying":2,
    "discuss":2,
    "closing":2,
    "history":2,
    "trouble":2,
    "jerk":2,
    "reneged":2,
    "express":2,
    "end":2,
    "forgetting":2,
    "seconds":2,
    "busy":2,
    "traders":2,
    "shall":2,
    "charlie":2,
    "itd":2,
    "millionaires":2,
    "dominick":2,
    "15000":2,
    "christmas":2,
    "hospital":2,
    "willya":2,
    "she":2,
    "pasta":2,
    "beer":2,
    "inch":2,
    "options":2,
    "doctor":2,
    "coulda":2,
    "stayed":2,
    "customer":2,
    "executive":2,
    "banking":2,
    "strangers":2,
    "taxes":2,
    "food":2,
    "pop":2,
    "cockroach":2,
    "50000":2,
    "poverty":2,
    "huckleberry":2,
    "300":2,
    "pain":2,
    "talks":2,
    "afford":2,
    "nuts":2,
    "pills":2,
    "met":2,
    "investigation":2,
    "kept":2,
    "wasnt":2,
    "greedy":2,
    "pittsburgh":2,
    "advise":2,
    "hold":2,
    "announcement":2,
    "smile":2,
    "brought":2,
    "favorite":2,
    "saw":2,
    "eat":2,
    "1":2,
    "analysts":2,
    "preferred":2,
    "35":2,
    "merger":2,
    "books":2,
    "load":2,
    "billy":2,
    "janson":2,
    "california":2,
    "accumulation":2,
    "slow":2,
    "geneva":2,
    "yurovich":2,
    "howd":2,
    "airport":2,
    "within":2,
    "effective":2,
    "visit":2,
    "genius":2,
    "dreamed":2,
    "jackson":2,
    "department":2,
    "interesting":2,
    "earnings":2,
    "flow":2,
    "quarter":2,
    "opened":2,
    "funeral":2,
    "brain":2,
    "body":2,
    "flowing":2,
    "red":2,
    "gordo":2,
    "cake":2,
    "itself":2,
    "bell":2,
    "80":2,
    "jets":2,
    "slots":2,
    "ruling":2,
    "14":2,
    "brothers":2,
    "rip":2,
    "throats":2,
    "garbage":2,
    "numbers":2,
    "fight":2,
    "stone":2,
    "london":2,
    "shook":2,
    "sitting":2,
    "names":2,
    "managers":2,
    "equity":2,
    "71":2,
    "cindy":2,
    "sides":2,
    "aids":2,
    "test":2,
    "toilet":2,
    "bar":2,
    "regret":2,
    "penthouse":2,
    "second":2,
    "avenue":2,
    "dubious":2,
    "waiting":2,
    "person":2,
    "grow":2,
    "marnier":2,
    "romantic":2,
    "tragic":2,
    "twist":2,
    "water":2,
    "magic":2,
    "tie":2,
    "secrets":2,
    "created":2,
    "steak":2,
    "electronics":2,
    "display":2,
    "age":2,
    "shooting":2,
    "illegal":2,
    "downside":2,
    "decent":2,
    "sent":2,
    "winner":2,
    "perks":2,
    "lisa":2,
    "gordons":2,
    "dressed":2,
    "drive":2,
    "burned":2,
    "closed":2,
    "attractive":2,
    "average":2,
    "yield":2,
    "wyatt":2,
    "darts":2,
    "college":2,
    "league":2,
    "stopped":2,
    "sheep":2,
    "69":2,
    "system":2,
    "junkies":2,
    "warfare":2,
    "sometime":2,
    "name":2,
    "piss":2,
    "secretary":2,
    "dish":2,
    "building":2,
    "estate":2,
    "800000":2,
    "fired":2,
    "town":2,
    "sees":2,
    "follow":2,
    "license":2,
    "jail":2,
    "someone":2,
    "xyz":2,
    "whered":2,
    "pushing":2,
    "supplies":2,
    "tax":2,
    "pissed":2,
    "flying":2,
    "luck":2,
    "knowing":2,
    "living":2,
    "dreaming":2,
    "score":2,
    "worst":2,
    "erie":2,
    "pennsylvania":2,
    "la":2,
    "bright":2,
    "roll":2,
    "box":2,
    "light":2,
    "wars":2,
    "lay":2,
    "fact":2,
    "track":2,
    "crazy":2,
    "set":2,
    "fix":2,
    "ceo":2,
    "weeks":2,
    "financial":2,
    "death":2,
    "markets":2,
    "research":2,
    "thursday":2,
    "kamikaze":2,
    "chase":2,
    "teach":2,
    "lovely":2,
    "heavy":2,
    "playing":2,
    "nicole":2,
    "5000":2,
    "4":2,
    "emotional":2,
    "carmen":2,
    "needs":2,
    "moment":2,
    "livingston":2,
    "idea":2,
    "dry":2,
    "martini":2,
    "silver":2,
    "st":2,
    "bikini":2,
    "clock":2,
    "fit":2,
    "fun":2,
    "sit":2,
    "beach":2,
    "wearing":2,
    "holding":2,
    "apart":2,
    "knew":2,
    "career":2,
    "june":2,
    "taking":2,
    "finest":2,
    "kind":2,
    "offered":2,
    "coffee":2,
    "table":2,
    "wonders":2,
    "conversation":2,
    "friday":2,
    "cafe":2,
    "strange":2,
    "staying":2,
    "actually":2,
    "liquidation":2,
    "tail":2,
    "modernize":2,
    "laid":2,
    "fruit":2,
    "6000":2,
    "pieces":2,
    "wins":2,
    "watching":2,
    "started":2,
    "considering":2,
    "reserves":2,
    "deception":2,
    "enemy":2,
    "paying":2,
    "showed":2,
    "schools":2,
    "info":2,
    "putting":2,
    "feet":2,
    "captures":2,
    "proverb":2,
    "fisherman":2,
    "relax":2,
    "law":2,
    "charted":2,
    "growth":2,
    "partner":2,
    "sucker":2,
    "devon":2,
    "crown":2,
    "gives":2,
    "attorney":2,
    "marked":2,
    "means":2,
    "knowledge":2,
    "beginning":2,
    "easy":2,
    "nap":2,
    "tired":2,
    "stains":2,
    "settlement":2,
    "fee":2,
    "mistakes":2,
    "almost":2,
    "modest":2,
    "perfect":2,
    "peace":2,
    "using":2,
    "approximately":2,
    "remarks":2,
    "sense":2,
    "gross":2,
    "process":2,
    "cancer":2,
    "speculation":2,
    "longterm":2,
    "strongly":2,
    "strip":2,
    "single":2,
    "deficit":2,
    "industrial":2,
    "built":2,
    "empire":2,
    "total":2,
    "salary":2,
    "owns":2,
    "lunches":2,
    "corporate":2,
    "parachutes":2,
    "33":2,
    "doomed":2,
    "fail":2,
    "insurance":2,
    "trees":2,
    "rights":2,
    "human":2,
    "earth":2,
    "poison":2,
    "theyve":2,
    "clowns":2,
    "corporation":2,
    "position":2,
    "mark":2,
    "pulling":2,
    "report":2,
    "announce":2,
    "piping":2,
    "membership":2,
    "window":2,
    "hate":2,
    "bonds":2,
    "couldnt":2,
    "ahead":2,
    "budget":2,
    "straight":2,
    "decorate":2,
    "anyway":2,
    "bed":2,
    "lucky":2,
    "dime":2,
    "complaining":2,
    "naive":2,
    "changes":2,
    "fear":2,
    "along":2,
    "gates":2,
    "fall":2,
    "mixed":2,
    "handed":2,
    "overfunded":2,
    "pension":2,
    "flight":2,
    "crew":2,
    "texas":2,
    "often":2,
    "wilmore":2,
    "zero":2,
    "prepared":2,
    "writing":2,
    "plan":2,
    "seat":2,
    "willing":2,
    "baggage":2,
    "axed":2,
    "killer":2,
    "pocket":2,
    "blind":2,
    "sons":2,
    "responsibility":2,
    "wreck":2,
    "fucking":2,
    "whore":2,
    "checked":2,
    "homework":2,
    "yuk":2,
    "president":2,
    "dicking":2,
    "net":2,
    "appointment":2,
    "widows":2,
    "bullshit":2,
    "survive":2,
    "helped":2,
    "step":2,
    "hon":2,
    "favor":2,
    "act":2,
    "ooh":2,
    "figures":2,
    "insider":2,
    "suck":2,
    "buyers":2,
    "17":2,
    "rumors":2,
    "abyss":2,
    "securities":2,
    "sue":3,
    "60":3,
    "beautiful":3,
    "cept":3,
    "thinking":3,
    "sin":3,
    "young":3,
    "feel":3,
    "knicks":3,
    "against":3,
    "pick":3,
    "beat":3,
    "spread":3,
    "wake":3,
    "sonofabitch":3,
    "gold":3,
    "boys":3,
    "recommend":3,
    "portfolio":3,
    "forget":3,
    "bond":3,
    "500":3,
    "110":3,
    "concerns":3,
    "gentleman":3,
    "problems":3,
    "huh":3,
    "bag":3,
    "brokers":3,
    "short":3,
    "asking":3,
    "win":3,
    "florida":3,
    "himself":3,
    "such":3,
    "whatd":3,
    "smoking":3,
    "leave":3,
    "spaghetti":3,
    "whaddaya":3,
    "eyes":3,
    "starting":3,
    "bath":3,
    "lawyer":3,
    "stead":3,
    "soon":3,
    "nyu":3,
    "rent":3,
    "car":3,
    "player":3,
    "proud":3,
    "promise":3,
    "200":3,
    "god":3,
    "pressure":3,
    "faa":3,
    "rule":3,
    "telling":3,
    "used":3,
    "send":3,
    "birthday":3,
    "outside":3,
    "200000":3,
    "move":3,
    "south":3,
    "count":3,
    "plans":3,
    "interested":3,
    "ollie":3,
    "calling":3,
    "gg":3,
    "listening":3,
    "45":3,
    "junk":3,
    "financing":3,
    "book":3,
    "cash":3,
    "strong":3,
    "losing":3,
    "fleas":3,
    "surprise":3,
    "pilots":3,
    "canada":3,
    "contracts":3,
    "blow":3,
    "gang":3,
    "lawyers":3,
    "22":3,
    "elephant":3,
    "cold":3,
    "charts":3,
    "fund":3,
    "late":3,
    "happened":3,
    "cute":3,
    "susan":3,
    "journal":3,
    "crap":3,
    "kidding":3,
    "fortune":3,
    "thou":3,
    "walk":3,
    "sounds":3,
    "french":3,
    "word":3,
    "cool":3,
    "sleep":3,
    "takeover":3,
    "shit":3,
    "owe":3,
    "21":3,
    "left":3,
    "25":3,
    "mei":3,
    "losses":3,
    "enjoy":3,
    "very":3,
    "per":3,
    "happy":3,
    "wish":3,
    "bitch":3,
    "public":3,
    "sun":3,
    "agree":3,
    "high":3,
    "fighting":3,
    "analyzing":3,
    "born":3,
    "ago":3,
    "wildmans":3,
    "sec":3,
    "found":3,
    "saying":3,
    "afraid":3,
    "dead":3,
    "fly":3,
    "question":3,
    "difference":3,
    "others":3,
    "kids":3,
    "york":3,
    "supposed":3,
    "lawrence":3,
    "march":3,
    "loves":3,
    "private":3,
    "figure":3,
    "somebodys":3,
    "giant":3,
    "quick":3,
    "jobs":3,
    "trust":3,
    "themselves":3,
    "country":3,
    "plus":3,
    "expect":3,
    "exchange":3,
    "return":3,
    "walking":3,
    "royal":3,
    "youd":3,
    "taylor":3,
    "arent":3,
    "destiny":3,
    "sale":3,
    "mister":3,
    "congratulations":3,
    "term":3,
    "ride":3,
    "mate":3,
    "workers":3,
    "mother":3,
    "capital":3,
    "shes":3,
    "painting":3,
    "beauty":3,
    "hurt":3,
    "havent":3,
    "growing":3,
    "banks":3,
    "america":3,
    "stockholders":3,
    "become":3,
    "stake":3,
    "vice":3,
    "presidents":3,
    "either":3,
    "prevent":3,
    "bottom":3,
    "create":3,
    "fast":3,
    "commission":3,
    "janet":3,
    "attitude":3,
    "guarantee":3,
    "letter":3,
    "large":3,
    "hits":3,
    "24":3,
    "hour":3,
    "19":3,
    "bluestars":3,
    "decide":3,
    "calm":3,
    "hangars":3,
    "puppy":3,
    "damn":4,
    "contract":4,
    "floor":4,
    "goddamn":4,
    "while":4,
    "wife":4,
    "alone":4,
    "able":4,
    "jesus":4,
    "buck":4,
    "stick":4,
    "clients":4,
    "running":4,
    "dump":4,
    "top":4,
    "air":4,
    "minute":4,
    "lynch":4,
    "fair":4,
    "cover":4,
    "loss":4,
    "seven":4,
    "grand":4,
    "hit":4,
    "worse":4,
    "story":4,
    "salesman":4,
    "ask":4,
    "park":4,
    "christ":4,
    "case":4,
    "blood":4,
    "crash":4,
    "routes":4,
    "picture":4,
    "find":4,
    "arbs":4,
    "having":4,
    "attack":4,
    "heart":4,
    "hells":4,
    "piece":4,
    "different":4,
    "point":4,
    "tender":4,
    "conference":4,
    "burn":4,
    "sex":4,
    "together":4,
    "both":4,
    "moving":4,
    "behind":4,
    "hi":4,
    "try":4,
    "ones":4,
    "use":4,
    "suit":4,
    "friend":4,
    "uh":4,
    "club":4,
    "art":4,
    "knows":4,
    "since":4,
    "show":4,
    "sold":4,
    "profit":4,
    "bank":4,
    "jet":4,
    "plane":4,
    "blue":4,
    "horseshoe":4,
    "client":4,
    "moneys":4,
    "girl":4,
    "important":4,
    "cuts":4,
    "words":4,
    "daddy":4,
    "trading":4,
    "10":4,
    "till":4,
    "buys":4,
    "upper":4,
    "lives":4,
    "roger":4,
    "black":4,
    "agreement":4,
    "ladies":4,
    "screwed":4,
    "honey":4,
    "far":4,
    "20":4,
    "majors":4,
    "scum":4,
    "sunshine":4,
    "sign":5,
    "kill":5,
    "takes":5,
    "might":5,
    "ten":5,
    "percent":5,
    "hot":5,
    "eighth":5,
    "selling":5,
    "23":5,
    "bit":5,
    "said":5,
    "american":5,
    "room":5,
    "game":5,
    "hello":5,
    "myself":5,
    "deals":5,
    "anybody":5,
    "school":5,
    "loans":5,
    "lousy":5,
    "called":5,
    "bring":5,
    "tough":5,
    "month":5,
    "free":5,
    "youve":5,
    "later":5,
    "ass":5,
    "west":5,
    "news":5,
    "baby":5,
    "says":5,
    "part":5,
    "fifty":5,
    "head":5,
    "block":5,
    "harold":5,
    "meet":5,
    "whatever":5,
    "less":5,
    "working":5,
    "twice":5,
    "planes":5,
    "coming":5,
    "ready":5,
    "poor":5,
    "nobody":5,
    "twenty":5,
    "each":5,
    "least":5,
    "mine":5,
    "meeting":5,
    "trade":5,
    "must":5,
    "rest":5,
    "tells":5,
    "six":5,
    "throw":5,
    "war":5,
    "stand":5,
    "smart":5,
    "paid":5,
    "pot":5,
    "dollar":5,
    "isnt":5,
    "everybodys":5,
    "whole":5,
    "worry":5,
    "trying":5,
    "run":5,
    "four":5,
    "apartment":5,
    "fine":5,
    "interest":5,
    "wrong":5,
    "asked":5,
    "companies":5,
    "gentlemen":5,
    "reason":5,
    "without":5,
    "months":5,
    "dixon":5,
    "pull":6,
    "morning":6,
    "hows":6,
    "cause":6,
    "week":6,
    "lot":6,
    "50":6,
    "somebody":6,
    "couldve":6,
    "natalie":6,
    "minutes":6,
    "change":6,
    "investment":6,
    "open":6,
    "dinner":6,
    "times":6,
    "speak":6,
    "pretty":6,
    "firm":6,
    "3":6,
    "live":6,
    "present":6,
    "few":6,
    "lunch":6,
    "offer":6,
    "cromwell":6,
    "lose":6,
    "value":6,
    "hours":6,
    "lost":6,
    "went":6,
    "75":6,
    "gekkos":6,
    "yours":6,
    "happen":6,
    "goes":6,
    "rudy":6,
    "bet":6,
    "couple":6,
    "excuse":6,
    "care":6,
    "share":6,
    "city":6,
    "listen":6,
    "everybody":6,
    "worked":6,
    "works":6,
    "calls":6,
    "dollars":6,
    "which":6,
    "line":6,
    "east":6,
    "yuppie":6,
    "may":6,
    "power":6,
    "bucks":7,
    "stop":7,
    "many":7,
    "wouldnt":7,
    "marv":7,
    "giving":7,
    "turn":7,
    "information":7,
    "future":7,
    "mind":7,
    "help":7,
    "ya":7,
    "heard":7,
    "anymore":7,
    "getting":7,
    "build":7,
    "home":7,
    "die":7,
    "comes":7,
    "inside":7,
    "whos":7,
    "read":7,
    "price":7,
    "unions":7,
    "half":7,
    "save":7,
    "men":7,
    "board":7,
    "understand":7,
    "between":7,
    "house":8,
    "12":8,
    "sorry":8,
    "most":8,
    "came":8,
    "5":8,
    "remember":8,
    "place":8,
    "long":8,
    "hundred":8,
    "phone":8,
    "yes":8,
    "problem":8,
    "30":8,
    "course":8,
    "wall":8,
    "took":8,
    "union":8,
    "stay":8,
    "shares":8,
    "hope":8,
    "cost":8,
    "dog":8,
    "should":8,
    "away":8,
    "wanna":8,
    "thousand":8,
    "again":8,
    "friends":8,
    "maybe":8,
    "gave":8,
    "already":8,
    "does":8,
    "once":8,
    "her":9,
    "check":9,
    "looks":9,
    "worth":9,
    "looking":9,
    "anything":9,
    "stocks":9,
    "okay":9,
    "thanks":9,
    "mannheim":9,
    "close":9,
    "thought":9,
    "broker":9,
    "doesnt":9,
    "five":9,
    "makes":9,
    "mom":9,
    "three":9,
    "same":9,
    "door":9,
    "gets":9,
    "wants":9,
    "chance":9,
    "management":9,
    "keep":9,
    "airlines":9,
    "thank":9,
    "drink":9,
    "believe":9,
    "wildman":9,
    "talking":9,
    "done":9,
    "cut":9,
    "greed":9,
    "job":9,
    "making":10,
    "break":10,
    "every":10,
    "kid":10,
    "night":10,
    "side":10,
    "after":10,
    "under":10,
    "bought":10,
    "theres":10,
    "yourself":10,
    "wait":10,
    "days":10,
    "start":10,
    "alright":10,
    "else":10,
    "buying":10,
    "best":10,
    "everything":10,
    "son":10,
    "street":11,
    "better":11,
    "hey":11,
    "pal":11,
    "market":11,
    "ever":11,
    "office":11,
    "tomorrow":11,
    "am":11,
    "account":11,
    "other":11,
    "real":11,
    "tonight":11,
    "wont":11,
    "play":11,
    "because":11,
    "18":12,
    "things":12,
    "please":12,
    "theyre":12,
    "lets":12,
    "pay":12,
    "being":12,
    "boy":12,
    "youll":12,
    "next":12,
    "hard":12,
    "bad":12,
    "didnt":13,
    "those":13,
    "always":13,
    "years":13,
    "made":13,
    "told":13,
    "before":13,
    "rich":13,
    "nice":13,
    "anacott":13,
    "steel":13,
    "year":14,
    "old":14,
    "guy":14,
    "last":14,
    "even":14,
    "nothing":14,
    "father":14,
    "mean":14,
    "did":15,
    "will":15,
    "today":15,
    "through":15,
    "sell":15,
    "em":15,
    "hear":15,
    "life":15,
    "thing":15,
    "their":15,
    "talk":16,
    "business":16,
    "still":16,
    "deal":16,
    "id":16,
    "oh":17,
    "great":17,
    "much":17,
    "own":17,
    "put":17,
    "guess":17,
    "first":17,
    "paper":17,
    "larry":17,
    "darien":17,
    "really":18,
    "would":18,
    "let":18,
    "ive":18,
    "airline":18,
    "another":18,
    "enough":18,
    "world":19,
    "them":19,
    "something":19,
    "too":19,
    "little":19,
    "say":19,
    "big":19,
    "guys":19,
    "love":19,
    "teldar":19,
    "these":20,
    "day":20,
    "company":20,
    "need":20,
    "give":21,
    "any":21,
    "people":21,
    "doing":21,
    "than":21,
    "off":21,
    "new":21,
    "then":21,
    "call":21,
    "had":22,
    "whats":22,
    "our":22,
    "where":22,
    "has":22,
    "sir":22,
    "by":22,
    "hell":23,
    "million":23,
    "man":23,
    "around":23,
    "sure":23,
    "into":23,
    "two":23,
    "gotta":24,
    "yeah":24,
    "sport":24,
    "down":25,
    "tell":25,
    "way":25,
    "who":26,
    "us":26,
    "only":26,
    "work":27,
    "time":27,
    "come":28,
    "cant":28,
    "back":28,
    "been":28,
    "could":29,
    "take":29,
    "or":29,
    "never":29,
    "over":29,
    "more":29,
    "stock":29,
    "why":31,
    "fox":31,
    "they":31,
    "look":32,
    "ill":33,
    "well":33,
    "as":33,
    "now":35,
    "dad":35,
    "there":35,
    "hes":36,
    "make":36,
    "think":36,
    "some":36,
    "when":38,
    "thats":38,
    "his":39,
    "bluestar":39,
    "buy":40,
    "how":41,
    "right":41,
    "go":41,
    "see":42,
    "good":43,
    "from":43,
    "here":45,
    "buddy":46,
    "gonna":46,
    "gordon":47,
    "were":48,
    "money":49,
    "was":49,
    "want":49,
    "him":50,
    "one":50,
    "an":52,
    "can":53,
    "going":54,
    "no":54,
    "gekko":54,
    "so":54,
    "about":55,
    "bud":55,
    "just":61,
    "he":63,
    "up":64,
    "have":66,
    "if":70,
    "like":71,
    "are":73,
    "mr":73,
    "but":73,
    "we":74,
    "with":77,
    "be":78,
    "out":79,
    "not":79,
    "do":80,
    "know":80,
    "all":82,
    "get":84,
    "youre":85,
    "at":87,
    "my":90,
    "im":92,
    "":93,
    "dont":98,
    "your":100,
    "its":102,
    "got":105,
    "what":109,
    "this":119,
    "that":129,
    "me":132,
    "on":133,
    "for":139,
    "is":141,
    "of":201,
    "in":210,
    "it":215,
    "and":332,
    "a":375,
    "i":379,
    "to":398,
    "you":595,
    "the":652
}