{
    "tammis":1,
    "favorite":1,
    "doll":1,
    "should":1,
    "swear":1,
    "properly":1,
    "auto":1,
    "dummies":1,
    "bored":1,
    "housewives":1,
    "reading":1,
    "therapy":1,
    "women":1,
    "curse":1,
    "episcopalian":1,
    "keeping":1,
    "place":1,
    "eyesore":1,
    "mortgaged":1,
    "eyeballs":1,
    "salon":1,
    "fancying":1,
    "nails":1,
    "mens":1,
    "wives":1,
    "wearing":1,
    "sexy":1,
    "engagement":1,
    "party":1,
    "used":1,
    "bed":1,
    "eight":1,
    "american":1,
    "girl":1,
    "raptor":1,
    "dinosaur":1,
    "santa":1,
    "three":1,
    "days":1,
    "daddy":1,
    "daddys":1,
    "stories":1,
    "pirates":1,
    "cowgirls":1,
    "diamond":1,
    "lil":1,
    "slingshot":1,
    "kitty":1,
    "both":1,
    "sleeping":1,
    "thank":1,
    "cmon":1,
    "messina":1,
    "earful":1,
    "disturbing":1,
    "ninety":1,
    "ninth":1,
    "viewing":1,
    "lethal":1,
    "weapon":1,
    "charming":1,
    "flaunt":1,
    "double":1,
    "d":1,
    "boob":1,
    "job":1,
    "free":1,
    "fun":1,
    "pta":1,
    "events":1,
    "hardly":1,
    "surprise":1,
    "says":1,
    "hes":1,
    "guy":1,
    "ouch":1,
    "doubt":1,
    "most":1,
    "interesting":1,
    "carry":1,
    "beloved":1,
    "toolbox":1,
    "times":1,
    "prepaid":1,
    "ten":1,
    "classes":1,
    "made":1,
    "id":1,
    "hate":1,
    "skipping":1,
    "kenneths":1,
    "coming":1,
    "stay":1,
    "bless":1,
    "bah":1,
    "humbug":1,
    "pardon":1,
    "bye":1,
    "cellular":1,
    "411":1,
    "direct":1,
    "spring":1,
    "street":1,
    "press":1,
    "pound":1,
    "key":1,
    "request":1,
    "beginners":1,
    "tom":1,
    "cancelled":1,
    "homes":1,
    "lowest":1,
    "crime":1,
    "rate":1,
    "1":1,
    "800safe":1,
    "mike":1,
    "tomorrows":1,
    "misses":1,
    "once":1,
    "people":1,
    "boring":1,
    "january":1,
    "willunless":1,
    "run":1,
    "become":1,
    "grand":1,
    "central":1,
    "station":1,
    "phone":1,
    "outside":1,
    "almost":1,
    "rearended":1,
    "southeast":1,
    "plaza":1,
    "those":1,
    "rubber":1,
    "balls":1,
    "headed":1,
    "ran":1,
    "believe":1,
    "uncle":1,
    "aw":1,
    "dying":1,
    "charger":1,
    "noim":1,
    "phones":1,
    "breaking":1,
    "packed":1,
    "somewhere":1,
    "drink":1,
    "fine":1,
    "fountain":1,
    "opposite":1,
    "sounds":1,
    "block":1,
    "able":1,
    "very":1,
    "watch":1,
    "definitely":1,
    "parking":1,
    "valets":1,
    "backed":1,
    "might":1,
    "try":1,
    "further":1,
    "willing":1,
    "walk":1,
    "unbelievable":1,
    "revival":1,
    "chanel":1,
    "no5":1,
    "offer":1,
    "macys":1,
    "pure":1,
    "silk":1,
    "label":1,
    "collection":1,
    "fix":1,
    "changing":1,
    "room":1,
    "latte":1,
    "biscotti":1,
    "bitter":1,
    "forget":1,
    "coffee":1,
    "ls":1,
    "seventy":1,
    "lynn":1,
    "monroe":1,
    "havent":1,
    "seen":1,
    "college":1,
    "handsome":1,
    "jock":1,
    "heard":1,
    "divine":1,
    "ive":1,
    "doors":1,
    "unlocked":1,
    "child":1,
    "growing":1,
    "midwest":1,
    "davids":1,
    "promoted":1,
    "vp":1,
    "motors":1,
    "happening":1,
    "fantastic":1,
    "romantic":1,
    "dinner":1,
    "gorgeous":1,
    "teddy":1,
    "bump":1,
    "pity":1,
    "bastard":1,
    "cards":1,
    "perfect":1,
    "timing":1,
    "tick":1,
    "thirty":1,
    "sixty":1,
    "ladies":1,
    "bathroom":1,
    "order":1,
    "calm":1,
    "bright":1,
    "infant":1,
    "tender":1,
    "mild":1,
    "shepherds":1,
    "quake":1,
    "sight":1,
    "glories":1,
    "beam":1,
    "heaven":1,
    "afar":1,
    "lord":1,
    "aim":1,
    "playing":1,
    "playin":1,
    "worlds":1,
    "homeless":1,
    "nations":1,
    "band":1,
    "shows":1,
    "bone":1,
    "song":1,
    "fo":1,
    "eat":1,
    "dick":1,
    "eating":1,
    "staple":1,
    "mouth":1,
    "closed":1,
    "brothers":1,
    "gitting":1,
    "worth":1,
    "dime":1,
    "sense":1,
    "humor":1,
    "named":1,
    "myself":1,
    "grab":1,
    "parka":1,
    "seat":1,
    "smile":1,
    "dopes":1,
    "dope":1,
    "beef":1,
    "raised":1,
    "laying":1,
    "elses":1,
    "crossing":1,
    "line":1,
    "slipping":1,
    "incendiary":1,
    "windscreen":1,
    "wipers":1,
    "hadnt":1,
    "parked":1,
    "arguing":1,
    "whoah":1,
    "gang":1,
    "crimes":1,
    "against":1,
    "click":1,
    "digging":1,
    "deep":1,
    "trouble":1,
    "delinquents":1,
    "barge":1,
    "mood":1,
    "sake":1,
    "prayers":1,
    "rentapig":1,
    "companies":1,
    "soldiers":1,
    "ammo":1,
    "liability":1,
    "laws":1,
    "shes":1,
    "busting":1,
    "blocked":1,
    "dar":1,
    "candela":1,
    "por":1,
    "culo":1,
    "overcorrect":1,
    "tu":1,
    "making":1,
    "getaway":1,
    "pigs":1,
    "buck":1,
    "wild":1,
    "earned":1,
    "goes":1,
    "haters":1,
    "g":1,
    "fallen":1,
    "soldier":1,
    "shove":1,
    "front":1,
    "hitting":1,
    "gas":1,
    "dig":1,
    "wheels":1,
    "push":1,
    "aggravating":1,
    "sneakers":1,
    "stuck":1,
    "taken":1,
    "fakers":1,
    "haul":1,
    "rider":1,
    "filth":1,
    "trees":1,
    "ahead":1,
    "screw":1,
    "case":1,
    "forgot":1,
    "clink":1,
    "chimps":1,
    "prison":1,
    "pillow":1,
    "execution":1,
    "bars":1,
    "mob":1,
    "threat":1,
    "long":1,
    "baby":1,
    "needle":1,
    "haystack":1,
    "caught":1,
    "bitchs":1,
    "soap":1,
    "opera":1,
    "bail":1,
    "blast":1,
    "town":1,
    "loves":1,
    "weed":1,
    "much":1,
    "juana":1,
    "cares":1,
    "renta":1,
    "pig":1,
    "collateral":1,
    "damage":1,
    "peeps":1,
    "road":1,
    "hundred":1,
    "miles":1,
    "himwe":1,
    "beer":1,
    "swimmin":1,
    "atlanticjust":1,
    "promised":1,
    "problem":1,
    "mouthin":1,
    "let":1,
    "broken":1,
    "glass":1,
    "everywhere":1,
    "mama":1,
    "lay":1,
    "dress":1,
    "musta":1,
    "thrown":1,
    "whered":1,
    "red":1,
    "riding":1,
    "hood":1,
    "leaving":1,
    "bread":1,
    "crumbs":1,
    "hungry":1,
    "wolf":1,
    "peek":1,
    "boo":1,
    "goodbye":1,
    "kiss":1,
    "window":1,
    "shopper":1,
    "young":1,
    "tryin":1,
    "bid":1,
    "wit":1,
    "send":1,
    "mr":1,
    "play":1,
    "nice":1,
    "puta":1,
    "crast":1,
    "running":1,
    "jewels":1,
    "rob":1,
    "bank":1,
    "morning":1,
    "learned":1,
    "quit":1,
    "mouthing":1,
    "avoid":1,
    "drama":1,
    "wondering":1,
    "screwed":1,
    "shitty":1,
    "photo":1,
    "needing":1,
    "carrying":1,
    "notes":1,
    "rain":1,
    "diamonds":1,
    "cashed":1,
    "savings":1,
    "start":1,
    "scratch":1,
    "grease":1,
    "trauma":1,
    "maricon":1,
    "niggaz":1,
    "using":1,
    "n":1,
    "representing":1,
    "hijo":1,
    "maria":1,
    "virgene":1,
    "mamacita":1,
    "dios":1,
    "tread":1,
    "cross":1,
    "asked":1,
    "sand":1,
    "gesture":1,
    "brain":1,
    "smaller":1,
    "slits":1,
    "eyes":1,
    "banging":1,
    "youll":1,
    "alert":1,
    "cop":1,
    "county":1,
    "checked":1,
    "loved":1,
    "track":1,
    "grip":1,
    "requiem":1,
    "resurrect":1,
    "ground":1,
    "men":1,
    "respect":1,
    "still":1,
    "paybacks":1,
    "genius":1,
    "dumb":1,
    "everything":1,
    "rocks":1,
    "dads":1,
    "bathes":1,
    "waiting":1,
    "jackie":1,
    "chan":1,
    "cabron":1,
    "fell":1,
    "frozen":1,
    "stream":1,
    "zipperhead":1,
    "konaro":1,
    "kusotare":1,
    "speak":1,
    "chinky":1,
    "stumbling":1,
    "dark":1,
    "hog":1,
    "stole":1,
    "works":1,
    "naw":1,
    "disappear":1,
    "rock":1,
    "search":1,
    "guide":1,
    "casket":1,
    "top":1,
    "gulch":1,
    "ahhhhheeeeeehhhhh":1,
    "ahhhhhhh":1,
    "brush":1,
    "conejo":1,
    "awwwrgh":1,
    "curb":1,
    "squealing":1,
    "scout":1,
    "tomass":1,
    "strung":1,
    "body":1,
    "paranoid":1,
    "gook":1,
    "tomasiyah":1,
    "knows":1,
    "babys":1,
    "cancel":1,
    "ghost":1,
    "america":1,
    "ghosts":1,
    "bleed":1,
    "aaaarrhh":1,
    "hypothermia":1,
    "yellow":1,
    "fever":1,
    "telling":1,
    "natural":1,
    "gets":1,
    "hiding":1,
    "follow":1,
    "wouldve":1,
    "pegged":1,
    "defended":1,
    "skinny":1,
    "weighing":1,
    "twenty":1,
    "speaking":1,
    "anyways":1,
    "shot":1,
    "spirit":1,
    "holler":1,
    "faito":1,
    "chuuucckkkkieee":1,
    "delllaaa":1,
    "trail":1,
    "hurting":1,
    "busted":1,
    "collarbone":1,
    "hear":1,
    "sweat":1,
    "went":1,
    "bond":1,
    "decide":1,
    "cute":1,
    "cigarette":1,
    "living":1,
    "voice":1,
    "touch":1,
    "wrong":1,
    "won":1,
    "mehe":1,
    "seventeen":1,
    "clockwork":1,
    "orange":1,
    "droogies":1,
    "chances":1,
    "turned":1,
    "anyway":1,
    "none":1,
    "cutting":1,
    "getting":1,
    "posse":1,
    "together":1,
    "monday":1,
    "wednesday":1,
    "thursday":1,
    "wish":1,
    "suburban":1,
    "lie":1,
    "blame":1,
    "husband":1,
    "yours":1,
    "such":1,
    "betting":1,
    "reckon":1,
    "dreaming":1,
    "though":1,
    "aching":1,
    "lonely":1,
    "wasted":1,
    "blasting":1,
    "feeling":1,
    "wind":1,
    "between":1,
    "fingers":1,
    "things":1,
    "told":1,
    "supposed":1,
    "taking":1,
    "wasting":1,
    "anyone":1,
    "stands":1,
    "had":1,
    "fooled":1,
    "crew":1,
    "bunch":1,
    "kaboom":1,
    "hooking":1,
    "mes":1,
    "chance":1,
    "outs":1,
    "waste":1,
    "ready":1,
    "happens":1,
    "eye":1,
    "christ":1,
    "sound":1,
    "asleep":1,
    "whatd":1,
    "bring":1,
    "group":2,
    "tuesday":2,
    "day":2,
    "isnt":2,
    "hot":2,
    "cookie":2,
    "milk":2,
    "better":2,
    "note":2,
    "until":2,
    "each":2,
    "bedtime":2,
    "lame":2,
    "check":2,
    "make":2,
    "wonderful":2,
    "frick":2,
    "stop":2,
    "drinking":2,
    "hey":2,
    "sweetie":2,
    "howd":2,
    "his":2,
    "four":2,
    "lucky":2,
    "patricia":2,
    "ellis":2,
    "looking":2,
    "hard":2,
    "need":2,
    "gotta":2,
    "tool":2,
    "school":2,
    "joking":2,
    "another":2,
    "week":2,
    "family":2,
    "connect":2,
    "learning":2,
    "academy":2,
    "meghan":2,
    "hi":2,
    "myers":2,
    "calling":2,
    "knew":2,
    "dream":2,
    "word":2,
    "everyone":2,
    "guess":2,
    "outlaw":2,
    "minute":2,
    "pilates":2,
    "batterys":2,
    "pick":2,
    "why":2,
    "meet":2,
    "lattes":2,
    "lets":2,
    "victorias":2,
    "secret":2,
    "minutes":2,
    "wait":2,
    "son":2,
    "steal":2,
    "spot":2,
    "asshole":2,
    "close":2,
    "classic":2,
    "special":2,
    "black":2,
    "size":2,
    "name":2,
    "dollars":2,
    "nine":2,
    "cents":2,
    "since":2,
    "marry":2,
    "live":2,
    "david":2,
    "united":2,
    "enough":2,
    "terri":2,
    "listen":2,
    "talking":2,
    "hope":2,
    "soon":2,
    "planned":2,
    "side":2,
    "maam":2,
    "silent":2,
    "hows":2,
    "trust":2,
    "wanna":2,
    "hoes":2,
    "cold":2,
    "playa":2,
    "game":2,
    "mrs":2,
    "hands":2,
    "someone":2,
    "under":2,
    "chinga":2,
    "grave":2,
    "move":2,
    "boys":2,
    "foot":2,
    "tough":2,
    "sleep":2,
    "heavenly":2,
    "peace":2,
    "nowhere":2,
    "el":2,
    "windshield":2,
    "die":2,
    "madre":2,
    "easy":2,
    "talk":2,
    "care":2,
    "dancer":2,
    "hit":2,
    "next":2,
    "else":2,
    "witness":2,
    "loose":2,
    "end":2,
    "dog":2,
    "style":2,
    "tried":2,
    "skippy":2,
    "housewife":2,
    "ocean":2,
    "break":2,
    "tell":2,
    "look":2,
    "git":2,
    "imma":2,
    "worry":2,
    "ghetto":2,
    "purse":2,
    "ice":2,
    "nuthin":2,
    "de":2,
    "face":2,
    "doing":2,
    "deal":2,
    "tribute":2,
    "em":2,
    "homie":2,
    "hueys":2,
    "probably":2,
    "smell":2,
    "looks":2,
    "dude":2,
    "bro":2,
    "april":2,
    "fool":2,
    "slope":2,
    "home":2,
    "gangsta":2,
    "feel":2,
    "tree":2,
    "accident":2,
    "babies":2,
    "theyre":2,
    "really":2,
    "bet":2,
    "womans":2,
    "thinking":2,
    "happened":2,
    "figured":2,
    "took":2,
    "movie":2,
    "security":2,
    "youve":2,
    "thought":2,
    "always":3,
    "wrapping":3,
    "paper":3,
    "cause":3,
    "house":3,
    "hair":3,
    "last":3,
    "twins":3,
    "leave":3,
    "will":3,
    "read":3,
    "tomorrow":3,
    "whole":3,
    "world":3,
    "promise":3,
    "tammi":3,
    "after":3,
    "cell":3,
    "number":3,
    "wouldnt":3,
    "yourself":3,
    "thing":3,
    "trunk":3,
    "two":3,
    "use":3,
    "ride":3,
    "miss":3,
    "bad":3,
    "maybe":3,
    "may":3,
    "hold":3,
    "spanish":3,
    "cassie":3,
    "while":3,
    "cant":3,
    "good":3,
    "away":3,
    "wont":3,
    "help":3,
    "great":3,
    "thanks":3,
    "around":3,
    "bought":3,
    "into":3,
    "holy":3,
    "boy":3,
    "games":3,
    "lady":3,
    "keep":3,
    "these":3,
    "nah":3,
    "man":3,
    "ford":3,
    "through":3,
    "dirt":3,
    "save":3,
    "o":3,
    "head":3,
    "said":3,
    "footprints":3,
    "brother":3,
    "box":3,
    "killed":3,
    "than":3,
    "every":3,
    "bulgari":3,
    "flashlight":3,
    "were":3,
    "tools":3,
    "vinh":3,
    "wanted":3,
    "damn":4,
    "shoot":4,
    "kenneth":4,
    "mechanics":4,
    "who":4,
    "class":4,
    "pleasant":4,
    "valley":4,
    "give":4,
    "chocolate":4,
    "jesus":4,
    "then":4,
    "hello":4,
    "called":4,
    "least":4,
    "without":4,
    "parents":4,
    "merry":4,
    "years":4,
    "take":4,
    "car":4,
    "five":4,
    "done":4,
    "any":4,
    "come":4,
    "gun":4,
    "nigga":4,
    "shut":4,
    "stupid":4,
    "more":4,
    "big":4,
    "hurt":4,
    "unnh":4,
    "blood":4,
    "yes":5,
    "mean":5,
    "new":5,
    "or":5,
    "time":5,
    "our":5,
    "by":5,
    "their":5,
    "mommy":5,
    "story":5,
    "us":5,
    "yeah":5,
    "did":5,
    "way":5,
    "please":5,
    "":5,
    "find":5,
    "whats":5,
    "huh":5,
    "must":5,
    "say":5,
    "open":5,
    "pussy":5,
    "little":5,
    "podunk":5,
    "fuck":5,
    "as":5,
    "before":5,
    "ever":5,
    "kids":6,
    "again":6,
    "tonight":6,
    "sure":6,
    "other":6,
    "saw":6,
    "god":6,
    "put":6,
    "them":6,
    "sorry":6,
    "only":6,
    "best":6,
    "could":6,
    "too":6,
    "off":6,
    "would":6,
    "left":6,
    "even":6,
    "been":6,
    "already":6,
    "old":6,
    "down":6,
    "dead":6,
    "didnt":6,
    "think":7,
    "theres":7,
    "honey":7,
    "something":7,
    "mary":7,
    "okay":7,
    "nothing":7,
    "call":7,
    "see":7,
    "first":7,
    "tomas":7,
    "real":7,
    "kill":7,
    "an":8,
    "some":8,
    "where":8,
    "back":8,
    "life":8,
    "so":8,
    "him":8,
    "mall":9,
    "want":9,
    "well":9,
    "from":9,
    "thats":10,
    "over":10,
    "have":10,
    "night":10,
    "not":10,
    "youre":10,
    "ill":10,
    "when":10,
    "oh":10,
    "go":10,
    "he":10,
    "hell":10,
    "here":10,
    "how":11,
    "there":11,
    "they":11,
    "never":11,
    "bitch":11,
    "chuckie":11,
    "ass":11,
    "if":12,
    "gonna":12,
    "shit":12,
    "gone":12,
    "do":14,
    "christmas":14,
    "get":15,
    "dont":15,
    "about":15,
    "but":15,
    "huey":15,
    "with":16,
    "one":16,
    "all":16,
    "this":16,
    "like":16,
    "yo":17,
    "out":18,
    "be":18,
    "me":18,
    "is":19,
    "can":19,
    "no":19,
    "right":19,
    "going":20,
    "got":20,
    "at":20,
    "was":20,
    "on":20,
    "her":20,
    "know":21,
    "im":21,
    "just":22,
    "are":23,
    "its":24,
    "now":25,
    "my":26,
    "of":27,
    "aint":28,
    "she":28,
    "up":30,
    "your":30,
    "what":31,
    "that":33,
    "for":34,
    "della":39,
    "we":39,
    "in":50,
    "it":51,
    "and":53,
    "to":63,
    "a":80,
    "i":94,
    "the":124,
    "you":156
}