{
    "hideous":1,
    "zigzags":1,
    "grove":1,
    "attempt":1,
    "horrible":1,
    "ruse":1,
    "futile":1,
    "slicing":1,
    "path":1,
    "crow":1,
    "dilapidated":1,
    "weathering":1,
    "runs":1,
    "buzzes":1,
    "sideboards":1,
    "wood":1,
    "shavings":1,
    "spit":1,
    "everywhere":1,
    "stopping":1,
    "incomprehensibly":1,
    "mumbling":1,
    "pleading":1,
    "cowering":1,
    "noooooooo":1,
    "dissolve":1,
    "sky":1,
    "stars":1,
    "low":1,
    "legendary":1,
    "sugar":1,
    "treat":1,
    "kisses":1,
    "clatter":1,
    "wagons":1,
    "kissing":1,
    "surreptitiously":1,
    "continuing":1,
    "widened":1,
    "revulsion":1,
    "evil":1,
    "abides":1,
    "godforsaken":1,
    "drunkenly":1,
    "licks":1,
    "unspeakably":1,
    "vile":1,
    "tonsillitis":1,
    "packer":1,
    "virgil":1,
    "norleans":1,
    "safety":1,
    "issue":1,
    "rain":1,
    "suck":1,
    "protecting":1,
    "frustrated":1,
    "boxer":1,
    "shorts":1,
    "plugs":1,
    "belle":1,
    "underbritches":1,
    "plug":1,
    "britches":1,
    "credit":1,
    "topple":1,
    "freakedout":1,
    "hangs":1,
    "clutches":1,
    "frisbeeing":1,
    "genitals":1,
    "shy":1,
    "nig":1,
    "fought":1,
    "union":1,
    "word":1,
    "spins":1,
    "nonetoobright":1,
    "pants":1,
    "heap":1,
    "employer":1,
    "brothel":1,
    "redundant":1,
    "appropriate":1,
    "check":1,
    "merchandise":1,
    "oblivious":1,
    "exrebs":1,
    "balcony":1,
    "trunk":1,
    "drive":1,
    "bargain":1,
    "fifty":1,
    "cents":1,
    "juicy":1,
    "lips":1,
    "pull":1,
    "whore":1,
    "coquettishness":1,
    "rage":1,
    "falsetto":1,
    "baritone":1,
    "growl":1,
    "high":1,
    "standards":1,
    "registers":1,
    "wham":1,
    "corsage":1,
    "springs":1,
    "rebs":1,
    "roll":1,
    "slumps":1,
    "privacy":1,
    "response":1,
    "hovering":1,
    "obliterating":1,
    "opponents":1,
    "falling":1,
    "naked":1,
    "gallantly":1,
    "overhead":1,
    "tackle":1,
    "slides":1,
    "warehouse":1,
    "spooked":1,
    "thunders":1,
    "closeup":1,
    "runaway":1,
    "shivering":1,
    "tip":1,
    "towels":1,
    "dora":1,
    "indeedy":1,
    "elsewhere":1,
    "stokes":1,
    "piano":1,
    "lungs":1,
    "punctuates":1,
    "gordondoras":1,
    "rump":1,
    "buy":1,
    "backroom":1,
    "backwardsass":1,
    "bumpkins":1,
    "steady":1,
    "vials":1,
    "boxes":1,
    "buckboard":1,
    "dragging":1,
    "frothing":1,
    "careens":1,
    "cried":1,
    "stonefaced":1,
    "rowdies":1,
    "rip":1,
    "apart":1,
    "tapping":1,
    "mudcaked":1,
    "encouraged":1,
    "belts":1,
    "verses":1,
    "corner":1,
    "tilt":1,
    "ears":1,
    "victorian":1,
    "tasteful":1,
    "framed":1,
    "heshe":1,
    "curtsies":1,
    "rousing":1,
    "beams":1,
    "roaring":1,
    "songbird":1,
    "windows":1,
    "tracking":1,
    "taneously":1,
    "slams":1,
    "roughly":1,
    "release":1,
    "clasp":1,
    "swimmin":1,
    "understood":1,
    "woof":1,
    "words":1,
    "dumb":1,
    "swirling":1,
    "spiral":1,
    "startle":1,
    "recover":1,
    "samaritan":1,
    "deceivin":1,
    "stranger":1,
    "pats":1,
    "revolver":1,
    "bag":1,
    "coins":1,
    "caliber":1,
    "dollar":1,
    "care":1,
    "money":1,
    "dignity":1,
    "dogsoldier":1,
    "lunges":1,
    "weight":1,
    "jims":1,
    "pushing":1,
    "heft":1,
    "wriggling":1,
    "wssssht":1,
    "sprays":1,
    "bulb":1,
    "atomizer":1,
    "howls":1,
    "madly":1,
    "presented":1,
    "outta":1,
    "whip":1,
    "weirdness":1,
    "reflexively":1,
    "colt":1,
    "badge":1,
    "lipreading":1,
    "interrupted":1,
    "arrival":1,
    "incline":1,
    "scientistinthesack":1,
    "manners":1,
    "dictate":1,
    "cane":1,
    "telescopes":1,
    "lynch":1,
    "slightest":1,
    "started":1,
    "downhill":1,
    "female":1,
    "coterie":1,
    "burlap":1,
    "pardner":1,
    "winning":1,
    "forty":1,
    "acres":1,
    "mule":1,
    "traipse":1,
    "whips":1,
    "sawedoff":1,
    "12gauge":1,
    "pinkertons":1,
    "escalating":1,
    "oval":1,
    "doorway":1,
    "appointment":1,
    "already":1,
    "hairtrigger":1,
    "threats":1,
    "lately":1,
    "cabinet":1,
    "hire":1,
    "limps":1,
    "pours":1,
    "whiskey":1,
    "humidor":1,
    "halfasissy":1,
    "wearin":1,
    "ruined":1,
    "proven":1,
    "cunning":1,
    "operator":1,
    "rapacious":1,
    "completing":1,
    "actions":1,
    "headstrong":1,
    "plaster":1,
    "rains":1,
    "stunt":1,
    "illustrating":1,
    "impersonating":1,
    "bowels":1,
    "intestinal":1,
    "allusion":1,
    "ceremonial":1,
    "bayonet":1,
    "inflated":1,
    "paunch":1,
    "hisses":1,
    "finishes":1,
    "deflating":1,
    "flatulent":1,
    "rrrip":1,
    "scowls":1,
    "itll":1,
    "fixes":1,
    "disapproving":1,
    "patented":1,
    "question":1,
    "commander":1,
    "chief":1,
    "tells":1,
    "snicker":1,
    "bickering":1,
    "snatches":1,
    "employ":1,
    "beyond":1,
    "contemporary":1,
    "imagination":1,
    "justice":1,
    "suggest":1,
    "affairs":1,
    "delivered":1,
    "marzipan":1,
    "dozens":1,
    "deadlylooking":1,
    "spiders":1,
    "swarm":1,
    "cake":1,
    "rising":1,
    "obsession":1,
    "vicious":1,
    "killer":1,
    "mastermind":1,
    "consulting":1,
    "headed":1,
    "talkin":1,
    "farther":1,
    "rely":1,
    "stupidity":1,
    "transcontinental":1,
    "railroads":1,
    "joined":1,
    "drawn":1,
    "gap":1,
    "whoever":1,
    "fail":1,
    "couldve":1,
    "dismissed":1,
    "return":1,
    "aide":1,
    "approaches":1,
    "private":1,
    "disposal":1,
    "track":1,
    "item":1,
    "requested":1,
    "hurries":1,
    "biaxle":1,
    "nitrocombust":1,
    "yeehaaa":1,
    "spurs":1,
    "leaves":1,
    "proverbial":1,
    "intentions":1,
    "particular":1,
    "hurry":1,
    "hankie":1,
    "cleans":1,
    "vrooom":1,
    "rockets":1,
    "fiery":1,
    "exhaust":1,
    "blasts":1,
    "manifolds":1,
    "propels":1,
    "60":1,
    "mph":1,
    "stallion":1,
    "wideeyed":1,
    "rears":1,
    "combustion":1,
    "pretends":1,
    "casually":1,
    "stitch":1,
    "dropping":1,
    "bikes":1,
    "beards":1,
    "settle":1,
    "remains":1,
    "remarkably":1,
    "cool":1,
    "sewing":1,
    "clarification":1,
    "final":1,
    "worn":1,
    "clothing":1,
    "modern":1,
    "fired":1,
    "range":1,
    "stomach":1,
    "hasnt":1,
    "empirically":1,
    "unnecessary":1,
    "proper":1,
    "planning":1,
    "felt":1,
    "degenerate":1,
    "failure":1,
    "failed":1,
    "unleashes":1,
    "punch":1,
    "dabs":1,
    "bloody":1,
    "lip":1,
    "utter":1,
    "praying":1,
    "crooking":1,
    "storklike":1,
    "martial":1,
    "ballet":1,
    "dancer":1,
    "extends":1,
    "switch":1,
    "hammer":1,
    "revolves":1,
    "asked":1,
    "functional":1,
    "swishes":1,
    "wine":1,
    "avail":1,
    "subcarriage":1,
    "interrail":1,
    "egressor":1,
    "pinning":1,
    "club":1,
    "egressin":1,
    "petty":1,
    "opposite":1,
    "beneficial":1,
    "differ":1,
    "fairest":1,
    "attunement":1,
    "aristotle":1,
    "flip":1,
    "shocked":1,
    "themselves":1,
    "douse":1,
    "threatens":1,
    "liquid":1,
    "veal":1,
    "reduction":1,
    "sauce":1,
    "business":1,
    "thaddeus":1,
    "expert":1,
    "metallurgy":1,
    "alfalfa":1,
    "mit":1,
    "months":1,
    "strange":1,
    "object":1,
    "figured":1,
    "fiddling":1,
    "retinal":1,
    "terminus":1,
    "persons":1,
    "conscious":1,
    "eyeball":1,
    "photograph":1,
    "sideways":1,
    "inverted":1,
    "projected":1,
    "refraction":1,
    "lenses":1,
    "causes":1,
    "vise":1,
    "blurry":1,
    "fuzzy":1,
    "frontal":1,
    "lobe":1,
    "stymied":1,
    "mortification":1,
    "aqueous":1,
    "led":1,
    "april":1,
    "14":1,
    "eightthirty":1,
    "346":1,
    "garden":1,
    "massa":1,
    "dats":1,
    "jus":1,
    "tole":1,
    "won":1,
    "carrying":1,
    "firearm":1,
    "intriguing":1,
    "displays":1,
    "nicely":1,
    "armed":1,
    "negro":1,
    "creative":1,
    "southerners":1,
    "oughtta":1,
    "fit":1,
    "prize":1,
    "thus":1,
    "create":1,
    "destroy":1,
    "chosen":1,
    "direct":1,
    "orders":1,
    "freedom":1,
    "stake":1,
    "riverboat":1,
    "werent":1,
    "propositioned":1,
    "nasty":1,
    "sticking":1,
    "rusty":1,
    "cannons":1,
    "sunken":1,
    "ship":1,
    "rack":1,
    "scientifically":1,
    "aesthetically":1,
    "thwapping":1,
    "touching":1,
    "rough":1,
    "buckwheat":1,
    "buckwheatll":1,
    "wash":1,
    "basin":1,
    "pitcher":1,
    "fills":1,
    "squeezes":1,
    "passing":1,
    "colemans":1,
    "sweating":1,
    "officers":1,
    "bah":1,
    "shaking":1,
    "gizmo":1,
    "reacts":1,
    "jot":1,
    "notepad":1,
    "underestimate":1,
    "convenience":1,
    "chance":1,
    "havin":1,
    "jockey":1,
    "squints":1,
    "smacks":1,
    "jockeys":1,
    "coldcocked":1,
    "boosting":1,
    "wrangle":1,
    "defiant":1,
    "latina":1,
    "recognize":1,
    "early":1,
    "20s":1,
    "19thcentury":1,
    "camisole":1,
    "scanty":1,
    "concentrate":1,
    "smelly":1,
    "dirty":1,
    "applied":1,
    "selfish":1,
    "spoils":1,
    "simple":1,
    "diamond":1,
    "large":1,
    "prosthesis":1,
    "pulleys":1,
    "warms":1,
    "authentic":1,
    "outfit":1,
    "complete":1,
    "sixguns":1,
    "busted":1,
    "chinese":1,
    "dragon":1,
    "terribly":1,
    "meets":1,
    "mae":1,
    "anywhere":1,
    "guest":1,
    "list":1,
    "personal":1,
    "assistant":1,
    "founders":1,
    "confederacy":1,
    "jefferson":1,
    "davis":1,
    "tonights":1,
    "comingout":1,
    "scans":1,
    "mole":1,
    "getup":1,
    "joins":1,
    "glory":1,
    "lord":1,
    "trampled":1,
    "grapes":1,
    "wrath":1,
    "stored":1,
    "trampling":1,
    "kaboom":1,
    "pinata":1,
    "peeps":1,
    "hate":1,
    "southern":1,
    "dramatic":1,
    "kicking":1,
    "giggles":1,
    "distaff":1,
    "corps":1,
    "remove":1,
    "paraphernalia":1,
    "literally":1,
    "mounted":1,
    "powered":1,
    "bereft":1,
    "tuchus":1,
    "kishkes":1,
    "else":1,
    "vicinity":1,
    "interesting":1,
    "mayve":1,
    "heaven":1,
    "smoothes":1,
    "fritz":1,
    "lang":1,
    "metropolisstyle":1,
    "suit":1,
    "lung":1,
    "spleen":1,
    "thirtyfive":1,
    "intestine":1,
    "ability":1,
    "reproduce":1,
    "lose":1,
    "owe":1,
    "debt":1,
    "gratitude":1,
    "sea":1,
    "succor":1,
    "distracted":1,
    "comely":1,
    "beauties":1,
    "abruptly":1,
    "mi":1,
    "es":1,
    "su":1,
    "ma":1,
    "maison":1,
    "est":1,
    "vous":1,
    "begin":1,
    "quartets":1,
    "resume":1,
    "playing":1,
    "cocky":1,
    "add":1,
    "color":1,
    "monochromatic":1,
    "proceedings":1,
    "lid":1,
    "temper":1,
    "occasion":1,
    "counted":1,
    "slightly":1,
    "expecting":1,
    "coons":1,
    "age":1,
    "bet":1,
    "flickers":1,
    "disappointment":1,
    "encourage":1,
    "amused":1,
    "winks":1,
    "accompanies":1,
    "study":1,
    "honey":1,
    "ole":1,
    "peeking":1,
    "keyhole":1,
    "18th":1,
    "victory":1,
    "relaxes":1,
    "pyorrheic":1,
    "grin":1,
    "pip":1,
    "maw":1,
    "cerberus":1,
    "pencil":1,
    "10":1,
    "oclock":1,
    "hips":1,
    "foyaay":1,
    "scolding":1,
    "plants":1,
    "overheated":1,
    "tongues":1,
    "involved":1,
    "break":1,
    "approval":1,
    "contraire":1,
    "dangerous":1,
    "spy":1,
    "poke":1,
    "buttons":1,
    "trousers":1,
    "job":1,
    "jobs":1,
    "howdy":1,
    "sturdy":1,
    "gal":1,
    "yer":1,
    "card":1,
    "spiels":1,
    "couple":1,
    "language":1,
    "understands":1,
    "flattering":1,
    "forehead":1,
    "lowers":1,
    "gently":1,
    "regards":1,
    "mapimprinted":1,
    "rear":1,
    "helpin":1,
    "staked":1,
    "scientistsll":1,
    "host":1,
    "meeting":1,
    "troops":1,
    "malheureux":1,
    "hour":1,
    "lookalike":1,
    "speechless":1,
    "bladders":1,
    "perky":1,
    "dig":1,
    "deeper":1,
    "lays":1,
    "elicits":1,
    "shocks":1,
    "bejesus":1,
    "says":1,
    "everyone":1,
    "deerskin":1,
    "mob":1,
    "character":1,
    "anything":1,
    "temple":1,
    "swept":1,
    "teach":1,
    "behave":1,
    "society":1,
    "ladys":1,
    "scratch":1,
    "shrimp":1,
    "whaddaya":1,
    "someplace":1,
    "buster":1,
    "fenimore":1,
    "cooper":1,
    "unsnaps":1,
    "pedal":1,
    "operates":1,
    "rotation":1,
    "attaches":1,
    "cable":1,
    "pump":1,
    "footpowered":1,
    "drill":1,
    "checked":1,
    "sampled":1,
    "gumbo":1,
    "okra":1,
    "listening":1,
    "review":1,
    "minds":1,
    "clicks":1,
    "distressed":1,
    "damsel":1,
    "played":1,
    "empire":1,
    "bijou":1,
    "cafe":1,
    "everyones":1,
    "attention":1,
    "major":1,
    "misunderstandings":1,
    "drumming":1,
    "native":1,
    "land":1,
    "africa":1,
    "ancestors":1,
    "villages":1,
    "baton":1,
    "rouge":1,
    "galveston":1,
    "howre":1,
    "hows":1,
    "mama":1,
    "misunderstanding":1,
    "comment":1,
    "negatively":1,
    "whiskeyguzzling":1,
    "potbellied":1,
    "rednecks":1,
    "slavery":1,
    "chores":1,
    "fat":1,
    "lazy":1,
    "pick":1,
    "shine":1,
    "prepared":1,
    "darling":1,
    "searches":1,
    "desperately":1,
    "signs":1,
    "fuck":1,
    "devil":1,
    "heyyaa":1,
    "charging":1,
    "nostrils":1,
    "flared":1,
    "wildeyed":1,
    "rumps":1,
    "snapped":1,
    "scattering":1,
    "george":1,
    "somersaults":1,
    "bowie":1,
    "volley":1,
    "cracker":1,
    "sharpshooters":1,
    "amazing":1,
    "display":1,
    "rapidfire":1,
    "marksmanship":1,
    "dozen":1,
    "shooters":1,
    "bumps":1,
    "wildly":1,
    "getaway":1,
    "blamblamblamblam":1,
    "hangm":1,
    "triggerhappy":1,
    "carefully":1,
    "planned":1,
    "search":1,
    "notices":1,
    "halfdressed":1,
    "bombshell":1,
    "huh":1,
    "locked":1,
    "guillermo":1,
    "rescued":1,
    "sang":1,
    "burgundy":1,
    "bustle":1,
    "chitchat":1,
    "safely":1,
    "mane":1,
    "unclips":1,
    "gallop":1,
    "remaining":1,
    "awed":1,
    "chew":1,
    "visibly":1,
    "winces":1,
    "contemplate":1,
    "understanding":1,
    "primers":1,
    "stomachchurning":1,
    "carnage":1,
    "earned":1,
    "unfortunate":1,
    "nom":1,
    "de":1,
    "guerre":1,
    "speaks":1,
    "benefit":1,
    "nickname":1,
    "butcher":1,
    "donating":1,
    "capable":1,
    "repay":1,
    "surrendered":1,
    "betrayed":1,
    "steno":1,
    "turret":1,
    "accelerated":1,
    "22":1,
    "28":1,
    "rail":1,
    "semaphore":1,
    "flashing":1,
    "bucket":1,
    "minister":1,
    "moan":1,
    "demand":1,
    "drills":1,
    "hearing":1,
    "scribbles":1,
    "dutifully":1,
    "shoves":1,
    "desist":1,
    "seemingly":1,
    "unconcerned":1,
    "pressed":1,
    "skull":1,
    "distress":1,
    "senselessly":1,
    "greater":1,
    "index":1,
    "tubes":1,
    "comprise":1,
    "fore":1,
    "aft":1,
    "tightens":1,
    "booom":1,
    "startled":1,
    "doubleought":1,
    "buckshot":1,
    "crumples":1,
    "sniffs":1,
    "dignitarys":1,
    "barking":1,
    "fallen":1,
    "generals":1,
    "rca":1,
    "logo":1,
    "guests":1,
    "appreciate":1,
    "efficiency":1,
    "concludes":1,
    "festivities":1,
    "ladies":1,
    "feed":1,
    "crabs":1,
    "unceremoniously":1,
    "dump":1,
    "sploosh":1,
    "addresses":1,
    "toy":1,
    "compared":1,
    "cooking":1,
    "piqued":1,
    "interest":1,
    "bring":1,
    "days":1,
    "destination":1,
    "future":1,
    "paul":1,
    "revere":1,
    "revolutionary":1,
    "payment":1,
    "friday":1,
    "proposal":1,
    "confident":1,
    "revoir":1,
    "adios":1,
    "tata":1,
    "lake":1,
    "corpses":1,
    "360degree":1,
    "pattern":1,
    "disappeared":1,
    "moments":1,
    "clinical":1,
    "posturing":1,
    "haunted":1,
    "screeching":1,
    "wounded":1,
    "cabin":1,
    "round":1,
    "eagles":1,
    "saw":1,
    "stories":1,
    "illinois":1,
    "border":1,
    "ended":1,
    "65":1,
    "9th":1,
    "cavalry":1,
    "children":1,
    "target":1,
    "practice":1,
    "vowed":1,
    "earth":1,
    "grey":1,
    "fourdayold":1,
    "mullet":1,
    "relentless":1,
    "pursuer":1,
    "hoping":1,
    "blame":1,
    "operated":1,
    "killing":1,
    "smarter":1,
    "meaning":1,
    "sinking":1,
    "mansion":1,
    "vonder":1,
    "vill":1,
    "frissy":1,
    "ze":1,
    "vhere":1,
    "diss":1,
    "anyvay":1,
    "given":1,
    "oughta":1,
    "worryin":1,
    "roars":1,
    "known":1,
    "ungracious":1,
    "shed":1,
    "gettin":1,
    "reproductive":1,
    "organs":1,
    "botticelli":1,
    "raphael":1,
    "raises":1,
    "eyebrow":1,
    "galley":1,
    "platter":1,
    "especially":1,
    "group":1,
    "ministers":1,
    "since":1,
    "exasperated":1,
    "embarrassed":1,
    "spare":1,
    "sandwich":1,
    "bite":1,
    "fantastic":1,
    "howd":1,
    "daubiere":1,
    "clay":1,
    "method":1,
    "purpose":1,
    "somebodysomebody":1,
    "swindled":1,
    "isabella":1,
    "speaker":1,
    "horn":1,
    "hells":1,
    "frightened":1,
    "starving":1,
    "sagebrush":1,
    "skulls":1,
    "brown":1,
    "fathers":1,
    "supposed":1,
    "news":1,
    "lives":1,
    "melts":1,
    "charms":1,
    "assure":1,
    "exercise":1,
    "futility":1,
    "demonstrate":1,
    "twirls":1,
    "armorplated":1,
    "raps":1,
    "knuckles":1,
    "smugly":1,
    "demonstrates":1,
    "fixture":1,
    "gatling":1,
    "attacker":1,
    "lighting":1,
    "unflattering":1,
    "eating":1,
    "inconceivable":1,
    "fluke":1,
    "manage":1,
    "gain":1,
    "entrance":1,
    "gas":1,
    "effective":1,
    "seconds":1,
    "unclicks":1,
    "triumphantly":1,
    "assured":1,
    "safe":1,
    "walls":1,
    "snorts":1,
    "obvious":1,
    "attentions":1,
    "assuming":1,
    "barges":1,
    "tired":1,
    "aint":1,
    "stylish":1,
    "practical":1,
    "chemists":1,
    "metallurgist":1,
    "armor":1,
    "foremost":1,
    "specialist":1,
    "hydraulics":1,
    "whatever":1,
    "fall":1,
    "cold":1,
    "stained":1,
    "pleasant":1,
    "fresh":1,
    "hundred":1,
    "yards":1,
    "closing":1,
    "scramble":1,
    "ushers":1,
    "threeinch":1,
    "installing":1,
    "incredulously":1,
    "disabuse":1,
    "notion":1,
    "problems":1,
    "tunnel":1,
    "thru":1,
    "chasing":1,
    "correct":1,
    "questions":1,
    "throw":1,
    "shrug":1,
    "tosses":1,
    "hits":1,
    "during":1,
    "whoosh":1,
    "covers":1,
    "disapprovingly":1,
    "sights":1,
    "stroking":1,
    "fires":1,
    "unvented":1,
    "boiler":1,
    "sending":1,
    "fireball":1,
    "ripping":1,
    "destroying":1,
    "defend":1,
    "herself":1,
    "closes":1,
    "impact":1,
    "disparagingly":1,
    "band":1,
    "18inch":1,
    "circle":1,
    "collared":1,
    "36inchdiameter":1,
    "cd":1,
    "changerclaypigeonthrower":1,
    "trust":1,
    "slept":1,
    "wellendowed":1,
    "blackamoor":1,
    "absolutely":1,
    "impossible":1,
    "freak":1,
    "fully":1,
    "pleasure":1,
    "witnessed":1,
    "mechinology":1,
    "provide":1,
    "hardpumping":1,
    "os":1,
    "pumping":1,
    "marvelous":1,
    "lack":1,
    "access":1,
    "pass":1,
    "miles":1,
    "laboratory":1,
    "unbuttons":1,
    "shirt":1,
    "experimental":1,
    "camp":1,
    "political":1,
    "dissidents":1,
    "barbed":1,
    "designated":1,
    "bullshit":1,
    "flowers":1,
    "peels":1,
    "jumped":1,
    "hops":1,
    "fenced":1,
    "providence":1,
    "bringing":1,
    "champagne":1,
    "cork":1,
    "wee":1,
    "managed":1,
    "seemed":1,
    "theyd":1,
    "gully":1,
    "zigs":1,
    "zags":1,
    "beatup":1,
    "flopping":1,
    "remembered":1,
    "swim":1,
    "simmering":1,
    "controlling":1,
    "opposed":1,
    "minutes":1,
    "thoughts":1,
    "contraptions":1,
    "tad":1,
    "movie":1,
    "mention":1,
    "bracing":1,
    "romp":1,
    "fanciful":1,
    "hide":1,
    "mode":1,
    "transportation":1,
    "sadistic":1,
    "mass":1,
    "destruction":1,
    "bash":1,
    "rock":1,
    "reversed":1,
    "polarity":1,
    "magnets":1,
    "dislodges":1,
    "peachey":1,
    "leverage":1,
    "ahhhh":1,
    "struggles":1,
    "writhing":1,
    "thwap":1,
    "sucked":1,
    "favor":1,
    "telling":1,
    "grandkids":1,
    "unbuttoning":1,
    "ingenious":1,
    "pile":1,
    "spend":1,
    "meatball":1,
    "bathroom":1,
    "etiquette":1,
    "bobbing":1,
    "aha":1,
    "forgot":1,
    "slipped":1,
    "somethingorother":1,
    "uncomfortable":1,
    "zeal":1,
    "leap":1,
    "twohundredfoot":1,
    "physic":1,
    "pomp":1,
    "expose":1,
    "thyself":1,
    "wretches":1,
    "thou":1,
    "mayst":1,
    "superflux":1,
    "quote":1,
    "annoying":1,
    "flaunting":1,
    "truth":1,
    "told":1,
    "prop":1,
    "arthur":1,
    "pinnacle":1,
    "production":1,
    "american":1,
    "cousin":1,
    "comedy":1,
    "biggest":1,
    "drowned":1,
    "gunshot":1,
    "devote":1,
    "outstretched":1,
    "bother":1,
    "warm":1,
    "sand":1,
    "pry":1,
    "hunters":1,
    "shell":1,
    "eggs":1,
    "babies":1,
    "eat":1,
    "hungry":1,
    "parents":1,
    "assume":1,
    "negroes":1,
    "raised":1,
    "sent":1,
    "plantation":1,
    "ran":1,
    "strong":1,
    "draggin":1,
    "listing":1,
    "noticeably":1,
    "magneto":1,
    "power":1,
    "partnership":1,
    "admitted":1,
    "helps":1,
    "distance":1,
    "admitting":1,
    "hallucinated":1,
    "several":1,
    "relieved":1,
    "mirage":1,
    "rim":1,
    "peer":1,
    "edge":1,
    "reacting":1,
    "lair":1,
    "impressive":1,
    "works":1,
    "fool":1,
    "trapped":1,
    "stompin":1,
    "impatiently":1,
    "advantage":1,
    "excitedly":1,
    "book":1,
    "pictured":1,
    "archaic":1,
    "sepia":1,
    "diagram":1,
    "weird":1,
    "aircraft":1,
    "prattles":1,
    "1540":1,
    "leonardo":1,
    "ornithopter":1,
    "flew":1,
    "plans":1,
    "halfcocked":1,
    "inventions":1,
    "stick":1,
    "wardrobe":1,
    "unity":1,
    "famous":1,
    "engines":1,
    "scan":1,
    "unites":1,
    "oceans":1,
    "sledgehammer":1,
    "wiggle":1,
    "hop":1,
    "bounced":1,
    "resounding":1,
    "thumping":1,
    "mornin":1,
    "bump":1,
    "ulysses":1,
    "s":1,
    "properly":1,
    "introduced":1,
    "formerly":1,
    "confederate":1,
    "flank":1,
    "humble":1,
    "abode":1,
    "nearby":1,
    "hospitality":1,
    "unconditional":1,
    "alliance":1,
    "person":1,
    "anyone":1,
    "public":1,
    "occasions":1,
    "puffy":1,
    "overweight":1,
    "apes":1,
    "bigger":1,
    "mockingly":1,
    "wheres":1,
    "shifts":1,
    "bewildered":1,
    "manning":1,
    "bead":1,
    "important":1,
    "bonjour":1,
    "buenas":1,
    "tardes":1,
    "glorious":1,
    "healing":1,
    "waited":1,
    "tight":1,
    "fascistbrown":1,
    "tankwear":1,
    "rise":1,
    "seats":1,
    "applaud":1,
    "applauding":1,
    "haggard":1,
    "prisoners":1,
    "1776":1,
    "bean":1,
    "expensive":1,
    "cup":1,
    "o":1,
    "tea":1,
    "englishman":1,
    "beads":1,
    "alamo":1,
    "proud":1,
    "righted":1,
    "thunderous":1,
    "flag":1,
    "pulled":1,
    "deunited":1,
    "significant":1,
    "describes":1,
    "delegation":1,
    "thirteen":1,
    "original":1,
    "colonies":1,
    "minus":1,
    "florida":1,
    "youth":1,
    "california":1,
    "arizona":1,
    "revolve":1,
    "reverts":1,
    "tiny":1,
    "retire":1,
    "appreciative":1,
    "laughter":1,
    "nations":1,
    "legal":1,
    "personally":1,
    "symmetry":1,
    "loggerheads":1,
    "suppose":1,
    "threat":1,
    "valorous":1,
    "record":1,
    "refuse":1,
    "shooting":1,
    "outburst":1,
    "circumstances":1,
    "aims":1,
    "request":1,
    "aim":1,
    "heart":1,
    "loved":1,
    "lights":1,
    "dim":1,
    "ohhh":1,
    "plump":1,
    "rosy":1,
    "gander":1,
    "forgets":1,
    "execution":1,
    "rupaul":1,
    "tall":1,
    "blue":1,
    "dressing":1,
    "accessorized":1,
    "mesh":1,
    "stockings":1,
    "silverbuckled":1,
    "lots":1,
    "petticoats":1,
    "cancan":1,
    "mighty":1,
    "cozy":1,
    "winds":1,
    "derriere":1,
    "stare":1,
    "mouths":1,
    "agape":1,
    "worthy":1,
    "othello":1,
    "painted":1,
    "cheeks":1,
    "corsets":1,
    "slaps":1,
    "sting":1,
    "hornets":1,
    "cruel":1,
    "escaped":1,
    "headcutting":1,
    "shouldnt":1,
    "teasing":1,
    "aches":1,
    "amputated":1,
    "executed":1,
    "chanteuse":1,
    "exaggerated":1,
    "thrall":1,
    "audience":1,
    "creatures":1,
    "mormon":1,
    "preachers":1,
    "sashays":1,
    "monocle":1,
    "blows":1,
    "hot":1,
    "thrown":1,
    "features":1,
    "cheek":1,
    "matching":1,
    "relative":1,
    "beauty":1,
    "disgustedly":1,
    "caught":1,
    "prances":1,
    "cuddles":1,
    "mixture":1,
    "amusement":1,
    "relief":1,
    "westebonia":1,
    "wraps":1,
    "worried":1,
    "tucks":1,
    "finish":1,
    "ovation":1,
    "allows":1,
    "unlock":1,
    "whered":1,
    "practically":1,
    "eboniawest":1,
    "bosoms":1,
    "delight":1,
    "minute":1,
    "serves":1,
    "relieves":1,
    "charred":1,
    "rush":1,
    "4th":1,
    "july":1,
    "match":1,
    "undergarments":1,
    "retrieve":1,
    "depresses":1,
    "eight":1,
    "mmmhmm":1,
    "incendiary":1,
    "unlocks":1,
    "yearning":1,
    "charge":1,
    "amazed":1,
    "torpor":1,
    "incinerated":1,
    "exchange":1,
    "emphysemic":1,
    "engineer":1,
    "needed":1,
    "laying":1,
    "tap":1,
    "knocking":1,
    "carries":1,
    "monsieur":1,
    "diabolical":1,
    "theyve":1,
    "silly":1,
    "flyin":1,
    "yours":1,
    "acting":1,
    "build":1,
    "bernoullis":1,
    "principle":1,
    "flowing":1,
    "birds":1,
    "depicts":1,
    "cutting":1,
    "arrows":1,
    "airflow":1,
    "remedies":1,
    "sheepishly":1,
    "makin":1,
    "attach":1,
    "everpresent":1,
    "cigarette":1,
    "readies":1,
    "cartridges":1,
    "flash":1,
    "spaceship":1,
    "coupla":1,
    "bon":1,
    "voyage":1,
    "presents":1,
    "smoke":1,
    "handling":1,
    "apologetically":1,
    "stuffs":1,
    "flown":1,
    "blast":1,
    "airborne":1,
    "uncharacteristic":1,
    "accelerator":1,
    "count":1,
    "swoops":1,
    "glad":1,
    "yeeehaaa":1,
    "bank":1,
    "decimate":1,
    "darkens":1,
    "tray":1,
    "blown":1,
    "smithereens":1,
    "ruins":1,
    "music":1,
    "offers":1,
    "commence":1,
    "firing":1,
    "stomping":1,
    "smashing":1,
    "elevation":1,
    "enhancer":1,
    "chaos":1,
    "depends":1,
    "calibrated":1,
    "descent":1,
    "denver":1,
    "wichita":1,
    "whooosh":1,
    "chuckles":1,
    "dauntless":1,
    "pairs":1,
    "pluck":1,
    "thinks":1,
    "barks":1,
    "diplomacy":1,
    "bird":1,
    "many":1,
    "flaps":1,
    "apologize":1,
    "saving":1,
    "amends":1,
    "angel":1,
    "effort":1,
    "ingenuity":1,
    "oath":1,
    "forego":1,
    "executions":1,
    "fertilize":1,
    "landscape":1,
    "suffice":1,
    "crashing":1,
    "sics":1,
    "proceeds":1,
    "woodshed":1,
    "board":1,
    "mess":1,
    "collars":1,
    "badass":1,
    "crisscrossing":1,
    "blinding":1,
    "unimpressed":1,
    "retorts":1,
    "lame":1,
    "narrowly":1,
    "thrust":1,
    "attempts":1,
    "collides":1,
    "carrot":1,
    "slice":1,
    "dice":1,
    "misses":1,
    "hitting":1,
    "sucking":1,
    "worse":1,
    "showed":1,
    "kicked":1,
    "flat":1,
    "hammers":1,
    "moderate":1,
    "amount":1,
    "damage":1,
    "appears":1,
    "thrusts":1,
    "sidekick":1,
    "catches":1,
    "connects":1,
    "crouches":1,
    "simultaneous":1,
    "punches":1,
    "connecting":1,
    "jewels":1,
    "follows":1,
    "cross":1,
    "hook":1,
    "jokers":1,
    "pissed":1,
    "backward":1,
    "scales":1,
    "grip":1,
    "arc":1,
    "gaining":1,
    "momentum":1,
    "slamming":1,
    "wrap":1,
    "knives":1,
    "heaves":1,
    "rightcross":1,
    "wobbles":1,
    "replace":1,
    "chinaman":1,
    "whack":1,
    "clean":1,
    "melon":1,
    "casts":1,
    "abyss":1,
    "extending":1,
    "downward":1,
    "encircling":1,
    "soaks":1,
    "threw":1,
    "suckerpunchspinning":1,
    "backfist":1,
    "fazed":1,
    "gut":1,
    "effortlessly":1,
    "lapels":1,
    "flings":1,
    "tumbles":1,
    "swinging":1,
    "pingggg":1,
    "absorbing":1,
    "twitch":1,
    "furries":1,
    "pinnnnnngggg":1,
    "backed":1,
    "thousand":1,
    "rocky":1,
    "urrrrrrrrrrggggghhh":1,
    "sidesteps":1,
    "202a":1,
    "poker":1,
    "presses":1,
    "engaging":1,
    "underneath":1,
    "raising":1,
    "height":1,
    "beats":1,
    "slackjawed":1,
    "particularly":1,
    "perished":1,
    "roundhouse":1,
    "spin":1,
    "nerve":1,
    "mother":1,
    "cleated":1,
    "hundreds":1,
    "pounds":1,
    "per":1,
    "inch":1,
    "mississippi":1,
    "mud":1,
    "obey":1,
    "chucking":1,
    "expect":1,
    "pea":1,
    "shooter":1,
    "unafraid":1,
    "polar":1,
    "opposites":1,
    "moral":1,
    "dilemma":1,
    "stuck":1,
    "vigours":1,
    "uncomplicated":1,
    "ideas":1,
    "unlike":1,
    "lacks":1,
    "passion":1,
    "hed":1,
    "act":1,
    "actin":1,
    "startles":1,
    "laughs":1,
    "punctured":1,
    "tube":1,
    "spraying":1,
    "rendering":1,
    "powerless":1,
    "regain":1,
    "circulation":1,
    "chivalrys":1,
    "joining":1,
    "frantically":1,
    "trackin":1,
    "responsible":1,
    "massacre":1,
    "shrivel":1,
    "sinks":1,
    "helplessly":1,
    "wicked":1,
    "witch":1,
    "mercy":1,
    "poor":1,
    "defenseless":1,
    "cripple":1,
    "otherwise":1,
    "sunny":1,
    "poorolmecrippletalk":1,
    "buck":1,
    "hardpumpin":1,
    "collapses":1,
    "boil":1,
    "axle":1,
    "grease":1,
    "leveled":1,
    "ibeam":1,
    "puncture":1,
    "pipe":1,
    "spews":1,
    "monkeys":1,
    "uncle":1,
    "arrive":1,
    "stumped":1,
    "cottonpickin":1,
    "heights":1,
    "spooks":1,
    "soak":1,
    "faced":1,
    "overwhelming":1,
    "raw":1,
    "seething":1,
    "hatred":1,
    "easily":1,
    "rocks":1,
    "immeasurable":1,
    "bliss":1,
    "vanish":1,
    "sneaking":1,
    "suspicion":1,
    "yellow":1,
    "weeeeeeeeeest":1,
    "scene":1,
    "ankles":1,
    "enjoying":1,
    "vindictive":1,
    "strongly":1,
    "signed":1,
    "law":1,
    "agency":1,
    "whose":1,
    "protect":1,
    "lunatics":1,
    "service":1,
    "2":1,
    "plenty":1,
    "dismay":1,
    "extraordinarily":1,
    "fetching":1,
    "print":1,
    "parasol":1,
    "vision":1,
    "wanted":1,
    "whyre":1,
    "introduce":1,
    "either":1,
    "crestfallen":1,
    "suitor":1,
    "attributes":1,
    "sophisticated":1,
    "wonderful":1,
    "uhoh":1,
    "husband":1,
    "goateed":1,
    "latino":1,
    "shaved":1,
    "married":1,
    "honestly":1,
    "neither":1,
    "nor":1,
    "least":1,
    "intruding":1,
    "fg":1,
    "clomps":1,
    "sunset":1,
    "fade":1,
    "warn":2,
    "trees":2,
    "desperate":2,
    "avoid":2,
    "serrated":2,
    "flies":2,
    "broken":2,
    "collect":2,
    "silver":2,
    "approaching":2,
    "eyecrossed":2,
    "doras":2,
    "expression":2,
    "level":2,
    "grabbed":2,
    "solved":2,
    "ram":2,
    "wanna":2,
    "loss":2,
    "tower":2,
    "crashes":2,
    "wish":2,
    "cover":2,
    "holding":2,
    "bout":2,
    "upstairs":2,
    "intrigued":2,
    "stairs":2,
    "odd":2,
    "voice":2,
    "whacks":2,
    "jaw":2,
    "calmly":2,
    "darlin":2,
    "evidence":2,
    "block":2,
    "system":2,
    "team":2,
    "sails":2,
    "ditty":2,
    "talents":2,
    "lay":2,
    "loins":2,
    "hauls":2,
    "himher":2,
    "player":2,
    "slap":2,
    "singer":2,
    "watches":2,
    "drink":2,
    "climbs":2,
    "reins":2,
    "beneath":2,
    "falls":2,
    "tried":2,
    "toe":2,
    "gordondora":2,
    "yanks":2,
    "approach":2,
    "perfect":2,
    "building":2,
    "red":2,
    "applause":2,
    "outside":2,
    "hardly":2,
    "notice":2,
    "sleepy":2,
    "dog":2,
    "obviously":2,
    "clue":2,
    "perfectly":2,
    "fine":2,
    "removes":2,
    "gramophone":2,
    "cmon":2,
    "jerks":2,
    "henchmen":2,
    "pain":2,
    "rubs":2,
    "snap":2,
    "wrists":2,
    "wig":2,
    "blinks":2,
    "withdraws":2,
    "racing":2,
    "federal":2,
    "agents":2,
    "informs":2,
    "send":2,
    "pin":2,
    "harness":2,
    "office":2,
    "gimme":2,
    "reholsters":2,
    "continues":2,
    "bar":2,
    "genius":2,
    "intellect":2,
    "mission":2,
    "except":2,
    "impulsive":2,
    "soberly":2,
    "places":2,
    "widen":2,
    "harvard":2,
    "perilous":2,
    "times":2,
    "house":2,
    "desk":2,
    "bullet":2,
    "together":2,
    "ten":2,
    "year":2,
    "letter":2,
    "creating":2,
    "pale":2,
    "government":2,
    "whom":2,
    "intelligence":2,
    "longer":2,
    "utah":2,
    "promontory":2,
    "wants":2,
    "divided":2,
    "differences":2,
    "salute":2,
    "stomps":2,
    "box":2,
    "dust":2,
    "although":2,
    "bike":2,
    "goggles":2,
    "ready":2,
    "shock":2,
    "internal":2,
    "thanks":2,
    "sleeves":2,
    "shows":2,
    "putting":2,
    "touches":2,
    "invention":2,
    "creation":2,
    "impermeable":2,
    "fist":2,
    "allowing":2,
    "physical":2,
    "violence":2,
    "brought":2,
    "kind":2,
    "bends":2,
    "triggers":2,
    "swing":2,
    "sends":2,
    "love":2,
    "comfortable":2,
    "shackles":2,
    "doin":2,
    "recites":2,
    "things":2,
    "harm":2,
    "dogs":2,
    "pot":2,
    "troubled":2,
    "decide":2,
    "circular":2,
    "metallic":2,
    "magnetic":2,
    "disbelief":2,
    "lantern":2,
    "positioned":2,
    "according":2,
    "theory":2,
    "burned":2,
    "mortons":2,
    "appear":2,
    "upside":2,
    "read":2,
    "though":2,
    "drums":2,
    "fingers":2,
    "damned":2,
    "insist":2,
    "taps":2,
    "sequined":2,
    "win":2,
    "disguise":2,
    "forced":2,
    "duty":2,
    "beloved":2,
    "fatcans":2,
    "stiff":2,
    "happy":2,
    "cow":2,
    "squeeze":2,
    "breast":2,
    "pad":2,
    "paper":2,
    "connected":2,
    "springloaded":2,
    "drawing":2,
    "pistol":2,
    "invitation":2,
    "lawn":2,
    "guard":2,
    "empty":2,
    "palm":2,
    "clang":2,
    "saying":2,
    "bearded":2,
    "goin":2,
    "position":2,
    "standing":2,
    "stupid":2,
    "bracelet":2,
    "bedroom":2,
    "ramp":2,
    "leads":2,
    "bed":2,
    "steel":2,
    "hanging":2,
    "attached":2,
    "coming":2,
    "ravishing":2,
    "dressed":2,
    "lee":2,
    "funny":2,
    "jealous":2,
    "foyer":2,
    "vintage":2,
    "explodes":2,
    "gasps":2,
    "appearance":2,
    "ghost":2,
    "surround":2,
    "lincoln":2,
    "platform":2,
    "surveys":2,
    "dignitaries":2,
    "comfort":2,
    "manically":2,
    "casa":2,
    "signals":2,
    "direction":2,
    "hiding":2,
    "danger":2,
    "join":2,
    "keeps":2,
    "slave":2,
    "century":2,
    "promise":2,
    "greatest":2,
    "military":2,
    "naughty":2,
    "nod":2,
    "au":2,
    "handsome":2,
    "likes":2,
    "um":2,
    "undo":2,
    "bottom":2,
    "missin":2,
    "shoes":2,
    "republic":2,
    "grave":2,
    "mountain":2,
    "lesson":2,
    "polite":2,
    "grab":2,
    "redneck":2,
    "learned":2,
    "fork":2,
    "hired":2,
    "complaining":2,
    "sole":2,
    "shoe":2,
    "handle":2,
    "assignment":2,
    "lookin":2,
    "cleaned":2,
    "cage":2,
    "lifts":2,
    "series":2,
    "communicate":2,
    "names":2,
    "took":2,
    "deal":2,
    "morning":2,
    "cotton":2,
    "marry":2,
    "finds":2,
    "rescue":2,
    "lurches":2,
    "trick":2,
    "alarm":2,
    "mad":2,
    "opportunity":2,
    "squarely":2,
    "stretch":2,
    "whirls":2,
    "cuts":2,
    "shots":2,
    "diversion":2,
    "gave":2,
    "honest":2,
    "handful":2,
    "ribs":2,
    "journey":2,
    "passes":2,
    "scientific":2,
    "gunpowder":2,
    "others":2,
    "loyalty":2,
    "appomattox":2,
    "note":2,
    "needs":2,
    "change":2,
    "gear":2,
    "ratio":2,
    "sight":2,
    "slaughter":2,
    "loading":2,
    "understand":2,
    "imagine":2,
    "arm":2,
    "armrests":2,
    "aftereffects":2,
    "indeed":2,
    "cocks":2,
    "invented":2,
    "overboard":2,
    "ol":2,
    "1000":2,
    "kilograms":2,
    "accept":2,
    "laid":2,
    "survivors":2,
    "manages":2,
    "youd":2,
    "live":2,
    "lived":2,
    "fades":2,
    "oootah":2,
    "couldnt":2,
    "happens":2,
    "saddle":2,
    "luck":2,
    "inspire":2,
    "buttocks":2,
    "changes":2,
    "heres":2,
    "britain":2,
    "cook":2,
    "purchase":2,
    "escobars":2,
    "halfnaked":2,
    "puttin":2,
    "family":2,
    "action":2,
    "kinda":2,
    "puffs":2,
    "allow":2,
    "design":2,
    "impervious":2,
    "making":2,
    "extremely":2,
    "innocent":2,
    "depress":2,
    "within":2,
    "borrow":2,
    "somethin":2,
    "explosives":2,
    "knees":2,
    "bedside":2,
    "heater":2,
    "such":2,
    "seven":2,
    "boots":2,
    "explain":2,
    "secret":2,
    "taught":2,
    "tracks":2,
    "sire":2,
    "sleepinggas":2,
    "stateroom":2,
    "locks":2,
    "wire":2,
    "device":2,
    "discs":2,
    "lower":2,
    "indefatigably":2,
    "steam":2,
    "seeing":2,
    "guards":2,
    "perimeter":2,
    "ungrateful":2,
    "stayed":2,
    "missed":2,
    "exhausted":2,
    "signal":2,
    "loud":2,
    "thuk":2,
    "moving":2,
    "nervous":2,
    "fun":2,
    "certain":2,
    "decided":2,
    "calm":2,
    "mustve":2,
    "instantly":2,
    "apologies":2,
    "partners":2,
    "worry":2,
    "son":2,
    "plate":2,
    "discuss":2,
    "stream":2,
    "heavens":2,
    "watching":2,
    "fancy":2,
    "education":2,
    "formal":2,
    "ring":2,
    "fords":2,
    "laugh":2,
    "slowly":2,
    "indians":2,
    "effect":2,
    "idea":2,
    "curiosity":2,
    "handy":2,
    "taking":2,
    "heroes":2,
    "da":2,
    "vinci":2,
    "called":2,
    "present":2,
    "spike":2,
    "proposition":2,
    "immediate":2,
    "gordongrant":2,
    "brass":2,
    "wrongs":2,
    "row":2,
    "manacled":2,
    "manhattan":2,
    "able":2,
    "fountain":2,
    "mexico":2,
    "king":2,
    "piece":2,
    "brave":2,
    "stage":2,
    "feather":2,
    "boa":2,
    "frilly":2,
    "ringlets":2,
    "theyll":2,
    "waiting":2,
    "tassels":2,
    "goon":2,
    "die":2,
    "wings":2,
    "pressure":2,
    "indicating":2,
    "flight":2,
    "bombs":2,
    "barely":2,
    "lemme":2,
    "set":2,
    "controls":2,
    "nose":2,
    "swear":2,
    "whoopin":2,
    "blade":2,
    "escapes":2,
    "railing":2,
    "sparks":2,
    "ducks":2,
    "solid":2,
    "hurt":2,
    "heels":2,
    "beast":2,
    "hydraulic":2,
    "fluid":2,
    "pulling":2,
    "doctor":2,
    "conversation":2,
    "decision":2,
    "joystick":2,
    "belly":2,
    "1":2,
    "hugs":2,
    "madman":3,
    "running":3,
    "kiss":3,
    "peeks":3,
    "knothole":3,
    "boys":3,
    "workin":3,
    "whispers":3,
    "thinking":3,
    "clothes":3,
    "responds":3,
    "hat":3,
    "years":3,
    "front":3,
    "interested":3,
    "becomes":3,
    "fair":3,
    "nitro":3,
    "glass":3,
    "seat":3,
    "leaps":3,
    "lead":3,
    "reads":3,
    "fatcan":3,
    "candys":3,
    "window":3,
    "singing":3,
    "bloodbath":3,
    "mind":3,
    "seem":3,
    "deep":3,
    "easy":3,
    "doggy":3,
    "everything":3,
    "sack":3,
    "scientist":3,
    "watch":3,
    "maam":3,
    "looked":3,
    "dark":3,
    "gold":3,
    "probably":3,
    "barrel":3,
    "drives":3,
    "sick":3,
    "cuffs":3,
    "push":3,
    "welcome":3,
    "picking":3,
    "presidents":3,
    "lightning":3,
    "shotgun":3,
    "hidden":3,
    "barrels":3,
    "surprised":3,
    "crotch":3,
    "swivels":3,
    "cigar":3,
    "trigger":3,
    "answer":3,
    "went":3,
    "somebody":3,
    "simply":3,
    "white":3,
    "clever":3,
    "smirks":3,
    "eye":3,
    "calls":3,
    "try":3,
    "ask":3,
    "fact":3,
    "case":3,
    "seek":3,
    "history":3,
    "side":3,
    "order":3,
    "south":3,
    "orleans":3,
    "leaving":3,
    "map":3,
    "railroad":3,
    "lines":3,
    "truly":3,
    "cloud":3,
    "reason":3,
    "sighs":3,
    "avant":3,
    "kicks":3,
    "screams":3,
    "boobies":3,
    "needlepoint":3,
    "rolling":3,
    "vest":3,
    "tested":3,
    "yet":3,
    "primitive":3,
    "amazement":3,
    "waist":3,
    "flips":3,
    "immediately":3,
    "suggestions":3,
    "disappears":3,
    "facing":3,
    "knock":3,
    "steaming":3,
    "discovered":3,
    "staring":3,
    "dying":3,
    "view":3,
    "humor":3,
    "surprise":3,
    "servant":3,
    "play":3,
    "god":3,
    "buckle":3,
    "derringer":3,
    "pops":3,
    "impressed":3,
    "agent":3,
    "listen":3,
    "save":3,
    "shit":3,
    "sleeve":3,
    "pen":3,
    "shoulder":3,
    "dungeon":3,
    "instead":3,
    "alone":3,
    "friend":3,
    "arliss":3,
    "anybody":3,
    "familiar":3,
    "hair":3,
    "mine":3,
    "whole":3,
    "curious":3,
    "song":3,
    "revealing":3,
    "sense":3,
    "weve":3,
    "game":3,
    "smiles":3,
    "difficult":3,
    "lovely":3,
    "women":3,
    "french":3,
    "sort":3,
    "found":3,
    "enjoy":3,
    "hang":3,
    "reveal":3,
    "trouble":3,
    "special":3,
    "heavy":3,
    "food":3,
    "world":3,
    "young":3,
    "camera":3,
    "happen":3,
    "came":3,
    "almost":3,
    "weapon":3,
    "dignitary":3,
    "begins":3,
    "cause":3,
    "america":3,
    "animal":3,
    "crazy":3,
    "girls":3,
    "turn":3,
    "ahead":3,
    "home":3,
    "coincidence":3,
    "possibly":3,
    "without":3,
    "talking":3,
    "louisiana":3,
    "queen":3,
    "middle":3,
    "nowhere":3,
    "wait":3,
    "completely":3,
    "nods":3,
    "bomb":3,
    "feels":3,
    "speaking":3,
    "worlds":3,
    "stay":3,
    "meanwhile":3,
    "worked":3,
    "square":3,
    "boom":3,
    "balls":3,
    "continue":3,
    "become":3,
    "steely":3,
    "auxiliary":3,
    "happened":3,
    "cornfield":3,
    "towards":3,
    "story":3,
    "shake":3,
    "exactly":3,
    "besides":3,
    "matters":3,
    "gals":3,
    "chin":3,
    "below":3,
    "wing":3,
    "lift":3,
    "nitrocycle":3,
    "dangling":3,
    "lever":3,
    "groin":3,
    "short":3,
    "huge":3,
    "shot":3,
    "blow":3,
    "disc":4,
    "field":4,
    "death":4,
    "james":4,
    "free":4,
    "hears":4,
    "mister":4,
    "working":4,
    "reb":4,
    "wont":4,
    "possible":4,
    "ah":4,
    "water":4,
    "problem":4,
    "own":4,
    "okay":4,
    "uses":4,
    "army":4,
    "whap":4,
    "rest":4,
    "quite":4,
    "tries":4,
    "above":4,
    "screaming":4,
    "street":4,
    "between":4,
    "whoa":4,
    "pov":4,
    "steps":4,
    "drags":4,
    "speak":4,
    "sit":4,
    "stares":4,
    "hudson":4,
    "reaches":4,
    "drops":4,
    "draws":4,
    "pokes":4,
    "once":4,
    "further":4,
    "later":4,
    "points":4,
    "ceiling":4,
    "blam":4,
    "wrong":4,
    "point":4,
    "bladder":4,
    "fake":4,
    "every":4,
    "countrys":4,
    "figure":4,
    "week":4,
    "weapons":4,
    "stand":4,
    "today":4,
    "engine":4,
    "six":4,
    "call":4,
    "clear":4,
    "pair":4,
    "forward":4,
    "forget":4,
    "matter":4,
    "car":4,
    "art":4,
    "wall":4,
    "leather":4,
    "spinning":4,
    "shakes":4,
    "attack":4,
    "wanderer":4,
    "professor":4,
    "ago":4,
    "image":4,
    "realizes":4,
    "costume":4,
    "ball":4,
    "rather":4,
    "wear":4,
    "knew":4,
    "walks":4,
    "shut":4,
    "chest":4,
    "line":4,
    "shoots":4,
    "small":4,
    "keep":4,
    "beautiful":4,
    "wearing":4,
    "entertainer":4,
    "means":4,
    "most":4,
    "alive":4,
    "anyway":4,
    "follow":4,
    "dance":4,
    "foreign":4,
    "end":4,
    "breath":4,
    "late":4,
    "lock":4,
    "used":4,
    "sees":4,
    "pushes":4,
    "far":4,
    "finger":4,
    "deck":4,
    "move":4,
    "four":4,
    "heard":4,
    "arent":4,
    "town":4,
    "machine":4,
    "texas":4,
    "wasnt":4,
    "wind":4,
    "gears":4,
    "gestures":4,
    "france":4,
    "spain":4,
    "billiard":4,
    "ritas":4,
    "better":4,
    "stiletto":4,
    "fence":4,
    "master":4,
    "actor":4,
    "theater":4,
    "boy":4,
    "arte":4,
    "rifle":4,
    "hangtown":4,
    "heads":4,
    "keys":4,
    "goons":4,
    "blades":4,
    "attacks":4,
    "chain":4,
    "wouldnt":5,
    "start":5,
    "ear":5,
    "saloon":5,
    "mans":5,
    "tank":5,
    "picks":5,
    "five":5,
    "lost":5,
    "remember":5,
    "lady":5,
    "thank":5,
    "catch":5,
    "excuse":5,
    "jumps":5,
    "past":5,
    "being":5,
    "pretty":5,
    "ya":5,
    "em":5,
    "horses":5,
    "wheels":5,
    "light":5,
    "soiled":5,
    "dove":5,
    "sits":5,
    "whos":5,
    "moment":5,
    "having":5,
    "sticks":5,
    "leave":5,
    "smile":5,
    "second":5,
    "marshal":5,
    "toward":5,
    "carriage":5,
    "situation":5,
    "detectives":5,
    "fast":5,
    "best":5,
    "someone":5,
    "walk":5,
    "killed":5,
    "realize":5,
    "aside":5,
    "number":5,
    "done":5,
    "yeah":5,
    "must":5,
    "always":5,
    "gone":5,
    "chair":5,
    "knows":5,
    "hit":5,
    "open":5,
    "body":5,
    "havent":5,
    "plan":5,
    "afraid":5,
    "hey":5,
    "seen":5,
    "hope":5,
    "scream":5,
    "rope":5,
    "looking":5,
    "missing":5,
    "ass":5,
    "partner":5,
    "canyon":5,
    "talk":5,
    "left":5,
    "sleeping":5,
    "snaps":5,
    "fight":5,
    "soon":5,
    "tool":5,
    "kit":5,
    "mechanical":5,
    "wasp":5,
    "flying":5,
    "fly":5,
    "wrench":5,
    "morton":6,
    "straight":6,
    "night":6,
    "leans":6,
    "captain":6,
    "should":6,
    "moves":6,
    "hard":6,
    "yall":6,
    "show":6,
    "place":6,
    "sure":6,
    "use":6,
    "throws":6,
    "gotta":6,
    "ground":6,
    "arms":6,
    "quickly":6,
    "said":6,
    "sign":6,
    "same":6,
    "belt":6,
    "escobar":6,
    "kidnapped":6,
    "along":6,
    "dear":6,
    "war":6,
    "jacket":6,
    "against":6,
    "stands":6,
    "cowboy":6,
    "lot":6,
    "grants":6,
    "guns":6,
    "part":6,
    "button":6,
    "mouth":6,
    "opens":6,
    "pocket":6,
    "does":6,
    "party":6,
    "three":6,
    "touch":6,
    "nice":6,
    "step":6,
    "half":6,
    "drop":6,
    "bit":6,
    "swings":6,
    "guess":6,
    "washington":6,
    "father":6,
    "liberty":6,
    "sound":6,
    "give":6,
    "desert":6,
    "beat":6,
    "guys":6,
    "boot":6,
    "stuff":6,
    "cliff":6,
    "old":7,
    "stops":7,
    "frame":7,
    "bad":7,
    "mcgraths":7,
    "course":7,
    "sorry":7,
    "might":7,
    "made":7,
    "youll":7,
    "meet":7,
    "shall":7,
    "floor":7,
    "getting":7,
    "puts":7,
    "onto":7,
    "gives":7,
    "youve":7,
    "ones":7,
    "under":7,
    "black":7,
    "pop":7,
    "believe":7,
    "speed":7,
    "air":7,
    "dead":7,
    "real":7,
    "table":7,
    "yourself":7,
    "perhaps":7,
    "please":7,
    "friends":7,
    "people":7,
    "doing":7,
    "uh":7,
    "feet":7,
    "kick":7,
    "cannon":7,
    "because":7,
    "ebonia":7,
    "full":8,
    "myself":8,
    "feel":8,
    "tonight":8,
    "need":8,
    "hear":8,
    "woman":8,
    "day":8,
    "pool":8,
    "maybe":8,
    "yes":8,
    "name":8,
    "help":8,
    "top":8,
    "theyre":8,
    "may":8,
    "damn":8,
    "states":8,
    "these":8,
    "actually":8,
    "makes":8,
    "shoot":8,
    "scientists":8,
    "last":8,
    "men":8,
    "leg":8,
    "collar":8,
    "ever":8,
    "breasts":8,
    "east":8,
    "wheelchair":8,
    "lands":8,
    "tarantula":8,
    "run":9,
    "hole":9,
    "id":9,
    "mean":9,
    "nothing":9,
    "neck":9,
    "seems":9,
    "work":9,
    "across":9,
    "door":9,
    "dr":9,
    "didnt":9,
    "lippenreider":9,
    "than":9,
    "dress":9,
    "united":9,
    "trying":9,
    "enough":9,
    "put":9,
    "surrender":9,
    "country":9,
    "ride":9,
    "shovel":9,
    "ping":9,
    "spider":10,
    "goes":10,
    "life":10,
    "finally":10,
    "those":10,
    "horse":10,
    "inside":10,
    "make":10,
    "let":10,
    "foot":10,
    "after":10,
    "close":10,
    "each":10,
    "legs":10,
    "wagon":11,
    "long":11,
    "thought":11,
    "much":11,
    "more":11,
    "any":11,
    "hell":11,
    "am":11,
    "gets":11,
    "miss":11,
    "rolls":11,
    "behind":11,
    "gentlemen":11,
    "room":11,
    "artemus":11,
    "very":11,
    "stop":11,
    "holds":11,
    "even":11,
    "only":11,
    "crowd":11,
    "thing":12,
    "himself":12,
    "really":12,
    "fire":12,
    "next":12,
    "lets":12,
    "come":12,
    "great":12,
    "whats":12,
    "knife":12,
    "through":13,
    "while":13,
    "girl":13,
    "cut":13,
    "comes":13,
    "shes":13,
    "doesnt":13,
    "which":13,
    "oh":13,
    "first":13,
    "say":13,
    "takes":13,
    "isnt":13,
    "kill":13,
    "another":13,
    "theres":14,
    "big":14,
    "cant":14,
    "want":14,
    "train":14,
    "lovelesss":14,
    "ha":14,
    "guy":14,
    "never":15,
    "did":15,
    "mr":15,
    "find":15,
    "amazonia":15,
    "their":15,
    "general":16,
    "again":16,
    "still":16,
    "pulls":16,
    "too":16,
    "hands":16,
    "or":16,
    "had":16,
    "ive":16,
    "where":16,
    "face":16,
    "coleman":16,
    "why":17,
    "munitia":17,
    "good":18,
    "tell":18,
    "both":18,
    "sir":18,
    "before":18,
    "think":18,
    "jim":18,
    "metal":18,
    "new":19,
    "gonna":19,
    "gun":19,
    "other":19,
    "grabs":19,
    "suddenly":19,
    "two":19,
    "will":19,
    "look":20,
    "around":21,
    "could":21,
    "has":21,
    "some":21,
    "ill":21,
    "grant":21,
    "been":21,
    "away":22,
    "turns":22,
    "starts":22,
    "us":22,
    "angle":23,
    "eyes":23,
    "something":23,
    "take":23,
    "hand":24,
    "gordons":24,
    "man":25,
    "wests":25,
    "going":25,
    "hes":26,
    "our":26,
    "thats":27,
    "by":27,
    "go":27,
    "were":28,
    "who":28,
    "time":28,
    "youre":28,
    "little":28,
    "got":29,
    "here":29,
    "way":30,
    "there":31,
    "would":32,
    "can":32,
    "president":33,
    "all":33,
    "looks":33,
    "its":33,
    "no":34,
    "see":34,
    "how":35,
    "over":35,
    "if":36,
    "then":37,
    "off":37,
    "an":38,
    "dont":39,
    "right":41,
    "well":41,
    "head":41,
    "get":41,
    "into":42,
    "mcgrath":42,
    "about":42,
    "do":42,
    "rita":42,
    "when":43,
    "know":43,
    "she":45,
    "they":45,
    "we":45,
    "was":46,
    "them":47,
    "back":47,
    "so":47,
    "down":48,
    "are":49,
    "like":50,
    "her":50,
    "just":53,
    "what":54,
    "from":54,
    "be":55,
    "now":59,
    "your":59,
    "not":60,
    "one":60,
    "have":65,
    "im":67,
    "loveless":68,
    "but":72,
    "me":78,
    "my":79,
    "up":82,
    "him":84,
    "at":88,
    "this":89,
    "for":94,
    "out":97,
    "with":98,
    "is":109,
    "":109,
    "he":115,
    "as":120,
    "on":126,
    "gordon":135,
    "it":151,
    "that":160,
    "in":175,
    "his":183,
    "west":191,
    "i":231,
    "you":279,
    "of":282,
    "and":295,
    "to":401,
    "a":413,
    "the":772
}