{
    "calls":1,
    "thena":1,
    "distinctive":1,
    "classic":1,
    "antiquated":1,
    "echoes":1,
    "rhomboidal":1,
    "hesitant":1,
    "average":1,
    "sized":1,
    "summit":1,
    "descending":1,
    "exaggerated":1,
    "pop":1,
    "bulb":1,
    "crackles":1,
    "sprays":1,
    "tiny":1,
    "sparks":1,
    "futility":1,
    "shrinks":1,
    "risers":1,
    "aged":1,
    "creaks":1,
    "arriving":1,
    "backlit":1,
    "obscured":1,
    "lining":1,
    "stone":1,
    "snaking":1,
    "smoke":1,
    "notices":1,
    "cautious":1,
    "loathing":1,
    "supplies":1,
    "untilhe":1,
    "yetan":1,
    "unmistakable":1,
    "glimpseof":1,
    "dashing":1,
    "30s":1,
    "collar":1,
    "continuesmoving":1,
    "puppy":1,
    "eyesafraid":1,
    "close2shot":1,
    "drawing":1,
    "circle":1,
    "chief":1,
    "herald":1,
    "agonizes":1,
    "laminated":1,
    "chained":1,
    "questions":1,
    "type":1,
    "where":1,
    "perspiration":1,
    "forehead":1,
    "recommended":1,
    "mouseprufe":1,
    "passes":1,
    "options":1,
    "electronic":1,
    "repeller":1,
    "illustrates":1,
    "moths":1,
    "fleeing":1,
    "concentric":1,
    "ultra":1,
    "powdered":1,
    "effective":1,
    "killer":1,
    "kills":1,
    "gophers":1,
    "moles":1,
    "woodchucks":1,
    "skunks":1,
    "squirrels":1,
    "zep":1,
    "commerical":1,
    "dabs":1,
    "crickets":1,
    "scorpions":1,
    "cockroaches":1,
    "pests":1,
    "rummaging":1,
    "marker":1,
    "prufe":1,
    "bright":1,
    "section":1,
    "aisle":1,
    "customers":1,
    "lab":1,
    "maze":1,
    "heights":1,
    "leaves":1,
    "cracked":1,
    "wingtip":1,
    "nineteenth":1,
    "renovation":1,
    "scaffolding":1,
    "sale":1,
    "highend":1,
    "realtor":1,
    "pausing":1,
    "corroded":1,
    "bronze":1,
    "plaque":1,
    "threestory":1,
    "hints":1,
    "proud":1,
    "centered":1,
    "mansard":1,
    "roof":1,
    "engaged":1,
    "portion":1,
    "bait":1,
    "pedal":1,
    "slips":1,
    "smack":1,
    "index":1,
    "splattered":1,
    "sucks":1,
    "throbbing":1,
    "intending":1,
    "heave":1,
    "upwards":1,
    "considerate":1,
    "waking":1,
    "tension":1,
    "imagines":1,
    "repulsed":1,
    "medieval":1,
    "device":1,
    "hypnotized":1,
    "successfully":1,
    "encircle":1,
    "shiftspanning":1,
    "quartersized":1,
    "unique":1,
    "creates":1,
    "illusion":1,
    "furrowed":1,
    "extend":1,
    "six":1,
    "snout":1,
    "enormous":1,
    "eighteen":1,
    "inch":1,
    "norwegian":1,
    "reluctantly":1,
    "autumn":1,
    "female":1,
    "iridescent":1,
    "lids":1,
    "dying":1,
    "core":1,
    "womans":1,
    "loving":1,
    "edges":1,
    "nagging":1,
    "dry":1,
    "mannered":1,
    "spreads":1,
    "reassuring":1,
    "enjoying":1,
    "lying":1,
    "remodeling":1,
    "stirring":1,
    "fades":1,
    "neither":1,
    "hatejustreluctance":1,
    "clears":1,
    "sincerity":1,
    "warmth":1,
    "removing":1,
    "fluffing":1,
    "wonderful":1,
    "wasted":1,
    "beathes":1,
    "tempting":1,
    "suffocate":1,
    "conflicted":1,
    "awful":1,
    "wouldnt":1,
    "daffy":1,
    "alzheimers":1,
    "demented":1,
    "unwittingly":1,
    "youdve":1,
    "handsome":1,
    "mark":1,
    "kyle":1,
    "midnineties":1,
    "cadillac":1,
    "brick":1,
    "declares":1,
    "reserved":1,
    "erected":1,
    "during":1,
    "world":1,
    "war":1,
    "pastiche":1,
    "renovations":1,
    "created":1,
    "sampling":1,
    "20th":1,
    "decor":1,
    "yellowing":1,
    "willardmaybe":1,
    "tensing":1,
    "suppressed":1,
    "feeling":1,
    "somehow":1,
    "responsible":1,
    "principals":1,
    "60s":1,
    "links":1,
    "suspenders":1,
    "televangelist":1,
    "hair":1,
    "believes":1,
    "pyramid":1,
    "true":1,
    "ceos":1,
    "avoided":1,
    "plague":1,
    "economy":1,
    "fold":1,
    "school":1,
    "embarrassment":1,
    "ventures":1,
    "acknowledgement":1,
    "hang":1,
    "retreat":1,
    "pointedly":1,
    "condemned":1,
    "maintain":1,
    "morsel":1,
    "dignity":1,
    "maddeningly":1,
    "busies":1,
    "intimidation":1,
    "manage":1,
    "shrug":1,
    "mocking":1,
    "employee":1,
    "processing":1,
    "arent":1,
    "ashamed":1,
    "paces":1,
    "raising":1,
    "fiery":1,
    "venom":1,
    "derived":1,
    "tardy":1,
    "sales":1,
    "inventory":1,
    "shipping":1,
    "bottleneck":1,
    "driven":1,
    "brink":1,
    "beating":1,
    "sadistic":1,
    "passiveaggressive":1,
    "transition":1,
    "assuming":1,
    "built":1,
    "disdain":1,
    "known":1,
    "since":1,
    "born":1,
    "kind":1,
    "burden":1,
    "promised":1,
    "aliveyoud":1,
    "view":1,
    "sagacity":1,
    "keeping":1,
    "advise":1,
    "facility":1,
    "suggestion":1,
    "delivered":1,
    "meanwhat":1,
    "politely":1,
    "disrespecting":1,
    "overtime":1,
    "costs":1,
    "cautiously":1,
    "shouts":1,
    "race":1,
    "ratsbecause":1,
    "cellophane":1,
    "rectangles":1,
    "industrial":1,
    "stopped":1,
    "disposable":1,
    "throw":1,
    "assembling":1,
    "4x6":1,
    "strategically":1,
    "throughout":1,
    "screws":1,
    "clench":1,
    "nonhuman":1,
    "shreds":1,
    "awakened":1,
    "disoriented":1,
    "pitched":1,
    "upright":1,
    "volume":1,
    "unto":1,
    "abyss":1,
    "blaring":1,
    "habit":1,
    "shrieking":1,
    "wincing":1,
    "source":1,
    "immobilized":1,
    "amputee":1,
    "panhandler":1,
    "mad":1,
    "cart":1,
    "older":1,
    "surrounded":1,
    "halfdozen":1,
    "expresses":1,
    "submissive":1,
    "instinctively":1,
    "plea":1,
    "mercy":1,
    "reeks":1,
    "tools":1,
    "cultivator":1,
    "gargantuan":1,
    "chasing":1,
    "flaslight":1,
    "favorite":1,
    "glove3d":1,
    "highlighted":1,
    "rectangle":1,
    "accidental":1,
    "apply":1,
    "gooey":1,
    "gloved":1,
    "squeal":1,
    "jar":1,
    "supported":1,
    "feverish":1,
    "cooking":1,
    "yourself":1,
    "amount":1,
    "reappears":1,
    "unraveled":1,
    "cute":1,
    "actually":1,
    "cups":1,
    "rinsing":1,
    "wise":1,
    "except":1,
    "called":1,
    "approving":1,
    "displaying":1,
    "fondness":1,
    "inching":1,
    "comb":1,
    "grooming":1,
    "human":1,
    "offspring":1,
    "chirps":1,
    "kernels":1,
    "paws":1,
    "unafraid":1,
    "fascinated":1,
    "series":1,
    "hastily":1,
    "saddened":1,
    "departure":1,
    "retreats":1,
    "loneliness":1,
    "swell":1,
    "whispers":1,
    "commenting":1,
    "earlier":1,
    "statement":1,
    "crawling":1,
    "elongated":1,
    "intertwine":1,
    "branches":1,
    "mans":1,
    "workers":1,
    "drool":1,
    "envy":1,
    "hustling":1,
    "jolts":1,
    "sadistically":1,
    "incapacitated":1,
    "meant":1,
    "clarifies":1,
    "newmercedesbenz":1,
    "admiring":1,
    "um":1,
    "isnt":1,
    "buyers":1,
    "class":1,
    "slob":1,
    "jaguar":1,
    "stype":1,
    "hyperventilating":1,
    "ninety":1,
    "grand":1,
    "competitors":1,
    "drowned":1,
    "shirts":1,
    "ties":1,
    "eight":1,
    "caused":1,
    "grief":1,
    "reflex":1,
    "hatefully":1,
    "reflexively":1,
    "guiltily":1,
    "defensively":1,
    "unlocking":1,
    "nosey":1,
    "scurry":1,
    "weakened":1,
    "recedes":1,
    "helpless":1,
    "burst":1,
    "thankfully":1,
    "evening":1,
    "peering":1,
    "shooting":1,
    "submitting":1,
    "beats":1,
    "shy":1,
    "put":1,
    "stayed":1,
    "accumulating":1,
    "serious":1,
    "karmic":1,
    "worm":1,
    "pig":1,
    "maybea":1,
    "nah":1,
    "jains":1,
    "india":1,
    "holy":1,
    "misinterprets":1,
    "discomfort":1,
    "husband":1,
    "contractual":1,
    "stipulation":1,
    "shifts":1,
    "uncomfortably":1,
    "awkwardly":1,
    "lighten":1,
    "subject":1,
    "doubt":1,
    "ask":1,
    "ohohcan":1,
    "imagine":1,
    "swear":1,
    "ladies":1,
    "nutballs":1,
    "nothin":1,
    "worse":1,
    "bein":1,
    "agrees":1,
    "tempted":1,
    "sigh":1,
    "gentlemen":1,
    "floats":1,
    "purse":1,
    "wed":1,
    "regretting":1,
    "stored":1,
    "automobiles":1,
    "trunk":1,
    "keychain":1,
    "cluttered":1,
    "stash":1,
    "dealt":1,
    "dozens":1,
    "multiplied":1,
    "halfadozen":1,
    "bench":1,
    "coffee":1,
    "disperses":1,
    "rope":1,
    "hi":1,
    "happily":1,
    "feeds":1,
    "play":1,
    "thinking":1,
    "playing":1,
    "clawing":1,
    "playful":1,
    "joined":1,
    "teach":1,
    "reiterating":1,
    "newsprint":1,
    "thenas":1,
    "occurs":1,
    "speaks":1,
    "menace":1,
    "learning":1,
    "squeaking":1,
    "meaty":1,
    "leaning":1,
    "tilts":1,
    "unaffected":1,
    "answering":1,
    "chunk":1,
    "beginning":1,
    "friendship":1,
    "threedozen":1,
    "broken":1,
    "bicycle":1,
    "drill":1,
    "instructor":1,
    "attacking":1,
    "implemented":1,
    "stage":1,
    "handles":1,
    "floating":1,
    "seventyfive":1,
    "benches":1,
    "emits":1,
    "either":1,
    "tossing":1,
    "hundred":1,
    "wardrobe":1,
    "passed":1,
    "sleeps":1,
    "ire":1,
    "owner":1,
    "aggressive":1,
    "setting":1,
    "angled":1,
    "studying":1,
    "hefty":1,
    "respectfully":1,
    "equals":1,
    "consulted":1,
    "counsel":1,
    "rights":1,
    "administer":1,
    "fiscal":1,
    "disciplinary":1,
    "reprimands":1,
    "excuse":1,
    "cared":1,
    "show":1,
    "unlike":1,
    "previous":1,
    "weak":1,
    "reactions":1,
    "inward":1,
    "rolodex":1,
    "flip":1,
    "settling":1,
    "263":1,
    "adams":1,
    "irvington":1,
    "ny":1,
    "10533":1,
    "yanked":1,
    "sides":1,
    "shadowy":1,
    "sinister":1,
    "halting":1,
    "crosses":1,
    "less":1,
    "retrieve":1,
    "frightening":1,
    "shutting":1,
    "commands":1,
    "luggage":1,
    "fidget":1,
    "saying":1,
    "gasps":1,
    "firmly":1,
    "kept":1,
    "downstairs":1,
    "needs":1,
    "meeting":1,
    "appreciate":1,
    "wrought":1,
    "framing":1,
    "station":1,
    "collars":1,
    "mailbox":1,
    "automatic":1,
    "glance":1,
    "si":1,
    "rudely":1,
    "seeping":1,
    "outlines":1,
    "focused":1,
    "nervous":1,
    "readies":1,
    "appearing":1,
    "cars":1,
    "reports":1,
    "nervously":1,
    "peek":1,
    "revs":1,
    "arc":1,
    "easesthen":1,
    "tightly":1,
    "assure":1,
    "lines":1,
    "asben":1,
    "youi":1,
    "reprimand":1,
    "impressive":1,
    "crashes":1,
    "singlehanded":1,
    "slight":1,
    "aggressively":1,
    "listenshiss":1,
    "chew":1,
    "rush":1,
    "suppresses":1,
    "giggle":1,
    "hells":1,
    "sounds":1,
    "tiresve":1,
    "motors":1,
    "engage":1,
    "noise":1,
    "landscaped":1,
    "gravel":1,
    "stones":1,
    "rounds":1,
    "shields":1,
    "aims":1,
    "spills":1,
    "thatwillard":1,
    "bolts":1,
    "backyard":1,
    "chainlinked":1,
    "bordering":1,
    "winded":1,
    "avoid":1,
    "attracting":1,
    "heels":1,
    "leaping":1,
    "tenacious":1,
    "tyke":1,
    "fury":1,
    "capable":1,
    "tossed":1,
    "zipped":1,
    "resumes":1,
    "dogs":1,
    "tough":1,
    "strides":1,
    "920":1,
    "guarded":1,
    "abuzz":1,
    "gossiping":1,
    "rebellious":1,
    "insurancell":1,
    "insurance":1,
    "goin":1,
    "hadnt":1,
    "flashes":1,
    "flirtatious":1,
    "confident":1,
    "mornin":1,
    "today":1,
    "offguard":1,
    "charmed":1,
    "george":1,
    "blamed":1,
    "dreadfully":1,
    "instantly":1,
    "obsequious":1,
    "breaking":1,
    "suppress":1,
    "euphoria":1,
    "agitation":1,
    "scaring":1,
    "losing":1,
    "nights":1,
    "cops":1,
    "railing":1,
    "mind":1,
    "point":1,
    "shot":1,
    "underlies":1,
    "rhetorical":1,
    "overstated":1,
    "sympathy":1,
    "example":1,
    "fighter":1,
    "kicked":1,
    "postures":1,
    "newfound":1,
    "confidence":1,
    "stroking":1,
    "poured":1,
    "ratsswarming":1,
    "writhing":1,
    "numbers":1,
    "seeps":1,
    "aluminum":1,
    "creep":1,
    "critical":1,
    "condition":1,
    "clear":1,
    "believing":1,
    "rehearsing":1,
    "speech":1,
    "butthings":1,
    "forever":1,
    "leaderafter":1,
    "whispered":1,
    "lovingly":1,
    "goodnight":1,
    "benhow":1,
    "uturn":1,
    "span":1,
    "arch":1,
    "semiconsciousness":1,
    "lifting":1,
    "herself":1,
    "misses":1,
    "rid":1,
    "coughing":1,
    "alarmed":1,
    "unintentionally":1,
    "hacks":1,
    "tablespoon":1,
    "sons":1,
    "fights":1,
    "hospital":1,
    "block":1,
    "helplessly":1,
    "screaming":1,
    "breathing":1,
    "dab":1,
    "cool":1,
    "wash":1,
    "blankets":1,
    "leader":1,
    "sadness":1,
    "laying":1,
    "fighting":1,
    "beds":1,
    "horizon":1,
    "pleading":1,
    "staying":1,
    "challenging":1,
    "nape":1,
    "carries":1,
    "causes":1,
    "claimed":1,
    "impulse":1,
    "viciously":1,
    "kicks":1,
    "150":1,
    "counters":1,
    "anticipating":1,
    "fading":1,
    "aimless":1,
    "gripped":1,
    "stiff":1,
    "scaly":1,
    "flop":1,
    "object":1,
    "shudders":1,
    "rapid":1,
    "obey":1,
    "assists":1,
    "herding":1,
    "positioned":1,
    "consider":1,
    "detest":1,
    "reminiscent":1,
    "soctrates":1,
    "strap":1,
    "coroners":1,
    "paperwork":1,
    "deputy":1,
    "raised":1,
    "emotionally":1,
    "wanders":1,
    "comforting":1,
    "bear":1,
    "complete":1,
    "bankruptcy":1,
    "modest":1,
    "valley":1,
    "plays":1,
    "programmed":1,
    "organ":1,
    "swollen":1,
    "kisses":1,
    "cry":1,
    "also":1,
    "thinks":1,
    "waddles":1,
    "startle":1,
    "guides":1,
    "knowyou":1,
    "guard":1,
    "sincerely":1,
    "touched":1,
    "bringing":1,
    "caresses":1,
    "avert":1,
    "dismissive":1,
    "lasciviously":1,
    "lunch":1,
    "spend":1,
    "dad":1,
    "acknowledge":1,
    "joseph":1,
    "age":1,
    "suit":1,
    "paying":1,
    "brief":1,
    "shrugs":1,
    "altruism":1,
    "jilted":1,
    "exchanged":1,
    "behavior":1,
    "approached":1,
    "hug":1,
    "news":1,
    "prepared":1,
    "account":1,
    "originally":1,
    "future":1,
    "intended":1,
    "relieve":1,
    "pending":1,
    "litigation":1,
    "unsettled":1,
    "refinanced":1,
    "owe":1,
    "grew":1,
    "banks":1,
    "almost":1,
    "choice":1,
    "executor":1,
    "whywhyd":1,
    "bother":1,
    "assured":1,
    "bottom":1,
    "distorted":1,
    "oblique":1,
    "conveys":1,
    "reporting":1,
    "droppings":1,
    "puddles":1,
    "urine":1,
    "eyelevel":1,
    "ransacked":1,
    "traces":1,
    "containers":1,
    "shredded":1,
    "spewed":1,
    "every":1,
    "container":1,
    "dishwashing":1,
    "liquid":1,
    "pillaging":1,
    "stream":1,
    "ravaging":1,
    "present":1,
    "sweeping":1,
    "stepping":1,
    "cemetery":1,
    "wellwillardmaybe":1,
    "butiplease":1,
    "wrong":1,
    "looked":1,
    "andi":1,
    "loved":1,
    "blanket":1,
    "speechless":1,
    "cathryni":1,
    "hangs":1,
    "wriggles":1,
    "itself":1,
    "likes":1,
    "swats":1,
    "clasps":1,
    "secure":1,
    "forced":1,
    "meows":1,
    "potty":1,
    "trained":1,
    "arches":1,
    "fluffs":1,
    "urinating":1,
    "ride":1,
    "drive":1,
    "bout":1,
    "trail":1,
    "thank":1,
    "supposedly":1,
    "ignore":1,
    "stranger":1,
    "suckering":1,
    "safety":1,
    "drawn":1,
    "cable":1,
    "armrest":1,
    "inadvertently":1,
    "higher":1,
    "monitor":1,
    "indicator":1,
    "musicradio":1,
    "channels":1,
    "armchair":1,
    "rockeasy":1,
    "acoustic":1,
    "guitar":1,
    "purrs":1,
    "accented":1,
    "bass":1,
    "oscar":1,
    "nominated":1,
    "matching":1,
    "musics":1,
    "rhythm":1,
    "cast":1,
    "throne":1,
    "evoking":1,
    "snarling":1,
    "ownill":1,
    "seeyouve":1,
    "creakslike":1,
    "sways":1,
    "safe":1,
    "haven":1,
    "scatter":1,
    "thumps":1,
    "tilting":1,
    "behindand":1,
    "topples":1,
    "crashing":1,
    "dashes":1,
    "usnow":1,
    "most":1,
    "crouches":1,
    "preparing":1,
    "demonic":1,
    "word":1,
    "manages":1,
    "dangles":1,
    "claw":1,
    "gather":1,
    "hellish":1,
    "intensity":1,
    "surprising":1,
    "speed":1,
    "disappears":1,
    "sea":1,
    "theyd":1,
    "againif":1,
    "blur":1,
    "wickedly":1,
    "amused":1,
    "success":1,
    "ripping":1,
    "macabrely":1,
    "intermingle":1,
    "eightyear":1,
    "disturbed":1,
    "6695":1,
    "personal":1,
    "affects":1,
    "wallet":1,
    "billfold":1,
    "reverence":1,
    "license":1,
    "hesitating":1,
    "swiss":1,
    "untucks":1,
    "considering":1,
    "act":1,
    "nips":1,
    "reconsiders":1,
    "scan":1,
    "bricabrac":1,
    "mementosand":1,
    "photograph":1,
    "part":1,
    "disturbs":1,
    "umbrella":1,
    "umbrellas":1,
    "examination":1,
    "subtly":1,
    "hide":1,
    "stealthily":1,
    "signalling":1,
    "warn":1,
    "forewarned":1,
    "thump":1,
    "chases":1,
    "retreating":1,
    "baseboard":1,
    "subtle":1,
    "dementia":1,
    "disappointed":1,
    "wasnt":1,
    "pennies":1,
    "nickels":1,
    "pjs":1,
    "shoebox":1,
    "stuffs":1,
    "balls":1,
    "shears":1,
    "obsessive":1,
    "hammer":1,
    "flattens":1,
    "hammering":1,
    "laid":1,
    "flattened":1,
    "covering":1,
    "coin":1,
    "passageway":1,
    "securely":1,
    "physical":1,
    "exhaustion":1,
    "tucked":1,
    "stirs":1,
    "lazily":1,
    "taunting":1,
    "deeper":1,
    "apparently":1,
    "slivers":1,
    "recognizable":1,
    "stoic":1,
    "retaliation":1,
    "forth":1,
    "securing":1,
    "untouched":1,
    "shiver":1,
    "curious":1,
    "stamp":1,
    "postmark":1,
    "blotter":1,
    "sheet":1,
    "terse":1,
    "sentences":1,
    "paycheck":1,
    "inconceivable":1,
    "incomprehensible":1,
    "buttressed":1,
    "bewilderment":1,
    "speak":1,
    "certain":1,
    "mistake":1,
    "angered":1,
    "am":1,
    "reading":1,
    "chocked":1,
    "rereads":1,
    "regret":1,
    "inform":1,
    "severance":1,
    "appreciated":1,
    "firing":1,
    "comprehend":1,
    "villainy":1,
    "outrage":1,
    "builds":1,
    "fidgets":1,
    "marches":1,
    "wishing":1,
    "restrain":1,
    "regain":1,
    "forcers":1,
    "boisterous":1,
    "regarding":1,
    "minor":1,
    "hassle":1,
    "workday":1,
    "protective":1,
    "disapproving":1,
    "jetsdolphins":1,
    "alcoas":1,
    "luxury":1,
    "boxthink":1,
    "snow":1,
    "obnoxious":1,
    "shove":1,
    "crisp":1,
    "underhand":1,
    "pitch":1,
    "hurls":1,
    "thud":1,
    "picking":1,
    "finds":1,
    "toy":1,
    "fiddles":1,
    "jetsphins":1,
    "cindy":1,
    "workin":1,
    "yknow":1,
    "combing":1,
    "unbearable":1,
    "talkin":1,
    "sos":1,
    "movin":1,
    "started":1,
    "exasperation":1,
    "contract":1,
    "clearly":1,
    "hire":1,
    "250":1,
    "400":1,
    "drag":1,
    "til":1,
    "five":1,
    "seven":1,
    "ten":1,
    "years":1,
    "nd":1,
    "pure":1,
    "hatred":1,
    "artificial":1,
    "pile":1,
    "displacing":1,
    "exposed":1,
    "tangled":1,
    "mass":1,
    "irked":1,
    "refusal":1,
    "prime":1,
    "real":1,
    "estate":1,
    "slumps":1,
    "defeat":1,
    "houseif":1,
    "stupid":1,
    "agree":1,
    "verbally":1,
    "fucking":1,
    "internally":1,
    "panicking":1,
    "paralyzed":1,
    "nasty":1,
    "assessing":1,
    "situation":1,
    "sat":1,
    "gap":1,
    "stack":1,
    "sickened":1,
    "positions":1,
    "himrevealing":1,
    "full":1,
    "wince":1,
    "stabs":1,
    "glint":1,
    "lust":1,
    "smiling":1,
    "spikes":1,
    "seriously":1,
    "injured":1,
    "hazed":1,
    "freeze":1,
    "highest":1,
    "safely":1,
    "benuntil":1,
    "piercing":1,
    "overkill":1,
    "bead":1,
    "walt":1,
    "mickey":1,
    "join":1,
    "ya":1,
    "finally":1,
    "crushes":1,
    "skull":1,
    "focus":1,
    "emotions":1,
    "applaud":1,
    "finders":1,
    "keepers":1,
    "adrenaline":1,
    "pumping":1,
    "exception":1,
    "expects":1,
    "clean":1,
    "gratefully":1,
    "gathering":1,
    "shattered":1,
    "begging":1,
    "forgiveness":1,
    "couldnt":1,
    "unforgiving":1,
    "receive":1,
    "penance":1,
    "insane":1,
    "suggests":1,
    "triggering":1,
    "stress":1,
    "whatcouldidowwhatcouldido":1,
    "guttural":1,
    "growl":1,
    "canwe":1,
    "matches":1,
    "downas":1,
    "committing":1,
    "pact":1,
    "depths":1,
    "familiar":1,
    "ups":1,
    "faucet":1,
    "washes":1,
    "amped":1,
    "unnerving":1,
    "cleans":1,
    "ashes":1,
    "points":1,
    "piling":1,
    "bulges":1,
    "strains":1,
    "suitcase":1,
    "batch":1,
    "general":1,
    "cases":1,
    "knee":1,
    "sleeves":1,
    "figures":1,
    "proceeds":1,
    "intensifying":1,
    "latch":1,
    "flings":1,
    "sip":1,
    "glenlivet":1,
    "bottle":1,
    "bored":1,
    "brow":1,
    "voyuerweb":1,
    "homepage":1,
    "loads":1,
    "surfing":1,
    "thirtysecond":1,
    "warning":1,
    "beeping":1,
    "panel":1,
    "disarming":1,
    "wave":1,
    "hot":1,
    "digital":1,
    "300":1,
    "pound":1,
    "bares":1,
    "disheveled":1,
    "winches":1,
    "encased":1,
    "echoing":1,
    "counterweight":1,
    "fastened":1,
    "casts":1,
    "twisting":1,
    "rate":1,
    "ramps":1,
    "96fps":1,
    "surreal":1,
    "nightmare":1,
    "tumbling":1,
    "waterfall":1,
    "draining":1,
    "pool":1,
    "engulfed":1,
    "powerful":1,
    "title":1,
    "22year":1,
    "react":1,
    "himagainst":1,
    "silently":1,
    "climbed":1,
    "lone":1,
    "cursor":1,
    "arrow":1,
    "titled":1,
    "knew":1,
    "double":1,
    "forms":1,
    "hidden":1,
    "cam":1,
    "adjusts":1,
    "perverse":1,
    "images":1,
    "nude":1,
    "changing":1,
    "gym":1,
    "loading":1,
    "brings":1,
    "glenlevit":1,
    "sips":1,
    "christ":1,
    "hears":1,
    "collective":1,
    "entirely":1,
    "jesuslook":1,
    "often":1,
    "outta":1,
    "ordering":1,
    "martinyou":1,
    "stole":1,
    "nowyoure":1,
    "fool":1,
    "youmade":1,
    "hating":1,
    "nowat":1,
    "youkilled":1,
    "feltwhen":1,
    "gauge":1,
    "pole":1,
    "thunks":1,
    "readjusts":1,
    "grip":1,
    "bat":1,
    "cracks":1,
    "bleeding":1,
    "dazed":1,
    "pouncing":1,
    "knifelike":1,
    "pierce":1,
    "squirts":1,
    "stumbles":1,
    "dropped":1,
    "jugular":1,
    "wild":1,
    "battling":1,
    "register":1,
    "squeezing":1,
    "pleadingly":1,
    "vengeful":1,
    "upward":1,
    "extremely":1,
    "descend":1,
    "converging":1,
    "burrows":1,
    "burrowing":1,
    "button":1,
    "whispering":1,
    "goodbye":1,
    "6":1,
    "sulfur":1,
    "inserts":1,
    "billowing":1,
    "knees":1,
    "wet":1,
    "weight":1,
    "hissing":1,
    "mix":1,
    "charging":1,
    "wildly":1,
    "clouds":1,
    "grinds":1,
    "cutting":1,
    "path":1,
    "layer":1,
    "feces":1,
    "shovel":1,
    "deposits":1,
    "flames":1,
    "dripping":1,
    "flue":1,
    "peels":1,
    "dumped":1,
    "vertically":1,
    "asleepit":1,
    "horizontal":1,
    "showered":1,
    "cleaned":1,
    "bookshelf":1,
    "enable":1,
    "sill":1,
    "sleet":1,
    "pane":1,
    "cradled":1,
    "detect":1,
    "movements":1,
    "dart":1,
    "nightstand":1,
    "stealth":1,
    "meet":1,
    "peers":1,
    "uniformed":1,
    "suited":1,
    "toned":1,
    "exchange":1,
    "footsteps":1,
    "portrait":1,
    "exact":1,
    "changed":1,
    "graying":1,
    "remained":1,
    "considersturns":1,
    "none":1,
    "details":1,
    "weird":1,
    "kinds":1,
    "rumors":1,
    "murdered":1,
    "attacked":1,
    "animals":1,
    "hinting":1,
    "storm":1,
    "eat":1,
    "lemme":1,
    "hanging":1,
    "rack":1,
    "stain":1,
    "sec":1,
    "receiving":1,
    "pokes":1,
    "insideand":1,
    "balling":1,
    "racing":1,
    "peeks":1,
    "spare":1,
    "hanger":1,
    "attic":1,
    "space":1,
    "nailed":1,
    "suspecting":1,
    "pathway":1,
    "firstlevel":1,
    "examine":1,
    "roughly":1,
    "tests":1,
    "unfastens":1,
    "panties":1,
    "skeletal":1,
    "petrified":1,
    "muscle":1,
    "displayed":1,
    "c":1,
    "fasten":1,
    "trip":1,
    "flushes":1,
    "pipe":1,
    "realizes":1,
    "fortifications":1,
    "archway":1,
    "putting":1,
    "peer":1,
    "took":1,
    "vengefully":1,
    "pulse":1,
    "passenger":1,
    "mustve":1,
    "triple":1,
    "cell":1,
    "policeman":1,
    "locks":1,
    "indication":1,
    "desktable":1,
    "mail":1,
    "glints":1,
    "fist":1,
    "switchblade":1,
    "pointed":1,
    "thenfaintbut":1,
    "definitea":1,
    "metallic":1,
    "squats":1,
    "hearth":1,
    "damper":1,
    "rod":1,
    "gust":1,
    "whistles":1,
    "immediate":1,
    "fucks":1,
    "doin":1,
    "sealing":1,
    "river":1,
    "dinning":1,
    "crash":1,
    "pounding":1,
    "attempting":1,
    "progress":1,
    "flicks":1,
    "fumbling":1,
    "note":1,
    "round":1,
    "pain":1,
    "bounces":1,
    "strobe":1,
    "effect":1,
    "catching":1,
    "glances":1,
    "amassed":1,
    "search":1,
    "toes":1,
    "ducks":1,
    "crisscross":1,
    "counter":1,
    "pan":1,
    "shaken":1,
    "andthe":1,
    "othersthe":1,
    "herewere":1,
    "went":1,
    "talking":1,
    "flare":1,
    "together":1,
    "health":1,
    "department":1,
    "exterminators":1,
    "floors":1,
    "justgo":1,
    "growls":1,
    "partially":1,
    "cabinets":1,
    "previously":1,
    "serving":1,
    "backcautious":1,
    "tipping":1,
    "noting":1,
    "reassures":1,
    "tenseseyes":1,
    "foods":1,
    "masked":1,
    "trashnear":1,
    "bagthe":1,
    "pounces":1,
    "islandthrashes":1,
    "jerks":1,
    "panic":1,
    "attempt":1,
    "plunge":1,
    "aint":1,
    "settin":1,
    "thousand":1,
    "hey":1,
    "realizing":1,
    "clinging":1,
    "hammered":1,
    "fortifying":1,
    "outhes":1,
    "furtoward":1,
    "summons":1,
    "courage":1,
    "hairless":1,
    "dividing":1,
    "smashes":1,
    "barricaded":1,
    "tablelurches":1,
    "windowand":1,
    "meets":1,
    "might":1,
    "backing":1,
    "awayafraid":1,
    "loud":1,
    "outward":1,
    "sag":1,
    "sway":1,
    "column":1,
    "screech":1,
    "marauding":1,
    "shatters":1,
    "chain":1,
    "fixture":1,
    "bite":1,
    "confining":1,
    "ripple":1,
    "swirl":1,
    "hope":1,
    "golden":1,
    "filtering":1,
    "underlined":1,
    "plants":1,
    "blocks":1,
    "lightthe":1,
    "armless":1,
    "beni":1,
    "bites":1,
    "clamp":1,
    "violent":1,
    "slip":1,
    "dangling":1,
    "tide":1,
    "apparent":1,
    "struggle":1,
    "futile":1,
    "louder":1,
    "levelwillards":1,
    "cease":1,
    "exterior":1,
    "wound":1,
    "gold":1,
    "drum":1,
    "introducing":1,
    "pearl":1,
    "slow":1,
    "waitingquiet":1,
    "elderly":2,
    "shrill":2,
    "stops":2,
    "patch":2,
    "flight":2,
    "descends":2,
    "spilling":2,
    "dread":2,
    "dim":2,
    "walls":2,
    "figure":2,
    "wires":2,
    "rummages":2,
    "shoe":2,
    "labeled":2,
    "sliding":2,
    "disappearing":2,
    "underlit":2,
    "sleeve":2,
    "shirt":2,
    "fill":2,
    "drug":2,
    "slash":2,
    "placard":2,
    "rodent":2,
    "far":2,
    "product":2,
    "traffic":2,
    "areas":2,
    "mouserat":2,
    "beads":2,
    "sickening":2,
    "spiders":2,
    "circles":2,
    "giant":2,
    "destroyer":2,
    "sodium":2,
    "nitrate":2,
    "squares":2,
    "adhesive":2,
    "frustration":2,
    "increasing":2,
    "indicates":2,
    "location":2,
    "sold":2,
    "fluorescent":2,
    "aisles":2,
    "brooklyn":2,
    "shoes":2,
    "adjusting":2,
    "proceeding":2,
    "century":2,
    "houses":2,
    "suggesting":2,
    "turned":2,
    "decrepit":2,
    "sad":2,
    "curved":2,
    "dabbed":2,
    "butter":2,
    "locking":2,
    "clutching":2,
    "knuckle":2,
    "faintly":2,
    "releasing":2,
    "reflect":2,
    "brows":2,
    "whiskers":2,
    "reflecting":2,
    "encircling":2,
    "lined":2,
    "voice":2,
    "pause":2,
    "read":2,
    "neighbors":2,
    "fault":2,
    "original":2,
    "comment":2,
    "returning":2,
    "warm":2,
    "stronger":2,
    "push":2,
    "rather":2,
    "girlfriend":2,
    "youd":2,
    "names":2,
    "sign":2,
    "building":2,
    "perfunctory":2,
    "yeah":2,
    "seems":2,
    "told":2,
    "wants":2,
    "fires":2,
    "thumb":2,
    "intense":2,
    "eyeline":2,
    "knocks":2,
    "cuff":2,
    "conference":2,
    "length":2,
    "awaiting":2,
    "keeps":2,
    "reason":2,
    "shake":2,
    "comes":2,
    "allowed":2,
    "fall":2,
    "iron":2,
    "works":2,
    "comfort":2,
    "fallen":2,
    "carry":2,
    "digs":2,
    "carpet":2,
    "catch":2,
    "burns":2,
    "temp":2,
    "goddamn":2,
    "sympathetic":2,
    "plug":2,
    "touch":2,
    "fuse":2,
    "fit":2,
    "sleep":2,
    "grind":2,
    "horrific":2,
    "shriek":2,
    "sneaks":2,
    "fear":2,
    "intensifies":2,
    "become":2,
    "wheeled":2,
    "senses":2,
    "darting":2,
    "rusted":2,
    "garden":2,
    "darts":2,
    "pajamas":2,
    "vegetable":2,
    "squirms":2,
    "girl":2,
    "water":2,
    "seem":2,
    "pretty":2,
    "moved":2,
    "creature":2,
    "produces":2,
    "does":2,
    "litter":2,
    "peanuts":2,
    "between":2,
    "sudden":2,
    "squeak":2,
    "welling":2,
    "silent":2,
    "flickering":2,
    "silver":2,
    "amg":2,
    "en":2,
    "foundry":2,
    "interior":2,
    "flick":2,
    "latches":2,
    "trapping":2,
    "humiliated":2,
    "saw":2,
    "interested":2,
    "sense":2,
    "security":2,
    "dealing":2,
    "theyll":2,
    "shell":2,
    "prisoner":2,
    "waste":2,
    "answered":2,
    "walking":2,
    "sharp":2,
    "couple":2,
    "nod":2,
    "embarrassed":2,
    "busy":2,
    "annoyed":2,
    "finish":2,
    "ruined":2,
    "forcing":2,
    "mischievous":2,
    "sadly":2,
    "eyeing":2,
    "huh":2,
    "comin":2,
    "believe":2,
    "reincarnated":2,
    "next":2,
    "men":2,
    "knowing":2,
    "soul":2,
    "talk":2,
    "fire":2,
    "broke":2,
    "alive":2,
    "change":2,
    "died":2,
    "drink":2,
    "hitting":2,
    "beautiful":2,
    "stacked":2,
    "nuzzles":2,
    "scuttle":2,
    "filled":2,
    "soybean":2,
    "piece":2,
    "ma":2,
    "rolled":2,
    "newspaper":2,
    "shin":2,
    "gnaw":2,
    "em":2,
    "third":2,
    "joins":2,
    "presence":2,
    "question":2,
    "understanding":2,
    "teams":2,
    "snapping":2,
    "being":2,
    "different":2,
    "scene":2,
    "kneels":2,
    "flood":2,
    "flares":2,
    "tonight":2,
    "scans":2,
    "calling":2,
    "kissing":2,
    "swings":2,
    "arms":2,
    "nudges":2,
    "macabre":2,
    "lap":2,
    "limp":2,
    "wraps":2,
    "tired":2,
    "irony":2,
    "knob":2,
    "barbara":2,
    "filing":2,
    "entering":2,
    "logo":2,
    "baseball":2,
    "lit":2,
    "records":2,
    "taking":2,
    "respect":2,
    "perspires":2,
    "walks":2,
    "slows":2,
    "allowing":2,
    "returned":2,
    "impatient":2,
    "breath":2,
    "blind":2,
    "neighborhood":2,
    "radio":2,
    "pace":2,
    "nears":2,
    "siren":2,
    "engine":2,
    "hides":2,
    "marching":2,
    "howd":2,
    "team":2,
    "quarter":2,
    "showing":2,
    "already":2,
    "rips":2,
    "secures":2,
    "dash":2,
    "fast":2,
    "crushed":2,
    "crunch":2,
    "struck":2,
    "strong":2,
    "patrolman":2,
    "gotta":2,
    "fence":2,
    "sweating":2,
    "quick":2,
    "further":2,
    "yapping":2,
    "barking":2,
    "leg":2,
    "crazed":2,
    "muffled":2,
    "yelps":2,
    "vacant":2,
    "clock":2,
    "anticipation":2,
    "pissed":2,
    "grin":2,
    "peed":2,
    "bonus":2,
    "definitely":2,
    "nice":2,
    "guy":2,
    "laughs":2,
    "funny":2,
    "half":2,
    "familys":2,
    "god":2,
    "course":2,
    "intensely":2,
    "sir":2,
    "ass":2,
    "flat":2,
    "crate":2,
    "soy":2,
    "glow":2,
    "breaths":2,
    "strained":2,
    "determined":2,
    "eavesdrop":2,
    "feed":2,
    "somewhere":2,
    "shock":2,
    "heartbreak":2,
    "times":2,
    "collapsed":2,
    "state":2,
    "newel":2,
    "post":2,
    "hearing":2,
    "story":2,
    "cloth":2,
    "chin":2,
    "defiant":2,
    "numb":2,
    "stares":2,
    "rustle":2,
    "awakens":2,
    "cupboards":2,
    "pack":2,
    "smart":2,
    "gurney":2,
    "clipboard":2,
    "medical":2,
    "examiner":2,
    "stretched":2,
    "herand":2,
    "miss":2,
    "crying":2,
    "brushes":2,
    "nose":2,
    "notice":2,
    "alright":2,
    "upset":2,
    "wanted":2,
    "pats":2,
    "gives":2,
    "yours":2,
    "debts":2,
    "completely":2,
    "devastated":2,
    "single":2,
    "start":2,
    "telling":2,
    "garters":2,
    "composed":2,
    "cause":2,
    "licking":2,
    "storms":2,
    "taken":2,
    "aback":2,
    "deal":2,
    "service":2,
    "bundle":2,
    "great":2,
    "affection":2,
    "voices":2,
    "intruder":2,
    "lands":2,
    "channel":2,
    "continuing":2,
    "song":2,
    "lip":2,
    "paw":2,
    "attacks":2,
    "longer":2,
    "antique":2,
    "layers":2,
    "proudly":2,
    "shoulders":2,
    "image":2,
    "dusty":2,
    "sealed":2,
    "drivers":2,
    "photo":2,
    "rubs":2,
    "wrist":2,
    "drop":2,
    "blocked":2,
    "stand":2,
    "learn":2,
    "secured":2,
    "unseen":2,
    "coinfilled":2,
    "straining":2,
    "exhausted":2,
    "satisfied":2,
    "crashed":2,
    "extends":2,
    "terminated":2,
    "startles":2,
    "jingle":2,
    "form":2,
    "martinstiles":2,
    "manufacturing":2,
    "enclosed":2,
    "contents":2,
    "whatever":2,
    "holiday":2,
    "dig":2,
    "decorations":2,
    "grows":2,
    "game":2,
    "key":2,
    "bye":2,
    "terms":2,
    "win":2,
    "dollar":2,
    "lawyer":2,
    "tinsel":2,
    "wreaths":2,
    "scream":2,
    "followed":2,
    "arrives":2,
    "mantis":2,
    "hiding":2,
    "flinches":2,
    "impact":2,
    "clutches":2,
    "doorframe":2,
    "excitement":2,
    "oblivious":2,
    "matter":2,
    "tiger":2,
    "fraid":2,
    "directed":2,
    "lose":2,
    "cargodelivery":2,
    "draws":2,
    "hesitation":2,
    "truck":2,
    "dried":2,
    "thousands":2,
    "moments":2,
    "commanding":2,
    "outer":2,
    "computer":2,
    "headlights":2,
    "panning":2,
    "nearby":2,
    "entitled":2,
    "clang":2,
    "weve":2,
    "locker":2,
    "chest":2,
    "breathes":2,
    "rolling":2,
    "nuts":2,
    "minute":2,
    "conscious":2,
    "hungry":2,
    "squealing":2,
    "bodies":2,
    "backdoor":2,
    "fireplace":2,
    "stretch":2,
    "grocery":2,
    "careful":2,
    "taptap":2,
    "peephole":2,
    "raincoat":2,
    "near":2,
    "rooms":2,
    "crawl":2,
    "severed":2,
    "nowhere":2,
    "bowl":2,
    "opener":2,
    "filling":2,
    "inner":2,
    "budge":2,
    "upended":2,
    "whip":2,
    "rise":2,
    "flashlights":2,
    "island":2,
    "came":2,
    "ones":2,
    "bellvue":2,
    "breaks":2,
    "bangs":2,
    "bay":2,
    "particles":2,
    "fills":2,
    "rising":2,
    "woman":3,
    "startling":3,
    "scuttling":3,
    "clacks":3,
    "shadow":3,
    "flips":3,
    "blows":3,
    "bare":3,
    "posture":3,
    "reflects":3,
    "cement":3,
    "enough":3,
    "residual":3,
    "twists":3,
    "closing":3,
    "glimpse":3,
    "tails":3,
    "screen":3,
    "cheap":3,
    "tie":3,
    "line":3,
    "mice":3,
    "proof":3,
    "offers":3,
    "cardboard":3,
    "glare":3,
    "blow":3,
    "sidewalk":3,
    "worn":3,
    "brownstone":3,
    "caged":3,
    "marked":3,
    "signs":3,
    "ahead":3,
    "pathetically":3,
    "dormer":3,
    "peanut":3,
    "bar":3,
    "pulling":3,
    "leave":3,
    "howling":3,
    "opalescent":3,
    "manner":3,
    "direction":3,
    "greasy":3,
    "cuts":3,
    "skin":3,
    "pink":3,
    "doing":3,
    "our":3,
    "people":3,
    "disgust":3,
    "pillow":3,
    "forward":3,
    "comfortable":3,
    "maybe":3,
    "found":3,
    "parked":3,
    "lifeless":3,
    "thats":3,
    "leads":3,
    "growing":3,
    "early":3,
    "quietly":3,
    "gestures":3,
    "chairs":3,
    "means":3,
    "flustered":3,
    "least":3,
    "guys":3,
    "everything":3,
    "placing":3,
    "false":3,
    "cranes":3,
    "aimed":3,
    "afford":3,
    "id":3,
    "buy":3,
    "backs":3,
    "understand":3,
    "framed":3,
    "stuck":3,
    "throws":3,
    "jumps":3,
    "sitting":3,
    "whips":3,
    "movement":3,
    "remain":3,
    "pans":3,
    "trapped":3,
    "pours":3,
    "softly":3,
    "walker":3,
    "ear":3,
    "soap":3,
    "pulled":3,
    "towel":3,
    "grabbing":3,
    "getting":3,
    "torn":3,
    "rears":3,
    "eating":3,
    "soft":3,
    "curled":3,
    "strokes":3,
    "successful":3,
    "fade":3,
    "route":3,
    "tight":3,
    "slam":3,
    "cage":3,
    "glares":3,
    "besides":3,
    "offer":3,
    "feel":3,
    "us":3,
    "slightly":3,
    "able":3,
    "made":3,
    "words":3,
    "reads":3,
    "lamp":3,
    "makes":3,
    "hours":3,
    "explanation":3,
    "awkward":3,
    "quit":3,
    "emotional":3,
    "thanks":3,
    "puts":3,
    "gathers":3,
    "better":3,
    "stuff":3,
    "everyone":3,
    "knows":3,
    "clack":3,
    "accordion":3,
    "happy":3,
    "approaching":3,
    "pet":3,
    "bought":3,
    "playfully":3,
    "climb":3,
    "reach":3,
    "lowers":3,
    "roll":3,
    "big":3,
    "mine":3,
    "lead":3,
    "violently":3,
    "dressed":3,
    "whose":3,
    "silhouetted":3,
    "creating":3,
    "finding":3,
    "many":3,
    "entire":3,
    "may":3,
    "release":3,
    "heads":3,
    "pushing":3,
    "file":3,
    "tug":3,
    "else":3,
    "cap":3,
    "exit":3,
    "startled":3,
    "hurriedly":3,
    "arcs":3,
    "waves":3,
    "approach":3,
    "attention":3,
    "indiscernible":3,
    "cannot":3,
    "somewhat":3,
    "holes":3,
    "pouring":3,
    "size":3,
    "squeeze":3,
    "much":3,
    "strength":3,
    "faint":3,
    "gnawed":3,
    "hiss":3,
    "sinks":3,
    "air":3,
    "pops":3,
    "slashed":3,
    "walk":3,
    "checks":3,
    "sight":3,
    "shut":3,
    "gonna":3,
    "pants":3,
    "fact":3,
    "wider":3,
    "charge":3,
    "running":3,
    "revealed":3,
    "craning":3,
    "son":3,
    "wish":3,
    "trembles":3,
    "break":3,
    "tell":3,
    "banister":3,
    "lock":3,
    "scared":3,
    "try":3,
    "tosses":3,
    "knocked":3,
    "scuttles":3,
    "everywhere":3,
    "frozen":3,
    "cupboard":3,
    "staring":3,
    "crawls":3,
    "funeral":3,
    "rests":3,
    "coffin":3,
    "parents":3,
    "living":3,
    "theres":3,
    "money":3,
    "cheek":3,
    "curtains":3,
    "hardwood":3,
    "removed":3,
    "say":3,
    "cathryns":3,
    "grasp":3,
    "scratching":3,
    "immediately":3,
    "attack":3,
    "remote":3,
    "listening":3,
    "lower":3,
    "leap":3,
    "beyond":3,
    "wait":3,
    "army":3,
    "final":3,
    "crystal":3,
    "dust":3,
    "ring":3,
    "blade":3,
    "relieved":3,
    "sheets":3,
    "strikes":3,
    "whack":3,
    "stuffed":3,
    "loose":3,
    "jams":3,
    "tips":3,
    "confused":3,
    "cheer":3,
    "ho":3,
    "respond":3,
    "force":3,
    "mouth":3,
    "falls":3,
    "killed":3,
    "cargo":3,
    "shine":3,
    "rolls":3,
    "cup":3,
    "dowel":3,
    "myself":3,
    "yanks":3,
    "onto":3,
    "slams":3,
    "adjacent":3,
    "slides":3,
    "dissolve":3,
    "crack":3,
    "reaction":3,
    "beams":3,
    "bookcase":3,
    "wood":4,
    "upper":4,
    "reaching":4,
    "wooden":4,
    "releases":4,
    "fuses":4,
    "blindly":4,
    "short":4,
    "these":4,
    "duane":4,
    "reade":4,
    "ears":4,
    "tail":4,
    "dcon":4,
    "rodents":4,
    "used":4,
    "contact":4,
    "pest":4,
    "gas":4,
    "larger":4,
    "amongst":4,
    "barred":4,
    "power":4,
    "spill":4,
    "towards":4,
    "watching":4,
    "ajar":4,
    "pale":4,
    "oh":4,
    "smell":4,
    "bad":4,
    "pillows":4,
    "youve":4,
    "gently":4,
    "aware":4,
    "clark":4,
    "spot":4,
    "anger":4,
    "nearly":4,
    "watches":4,
    "hed":4,
    "attempts":4,
    "seat":4,
    "whos":4,
    "purchase":4,
    "orders":4,
    "guilty":4,
    "sick":4,
    "shouldnt":4,
    "care":4,
    "promise":4,
    "rest":4,
    "idea":4,
    "friends":4,
    "pay":4,
    "leaving":4,
    "eaten":4,
    "four":4,
    "hard":4,
    "eerily":4,
    "anything":4,
    "asleep":4,
    "sweat":4,
    "stairway":4,
    "catches":4,
    "step":4,
    "weeks":4,
    "hind":4,
    "desperately":4,
    "escape":4,
    "2nd":4,
    "case":4,
    "oil":4,
    "rattled":4,
    "pull":4,
    "perspiring":4,
    "lets":4,
    "anyone":4,
    "tree":4,
    "mercedes":4,
    "s55":4,
    "thick":4,
    "response":4,
    "very":4,
    "answer":4,
    "tugs":4,
    "edge":4,
    "done":4,
    "waits":4,
    "ignoring":4,
    "gets":4,
    "card":4,
    "laugh":4,
    "shit":4,
    "use":4,
    "lonely":4,
    "both":4,
    "boxes":4,
    "pellets":4,
    "jesus":4,
    "rubber":4,
    "coolly":4,
    "seemingly":4,
    "claws":4,
    "must":4,
    "handle":4,
    "whats":4,
    "hour":4,
    "subway":4,
    "brinks":4,
    "sweeps":4,
    "shocked":4,
    "notes":4,
    "make":4,
    "opened":4,
    "knocking":4,
    "help":4,
    "peace":4,
    "below":4,
    "same":4,
    "anymore":4,
    "hell":4,
    "rings":4,
    "afternoon":4,
    "didnt":4,
    "sure":4,
    "give":4,
    "shoots":4,
    "please":4,
    "jump":4,
    "brown":4,
    "struggling":4,
    "envelope":4,
    "nails":4,
    "paint":4,
    "bang":4,
    "duct":4,
    "grab":4,
    "letter":4,
    "delivery":4,
    "wearing":4,
    "mantle":4,
    "urn":4,
    "pullman":4,
    "submission":4,
    "pour":4,
    "jabs":4,
    "enclosure":4,
    "cabinet":4,
    "bars":4,
    "silence":5,
    "within":5,
    "switch":5,
    "blue":5,
    "eerie":5,
    "remaining":5,
    "storage":5,
    "guide":5,
    "center":5,
    "yes":5,
    "ii":5,
    "traps":5,
    "empty":5,
    "standing":5,
    "passing":5,
    "yellow":5,
    "someone":5,
    "closer":5,
    "feels":5,
    "lies":5,
    "leading":5,
    "animal":5,
    "turning":5,
    "gray":5,
    "said":5,
    "ive":5,
    "such":5,
    "return":5,
    "hurt":5,
    "increasingly":5,
    "shakes":5,
    "week":5,
    "stop":5,
    "studies":5,
    "tone":5,
    "company":5,
    "should":5,
    "job":5,
    "angrily":5,
    "tip":5,
    "sell":5,
    "bg":5,
    "doorway":5,
    "business":5,
    "removes":5,
    "whisks":5,
    "gloves":5,
    "held":5,
    "sink":5,
    "shines":5,
    "ceiling":5,
    "parking":5,
    "shaft":5,
    "hisses":5,
    "own":5,
    "exits":5,
    "order":5,
    "ever":5,
    "aside":5,
    "click":5,
    "three":5,
    "swarm":5,
    "something":5,
    "listen":5,
    "command":5,
    "listens":5,
    "heavy":5,
    "live":5,
    "swarming":5,
    "approaches":5,
    "wife":5,
    "incisors":5,
    "hold":5,
    "chewing":5,
    "causing":5,
    "rear":5,
    "moment":5,
    "follow":5,
    "horrified":5,
    "rushes":5,
    "love":5,
    "kill":5,
    "appear":5,
    "unaware":5,
    "continue":5,
    "keep":5,
    "tv":5,
    "knife":5,
    "christmas":5,
    "sue":5,
    "drives":5,
    "winter":5,
    "van":5,
    "toilet":5,
    "police":5,
    "chandelier":5,
    "doorknob":6,
    "top":6,
    "flash":6,
    "fg":6,
    "fusebox":6,
    "taps":6,
    "chewed":6,
    "clothes":6,
    "locked":6,
    "finger":6,
    "high":6,
    "pair":6,
    "carrying":6,
    "past":6,
    "glass":6,
    "bow":6,
    "picks":6,
    "considers":6,
    "small":6,
    "theyre":6,
    "hear":6,
    "expression":6,
    "position":6,
    "forces":6,
    "name":6,
    "frank":6,
    "plastic":6,
    "working":6,
    "making":6,
    "family":6,
    "always":6,
    "anywhere":6,
    "directly":6,
    "stay":6,
    "those":6,
    "overhead":6,
    "covers":6,
    "teeth":6,
    "hall":6,
    "desperate":6,
    "free":6,
    "leans":6,
    "when":6,
    "run":6,
    "even":6,
    "raises":6,
    "once":6,
    "lot":6,
    "struggles":6,
    "tries":6,
    "really":6,
    "without":6,
    "okay":6,
    "briefcase":6,
    "things":6,
    "got":6,
    "shuts":6,
    "neck":6,
    "tearing":6,
    "reacts":6,
    "weather":6,
    "overcoat":6,
    "home":6,
    "heard":6,
    "check":6,
    "seen":6,
    "base":6,
    "sees":6,
    "little":6,
    "pocket":6,
    "need":6,
    "sit":6,
    "leaps":6,
    "armoire":6,
    "swagger":6,
    "sock":6,
    "couch":6,
    "tap":6,
    "salmon":6,
    "finch":6,
    "rain":6,
    "knock":6,
    "clink":6,
    "anxious":7,
    "landing":7,
    "silhouette":7,
    "nothing":7,
    "trembling":7,
    "control":7,
    "caught":7,
    "settles":7,
    "package":7,
    "ground":7,
    "enter":7,
    "under":7,
    "starts":7,
    "windows":7,
    "death":7,
    "going":7,
    "carefully":7,
    "eases":7,
    "call":7,
    "averts":7,
    "leather":7,
    "shes":7,
    "because":7,
    "let":7,
    "young":7,
    "long":7,
    "boss":7,
    "tense":7,
    "frightened":7,
    "squeals":7,
    "wide":7,
    "legs":7,
    "too":7,
    "drawer":7,
    "fur":7,
    "cover":7,
    "searching":7,
    "cats":7,
    "hundreds":7,
    "scratches":7,
    "quiet":7,
    "absently":7,
    "tires":7,
    "pleased":7,
    "fathers":7,
    "entrance":7,
    "corner":7,
    "strip":7,
    "sticks":7,
    "covered":7,
    "alarm":7,
    "charges":7,
    "wanna":7,
    "foxx":7,
    "deep":7,
    "garter":7,
    "tape":7,
    "keys":7,
    "alley":7,
    "detective":7,
    "set":8,
    "beside":8,
    "store":8,
    "mouse":8,
    "searches":8,
    "motionless":8,
    "others":8,
    "second":8,
    "life":8,
    "late":8,
    "did":8,
    "smile":8,
    "new":8,
    "sorry":8,
    "end":8,
    "revealing":8,
    "factory":8,
    "day":8,
    "reek":8,
    "races":8,
    "clicks":8,
    "gone":8,
    "puzzled":8,
    "shadows":8,
    "turn":8,
    "think":8,
    "any":8,
    "tire":8,
    "trash":8,
    "tenses":8,
    "patrol":8,
    "afraid":8,
    "thought":8,
    "atop":8,
    "casket":8,
    "lid":8,
    "slowly":9,
    "creeps":9,
    "sighs":9,
    "red":9,
    "low":9,
    "glue":9,
    "area":9,
    "along":9,
    "steps":9,
    "first":9,
    "level":9,
    "placed":9,
    "angry":9,
    "wind":9,
    "mean":9,
    "black":9,
    "unable":9,
    "would":9,
    "than":9,
    "youll":9,
    "dozen":9,
    "runs":9,
    "hate":9,
    "last":9,
    "lifts":9,
    "gnawing":9,
    "table":9,
    "begin":9,
    "officers":9,
    "yard":9,
    "dog":9,
    "screams":9,
    "parlor":9,
    "scully":9,
    "squeaks":10,
    "right":10,
    "returns":10,
    "although":10,
    "mesh":10,
    "pauses":10,
    "sound":10,
    "follows":10,
    "stained":10,
    "place":10,
    "snap":10,
    "freezes":10,
    "were":10,
    "could":10,
    "more":10,
    "arm":10,
    "nods":10,
    "rises":10,
    "beam":10,
    "fuck":10,
    "grabs":10,
    "bathroom":10,
    "how":10,
    "left":10,
    "wont":10,
    "climbs":10,
    "snaps":10,
    "angle":10,
    "officer":10,
    "cut":10,
    "phone":10,
    "metal":11,
    "cellar":11,
    "reveal":11,
    "shelves":11,
    "box":11,
    "shelf":11,
    "want":11,
    "street":11,
    "way":11,
    "alone":11,
    "wire":11,
    "each":11,
    "good":11,
    "again":11,
    "had":11,
    "take":11,
    "himself":11,
    "eye":11,
    "fingers":11,
    "sets":11,
    "smiles":11,
    "hustles":11,
    "upstairs":12,
    "opening":12,
    "find":12,
    "until":12,
    "above":12,
    "mothers":12,
    "chair":12,
    "bullpen":12,
    "time":12,
    "their":12,
    "who":12,
    "coat":12,
    "closet":12,
    "beat":13,
    "man":13,
    "cold":13,
    "darkness":13,
    "wall":13,
    "old":13,
    "suddenly":13,
    "drops":13,
    "trap":13,
    "well":13,
    "was":13,
    "places":13,
    "shoulder":13,
    "trying":13,
    "father":13,
    "paper":13,
    "foot":13,
    "fuckin":13,
    "dining":13,
    "blood":13,
    "doors":13,
    "face":14,
    "sits":14,
    "come":14,
    "lights":14,
    "move":14,
    "window":14,
    "inches":14,
    "so":14,
    "hes":14,
    "closes":14,
    "morning":14,
    "closed":14,
    "large":14,
    "feet":14,
    "having":14,
    "tear":14,
    "storeroom":14,
    "several":15,
    "dead":15,
    "which":15,
    "now":15,
    "outside":15,
    "two":15,
    "ill":15,
    "why":15,
    "looking":15,
    "only":15,
    "never":15,
    "doesnt":15,
    "food":15,
    "body":15,
    "side":15,
    "another":16,
    "close":16,
    "will":16,
    "takes":16,
    "moving":16,
    "cant":16,
    "one":16,
    "employees":16,
    "some":16,
    "foyer":16,
    "remains":17,
    "still":17,
    "white":17,
    "about":17,
    "leach":17,
    "later":17,
    "work":18,
    "or":18,
    "all":18,
    "mrs":18,
    "ms":18,
    "after":18,
    "we":18,
    "bens":18,
    "see":19,
    "however":19,
    "other":19,
    "bedroom":19,
    "around":19,
    "tears":19,
    "friend":19,
    "has":19,
    "stick":19,
    "yet":20,
    "upon":20,
    "hole":20,
    "look":20,
    "know":20,
    "dont":20,
    "behind":20,
    "dark":21,
    "before":21,
    "hands":21,
    "pushes":21,
    "quickly":21,
    "youre":21,
    "stands":21,
    "front":21,
    "go":21,
    "against":22,
    "beneath":22,
    "they":22,
    "cat":22,
    "enters":23,
    "pulls":23,
    "bags":23,
    "them":24,
    "been":24,
    "night":24,
    "away":24,
    "im":24,
    "here":24,
    "car":24,
    "continues":25,
    "do":25,
    "there":26,
    "open":26,
    "stairs":27,
    "pov":27,
    "reaches":27,
    "elevator":27,
    "get":27,
    "flashlight":28,
    "holding":28,
    "bed":28,
    "kitchen":28,
    "this":29,
    "desk":29,
    "hand":30,
    "that":30,
    "os":31,
    "what":31,
    "while":31,
    "head":31,
    "through":32,
    "hallway":32,
    "just":33,
    "garage":33,
    "stiles":34,
    "appears":34,
    "your":34,
    "be":35,
    "opens":35,
    "inside":35,
    "frame":36,
    "begins":36,
    "ext":36,
    "floor":37,
    "have":37,
    "across":38,
    "its":38,
    "can":38,
    "my":39,
    "holds":40,
    "then":40,
    "but":40,
    "like":41,
    "not":42,
    "if":42,
    "light":43,
    "me":43,
    "basement":45,
    "off":45,
    "mother":45,
    "turns":45,
    "she":46,
    "room":47,
    "martins":47,
    "by":48,
    "over":49,
    "bag":49,
    "no":50,
    "down":53,
    "cathryn":53,
    "looks":54,
    "an":57,
    "office":57,
    "are":58,
    "house":60,
    "for":61,
    "rat":67,
    "moves":70,
    "her":72,
    "from":74,
    "him":74,
    "out":77,
    "up":78,
    "back":79,
    "eyes":83,
    "socrates":84,
    "at":91,
    "toward":91,
    "ben":93,
    "into":99,
    "mr":104,
    "camera":109,
    "willards":112,
    "martin":114,
    "it":116,
    "i":116,
    "rats":117,
    "door":117,
    "continuous":121,
    "with":125,
    "int":139,
    "you":157,
    "is":158,
    "as":159,
    "on":171,
    "he":237,
    "in":247,
    "his":264,
    "":264,
    "of":298,
    "willard":394,
    "to":403,
    "and":421,
    "a":446,
    "the":1476
}