{
    "spoken":1,
    "through":1,
    "neighbor":1,
    "husband":1,
    "chair":1,
    "voice":1,
    "presence":1,
    "suddenly":1,
    "treat":1,
    "sorrow":1,
    "prepare":1,
    "ourselves":1,
    "follow":1,
    "wasnt":1,
    "sold":1,
    "ruptured":1,
    "testicle":1,
    "bee":1,
    "sting":1,
    "limp":1,
    "ball":1,
    "takes":1,
    "walks":1,
    "feed":1,
    "mother":1,
    "mama":1,
    "darling":1,
    "nicer":1,
    "delayed":1,
    "announcement":1,
    "board":1,
    "sakes":1,
    "body":1,
    "daddy":1,
    "reported":1,
    "hown":1,
    "threads":1,
    "affair":1,
    "expecting":1,
    "therell":1,
    "went":1,
    "floor":1,
    "elsesam":1,
    "dwarf":1,
    "exit":1,
    "lab":1,
    "behaving":1,
    "running":1,
    "terry":1,
    "stick":1,
    "dog":1,
    "cup":1,
    "stan":1,
    "reliable":1,
    "deliver":1,
    "list":1,
    "names":1,
    "guys":1,
    "processing":1,
    "convinced":1,
    "link":1,
    "wasted":1,
    "six":1,
    "months":1,
    "results":1,
    "press":1,
    "capitol":1,
    "country":1,
    "political":1,
    "commissioners":1,
    "uneasy":1,
    "set":1,
    "donahue":1,
    "blow":1,
    "whole":1,
    "word":1,
    "break":1,
    "blonde":1,
    "dinner":1,
    "sunday":1,
    "moved":1,
    "buffalo":1,
    "zenovichs":1,
    "wife":1,
    "late":1,
    "lets":1,
    "suspect":1,
    "reason":1,
    "area":1,
    "material":1,
    "surprise":1,
    "ordeal":1,
    "sammy":1,
    "salvation":1,
    "army":1,
    "further":1,
    "nor":1,
    "stands":1,
    "between":1,
    "maam":1,
    "hotels":1,
    "company":1,
    "important":1,
    "timmy":1,
    "buck":1,
    "asleep":1,
    "whered":1,
    "holierthan":1,
    "thou":1,
    "orphans":1,
    "dawdie":1,
    "sleep":1,
    "liebchen":1,
    "agaanisish":1,
    "aganishish":1,
    "sounds":1,
    "pour":1,
    "carrying":1,
    "bullwhip":1,
    "howd":1,
    "manage":1,
    "contest":1,
    "cereal":1,
    "bit":1,
    "offense":1,
    "turning":1,
    "upside":1,
    "exactly":1,
    "worldclass":1,
    "housefrau":1,
    "polish":1,
    "china":1,
    "full":1,
    "cosmetics":1,
    "drugstore":1,
    "pay":1,
    "rent":1,
    "mary":1,
    "poppins":1,
    "jammed":1,
    "throat":1,
    "somebody":1,
    "broom":1,
    "bugging":1,
    "brought":1,
    "blown":1,
    "face":1,
    "scream":1,
    "mixed":1,
    "selfrighteous":1,
    "push":1,
    "spending":1,
    "carried":1,
    "under":1,
    "coat":1,
    "also":1,
    "testify":1,
    "directly":1,
    "jail":1,
    "genuinely":1,
    "glad":1,
    "toes":1,
    "married":1,
    "instead":1,
    "hers":1,
    "responsibility":1,
    "policing":1,
    "things":1,
    "crook":1,
    "um":1,
    "bag":1,
    "elbows":1,
    "afternoon":1,
    "gentlemen":1,
    "sgt":1,
    "rush":1,
    "files":1,
    "half":1,
    "hour":1,
    "round":1,
    "polices":1,
    "crooked":1,
    "everybody":1,
    "murder":1,
    "knew":1,
    "narcotics":1,
    "dope":1,
    "chemicals":1,
    "millions":1,
    "dollars":1,
    "worry":1,
    "killer":1,
    "samuels":1,
    "photograph":1,
    "busy":1,
    "killing":1,
    "each":1,
    "guy":1,
    "doubts":1,
    "fits":1,
    "gallons":1,
    "confiscated":1,
    "four":1,
    "collar":1,
    "salts":1,
    "potent":1,
    "process":1,
    "worth":1,
    "fivegrand":1,
    "pint":1,
    "pints":1,
    "gallon":1,
    "drum":1,
    "gotta":1,
    "bureau":1,
    "bastards":1,
    "treasury":1,
    "hate":1,
    "balls":1,
    "counting":1,
    "shower":1,
    "score":1,
    "romona":1,
    "ya":1,
    "bleed":1,
    "wrote":1,
    "desk":1,
    "calendar":1,
    "happening":1,
    "fuck":1,
    "schaeffers":1,
    "usual":1,
    "ass":1,
    "urgent":1,
    "garage":1,
    "borrowed":1,
    "saage":1,
    "waahret":1,
    "fools":1,
    "truth":1,
    "expressions":1,
    "awhile":1,
    "breakfast":1,
    "trial":1,
    "file":1,
    "reports":1,
    "burning":1,
    "treated":1,
    "town":1,
    "bullet":1,
    "entered":1,
    "danger":1,
    "great":1,
    "deal":1,
    "levi":1,
    "dies":1,
    "broke":1,
    "pray":1,
    "mans":1,
    "poultice":1,
    "milk":1,
    "linseed":1,
    "oil":1,
    "fit":1,
    "folks":1,
    "upwards":1,
    "seven":1,
    "thousand":1,
    "simplify":1,
    "route":1,
    "third":1,
    "named":1,
    "yoder":1,
    "rope":1,
    "education":1,
    "lazarus":1,
    "credit":1,
    "touched":1,
    "hello":1,
    "leadership":1,
    "hair":1,
    "decided":1,
    "elders":1,
    "stinks":1,
    "quite":1,
    "died":1,
    "wound":1,
    "serious":1,
    "englischer":1,
    "war":1,
    "revolution":1,
    "old":1,
    "elmer":1,
    "millers":1,
    "grandfather":1,
    "took":1,
    "soldiers":1,
    "month":1,
    "less":1,
    "healing":1,
    "apologize":1,
    "lt":1,
    "overstated":1,
    "departments":1,
    "position":1,
    "accused":1,
    "kickbacks":1,
    "question":1,
    "clear":1,
    "front":1,
    "porch":1,
    "mace":1,
    "questioning":1,
    "tight":1,
    "working":1,
    "lean":1,
    "promise":1,
    "feeling":1,
    "point":1,
    "started":1,
    "downstairs":1,
    "appreciate":1,
    "during":1,
    "possible":1,
    "nobody":1,
    "harm":1,
    "curious":1,
    "unloaded":1,
    "":1,
    "personally":1,
    "someplace":1,
    "human":1,
    "sight":1,
    "hearts":1,
    "badness":1,
    "become":1,
    "arm":1,
    "shoulder":1,
    "head":1,
    "gone":1,
    "amongst":1,
    "wherefore":1,
    "ye":1,
    "separate":1,
    "saith":1,
    "lord":1,
    "unclean":1,
    "enjoying":1,
    "reading":1,
    "interesting":1,
    "learning":1,
    "manure":1,
    "shirt":1,
    "jacket":1,
    "stained":1,
    "soakingyou":1,
    "wear":1,
    "husbands":1,
    "someone":1,
    "hooks":1,
    "eyes":1,
    "vain":1,
    "proud":1,
    "person":1,
    "hochmutsnarr":1,
    "zippers":1,
    "fun":1,
    "tourists":1,
    "yard":1,
    "rude":1,
    "nearest":1,
    "gunthers":1,
    "mennonite":1,
    "cars":1,
    "refrigerators":1,
    "telephones":1,
    "houses":1,
    "public":1,
    "without":1,
    "stupid":1,
    "within":1,
    "mile":1,
    "sense":1,
    "1890":1,
    "1790":1,
    "plugging":1,
    "battery":1,
    "mines":1,
    "pictures":1,
    "start":1,
    "veck":1,
    "oufl":1,
    "firm":1,
    "twist":1,
    "teat":1,
    "luke":1,
    "teach":1,
    "mules":1,
    "bet":1,
    "pigs":1,
    "built":1,
    "forty":1,
    "lemonade":1,
    "fireball":1,
    "summers":1,
    "whack":1,
    "farm":1,
    "legitimate":1,
    "trousers":1,
    "eat":1,
    "hard":1,
    "barnraising":1,
    "few":1,
    "stop":1,
    "next":1,
    "drinking":1,
    "racing":1,
    "motorcycles":1,
    "myusick":1,
    "fault":1,
    "guns":1,
    "whispers":1,
    "dancing":1,
    "committed":1,
    "shunned":1,
    "idle":1,
    "quick":1,
    "sit":1,
    "table":1,
    "far":1,
    "acting":1,
    "protect":1,
    "lying":1,
    "contact":1,
    "hiding":1,
    "prayer":1,
    "either":1,
    "club":1,
    "nasty":1,
    "whether":1,
    "sake":1,
    "won":1,
    "ready":1,
    "later":1,
    "gang":1,
    "luck":1,
    "hole":1,
    "healed":1,
    "everyone":1,
    "charitable":1,
    "hardly":1,
    "nail":1,
    "sir":1,
    "admire":1,
    "learn":1,
    "myself":1,
    "useful":1,
    "skill":1,
    "hochstetlers":1,
    "mare":1,
    "picture":1,
    "rip":1,
    "brassiere":1,
    "strangle":1,
    "lieutenant":1,
    "friend":1,
    "sergeant":1,
    "line":1,
    "duty":1,
    "study":1,
    "pass":1,
    "along":1,
    "worked":1,
    "seeing":1,
    "violence":1,
    "comes":1,
    "making":1,
    "hat":1,
    "different":1,
    "lancaster":1,
    "brethren":1,
    "control":1,
    "himself":1,
    "repentant":1,
    "nose":1,
    "broken":1,
    "mrs":1,
    "aint":1,
    "tourist":1,
    "trade":1,
    "bother":1,
    "birdhouse":1,
    "stayed":1,
    "welcomed":1,
    "foolish":1,
    "unrealistic":1,
    "today":1,
    "yours":1,
    "glotzkopp":1,
    "cannot":1,
    "vengeance":1,
    "which":1,
    "heaven":1,
    "mine":1,
    "bath":1,
    "tried":1,
    "white":1,
    "oak":1,
    "couple":1,
    "miles":1,
    "ties":1,
    "twotwenty":1,
    "owe":1,
    "spoke":1,
    "undersheriff":1,
    "talked":1,
    "post":1,
    "backup":1,
    "units":1,
    "shout":1,
    "slip":1,
    "quiet":1,
    "attract":1,
    "attention":1,
    "em":1,
    "dirty":1,
    "laundry":1,
    "weird":1,
    "fuckin":1,
    "electricity":1,
    "figure":1,
    "plug":1,
    "officers":1,
    "fugitive":1,
    "dangerous":1,
    "armed":1,
    "criminal":1,
    "hasnt":1,
    "building":1,
    "barns":1,
    "listened":1,
    "new":1,
    "corn":1,
    "nobodys":1,
    "sneaky":1,
    "praise":1,
    "gott":1,
    "feet":1,
    "moving":1,
    "courthouse":1,
    "bars":1,
    "remember":1,
    "baggy":1,
    "pants":1,
    "whenever":1,
    "called":2,
    "death":2,
    "jacob":2,
    "empty":2,
    "bed":2,
    "needed":2,
    "needs":2,
    "men":2,
    "wish":2,
    "rather":2,
    "farmer":2,
    "buy":2,
    "store":2,
    "quickly":2,
    "ticket":2,
    "three":2,
    "christs":2,
    "found":2,
    "black":2,
    "hi":2,
    "officer":2,
    "sister":2,
    "job":2,
    "whod":2,
    "looked":2,
    "zwartich":2,
    "may":2,
    "every":2,
    "captain":2,
    "internal":2,
    "affairs":2,
    "case":2,
    "angry":2,
    "ought":2,
    "chemists":2,
    "speed":2,
    "isnt":2,
    "driving":2,
    "calling":2,
    "sort":2,
    "gets":2,
    "lose":2,
    "24":2,
    "whatshername":2,
    "bout":2,
    "zenovich":2,
    "happens":2,
    "looking":2,
    "weve":2,
    "believe":2,
    "laws":2,
    "meet":2,
    "joke":2,
    "really":2,
    "involved":2,
    "happy":2,
    "valley":2,
    "light":2,
    "upstairs":2,
    "mouth":2,
    "door":2,
    "kind":2,
    "minute":2,
    "best":2,
    "kept":2,
    "idea":2,
    "place":2,
    "meant":2,
    "sell":2,
    "sometimes":2,
    "clean":2,
    "somehow":2,
    "screamed":2,
    "bitch":2,
    "trying":2,
    "probably":2,
    "courts":2,
    "talking":2,
    "seem":2,
    "family":2,
    "except":2,
    "beer":2,
    "wed":2,
    "arrest":2,
    "protecting":2,
    "cops":2,
    "thinking":2,
    "mcelroy":2,
    "fiftyfive":2,
    "ago":2,
    "somewhere":2,
    "stuff":2,
    "havent":2,
    "outside":2,
    "those":2,
    "cut":2,
    "move":2,
    "changed":2,
    "alone":2,
    "henry":2,
    "carefully":2,
    "address":2,
    "til":2,
    "watch":2,
    "until":2,
    "philadelphia":2,
    "kinner":2,
    "un":2,
    "narre":2,
    "doctor":2,
    "infection":2,
    "lost":2,
    "parts":2,
    "speak":2,
    "diener":2,
    "ah":2,
    "road":2,
    "number":2,
    "amishman":2,
    "hang":2,
    "district":2,
    "tschantz":2,
    "themselves":2,
    "day":2,
    "saved":2,
    "thanks":2,
    "besides":2,
    "already":2,
    "yet":2,
    "bastard":2,
    "handle":2,
    "pistol":2,
    "stand":2,
    "heart":2,
    "having":2,
    "strangers":2,
    "hochmut":2,
    "quaint":2,
    "imagine":2,
    "telephone":2,
    "across":2,
    "saltzburg":2,
    "school":2,
    "hurry":2,
    "bullets":2,
    "mind":2,
    "makes":2,
    "cows":2,
    "tomorrow":2,
    "pull":2,
    "yankee":2,
    "yourself":2,
    "real":2,
    "carpentry":2,
    "used":2,
    "zooks":2,
    "ordnung":2,
    "fear":2,
    "music":2,
    "meeting":2,
    "dear":2,
    "child":2,
    "judge":2,
    "shame":2,
    "admit":2,
    "member":2,
    "always":2,
    "pretty":2,
    "drive":2,
    "behind":2,
    "cousin":2,
    "fight":2,
    "living":2,
    "land":2,
    "holmes":2,
    "check":2,
    "fergie":2,
    "run":2,
    "hurt":2,
    "brother":3,
    "heard":3,
    "taken":3,
    "soon":3,
    "careful":3,
    "baltimore":3,
    "train":3,
    "hours":3,
    "jesus":3,
    "uh":3,
    "funny":3,
    "policeman":3,
    "again":3,
    "big":3,
    "zenovitch":3,
    "schaeffer":3,
    "momma":3,
    "gonna":3,
    "friends":3,
    "left":3,
    "p2p":3,
    "crazy":3,
    "witness":3,
    "coalmine":3,
    "mistake":3,
    "wont":3,
    "happen":3,
    "doesnt":3,
    "part":3,
    "shut":3,
    "wanted":3,
    "lady":3,
    "mean":3,
    "her":3,
    "shouldnt":3,
    "top":3,
    "wouldnt":3,
    "done":3,
    "goes":3,
    "fast":3,
    "same":3,
    "thinks":3,
    "afraid":3,
    "appetite":3,
    "phone":3,
    "feel":3,
    "figured":3,
    "years":3,
    "pick":3,
    "hot":3,
    "days":3,
    "hey":3,
    "buddy":3,
    "womans":3,
    "while":3,
    "together":3,
    "couldnt":3,
    "wait":3,
    "rest":3,
    "gunshot":3,
    "dead":3,
    "looks":3,
    "came":3,
    "must":3,
    "hold":3,
    "hands":3,
    "matter":3,
    "lie":3,
    "gods":3,
    "bishop":3,
    "mr":3,
    "tea":3,
    "able":3,
    "love":3,
    "ever":3,
    "touch":3,
    "use":3,
    "buttons":3,
    "against":3,
    "am":3,
    "milking":3,
    "bring":3,
    "sin":3,
    "arent":3,
    "elton":3,
    "sugar":3,
    "might":3,
    "ohio":3,
    "father":4,
    "such":4,
    "horse":4,
    "hochstetler":4,
    "hope":4,
    "among":4,
    "course":4,
    "please":4,
    "youll":4,
    "happened":4,
    "leaving":4,
    "killed":4,
    "anybody":4,
    "own":4,
    "call":4,
    "coffee":4,
    "street":4,
    "department":4,
    "problem":4,
    "getting":4,
    "cop":4,
    "youve":4,
    "give":4,
    "wants":4,
    "wheres":4,
    "kids":4,
    "wrong":4,
    "morning":4,
    "children":4,
    "enough":4,
    "elaine":4,
    "away":4,
    "woman":4,
    "whacking":4,
    "city":4,
    "says":4,
    "thought":4,
    "carter":4,
    "guess":4,
    "mac":4,
    "care":4,
    "shit":4,
    "clothes":4,
    "car":4,
    "sheriff":4,
    "chief":4,
    "by":4,
    "kill":4,
    "seen":4,
    "leads":4,
    "plain":4,
    "fine":4,
    "being":4,
    "home":5,
    "more":5,
    "none":5,
    "told":5,
    "had":5,
    "does":5,
    "daniel":5,
    "boy":5,
    "another":5,
    "even":5,
    "try":5,
    "homicide":5,
    "yeah":5,
    "theres":5,
    "taking":5,
    "keep":5,
    "fred":5,
    "thank":5,
    "around":5,
    "die":5,
    "leave":5,
    "youd":5,
    "because":5,
    "tired":5,
    "else":5,
    "drink":5,
    "id":5,
    "safe":5,
    "cant":5,
    "two":5,
    "hospital":5,
    "blood":5,
    "life":5,
    "live":5,
    "before":5,
    "carpenter":5,
    "been":6,
    "still":6,
    "made":6,
    "close":6,
    "police":6,
    "tonight":6,
    "everything":6,
    "down":6,
    "paul":6,
    "off":6,
    "theyll":6,
    "after":6,
    "anyway":6,
    "something":6,
    "could":6,
    "goddamn":6,
    "business":6,
    "these":6,
    "theyre":6,
    "said":6,
    "night":6,
    "first":6,
    "only":6,
    "their":6,
    "hand":6,
    "eh":6,
    "bad":6,
    "god":7,
    "too":7,
    "better":7,
    "saw":7,
    "did":7,
    "over":7,
    "little":7,
    "never":7,
    "other":7,
    "she":7,
    "long":7,
    "knows":7,
    "has":8,
    "eli":8,
    "hear":8,
    "kid":8,
    "understand":8,
    "coming":8,
    "last":8,
    "lot":8,
    "house":8,
    "much":9,
    "name":9,
    "okay":9,
    "ive":9,
    "make":9,
    "or":9,
    "put":9,
    "some":9,
    "work":9,
    "from":9,
    "son":10,
    "sorry":10,
    "let":10,
    "need":10,
    "an":10,
    "hell":10,
    "talk":10,
    "find":10,
    "didnt":10,
    "think":10,
    "yes":10,
    "anything":10,
    "stay":10,
    "gun":10,
    "stoltzfus":10,
    "lapp":11,
    "should":11,
    "very":11,
    "why":11,
    "johnny":11,
    "any":11,
    "oh":11,
    "thing":11,
    "nothing":11,
    "help":11,
    "up":11,
    "whats":12,
    "tell":12,
    "say":12,
    "amish":12,
    "people":12,
    "then":12,
    "our":13,
    "sure":13,
    "rachel":14,
    "english":14,
    "look":14,
    "where":14,
    "sam":14,
    "right":14,
    "into":14,
    "hes":14,
    "would":15,
    "back":15,
    "time":15,
    "were":15,
    "well":15,
    "us":16,
    "just":16,
    "how":16,
    "his":17,
    "one":17,
    "at":17,
    "take":17,
    "way":18,
    "thats":18,
    "them":18,
    "now":18,
    "maybe":18,
    "listen":18,
    "when":19,
    "ill":19,
    "get":19,
    "samuel":20,
    "will":20,
    "about":20,
    "come":20,
    "see":20,
    "who":20,
    "man":21,
    "all":21,
    "if":21,
    "go":22,
    "so":23,
    "out":23,
    "want":23,
    "there":23,
    "as":23,
    "good":24,
    "youre":24,
    "book":24,
    "got":25,
    "going":26,
    "here":26,
    "on":27,
    "\u0096":28,
    "they":28,
    "my":29,
    "john":29,
    "was":30,
    "we":30,
    "its":30,
    "like":31,
    "be":32,
    "with":33,
    "are":33,
    "him":34,
    "for":34,
    "do":37,
    "me":38,
    "can":38,
    "but":39,
    "no":40,
    "he":41,
    "im":42,
    "this":42,
    "what":42,
    "know":42,
    "dont":42,
    "your":43,
    "in":45,
    "not":56,
    "have":57,
    "that":60,
    "is":63,
    "it":68,
    "and":70,
    "of":80,
    "a":122,
    "i":155,
    "the":157,
    "to":171,
    "you":257
}