{
    "road":1,
    "husband":1,
    "bastard":1,
    "driving":1,
    "pastry":1,
    "survival":1,
    "quest":1,
    "vacation":1,
    "third":1,
    "lame":1,
    "wilderness":1,
    "shoes":1,
    "fishing":1,
    "lures":1,
    "electric":1,
    "drill":1,
    "wet":1,
    "muddy":1,
    "dry":1,
    "propositioning":1,
    "remarkable":1,
    "retro":1,
    "pickup":1,
    "changed":1,
    "pleather":1,
    "xray":1,
    "vision":1,
    "camping":1,
    "stranger":1,
    "waitin":1,
    "physics":1,
    "hottie":1,
    "sweetheart":1,
    "aphrodite":1,
    "car":1,
    "dopey":1,
    "recognize":1,
    "mufflers":1,
    "switched":1,
    "dads":1,
    "ten":1,
    "dried":1,
    "technically":1,
    "virgin":1,
    "counts":1,
    "dreams":1,
    "secrets":1,
    "sharons":1,
    "mom":1,
    "thanksgiving":1,
    "smaller":1,
    "thirteen":1,
    "twenty":1,
    "skin":1,
    "seventyfive":1,
    "horsepower":1,
    "twentyeight":1,
    "wheels":1,
    "classic":1,
    "dig":1,
    "thatd":1,
    "wrench":1,
    "flanges":1,
    "sheared":1,
    "watch":1,
    "brother":1,
    "sellin":1,
    "mrs":1,
    "gustafson":1,
    "polisci":1,
    "transfer":1,
    "asked":1,
    "campus":1,
    "probly":1,
    "stalker":1,
    "cafe":1,
    "lunizia":1,
    "style":1,
    "forward":1,
    "kickin":1,
    "beatin":1,
    "frat":1,
    "street":1,
    "pisses":1,
    "replace":1,
    "sit":1,
    "eat":1,
    "amoeba":1,
    "paramecium":1,
    "evolved":1,
    "pond":1,
    "scum":1,
    "sweatin":1,
    "quick":1,
    "smarter":1,
    "ged":1,
    "brainiacs":1,
    "worships":1,
    "fling":1,
    "local":1,
    "shop":1,
    "former":1,
    "cliche":1,
    "winthrop":1,
    "park":1,
    "avenue":1,
    "family":1,
    "smirking":1,
    "green":1,
    "tattoo":1,
    "remove":1,
    "bummer":1,
    "considering":1,
    "prosthetic":1,
    "foot":1,
    "nine":1,
    "barely":1,
    "tombstone":1,
    "sad":1,
    "looking":1,
    "smiley":1,
    "faces":1,
    "fish":1,
    "sweet":1,
    "wouldve":1,
    "loved":1,
    "relationship":1,
    "scary":1,
    "bloody":1,
    "usual":1,
    "table":1,
    "twentynine":1,
    "bring":1,
    "cannoli":1,
    "lie":1,
    "boxing":1,
    "competin":1,
    "mr":1,
    "universe":1,
    "fucking":1,
    "funny":1,
    "eats":1,
    "ravioli":1,
    "felt":1,
    "date":1,
    "creep":1,
    "acute":1,
    "anxiety":1,
    "stress":1,
    "college":1,
    "grades":1,
    "common":1,
    "symptoms":1,
    "panic":1,
    "attacks":1,
    "localized":1,
    "alopecia":1,
    "loss":1,
    "wrote":1,
    "virginity":1,
    "gave":1,
    "east":1,
    "sending":1,
    "information":1,
    "bipolar":1,
    "sittin":1,
    "wake":1,
    "pasta":1,
    "quattro":1,
    "funghi":1,
    "took":1,
    "somehow":1,
    "hallucinating":1,
    "amazes":1,
    "capacity":1,
    "worldclass":1,
    "fortunately":1,
    "familiar":1,
    "shell":1,
    "near":1,
    "neighbors":1,
    "pitbull":1,
    "sudden":1,
    "craving":1,
    "cherry":1,
    "popsicle":1,
    "check":1,
    "freezer":1,
    "relief":1,
    "late":1,
    "unfathomably":1,
    "theyd":1,
    "treat":1,
    "profound":1,
    "respect":1,
    "scripture":1,
    "sunset":1,
    "suck":1,
    "won":1,
    "medal":1,
    "blows":1,
    "river":1,
    "testosterone":1,
    "coursing":1,
    "veins":1,
    "burst":1,
    "lock":1,
    "ought":1,
    "dye":1,
    "brown":1,
    "piece":1,
    "match":1,
    "nah":1,
    "messin":1,
    "rid":1,
    "clippers":1,
    "bag":1,
    "cowlick":1,
    "snip":1,
    "touched":1,
    "bizarre":1,
    "learned":1,
    "nature":1,
    "store":1,
    "grey":1,
    "black":1,
    "bar":1,
    "giving":1,
    "many":1,
    "rules":1,
    "drinks":1,
    "dear":1,
    "drive":1,
    "across":1,
    "state":1,
    "loner":1,
    "ones":1,
    "eyeing":1,
    "comin":1,
    "dates":1,
    "somehwere":1,
    "spoke":1,
    "flashes":1,
    "pressure":1,
    "exchanged":1,
    "email":1,
    "philadelphia":1,
    "has":1,
    "extra":1,
    "chromosome":1,
    "sauce":1,
    "tested":1,
    "whack":1,
    "step":1,
    "talkin":1,
    "fortysix":1,
    "forty":1,
    "buddy":1,
    "alcoholic":1,
    "parents":1,
    "juvey":1,
    "past":1,
    "alive":1,
    "partly":1,
    "bale":1,
    "rock":1,
    "keenans":1,
    "rocks":1,
    "pebbles":1,
    "grains":1,
    "sand":1,
    "ladys":1,
    "brunette":1,
    "friends":1,
    "sorta":1,
    "each":1,
    "thirty":1,
    "seconds":1,
    "pull":1,
    "howd":1,
    "hours":1,
    "million":1,
    "youd":1,
    "twice":1,
    "pathetic":1,
    "loser":1,
    "compliment":1,
    "answers":1,
    "unpretentious":1,
    "gentle":1,
    "ricochet":1,
    "pocket":1,
    "chances":1,
    "tonsil":1,
    "staring":1,
    "rack":1,
    "pool":1,
    "wide":1,
    "floor":1,
    "cryin":1,
    "bourbon":1,
    "bottle":1,
    "precision":1,
    "guided":1,
    "missile":1,
    "givin":1,
    "valium":1,
    "flexeril":1,
    "shitload":1,
    "darvon":1,
    "breathe":1,
    "sees":1,
    "fucked":1,
    "pictures":1,
    "tabloids":1,
    "onto":1,
    "passes":1,
    "physical":1,
    "contact":1,
    "deodorant":1,
    "fall":1,
    "asleep":1,
    "pass":1,
    "almost":1,
    "reverts":1,
    "called":1,
    "nocturnal":1,
    "remission":1,
    "relax":1,
    "thousand":1,
    "dna":1,
    "test":1,
    "triggered":1,
    "rv":1,
    "whenever":1,
    "aroused":1,
    "hots":1,
    "cure":1,
    "disease":1,
    "steps":1,
    "rush":1,
    "second":1,
    "opinion":1,
    "warn":1,
    "theyll":1,
    "barrage":1,
    "antipsychotic":1,
    "medications":1,
    "surgery":1,
    "electroshock":1,
    "therapy":1,
    "latent":1,
    "anymore":1,
    "kick":1,
    "end":1,
    "behemoth":1,
    "hips":1,
    "testicle":1,
    "orgasm":1,
    "available":1,
    "stage":1,
    "absorb":1,
    "worst":1,
    "dead":1,
    "focused":1,
    "getting":1,
    "howre":1,
    "scoops":1,
    "cream":1,
    "larissa":1,
    "horsefaced":1,
    "points":1,
    "tomorrow":1,
    "distractions":1,
    "pucks":1,
    "read":1,
    "kinda":1,
    "disgusting":1,
    "jump":1,
    "seriously":1,
    "pair":1,
    "boobs":1,
    "music":1,
    "magazine":1,
    "bout":1,
    "bath":1,
    "gawd":1,
    "havent":1,
    "naked":1,
    "times":1,
    "victorias":1,
    "secret":1,
    "illustrated":1,
    "swimsuit":1,
    "edition":1,
    "latvian":1,
    "lesbians":1,
    "hidden":1,
    "camera":1,
    "chronicles":1,
    "tape":1,
    "sick":1,
    "butch":1,
    "freaking":1,
    "starin":1,
    "mood":1,
    "situation":1,
    "things":1,
    "studly":1,
    "suggest":1,
    "english":1,
    "patient":1,
    "favorite":1,
    "movie":1,
    "starving":1,
    "lei":1,
    "sono":1,
    "una":1,
    "bella":1,
    "donna":1,
    "amerei":1,
    "per":1,
    "mostrarlo":1,
    "il":1,
    "che":1,
    "inclinando":1,
    "torre":1,
    "di":1,
    "pisa":1,
    "leaving":1,
    "ropes":1,
    "meeting":1,
    "hunk":1,
    "levers":1,
    "sides":1,
    "flip":1,
    "center":1,
    "thingy":1,
    "mall":1,
    "mines":1,
    "features":1,
    "larissas":1,
    "roommate":1,
    "grosss":1,
    "experienced":1,
    "wonder":1,
    "fantasies":1,
    "turns":1,
    "pretend":1,
    "pinned":1,
    "against":1,
    "bed":1,
    "move":1,
    "arm":1,
    "leg":1,
    "strong":1,
    "hands":1,
    "thighs":1,
    "creeping":1,
    "firmly":1,
    "slowly":1,
    "toward":1,
    "shivers":1,
    "rip":1,
    "throw":1,
    "envelop":1,
    "along":1,
    "pin":1,
    "mad":1,
    "aaahhh":1,
    "screamer":1,
    "doing":1,
    "awful":1,
    "difficult":1,
    "owners":1,
    "manual":1,
    "pills":1,
    "odd":1,
    "critical":1,
    "experience":1,
    "opportunity":1,
    "given":1,
    "conflict":1,
    "whyre":1,
    "resistant":1,
    "clearly":1,
    "feels":1,
    "differently":1,
    "itll":1,
    "free":1,
    "basket":1,
    "biscuits":1,
    "dropped":1,
    "pointers":1,
    "according":1,
    "named":1,
    "our":1,
    "uncle":1,
    "locasto":1,
    "hook":1,
    "boyfriend":1,
    "lesbian":1,
    "michelles":1,
    "hells":1,
    "datin":1,
    "aaaah":1,
    "sexy":1,
    "mens":1,
    "closet":1,
    "polly":1,
    "hon":1,
    "tears":1,
    "tradeoff":1,
    "gorgeous":1,
    "michelangelo":1,
    "sweetest":1,
    "men":1,
    "certainly":1,
    "seat":1,
    "full":1,
    "confusing":1,
    "fight":1,
    "rather":1,
    "behind":1,
    "bottom":1,
    "line":1,
    "sneer":1,
    "kinds":1,
    "hoops":1,
    "imagine":1,
    "talking":1,
    "made":1,
    "terrible":1,
    "horrible":1,
    "crucial":1,
    "musta":1,
    "worked":1,
    "idea":1,
    "judas":1,
    "priest":1,
    "wishes":1,
    "means":1,
    "bully":1,
    "phenomenal":1,
    "shouldve":1,
    "conversation":1,
    "afternoon":1,
    "choice":1,
    "talked":1,
    "bein":1,
    "picked":1,
    "pink":1,
    "hi":1,
    "push":1,
    "buttons":1,
    "pissed":1,
    "finished":1,
    "revved":1,
    "seein":1,
    "struttin":1,
    "hangin":1,
    "act":1,
    "pretending":1,
    "joe":1,
    "girlfriend":1,
    "brothers":1,
    "outside":1,
    "above":1,
    "view":1,
    "confuse":1,
    "issue":1,
    "unless":1,
    "tiny":1,
    "bit":1,
    "thousands":1,
    "deny":1,
    "key":1,
    "locks":1,
    "tryin":1,
    "sack":1,
    "save":1,
    "distress":1,
    "remember":1,
    "christmas":1,
    "accidentally":1,
    "scofields":1,
    "house":1,
    "fire":1,
    "burning":1,
    "shingle":1,
    "drifted":1,
    "lit":1,
    "robertsons":1,
    "lynch":1,
    "snuck":1,
    "drinkin":1,
    "coffee":1,
    "kill":1,
    "looked":1,
    "son":1,
    "leftover":1,
    "fridge":1,
    "coolest":1,
    "accept":1,
    "expected":1,
    "moves":1,
    "taught":1,
    "speak":1,
    "tourist":1,
    "spaghetti":1,
    "bolognese":1,
    "room":1,
    "italy":1,
    "someday":1,
    "none":1,
    "shouldntve":1,
    "catch22":1,
    "admit":1,
    "somewhere":1,
    "janines":1,
    "catchadourians":1,
    "hittin":1,
    "face":1,
    "order":1,
    "courageous":1,
    "energy":1,
    "warm":1,
    "complete":1,
    "nearly":1,
    "relieved":1,
    "sorted":1,
    "conscience":1,
    "bothered":1,
    "decades":1,
    "gone":1,
    "ahead":1,
    "certain":1,
    "womanhood":1,
    "manhood":1,
    "dress":1,
    "testing":1,
    "tied":1,
    "contrary":1,
    "lateral":1,
    "hypothalamus":1,
    "overwhelmed":1,
    "cellular":1,
    "fission":1,
    "kicks":1,
    "zytusional":1,
    "nooooo":1,
    "hear":1,
    "emergency":1,
    "myself":1,
    "hour":1,
    "anna":1,
    "felucci":1,
    "pumps":1,
    "lied":1,
    "stopped":1,
    "damnit":1,
    "spin":1,
    "earlier":1,
    "woulda":1,
    "hit":1,
    "worlds":1,
    "blown":1,
    "mention":1,
    "women":1,
    "glad":1,
    "zerophobic":1,
    "wrestling":1,
    "meets":1,
    "educated":1,
    "wrestle":1,
    "careens":1,
    "faster":1,
    "percent":1,
    "deserves":1,
    "philia":1,
    "nads":1,
    "grab":1,
    "brought":1,
    "sixpack":1,
    "mess":1,
    "texas":1,
    "profoundly":1,
    "wife":1,
    "scream":1,
    "rape":1,
    "bullshit":1,
    "screwed":1,
    "trigonometry":1,
    "bi":1,
    "kinsey":1,
    "scales":1,
    "threedimensional":1,
    "zilch":1,
    "hand":1,
    "lying":1,
    "waste":1,
    "cares":1,
    "idiot":1,
    "thisll":1,
    "literally":1,
    "tricked":1,
    "whys":1,
    "stand":1,
    "bye":1,
    "parts":1,
    "close":1,
    "far":1,
    "moon":1,
    "joint":1,
    "womanll":1,
    "species":1,
    "conceive":1,
    "written":1,
    "guarantee":1,
    "lucky":1,
    "macho":1,
    "practical":1,
    "least":1,
    "dawn":1,
    "cheat":1,
    "liverpool":1,
    "veritable":1,
    "shagfest":1,
    "boulevard":1,
    "broken":1,
    "hearts":1,
    "scratch":1,
    "reminded":1,
    "created":1,
    "terrified":1,
    "understand":1,
    "staying":1,
    "til":1,
    "friday":1,
    "obviously":1,
    "nothings":1,
    "cheating":1,
    "shed":1,
    "field":1,
    "mixed":1,
    "signals":1,
    "ow":1,
    "stepped":1,
    "nail":1,
    "confused":1,
    "sounds":1,
    "morning":1,
    "stuck":1,
    "prenup":1,
    "utah":2,
    "seven":2,
    "congratulations":2,
    "trucks":2,
    "babe":2,
    "painted":2,
    "next":2,
    "shot":2,
    "kiddin":2,
    "screw":2,
    "caught":2,
    "bought":2,
    "bucks":2,
    "hold":2,
    "transmission":2,
    "blow":2,
    "shouldnt":2,
    "week":2,
    "sold":2,
    "names":2,
    "askin":2,
    "spanky":2,
    "puck":2,
    "ride":2,
    "people":2,
    "team":2,
    "split":2,
    "practically":2,
    "lookin":2,
    "easy":2,
    "workin":2,
    "bike":2,
    "mostly":2,
    "hawkins":2,
    "hawk":2,
    "hed":2,
    "mushrooms":2,
    "wine":2,
    "beer":2,
    "incontrovertible":2,
    "proof":2,
    "died":2,
    "makes":2,
    "friendship":2,
    "aah":2,
    "baby":2,
    "takin":2,
    "everyone":2,
    "business":2,
    "smart":2,
    "started":2,
    "feelin":2,
    "startin":2,
    "adolescent":2,
    "net":2,
    "found":2,
    "lost":2,
    "pack":2,
    "thinkin":2,
    "apologize":2,
    "bolt":2,
    "thinks":2,
    "mushroom":2,
    "shrooms":2,
    "catch":2,
    "feed":2,
    "dog":2,
    "intense":2,
    "sydney":2,
    "dying":2,
    "job":2,
    "holy":2,
    "olympic":2,
    "gold":2,
    "age":2,
    "through":2,
    "lady":2,
    "cut":2,
    "cmon":2,
    "ago":2,
    "tried":2,
    "works":2,
    "darling":2,
    "hope":2,
    "buy":2,
    "since":2,
    "catchadourian":2,
    "chromosomes":2,
    "y":2,
    "weve":2,
    "months":2,
    "everyones":2,
    "absolutely":2,
    "hoping":2,
    "same":2,
    "superglue":2,
    "theyve":2,
    "huge":2,
    "whyd":2,
    "beautiful":2,
    "deep":2,
    "passionate":2,
    "point":2,
    "night":2,
    "jeremy":2,
    "fast":2,
    "ice":2,
    "caaalm":2,
    "television":2,
    "body":2,
    "hurt":2,
    "wait":2,
    "contagious":2,
    "c":2,
    "l":2,
    "m":2,
    "d":2,
    "o":2,
    "w":2,
    "n":2,
    "turn":2,
    "aint":2,
    "chris":2,
    "sake":2,
    "trying":2,
    "become":2,
    "beat":2,
    "takes":2,
    "says":2,
    "turnin":2,
    "soft":2,
    "beers":2,
    "tits":2,
    "sports":2,
    "watchin":2,
    "welcome":2,
    "force":2,
    "smile":2,
    "whos":2,
    "figured":2,
    "live":2,
    "visiting":2,
    "today":2,
    "thrown":2,
    "curve":2,
    "arms":2,
    "head":2,
    "hmm":2,
    "making":2,
    "use":2,
    "very":2,
    "which":2,
    "choose":2,
    "desires":2,
    "piss":2,
    "moment":2,
    "walk":2,
    "water":2,
    "interested":2,
    "shirt":2,
    "type":2,
    "became":2,
    "queer":2,
    "ex":2,
    "millions":2,
    "scare":2,
    "less":2,
    "totally":2,
    "finding":2,
    "happening":2,
    "bigger":2,
    "until":2,
    "adulmorphic":2,
    "gender":2,
    "eye":2,
    "learn":2,
    "start":2,
    "turning":2,
    "multiple":2,
    "os":2,
    "forgot":2,
    "dresses":2,
    "eventually":2,
    "werent":2,
    "lyin":2,
    "slept":2,
    "because":2,
    "elevated":2,
    "member":2,
    "impossible":2,
    "pretty":2,
    "wow":3,
    "afraid":3,
    "mind":3,
    "awesome":3,
    "laid":3,
    "swear":3,
    "meet":3,
    "years":3,
    "havin":3,
    "dream":3,
    "real":3,
    "tellin":3,
    "enough":3,
    "truck":3,
    "gasket":3,
    "tsprocks":3,
    "three":3,
    "weeks":3,
    "ah":3,
    "four":3,
    "inch":3,
    "big":3,
    "deal":3,
    "already":3,
    "heard":3,
    "while":3,
    "jesus":3,
    "chest":3,
    "sayin":3,
    "wild":3,
    "moron":3,
    "color":3,
    "knowing":3,
    "special":3,
    "amazing":3,
    "listen":3,
    "somethin":3,
    "sonofabitch":3,
    "honest":3,
    "":3,
    "someone":3,
    "put":3,
    "sucks":3,
    "words":3,
    "unbelievable":3,
    "honey":3,
    "must":3,
    "true":3,
    "though":3,
    "drink":3,
    "theyre":3,
    "dr":3,
    "denial":3,
    "whatre":3,
    "x":3,
    "together":3,
    "reason":3,
    "person":3,
    "round":3,
    "apart":3,
    "ask":3,
    "side":3,
    "prefer":3,
    "calm":3,
    "lives":3,
    "life":3,
    "recorded":3,
    "incidents":3,
    "morphescent":3,
    "sleep":3,
    "turned":3,
    "happened":3,
    "doin":3,
    "wed":3,
    "perfect":3,
    "boys":3,
    "shut":3,
    "sound":3,
    "outta":3,
    "these":3,
    "likes":3,
    "thank":3,
    "lukes":3,
    "cousin":3,
    "town":3,
    "hopin":3,
    "clothes":3,
    "hard":3,
    "gay":3,
    "either":3,
    "once":3,
    "male":3,
    "done":3,
    "decide":3,
    "zs":3,
    "without":3,
    "happens":3,
    "completely":3,
    "handle":3,
    "worth":3,
    "sort":4,
    "stupid":4,
    "finally":4,
    "word":4,
    "total":4,
    "ya":4,
    "fuckin":4,
    "shit":4,
    "few":4,
    "set":4,
    "needs":4,
    "couple":4,
    "last":4,
    "six":4,
    "york":4,
    "pizza":4,
    "feel":4,
    "home":4,
    "ready":4,
    "lot":4,
    "seen":4,
    "long":4,
    "name":4,
    "tonight":4,
    "nothin":4,
    "dad":4,
    "their":4,
    "nuts":4,
    "breasts":4,
    "doctor":4,
    "chance":4,
    "leave":4,
    "anyway":4,
    "most":4,
    "met":4,
    "mistake":4,
    "asshole":4,
    "sometimes":4,
    "looks":4,
    "trouble":4,
    "nice":4,
    "isnt":4,
    "knows":4,
    "sposed":4,
    "zero":4,
    "break":4,
    "open":4,
    "zerophiliac":4,
    "normal":4,
    "show":4,
    "control":4,
    "day":4,
    "wish":4,
    "might":4,
    "after":4,
    "play":4,
    "anytime":4,
    "different":4,
    "joke":4,
    "christ":4,
    "days":5,
    "kind":5,
    "wanted":5,
    "knew":5,
    "crap":5,
    "other":5,
    "still":5,
    "inside":5,
    "important":5,
    "ass":5,
    "used":5,
    "italian":5,
    "lets":5,
    "boy":5,
    "whered":5,
    "wanna":5,
    "friend":5,
    "sex":5,
    "stop":5,
    "told":5,
    "stay":5,
    "sister":5,
    "left":5,
    "incredible":5,
    "care":5,
    "bad":5,
    "may":5,
    "actually":5,
    "stuff":5,
    "anything":5,
    "always":5,
    "game":5,
    "problem":5,
    "wouldnt":5,
    "wants":5,
    "course":5,
    "couldnt":5,
    "alone":6,
    "ive":6,
    "where":6,
    "little":6,
    "woman":6,
    "hundred":6,
    "jeez":6,
    "youve":6,
    "hockey":6,
    "wont":6,
    "keenan":6,
    "hair":6,
    "dude":6,
    "yourself":6,
    "excuse":6,
    "sec":6,
    "own":6,
    "again":6,
    "youll":6,
    "keen":6,
    "figure":6,
    "everything":6,
    "damn":6,
    "change":6,
    "happen":6,
    "trust":6,
    "believe":6,
    "another":6,
    "never":6,
    "before":6,
    "truth":6,
    "switch":6,
    "supposed":6,
    "wasnt":6,
    "us":6,
    "going":7,
    "id":7,
    "hang":7,
    "those":7,
    "world":7,
    "forget":7,
    "new":7,
    "wrong":7,
    "definitely":7,
    "em":7,
    "whoa":7,
    "crazy":7,
    "cool":7,
    "away":7,
    "came":7,
    "by":7,
    "guess":7,
    "fine":7,
    "exactly":7,
    "anyone":7,
    "keep":7,
    "much":7,
    "else":7,
    "nothing":7,
    "female":7,
    "does":7,
    "both":7,
    "been":8,
    "try":8,
    "gettin":8,
    "find":8,
    "call":8,
    "weird":8,
    "max":8,
    "more":8,
    "give":8,
    "best":8,
    "matter":8,
    "hot":8,
    "gets":8,
    "down":8,
    "take":8,
    "straight":8,
    "alright":8,
    "luca":8,
    "whatever":8,
    "attracted":8,
    "uh":9,
    "whole":9,
    "first":9,
    "part":9,
    "gotta":9,
    "let":9,
    "such":9,
    "talk":9,
    "any":9,
    "time":9,
    "then":9,
    "said":9,
    "please":9,
    "doesnt":9,
    "place":9,
    "only":9,
    "half":9,
    "work":9,
    "his":10,
    "every":10,
    "would":10,
    "michelle":10,
    "hey":10,
    "help":10,
    "better":10,
    "over":10,
    "yes":10,
    "girls":10,
    "cause":10,
    "ever":10,
    "why":11,
    "than":11,
    "make":11,
    "ill":11,
    "should":11,
    "theres":12,
    "fuck":12,
    "janine":12,
    "around":12,
    "some":12,
    "hell":12,
    "z":12,
    "good":13,
    "thought":13,
    "great":13,
    "will":13,
    "as":13,
    "love":13,
    "thanks":14,
    "two":14,
    "they":14,
    "come":14,
    "guys":14,
    "being":14,
    "something":15,
    "say":15,
    "off":15,
    "am":15,
    "did":16,
    "huh":16,
    "were":16,
    "god":16,
    "when":16,
    "goin":16,
    "didnt":17,
    "shes":17,
    "could":17,
    "thats":17,
    "into":17,
    "see":18,
    "tell":18,
    "back":18,
    "luke":18,
    "had":18,
    "an":19,
    "at":19,
    "sure":19,
    "how":20,
    "sorry":20,
    "from":20,
    "got":20,
    "who":20,
    "well":20,
    "or":20,
    "even":22,
    "look":22,
    "maybe":22,
    "mean":22,
    "need":22,
    "up":23,
    "too":23,
    "man":24,
    "girl":25,
    "there":25,
    "whats":25,
    "here":26,
    "go":26,
    "cant":27,
    "him":27,
    "about":28,
    "yeah":29,
    "now":29,
    "guy":30,
    "she":31,
    "thing":31,
    "we":32,
    "way":32,
    "can":32,
    "hes":32,
    "right":33,
    "have":33,
    "if":33,
    "one":34,
    "are":35,
    "all":35,
    "really":35,
    "gonna":35,
    "okay":36,
    "out":38,
    "her":39,
    "want":41,
    "your":42,
    "get":44,
    "so":44,
    "do":44,
    "he":44,
    "in":45,
    "like":45,
    "for":47,
    "think":47,
    "with":47,
    "my":48,
    "but":48,
    "on":48,
    "dont":50,
    "of":52,
    "was":52,
    "oh":55,
    "is":55,
    "be":56,
    "know":64,
    "not":65,
    "no":67,
    "its":70,
    "youre":71,
    "and":71,
    "that":74,
    "this":77,
    "just":83,
    "im":99,
    "what":103,
    "it":108,
    "me":109,
    "the":150,
    "to":190,
    "a":215,
    "i":276,
    "you":367
}